{"rows": [{"title": "I Doubt They Would Notice the Mustachioed Man\u2019s Wife", "view_node": "/poem/i-doubt-they-would-notice-mustachioed-mans-wife", "field_author": "<a href=\"/poet/david-welch\" hreflang=\"en\">David Welch</a>", "field_date_published": "2018", "body": "<blockquote><sup><em>\u00a0 \u00a0 \u00a0 \u00a0 \u00a0 \u00a0\u2014<a href=\"https://poets.org/poet/john-ashbery\">John Ashbery</a></em></sup></blockquote>\n\n<p><span class=\"long-line\">How you carry yourself in</span><br /><span class=\"long-line\">the train station says a lot</span><br /><span class=\"long-line\">about the Constitution \u00a0 \u00a0 what \u00a0</span><br /><span class=\"long-line\">it lets you experience in</span><br /><span class=\"long-line\">the eyes of the engineers</span><br /><span class=\"long-line\">and how one day you may</span><br /><span class=\"long-line\">believe it necessary to board</span><br /><span class=\"long-line\">the express out of town</span><br /><span class=\"long-line\">you tell no one\u00a0 \u00a0 \u00a0and in this</span><br /><span class=\"long-line\">you take your freedom</span><br /><span class=\"long-line\">you take a cold sandwich</span><br /><span class=\"long-line\">from the thin man pushing</span><br /><span class=\"long-line\">his cart down the aisle\u00a0 \u00a0 \u00a0outside</span><br /><span class=\"long-line\">the trees impress the darkness</span><br /><span class=\"long-line\">of the train as you pass</span><br /><span class=\"long-line\">into the middle of America</span><br /><span class=\"long-line\">so much change rattles</span><br /><span class=\"long-line\">around in your head you know</span><br /><span class=\"long-line\">you cannot sleep\u00a0 \u00a0 \u00a0you</span><br /><span class=\"long-line\">know sleep is for those</span><br /><span class=\"long-line\">on slower land\u00a0 \u00a0 \u00a0around their heads\u00a0</span><br /><span class=\"long-line\">it is morning\u00a0 \u00a0 \u00a0the alarms</span><br /><span class=\"long-line\">have yet to sound\u00a0 \u00a0 \u00a0this pleases</span><br /><span class=\"long-line\">you\u00a0 \u00a0 \u00a0the trains are moving swiftly\u00a0</span><br /><span class=\"long-line\">at their destinations</span></p>\n"}, {"title": "Notes For Further Study", "view_node": "/poem/notes-further-study", "field_author": "<a href=\"/poet/christopher-salerno\" hreflang=\"en\">Christopher Salerno</a>", "field_date_published": "2018", "body": " <p>You are a nobody<br />until another man leaves<br />a note under your wiper:<br /><em>I like your hair, clothes, car\u2014call me!</em><br />Late May, I brush pink<br />Crepe Myrtle blossoms<br />from the hood of my car.<br />Again spring factors<br />into our fever. Would this<br />affair leave any room for error?<br />What if I only want<br />him to hum me a lullaby.<br />To rest in the nets<br />of our own preferences.<br />I think of women<br />I\u2019ve loved who, near the end,<br />made love to me solely<br />for the endorphins. Praise<br />be to those bodies lit<br />with magic. I pulse<br />my wipers, sweep away pollen<br />from the windshield glass<br />to allow the radar<br />detector to detect. In the prim<br />light of spring I drive<br />home alone along the river\u2019s<br />tight curves where it bends<br />like handwritten words.<br />On the radio, a foreign love<br />song some men sing to rise.</p> "}, {"title": "Peach Woman", "view_node": "/poem/peach-woman", "field_author": "<a href=\"/poet/emily-hunerwadel\" hreflang=\"en\">Emily Hunerwadel</a>", "field_date_published": "2018", "body": "<p><span class=\"\u201clong-line\u201d\">She\u2019s saying</span><br /><span class=\"long-line\">I wish there could be a metaphorical</span><br /><span class=\"long-line\">investigative committee</span><br /><span class=\"long-line\">and I\u2019m saying</span><br /><span class=\"long-line\">therapy or a priest?</span><br /><br /><span class=\"long-line\">and, behind us,</span><br /><span class=\"long-line\">the excellence of bright children</span><br /><br /><span class=\"long-line\">and, on our walk home,</span><br /><span class=\"long-line\">the left glove</span><br /><br /><span class=\"long-line\">and I\u2019m saying</span><br /><span class=\"long-line\">I\u2019m fueled by kissing and crimes</span><br /><span class=\"long-line\">against the environment</span><br /><br /><span class=\"long-line\">and she\u2019s saying</span><br /><span class=\"long-line\">the cat shaped depression in this cushion</span><br /><br /><span class=\"long-line\">the necessity of the cat</span><br /><br /><span class=\"long-line\">and I\u2019m saying</span><br /><span class=\"long-line\">I\u2019ve never met a silk sheet I didn\u2019t want to ruin</span><br /><br /><span class=\"long-line\">and, at home,</span><br /><span class=\"long-line\">the fingerprints disappearing</span><br /><span class=\"long-line\">from your grandfather\u2019s coat</span><br /><br /><span class=\"long-line\">the way we carve people out like water through a rock face</span><br /><span class=\"long-line\">the way we read it on their faces</span><br /><span class=\"long-line\">like laundry lines</span><br /><span class=\"long-line\">like clouds</span></p>\n"}, {"title": "California No", "view_node": "/poem/california-no", "field_author": "<a href=\"/poet/rae-gouirand\" hreflang=\"en\">Rae Gouirand</a>", "field_date_published": "2018", "body": "<p><span class=\"long-line\">You say intimacy breathes.</span><br /><span class=\"long-line\">I drop in.</span></p>\n\n<p><span class=\"long-line\">I know the sexiest</span><br /><span class=\"long-line\">sentence there is\u2014the most</span></p>\n\n<p><span class=\"long-line\">erotic. I know it</span><br /><span class=\"long-line\">like I know the last moment</span></p>\n\n<p><span class=\"long-line\">wants to draw us</span><br /><span class=\"long-line\">closest.</span></p>\n\n<p><span class=\"long-line\">If we could say\u00a0<em>it doesn\u2019t go</em>\u2014</span><br /><span class=\"long-line\">plainly as that</span></p>\n\n<p><span class=\"long-line\">knowing the most intimate</span><br /><span class=\"long-line\">line there is</span></p>\n\n<p><span class=\"long-line\">or\u00a0<em>I know</em></span><br /><span class=\"long-line\">simultaneously</span></p>\n\n<p><span class=\"long-line\">on so many occasions those</span><br /><span class=\"long-line\">yes yes yeses almost</span></p>\n\n<p><span class=\"long-line\">what they yesed\u2014</span></p>\n"}, {"title": "The Knife", "view_node": "/poem/knife", "field_author": "<a href=\"/poet/rodney-gomez\" hreflang=\"en\">Rodney Gomez</a>", "field_date_published": "2018", "body": " <p>What can you say about the knife that hasn't already been said? It is the same knife today as it was yesterday. Even if the law decided to melt it down, it would still be a knife tomorrow. You can travel back through the history of the knife &amp; discover the America-like violence of its birth, how it carved yokes into brown bodies &amp; how it chose night as its uniform. The knife very quickly discovered skin, blood, &amp; the poor. The knife is an instrument &amp; so takes its identity from the purpose of the hand that uses it. The knife can glide gracefully down a backbone in mimicry of a feather. Or it can leap from one carved island of bone to another. When I was given the knife I pretended to be a survivalist even though I lived in the inner city. The knife melted into milk in my hands &amp; I poured it into the wailing mouth of my baby. It was redelivered into the world &amp; made its way to an open sewer. A woodpecker used the knife to cut down the lone acacia on the block. The tree tumbled &amp; soon it was as if nothing had ever grown there. Except the knife. From a sandy oval in concrete, the knife jutted like a mouse tail. It waited for someone who believed in dynamite.</p> "}, {"title": "Story About a Glacier", "view_node": "/poem/story-about-glacier", "field_author": "<a href=\"/poet/rodney-gomez\" hreflang=\"en\">Rodney Gomez</a>", "field_date_published": "2018", "body": " <p>What I won\u2019t tell you is how I became a flute<br />and brushed against lips but there was no music.<br />When the blows came furious as juniper.<br /><br />There were days when I was a parachute<br />and the wind was free but kind. I won\u2019t lie<br />and say there were no such days. There were days<br /><br />when I curled into hailstone and pretended<br />it was only breezing outside. Another man\u2019s music.<br />Eventually the need to unfurl overcame the need<br /><br />to stay anchored. Tsunami greeted me in its maw.<br />I have his smell all about me but it dwindles every day.<br />What I won\u2019t tell you is how I escaped. One day<br /><br />I met a map at a bar. It pointed to a gash on its head<br />and said I could get there by becoming someone else.<br />Most of me was still scrawled on a carpet under a belt.<br /><br />What was there to lose that I hadn\u2019t already lost?<br />Alone, in the middle of the night, the road smelled<br />like freshly sawed mesquite. I wormed my way out.<br /><br />A buckle still loomed in the background.<br />And I told myself,\u00a0<em>there is no gleam.</em></p> "}, {"title": "Catechism for the Missing", "view_node": "/poem/catechism-missing", "field_author": "<a href=\"/poet/rodney-gomez\" hreflang=\"en\">Rodney Gomez</a>", "field_date_published": "2018", "body": " <p>\u00a0\u00a0\u00a0\u00a0 \u201cSnow where the horse impresses itself / is solitude, a gallop of grief.\u201d \u2014Miguel Hern\u00e1ndez</p><p>What use is a language<br />that lacks a name for hazard?</p><p>When wheat brays in an alley.</p><p>Where do you go<br />if you aren\u2019t born<br />an adoration?</p><p>If you start the book<br />of brutality<br />you will never finish,</p><p>knowing how many<br />teeth go missing<br />every year.</p><p>A trapped animal<br />will tell you</p><p>how each chrysalis<br />necessarily entombs</p><p>a liberating force.</p><p>When water hisses in a barrel.</p><p>How many excuses<br />for the absence<br />of footprints about the body?</p><p>Even the desert<br />has a language</p><p>capable of uncovering<br />the ontology of the castaway.</p><p>Around the ocotillo,<br />around the narthex and dumpster,</p><p>each mouth exhales<br />a shrine.</p>\n<pre></pre>\n "}, {"title": "As due by many titles I resign (Holy Sonnet II)", "view_node": "/poem/due-many-titles-i-resign-holy-sonnet-ii", "field_author": "<a href=\"/poet/john-donne\" hreflang=\"und\">John Donne</a>", "field_date_published": "2018", "body": " <pre>As due by many titles I resign\nMyself to thee, O God. First I was made\nBy Thee; and for Thee, and when I was decay\u2019d\nThy blood bought that, the which before was Thine.\nI am Thy son, made with Thyself to shine,\nThy servant, whose pains Thou hast still repaid,\nThy sheep, Thine image, and\u2014till I betray\u2019d\nMyself\u2014a temple of Thy Spirit divine.\nWhy doth the devil then usurp on me?\nWhy doth he steal, nay ravish, that\u2019s Thy right?\nExcept Thou rise and for Thine own work fight,\nO! I shall soon despair, when I shall see\nThat Thou lovest mankind well, yet wilt not choose me,\nAnd Satan hates me, yet is loth to lose me.\n\n</pre>\n "}, {"title": "Pity the Doctor, Not the Disease", "view_node": "/poem/pity-doctor-not-disease", "field_author": "<a href=\"/poet/erin-belieu\" hreflang=\"und\">Erin Belieu</a>", "field_date_published": "2018", "body": " <p>Science in its tedium reveals<br />that each spirit we spirit<br /><br />ganks a solid half hour from<br />our life spans.<br /><br />Or so says my doctor, a watery,<br /><br />Jesus-eyed man, and hard to suffer<br />with his well-intended scrips for yoga<br /><br />and neti pots, notably stingy with the better<br /><br />drugs, <em>in situ</em> here amongst the disinfected<br />toys dreadful in their plastic baskets.<br /><br />Above his head, the flayed men of medical<br />illustration are nailed for something like<br /><br />d\u00e9cor. The eyeball scheme is best,<br /><br />with its wondrous Canal of Schlemm,<br />first favorite of all weirdly named<br /><br />eponymous body parts. It\u2019s just a splotch<br />of violet on the diagram, but without which<br /><br />our aqueous humours would burst<br />their meshy dams and overflow. <em>Tears,<br /><br />idle tears\u2026so sad, so fresh the days<br />that are no more\u2026</em>is what I quote to him<br /><br />as he thumps my back with his tiny<br />doctor\u2019s\u2019 tomahawk. But he\u2019s used to me.<br /><br />We have an understanding. What he<br />means to miser, I\u2019ve come to spend<br /><br />most lavishly. And I feel fortunate again,</p><p>to be historically shaky in the maths,<br />enough to avoid making an easy sum<br /><br />of my truly happy hours, or nights curled\u00a0<br /><br />sulfurous on my side, a priced-to-sell<br />shrimp boiling in anxious sleep.<br /><br />If we\u2019re lucky, it\u2019s always a terrible time<br /><br />to die. Better the privilege of booze<br />than the whim of one more shambolic<br /><br />butcher shelling peasants in a wood,<br />our world\u2019s long spree of Caesars<br /><br />starting wars to pay their bills<br />in any given era\u2019s Rome. Turns out,<br /><br />Lord Alfred\u2019s stomach did for him,<br />and he died thirsty, calling for more opium.<br /><br />Free of the exam room now, I spot the same<br /><br />tattered goldfish in his smeary bowl<br />beside the door where he\u2019s glugged along<br /><br />for years, a mostly failed distraction<br /><br />for poxed or broken children. I raise my fin<br />to him, celebrate the poison we\u2019re all<br /><br />swimming in, remembering the way<br />you say cheers in Hungarian:<br /><br /><em>Isten Isten</em>, meaning, in translation,<br />\u201cI\u2019m a god. You\u2019re a god.\u201d</p><p>\u00a0</p><p>\u00a0</p> "}, {"title": "Round 3", "view_node": "/poem/round-3", "field_author": "<a href=\"/poet/eloisa-amezcua\" hreflang=\"en\">Eloisa Amezcua</a>", "field_date_published": "2018", "body": " <pre>            <em>after Tyehimba Jess</em> \n\nFreedom is what you can buy \nwith a left jab &amp; a right cross. \n\nYou\u2019ve got the uppercut of a champ.\nOn a sweaty August night, you watch \n\nRamos v Ramos from the Olympic\non TV. You turn off the blaring AC, \n\nwant to hear the fighters\u2019 <em>tssiiuu tssiiuu</em>, exhaling\nas they attempt to break each other\u2019s skin. \n\nYou\u2019re light on your feet like Mando, \ngot Sugar\u2019s hand speed. Freedom \n\nis your girl by your side telling you to fight. \nShe brings your boxing license \n\nin a lunch bag while you labor \nat Lockheed, roots for you in Rocky \n\nLane\u2019s garage on a Sunday \nas you spar any man who dares.\n \nShe wipes your burning face \nwith a cool towel, the sinewed shape \n\nof your body surfacing quick \nafter you trade in Budweiser for a jump\n \nrope. Freedom is the rattle in your jaw \nthe first time you take a hook \n\nto the gut, the way a glove slides \nacross your nose slick with Vaseline \n\nas you size up the weary contender, \nknow that look in his eyes that whispers \n\nacross the canvas between rounds. <em>Finish me \nalready</em>, body shriveling in the corner, <em>you\u2019ve won</em>.\n</pre>\n "}, {"title": "The Broken Man\u2019s Permission", "view_node": "/poem/broken-mans-permission", "field_author": "<a href=\"/poet/aaron-coleman\" hreflang=\"en\">Aaron Coleman</a>", "field_date_published": "2018", "body": "<p><span class=\"long-line\">A crocodile slips its earth-toned body </span><br /><span class=\"long-line\">back into the river, in silence, violence down</span><br /><span class=\"long-line\">and for its nightness</span></p>\n\n<p><span class=\"long-line\">I cannot see the water. With fear </span><br /><span class=\"long-line\">I am alone. Slick rocks smile thin anonymous light, they lie</span></p>\n\n<p><span class=\"long-line\">about what I am. I see and try to hold</span><br /><span class=\"long-line\">my body in my body, trace a vein </span><br /><span class=\"long-line\">from the base of my palm through </span></p>\n\n<p><span class=\"long-line\">the crook of my elbow, armpit, home\u2014home </span><br /><span class=\"long-line\">makes no sense. I've given up on what I know.</span></p>\n\n<p><span class=\"long-line\">This blindness is a mirror turning</span><br /><span class=\"long-line\">back to sand still hollowed, where </span><br /><span class=\"long-line\">every sound is amplified. I want to be the crocodile\u2019s</span></p>\n\n<p><span class=\"long-line\">stomach that is my father, teeth</span><br /><span class=\"long-line\">that are my mother, vertebrae </span></p>\n\n<p><span class=\"long-line\">that aggregate the spine that are loves, knuckled</span><br /><span class=\"long-line\">angles casing nerves. It\u2019s me wading around</span><br /><span class=\"long-line\">inside, mouth open. A humid numbness dense, low, </span></p>\n\n<p><span class=\"long-line\">beneath the undertow: hands that coax and claim</span><br /><span class=\"long-line\">my scaled neck, soothe and pull</span></p>\n\n<p><span class=\"long-line\">each knotted shoulder. I give in to a third of moon caught</span><br /><span class=\"long-line\">in cloud, its orange-grey halo drawn away </span><br /><span class=\"long-line\">from what can be named, known. A curse and prayer </span></p>\n\n<p><span class=\"long-line\">to go unchanged within this water, my movement </span><br /><span class=\"long-line\">foreign, a rootless gurgle, flit of river vines</span></p>\n\n<p><span class=\"long-line\">caging the dwindling</span><br /><span class=\"long-line\">river\u2019s brutal bed, the gorge, flushed </span><br /><span class=\"long-line\">with new food: the blue heron\u2019s bone-flight collapsed,</span></p>\n\n<p><span class=\"long-line\">tangled feathers along the mudglut bank\u2019s </span><br /><span class=\"long-line\">saliva, lifting like shame in the open.</span></p>\n"}, {"title": "1987", "view_node": "/poem/1987", "field_author": "<a href=\"/poet/paul-guest\" hreflang=\"und\">Paul Guest</a>", "field_date_published": "2018", "body": "<p><span class=\"long-line\">I began to die, then. I think</span><br /><span class=\"long-line\">I was asleep. Dreaming</span><br /><span class=\"long-line\">of an afterlife that revised</span><br /><span class=\"long-line\">my flesh into what</span><br /><span class=\"long-line\">I had wanted. Why do</span><br /><span class=\"long-line\">I think of Ronald Reagan</span><br /><span class=\"long-line\">the way one recalls</span><br /><span class=\"long-line\">vague nightmare:</span><br /><span class=\"long-line\">the sick heart and terror</span><br /><span class=\"long-line\">which is percussive.</span><br /><span class=\"long-line\">Was this the year</span><br /><span class=\"long-line\">I saw him at the airport.</span><br /><span class=\"long-line\">Men grimly tested</span><br /><span class=\"long-line\">my body for hidden death,</span><br /><span class=\"long-line\">waving a wand up</span><br /><span class=\"long-line\">and down. My left arm</span><br /><span class=\"long-line\">healed wrongly</span><br /><span class=\"long-line\">and it was surgery</span><br /><span class=\"long-line\">that put it right. Look,</span><br /><span class=\"long-line\">if you want, at</span><br /><span class=\"long-line\">the pale stippling of scar,</span><br /><span class=\"long-line\">there. Some nights I wake</span><br /><span class=\"long-line\">and everything hurts</span><br /><span class=\"long-line\">a little. It is</span><br /><span class=\"long-line\">amazing how long</span><br /><span class=\"long-line\">a ruined thing</span><br /><span class=\"long-line\">will burn. In the night,</span><br /><span class=\"long-line\">there are words,</span><br /><span class=\"long-line\">though often I've denied</span><br /><span class=\"long-line\">their shape. Their sound.</span><br /><span class=\"long-line\">My soul: whatever</span><br /><span class=\"long-line\">it sings it is singing.</span></p>\n"}, {"title": "Homecoming Cistern Alien Vessel", "view_node": "/poem/homecoming-cistern-alien-vessel", "field_author": "<a href=\"/poet/gabrielle-calvocoressi\" hreflang=\"und\">Gabrielle Calvocoressi</a>", "field_date_published": "2018", "body": " <pre>Oh, my planet, how beautiful \nyou are. Little curve that leads me \nto the lakeside. Let me step out\n\nof the sack of skin I wore \non earth. It\u2019s good to be home. \nNo more need to name me. No more \n\nneed to make the shape of a machete\nwith my mouth. Pushing up up up the tired \nsides that want to drop below my teeth.\n\nLord, I\u2019ve missed you. The streets\ncovered all day in light from the moons. \nI was confused all the time. I wanted so much.\n\nMy hole felt like a gut with an antler\nrammed through it. So lonely and strange\nand always trying to smile. Coin of the realm.\n\nAnd my arms open and my life\ncoming in and out of the \u201cATM.\u201d\nOnce I saw a fox leap inside the morning\n\nlight and made the same shape\nof myself. Once I watched the boats\nand also rocked back and forth.\n\nHow does every person not cry out \nall the time? Yes, it was good to eat \ndoughnuts. Yes. I was blessed by many \n\ndays of joy. A rabbit in the driveway.\nA rosemary bush with a sorcerer\u2019s cloak\nof spider webs. Brian Eno. \n\nThe Hammond B3 Organ that never asked\nme who I knew. But that body.\nLike a factory. That mind like a ship\n\nbuilt to pile in other bodies. Skin like a\nsow without any of the sow\u2019s equanimity.\nIt reflected nothing. Pink skin. Blue eyes\n\nhard as an anvil. Like a window with covering\nthat refuses the passerby\u2019s gaze. I loved \nthe bully power some days. Oh my pleasure \n\nin <em>not</em> causing harm. My pride. I\u2019m not like \nso-and-so. My pink skin preaching, my pink skin \nyawping out my other hole, \u201cI did not choke \n\nthe man with my elbow!\u201d \u201cWould never!\u201d \n\u201cI let <em>all</em> the boys in hoodies walk\nthrough dark streets.\u201d \u201cI did not shoot\n\nthem with my guns!\u201d The ship rising\nup inside me. As if the fox felt pride \nfor not tearing the bird to pieces. As if \n\nthe owl\u2019s heart grew large from not \nwrecking the squirrel\u2019s nest. My pink skin \na sail full of indignation. My eyes pitching\n\nacross the feed. It is so good to be home\nand yet. I have a ship inside. How can \nthe organ welcome me? I\u2019m not a sow \n\non her worst day. Which would be what? \nBreaking from the barn? Eating all the acorns\nand rolling in the mud? No.\n\nHer worst would be at my hands \nand on my plate for supper. <em>Grow\nlike the tree</em>, the man who heals\n\nthe bodies said. In every way I became\nthe ship rising in the harbor. \nHow can I be welcomed after that?\n</pre>\n "}, {"title": "The Poet", "view_node": "/poem/poet-0", "field_author": "<a href=\"/poet/yone-noguchi\" hreflang=\"und\">Yone Noguchi</a>", "field_date_published": "1921", "body": " <pre>Out of the deep and the dark,\n\nA sparkling mystery, a shape, \n\nSomething perfect,\n\nComes like the stir of the day:\n\nOne whose breath is an odour,\n\nWhose eyes show the road to stars,\n\nThe breeze in his face,\n\nThe glory of Heaven on his back.\n\nHe steps like a vision hung in air,\n\nDiffusing the passion of Eternity;\n\nHis abode is the sunlight of morn,\n\nThe music of eve his speech:\n\nIn his sight,\n\nOne shall turn from the dust of the grave,\n\nAnd move upward to the woodland.\n</pre>\n "}, {"title": "XII", "view_node": "/poem/xii", "field_author": "<a href=\"/poet/sappho\" hreflang=\"und\">Sappho</a>", "field_date_published": "1907", "body": " <pre>In a dream I spoke with the Cyprus-born,\n      And said to her,\n\"Mother of beauty, mother of joy,\nWhy hast thou given to men\n\n\n\"This thing called love, like the ache of a wound\n      In beauty's side,\nTo burn and throb and be quelled for an hour\nAnd never wholly depart?\"\n\nAnd the daughter of Cyprus said to me,\n      \"Child of the earth,\nBehold, all things are born and attain,\nBut only as they desire,\u2014\n\n\"The sun that is strong, the gods that are wise,\n     The loving heart,\nDeeds and knowledge and beauty and joy,\u2014\nBut before all else was desire.\"\n</pre>\n "}, {"title": "from &quot;Dissolve&quot;", "view_node": "/poem/dissolve", "field_author": "<a href=\"/poet/sherwin-bitsui\" hreflang=\"und\">Sherwin Bitsui</a>", "field_date_published": "2018", "body": " <pre>There\u2019s a way out\u2014\nwalk the dirt road into cerulean dawn, \ntap the windows of cars and trucks \nrattling down highway 77 \nwith clear fingerprints, \nand clasp the nine eyes of the desert \nshut at the intersection of <em>then</em> and <em>now</em>. \n\nAsk: will this whirlwind \nconnect to that one,\n          making them cousins to the knife? \n\nWill lake mist etched \non flakes of flood-birthed moonlight \nhang its beard on a tow truck\nhoisting up a buck,  \t\n          butterflies leaking from its nostrils, \n          dark clouds draining off its cedar coat? \n</pre>\n "}, {"title": "Playlist: 11 Weeks", "view_node": "/poem/playlist-11-weeks", "field_author": "<a href=\"/poet/kendra-decolo\" hreflang=\"en\">Kendra DeColo</a>", "field_date_published": "2018", "body": " <pre>1. lush field of shadows, static\n    hush and radial itch, primordial\n\n2. goo of the sonogram's wand \n    gliding across my belly\n\n3. my daughter blooming\n    into focus, feathered\n\n4. and fluttering across the stormy\n    screen, the way it rained \n\n5. so hard one night in April\n    driving home from the caf\u00e9 in Queens\n\n6. where we\u2019d eaten sweet tamales\n    I thought we might drown\n\n7. in the flooded streets\n    but we didn\u2019t and I want to say\n\n 8. that was the night she was conceived:\n     husk and sugar,\n\n9. an apartment filled with music, \n    hiss of damp clothes \n\n10. drying on the radiator, \n      a prayer made with a record\u2019s broken needle\n\n11. to become beaming\n      and undone.\n</pre>\n "}, {"title": "How Can Black People Write About Flowers at a Time Like This", "view_node": "/poem/how-can-black-people-write-about-flowers-time", "field_author": "<a href=\"/poet/hanif-abdurraqib\" hreflang=\"en\">Hanif Abdurraqib</a>", "field_date_published": "2018", "body": " <pre>dear reader, with our heels digging into the good \nmud at a swamp\u2019s edge, you might tell me something \nabout the dandelion &amp; how it is not a flower itself \nbut a plant made up of several small flowers at its crown \n&amp; lord knows I have been called by what I look like \nmore than I have been called by what I actually am &amp; \nI wish to return the favor for the purpose of this \nexercise. which, too, is an attempt at fashioning \nsomething pretty out of seeds refusing to make anything \n<span class=\"long-line\">worthwhile of their burial. size me up &amp; skip whatever semantics arrive </span>\n<span class=\"long-line\">to the tongue first. say: that boy he look like a hollowed-out grandfather </span>\nclock. he look like a million-dollar god with a two-cent \nheaven. like all it takes is one kiss &amp; before morning, \nyou could scatter his whole mind across a field.\n</pre>\n "}, {"title": "Diaspora Sonnet 25", "view_node": "/poem/diaspora-sonnet-25", "field_author": "<a href=\"/poet/oliver-de-la-paz\" hreflang=\"und\">Oliver de la Paz</a>", "field_date_published": "2018", "body": " <pre>The planet pulls our bodies through\nthe year. Delivers us, headlong,\n\ninto the tears in currents. The ebbs\nand flows of blood in chambers,\n\nbombastic and flooded with unremembered\nnames. Neighbors bourne feet first\n\nthrough their door arches.\nDown the corridors, lonesome\n\nand lost. Their voices suture\nthe silence behind them and\n\nthe little song pulsing its staccato \ncannot explain the day and the day\n\nand the day, like an arm and then \nanother pulled through a sleeve.\n\n</pre>\n "}, {"title": "It Was Summer Now and the Colored People Came Out Into the Sunshine", "view_node": "/poem/it-was-summer-now-and-colored-people-came-out-sunshine", "field_author": "<a href=\"/poet/morgan-parker\" hreflang=\"en\">Morgan Parker</a>", "field_date_published": "2018", "body": " <pre>They descend from the boat two by two. The gap in Angela Davis\u2019s teeth speaks to the gap in James Baldwin\u2019s teeth. The gap in James Baldwin\u2019s teeth speaks to the gap in Malcolm X\u2019s Teeth. The gap in Malcolm X\u2019s teeth speaks to the gap in Malcolm X\u2019s teeth. The gap in Condoleezza Rice\u2019s teeth doesn\u2019t speak. Martin Luther King Jr. Boulevard kisses the Band Aid on Nelly\u2019s cheek. Frederick Douglass\u2019s side part kisses Nikki Giovanni\u2019s <em>Thug</em> <em>Life</em> tattoo. The choir is led by Whoopi Goldberg\u2019s eyebrows. The choir is led by Will Smith\u2019s flat top. The choir loses its way. The choir never returns home. The choir sings funeral instead of wedding, sings funeral instead of allegedly, sings funeral instead of help, sings Black instead of grace, sings Black as knucklebone, mercy, junebug, sea air. It is time for war.\n</pre>\n "}], "pager": {"current_page": 233, "total_items": "13248", "total_pages": 663, "items_per_page": 20}}