{"rows": [{"title": "A Grain of Sand", "view_node": "/poem/grain-sand", "field_author": "<a href=\"/poet/frances-ellen-watkins-harper\" hreflang=\"und\">Frances Ellen Watkins Harper</a>", "field_date_published": "1895", "body": " <div>Do you see this grain of sand</div><div>Lying loosely in my hand?</div><div>Do you know to me it brought</div><div>Just a simple loving thought?</div><div>When one gazes night by night</div><div>On the glorious stars of light,</div><div>Oh how little seems the span</div><div>Measured round the life of man.</div><div>\u00a0</div><div>Oh! how fleeting are his years</div><div>With their smiles and their tears;</div><div>Can it be that God does care</div><div>For such atoms as we are?</div><div>Then outspake this grain of sand</div><div>\"I was fashioned by His hand</div><div>In the star lit realms of space</div><div>I was made to have a place.\"</div><div>\u00a0</div><div>Should the ocean flood the world,</div><div>Were its mountains 'gainst me hurled</div><div>All the force they could employ</div><div>Wouldn't a single grain destroy;</div><div>And if I, a thing so light,</div><div>Have a place within His sight;</div><div>You are linked unto his throne</div><div>Cannot live nor die alone.</div> "}, {"title": "War Within Myself", "view_node": "/poem/war-within-myself", "field_author": "<a href=\"/poet/daniel-k\" hreflang=\"en\">Daniel K.</a>", "field_date_published": "2019", "body": " <pre>I've been fighting a War Within Myself all my life,\nTired of the hurt, the pain, the strife.\nAnger consumes me from day to day,\nCellies now walking on eggshells, unsure of what to say.\nI do pray each night for the peace that I need in my heart,\nI need it before I tear what friendships I have apart.\nPrison has a funny way of doing some things,\nLeaves me wondering what tomorrow may bring.\nI'm tired of the hate, anger and pain that I feel,\nI just want my heart and soul to be healed.\nI want to be able to simply laugh at a joke,\nI need someone to help me before I lose all hope.\n<span class=\"long-line\">My heart is almost completely hardened with what I've been through,</span>\nI need someone, anyone, maybe that someone is you.\nI'm fighting a War Within Myself, and I'm so tired,\nSo nervous, scared, like I'm on a high tight wire.\nI hope that I don't fall before someone catches me,\nBut then again... maybe it's my destiny.\n</pre>\n "}, {"title": "Sometimes I Cry", "view_node": "/poem/sometimes-i-cry", "field_author": "<a href=\"/poet/dj\" hreflang=\"en\">DJ        </a>", "field_date_published": "2019", "body": " <pre>I told a million lies now it\u2019s time to tell a single truth\nSometimes I cry\nIt\u2019s hard dealing with my pride\nNot knowing whether to fight or flee\nSometimes I cry\nHard to maintain this image of a tough guy\nWhen deep down inside I am terrified\nIf I ever told you I wasn\u2019t scared I lied\nStruggling to make it back\nTo society and my family\nI cry\nI cry for my son who I barely see\nDue to these mountains\nAnd me and his mom\u2019s beef\nI cry for my siblings who never knew their older brother\nBecause he stayed in the streets\nI cry for my grandma who is now deceased\nI cry for my life, half of which they took for me\nI cry for my anger and rage\nThe only emotions I can show in this place\nI cry for how we treat each other inside these walls\nI cry for the lack of unity we have most of all\nWhen will it end I want to know\nTill then all I can do is let these tears flow\n</pre>\n "}, {"title": "A Cell", "view_node": "/poem/cell", "field_author": "<a href=\"/poet/johnny\" hreflang=\"en\">Johnny      </a>", "field_date_published": "2019", "body": " <pre>A metal bunk bed\nA mattress and hard pillow\nTwo lockers and one desk\nA toilet and sink\n \nA door that is closed\nHeat out the vent and it\u2019s hot\nI\u2019m sweating, yet it\u2019s cold\nA night light on, yet it\u2019s dark\n \nA sheet covers me\nYet I want more than a sheet\nThe floor is cold\nYet I need more than heat\n \nA window, but it\u2019s closed\nA mirror, but it's fogged\nA mind full of thoughts\nA heart of love that feels clogged\n \nA rush to go, yet I\u2019m here\nI say I smile, but it\u2019s a tear\nI say I\u2019m relaxed, but I\u2019m tense\nI say I\u2019m free, but see a fence\n</pre>\n "}, {"title": "The Mortal Lease", "view_node": "/poem/mortal-lease", "field_author": "<a href=\"/poet/edith-wharton\" hreflang=\"en\">Edith Wharton</a>", "field_date_published": "1909", "body": " <pre>II.\n\nBecause our kiss is as the moon to draw\nThe mounting waters of that red-lit sea\nThat circles brain with sense, and bids us be\nThe playthings of an elemental law,\nShall we forego the deeper touch of awe\nOn love's extremest pinnacle, where we,\nWinging the vistas of infinity,\nGigantic on the mist our shadows saw?\n\nShall kinship with the dim first-moving clod\nNot draw the folded pinion from the soul,\nAnd shall we not, by spirals vision-trod,\nReach upward to some still-retreating goal,\nAs earth, escaping from the night's control,\nDrinks at the founts of morning like a god?\n</pre>\n "}, {"title": "Love Songs (I)", "view_node": "/poem/love-songs-i", "field_author": "<a href=\"/poet/mina-loy\" hreflang=\"und\">Mina Loy</a>", "field_date_published": "1915", "body": " <pre>Spawn of fantasies\nSitting the appraisable\nPig Cupid            his rosy snout\nRooting erotic garbage\n\u201cOnce upon a time\u201d\nPulls a weed        white star-topped\nAmong wild oats sown in mucous membrane\nI would             an eye in a Bengal light\nEternity in a sky-rocket\nConstellations in an ocean\nWhose rivers run no fresher\nThan a trickle of saliva\n\n\nThere are suspect places\n\n\nI must live in my lantern\nTrimming subliminal flicker\nVirginal             to the bellows\nOf experience\n                               Colored glass.\n</pre>\n "}, {"title": "to be considered before inviting everyone to The Cookout\u2122", "view_node": "/poem/be-considered-inviting-everyone-cookouttm", "field_author": "<a href=\"/poet/rasheed-copeland\" hreflang=\"en\">Rasheed Copeland</a>", "field_date_published": "2019", "body": " <pre>the gone did not go so that we\u2019d endure\nplucking grapes from the potato salad\nwe did not stretch Frankie Beverly\u2019s voice\nlike a tent across this humble meadow\nof amber folk sipping gold sun through skin\nrejoicing over their continued breath\njust for you to invite anyone in\nable to pause the bloody legacy\nand distract your eyes with a flimsy act\nyou break all the unwritten covenants\nforged in the saved language of unmarked graves\nthose called to eat are those who starved with us\nand not those whose mouths still water\nwhen watching the grill\u2019s flame lick Uncle\u2019s arm\n</pre>\n "}, {"title": "Hon or We have both traveled from the other side of some hill, one side of which we may wish we could forget", "view_node": "/poem/hon-or-we-have-both-traveled-other-side-some-hill-one-side-which-we-may-wish-we-could-forget", "field_author": "<a href=\"/poet/anis-mojgani\" hreflang=\"en\">Anis Mojgani</a>", "field_date_published": "2019", "body": "<p><span class=\"long-line\">Love me stupid.</span><br /><span class=\"long-line\">Love me terrible.</span><br /><span class=\"long-line\">And when I am no</span><br /><span class=\"long-line\">mountain but rather</span><br /><span class=\"long-line\">a monsoon of imperfect</span><br /><span class=\"long-line\">thunder love me. When</span><br /><span class=\"long-line\">I am blue in my face</span><br /><span class=\"long-line\">from swallowing myself</span><br /><span class=\"long-line\">yet wearing my best heart</span><br /><span class=\"long-line\">even if my best heart</span><br /><span class=\"long-line\">is a century of hunger</span><br /><span class=\"long-line\">an angry mule breathing</span><br /><span class=\"long-line\">hard or perhaps even</span><br /><span class=\"long-line\">hopeful. A small sun.</span><br /><span class=\"long-line\">Little &amp; bright.</span></p>\n"}, {"title": "1000", "view_node": "/poem/1000", "field_author": "<a href=\"/poet/safia-elhillo\" hreflang=\"en\">Safia Elhillo</a>", "field_date_published": "2019", "body": "<pre>\nmy roommate one year in college\nwould say of my smallness \nthat any man who found me attractive\nhad a trace of the pedophilic  \n\n\n&amp; i would shrink                    newly girled\ntwenty-one with my eyebrows\nplucked to grownup arches             sprouting\nback every three weeks  \nin sharp little shoots             already men         \nhave tried to steal me\n\n\nin their taxis   corral me into alleyways\nof the new city            already\nthe demand  for my name              though\nno one ever asks how old i am\n\n\nthough no one ever did      i feel creaking\n&amp; ancient in the repetition\nof it all   i feel my girlhood gone for\ngenerations    my entire\nline of blood crowded with exhausted\nwomen            their unlined faces \n\n\nfrozen in time            with only a thickness\nabout the waist          a small shoot\nof gray to belie the years\n\n\ni make up names to hand\nto strangers at parties  \ni trim years from my age &amp; share without\nbeing asked    that i am\nfifteen              seventeen      &amp; no one blinks  \nno one             stops wanting       \n\n\ni am disappeared      like all the girls\nbefore me    around me \nall the girls to come             \n\n\neveryone thinks\ni am a little girl &amp; still\nthey hunt me               still they show their teeth        \ni am so tired i am\none thousand  years old          one thousand\nyears older when touched</pre>\n"}, {"title": "When I Am a Hummingbird", "view_node": "/poem/when-i-am-hummingbird", "field_author": "<a href=\"/poet/alan-michael-parker\" hreflang=\"und\">Alan Michael Parker</a>", "field_date_published": "2019", "body": " <pre>I love two dogs, even when they\u2019re killing\na baby possum near the columbines,\nshaking the varmint\nuntil the death squeal chokes to a gargle,\n \nand both dogs stand before the bloody marsupial\nnosing it to move,\n \nbecause that\u2019s Nature, right?\n(And whom did I just ask whether that was right?)\n(And what\u2019s a moral quandary for a possum?)\n \nI love the dog who leans,\nmatter-of-fact in her need,\nand the big smile of the small Pit Bull.\n \nBut when I am a hummingbird, finally,\nI will beat my wings\neighty times per second,\n \nthousands of seconds\nand eighty thousands and thousands\n \nof my splendiferous beating wings,\nfaster than all of the eighty thousand\nbeautiful things in the world,\n \nand no one will stop me or catch me\nor take my picture, I will be too fast,\n \nand I will dive into the meat\nof the possum\nand beat there,\nthe mean, bloody thing alive again.\n</pre>\n "}, {"title": "Jakarta, January", "view_node": "/poem/jakarta-january", "field_author": "<a href=\"/poet/sarah-kay\" hreflang=\"en\">Sarah Kay</a>", "field_date_published": "2019", "body": "<pre style=\"text-align: justify;\">\n<em>After Hanif Abdurraqib &amp; Frank O\u2019Hara</em>\n \nIt is the last class of the day &amp; I am teaching a classroom of sixth graders about poetry &amp; across town a man has walked into a Starbucks &amp; blown himself up while some other men throw grenades in the street &amp; shoot into the crowd of civilians &amp; I am 27 years old which means I am the only person in this room who was alive when this happened in New York City &amp; I was in eighth grade &amp; sitting in my classroom for the first class of the day &amp; I made a joke about how mad everyone was going to be at the pilot who messed up &amp; later added, <em>how stupid do you have to be for it to happen twice?</em> &amp; the sixth graders are practicing listing sensory details &amp; somebody calls out <em>blue skies</em> as a sight they love &amp; nobody in this classroom knows what has happened yet &amp; they do not know that the school is in <em>lockdown</em> which is a word we did not have when I was in sixth grade &amp; the whole class is laughing because a boy has called out <em>dog poop</em> as a smell he does not like &amp; what is a boy if not a glowing thing learning what he can get away with &amp; I was once a girl in a classroom on the lucky side of town who did not know what had happened yet &amp; <em>electrical fire</em> is a smell I did not know I did not like until my neighborhood smelled that way for weeks &amp; <em>blue skies</em> is a sight I have never trusted again &amp; poetry is what I reached for in the days when the ash would not stop falling &amp; there is a sixth grade girl in this classroom whose father is in that Starbucks &amp; she does not know what has happened yet &amp; what is a girl if not a pulsing thing learning what the world will take from her &amp; what if I am still a girl sitting in my classroom on the lucky side of town making a careless joke looking at the teacher for some kind of answer &amp; what if I am also the teacher without any answers looking back at myself &amp; what is an adult if not a terrified thing desperate to protect something you cannot save? &amp; how lucky do you have to be for it to miss you twice? &amp; tomorrow a sixth grade girl will come to class while her father has the shrapnel pulled from his body &amp; maybe she will reach for poetry &amp; the sky outside the classroom is so terribly blue &amp; the students are quiet &amp; looking at me &amp; waiting for a grown-up or a poem or an answer or a bell to ring &amp; the bell rings &amp; they float up from their seats like tiny ghosts &amp; are gone\n</pre>\n"}, {"title": "A Meeting", "view_node": "/poem/meeting", "field_author": "<a href=\"/poet/edith-wharton\" hreflang=\"en\">Edith Wharton</a>", "field_date_published": "2019", "body": " <p>On a sheer peak of joy we meet;<br />Below us hums the abyss;<br />Death either way allures our feet<br />If we take one step amiss.</p><p>One moment let us drink the blue<br />Transcendent air together\u2014<br />Then down where the same old work's to do<br />In the same dull daily weather.</p><p>We may not wait . . . yet look below!<br />How part? On this keen ridge<br />But one may pass. They call you\u2014go!<br />My life shall be your bridge.</p> "}, {"title": "The Old Pole Star", "view_node": "/poem/old-pole-star", "field_author": "<a href=\"/poet/edith-wharton\" hreflang=\"en\">Edith Wharton</a>", "field_date_published": "2019", "body": " <p>Before the clepsydra had bound the days<br />Man tethered Change to his fixed star, and said:<br />\"The elder races, that long since are dead,<br />Marched by that light; it swerves not from its base<br />Though all the worlds about it wax and fade.\"</p><p>When Egypt saw it, fast in reeling spheres,<br />Her Pyramids shaft-centred on its ray<br />She reared and said: \"Long as this star holds sway<br />In uninvaded ether, shall the years<br />Revere my monuments\u2014\" and went her way.</p><p>The Pyramids abide; but through the shaft<br />That held the polar pivot, eye to eye,<br />Look now\u2014blank nothingness! As though Change laughed<br />At man's presumption and his puny craft,<br />The star has slipped its leash and roams the sky.</p><p>Yet could the immemorial piles be swung<br />A skyey hair's-breadth from their rooted base,<br />Back to the central anchorage of space,<br />Ah, then again, as when the race was young,<br />Should they behold the beacon of the race!</p><p>Of old, men said: \"The Truth is there: we rear<br />Our faith full-centred on it. It was known<br />Thus of the elders who foreran us here,<br />Mapped out its circuit in the shifting sphere,<br />And found it, 'mid mutation, fixed alone.\"</p><p>Change laughs again, again the sky is cold,<br />And down that fissure now no star-beam glides.<br />Yet they whose sweep of vision grows not old<br />Still at the central point of space behold<br />Another pole-star: for the Truth abides.</p> "}, {"title": "Experience", "view_node": "/poem/experience-0", "field_author": "<a href=\"/poet/edith-wharton\" hreflang=\"en\">Edith Wharton</a>", "field_date_published": "2019", "body": " <p>I\u00a0</p><p>Like Crusoe with the bootless gold we stand\u00a0<br />Upon the desert verge of death, and say:\u00a0<br />\u201cWhat shall avail the woes of yesterday\u00a0<br />To buy to-morrow\u2019s wisdom, in the land\u00a0<br />Whose currency is strange unto our hand?\u00a0<br />In life\u2019s small market they had served to pay\u00a0<br />Some late-found rapture, could we but delay\u00a0<br />Till Time hath matched our means to our demand.\u201d\u00a0</p><p>But otherwise Fate wills it, for, behold,\u00a0<br />Our gathered strength of individual pain,\u00a0<br />When Time\u2019s long alchemy hath made it gold,\u00a0<br />Dies with us\u2014hoarded all these years in vain,\u00a0<br />Since those that might be heir to it the mould\u00a0<br />Renew, and coin themselves new griefs again.\u00a0</p><p><br />II</p><p>O Death, we come full-handed to thy gate,\u00a0<br />Rich with strange burden of the mingled years,\u00a0<br />Gains and renunciations, mirth and tears,\u00a0<br />And love\u2019s oblivion, and remembering hate,\u00a0<br />Nor know we what compulsion laid such freight\u00a0<br />Upon our souls\u2014and shall our hopes and fears\u00a0<br />Buy nothing of thee, Death? Behold our wares,\u00a0<br />And sell us the one joy for which we wait.\u00a0<br />Had we lived longer, life had such for sale,\u00a0<br />With the last coin of sorrow purchased cheap,\u00a0<br />But now we stand before thy shadowy pale,\u00a0<br />And all our longings lie within thy keep\u2014\u00a0<br />Death, can it be the years shall naught avail?\u00a0</p><p>\u201cNot so,\u201d Death answered, \u201cthey shall purchase sleep.\u201d</p> "}, {"title": "Chartres", "view_node": "/poem/chartres", "field_author": "<a href=\"/poet/edith-wharton\" hreflang=\"en\">Edith Wharton</a>", "field_date_published": "2019", "body": " <p>I</p><p>Immense, august, like some Titanic bloom,\u00a0<br />\u00a0\u00a0\u00a0The mighty choir unfolds its lithic core,\u00a0<br />Petalled with panes of azure, gules and or,\u00a0<br />\u00a0\u00a0\u00a0Splendidly lambent in the Gothic gloom,\u00a0<br />And stamened with keen flamelets that illume\u00a0<br />\u00a0\u00a0\u00a0The pale high-altar. On the prayer-worn floor,\u00a0<br />By worshippers innumerous thronged of yore,\u00a0<br />\u00a0\u00a0\u00a0A few brown crones, familiars of the tomb,\u00a0<br />The stranded driftwood of Faith\u2019s ebbing sea\u2014\u00a0<br />\u00a0\u00a0\u00a0For these alone the finials fret the skies,\u00a0<br />The topmost bosses shake their blossoms free,\u00a0<br />\u00a0\u00a0\u00a0While from the triple portals, with grave eyes,\u00a0<br />Tranquil, and fixed upon eternity,\u00a0<br />\u00a0\u00a0\u00a0The cloud of witnesses still testifies.\u00a0<br />\u00a0</p><p>II\u00a0</p><p>The crimson panes like blood-drops stigmatise\u00a0<br />\u00a0\u00a0\u00a0The western floor. The aisles are mute and cold.\u00a0<br />A rigid fetich in her robe of gold,\u00a0<br />\u00a0\u00a0\u00a0The Virgin of the Pillar, with blank eyes,\u00a0<br />Enthroned beneath her votive canopies,\u00a0<br />\u00a0\u00a0\u00a0Gathers a meagre remnant to her fold.\u00a0<br />The rest is solitude; the church, grown old,\u00a0<br />\u00a0\u00a0\u00a0Stands stark and grey beneath the burning skies.\u00a0<br />Well-nigh again its mighty framework grows\u00a0<br />\u00a0\u00a0\u00a0To be a part of nature\u2019s self, withdrawn\u00a0<br />From hot humanity\u2019s impatient woes;\u00a0<br />\u00a0\u00a0\u00a0The floor is ridged like some rude mountain lawn,\u00a0<br />And in the east one giant window shows\u00a0<br />\u00a0\u00a0\u00a0The roseate coldness of an Alp at dawn.</p> "}, {"title": "Albert Schirding", "view_node": "/poem/albert-schirding", "field_author": "<a href=\"/poet/edgar-lee-masters\" hreflang=\"und\">Edgar Lee Masters</a>", "field_date_published": "1916", "body": "<pre>\nJonas Keene thought his lot a hard one\nBecause his children were all failures.\nBut I know of a fate more trying than that:\nIt is to be a failure while your children are successes.\nFor I raised a brood of eagles\nWho flew away at last, leaving me\nA crow on the abandoned bough.\nThen, with the ambition to prefix Honorable to my name,\nAnd thus to win my children\u2019s admiration,\nI ran for County Superintendent of Schools,\nSpending my accumulations to win\u2014and lost.\nThat fall my daughter received first prize in Paris\nFor her picture, entitled, \u201cThe Old Mill\u201d\u2014\n(It was of the water mill before Henry Wilkin put in steam.)\nThe feeling that I was not worthy of her finished me.\n</pre>\n"}, {"title": "Prayer Severing the Cycle", "view_node": "/poem/prayer-severing-cycle", "field_author": "<a href=\"/poet/donte-collins\" hreflang=\"en\">Donte Collins</a>", "field_date_published": "2019", "body": "<blockquote><sup><em>for Tomica</em></sup></blockquote>\n\n<p><span class=\"long-line\">My love is as ancient as my blood.</span></p>\n\n<p><span class=\"long-line\">And of course my blood is still mine</span></p>\n\n<p><span class=\"long-line\">because a woman, sweetened black</span></p>\n\n<p><span class=\"long-line\">with good song, pulled me from the river</span></p>\n\n<p><span class=\"long-line\">like an axe pulled back from the bark.</span></p>\n\n<p><span class=\"long-line\">I learned <em>love</em>, first, as <em>scar</em>.</span></p>\n\n<p><span class=\"long-line\">And of course my love is only mine</span></p>\n\n<p><span class=\"long-line\">because I found the nerve to say it is.</span></p>\n\n<p><span class=\"long-line\"><em>Ha, My love is mine</em>.</span></p>\n\n<p><span class=\"long-line\">But was first my mother\u2019s. Not the <em>how</em></span></p>\n\n<p><span class=\"long-line\">but the <em>why</em>. But was first her mother\u2019s.</span></p>\n\n<p><span class=\"long-line\">Not the <em>how</em> but the <em>why</em>.</span></p>\n\n<p><span class=\"long-line\"><em>Not the how; Not the how; Not the how;</em></span><br /><em><span class=\"long-line\">Not the how; Not the how; Not the how.</span></em></p>\n\n<p><span class=\"long-line\">I am bored with this beat. I seek</span></p>\n\n<p><span class=\"long-line\">a different dance toward death.</span></p>\n\n<p><span class=\"long-line\">Lord, listen up. Lean in:</span></p>\n\n<p><span class=\"long-line\">I crave a love that happens as sweetly</span></p>\n\n<p><span class=\"long-line\">as it was named. If love must be swung,</span></p>\n\n<p><span class=\"long-line\">let it soften. Not split.</span></p>\n"}, {"title": "Inevitable", "view_node": "/poem/inevitable", "field_author": "<a href=\"/poet/mahogany-l-browne\" hreflang=\"en\">Mahogany L. Browne</a>", "field_date_published": "2019", "body": " <pre>when I dropped my 12-year-old off at her first\nhomecoming dance, I tried not to look\n \nher newly-developed breasts, all surprise and alert\nin their uncertainty. I tried not to imagine her\n \nmashed between a young man's curiousness\nand the gym's sweaty wall. I tried not picture\n \nher grinding off beat/on time to the rhythm\nof a dark manchild; the one who whispered\n \n\u201cyou are the most beautiful girl in brooklyn\u201d\nhis swag so sincere, she'd easily mistaken him for a god.\n</pre>\n "}, {"title": "Spoiled Child", "view_node": "/poem/spoiled-child", "field_author": "<a href=\"/poet/pages-matam\" hreflang=\"en\">Pages Matam</a>", "field_date_published": "2019", "body": "<p>English is your fourth language</p>\n\n<p><span class=\"long-line\">the baby of the family</span></p>\n\n<p><span class=\"long-line\">the one your mouth spoils</span></p>\n\n<p><span class=\"long-line\">favorite by default</span></p>\n\n<p><span class=\"long-line\">who may one day be sold off by its siblings</span></p>\n\n<p><span class=\"long-line\">in hopes to never return</span></p>\n\n<p><span class=\"long-line\">all of your other tongues have grown jealous</span></p>\n\n<p><br /><span class=\"long-line\">your country has over 200 dialects</span></p>\n\n<p><span class=\"long-line\">that\u2019s over 200 ways</span></p>\n\n<p><span class=\"long-line\">to say Love</span></p>\n\n<p><span class=\"long-line\">to say family</span></p>\n\n<p><span class=\"long-line\">to say I am a song</span></p>\n\n<p><span class=\"long-line\">to say I belong to something</span></p>\n\n<p><span class=\"long-line\">that does not want to kill me</span></p>\n\n<p><span class=\"long-line\">&amp; does not want to siphon the gold from my</span></p>\n\n<p><span class=\"long-line\">blood or the stories from my bones</span></p>\n"}, {"title": "Florence, Kentucky", "view_node": "/poem/florence-kentucky", "field_author": "<a href=\"/poet/adam-scheffler\" hreflang=\"en\">Adam Scheffler</a>", "field_date_published": "2019", "body": " <pre>So what if the old man\non the bus is trying and                              \t\nfailing to remember his dead\nmom\u2019s face, as if the past were\nnot a cartoon tunnel scratched\non a wall?                            \t \n \nHe\u2019s still trying,\nand when did we forget our\ncattle-shoes and feather-parkas,\nhow we carry with us a lowing\nsadness, an extinguished memory\nof flight?\n \nToday I\u2019m going to count all the                \t\nblackbirds between the prison\nand the Walmart where, right\nnow, in its galloping sadness\na bald man who sounds like\na car horn is hector-lecturing\nhis infant-hushing                           \t\ngirlfriend\u2014as her unhappiness,\nradiant as a cleat, sharp as an ice\nskate, sprays to a sudden stop.\n \nRight now, at the emergency\ncrisis center right next to the                       \t\ngun store, the nurse feels entombed\nin hours like a fly in amber\nas the waiting room TVs\nspin despair\u2019s golden honey\u2014\n \nand I think of the ice I waded out\non as a kid, of how often the world\nseems like it\u2019s going to shatter,\nbut then, miraculously,\nmercilessly, does not.\n</pre>\n "}], "pager": {"current_page": 182, "total_items": "13248", "total_pages": 663, "items_per_page": 20}}