{"rows": [{"title": "The Grammar of Affection", "view_node": "/poem/grammar-affection", "field_author": "<a href=\"/poet/jay-parini\" hreflang=\"und\">Jay Parini</a>", "field_date_published": "2016", "body": " <p>Without syntax there is no immortality,<br />says my friend,<br />who has counted beads along a string<br />and understood that time is<br />water in a brook<br />or words in passage,<br />caravans amid the whitest dunes,<br />a team of horses in the mountain trace.</p><p>There is always movement, muttering,<br />in flight to wisdom,<br />which cannot be fixed. The kingdom<br />comes but gradually,<br />breaking word by wing or day by dream.</p><p>We proceed on insufficient knowledge,<br />trusting in what comes, in what comes down<br />in winding corridors,<br />in clamorous big rooms,<br />above a gorge on windy cliffs.</p><p>In places where discovered sounds make sense,<br />where subjects run through verbs<br />to matter in the end, a natural completion<br />in the holy object of affections<br />as our sentence circles round again:</p><p>This grammar holds us, makes us shine.</p> "}, {"title": "Employment", "view_node": "/poem/employment", "field_author": "<a href=\"/poet/nathaniel-bellows\" hreflang=\"und\">Nathaniel Bellows</a>", "field_date_published": "2016", "body": " <p>At the time the time felt well spent but now<br />I see it was wasted. Not a waste\u2014it just had<br />no point\u2014no shape\u2014no hourglass\u2019 tapering<br />waist. At a certain point, bliss gets replaced<br />by disinterest. If you will allow me for once<br />to be honest. I left the sea\u2019s lacy wake, waking<br />each day well-rested, untested, unmet. Nothing<br />was going to change, and that was the point.<br />The seabirds sang: Protect your gifts! burying<br />their doomed eggs in the sand\u2014sand to heat,<br />to melt, shape into that chalice of time: bulb<br />upon bulb, curvaceous, urgent as an aging<br />odalisque. It was a version of love not meant<br />to set\u2014the best\u2014not trashed, but wholly left<br />to the mists of that idly mown lawn, the little<br />boat trolling a coast, bereft of tide or tempest.</p> "}, {"title": "After the First Child, the Second ", "view_node": "/poem/after-first-child-second", "field_author": "<a href=\"/poet/mary-austin-speaker\" hreflang=\"und\">Mary Austin Speaker</a>", "field_date_published": "2016", "body": " <p><em>\u00a0 \u00a0 \u00a0 \u00a0 \u00a0 \u00a0 for Chris Martin</em></p><p>To you<br />through whom</p><p>these sudden days<br />blowse &amp; hum</p><p>thirst &amp; quench<br />a tide of tensing trees</p><p>days tick by<br />beats in a song</p><p>my body grows<br />fuller each day</p><p>I think my life<br />has always been</p><p>for this quiet<br />darkness</p><p>your forehead<br />&amp; eyelashes</p><p>face pressed<br />to my breast</p><p>your skin a texture<br />electrifying</p><p>my fingertips<br />wool on cotton</p><p>wool on glass<br />the fibers rise</p><p>&amp; I can\u2019t sleep<br />for being alive<br />\u00a0</p> "}, {"title": "Spell to Locate the Unreachable", "view_node": "/poem/spell-locate-unreachable", "field_author": "<a href=\"/poet/sarah-messer\" hreflang=\"und\">Sarah Messer</a>", "field_date_published": "2016", "body": " <p>As no assistance could be expected<br />of the ocean, I turned to the trumpeting<br />tunnel of sky and rummaged<br />the tops of plum birch turning<br />their leaves like coins, then<br />to the tumbler sweating<br />on the porch rail. The sky,<br />the color of whale oil. The wind,<br />a box of uncolored letters. And so<br />I was gris-gris with my lichen hair<br />and moonstone wound<br />around my neck, a raccoon<br />stuck under an electric<br />fence, or a photo showing<br />only one wick at a s\u00e9ance.<br />How to unpin this particular<br />corner of sky? I sing<br />an antler song to find<br />you, but there\u2019s no trace<br />of the sky in the sky. I\u2019ll have to<br />collapse the air to find you.</p> "}, {"title": "Lost Illusions ", "view_node": "/poem/lost-illusions", "field_author": "<a href=\"/poet/georgia-douglas-johnson\" hreflang=\"und\">Georgia Douglas Johnson</a>", "field_date_published": "1922", "body": "<p><span class=\"long-line\">Oh, for the veils of my far away youth,</span><br /><span class=\"long-line\">Shielding my heart from the blaze of the truth,</span><br /><span class=\"long-line\">Why did I stray from their shelter and grow</span><br /><span class=\"long-line\">Into the sadness that follows\u2014to know!</span></p>\n\n<p><span class=\"long-line\">Impotent atom with desolate gaze</span><br /><span class=\"long-line\">Threading the tumult of hazardous ways\u2014</span><br /><span class=\"long-line\">Oh, for the veils, for the veils of my youth</span><br /><span class=\"long-line\">Veils that hung low o\u2019er the blaze of the truth!</span></p>\n"}, {"title": "Experience", "view_node": "/poem/experience", "field_author": "<a href=\"/poet/carl-sandburg\" hreflang=\"und\">Carl Sandburg</a>", "field_date_published": "2016", "body": " <p>This morning I looked at the map of the day<br />And said to myself, \u201cThis is the way! This is the way I will go;<br />Thus shall I range on the roads of achievement,<br /><span class=\"long-line\">The way is so clear\u2014it shall all be a joy on the lines marked out.\u201d</span><br />And then as I went came a place that was strange,\u2014<br />\u2019Twas a place not down on the map!<br />And I stumbled and fell and lay in the weeds,<br />And looked on the day with rue.</p><p>I am learning a little\u2014never to be sure\u2014<br />To be positive only with what is past,<br />And to peer sometimes at the things to come<br />As a wanderer treading the night<br />When the mazy stars neither point nor beckon,<br />And of all the roads, no road is sure.</p><p>I see those men with maps and talk<br />Who tell how to go and where and why;<br />I hear with my ears the words of their mouths,<br />As they finger with ease the marks on the maps;<br />And only as one looks robust, lonely, and querulous,<br />As if he had gone to a country far<br />And made for himself a map,<br />Do I cry to him, \u201cI would see your map!<br />I would heed that map you have!\u201d</p> "}, {"title": "Dear Reader,", "view_node": "/poem/dear-reader", "field_author": "<a href=\"/poet/amy-gerstler\" hreflang=\"und\">Amy Gerstler</a>", "field_date_published": "2016", "body": " <p>Through what precinct of life\u2019s forest are you hiking at this \u00a0 \u00a0 \u00a0 \u00a0 \u00a0 \u00a0 \u00a0 \u00a0 moment?<br />Are you kicking up leaf litter or stabbed by brambles?<br />Of what stuff are you made? Gossamer or chain mail?<br />Are you, as reputed, marvelously empty? Or invisibly ever- \u00a0 \u00a0 \u00a0 \u00a0 \u00a0 \u00a0 \u00a0 \u00a0 \u00a0 present,<br />even as this missive is typed? Have you been to Easter Island? \u00a0 \u00a0 \u00a0 \u00a0 \u00a0 \u00a0 Yes?<br />Then I\u2019m jealous. Do you use a tongue depressor as bookmark?<br />Are you reading this at an indecent hour by flashlight?<br />Plenty of scholarly ink has been spilt praising readers like \u00a0 \u00a0 \u00a0 \u00a0 \u00a0 \u00a0 \u00a0 \u00a0 \u00a0 \u00a0 yourself,<br />who risk radical dismantling, or being unmasked, by rappelling<br />deep into sentences. Your trigger warnings could be triggered \u00a0 \u00a0 \u00a0 \u00a0 \u00a0 \u00a0 every<br />second, yet you forge on, mystic syllables detonating in your \u00a0 \u00a0 \u00a0 \u00a0 \u00a0 \u00a0 \u00a0 head,<br />the metal-edged smell of monsoon-downpour on hot asphalt<br />raising steam in your imagination. You hold out for the phrase<br />with which the soul resonates, am I right? Reading, you\u2019re \u00a0 \u00a0 \u00a0 \u00a0 \u00a0 \u00a0 \u00a0 \u00a0 \u00a0 seized<br />by tingly feelings, a rustling in the brain, winds that tickle your \u00a0 \u00a0 \u00a0 \u00a0 \u00a0 scalp,<br />bubbles erupting from a blow hole at the back of your neck.<br />You forget the breathy woman talking softly on TV across the \u00a0 \u00a0 \u00a0 \u00a0 \u00a0 lobby<br />(via TiVo you\u2019ve saved her for later.) Birds outside are cracking \u00a0 \u00a0 \u00a0 \u00a0 \u00a0 jokes<br />and cackling. Reader, smile to yourself, rock the cradle, kiss<br />everyone you wish to kiss, and please keep reading. It beats<br />fielding threatening phone calls for $15 an hour which is what<br />yours truly is meant to be doing right now, instead of \u00a0 \u00a0 \u00a0 \u00a0 \u00a0 \u00a0 \u00a0 \u00a0 \u00a0 \u00a0 \u00a0 \u00a0 \u00a0 \u00a0speculating<br />on the strange and happy manifestations of, you, dear reader, \u00a0 \u00a0 \u00a0 \u00a0 \u00a0 \u00a0you.</p> "}, {"title": "Museum ", "view_node": "/poem/museum-0", "field_author": "<a href=\"/poet/keith-leonard\" hreflang=\"en\">Keith Leonard</a>", "field_date_published": "2016", "body": " <p>I walked the three floors<br />of the local antique store<br />and imagined white plaques<br />adorning each room<br />\u2014but unlike museums<br />I could touch the displays,<br />and could take a seat<br />at a beautiful walnut table\u2014<br />I could wonder about the moment<br />its palm-stained patina\u00a0<br />went from simply dirty<br />to expensively antique\u2014that<br />singular moment the thing<br />became slightly more<br />than a thing by simply<br />continuing to be<br />the very same thing\u2014all its cracks<br />thick as the edge of a quarter\u2014<br />all its smoothed over corners\u2014<br />all its dark knots flourishing\u2014<br />and I thought I could live<br />for awhile in this very<br />same body\u2014and did, somehow,<br />and was loved, somehow,<br />into a third body, which totters<br />across the living room,<br />and whose knees I kiss<br />when he stumbles,<br />and the difference between<br /><em>just now</em> and <em>not</em><br />is an aperture\u2019s quick snap\u2014<br />is breath-delicate\u2014<br />it must have been Luck<br />\u2014I see it\u2014that saddled me,<br />the blind horse rising<br />and falling as the carnival<br />blared from the brass pipes,<br />as the carousel twirled<br />its crown of lights,<br />and one by one the bulbs\u00a0<br />went dark\u2014and so it is,<br />this life\u2014this goddamn<br />lucky life\u2014the organ<br />sounding off the melody,<br />the platform winding down,<br />and the horses still bounding.</p> "}, {"title": "Dragged Mass", "view_node": "/poem/dragged-mass", "field_author": "<a href=\"/poet/rick-barot\" hreflang=\"en\">Rick Barot </a>", "field_date_published": "2016", "body": " <p>What are we supposed to make<br />of the granite block dragged across the dirt lot</p><p>behind a tractor that has been instructed<br />to build up a mound out of the displaced dirt, a mess</p><p>far away from what we would call the aesthetic<br />and more to do with the disturbance</p><p>of fresh graves or construction, the rock<br />so enormous it seems more conceptual than actual,</p><p>the way large things tend to be, the way scale<br />is a kind of assertion, the larger</p><p>the louder, and the smaller heartbreaking,<br />so that we want to imagine the theatrics of the dirt lot</p><p>back to the artist\u2019s hand on paper,<br />the artist trying to transform desire into vision,</p><p>or a representation of something<br />like vision, one that makes us see the granite</p><p>and the hurt earth as images of the body, of gravity,<br />of what time does to the body,</p><p>which is to scour it, which must have something to do<br />with why I am looking at you now, asleep</p><p>among blue sheets as though it is any morning,<br />in winter light, in the light of the eye.</p><p>\u00a0</p> "}, {"title": "OK Let\u2019s Go ", "view_node": "/poem/ok-lets-go", "field_author": "<a href=\"/poet/maureen-n-mclane\" hreflang=\"und\">Maureen N. McLane</a>", "field_date_published": "2016", "body": " <p>Let\u2019s go to Dawn School<br />and learn again to begin</p><p>oh something different<br />from repetition</p><p>Let\u2019s go to the morning<br />and watch the sun smudge</p><p>every bankrupt idea<br />of nature \u201cyou can\u2019t write about</p><p>anymore\u201d said my friend<br />the photographer \u201cexcept</p><p>as science\u201d\u00a0\u00a0\u00a0\u00a0\u00a0\u00a0<br />Let\u2019s enroll ourselves</p><p>in the school of the sky<br />where knowing</p><p>how to know<br />and unknow is everything</p><p>we\u2019ll come to know<br />under what they once thought</p><p>was the dome of the world<br />\u00a0</p> "}, {"title": "The Unexplorer", "view_node": "/poem/unexplorer", "field_author": "<a href=\"/poet/edna-st-vincent-millay\" hreflang=\"und\">Edna St. Vincent Millay</a>", "field_date_published": "2016", "body": " <p>There was a road ran past our house<br />Too lovely to explore.<br />I asked my mother once\u2014she said<br />That if you followed where it led<br />It brought you to the milk-man\u2019s door.<br />(That\u2019s why I have not traveled more.)</p> "}, {"title": "A Confession to a Friend in Trouble ", "view_node": "/poem/confession-friend-trouble", "field_author": "<a href=\"/poet/thomas-hardy\" hreflang=\"und\">Thomas Hardy</a>", "field_date_published": "2016", "body": " <p>Your troubles shrink not, though I feel them less<br />Here, far away, than when I tarried near;<br />I even smile old smiles\u2014with listlessness\u2014<br />Yet smiles they are, not ghastly mockeries mere.</p><p>A thought too strange to house within my brain<br />Haunting its outer precincts I discern:<br /><em>\u2014That I will not show zeal again to learn</em><br />Your griefs, and, sharing them, renew my pain. . . .</p><p>It goes, like murky bird or buccaneer<br />That shapes its lawless figure on the main,<br />And each new impulse tends to make outflee<br />The unseemly instinct that had lodgment here;<br />Yet, comrade old, can bitterer knowledge be<br />Than that, though banned, such instinct was in me!</p> "}, {"title": "Vapor", "view_node": "/poem/vapor-0", "field_author": "<a href=\"/poet/martin-rock\" hreflang=\"en\">Martin Rock</a>", "field_date_published": "2016", "body": " <p>Tonight I\u2019m to occupy a single breath:<br />to let it slowly out as an open kettle might<br />release its steam, left long on the stove.<br />Eventually all substance turns to vapor</p><p>&amp; accumulates in the air, then falls<br />again as a globe under its own weight.<br />Bodies must be near each other, it seems,<br />even when the result is simple collapse.</p><p>Only the globe is never falling\u2014<br />it\u2019s the thing that imitates the globe<br />falls into it, as I now imitate, &amp; fail,</p><p>the voice of my father, who sits breathing<br />with his dog at the mouth of the river.<br />My breath, too, rises &amp; falls. Listen.<br />\u00a0</p> "}, {"title": "Falling Peacock in Rainstorm at Night", "view_node": "/poem/falling-peacock-rainstorm-night", "field_author": "<a href=\"/poet/peg-boyers\" hreflang=\"en\">Peg Boyers</a>", "field_date_published": "2016", "body": " <p>My tail of colored feathers<br />hangs matted<br />closed behind me</p><p>It weighs me down</p><p>In this wet darkness<br />I can neither<br />dance nor fly</p><p>This darkness<br />weighs me down</p><p>No one here<br />to see my splendor</p><p>My only company<br />the relentless rain\u00a0\u00a0</p><p>Together<br />we fall from the sky<br />toward the darkening wood</p><p>The leafy trees below<br />reach out to catch me<br />but cannot\u00a0\u00a0\u00a0\u00a0</p><p>Between their outstretched<br />limbs I travel<br />like a stone</p><p>The swallows<br />sitting safely in their nests<br />sleep the sleep of the oblivious<br />innocent<br />of cellular divisions<br />silent metastasis</p><p>Their oblivion weighs me down\u00a0\u00a0\u00a0\u00a0\u00a0</p><p>Only the insomniac owl<br />watches\u00a0\u00a0\u00a0\u00a0 ever alert<br />for the kill</p><p>My famous feathery tail-eyes<br />are folded inward<br />blind to possibility</p><p>I am falling\u00a0\u00a0\u00a0\u00a0\u00a0\u00a0\u00a0\u00a0 falling away\u2014<br />escaping at last<br />this monsoon sickness<br />\u00a0<br />sing me a raga\u00a0\u00a0\u00a0\u00a0\u00a0\u00a0\u00a0 spin<br />me a garland<br />oh earth<br />but do not yet welcome me</p><p>Show me the sun.</p> "}, {"title": "Grief\u2019s Weird Sister, Gratitude", "view_node": "/poem/griefs-weird-sister-gratitude", "field_author": "<a href=\"/poet/jennifer-michael-hecht\" hreflang=\"en\">Jennifer Michael Hecht</a>", "field_date_published": "2016", "body": " <p>How to read a tome of Collected Poems?<br />Read one that pivotally changes you<br />and lose track of the page and title.<br />How to clean a house? Lose your ring in it.</p><p>Milosz not having to make peace one day<br />because the people are dead, nor revisit<br />some cities of his blood, because they are<br />razed. I\u2019m still reading for that one.</p><p>If I wince that I got cuppy, said too much,<br />maybe years ago, sometimes the sudden<br />knowledge that my auditor is no longer<br />will come in as wistful relief, if with grief.</p><p>So I\u2019d like to find it. This \u201chow\u201d isn\u2019t<br />an engineering question, but angle,<br />here alchemically<br />translated to hope by way of loss.<br />\u00a0</p> "}, {"title": "Brilliant Juice", "view_node": "/poem/brilliant-juice", "field_author": "<a href=\"/poet/todd-colby\" hreflang=\"en\">Todd  Colby</a>", "field_date_published": "2016", "body": " <p>It is the people who remember,<br />but when the people are gone<br />we won\u2019t have anyone to remember.<br />People go to a lot of trouble<br />to make things memorable.<br />I would like to make things enjoyable<br />by watching everyone,<br />and wondering what is going on.<br />Today I am as full of this day<br />as the air in this apartment<br />is full of particulate matter that sparkles off<br />the highway. A sliver of the moon<br />is still visible at midday.<br />Reading the news is unbearable,<br />but necessary. <em>All exits are final</em><br />and all that.</p> "}, {"title": "I am reminded via email to resubmit my preferences for the schedule", "view_node": "/poem/i-am-reminded-email-resubmit-my-preferences-schedule", "field_author": "<a href=\"/poet/chen-chen\" hreflang=\"en\">Chen Chen</a>", "field_date_published": "2016", "body": " <p>But really<br />I would prefer<br />to sit, drink water,<br />reread some Russians<br />a while longer\u00a0<br />\u2014a luxury<br />perhaps, but why<br />should I, anyone,<br />call it that, why<br />should reading<br />what I want,<br />in a well-hydrated fashion,<br />always be what I\u2019m<br />planning to finally<br />do, like hiking\u00a0\u00a0\u00a0\u00a0\u00a0\u00a0<br />or biking, &amp; now<br />that I think of it, reading<br />should make me, anyone,<br />breathe harder, then<br />easier, reach for cold,<br />cold water, &amp; I<br />prefer my reading<br />that way, I prefer<br />Ivan Turgenev,<br />who makes me work for<br />not quite pleasure<br />no, some truer\u00a0<br />sweatier thing,<br />Turgenev,<br />who is just now,\u00a0<br />in my small room\u00a0<br />in West Texas,\u00a0<br />getting to the good part,<br />the very Russian part,<br />the last few pages\u00a0\u00a0\u00a0<br />of \u201cThe Singers\u201d\u00a0<br />when the story<br />should be over,<br />Yakov the Turk<br />has sung with fervor,<br />meaning true<br />Russian spirit,<br />meaning he\u2019s won<br />a kind of 19th century<br /><em>Idol</em> in the village<br />tavern, The End, but<br />Turgenev goes<br />on, the narrator walks<br />out, down a hill,<br />into a dark<br />enveloping mist,\u00a0<br />&amp; he hears<br />from misty far away<br />some little boy\u00a0<br />calling out for<br /><em>Antropka!</em><br />calling hoarsely,<br />darkly,\u00a0<br /><em>Antropka-a-a!</em><br />&amp; it\u2019s that voice that stops<br />then opens my breath<br />that voice<br />&amp; all Monday-Wednesday-Fridays<br />all Tuesday-Thursdays\u00a0\u00a0\u00a0\u00a0<br />are gone<br />I have arrived<br />in the village of<br />no day\u00a0\u00a0 none<br />&amp; I am sitting<br />with the villagers\u00a0\u00a0<br />who are each at once<br />young\u00a0\u00a0 old\u00a0\u00a0<br />who have the coldest<br />water to give me\u00a0\u00a0<br />&amp; songs<br />I think I have sung\u00a0\u00a0 before<br />they sing<br />their underground<br />tree-root syllables<br />they give me silences<br />from their long<br />long\u00a0\u00a0 hair</p> "}, {"title": "Medusa", "view_node": "/poem/medusa-1", "field_author": "<a href=\"/poet/louise-bogan\" hreflang=\"und\">Louise Bogan</a>", "field_date_published": "1921", "body": "<p><span class=\"long-line\">I had come to the house, in a cave of trees,</span><br /><span class=\"long-line\">Facing a sheer sky.</span><br /><span class=\"long-line\">Everything moved,\u2014a bell hung ready to strike,</span><br /><span class=\"long-line\">Sun and reflection wheeled by.</span></p>\n\n<p><span class=\"long-line\">When the bare eyes were before me</span><br /><span class=\"long-line\">And the hissing hair,</span><br /><span class=\"long-line\">Held up at a window, seen through a door.</span><br /><span class=\"long-line\">The stiff bald eyes, the serpents on the forehead</span><br /><span class=\"long-line\">Formed in the air.</span></p>\n\n<p><span class=\"long-line\">This is a dead scene forever now.</span><br /><span class=\"long-line\">Nothing will ever stir.</span><br /><span class=\"long-line\">The end will never brighten it more than this,</span><br /><span class=\"long-line\">Nor the rain blur.</span></p>\n\n<p><span class=\"long-line\">The water will always fall, and will not fall,</span><br /><span class=\"long-line\">And the tipped bell make no sound.</span><br /><span class=\"long-line\">The grass will always be growing for hay</span><br /><span class=\"long-line\">Deep on the ground.</span></p>\n\n<p><span class=\"long-line\">And I shall stand here like a shadow</span><br /><span class=\"long-line\">Under the great balanced day,</span><br /><span class=\"long-line\">My eyes on the yellow dust, that was lifting in the wind,</span><br /><span class=\"long-line\">And does not drift away.</span></p>\n"}, {"title": "Blackberry Eating", "view_node": "/poem/blackberry-eating", "field_author": "<a href=\"/poet/galway-kinnell\" hreflang=\"und\">Galway Kinnell</a>", "field_date_published": "2016", "body": "<p><span class=\"long-line\">I love to go out in late September</span><br /><span class=\"long-line\">among the fat, overripe, icy, black blackberries</span><br /><span class=\"long-line\">to eat blackberries for breakfast,</span><br /><span class=\"long-line\">the stalks very prickly, a penalty</span><br /><span class=\"long-line\">they earn for knowing the black art</span><br /><span class=\"long-line\">of blackberry-making; and as I stand among them</span><br /><span class=\"long-line\">lifting the stalks to my mouth, the ripest berries</span><br /><span class=\"long-line\">fall almost unbidden to my tongue,</span><br /><span class=\"long-line\">as words sometimes do, certain peculiar words</span><br /><span class=\"long-line\">like <em>strengths</em> or <em>squinched</em>,</span><br /><span class=\"long-line\">many-lettered, one-syllabled lumps,</span><br /><span class=\"long-line\">which I squeeze, squinch open, and splurge well</span><br /><span class=\"long-line\">in the silent, startled, icy, black language</span><br /><span class=\"long-line\">of blackberry-eating in late September.</span></p>\n"}, {"title": "Victory", "view_node": "/poem/victory", "field_author": "<a href=\"/poet/sherman-alexie\" hreflang=\"und\">Sherman Alexie</a>", "field_date_published": "2016", "body": "<p><span class=\"long-line\">When I was twelve, I shoplifted a pair</span><br /><span class=\"long-line\">Of basketball shoes. We could not afford</span><br /><span class=\"long-line\">Them otherwise. But when I tied them on,</span><br /><span class=\"long-line\">I found that I couldn\u2019t hit a shot.</span></p>\n\n<p><span class=\"long-line\">When the ball clanked off the rim, I felt</span><br /><span class=\"long-line\">Only guilt, guilt, guilt. O, immoral shoes!</span><br /><span class=\"long-line\">O, kicks made of paranoia and rue!</span><br /><span class=\"long-line\">Distraught but unwilling to get caught</span></p>\n\n<p><span class=\"long-line\">Or confess, I threw those cursed Nikes</span><br /><span class=\"long-line\">Into the river and hoped that was good</span><br /><span class=\"long-line\">Enough for God. I played that season</span><br /><span class=\"long-line\">In supermarket tennis shoes that felt</span></p>\n\n<p><span class=\"long-line\">The same as playing in bare feet.</span><br /><span class=\"long-line\">O, torn skin! O, bloody heels and toes!</span><br /><span class=\"long-line\">O, twisted ankles! O, blisters the size</span><br /><span class=\"long-line\">Of dimes and quarters! Finally, after</span></p>\n\n<p><span class=\"long-line\">I couldn\u2019t take the pain anymore, I told</span><br /><span class=\"long-line\">My father what I had done. He wasn\u2019t angry.</span><br /><span class=\"long-line\">He wept out of shame. Then he cradled</span><br /><span class=\"long-line\">And rocked me and called me his Little</span></p>\n\n<p><span class=\"long-line\">Basketball Jesus. He told me that every cry</span><br /><span class=\"long-line\">Of pain was part of the hoops sonata.</span><br /><span class=\"long-line\">Then he laughed and bandaged my wounds\u2014</span><br /><span class=\"long-line\">My Indian Boy Poverty Basketball Stigmata.</span></p>\n"}], "pager": {"current_page": 336, "total_items": "13248", "total_pages": 663, "items_per_page": 20}}