{"rows": [{"title": "they need some of us to die ", "view_node": "/poem/they-need-some-us-die", "field_author": "<a href=\"/poet/donte-collins\" hreflang=\"en\">Donte Collins</a>", "field_date_published": "2020", "body": "<blockquote><sup><em>For Uncle Paul N\u2019nem</em></sup></blockquote>\n\n<p><span class=\"long-line\">hell nah over my dead\u2014i paid mine. I checked </span><br /><span class=\"long-line\">Black &amp; subtraction knows what it did. made Black</span><br /><span class=\"long-line\">a box to check. subtraction doesn\u2019t know how even</span><br /><span class=\"long-line\">a sigh seasons the roux &amp; the second breath my mother</span><br /><span class=\"long-line\">was always trying to catch. american. emergency.</span><br /><span class=\"long-line\">subtraction doesn\u2019t know Black\u2019s many bodies &amp; body\u2019s</span><br /><span class=\"long-line\">of water. though subtraction does. sunken. gifting the sea\u2019s</span><br /><span class=\"long-line\">new strange stones. subtraction reopened the barbershops &amp;</span><br /><span class=\"long-line\">bowling alleys. insists church. sent us home with inhalers &amp;</span><br /><span class=\"long-line\">half-assed sentences: in god - we - the people - vs - degradation</span><br /><span class=\"long-line\">vs - a new packaged deliverance. homicide. hallelujah.</span><br /><span class=\"long-line\">i\u2019ll be damned. i\u2019ll be back before i\u2019ll be buried. i been Black</span><br /><span class=\"long-line\">&amp; ain\u2019t slept since. subtraction needs my blood to water</span><br /><span class=\"long-line\">their weapons to subtract my blood. do you see the necessity</span><br /><span class=\"long-line\">for dreaming? or else the need to stay awake. to watch. worried.</span><br /><span class=\"long-line\">the hand. invisible. make a peace sign. then a pistol. </span></p>\n"}, {"title": "from &quot;Trading Riffs to Slay Monsters&quot;", "view_node": "/poem/trading-riffs-slay-monsters", "field_author": "<a href=\"/poet/yusef-komunyakaa\" hreflang=\"und\">Yusef Komunyakaa</a>, <a href=\"/poet/laren-mcclung\" hreflang=\"en\">Laren McClung</a>", "field_date_published": "2020", "body": "<p><em>and <a href=\"https://poets.org/poet/laren-mcclung\">Laren McClung</a></em></p>\n\n<p><span class=\"long-line\">Last night, I visited a captivity story.\u00a0</span><br /><span class=\"long-line\">I was sitting in a lean-to made of bark\u00a0</span><br /><span class=\"long-line\">with Ella Ruth, both of us teenagers\u2014\u00a0</span></p>\n\n<p><span class=\"long-line\">her ebony skin, her black hair touching\u00a0</span><br /><span class=\"long-line\">her tailbone. I looked at her hard, &amp;\u00a0</span><br /><span class=\"long-line\">she came back to sit beside the fire.\u00a0</span></p>\n\n<p><span class=\"long-line\">From a slit in the rawhide doorway\u00a0</span><br /><span class=\"long-line\">I could see my tribe in surgical masks,\u00a0</span><br /><span class=\"long-line\">&amp; as dogs began to\u00a0howl\u00a0I woke up.</span></p>\n\n<p><span class=\"long-line\">Strange how the mind finds tenderness\u00a0\u00a0</span><br /><span class=\"long-line\">even in captivity. Or how amidst\u00a0</span><br /><span class=\"long-line\">this being held in isolation we dream\u00a0</span></p>\n\n<p><span class=\"long-line\">of masks. I see my ancestors, too,\u00a0\u00a0</span><br /><span class=\"long-line\">at the Carnival of Venice, a bouquet\u00a0</span><br /><span class=\"long-line\">of myrrh, viper flesh, &amp; honey\u00a0</span></p>\n\n<p><span class=\"long-line\">in the plague doctor\u2019s long beak\u2014\u00a0</span><br /><span class=\"long-line\">the face of death meant to ward off death.\u00a0</span><br /><span class=\"long-line\">They look back through the silver mirror.\u00a0</span></p>\n\n<p><span class=\"long-line\">Remember traveling to Siena,\u00a0</span><br /><span class=\"long-line\">&amp; we entered that semi-dark\u00a0room?\u00a0</span><br /><span class=\"long-line\">Those strange garments\u2014the garb\u00a0</span></p>\n\n<p><span class=\"long-line\">worn by a secret society of men\u2014\u00a0</span><br /><span class=\"long-line\">men who wore what we thought\u00a0</span><br /><span class=\"long-line\">were pale KKK robes &amp; masks.\u00a0</span></p>\n\n<p><span class=\"long-line\">But they had cared for the contagious\u00a0</span><br /><span class=\"long-line\">sick, &amp; escorted them to the here\u00a0</span><br /><span class=\"long-line\">&amp; after, their faces always hidden.\u00a0</span></p>\n\n<p><span class=\"long-line\">Yes, we descended the\u00a0Ospedale\u2019s\u00a0</span><br /><span class=\"long-line\">winding stairs stories underground,\u00a0\u00a0</span><br /><span class=\"long-line\">through a long hall to a hidden room\u00a0\u00a0</span></p>\n\n<p><span class=\"long-line\">where a small medieval oil painting hung,\u00a0</span><br /><span class=\"long-line\">the\u00a0<em>Confraternity of the Night Oratory</em>,\u00a0</span><br /><span class=\"long-line\">St. Catherine of Siena holds the brothers,\u00a0</span></p>\n\n<p><span class=\"long-line\">their faces coved in hoods &amp; white robes,\u00a0\u00a0</span><br /><span class=\"long-line\">under her cloak. They worked shifts\u00a0\u00a0</span><br /><span class=\"long-line\">on behalf of the many struck with plague.\u00a0</span></p>\n\n<p><span class=\"long-line\">The hooded prisoners were led behind\u00a0</span><br /><span class=\"long-line\">medieval-thick walls, into their tiny cells\u00a0</span><br /><span class=\"long-line\">where solitary penitence was paid twenty-\u00a0</span></p>\n\n<p><span class=\"long-line\">three hours a day. No one dared to speak\u00a0</span><br /><span class=\"long-line\">at the Eastern State Penitentiary, eyes\u00a0</span><br /><span class=\"long-line\">staring always at the cold stone floors.\u00a0</span></p>\n\n<p><span class=\"long-line\">Beans, flourless bread, shad, lobster,\u00a0</span><br /><span class=\"long-line\">corn, peppers, &amp; a few grains of salt.\u00a0</span><br /><span class=\"long-line\">Now, Al Capone had a rug &amp; a radio.\u00a0</span></p>\n\n<p><span class=\"long-line\">On a poor man\u2019s cell block, uncle Gussie,\u00a0</span><br /><span class=\"long-line\">who robbed a bank, spent\u00a0years\u00a0\u00a0</span><br /><span class=\"long-line\">in the prison built like a wagon wheel.\u00a0</span></p>\n\n<p><span class=\"long-line\">The low cell door forced him to bow\u00a0\u00a0</span><br /><span class=\"long-line\">when entering; the skylight above\u2014\u00a0</span><br /><span class=\"long-line\">the Eye of God\u2014a reminder he was watched.\u00a0\u00a0</span></p>\n\n<p><span class=\"long-line\">When his mother died, two brothers,\u00a0\u00a0</span><br /><span class=\"long-line\">a priest &amp; a cop, left sepia photographs\u00a0\u00a0</span><br /><span class=\"long-line\">of the funeral. Now, cats &amp; ghosts roam.\u00a0</span></p>\n\n<p><span class=\"long-line\">Lord, this big country. Land of plentitude\u00a0</span><br /><span class=\"long-line\">ravaged, heart &amp; gut torn out in the name\u00a0</span><br /><span class=\"long-line\">of civilization &amp; progress, &amp; just plain old\u00a0</span></p>\n\n<p><span class=\"long-line\">unsung unction, low-down skullduggery\u00a0</span><br /><span class=\"long-line\">&amp; theurgy. Nature ripped out by\u00a0thew\u00a0</span><br /><span class=\"long-line\">toned in old world prisons. Horsepower.\u00a0\u00a0\u00a0\u00a0</span></p>\n\n<p><span class=\"long-line\">Even with hard times here, hug the moon\u00a0</span><br /><span class=\"long-line\">devastatingly close, &amp; beat down the door\u00a0</span><br /><span class=\"long-line\">with true love. Wherever you are, bless us.\u00a0</span></p>\n\n<p><span class=\"long-line\">Yeah, we\u2019ve both known a few in the joint,\u00a0\u00a0</span><br /><span class=\"long-line\">robbing Peter to pay Paul, or caught\u00a0\u00a0</span><br /><span class=\"long-line\">blowing time with this one or that one.\u00a0\u00a0</span></p>\n\n<p><span class=\"long-line\">Some excuse to keep rats on a wheel, or in a cage.\u00a0\u00a0</span><br /><span class=\"long-line\">Look, time moves at least twice at once now\u2014\u00a0</span><br /><span class=\"long-line\">back &amp; forth, slow &amp; fast. I held my palm\u00a0</span></p>\n\n<p><span class=\"long-line\">\u00a0on my father\u2019s back when he bent to whisper\u00a0\u00a0</span><br /><span class=\"long-line\">in the ear of the dead, &amp; two men in black\u00a0\u00a0</span><br /><span class=\"long-line\">draped a white handkerchief over a face.\u00a0</span></p>\n"}, {"title": "Paul Robeson", "view_node": "/poem/paul-robeson", "field_author": "<a href=\"/poet/gwendolyn-brooks\" hreflang=\"und\">Gwendolyn Brooks</a>", "field_date_published": "1970", "body": "<p><span class=\"long-line\">That time</span><br /><span class=\"long-line\">we all heard it,</span><br /><span class=\"long-line\">cool and clear,</span><br /><span class=\"long-line\">cutting across the hot grit of the day.</span><br /><span class=\"long-line\">The major Voice.</span><br /><span class=\"long-line\">The adult Voice</span><br /><span class=\"long-line\">forgoing Rolling River,</span><br /><span class=\"long-line\">forgoing tearful tale of bale and barge</span><br /><span class=\"long-line\">and other symptoms of an old despond.</span><br /><span class=\"long-line\">Warning, in music-words</span><br /><span class=\"long-line\">devout and large,</span><br /><span class=\"long-line\">that we are each other\u2019s</span><br /><span class=\"long-line\">harvest:</span><br /><span class=\"long-line\">we are each other\u2019s</span><br /><span class=\"long-line\">business:</span><br /><span class=\"long-line\">we are each other\u2019s</span><br /><span class=\"long-line\">magnitude and bond.</span></p>\n"}, {"title": "The Door into Darkness", "view_node": "/poem/door-darkness", "field_author": "<a href=\"/poet/kevin-killian\" hreflang=\"und\">Kevin Killian</a>", "field_date_published": "1997", "body": "<p><span class=\"long-line\">A hand within touching distance of the doorknob.</span><br /><span class=\"long-line\">No light, no sound, the lintel black with absence and size.</span></p>\n\n<p><span class=\"long-line\">The wristwatch that talks, \u201cTime for your medications.\u201d</span><br /><span class=\"long-line\">Feeling, the cold drip inside your thigh, the scent of fear.</span></p>\n\n<p><span class=\"long-line\">Quiet, the set is cleared and the long spaces grow still, dark.</span><br /><span class=\"long-line\">Bitter scent of attempted, the light, the warm hatching eggs.</span></p>\n\n<p><span class=\"long-line\">Open the door, pick its hinges, flood the house with darkness.</span><br /><span class=\"long-line\">A short burst of steam, the mailbox slot hot as his asshole,</span></p>\n\n<p><span class=\"long-line\">darkness within and the field of the open human page. The</span><br /><span class=\"long-line\">check for his pills, and a glass of water from crystal springs </span></p>\n\n<p><span class=\"long-line\">tipped to\u00a0his mouth: he is old now, yodelling in a sleep</span><br /><span class=\"long-line\">indecent, cracked, his hand furtive sly yanks at a single sheet\u2014</span></p>\n\n<p><span class=\"long-line\">Pull the tubes, throw open the black wooden door and let go.</span><br /><span class=\"long-line\">All the world staring at him from inside his own eyes</span></p>\n\n<p><span class=\"long-line\">and I\u2019m like, the hand that takes the door by the knob, firmly,</span><br /><span class=\"long-line\">uprooted, as once I made him come with my hand, till he</span></p>\n\n<p><span class=\"long-line\">couldn\u2019t stop gasping for breath. Now he can breathe, now </span><br /><span class=\"long-line\">he can live, now he can come, now he can write \u201cdead\u201d in the dark.</span></p>\n"}, {"title": "Deep Red", "view_node": "/poem/deep-red", "field_author": "<a href=\"/poet/kevin-killian\" hreflang=\"und\">Kevin Killian</a>", "field_date_published": "1997", "body": "<p><span class=\"long-line\">Deep red \u2022 the submarine blips on the cold surface</span><br /><span class=\"long-line\">in Antarctica \u2022 as Mariner\u2019s ship draws near \u2022</span><br /><span class=\"long-line\">frothy surface on the blue wave \u2022</span><br /><span class=\"long-line\">Life is still \u2022 so catch as catch can \u2022 still evanescent, still</span></p>\n\n<p><span class=\"long-line\">Red, an oar touches the water\u2019s rim \u2022 muscular arm buff as</span><br /><span class=\"long-line\">Meryl Streep\u2019s in <em>The River Wild </em>\u2022 in Antarctica \u2022 \u00a0\u00a0</span><br /><span class=\"long-line\">frothy surface on the blue wave \u2022 life is still \u2022 \u201cI don\u2019t have</span><br /><span class=\"long-line\">many T-cells left, but I used to have 8\u201d \u2022 \u201cnow I have 9\u201d</span></p>\n\n<p><span class=\"long-line\">Under the gristle, vein, under the vein, deep red \u2022</span><br /><span class=\"long-line\">the blood of my pal \u2022 deeper and deeper this tiny wave, blue</span><br /><span class=\"long-line\">on the surface \u2022 alone on the surface \u2022</span><br /><span class=\"long-line\">if you were one-dimensional what would you see?</span><br /><span class=\"long-line\">a one celled mammal swimming for dear life \u2022</span><br /><span class=\"long-line\">to a shore strewn with protozoa bracken \u2022 still life</span><br /><span class=\"long-line\">\u201cnow I have 6\u201d</span></p>\n\n<p><span class=\"long-line\">the flotsam and \u2022 jetsam of living \u2022 high</span><br /><span class=\"long-line\">and deep \u2022 this the curve that</span><br /><span class=\"long-line\">will kill you \u2022 pal</span><br /><span class=\"long-line\">I\u2019m living in \u2022 your disgrace</span><br /><span class=\"long-line\">deep \u2022 red hatchet \u2022 cells</span><br /><span class=\"long-line\">a doll with hands \u2022 scuttles across the face \u2022</span><br /><span class=\"long-line\">of the sea for you</span><br /><span class=\"long-line\">come and get these \u2022 memories</span></p>\n"}, {"title": "The Flowering Face", "view_node": "/poem/flowering-face", "field_author": "<a href=\"/poet/kevin-killian\" hreflang=\"und\">Kevin Killian</a>", "field_date_published": "1997", "body": "<p><span class=\"long-line\">He read all his poems twice, thinking,</span><br /><span class=\"long-line\"><em>\u00a0\u00a0\u00a0\u00a0\u00a0\u00a0\u00a0\u00a0\u00a0\u00a0\u00a0\u00a0\u00a0\u00a0\u00a0\u00a0\u00a0\u00a0\u00a0\u00a0\u00a0\u00a0\u00a0\u00a0\u00a0\u00a0\u00a0\u00a0\u00a0\u00a0\u00a0\u00a0\u00a0\u00a0\u00a0\u00a0\u00a0\u00a0\u00a0\u00a0\u00a0\u00a0\u00a0\u201cthey did not hear them the first time.\u201d</em> </span></p>\n\n<p><span class=\"long-line\">They hired a team of gay men who do this </span><br /><span class=\"long-line\"><em>\u00a0\u00a0\u00a0\u00a0\u00a0\u00a0\u00a0\u00a0\u00a0\u00a0\u00a0\u00a0\u00a0\u00a0\u00a0\u00a0\u00a0\u00a0\u00a0\u00a0\u00a0\u00a0\u00a0\u00a0\u00a0\u00a0\u00a0\u00a0\u00a0\u00a0\u00a0\u00a0\u00a0\u00a0\u00a0\u00a0\u00a0\u00a0\u00a0\u00a0\u00a0\u00a0\u00a0\u00a0gardening gig to do it for them</em></span></p>\n\n<p><span class=\"long-line\">If his body rots in the mouth of maggots</span><br /><span class=\"long-line\"><em>\u00a0 \u00a0 \u00a0 \u00a0 \u00a0 \u00a0 \u00a0 \u00a0 \u00a0 \u00a0 \u00a0 \u00a0 \u00a0 \u00a0 \u00a0 \u00a0 \u00a0 \u00a0 \u00a0 \u00a0 \u00a0 \u00a0 \u00a0 \u00a0 \u00a0 \u00a0 \u00a0 \u00a0 let\u2019s go to Zuni</em></span></p>\n\n<p><span class=\"long-line\">Down his throat</span><br /><span class=\"long-line\"><em>\u00a0\u00a0\u00a0\u00a0\u00a0\u00a0\u00a0\u00a0\u00a0\u00a0\u00a0\u00a0\u00a0\u00a0\u00a0\u00a0\u00a0\u00a0\u00a0\u00a0\u00a0\u00a0\u00a0\u00a0\u00a0\u00a0\u00a0\u00a0\u00a0\u00a0\u00a0\u00a0\u00a0\u00a0\u00a0\u00a0\u00a0\u00a0\u00a0\u00a0\u00a0\u00a0\u00a0\u00a0\u00a0\u00a0\u00a0\u00a0\u00a0\u00a0\u00a0\u00a0\u00a0\u00a0\u00a0\u00a0poured a river of beer and rum</em></span></p>\n\n<p><span class=\"long-line\">In the coercive moonlight of Diamond Heights </span><br /><span class=\"long-line\"><em>\u00a0\u00a0\u00a0\u00a0\u00a0\u00a0\u00a0\u00a0\u00a0\u00a0\u00a0\u00a0\u00a0\u00a0\u00a0\u00a0\u00a0\u00a0\u00a0\u00a0\u00a0\u00a0\u00a0\u00a0\u00a0\u00a0\u00a0\u00a0\u00a0\u00a0\u00a0\u00a0\u00a0\u00a0\u00a0\u00a0\u00a0\u00a0\u00a0\u00a0\u00a0\u00a0\u00a0\u00a0\u00a0\u00a0\u00a0\u00a0\u00a0\u00a0\u00a0\u00a0\u00a0\u00a0\u00a0his red hair, gold</em></span></p>\n\n<p><span class=\"long-line\">He\u2019d like the symbolism</span><br /><span class=\"long-line\"><em>\u00a0\u00a0\u00a0\u00a0\u00a0\u00a0\u00a0\u00a0\u00a0\u00a0\u00a0\u00a0\u00a0\u00a0\u00a0\u00a0\u00a0\u00a0\u00a0\u00a0\u00a0\u00a0\u00a0\u00a0\u00a0\u00a0\u00a0\u00a0\u00a0\u00a0\u00a0\u00a0\u00a0\u00a0\u00a0\u00a0\u00a0\u00a0\u00a0\u00a0\u00a0\u00a0\u00a0\u00a0\u00a0and of course the spring flowers</em></span></p>\n\n<p><span class=\"long-line\">He was subtle, always said, \u201cHello my friend,\u201d</span><br /><span class=\"long-line\"><em>\u00a0 \u00a0 \u00a0 \u00a0 \u00a0 \u00a0 \u00a0 \u00a0 \u00a0 \u00a0 \u00a0 \u00a0 \u00a0 \u00a0 \u00a0 \u00a0as though he knew us better than indeed he did</em></span></p>\n\n<p><span class=\"long-line\">If the words I wrote, and throw up into the sky, in his direction</span><br /><span class=\"long-line\"><em>\u00a0\u00a0\u00a0\u00a0\u00a0\u00a0\u00a0\u00a0\u00a0\u00a0\u00a0\u00a0\u00a0\u00a0\u00a0\u00a0\u00a0\u00a0\u00a0\u00a0\u00a0\u00a0\u00a0\u00a0\u00a0\u00a0\u00a0\u00a0\u00a0\u00a0\u00a0\u00a0\u00a0\u00a0\u00a0\u00a0\u00a0\u00a0\u00a0\u00a0\u00a0\u00a0\u00a0\u00a0\u00a0\u00a0\u00a0\u00a0\u00a0\u00a0\u00a0\u00a0mean what I think they do</em></span></p>\n\n<p><span class=\"long-line\">Then deep into the black earth a post I dig, that says</span><br /><span class=\"long-line\"><em>\u00a0\u00a0\u00a0\u00a0\u00a0\u00a0\u00a0\u00a0\u00a0\u00a0\u00a0\u00a0\u00a0\u00a0\u00a0\u00a0\u00a0\u00a0\u00a0\u00a0\u00a0\u00a0\u00a0\u00a0\u00a0\u00a0\u00a0\u00a0\u00a0\u00a0\u00a0\u00a0\u00a0\u00a0\u00a0\u00a0\u00a0\u00a0\u00a0retention must be paid</em></span></p>\n\n<p><span class=\"long-line\">I found out who he really was</span><br /><span class=\"long-line\"><em>\u00a0 \u00a0 \u00a0 \u00a0 \u00a0 \u00a0 \u00a0 \u00a0 \u00a0 \u00a0 \u00a0 \u00a0 \u00a0 through the name on the bracelet, pink and white beads</em></span></p>\n\n<p><span class=\"long-line\">A couple of guys from Ireland </span><br /><span class=\"long-line\"><em>\u00a0\u00a0\u00a0\u00a0\u00a0\u00a0\u00a0\u00a0\u00a0\u00a0\u00a0\u00a0\u00a0\u00a0\u00a0\u00a0\u00a0\u00a0\u00a0\u00a0\u00a0\u00a0\u00a0\u00a0\u00a0\u00a0\u00a0\u00a0\u00a0\u00a0\u00a0\u00a0\u00a0\u00a0\u00a0passing through town and one says, \u201cDie faggots\u201d</em></span></p>\n\n<p><span class=\"long-line\">If there was no poetry there would be no </span><br /><span class=\"long-line\"><em>\u00a0\u00a0\u00a0\u00a0\u00a0\u00a0\u00a0\u00a0\u00a0\u00a0\u00a0\u00a0\u00a0\u00a0\u00a0\u00a0\u00a0\u00a0\u00a0\u00a0\u00a0\u00a0\u00a0\u00a0\u00a0\u00a0\u00a0\u00a0\u00a0\u00a0\u00a0toy, face, torment, healing, gladiola, prix fixe, heaven</em></span></p>\n"}, {"title": "Benediction ", "view_node": "/poem/benediction", "field_author": "<a href=\"/poet/georgia-douglas-johnson\" hreflang=\"und\">Georgia Douglas Johnson</a>", "field_date_published": "1922", "body": "<p><span class=\"long-line\">Go forth, my son,</span><br /><span class=\"long-line\">Winged by my heart\u2019s desire!</span><br /><span class=\"long-line\">Great reaches, yet unknown,</span><br /><span class=\"long-line\">Await</span><br /><span class=\"long-line\">For your possession.</span><br /><span class=\"long-line\">I may not, if I would,</span><br /><span class=\"long-line\">Retrace the way with you,</span><br /><span class=\"long-line\">My pilgrimage is through,</span><br /><span class=\"long-line\">But life is calling you!</span><br /><span class=\"long-line\">Fare high and far, my son,</span><br /><span class=\"long-line\">A new day has begun,</span><br /><span class=\"long-line\">Thy star-ways must be won!</span></p>\n"}, {"title": "Free", "view_node": "/poem/free", "field_author": "<a href=\"/poet/kevin-killian\" hreflang=\"und\">Kevin Killian</a>", "field_date_published": "2008", "body": "<p><span class=\"long-line\">Free, the price tags shiny with white-out, it's free,\u00a0 </span><br /><span class=\"long-line\">I go shopping with Dodie, the red shiny bag at Kate Spade </span><br /><span class=\"long-line\">on Grant, let's go into Agnes B and see how much the\u00a0 </span><br /><span class=\"long-line\">shirt cost that Chris and Brian bought me </span></p>\n\n<p><span class=\"long-line\">Save, long time ago I thought you could save me </span><br /><span class=\"long-line\">I pictured a dreamy house like Elizabeth\u00a0 </span><br /><span class=\"long-line\">Robinson's, with a sunken tub, but instead I settle </span><br /><span class=\"long-line\">for Squalid Manor, Frank O'Hara's dull apartment </span></p>\n\n<p><span class=\"long-line\">\"Build three more stately mansions, O my soul,\" </span><br /><span class=\"long-line\">I hear a voice that rings, it might be Kylie Minogue </span><br /><span class=\"long-line\">the sexiest tomboy beanpole on the planet,\u00a0 </span><br /><span class=\"long-line\">that which I walked in size eight shoes, for to </span></p>\n\n<p><span class=\"long-line\">Buy the ones we saw in the window, May sun </span><br /><span class=\"long-line\">splattering them with pixels, we saw ourselves </span><br /><span class=\"long-line\">the two of us, and I said, Ah, what's the matter with me,\u00a0 </span><br /><span class=\"long-line\">I have nothing to look forward to </span></p>\n\n<p><span class=\"long-line\">Ship of pearl, which poets feign,\u00a0 </span><br /><span class=\"long-line\">Sail the unshadowed main\u2014 </span><br /><span class=\"long-line\">The venturous bark that flings, and suddenly </span><br /><span class=\"long-line\">the pavement tears itself apart, a lift appears </span></p>\n\n<p><span class=\"long-line\">Man comes up through the sidewalk </span><br /><span class=\"long-line\">in front of Stella McCartney store in New York </span><br /><span class=\"long-line\">a little bit down from Joe and Charlie's </span><br /><span class=\"long-line\">To have seen so much, to have missed so much! </span></p>\n\n<p><span class=\"long-line\">Why, next time we will do better, till our </span><br /><span class=\"long-line\">bleeding feet spurt compassion in our hearts\u2014 </span><br /><span class=\"long-line\">in our next life when, perhaps, we will return </span><br /><span class=\"long-line\">as a shell on the beach and a little pink kitten,\u00a0 </span></p>\n\n<p><span class=\"long-line\">Lucy. </span></p>\n"}, {"title": "A Family Resemblance (audio only)", "view_node": "/poem/family-resemblance-audio-only", "field_author": "<a href=\"/poet/audre-lorde\" hreflang=\"und\">Audre Lorde</a>", "field_date_published": "1968", "body": "<p>Click the icon above to listen to this audio poem.</p>\n"}, {"title": "Coniagui Women (audio only)", "view_node": "/poem/coniagui-women-audio-only", "field_author": "<a href=\"/poet/audre-lorde\" hreflang=\"und\">Audre Lorde</a>", "field_date_published": "1978", "body": "<p>Click the icon above to listen to this audio poem.</p>\n"}, {"title": "Scar (audio only)", "view_node": "/poem/scar-audio-only", "field_author": "<a href=\"/poet/audre-lorde\" hreflang=\"und\">Audre Lorde</a>", "field_date_published": "1978", "body": "<p>Click the icon above to listen to this audio poem.</p>\n"}, {"title": "Sequelae (audio only)", "view_node": "/poem/sequelae-audio-only", "field_author": "<a href=\"/poet/audre-lorde\" hreflang=\"und\">Audre Lorde</a>", "field_date_published": "1978", "body": "<p>Click the icon above to listen to this audio poem.</p>\n"}, {"title": "Teacher (audio only)", "view_node": "/poem/teacher-audio-only", "field_author": "<a href=\"/poet/audre-lorde\" hreflang=\"und\">Audre Lorde</a>", "field_date_published": "1973", "body": "<p>Click the icon above to listen to this audio poem.</p>\n"}, {"title": "The Old Days (audio only)", "view_node": "/poem/old-days-audio-only", "field_author": "<a href=\"/poet/audre-lorde\" hreflang=\"und\">Audre Lorde</a>", "field_date_published": "1978", "body": "<p>Click the icon above to listen to this audio poem.</p>\n"}, {"title": "Power (audio only)", "view_node": "/poem/power-audio-only", "field_author": "<a href=\"/poet/audre-lorde\" hreflang=\"und\">Audre Lorde</a>", "field_date_published": "1978", "body": "<p>Click the icon above to listen to this audio poem.</p>\n"}, {"title": "Touring (audio only)", "view_node": "/poem/touring-audio-only", "field_author": "<a href=\"/poet/audre-lorde\" hreflang=\"und\">Audre Lorde</a>", "field_date_published": "1978", "body": "<p>Click the icon above to listen to this audio poem.</p>\n"}, {"title": "Black Mother Woman (audio only)", "view_node": "/poem/black-mother-woman-audio-only", "field_author": "<a href=\"/poet/audre-lorde\" hreflang=\"und\">Audre Lorde</a>", "field_date_published": "1973", "body": "<p>Click the icon above to listen to this audio poem.</p>\n"}, {"title": "Blackstudies (audio only)", "view_node": "/poem/blackstudies-audio-only", "field_author": "<a href=\"/poet/audre-lorde\" hreflang=\"und\">Audre Lorde</a>", "field_date_published": "1974", "body": "<p>Click the icon above to listen to this audio poem.</p>\n"}, {"title": "Chain (audio only)", "view_node": "/poem/chain-audio-only", "field_author": "<a href=\"/poet/audre-lorde\" hreflang=\"und\">Audre Lorde</a>", "field_date_published": "1978", "body": "<p>Click on the icon above to listen to this audio poem.</p>\n"}, {"title": "Meet (audio only)", "view_node": "/poem/meet-audio-only", "field_author": "<a href=\"/poet/audre-lorde\" hreflang=\"und\">Audre Lorde</a>", "field_date_published": "1978", "body": "<p>Click the icon above to listen to this audio poem.</p>\n"}], "pager": {"current_page": 106, "total_items": "13248", "total_pages": 663, "items_per_page": 20}}