{"rows": [{"title": "Poem for Andrew Marvell (audio only)", "view_node": "/poem/poem-andrew-marvell-audio-only", "field_author": "<a href=\"/poet/robert-bly\" hreflang=\"und\">Robert Bly</a>", "field_date_published": "2008", "body": " <p>\u00a0</p><p>Click the icon above to listen to this audio poem.</p> "}, {"title": "Advice From the Geese (audio only)", "view_node": "/poem/advice-geese-audio-only", "field_author": "<a href=\"/poet/robert-bly\" hreflang=\"und\">Robert Bly</a>", "field_date_published": "2008", "body": " <p>\u00a0</p><p>Click the icon above to listen to this audio poem.</p> "}, {"title": "Two ramages for old masters [Silent in the moonlight] (audio only)", "view_node": "/poem/two-ramages-old-masters-silent-moonlight-audio-only", "field_author": "<a href=\"/poet/robert-bly\" hreflang=\"und\">Robert Bly</a>", "field_date_published": "2008", "body": " <p>\u00a0</p><p>Click the icon above to listen to this audio poem.</p> "}, {"title": "The Greek Ships (audio only)", "view_node": "/poem/greek-ships-audio-only", "field_author": "<a href=\"/poet/robert-bly\" hreflang=\"und\">Robert Bly</a>", "field_date_published": "2008", "body": " <p>\u00a0</p><p>Click the icon above to listen to this audio poem.</p> "}, {"title": "A Defense of Poetry (audio only)", "view_node": "/poem/defense-poetry-audio-only", "field_author": "<a href=\"/poet/charles-bernstein\" hreflang=\"und\">Charles Bernstein</a>", "field_date_published": "2001", "body": " <p>\u00a0</p><p>Click the icon above to listen to this audio poem.</p> "}, {"title": "Explicit Version Number Required (audio only)", "view_node": "/poem/explicit-version-number-required-audio-only", "field_author": "<a href=\"/poet/charles-bernstein\" hreflang=\"und\">Charles Bernstein</a>", "field_date_published": "2001", "body": " <p>\u00a0</p><p>Click the icon above to listen to this audio poem.</p> "}, {"title": "Laurel&#039;s Eyes (audio only)", "view_node": "/poem/laurels-eyes-audio-only", "field_author": "<a href=\"/poet/charles-bernstein\" hreflang=\"und\">Charles Bernstein</a>", "field_date_published": "2001", "body": " <p>\u00a0</p><p>Click the icon above to listen to this audio poem.</p> "}, {"title": "Ars Poetica", "view_node": "/poem/ars-poetica-3", "field_author": "<a href=\"/poet/philip-schultz\" hreflang=\"und\">Philip Schultz</a>", "field_date_published": "2002", "body": ""}, {"title": "Elvis Be My Psychopomp (audio only)", "view_node": "/poem/elvis-be-my-psychopomp-audio-only", "field_author": "<a href=\"/poet/david-kirby\" hreflang=\"und\">David Kirby</a>", "field_date_published": "2008", "body": " <p>\u00a0</p><p>Click the icon above to listen to this audio poem.</p> "}, {"title": "A Man Like You, But Older (audio only)", "view_node": "/poem/man-you-older-audio-only", "field_author": "<a href=\"/poet/david-kirby\" hreflang=\"und\">David Kirby</a>", "field_date_published": "2008", "body": " <p>\u00a0</p><p>Click the icon above to listen to this audio poem.</p> "}, {"title": "The Exorcist of Notre Dame (audio only)", "view_node": "/poem/exorcist-notre-dame-audio-only", "field_author": "<a href=\"/poet/david-kirby\" hreflang=\"und\">David Kirby</a>", "field_date_published": "2008", "body": " <p>\u00a0</p><p>Click the icon above to listen to this audio poem.</p> "}, {"title": "Borges at the Northside Rotary (audio only)", "view_node": "/poem/borges-northside-rotary-audio-only", "field_author": "<a href=\"/poet/david-kirby\" hreflang=\"und\">David Kirby</a>", "field_date_published": "2008", "body": " <p>\u00a0</p><p>Click the icon above to listen to this audio poem.</p> "}, {"title": "Vowels (audio only)", "view_node": "/poem/vowels-audio-only", "field_author": "<a href=\"/poet/christian-bok\" hreflang=\"und\">Christian B\u00f6k</a>", "field_date_published": "2012", "body": " <p>\u00a0</p><p>Click the icon above to listen to this audio poem.</p> "}, {"title": "Ten Maps of Sardonic Wit (audio only)", "view_node": "/poem/ten-maps-sardonic-wit-audio-only", "field_author": "<a href=\"/poet/christian-bok\" hreflang=\"und\">Christian B\u00f6k</a>", "field_date_published": "2008", "body": " <p>\u00a0</p><p>Click the icon above to listen to this audio poem.</p> "}, {"title": "Diamonds (audio only)", "view_node": "/poem/diamonds-audio-only", "field_author": "<a href=\"/poet/christian-bok\" hreflang=\"und\">Christian B\u00f6k</a>", "field_date_published": "2008", "body": " <p>\u00a0</p><p>Click the icon above to listen to this audio poem.</p> "}, {"title": "Noyta CCCP (audio only)", "view_node": "/poem/noyta-cccp-audio-only", "field_author": "<a href=\"/poet/christian-bok\" hreflang=\"und\">Christian B\u00f6k</a>", "field_date_published": "2008", "body": " <p>\u00a0</p><p>Click the icon above to listen to this audio poem.</p> "}, {"title": "Photo of My Father in a Snowbound Train (audio only)", "view_node": "/poem/photo-my-father-snowbound-train-audio-only", "field_author": "<a href=\"/poet/david-wojahn\" hreflang=\"und\">David Wojahn</a>", "field_date_published": "1993", "body": " <p>\u00a0</p><p>\u00a0</p><p>Click the icon above to listen to this audio poem.</p> "}, {"title": "Human Form (audio only)", "view_node": "/poem/human-form-audio-only", "field_author": "<a href=\"/poet/david-wojahn\" hreflang=\"und\">David Wojahn</a>", "field_date_published": "1993", "body": " <p>\u00a0</p><p>Click the icon above to listen to this audio poem.</p> "}, {"title": "Tribute and Ash (audio only)", "view_node": "/poem/tribute-and-ash-audio-only", "field_author": "<a href=\"/poet/david-wojahn\" hreflang=\"und\">David Wojahn</a>", "field_date_published": "1993", "body": " <p>\u00a0</p><p>Click the icon above to listen to this audio poem.</p> "}, {"title": "Void and Compensation (Stephon Marbury)", "view_node": "/poem/void-and-compensation-stephon-marbury", "field_author": "<a href=\"/poet/michael-morse\" hreflang=\"und\">Michael Morse</a>", "field_date_published": "2007", "body": " <pre>\nIdeal: to drive the lane and look for dishes,\nto see the open man, give him his bucket.\n\nThe one-on-one for which we are now counseled\nblueprints a perfect symmetry that\u2019s hard to hold.\n\nLike my friend who dreams of his ex\nand wakes to find a moonlit lawn of deer.\n\nIn our nightly houses\nthe dolls insist that we are faithful to ourselves.\n\nWhen I wake up in a bad mood,\nI wonder why my point ignores my shooting guard.\n\nThis realm of giving, this realm of reciprocity:\nI need a Mr. Make-It-Happen,\n\na deus ex machina, an all-star\ndown among us who deigns to fix our gears.\n\nUntil then, these uptake-inhibitors are splendid,\nas when I find myself a deer on some strange lawn,\n\nmy garden party head a promiscuity of maps\nwith toll-free grassy lanes and cul de sacs. </pre>\n "}], "pager": {"current_page": 542, "total_items": "13248", "total_pages": 663, "items_per_page": 20}}