{"rows": [{"title": "Independence Day (audio only)", "view_node": "/poem/independence-day-audio-only", "field_author": "<a href=\"/poet/gerald-stern\" hreflang=\"und\">Gerald Stern</a>", "field_date_published": "2011", "body": " <p>\u00a0</p><p>Click the icon above to listen to this audio poem.</p> "}, {"title": "The Shout (audio only)", "view_node": "/poem/shout-audio-only", "field_author": "<a href=\"/poet/simon-armitage\" hreflang=\"und\">Simon Armitage</a>", "field_date_published": "2005", "body": " <p>\u00a0</p><p>Click the icon above to listen to this audio poem.</p> "}, {"title": "Chosen by the Lion (audio only)", "view_node": "/poem/chosen-lion-audio-only", "field_author": "<a href=\"/poet/linda-gregg\" hreflang=\"und\">Linda Gregg</a>", "field_date_published": "1991", "body": " <p>\u00a0</p><p>Click the icon above to listen to this audio poem.</p> "}, {"title": "On the Grasshopper and Cricket", "view_node": "/poem/grasshopper-and-cricket", "field_author": "<a href=\"/poet/john-keats\" hreflang=\"und\">John Keats</a>", "field_date_published": "2015", "body": " <p>The poetry of earth is never dead:<br />\u00a0 When all the birds are faint with the hot sun,<br />\u00a0 And hide in cooling trees, a voice will run<br />From hedge to hedge about the new-mown mead;<br />That is the Grasshopper's\u2014he takes the lead<br />\u00a0 In summer luxury,\u2014he has never done<br />\u00a0 With his delights; for when tired out with fun<br />He rests at ease beneath some pleasant weed.<br />The poetry of earth is ceasing never:<br />\u00a0 On a lone winter evening, when the frost<br />\u00a0\u00a0\u00a0 Has wrought a silence, from the stove there shrills<br />The Cricket's song, in warmth increasing ever,<br />\u00a0 And seems to one in drowsiness half lost,<br />\u00a0\u00a0\u00a0 The Grasshopper's among some grassy hills.</p> "}, {"title": "Deep in the Quiet Wood", "view_node": "/poem/deep-quiet-wood", "field_author": "<a href=\"/poet/james-weldon-johnson\" hreflang=\"und\">James Weldon Johnson</a>", "field_date_published": "2015", "body": "<p><span class=\"long-line\">Are you bowed down in heart?</span><br /><span class=\"long-line\">Do you but hear the clashing discords and the din of life?</span><br /><span class=\"long-line\">Then come away, come to the peaceful wood,</span><br /><span class=\"long-line\">Here bathe your soul in silence. Listen! Now,</span><br /><span class=\"long-line\">From out the palpitating solitude</span><br /><span class=\"long-line\">Do you not catch, yet faint, elusive strains?</span><br /><span class=\"long-line\">They are above, around, within you, everywhere.</span><br /><span class=\"long-line\">Silently listen! Clear, and still more clear, they come.</span><br /><span class=\"long-line\">They bubble up in rippling notes, and swell in singing tones.</span><br /><span class=\"long-line\">Now let your soul run the whole gamut of the wondrous scale</span><br /><span class=\"long-line\">Until, responsive to the tonic chord,</span><br /><span class=\"long-line\">It touches the diapason of God\u2019s grand cathedral organ,</span><br /><span class=\"long-line\">Filling earth for you with heavenly peace</span><br /><span class=\"long-line\">And holy harmonies.</span></p>\n"}, {"title": "Dark Matter and Dark Energy", "view_node": "/poem/dark-matter-and-dark-energy", "field_author": "<a href=\"/poet/alicia-ostriker\" hreflang=\"und\">Alicia Ostriker</a>", "field_date_published": "2015", "body": " <p>My husband says dark matter is a reality<br />not just some theory invented by adolescent computers<br />he can prove it exists and is everywhere</p><p>forming invisible haloes around everything<br />and somehow because of gravity<br />holding everything loosely together</p><p>the way a child wants to escape its parents<br />and doesn\u2019t want to\u2014what\u2019s that\u2014<br />we don\u2019t know what it is but we know it is real</p><p>the way our mothers and fathers fondly<br />angrily followed fixed orbits around<br />each other like mice on a track</p><p>the way every human and every atom<br />rushes through space wrapped in its invisible<br />halo, this big shadow\u2014that\u2019s dark dark matter</p><p>sweetheart, while the galaxies<br />in the wealth of their ferocious protective bubbles<br />stare at each other</p><p>unable to cease<br />proudly<br />receding</p> "}, {"title": "The Uncanny Valley", "view_node": "/poem/uncanny-valley", "field_author": "<a href=\"/poet/amanda-nadelberg\" hreflang=\"en\">Amanda Nadelberg</a>", "field_date_published": "2015", "body": " <p>Fireflies careening the fields regardless<br />of charm, without attention, jesters slid<br />into the sea and time was forthcoming.<br />There was a story being told.</p><p>The lake asked nothing. (It was late<br />and certainty required that you talk less<br />or at the very least move over.) Under<br />the song he said \u2018no more peonies\u2019<br />buttoned the door back on its frame, the<br />street a ceremony in and of itself which<br />made cars implements, plain miracles<br />capsizing baskets in candied fields.</p><p>The men and women were useful, abolishing<br />daisies, and every time the band plays<br />I\u2019m Ursula wondering still at the door<br />a terminal of the face (such is any incident<br />on the way home) a field of aftermaths,<br />a horizon because of boats.</p><p>Cloth begot embrace while television<br />considered fish, flowers by Mary and the<br />fonts belonging to the post office coterie.<br />While the room is recreated and the woods<br />are just outside, denouncing, there\u2019s styled\u00a0<br />behavior in the country in the city nonetheless,<br />there are sermons in the sky, tonight, whole<br />haggled systems, photographs abiding and<br />I create nothing, I broke his collarbone<br />and went away, listened to a song and pulled<br />the world up around my head. Today is a long<br />time in any number of places we don\u2019t go.<br />No one says thank you. They get older and<br />they fake it whether or not we\u2019re there.<br />\u00a0</p> "}, {"title": "nocturnal heritage", "view_node": "/poem/nocturnal-heritage", "field_author": "<a href=\"/poet/roberto-harrison\" hreflang=\"en\">Roberto Harrison</a>", "field_date_published": "2015", "body": " <p>then when they offered something<br />of command, the night<br />received them to confirm</p><p>a change of season. they were not<br />standing on the earth, or</p><p>they remembered that the fields of rice<br />would not harvest them, people<br />of the ashes. their directions</p><p>would not receive the ancient winds<br />or the doorway to the past<br />brought them firmly to the soil. they were often</p><p>not known<br />by number, and they were once<br />attached to the after years</p><p>of service. they did not<br />announce themselves</p><p>as their words<br />would not serve the ashes. and they once<br />had their memories</p><p>grown for the fields<br />of their pockets. no one</p><p>could speak</p><p>after they moved<br />on the soil<br />through the oceans<br />\u00a0</p> "}, {"title": "Current", "view_node": "/poem/current", "field_author": "<a href=\"/poet/alan-soldofsky\" hreflang=\"en\">Alan Soldofsky</a>", "field_date_published": "2015", "body": " <p>I\u2019m careful where I step. Water ripples<br />greenish blue against hot sand; pebbles mixed<br />with quartz grains and pine needles, sharp<br />amid the duff, blown down from the<br />upper stories of the sugar pines<br />clumped along the beach. Kids falling off<br />paddle boards into the cold lake, voices\u00a0<br />like stretched brake linings in the dry air.<br />A geometric rim of mountains in the<br />near distance. A few geese<br />float detached on the current. Beside<br />us a family under a mesh canopy<br />speaks English and Russian.\u00a0<br />I love the present with its layers<br />of seconds faceted like sparks<br />hammered off the glinting surface.\u00a0<br />I want to stay here endlessly,<br />standing at the convergence of sand and water<br />while we watch them sequestered<br />under the clutter of branches, breathing<br />suntan lotion. I dread the future, yet it arrives<br />little by little. Knowingly we disappear into it.\u00a0<br />Our bodies dissolve molecule by molecule<br />swept out to the edge of the intangible,<br />where light is compressed\u00a0 into blackness.<br />Where red ants crawl in their columns across<br />rotting earth, leaving no more<br />than a trail of resin behind.</p> "}, {"title": "Night Fell", "view_node": "/poem/night-fell", "field_author": "<a href=\"/poet/florence-ripley-mastin\" hreflang=\"en\">Florence Ripley Mastin</a>", "field_date_published": "1918", "body": " <p>Night fell one year ago, like this.<br />He had been writing steadily.<br />Among these dusky walls of books,<br />How bright he looked, intense as flame!<br />Suddenly he paused,<br />The firelight in his hair,<br />And said, \u201cThe time has come to go.\u201d<br />I took his hand;<br />We watched the logs burn out;<br />The apple boughs fingered the window;<br />Down the cool, spring night<br />A slim, white moon leaned to the hill.<br />To-night the trees are budded white,<br />And the same pale moon slips through the dusk.<br />O little buds, tap-tapping on the pane,<br />O white moon,<br />I wonder if he sleeps in woods<br />Where there are leaves?<br />Or if he lies in some black trench,<br />His hands, his kind hands, kindling flame that kills?<br />Or if, or if \u2026<br />He is here now, to bid me last good-night?</p> "}, {"title": "Liberty", "view_node": "/poem/liberty", "field_author": "<a href=\"/poet/edward-thomas\" hreflang=\"und\">Edward Thomas</a>", "field_date_published": "1917", "body": " <p>The last light has gone out of the world, except<br />This moonlight lying on the grass like frost<br />Beyond the brink of the tall elm\u2019s shadow.<br />It is as if everything else had slept<br />Many an age, unforgotten and lost<br />The men that were, the things done, long ago,<br />All I have thought; and but the moon and I<br />Live yet and here stand idle over the grave<br />Where all is buried. Both have liberty<br />To dream what we could do if we were free<br />To do some thing we had desired long,<br />The moon and I. There\u2019s none less free than who<br />Does nothing and has nothing else to do,<br />Being free only for what is not to his mind,<br />And nothing is to his mind. If every hour<br />Like this one passing that I have spent among<br />The wiser others when I have forgot<br />To wonder whether I was free or not,<br />Were piled before me, and not lost behind,<br />And I could take and carry them away<br />I should be rich; or if I had the power<br />To wipe out every one and not again<br />Regret, I should be rich to be so poor.<br />And yet I still am half in love with pain,<br />With what is imperfect, with both tears and mirth,<br />With things that have an end, with life and earth,<br />And this moon that leaves me dark within the door.</p> "}, {"title": "A Kiss ", "view_node": "/poem/kiss-1", "field_author": "<a href=\"/poet/david-tomas-martinez\" hreflang=\"en\">David Tomas Martinez</a>", "field_date_published": "2015", "body": " <p>And sometimes it is<br />loss</p><p>\u00a0 \u00a0 \u00a0 \u00a0 \u00a0 \u00a0 \u00a0 \u00a0 \u00a0 \u00a0 \u00a0 \u00a0 \u00a0 \u00a0 \u00a0 \u00a0 \u00a0 \u00a0 \u00a0 \u00a0 \u00a0 \u00a0 \u00a0 \u00a0 \u00a0 \u00a0 \u00a0 \u00a0that we lose,</p><p>\u00a0 \u00a0 \u00a0 \u00a0 \u00a0 and sometimes</p><p>it is just lips. When I was</p><p><br />\u00a0 \u00a0 \u00a0 \u00a0 \u00a0 \u00a0 \u00a0 \u00a0 \u00a0 \u00a0 \u00a0 \u00a0 \u00a0 \u00a0a child, I would ask my mother<br />to tuck me</p><p>\u00a0 \u00a0 \u00a0 \u00a0 \u00a0 \u00a0 \u00a0 \u00a0 \u00a0 \u00a0 \u00a0 \u00a0 \u00a0 \u00a0 \u00a0in, wrap me tight in blankets,</p><p>\u00a0\u00a0\u00a0\u00a0\u00a0\u00a0\u00a0\u00a0\u00a0\u00a0\u00a0 make me into a burrito.</p><p><br />\u00a0 \u00a0 \u00a0 \u00a0 \u00a0 \u00a0 \u00a0 \u00a0 \u00a0 \u00a0 \u00a0 \u00a0 \u00a0 \u00a0Sometimes I would wait in bed,</p><p>pressing my body stiff, like a board,</p><p>mind like a feather, silly\u2014 setting the scene</p><p>\u00a0\u00a0\u00a0\u00a0\u00a0\u00a0\u00a0\u00a0\u00a0\u00a0\u00a0\u00a0\u00a0\u00a0\u00a0\u00a0\u00a0\u00a0\u00a0\u00a0\u00a0\u00a0\u00a0\u00a0</p><p>\u00a0 \u00a0 \u00a0 \u00a0 \u00a0 \u00a0 \u00a0 \u00a0 \u00a0 \u00a0 \u00a0 \u00a0 to be seen.</p><p>\u00a0 \u00a0 \u00a0 \u00a0 \u00a0 \u00a0 \u00a0 \u00a0 \u00a0 \u00a0 \u00a0 \u00a0 \u00a0 \u00a0 \u00a0 \u00a0 \u00a0 \u00a0 \u00a0 \u00a0 \u00a0 So I could be wrapped.</p><p>\u00a0 \u00a0 \u00a0 \u00a0 \u00a0 \u00a0 \u00a0 \u00a0 \u00a0 \u00a0 \u00a0 \u00a0 \u00a0 \u00a0 \u00a0 \u00a0 \u00a0 \u00a0 \u00a0 \u00a0 \u00a0 \u00a0 \u00a0 So I could be kissed.</p><p><br />And what</p><p>\u00a0 \u00a0 \u00a0 \u00a0 \u00a0 \u00a0 \u00a0 \u00a0 \u00a0 \u00a0 \u00a0 \u00a0 \u00a0 \u00a0 \u00a0 \u00a0 \u00a0 I miss most,</p><p><br />is being \u00a0 \u00a0 \u00a0 \u00a0 \u00a0 \u00a0made \u00a0 \u00a0 \u00a0 \u00a0 \u00a0 \u00a0 \u00a0 \u00a0 \u00a0 \u00a0 \u00a0 \u00a0 \u00a0 \u00a0 \u00a0 \u00a0 again.</p> "}, {"title": "Guidebooks for the Dead", "view_node": "/poem/guidebooks-dead", "field_author": "<a href=\"/poet/cynthia-cruz\" hreflang=\"und\">Cynthia Cruz</a>", "field_date_published": "2015", "body": " <p>Mother\u2019s crimson leather bags<br />Crammed with saint cards<br />And tiny glass bottles of liquor.</p><p>The bright stitch<br />Of God\u2019s final coming.</p><p>Dirt and dregs, silt and stars.</p><p>The sweet song<br />Of poverty</p><p>Rinsing through me<br />Like the memory<br />Of a dream.</p> "}, {"title": "The Resistance and Its Light", "view_node": "/poem/resistance-and-its-light", "field_author": "<a href=\"/poet/pier-paolo-pasolini\" hreflang=\"und\">Pier Paolo Pasolini</a>", "field_date_published": "2015", "body": "<p><em>translated by Brandon Brown\u00a0</em></p>\n\n<p>so I came to the days of the Resistance<br />\nI didn\u2019t know anything but style<br />\nit was a style made totally of light<br />\nmemorable recognition<br />\nof sun. It could never fade<br />\nnot even for an instant<br />\neven as Europe trembled<br />\non its deadliest evening<br />\nwe escaped from Casarsa<br />\nwith our stuff in a cart<br />\nto a ruined village<br />\namong canals and vineyards it was pure light<br />\nmy brother left, it was a mute morning<br />\nMarch, in a train, disguised<br />\nhis pistol in a book it was pure light<br />\nhe lived a long time in the mountains<br />\nwhich shone like paradise in the blue gloom<br />\nof Friulian plains it was pure light<br />\nin the attic of our farmhouse my mother<br />\nalways stared at those mountains<br />\nhopeless, she saw the future it was pure light<br />\nwith a few poor people I lived<br />\na glorious life, persecuted<br />\nby despicable rhetoric it was pure light<br />\nthe day of death came<br />\nIndependence Day, the martyred world<br />\nknew itself again in the light\u2026</p>\n\n<p>the light was the thought of justice<br />\nI didn\u2019t know what kind of justice<br />\nall light equal to all other light<br />\nthen it changed, the light like an uncertain morning<br />\na waxing dawn that spread all over<br />\nFriulian fields and canals<br />\nstruggling workers in the light<br />\nthe rising dawn was a light I mean<br />\nbeyond the eternity of style<br />\nin history, justice has been<br />\nthe realization of a humane<br />\ndistribution of money, hope<br />\nmaybe, brighter than that<br />\nnew light</p>\n"}, {"title": "Epilogue", "view_node": "/poem/epilogue-0", "field_author": "<a href=\"/poet/amber-tamblyn\" hreflang=\"en\">Amber Tamblyn</a>", "field_date_published": "2015", "body": " <p>I took a break from writing about the dead<br />and drinking from writing about the dead<br />to walk around my childhood neighborhood.<br />Everything\u2019s for rent. Or for sale, for ten<br />times the amount it\u2019s worth.</p><p>Palm trees are planted in front of a mural<br />of palm trees under the Ocean Park Bridge.<br />In the painting, the metal horses of a carousel are breaking<br />free and running down the beach. Why didn\u2019t I leave</p><p>my initials in cement<br />in front of my parent\u2019s apartment in the eighties?<br />Nikki had the right idea in \u201979.</p><p>I walk by a basketball court, where men play<br />under the florescent butts of night\u2019s cigarette.<br />I could have been any of their wives,<br />at home, filling different rooms in different houses<br />with hopeful wombs. Agreeing on paint color</p><p>samples with their mothers in mind.<br />I\u2019ll bet their wives let their cats go out<br />hunting at night like premonitions of future sons.<br />They will worry, stare out the front window,<br />pray that privilege doesn\u2019t bring home bad news<br />like some wilted head of a black girl in nascent jaws.</p><p>To say nothing of the owl who\u2019s been here for years. I hear him</p><p>when I\u2019m trying to write about the deaths I\u2019ve admired.<br />I hear him when the clothed me no longer recognizes<br />the naked. I hear him while writing and shitting and sleeping<br />where my mother\u2019s seven guitars sleep.<br />I hear him in my parent\u2019s house,<br />their walls covered in my many faces,<br />traces of decades of complacence.</p><p>My childhood neighborhood is a shrine to my success,<br />and I\u2019m a car with a bomb inside, ready<br />to pull up in front of it and stop<br />pretending.<br />\u00a0</p> "}, {"title": "Autobiography of Eve", "view_node": "/poem/autobiography-eve", "field_author": "<a href=\"/poet/ansel-elkins\" hreflang=\"en\">Ansel  Elkins </a>", "field_date_published": "2015", "body": "<p><span class=\"long-line\">Wearing nothing but snakeskin</span><br /><span class=\"long-line\">boots, I blazed a footpath, the first</span><br /><span class=\"long-line\">radical road out of that old kingdom</span><br /><span class=\"long-line\">toward a new unknown.</span><br /><span class=\"long-line\">When I came to those great flaming gates</span><br /><span class=\"long-line\">of burning gold,</span><br /><span class=\"long-line\">I stood alone in terror at the threshold</span><br /><span class=\"long-line\">between Paradise and Earth.</span><br /><span class=\"long-line\">There I heard a mysterious echo:</span><br /><span class=\"long-line\">my own voice</span><br /><span class=\"long-line\">singing to me from across the forbidden</span><br /><span class=\"long-line\">side. I shook awake\u2014</span><br /><span class=\"long-line\">at once alive in a blaze of green fire.</span></p>\n\n<p><span class=\"long-line\">Let it be known: I did not fall from grace.</span></p>\n\n<p><span class=\"long-line\">I leapt</span><br /><span class=\"long-line\">to freedom.</span></p>\n"}, {"title": "I Know My Soul", "view_node": "/poem/i-know-my-soul", "field_author": "<a href=\"/poet/claude-mckay\" hreflang=\"und\">Claude McKay</a>", "field_date_published": "2015", "body": "<p><span class=\"long-line\">I plucked my soul out of its secret place,</span><br /><span class=\"long-line\">And held it to the mirror of my eye,</span><br /><span class=\"long-line\">To see it like a star against the sky,</span><br /><span class=\"long-line\">A twitching body quivering in space,</span><br /><span class=\"long-line\">A spark of passion shining on my face.</span><br /><span class=\"long-line\">And I explored it to determine why</span><br /><span class=\"long-line\">This awful key to my infinity</span><br /><span class=\"long-line\">Conspires to rob me of sweet joy and grace.</span><br /><span class=\"long-line\">And if the sign may not be fully read,</span><br /><span class=\"long-line\">If I can comprehend but not control,</span><br /><span class=\"long-line\">I need not gloom my days with futile dread,</span><br /><span class=\"long-line\">Because I see a part and not the whole.</span><br /><span class=\"long-line\">Contemplating the strange, I\u2019m comforted</span><br /><span class=\"long-line\">By this narcotic thought: I know my soul.</span></p>\n"}, {"title": "If I should die (54)", "view_node": "/poem/if-i-should-die-54", "field_author": "<a href=\"/poet/emily-dickinson\" hreflang=\"und\">Emily Dickinson</a>", "field_date_published": "1860", "body": "<p><span class=\"long-line\">If I should die,</span><br /><span class=\"long-line\">And you should live,</span><br /><span class=\"long-line\">And time should gurgle on,</span><br /><span class=\"long-line\">And morn should beam,</span><br /><span class=\"long-line\">And noon should burn,</span><br /><span class=\"long-line\">As it has usual done;</span><br /><span class=\"long-line\">If birds should build as early,</span><br /><span class=\"long-line\">And bees as bustling go,\u2014</span><br /><span class=\"long-line\">One might depart at option</span><br /><span class=\"long-line\">From enterprise below!</span><br /><span class=\"long-line\">\u2019T is sweet to know that stocks will stand</span><br /><span class=\"long-line\">When we with daisies lie,</span><br /><span class=\"long-line\">That commerce will continue,</span><br /><span class=\"long-line\">And trades as briskly fly.</span><br /><span class=\"long-line\">It makes the parting tranquil</span><br /><span class=\"long-line\">And keeps the soul serene,</span><br /><span class=\"long-line\">That gentlemen so sprightly</span><br /><span class=\"long-line\">Conduct the pleasing scene!</span></p>\n"}, {"title": "Consolation", "view_node": "/poem/consolation", "field_author": "<a href=\"/poet/robert-louis-stevenson\" hreflang=\"und\">Robert Louis Stevenson</a>", "field_date_published": "1872", "body": " <p>Though he, that ever kind and true,<br />Kept stoutly step by step with you,<br />Your whole long, gusty lifetime through,<br />\u00a0\u00a0\u00a0\u00a0\u00a0\u00a0Be gone a while before,<br />Be now a moment gone before,<br />Yet, doubt not, soon the seasons shall restore<br />\u00a0\u00a0\u00a0\u00a0\u00a0\u00a0Your friend to you.</p><p>He has but turned the corner \u2014 still<br />He pushes on with right good will,<br />Through mire and marsh, by heugh and hill,<br />\u00a0\u00a0\u00a0\u00a0\u00a0\u00a0That self-same arduous way \u2014<br />That self-same upland, hopeful way,<br />That you and he through many a doubtful day<br />\u00a0\u00a0\u00a0\u00a0\u00a0\u00a0Attempted still.</p><p>He is not dead, this friend \u2014 not dead,<br />But in the path we mortals tread<br />Got some few, trifling steps ahead<br />\u00a0\u00a0\u00a0\u00a0\u00a0\u00a0And nearer to the end;<br />So that you too, once past the bend,<br />Shall meet again, as face to face, this friend<br />\u00a0\u00a0\u00a0\u00a0\u00a0\u00a0You fancy dead.</p><p>Push gaily on, strong heart! The while<br />You travel forward mile by mile,<br />He loiters with a backward smile<br />\u00a0\u00a0\u00a0\u00a0\u00a0\u00a0Till you can overtake,<br />And strains his eyes to search his wake,<br />Or whistling, as he sees you through the brake,<br />\u00a0\u00a0\u00a0\u00a0\u00a0\u00a0Waits on a stile.</p> "}, {"title": "Watch the Film You Paid to See", "view_node": "/poem/watch-film-you-paid-see", "field_author": "<a href=\"/poet/todd-colby\" hreflang=\"en\">Todd  Colby</a>", "field_date_published": "2015", "body": " <p>In my bedroom my weight is three times more<br />than what I\u2019d weigh on Jupiter.<br />If your kitchen was on Mercury I\u2019d be heavier by half<br />of you while sitting at your table.<br />On Uranus, a quarter of my weight is meat,<br />or an awareness of myself as flesh.<br />On Venus the light would produce a real volume around me<br />that would make me look happy in photographs.<br />This is how it is with quantity in any life. It\u2019s a fact<br />that on certain planets I\u2019d actually be able to mount<br />the stairs four at a time. Think of the most beautiful horse<br />in the world: a ridiculously beautiful golden horse,<br />with a shimmering coat; it would weigh no more<br />than an empty handbag on Mars. You need<br />to get real about these things.</p> "}], "pager": {"current_page": 381, "total_items": "13248", "total_pages": 663, "items_per_page": 20}}