{"rows": [{"title": "Living on Someone Else&#039;s Money (audio only)", "view_node": "/poem/living-someone-elses-money-audio-only", "field_author": "<a href=\"/poet/tom-healy\" hreflang=\"und\">Tom Healy</a>", "field_date_published": "2010", "body": " <p>\u00a0</p><p>Click the icon above to listen to this audio poem.</p> "}, {"title": "A Possum Entering the Argument", "view_node": "/poem/possum-entering-argument", "field_author": "<a href=\"/poet/tom-healy\" hreflang=\"und\">Tom Healy</a>", "field_date_published": "2010", "body": " <p>\u00a0</p><p>Click the icon above to listen to this audio poem.</p> "}, {"title": "Ordinary Landscape (audio only)", "view_node": "/poem/ordinary-landscape-audio-only", "field_author": "<a href=\"/poet/jonathan-weinert\" hreflang=\"und\">Jonathan Weinert</a>", "field_date_published": "2010", "body": " <p>\u00a0</p><p>Click the icon above to listen to this audio poem.</p> "}, {"title": "Gas Star", "view_node": "/poem/gas-star", "field_author": "<a href=\"/poet/george-witte\" hreflang=\"und\">George Witte</a>", "field_date_published": "2010", "body": " <p>\u00a0</p><p>Click the icon above to listen to this audio poem.</p> "}, {"title": "At Dusk, the Catbird", "view_node": "/poem/dusk-catbird", "field_author": "<a href=\"/poet/george-witte\" hreflang=\"und\">George Witte</a>", "field_date_published": "2010", "body": " <p>\u00a0</p><p>Click the icon above to listen to this audio poem.</p> "}, {"title": "Ignatz, Pop Quiz (audio only)  ", "view_node": "/poem/ignatz-pop-quiz-audio-only", "field_author": "<a href=\"/poet/monica-youn\" hreflang=\"und\">Monica Youn</a>", "field_date_published": "2010", "body": " <p>\u00a0</p><p>Click the icon above to listen to this audio poem.</p> "}, {"title": "Migrant", "view_node": "/poem/migrant", "field_author": "<a href=\"/poet/ange-mlinko\" hreflang=\"und\">Ange Mlinko</a>", "field_date_published": "2010", "body": " <pre>\nSunday takes us to the relic-boxes of small Texas towns,\ntheir shops of Sears and Roebuck\n\u00a0\u00a0\u00a0\u00a0\u00a0\u00a0\u00a0\u00a0\u00a0\u00a0\u00a0\u00a0sewing machine stands,\nbordello bedframes, and scrap-metal lawn art: a butterfly\nstakes a Spartan garden\n\u00a0\u00a0\u00a0\u00a0\u00a0\u00a0\u00a0\u00a0\u00a0\u00a0\u00a0\u00a0with pollen rust.\nLearning the hard way not to touch even the brass panel\nof a swinging entrance\n\u00a0\u00a0\u00a0\u00a0\u00a0\u00a0\u00a0\u00a0\u00a0\u00a0\u00a0\u00a0door to cold beer\na rose catheterizing a vase, bloom achieved. None of these\nwheel-hoops made overseas,\n\u00a0\u00a0\u00a0\u00a0\u00a0\u00a0\u00a0\u00a0\u00a0\u00a0\u00a0\u00a0none of the wind bearing\nsignals toward receivers. \"What are you, unremember-prone?\"\nBut as a clock-spring's\n\u00a0\u00a0\u00a0\u00a0\u00a0\u00a0\u00a0\u00a0\u00a0\u00a0\u00a0\u00a0reincarnated in\nan obnoxious doorknob, squint-squeal, a drawer is shaking out\nagain its rubber bands,\n\u00a0\u00a0\u00a0\u00a0\u00a0\u00a0\u00a0\u00a0\u00a0\u00a0\u00a0\u00a0nails, batteries, twists,\nrazor blades, shoelaces, coupons, q-tips, to jerry-rig the butterfly\na sunflower. That's to say\n\u00a0\u00a0\u00a0\u00a0\u00a0\u00a0\u00a0\u00a0\u00a0\u00a0\u00a0\u00a0the armored flower\nthese Sabbath-shut antique shops show me in mirrors.\nWith a castle of black iron,\n\u00a0\u00a0\u00a0\u00a0\u00a0\u00a0\u00a0\u00a0\u00a0\u00a0\u00a0\u00a0very Louise Nevelson,\ngears and ratchets and half-moon windows in turrets\nbuffered by a wall of copper beech,\n\u00a0\u00a0\u00a0\u00a0\u00a0\u00a0\u00a0\u00a0\u00a0\u00a0\u00a0\u00a0a moat of black mondo grass\nand borders of purple wandering jew. If I thread the screw\nin that will hold the weight\n\u00a0\u00a0\u00a0\u00a0\u00a0\u00a0\u00a0\u00a0\u00a0\u00a0\u00a0\u00a0of this world upon the wall,\nthe mirrors of the antique shops and the antique shops themselves\nprotest that we're not unpacked.\n\u00a0\u00a0\u00a0\u00a0\u00a0\u00a0\u00a0\u00a0\u00a0\u00a0\u00a0\u00a0That we may not be\nbefore the buzzards sink, empty ink cartridges\nof those translucent claws.\n\u00a0\u00a0\u00a0\u00a0\u00a0\u00a0\u00a0\u00a0\u00a0\u00a0\u00a0\u00a0Not fully.</pre>\n "}, {"title": "Extraordinary Rendition", "view_node": "/poem/extraordinary-rendition", "field_author": "<a href=\"/poet/paul-muldoon\" hreflang=\"und\">Paul Muldoon</a>", "field_date_published": "2010", "body": " <pre>\n<b>I</b>.\n\nI gave you back my claim on the mining town\nand the rich vein we once worked,\nthe tumble down\nfrom a sluice box that irked\n\nyou so much, the narrow gauge\nthat opened up to one and all\nwhen it ran out at the landing stage\nbeyond the falls.\n\nI gave you back oak ties,\nbully flitches, the hand-hewn crossbeams\nfrom which hung hardtack\n\nin a burlap bag that, I'd surmise,\nhad burst its seams\nthe last night we lay by the old spur track.\n\n<b>II</b>.\n\nYou gave me back your frown\nand the most recent responsibility you'd shirked\nalong with something of your renown\nfor having jumped from a cage just before it jerked\n\nto a standstill, your wild rampage\nshot through with silver falderals,\nthe speed of that falling cage\nand the staidness of our canyon walls.\n\nYou gave me back lake skies,\npulley glitches, gully pitches, the reflected gleams\nof two tin plates and mugs in the shack,\n\nthe echoes of love sighs\nand love screams\nour canyon walls had already given back.</pre>\n "}, {"title": "Redaction", "view_node": "/poem/redaction", "field_author": "<a href=\"/poet/carmen-gimenez-smith\" hreflang=\"und\">Carmen  Gim\u00e9nez Smith</a>", "field_date_published": "2010", "body": " <pre>\nWe make dogma out of letter writing: the apocryphal story \nof Lincoln who wrote angry letters he never sent. We wait for letters \nfor days and days. Someone tells me <i>I'll write you a letter</i>\nand I feel he's saying <i>you're different than anyone else</i>.\nDistance's buzz gets louder and louder. It gets to be a blackest hole.\nI want the letter about the time we cross the avenue, and you reach \nfor my hand without looking\u2014I am afraid I'm not what you want. \nWe float down the street as if in the curve of a pod \nand the starry black is like the inside of a secret. We're drunk. \nThe streetlight exposes us which becomes the deepest \nhorror. Yes. End the letter like that, so it becomes authorless. \nThen the letter might give off secrets: acid imbalances that detonate.</pre>\n "}, {"title": "Refresh. Refresh. Refresh.", "view_node": "/poem/refresh-refresh-refresh", "field_author": "<a href=\"/poet/noah-eli-gordon\" hreflang=\"und\">Noah Eli Gordon</a>", "field_date_published": "2010", "body": " <pre>\nI'd give you another day dizzy \nin its bracket for the reluctant circumference \nof a sad sad satellite's antiquated orbital stoppage.\nYou can't jump with a lead foot, can't \nanthropomorphize insect anticipation, can't \npixelate postcard nostalgia, can't \ntrace a boy's tiny hand and call him\nking of anything that crosses your path, your past,\nyour iconographic reluctance to let go the toehold\nof ordinary New York lasting so long at night, so\nlusty in traffic &amp; another orphan absently\nkicking the underside of an orange plastic chair.\nPoems shouldn't make you wait for them to finish.\nLike love, they should finish making you wait.</pre>\n "}, {"title": "[without a listener]", "view_node": "/poem/without-listener", "field_author": "<a href=\"/poet/maxine-chernoff\" hreflang=\"und\">Maxine Chernoff</a>", "field_date_published": "2010", "body": " <pre>\na voice speaks \n\nto rheumy stars\n\ndeadpan witness\n\nno call and response\n\nor supplicant's hope\n\nall this hurts\n\nthe ocean suggests\n\nas if waves\n\ncould privilege\n\near's dumb gestures\n\nor a ghost\n\nof a sentence learn\n\nto read its\n\nown dried ink</pre>\n "}, {"title": "Dawn", "view_node": "/poem/dawn-0", "field_author": "<a href=\"/poet/george-hitchcock\" hreflang=\"und\">George Hitchcock</a>", "field_date_published": "1969", "body": " <pre>\nClouds rise from their nests\nwith flapping wings, they whisper\nof worn leather, bracken, long\nhorizons, and the manes of dark\nhorses. In the waking stream\nthe stones lie like chestnuts\nin a glass bowl. I pass the bones\nof an old harrow thrown on its side\nin the ditch.\n\n                   Now the sun appears.\nIt is a fish wrapped in straw.\nIts scales fall on the sleeping\ntown with its eyeless graineries\nand necklace of boxcars. Soon\nthe blue wind will flatten the roads\nwith a metallic palm, the glitter\nof granite will blind the eyes.\n\nBut not yet. The beetle still\nstares from the riding moon, the ship\nof death stands motionless on\nfrozen waves: I hear\nthe silence of early morning\nrise from the rocks.</pre>\n "}, {"title": "Vespertina Cognitio", "view_node": "/poem/vespertina-cognitio", "field_author": "<a href=\"/poet/natasha-trethewey\" hreflang=\"und\">Natasha Trethewey</a>", "field_date_published": "2010", "body": " <pre>\nOverhead, pelicans glide in threes\u2014\n         their shadows across the sand\n                  dark thoughts crossing the mind.\n\nBeyond the fringe of coast, shrimpers\n         hoist their nets, weighing the harvest\n                  against the day's losses. Light waning,\n\nconcentration is a lone gull\n         circling what's thrown back. Debris\n                  weights the trawl like stones.\n\nAll day, this dredging\u2014beneath the tug\n         of waves\u2014rhythm of what goes out, \n                  comes back, comes back, comes back.</pre>\n "}, {"title": "Summer Rice", "view_node": "/poem/summer-rice", "field_author": "<a href=\"/poet/linda-susan-jackson\" hreflang=\"und\">Linda Susan Jackson</a>", "field_date_published": "2010", "body": " <pre>\nThey're up to their necks in fever and floodplains, clear-\ning ground along miles of riverbed, bloodred. Carolina heat\nburns holes in their straw hats, leaves halos of steam around\nsilhouettes. Down the line, they are one deep breath riding\nfield rhythms <i>Movin', movin'</i>. Lone bones of things: a dog's jaw, \na man's leg, a baby's pelvis; thin bones of turtles, birds, fish\npulled to the surface by swole-up hands. Hopsack dresses\nsinge the women's bodies. Fringes hang from the straw pants on \nsweat-soaked, bare-chested men in the line. The line shouter \nurges them on <i>Movin' on down the line. Huh</i>. The searing sun\ndrives quail points in their backs, its red glare shedding circles\nof light around their darkening bodies. Foot after foot of earth\nunearthed. Root-thick soil dug up along low country rivers\nfor glaberrima, Africa's rice. Heels indent soil for seeds; big\ntoes cover seeds with soil in song <i>You told me, huh, knees are\nimportant</i>. Gnarled fingers of grans and nans who no longer\nwinnow, weave ancient designs into coiled baskets of pine,\nsweet grass, bulrush and palmetto to hold the summer yield. \nHulls beat against hollowed-out trees as they whirl in dervish\nfrenzy, carried round by ringing words <i>Movin' on down the line, \nhuh</i>. Despite bits and whips, they return to thatched-roof huts,\nsweep up dusty dirt with palm-leaf brooms before they bank\nthe dinner fire. Lean-to chimneys ride smoke and ash up mud\nwalls, a calico headscarf on a nail, the room's only rush of\ncolor. Their bodies break down on straw pallets. Tomorrow, \nsame as today. Same as yesterday. Okra and tomato stew. \nFish on Sunday, scratching out the scream holler of summer\nrice in their bones <i>Ah'm a movin'. Movin' out the line. Huh</i>.</pre>\n "}, {"title": "The Children&#039;s Hour", "view_node": "/poem/childrens-hour-0", "field_author": "<a href=\"/poet/li-young-lee\" hreflang=\"und\">Li-Young Lee</a>", "field_date_published": "2010", "body": " <pre>\nSoldiers with guns are at our door again.\nSister, quick. Change into a penny.\nI'll fold you in a handkerchief,\nput you in my pocket\nand jump inside a sack,\none of the uncooked rice.\n\nBrother, hurry. Turn yourself\ninto one of our mother's dolls\non the living room shelf. I'll be the dust\nsettling on your eyelids.\n\nThe ones wearing wings are in the yard.\nThe ones wearing lightning are in the house.\nThe ones wearing stars and carrying knives\nare dividing our futures among them.\n\nDon't answer when they call to us in the voice of Nanny.\nDon't listen when they promise sugar.\nDon't come out until evening,\nor when you hear our mother weeping to herself.\n\nIf only I could become the mirror in her purse, \nI'd never come back until the end of time.</pre>\n "}, {"title": "Jamaican Idol", "view_node": "/poem/jamaican-idol", "field_author": "<a href=\"/poet/terese-svoboda\" hreflang=\"und\">Terese Svoboda</a>", "field_date_published": "2010", "body": " <pre>\nWalking backward from the sea,\nscales shedding, you seek the cave. \n\nThis is why the French door admits\nonly ocean. You stare into the louver\n\nand forget how to get out. Lull\nis the word, or loll. The sea returns,\n\ncompleting your pulse, the waves live,\neach breath of yours worship.</pre>\n "}, {"title": "crossword", "view_node": "/poem/crossword", "field_author": "<a href=\"/poet/valzhyna-mort\" hreflang=\"und\">Valzhyna Mort</a>", "field_date_published": "2010", "body": " <pre>\na woman moves through dog rose and juniper bushes,\na pussy clean and folded between her legs, \nbreasts like the tips of her festive shoes\nshine silently in her heavy armoire.\n\none black bird, one cow, one horse. \nthe sea beats against the wall of the waterless.\nshe walks to a phone booth that waits\na fair distance from all three villages.\n\nit's a game she could have heard on the radio:\na question, a number, an answer, a prize.\nher pussy reaches up and turns on the light in her womb.\n\n<i>from the rain</i>, she says into the receiver, \n<i>we compiled white tables and chairs under a shed\ninto a crossword puzzle\nand sat ourselves in the grid</i>.\n\nthe receiver is silent. the bird flounces\nlike a burglar caught red-handed.\nher voice stumbles over her glands.\n<i>the body to be written in the last block\u2014\ni can suck his name out of any letter</i>.\n\nall three villages cover their faces with wind.</pre>\n "}, {"title": "Cape Coast Castle", "view_node": "/poem/cape-coast-castle", "field_author": "<a href=\"/poet/yusef-komunyakaa\" hreflang=\"und\">Yusef Komunyakaa</a>", "field_date_published": "2010", "body": " <pre>\nI made love to you, &amp; it loomed there.\nWe sat on the small veranda of the cottage,\n&amp; listened hours to the sea talk.\nI didn't have to look up to see if it was still there.\nFor days, it followed us along polluted beaches\nwhere the boys herded cows \n&amp; the girls danced for the boys,\nto the moneychanger,\n&amp; then to the marketplace.\nIt went away when the ghost of my mother\nfound me sitting beneath a palm, \nbut it was in the van with us on a road trip to the country\nas we zoomed past thatch houses.\nIt was definitely there when a few dollars\nexchanged hands &amp; we were hurried\nthrough customs, past the guards.\nI was standing in the airport in Amsterdam,\nsipping a glass of red wine, half lost in Van Gogh's\nswarm of colors, &amp; it was there, brooding in a corner.\nI walked into the public toilet, thinking of W.E.B.\nburied in a mausoleum, &amp; all his books &amp; papers\ngoing to dust, &amp; there it was, in that private moment,\nthe same image: obscene because it was built\nto endure time, stronger than their houses &amp; altars.\nThe seeds of melon. The seeds of okra in trade winds\nheaded to a new world. I walked back into the throng\nof strangers, but it followed me. I could see the path\nslaves traveled, &amp; I knew when they first saw it\nall their high gods knelt on the ground.\nWhy did I taste salt water in my mouth?\nWe stood in line for another plane, \n&amp; when the plane rose over the city\nI knew it was there, crossing the Atlantic.\nNot a feeling, but a longing. I was in Accra\nagain, gazing up at the vaulted cathedral ceiling\nof the compound. I could see the ships at dusk\nrising out of the lull of \"Amazing Grace,\" cresting \nthe waves. The governor stood on his balcony,\nholding a sword, pointing to a woman\nin the courtyard, saying, That one.\nBring me that tall, ample wench.\nEnslaved hands dragged her to the center,\nthen they threw buckets of water on her, \nbut she tried to fight. They penned her to the ground.\nShe was crying. They prodded her up the stairs. One step,\n&amp; then another. Oh, yeah, she still had some fight in her,\nbut the governor's power was absolute. He said,\nThere's a tyranny of language in my fluted bones.\nThere's a poetry on every page of the good book.\nThere's God's work to be done in a forsaken land. \nThere's a whole tribe in this one, but I'll break them\nbefore they're in the womb, before they're conceived,\nbefore they're even thought of. Come, up here, \ndon't be afraid, up here to the governor's quarters,\nup here where laws are made. I haven't delivered\nthe head of Pompey or John the Baptist\non a big silver tray, but I own your past, \npresent, &amp; future. You're special.\nYou're not like the others. Yes, \nI'll break you with fists &amp; cat-o'-nine.\nI'll thoroughly break you, head to feet, \nbut sister I'll break you most dearly\nwith sweet words.</pre>\n "}, {"title": "Hope Wanted Alive", "view_node": "/poem/hope-wanted-alive", "field_author": "<a href=\"/poet/terese-svoboda\" hreflang=\"und\">Terese Svoboda</a>", "field_date_published": "2010", "body": " <pre>\nA red-faced lion raises its maw.\nI could be in the supermarket, saran wrap thrown back\n\nbut there's <i>Hope Wanted Alive</i> scrawled along\nall the mud-slick side streets\n\nwhere kids roll bottle tops, kids hawk one seed\u2014\nin Nairobi the slum blues where I stop, gallery-wise.\n\nForty children in clean costumes of show-off\npurport to live in the two rooms abutting the paintings.\n\nYou could drink the sugar cane at the end of the street\nor you could set fire to it.\n\nI did see truck tires without trucks. \nI did see ice cream nobody would lick.\n\nAnd slits up the side of a dress,\nand always huge knives that cut, \n\nin my case, canvas. A big painting\nnot in celebration of our president\n\nbut the red-faced lion, looking \nfor the supermarket, kids in claws,\n\nbottle tops for eyes, nobody costumed\nwho isn't running, politicians\n\nwith outstretched arms equaling\n\u2014or trying to\u2014hope. I buy it.</pre>\n "}, {"title": "Body Mostly Flown", "view_node": "/poem/body-mostly-flown", "field_author": "<a href=\"/poet/terese-svoboda\" hreflang=\"und\">Terese Svoboda</a>", "field_date_published": "2010", "body": "<p><span class=\"long-line\">A De Chirico head aslant on a coverlet,</span><br /><span class=\"long-line\">body mostly flown, the dazed prayers dumb.</span></p>\n\n<p><span class=\"long-line\">The ritual cigarette, the ritual drink:</span><br /><span class=\"long-line\">incense, holy water. No ambivalence, </span></p>\n\n<p><span class=\"long-line\">the woman inside fled, the whispers</span><br /><span class=\"long-line\">I make of tenderness\u2014hers\u2014she sleeps through.</span></p>\n\n<p><span class=\"long-line\">She's in that corridor, tunnel, the light is left on\u2014</span><br /><span class=\"long-line\"><em>shut if off</em>. But the nurse has to see the thermometer.</span></p>\n\n<p><span class=\"long-line\">No ambivalence. No valence either, no speech.</span><br /><span class=\"long-line\">My own heart stops, skids. No lingering regret or all,</span></p>\n\n<p><span class=\"long-line\">sealed with stubbornness,</span><br /><span class=\"long-line\">forgiveness a ness from a life</span></p>\n\n<p><span class=\"long-line\">more fairytale, the hard breathing still, still.</span><br /><span class=\"long-line\">A wing flaps and fear scurries out, </span></p>\n\n<p><span class=\"long-line\">a mouse with a crumb it meant to eat earlier.</span><br /><span class=\"long-line\">De Chirico empties the patio.</span></p>\n"}], "pager": {"current_page": 484, "total_items": "13248", "total_pages": 663, "items_per_page": 20}}