{"rows": [{"title": "Morning at the Window", "view_node": "/poem/morning-window", "field_author": "<a href=\"/poet/t-s-eliot\" hreflang=\"und\">T. S. Eliot</a>", "field_date_published": "1917", "body": "<p><span class=\"long-line\">They are rattling breakfast plates in basement kitchens,</span><br /><span class=\"long-line\">And along the trampled edges of the street</span><br /><span class=\"long-line\">I am aware of the damp souls of housemaids </span><br /><span class=\"long-line\">Sprouting despondently at area gates.</span></p>\n\n<p><span class=\"long-line\">The brown waves of fog toss up to me </span><br /><span class=\"long-line\">Twisted faces from the bottom of the street,</span><br /><span class=\"long-line\">And tear from a passer-by with muddy skirts </span><br /><span class=\"long-line\">An aimless smile that hovers in the air </span><br /><span class=\"long-line\">And vanishes along the level of the roofs.</span></p>\n"}, {"title": "Soul-Sight", "view_node": "/poem/soul-sight", "field_author": "<a href=\"/poet/archibald-macleish\" hreflang=\"und\">Archibald MacLeish</a>", "field_date_published": "1917", "body": " <pre>\nLike moon-dark, like brown water you escape,\nO laughing mouth, O sweet uplifted lips.\nWithin the peering brain old ghosts take shape;\nYou flame and wither as the white foam slips\nBack from the broken wave: sometimes a start,\nA gesture of the hands, a way you own\nOf bending that smooth head above your heart,\u2014\nThen these are vanished, then the dream is gone.\n\nOh, you are too much mine and flesh of me\nTo seal upon the brain, who in the blood\nAre so intense a pulse, so swift a flood\nOf beauty, such unceasing instancy.\nDear unimagined brow, unvisioned face,\nAll beauty has become your dwelling place.</pre>\n "}, {"title": "Charity", "view_node": "/poem/charity", "field_author": "<a href=\"/poet/archibald-macleish\" hreflang=\"und\">Archibald MacLeish</a>", "field_date_published": "1917", "body": " <pre>\nSince my Beloved chambered me\n   To beat within her breast,\nAnd took my soul to light a shrine\n   Her soul had decked and dressed,\nAnd caught my songs about her throat,\u2014\n   Dissected, known, confessed,\nI dwell within her charity\n   A half-unwelcome guest.</pre>\n "}, {"title": "Detail of My Sort of Light", "view_node": "/poem/detail-my-sort-light", "field_author": "<a href=\"/poet/ander-monson\" hreflang=\"und\">Ander Monson</a>", "field_date_published": "2010", "body": " <pre>\nNow I know that everything is a body, \nso even the snow and the sand and \nthe blood rivered down in the snow, \nand snowed on again so it's buried\nis a body. All things are bodies in photos\u2014\ndetail of the left side of a breast and the arm's\npit\u2014detail of the sled slumbered under \nby the storm's leavings. Detail of my sort \nof so-early half-lit eyelid light that bodies\nare near to invisible and touch is no longer\nthe sole way of knowing, and outline is all \nthat there is. Detail of your body as it does \nits morning leaving thing. Detail of what \nlight there is on your skin. Detail of land-\nscape of let me in please and coffee, warm\nwhen the weather's action on this body is less\nthan ideal. Landscape with pear. Landscape \nwith weather and part of a breast in the frame.</pre>\n "}, {"title": "Beginning with Two Lines from Rexroth", "view_node": "/poem/beginning-two-lines-rexroth", "field_author": "<a href=\"/poet/ray-gonzalez\" hreflang=\"und\">Ray Gonzalez</a>", "field_date_published": "2009", "body": " <p>I see the unwritten books, the unrecorded experiments, the unpainted pictures, the interrupted lives, a staircase leading to a guarantee, the glowing frame of wisdom protecting me from harm after I escape the questions of a lifetime. I see the turning of the pages in a book I have not read, its story proclaiming the reader is going to escape without knowing how the equation injured the moment\u2014sacred leaves rotting in a bottle of rubbing oil, their black designs sinking farther than my reach.</p><p>I witness what is made for someone else, its motion calling me to wait for the regions of love where we come back, able to dismiss the picture of ourselves where we can't smile because no one is able to capture time that has not happened and never will. There is no agony and waste, only the steps into the frontier where it is easy to hide.</p><p>Even a shoulder bone cracks in the morning light, a man rising at the end of a century where everyone gives him pictures, including one of a translucent scene where the running youth carries the host, his confusion between danger and desire making the boy stop at the bank of the river, turn, and go home. When he gets to the house, he doesn't cry out. When it goes dark and the arguments begin, it is his portrait that is handed to me first because I already arrived at the junction between the lamp and the staircase to the mocking stars.</p> "}, {"title": "Freud", "view_node": "/poem/freud", "field_author": "<a href=\"/poet/james-cummins\" hreflang=\"und\">James Cummins</a>", "field_date_published": "2009", "body": " <pre>\nCome to think of it, I never speak of Mom\nmuch now, though I go on and on about Dad.\nMy generation's given \"Mom\" a beating,\nI think: there's no son who hasn't got his gun\nout for the old dear\u2014the dear in the headlights!\nThink it could be, like, you know, like...<i>Freud</i>?\n\nSpeaking of beatings, who's taken more than Freud,\nlately? From the belly of \"The Beast,\" not Mom's:\n<i>Shtand ze kike against zer vall! Aim ze headlights...</i>\nBut why beat Freud instead of dear old Dad?\nDad's the one who's always pulling out his gun,\nlonging to give <i>someone</i> a \"Christian\" beating!\n\nFreud got a few things wrong\u2014that's worth a beating?\nLet's whack some Christians instead of poor Freud.\nIt's clear they understand about \"The Gun\" \u2013\nbut what about \"The Cave?\" No, no, not Mom's\u2014\nand let's not even go there about Dad's.\nTheir <i>zeitgeist</i> is a scramble toward headlights\u2014\n\nfigures projected on a wall by headlights\u2014\nthen, once there, instituting someone's beating.\nHow do you break it to your \"real-life\" Dad\nthat twenty centuries of this <i>schadenfreude</i>\nare too much? That this smokescreen called \"Mom\"\njust hides the cave of God-Our-Daddy's gun?\n\nThey co-opt Jesus into their hired gun\u2014\nthat rabble-rousing Jewish kid, with head lice\u2014\nthen claim he cut this strange deal with <i>his</i> Mom?\n<i>And</i> he'll <i>return</i>\u2014to give the \"sons\" a beating?\nNo wonder we're devouring poor old Freud!\nWe'll swallow any tale \"revealed\" by \"Dad.\"\n\n\"I can sell you <i>anything</i>!\" My own dad\npoints his shaking finger like a gun\nat me. He wonders who the hell is Freud;\nhe winks and elbows me about \"headlights.\"\nHis diaper leaks. His pride takes a beating.\nI shoo him off to Florida with \"Mom.\"\n\nAmerika: a graveyard, a Mom-and-Dad\nbeating. Whistle past. Switch on your headlights.\nA gun can <i>be</i> a gun, even for Freud.</pre>\n "}, {"title": "Passage I", "view_node": "/poem/passage-i", "field_author": "<a href=\"/poet/maureen-n-mclane\" hreflang=\"und\">Maureen N. McLane</a>", "field_date_published": "2009", "body": " <pre>\nlittle moth\nI do not think you'll escape\nthis night\n\nI do not think\nyou'll escape this night\nlittle moth\n\n\u00a0\u00a0\u00a0\u00a0\u00a0\u00a0\u00a0\u00a0\u00a0\u00a0\u00a0\u00a0\u00a0\u00a0\u00a0*\n\nbees in clover\nsummer half over\nfriends without lovers\n\n\u00a0\u00a0\u00a0\u00a0\u00a0\u00a0\u00a0\u00a0\u00a0\u00a0\u00a0\u00a0\u00a0\u00a0\u00a0*\n\nI bite a carrot\nhorsefly bites me\n\n\u00a0\u00a0\u00a0\u00a0\u00a0\u00a0\u00a0\u00a0\u00a0\u00a0\u00a0\u00a0\u00a0\u00a0\u00a0*\n\nI thought it was you\nmoving through the trees\n\nbut it was the trees\n\nI thought it was your finger\ngrazing my knee\n\nit was the breeze\n\nI thought prayers were rising\nto a god alive in my mind\n\nthey rose on the wind\n\nI thought I had all the time\nand world enough to discover what I should\n\nwhen it was over\n\nI thought I would always be young\nthough I knew the years passed\n\nand knowing turned my hair gray\n\nI thought it was a welcome\nwhat I took for a sign\u2014\n\nthe sun...the unsymboling sun...\n\n\u00a0\u00a0\u00a0\u00a0\u00a0\u00a0\u00a0\u00a0\u00a0\u00a0\u00a0\u00a0\u00a0\u00a0\u00a0*\n\nwatch the clouds\non any given day\neven they don't keep their shape\nfor more than a minute\n\nsociable shifters\nbringing weather from elsewhere\nuntil it's our weather\nand we say now it's raining here\n\n\u00a0\u00a0\u00a0\u00a0\u00a0\u00a0\u00a0\u00a0\u00a0\u00a0\u00a0\u00a0\u00a0\u00a0\u00a0*\n\nVermont shore lit\nby a fugitive sun\nwho doesn't believe\nin a day's redemption\n\n\u00a0\u00a0\u00a0\u00a0\u00a0\u00a0\u00a0\u00a0\u00a0\u00a0\u00a0\u00a0\u00a0\u00a0\u00a0*\n\nsunset renovation\nat the expected hour\nbut the actual palette\nstill a surprise\n\n\u00a0\u00a0\u00a0\u00a0\u00a0\u00a0\u00a0\u00a0\u00a0\u00a0\u00a0\u00a0\u00a0\u00a0\u00a0*\n\ngulls alit on the lake\nlittle white splendors\nlooking to shit on the dock\n\n\u00a0\u00a0\u00a0\u00a0\u00a0\u00a0\u00a0\u00a0\u00a0\u00a0\u00a0\u00a0\u00a0\u00a0\u00a0*\n\nlittle cat\nkneading my chest\nmilkless breasts\ntake your pleasure\nwhere you can\n\n\u00a0\u00a0\u00a0\u00a0\u00a0\u00a0\u00a0\u00a0\u00a0\u00a0\u00a0\u00a0\u00a0\u00a0\u00a0*\n\nnot that I was alive\nbut that we were</pre>\n "}, {"title": "Electricity", "view_node": "/poem/electricity", "field_author": "<a href=\"/poet/geoffrey-nutter\" hreflang=\"und\">Geoffrey Nutter</a>", "field_date_published": "2009", "body": " <pre>\nChildren picking through the rocks\nbeside the river on a spring day.\nWhat are they looking for? Old green\nnet tangled on broken pilings; a couple\nembracing on the tumbledown esplanade.\nSome fishermen drinking beer from tall brown bottles. \nBroken shells, tire treads, rusted aluminum pull-tabs\u2014\ndownriver, near the sun, the great echoes \nand the embers of the bridge; and upriver,\nfar away, the echoing spools and dynamos \nof the dam, its forces crackling outward \nlike the giant snow crab's jointed legs,\nlike a web in sunlight, a net, a chorus\nof embers, like a plan the river is planning,\nabstract, afire and electric, glowing\nin the levitating rubric, invisible,\nvisible to children, undiscovered:\nBrace yourselves\u2014electricity \nis coming to us.</pre>\n "}, {"title": "Insomnia", "view_node": "/poem/insomnia", "field_author": "<a href=\"/poet/alicia-ostriker\" hreflang=\"und\">Alicia Ostriker</a>", "field_date_published": "2009", "body": " <pre>\nBut it's really fear you want to talk about\nand cannot find the words\nso you jeer at yourself\n\nyou call yourself a coward\nyou wake at 2 a.m. thinking <i>failure</i>,\n<i>fool</i>, unable to sleep, <i>unable to sleep</i>\n\nbuzzing away on your mattress with two pillows\nand a quilt, <i>they call them comforters</i>,\n<i>which implies that comfort can be bought\n\nand paid for, to help with the fear, the failure</i>\nyour two walnut chests of drawers snicker, the bookshelves mourn\nthe art on the walls pities you, the man himself beside you\n\nasleep smelling like mushrooms and moss is a comfort\nbut never enough, never, the ceiling fixture lightless\nvelvet drapes hiding the window\n\ntraffic noise like a vicious animal\non the loose somewhere out there\u2014\nyou brag to friends you won't mind death only dying\n\nwhat a liar you are\u2014\nall the other fears, of rejection, of physical pain,\nof losing your mind, of losing your eyes,\n\nthey are all part of <i>this!</i>\nPawprints of <i>this!</i> Hair snarls in your comb\nthis glowing clock the single light in the room</pre>\n "}, {"title": "Painting by Moonlight", "view_node": "/poem/painting-moonlight", "field_author": "<a href=\"/poet/medbh-mcguckian\" hreflang=\"und\">Medbh McGuckian</a>", "field_date_published": "2010", "body": " <pre>\nIt was a bright inviting, freely formed, \nthough I suppose it was I who brightened,\nwith an internal scattering of light,\nas though weather maps were more real\nthan the breath of autumn. \n\nThe low colourfulness\nof the broken and dying leaves\nwas no embrittlement\nto every decided colour on the sunlighted grass\nand the warm-hued wood of his door. \n\nBut with the dust descending\nin the glaring white gap\nmy backbone pulped and I closed up\nlike a concertina. \n\nHis tongue was hushed as Christ's lips\nor once-red grapes permitting\neach touch to spread only\nwhen the turn of the violet comes.</pre>\n "}, {"title": "Packet", "view_node": "/poem/packet", "field_author": "<a href=\"/poet/jamie-ross\" hreflang=\"und\">Jamie Ross</a>", "field_date_published": "2010", "body": " <pre>\nA green light that comes\nwhen you never saw it coming, never\nheard it, felt it, but you <i>knew</i> it\n\nlike the woman in the sandlot\nbehind Abram's Grill\nwho's just lost her lenses, \non her hands and knees, her \nhair cut short but seems as if \nit's flowing, and the rush \non her throat like a rise\nfrom birth, the music in the car\n \nas the engine goes silent\nwhile you fold down a seat\nfor the stashed beam lantern \nwith its yellow plastic grip, six \nRay-O-Vacs, the\nmovement in the trees \nbeyond Lake Michigan. It's\n\na wave like that\nwhen the wind gets lost \nand the mail-boat from Racine, three\nhours late, cracks into a tanker,\nwhere the crew, like you, has\nwaited on the decks, in the hold\nfor two months out, to send\n\na message home\u2014or to get a\ncertain scent, for just one instant,\nof weeds, in the dirt, the both\n \nof you groping.</pre>\n "}, {"title": "If My Voice Is Not Reaching You", "view_node": "/poem/if-my-voice-not-reaching-you", "field_author": "<a href=\"/poet/afzal-ahmed-syed\" hreflang=\"und\">Afzal Ahmed Syed</a>", "field_date_published": "2010", "body": " <p>\u00a0\u00a0\u00a0\u00a0\u00a0If my voice is not reaching you<br />\u00a0\u00a0\u00a0\u00a0\u00a0add to it the echo\u2014<br />\u00a0\u00a0\u00a0\u00a0\u00a0echo of ancient epics<br /><br />\u00a0\u00a0\u00a0\u00a0\u00a0And to that\u2014<br />\u00a0\u00a0\u00a0\u00a0\u00a0a princess<br /><br />\u00a0\u00a0\u00a0\u00a0\u00a0And to the princess\u2014your beauty<br /><br />\u00a0\u00a0\u00a0\u00a0\u00a0And to your beauty\u2014<br />\u00a0\u00a0\u00a0\u00a0\u00a0a lover's heart<br /><br />\u00a0\u00a0\u00a0\u00a0\u00a0And in the lover's heart<br />\u00a0\u00a0\u00a0\u00a0\u00a0a dagger</p> "}, {"title": "Phantom Noise", "view_node": "/poem/phantom-noise", "field_author": "<a href=\"/poet/brian-turner\" hreflang=\"und\">Brian Turner</a>", "field_date_published": "2010", "body": " <pre>\nThere is this ringing hum\u00a0\u00a0this\nbullet-borne language\u00a0\u00a0ringing\nshell-fall and static this\u00a0\u00a0late-night\nringing of threadwork and carpet\u00a0\u00a0ringing\nhiss and steam\u00a0\u00a0this wing-beat\nof rotors and tanks\u00a0\u00a0broken\nbodies ringing in steel\u00a0\u00a0humming these\nvoices of dust\u00a0\u00a0these years ringing\nrifles in Babylon\u00a0\u00a0rifles in Sumer\nringing these children their gravestones\nand candy\u00a0\u00a0their limbs gone missing\u00a0\u00a0their\nstatic-borne television\u00a0\u00a0their ringing\nthis eardrum\u00a0\u00a0this rifled symphonic\u00a0\u00a0this\nringing of midnight in gunpowder and oil this\nbrake pad gone useless\u00a0\u00a0this muzzle-flash singing\u00a0\u00a0this\nthreading of bullets in muscle and bone\u00a0\u00a0this ringing\nhum\u00a0\u00a0this ringing hum\u00a0\u00a0this\n<i>ringing</i></pre>\n "}, {"title": "Ode to a Flower in Casarsa", "view_node": "/poem/ode-flower-casarsa", "field_author": "<a href=\"/poet/pier-paolo-pasolini\" hreflang=\"und\">Pier Paolo Pasolini</a>", "field_date_published": "1941", "body": " <pre>\nDesert flower, flowers from the garland\nof our houses where families\nbicker in the open air,\n\nyou browse on the stones of the day,\nsimple, while field and sky \nlike sky and sea \nappear all around.\n\nRustic desert flower,\n\nno evening streaming with lights.\n\nNo shepherds drenched by dew,\n\nslender fire of the hedges.\n\nNo marsh-marigold, bilberry, swamp-violet\nor Florentine iris, or gentian, no angelica,\nno Parnassian grass or marsh-myrtle.\n\nYou\u2019re Pieruti, Zuan\nand tall Bepi with his walking-sticks of bone,\nslim at the helm of his wagon,\n\npasture flower.\n\nYou become hay. Burn, burn,\nsun of my town, little desert flower.\n\nThe years pass over you,\nand so do I, with the shadow of the acacia tree,\nwith the sunflower, on this quiet day.</pre>\n "}, {"title": "operation: get down", "view_node": "/poem/operation-get-down", "field_author": "<a href=\"/poet/alex-lemon\" hreflang=\"und\">Alex Lemon</a>", "field_date_published": "2010", "body": " <p>\u00a0\u00a0\u00a0\u00a0\u00a0\u00a0\u00a0It is very<br />\u00a0\u00a0\u00a0\u00a0\u00a0\u00a0\u00a0Common<br />\u00a0\u00a0\u00a0\u00a0\u00a0\u00a0\u00a0\u00a0\u00a0\u00a0\u00a0\u00a0\u00a0\u00a0To have<br /><br />\u00a0\u00a0\u00a0\u00a0\u00a0\u00a0\u00a0A cave within us<br />\u00a0\u00a0\u00a0\u00a0\u00a0\u00a0\u00a0\u00a0\u00a0\u00a0\u00a0\u00a0\u00a0\u00a0To hide<br /><br />\u00a0\u00a0\u00a0\u00a0\u00a0\u00a0\u00a0Away in when it all<br />\u00a0\u00a0\u00a0\u00a0\u00a0\u00a0\u00a0Seems hopeless. To cry<br /><br />\u00a0\u00a0\u00a0\u00a0\u00a0\u00a0\u00a0\u00a0\u00a0\u00a0\u00a0\u00a0\u00a0\u00a0Tears of mostly blood.<br /><br />\u00a0\u00a0\u00a0\u00a0\u00a0\u00a0\u00a0To feed on the day-<br />\u00a0\u00a0\u00a0\u00a0\u00a0\u00a0\u00a0\u00a0\u00a0\u00a0\u00a0\u00a0\u00a0\u00a0Dream in which<br /><br />\u00a0\u00a0\u00a0\u00a0\u00a0\u00a0\u00a0Side mirrors shear off<br />\u00a0\u00a0\u00a0\u00a0\u00a0\u00a0\u00a0\u00a0\u00a0\u00a0\u00a0\u00a0\u00a0\u00a0Of your car<br /><br />\u00a0\u00a0\u00a0\u00a0\u00a0\u00a0\u00a0As the walled road<br />\u00a0\u00a0\u00a0\u00a0\u00a0\u00a0\u00a0\u00a0\u00a0\u00a0\u00a0\u00a0\u00a0\u00a0\u00a0\u00a0\u00a0\u00a0\u00a0\u00a0\u00a0Narrows.<br /><br />\u00a0\u00a0\u00a0\u00a0\u00a0\u00a0\u00a0<i>To swerve might make...</i><br /><br />\u00a0\u00a0\u00a0\u00a0\u00a0\u00a0\u00a0There is a saint for the down<br />\u00a0\u00a0\u00a0\u00a0\u00a0\u00a0\u00a0&amp; out. A rock is a rock<br /><br />\u00a0\u00a0\u00a0\u00a0\u00a0\u00a0\u00a0\u00a0\u00a0\u00a0\u00a0\u00a0\u00a0\u00a0Is a rock &amp; redwood<br />\u00a0\u00a0\u00a0\u00a0\u00a0\u00a0\u00a0\u00a0\u00a0\u00a0\u00a0\u00a0\u00a0\u00a0Trees grow out<br />\u00a0\u00a0\u00a0\u00a0\u00a0\u00a0\u00a0\u00a0\u00a0\u00a0\u00a0\u00a0\u00a0\u00a0\u00a0\u00a0\u00a0\u00a0\u00a0\u00a0\u00a0Of our chests.<br /><br />\u00a0\u00a0\u00a0\u00a0\u00a0\u00a0\u00a0It is horrible &amp; right,<br />\u00a0\u00a0\u00a0\u00a0\u00a0\u00a0\u00a0\u00a0\u00a0\u00a0\u00a0\u00a0\u00a0\u00a0Here in this place. <i>Dum<br /><br />\u00a0\u00a0\u00a0\u00a0\u00a0\u00a0\u00a0\u00a0\u00a0\u00a0\u00a0\u00a0\u00a0\u00a0Spiro, spero.</i> We're all in<br />\u00a0\u00a0\u00a0\u00a0\u00a0\u00a0\u00a0This shit together.</p> "}, {"title": "Ecclesiastes", "view_node": "/poem/ecclesiastes", "field_author": "<a href=\"/poet/khaled-mattawa\" hreflang=\"und\">Khaled Mattawa</a>", "field_date_published": "2010", "body": " <pre>\nThe trick is that you're willing to help them.\nThe rule is to sound like you're doing them a favor.\n\nThe rule is to create a commission system.\nThe trick is to get their number.\n\nThe trick is to make it personal:\nNo one in the world suffers like you.\n\nThe trick is that you're providing a service.\nThe rule is to keep the conversation going.\n\nThe rule is their parents were foolish,\ntheir children are greedy or insane.\n\nThe rule is to make them feel they've come too late.\nThe trick is that you're willing to make exceptions.\n\nThe rule is to assume their parents abused them.\nThe trick is to sound like the one teacher they loved.\n\nAnd when they say \"too much,\"\ngive them a plan.\n\nAnd when they say \"anger\" or \"rage\" or \"love,\"\nsay \"give me an example.\"\n\nThe rule is everyone is a gypsy now.\nEveryone is searching for his tribe.\n\nThe rule is you don't care if they ever find it.\nThe trick is that they feel they can.</pre>\n "}, {"title": "Quick Black Hole Spin-Change", "view_node": "/poem/quick-black-hole-spin-change", "field_author": "<a href=\"/poet/edward-sanders\" hreflang=\"und\">Edward Sanders</a>", "field_date_published": "2009", "body": " <pre>\nI don't like it\u2014\n\ntwo massive Black Holes\neach twirling at the core of \n\u00a0\u00a0\u00a0\u00a0\u00a0\u00a0\u00a0\u00a0\u00a0\u00a0\u00a0\u00a0\u00a0\u00a0\u00a0\u00a0\u00a0\u00a0\u00a0\u00a0\u00a0\u00a0two merging galaxies\n\nget close enough\nto fuse together\n\nthen quick as a wink\njust as they are melting into a New Black Hole Blob\n\nthey undergo something called a \"spin-\ufb02ip\"</pre>\n<p>they change the axes of their spins<br />and the fused-together Black Hole Blob<br />gets its own<br />\u00a0\u00a0\u00a0\u00a0\u00a0\u00a0\u00a0\u00a0\u00a0\u00a0quick as a cricket's foot</p><p>Don't like it at all</p><p>And then the new Black Hole Blob sometimes<br />bounces back and forth inside<br />\u00a0\u00a0\u00a0\u00a0\u00a0\u00a0\u00a0\u00a0\u00a0\u00a0\u00a0\u00a0\u00a0\u00a0\u00a0\u00a0\u00a0\u00a0\u00a0\u00a0\u00a0\u00a0\u00a0\u00a0\u00a0\u00a0\u00a0\u00a0\u00a0\u00a0its merg\u00e8d Galaxy<br /><br />till it settles at the center<br /><br />but sometimes a \"newly\" up-sized Black Hole<br />leaves its Galaxy<br />to sail out munchingly on its own<br />\u00a0\u00a0\u00a0\u00a0\u00a0\u00a0\u00a0\u00a0\u00a0\u00a0\u00a0\u00a0\u00a0\u00a0\u00a0\u00a0\u00a0\u00a0\u00a0\u00a0\u00a0\u00a0\u00a0\u00a0\u00a0\u00a0\u00a0\u00a0\u00a0\u00a0\u00a0\u00a0\u00a0into the Universal It<br /><br />I don't like it<br /><br />Nothing about it<br />in the Bhagavad Gita<br />the Book of Revelation<br />Shakespeare, Sappho, or Allen Ginsberg</p> "}, {"title": "Poems for Blok, 1", "view_node": "/poem/poems-blok-1", "field_author": "<a href=\"/poet/marina-tsvetaeva\" hreflang=\"und\">Marina Tsvetaeva</a>", "field_date_published": "2010", "body": " <pre>\nYour name is a\u2014bird in my hand,\na piece of ice on my tongue.\nThe lips' quick opening.\nYour name\u2014five letters.\nA ball caught in flight,\na silver bell in my mouth.</pre>\n<pre>\nA stone thrown into a silent lake\nis\u2014the sound of your name.\nThe light click of hooves at night\n\u2014your name.\nYour name at my temple\n\u2014shrill click of a cocked gun.</pre>\n<pre>\nYour name\u2014impossible\u2014\nkiss on my eyes,\nthe chill of closed eyelids.\nYour name\u2014a kiss of snow.\nBlue gulp of icy spring water.\nWith your name\u2014sleep deepens.</pre>\n "}, {"title": "Magdalene Poem", "view_node": "/poem/magdalene-poem", "field_author": "<a href=\"/poet/john-taggart\" hreflang=\"und\">John Taggart</a>", "field_date_published": "2010", "body": " <pre>\nLove enters the body \n\nenters \nalmost \nalmost completely breaks and enters into the body \n\nalready beaten and broken \n\npeaceful if breaking if breaking \nand entering the already broken is peaceful \n\nuntouchable fortunately \nuntouchable.</pre>\n "}, {"title": "Adjectives of Order", "view_node": "/poem/adjectives-order", "field_author": "<a href=\"/poet/alexandra-teague\" hreflang=\"und\">Alexandra Teague</a>", "field_date_published": "2010", "body": " <pre>\nThat summer, she had a student who was obsessed \nwith the order of adjectives. A soldier in the South \nVietnamese army, he had been taken prisoner when \n\nSaigon fell. He wanted to know why the order \ncould not be altered. The sweltering city streets shook\nwith rockets and helicopters. The city sweltering \n\nstreets. On the dusty brown field of the chalkboard, \nshe wrote: <i>The mother took warm homemade bread \nfrom the oven</i>. City is essential to <i>streets</i> as <i>homemade</i> \n\nis essential to <i>bread</i> . He copied this down, but \nhe wanted to know if his brothers were <i>lost</i>  before \n<i>older</i>, if he worked security at a twenty-story modern\n\ndowntown bank or downtown twenty-story modern.\nWhen he first arrived, he did not know enough English \nto order a sandwich. He asked her to explain each part \n\nof <i>Lovely big rectangular old red English Catholic\nleather Bible</i>. Evaluation before size. Age before color. \nNationality before religion. Time before length. Adding \n\n<i>and</i>, one could determine if two adjectives were equal. \nAfter Saigon fell, he had survived nine long years \nof torture. Nine <i>and</i> long. He knew no other way to say this.</pre>\n "}], "pager": {"current_page": 495, "total_items": "13248", "total_pages": 663, "items_per_page": 20}}