{"rows": [{"title": "Amy Check On My Square Inch of Land", "view_node": "/poem/amy-check-my-square-inch-land", "field_author": "<a href=\"/poet/farrah-field\" hreflang=\"und\">Farrah Field</a>", "field_date_published": "2012", "body": " <pre>\nYou didn't win the Cyndi Lauper look-alike contest\nat the skating rink. Pretending to understand \n\nyou're in therapy. How long do you spend\nthinking about women's arms.\n\nWe were supposed to do it 23 times before we broke up.\nTo honor the day we met.\n\nSuddenly everyone values\nat home child care\nnow that men do it.\n\nYou want someone you don't have to care about\nbecause you're in love with a dead man.\n\nAt the end of every summer you can't\nremember the last time you wore pants.</pre>\n "}, {"title": "Sita", "view_node": "/poem/sita", "field_author": "<a href=\"/poet/jason-schneiderman\" hreflang=\"und\">Jason Schneiderman</a>", "field_date_published": "2012", "body": " <pre>\nDo you remember Sita? How when Hanuman came to rescue her\nshe refused, how she insisted that Rama come openly,\ndefeat her captor Ravana openly? She had no desire for stealth,\nno desire for intrigue, and though Ravana could not touch her\nfor the curse on his flesh, she remained captive until Rama came.\nDo you remember that she was tortured? That Hunaman asked her\nfor permission to kill the women who had tortured her? Do you\nremember how she walked through fire to prove her purity,\neven though everyone knew of the curse on Ravana? How the people\nsaid the fire didn't matter because Fire was the brother of her mother,\nEarth? How Rama was as weak in the face of his people as he\nhad been strong in the face of Ravana? Can you imagine the eyes\nof Sita when she refused another test? When she looked at Rama,\na man she loved enough to die for, a man who was a god, and knew\nit was over? Can you imagine her eyes in that moment, as she asked\nher mother to take her back, to swallow her back into the earth? I think\nmy eyes are like that now, leaving you.</pre>\n "}, {"title": "To a Friend who sent me some Roses", "view_node": "/poem/friend-who-sent-me-some-roses", "field_author": "<a href=\"/poet/john-keats\" hreflang=\"und\">John Keats</a>", "field_date_published": "1817", "body": " <pre>\nAs late I rambled in the happy fields,\t\n\u00a0\u00a0\u00a0What time the sky-lark shakes the tremulous dew\t\n\u00a0\u00a0\u00a0From his lush clover covert;\u2014when anew\t\nAdventurous knights take up their dinted shields:\t\nI saw the sweetest flower wild nature yields,\t        \n\u00a0\u00a0\u00a0A fresh-blown musk-rose; 'twas the first that threw\t\n\u00a0\u00a0\u00a0Its sweets upon the summer: graceful it grew\t\nAs is the wand that queen Titania wields.\t\nAnd, as I feasted on its fragrancy,\t\n\u00a0\u00a0\u00a0I thought the garden-rose it far excell'd:\t        \nBut when, O Wells! thy roses came to me\t\n\u00a0\u00a0\u00a0My sense with their deliciousness was spell'd:\t\nSoft voices had they, that with tender plea\t\n\u00a0\u00a0\u00a0Whisper'd of peace, and truth, and friendliness unquell'd.</pre>\n "}, {"title": "Fixed Interval", "view_node": "/poem/fixed-interval", "field_author": "<a href=\"/poet/devin-johnston\" hreflang=\"und\">Devin Johnston</a>", "field_date_published": "2012", "body": " <pre>\nWhen he turns fifteen, you'll be fifty-four.\nWhen he turns thirty, you'll be sixty-nine.\nThis plain arithmetic amazes more\nthan miracle, the constant difference more\nthan mere recursion of father in son.\nIf you reach eighty, he'll be forty-one!\n\nThe same sun wheels around again, the dawn\ndrawn out and hammered thin as a copper sheet.\nWhen he turns sixty you'll be gone.\nCompacted mud, annealed by summer heat,\ntwo ruts incise this ghost-forsaken plain\nand keep their track width, never to part or meet.</pre>\n "}, {"title": "Court Gestures [excerpt]", "view_node": "/poem/court-gestures-excerpt", "field_author": "<a href=\"/poet/kristi-maxwell\" hreflang=\"und\">Kristi Maxwell</a>", "field_date_published": "2012", "body": " <p>CHIP \u2013 CHIRP / WAXY / KIT / MEND \u2013 DEMEAN / WAG \u2013 TWANG / SAC \u2013 CHAPS \u2013 CHAMPS / FUN \u2013 FUNGUS / VOICE / TURN \u2013 RUINT / DOOR \u2013 ROOTED / OAT / BRAG \u2013 BARGE / RUE \u2013 QUEER \u2013 REQUEST / EEL \u2013 BELIE / JAIL / VOLE \u2013 LOVER / LOAD / FIN- NIFTY / GAZE</p>\n<pre>\nEvery revolver is tied to a lover\nof something. A chirp chips in\nto the morning tableau.\nA sac would be nifty about right now\nwith so much around us\ncollecting. To be collected\nto be calm and\u2014as the description goes.\nI queer the request and ask\nfor a recitation of a poem that ends\non wag. Satisfy me. Salsify, waxy beans,\nfungus, oats, but no eel please. No pleasing\neel. My appetite is ruint by the twang\nthat relocates me, carrying my taste space\nhome. For once, we rooted for the champs.\nWe jailed our gaze and allowed visitation\nfrom the object deemed most\ntextured thus most fun\nfor extended scoping\u2014the eye coping\na feel. The eye coping with all\nforbidden it, finding comfort in the vole\nin its burrowed state. A door belies\nan entry. Who is it you would have had\nbarge in? Having been had, having\nto demean the brag,\nsomeone hangs meat over the swelling.\nA raw curtain drawn. Rue the chaps\nwho failed to mend. A load of face\nis carted, and a query turns it.\nA smirk emerges like a shark fin. Circles\nthe general mood. Pull a voice from the kit\nand swab my ear. I need to hear\nthat now, whatever it is.\nAs is often the case, a word's gone missing.</pre>\n<br /><p><i>A process note: words and line counts for these poems were generated through the card game Royalty, in which players build and capture words until all the cards are exhausted. I recorded the results of games and used each of the words generated in each game in a poem; the poem consists of the same number of lines as the number of words generated in each game</i>.</p> "}, {"title": "Superstition", "view_node": "/poem/superstition", "field_author": "<a href=\"/poet/amy-lowell\" hreflang=\"und\">Amy Lowell</a>", "field_date_published": "1919", "body": " <pre>\nI have painted a picture of a ghost\nUpon my kite,\nAnd hung it on a tree.\nLater, when I loose the string\nAnd let it fly,\nThe people will cower\nAnd hide their heads,\nFor fear of the God\nSwimming in the clouds.</pre>\n "}, {"title": "La Pelona as Birdwoman [excerpt]", "view_node": "/poem/la-pelona-birdwoman-excerpt", "field_author": "<a href=\"/poet/rigoberto-gonzalez\" hreflang=\"und\">Rigoberto Gonz\u00e1lez</a>", "field_date_published": "2012", "body": "<p><span class=\"long-line\">Tonight</span><br /><span class=\"long-line\">I dared to crawl</span><br /><span class=\"long-line\">beneath the sheets</span></p>\n\n<p><span class=\"long-line\">to be nailed down</span><br /><span class=\"long-line\">around me,</span><br /><span class=\"long-line\">waiting for my lover, she</span></p>\n\n<p><span class=\"long-line\">who enters</span><br /><span class=\"long-line\">without knocking, she</span><br /><span class=\"long-line\">who will unstitch</span></p>\n\n<p><span class=\"long-line\">my every seam</span><br /><span class=\"long-line\">along my thigh,</span><br /><span class=\"long-line\">my side, my armpit.</span></p>\n\n<p><span class=\"long-line\">She who carves</span><br /><span class=\"long-line\">a heart out of the heart</span><br /><span class=\"long-line\">and drops it</span></p>\n\n<p><span class=\"long-line\">down her throat.</span><br /><span class=\"long-line\">Sweet surrender this</span><br /><span class=\"long-line\">slow death in sleep</span></p>\n\n<p><span class=\"long-line\">as I dream</span><br /><span class=\"long-line\">the love-making</span><br /><span class=\"long-line\">is autopsy. How else</span></p>\n\n<p><span class=\"long-line\">will I be hers</span><br /><span class=\"long-line\">completely? Be her</span><br /><span class=\"long-line\">treasure box I said:</span></p>\n\n<p><span class=\"long-line\">a trove of pearls</span><br /><span class=\"long-line\">and stones, the ding</span><br /><span class=\"long-line\">of coins cascading</span></p>\n\n<p><span class=\"long-line\">through her fingers.</span><br /><span class=\"long-line\">The bird over her shoulder</span><br /><span class=\"long-line\">not a parrot, but an owl</span></p>\n\n<p><span class=\"long-line\">to be my mirror</span><br /><span class=\"long-line\">when I close my eyes</span><br /><span class=\"long-line\">and shape a moon-white</span></p>\n\n<p><span class=\"long-line\">bowl out of my face</span><br /><span class=\"long-line\">where she can wash</span><br /><span class=\"long-line\">the hooks of her caress.</span></p>\n"}, {"title": "Red Wand", "view_node": "/poem/red-wand", "field_author": "<a href=\"/poet/sandra-simonds\" hreflang=\"und\">Sandra Simonds</a>", "field_date_published": "2012", "body": " <pre>\nSometimes I try to make poetry but mostly \n\u00a0\u00a0\u00a0\u00a0I try to earn a living. There's something still living\n\u00a0in every urn, I am sure of it. The ash moves \n\u00a0\u00a0\u00a0\u00a0\u00a0\u00a0\u00a0around inside the vase like the magnetic filings that make \nthe moustache of Wooly Willy. Maybe a new face counts \n\u00a0\u00a0\u00a0\u00a0\u00a0\u00a0as reincarnation. The wand says, \"I'll be your ostrich,\n\u00a0if you'll be my swan.\" In this life, what did I do wrong?  \nI think my heart is a magnet too. It attracts anything\n\u00a0that attracts joy like the summer grasses the swans track through. \n\u00a0\u00a0\u00a0\u00a0\u00a0\u00a0\u00a0OMG, how in love I am with joy and with yours\u2014how I know \nthat adding to it would only take it further off course, \n\u00a0\u00a0\u00a0\u00a0\u00a0\u00a0off its precarious center, so for once, I won't touch it.\n\u00a0I will stand wand-length away\u2014let it \n\u00a0\u00a0\u00a0\u00a0glide stupidly on its weightless line, without me.</pre>\n "}, {"title": "Dust of Snow", "view_node": "/poem/dust-snow", "field_author": "<a href=\"/poet/robert-frost\" hreflang=\"und\">Robert Frost</a>", "field_date_published": "1920", "body": "<p><span class=\"long-line\">The way a crow</span><br /><span class=\"long-line\">Shook down on me</span><br /><span class=\"long-line\">The dust of snow</span><br /><span class=\"long-line\">From a hemlock tree</span></p>\n\n<p><span class=\"long-line\">Has given my heart</span><br /><span class=\"long-line\">A change of mood</span><br /><span class=\"long-line\">And saved some part</span><br /><span class=\"long-line\">Of a day I had rued.</span></p>\n"}, {"title": "What Things Want", "view_node": "/poem/what-things-want", "field_author": "<a href=\"/poet/robert-bly\" hreflang=\"und\">Robert Bly</a>", "field_date_published": "2012", "body": " <pre>\nYou have to let things\nOccupy their own space.\nThis room is small,\nBut the green settee\n\nLikes to be here.\nThe big marsh reeds,\nCrowding out the slough,\nFind the world good.\n\nYou have to let things\nBe as they are.\nWho knows which of us\nDeserves the world more?</pre>\n "}, {"title": "Winter is good - his Hoar Delights (1316)", "view_node": "/poem/winter-good-his-hoar-delights-1316", "field_author": "<a href=\"/poet/emily-dickinson\" hreflang=\"und\">Emily Dickinson</a>", "field_date_published": "1886", "body": "<p><span class=\"long-line\">Winter is good - his Hoar Delights</span><br /><span class=\"long-line\">Italic flavor yield -</span><br /><span class=\"long-line\">To Intellects inebriate</span><br /><span class=\"long-line\">With Summer, or the World - </span></p>\n\n<p><span class=\"long-line\">Generic as a Quarry</span><br /><span class=\"long-line\">And hearty - as a Rose - </span><br /><span class=\"long-line\">Invited with asperity</span><br /><span class=\"long-line\">But welcome when he goes.</span></p>\n"}, {"title": "From Honey to Ashes", "view_node": "/poem/honey-ashes", "field_author": "<a href=\"/poet/geoffrey-g-obrien\" hreflang=\"und\">Geoffrey G. O&#039;Brien</a>", "field_date_published": "2012", "body": " <pre>\nWhat follows is terms and classifications, the West \nOf speech congratulating itself within\nA system so complex there's no way not to be \nEffective. Just as they had planned the streets\nOn either side are lined with all that's needed,\nStorefronts whose glass returns a look \nFilled with the contents it displays\n(Mannequins, organics, mobile phones)\nMaking even moving sitting still, an embrace\nAbove anything that's so. Cuts and clouds\nDrift south across the far part of the sky\nFrom adventure to instruction, so where\nThere is only the mildest threat of showers\nYou see a shape and then a story, parody \nOf the private life of the world.\nAnd what was promised to the mind of the hearer \nIn transformation remains away, ideal \nPortrait there is a certain pleasure in reading\nAs buffer against what today sends tomorrow.\nIt's like forgetting that part of childhood\nIn which one learned to do everything \nFrom the pages of a book not unlike \nA painting, but a painting with motion \nIn its idle depths, down where dusk meets \nForeclosure and the clouds charge out\nInto the gift of seeing them forthrightly \nPass by a thing that might have happened, public\nPleasures that progress, the horizon, etc.\nAlways more or less just starting out\nIts day, though it would be better to call it\nA grouping sent down through suffering\nTo sunset, signed in the same place by night\nTo win over the jury in advance; it's a painting \nOf the burning of a book whose content is\nColors, lights, flowers, fragments of bone \nTaken from the wound, from greater and lesser \nDistances, to tell the bad from the good,\nBuy the evening's groceries in every sense. \nWhat follows is seven dominated days \nOf the week ready to bind with really anything\nAt all, your thoughts as you come forward\nOut of the haze like sun through a curtain\nOr go to sleep so as to be of further use\u2014\nYou would like to choose between them\nBut aren't these one and the same task?</pre>\n "}, {"title": "The Whistler", "view_node": "/poem/whistler", "field_author": "<a href=\"/poet/sommer-browning\" hreflang=\"und\">Sommer Browning</a>", "field_date_published": "2012", "body": " <style type=\"text/css\">\n<!--/*--><![CDATA[/* ><!--*/\n\np { line-height: 1.5em; }\nblockquote p { line-height: 1.5em; }\n/*--><!]]>*/\n</style><p>Here I am so selfish I only remember my reaction. Each fact loosening falling away like icicles along the eaves. I once saw one so large &amp; the earth so soft that it pierced the ground below it. I once walked through a spider web so vast, I felt its tug as I pulled through it. I once drove 30 miles at night through pitch-black counties without headlights using only my cellphone light to guide me. I once was so high I wrote a paper backwards and since it was for 20th Century Avant-garde Lit got an A. You know second winds? I got a fifth wind once during a swim meet. As the fish grows increasingly long, life accumulates like a US Ironworks slagheap. Once my date dropped me off at the front door and I ran through the house out the back into my boyfriend\u2019s car waiting in the alley. Once I lost control in the middle of northbound 95 and somehow spun across the median, arriving in the shoulder of the southbound lanes, and just kept driving, direction\u2019s pointless. I once bought an $80 cab ride because I couldn\u2019t remember where I was\u2014simultaneously building a bed in a refrigerator box stealing gas from the Racetrack flying to Denver to marry a stranger. I once strangled my boyfriend at 65 mph on the freeway until I started laughing so much my grip loosened. Once I wrote the most erotic sex fantasy I could dream got paranoid that someone would read it, chose a password to protect the document, promptly forgot the password and let that define my sex life for years. I once sang <i>Swing Low</i> in a cop car and felt like a coward. The only secrets are forgotten ones. I once told a man I didn\u2019t want a boyfriend and a week later admitted to him I had gotten married. Who said biography is a story true enough to believe? Who told me they once ate a joint before getting pulled over, but at the last minute the cop car flew past them, worked in a gas station and stole all the money, painted a donkey with zebra stripes, danced on stage with Bootsy Collins, who told me that for one day he was the best whistler on the planet, could whistle any song in the world perfectly, rivaled the skylarks and finches, invented gorgeous sonatas whistling them into the sunset, into the blushing dusk and by morning forgot how to do it?</p> "}, {"title": "Here City", "view_node": "/poem/here-city", "field_author": "<a href=\"/poet/rick-snyder\" hreflang=\"und\">Rick Snyder</a>", "field_date_published": "2012", "body": " <pre>\nThe sounds\nof the train\n\npiped in\nthrough the\nPA system.\n\nThe whole city\nslightly askew\n\nbut familiar\nin its shadows,\n\nits symmetrical brick,\nits dry hot breeze\n\nand its lack\nof pedestrians,\n\nsave you.\n\n*\n\nThe blinking message said:\n\n<i>More alcohol\nis needed\n\nto achieve\nescape velocity</i>\n\n*\n\nThe salutations and styles\nerupting on the top\nfew stairs, \n\nwhere service\nis mercifully restored\nand the world resumes\n\nits tangents and vectors,\nterrific possibilities\nprocessed by objects\n\nas small and dark\nas the eyes of a starling,\nconstantly soaking up data\n\nand sending it back to Seattle,\nwhich sells it to Tokyo,\nwhich sells it\n\nto someplace else</pre>\n "}, {"title": "Travelling", "view_node": "/poem/travelling", "field_author": "<a href=\"/poet/william-wordsworth\" hreflang=\"und\">William Wordsworth</a>", "field_date_published": "1802", "body": "<p><span class=\"long-line\">This is the spot:\u2014how mildly does the sun</span><br /><span class=\"long-line\">Shine in between the fading leaves! the air</span><br /><span class=\"long-line\">In the habitual silence of this wood</span><br /><span class=\"long-line\">Is more than silent: and this bed of heath,</span><br /><span class=\"long-line\">Where shall we find so sweet a resting-place?</span><br /><span class=\"long-line\">Come!\u2014let me see thee sink into a dream</span><br /><span class=\"long-line\">Of quiet thoughts,\u2014protracted till thine eye</span><br /><span class=\"long-line\">Be calm as water when the winds are gone</span><br /><span class=\"long-line\">And no one can tell whither.\u2014my sweet friend!</span><br /><span class=\"long-line\">We two have had such happy hours together</span><br /><span class=\"long-line\">That my heart melts in me to think of it.</span></p>\n"}, {"title": "Complaint", "view_node": "/poem/complaint-0", "field_author": "<a href=\"/poet/william-carlos-williams\" hreflang=\"und\">William Carlos Williams</a>", "field_date_published": "1921", "body": " <pre>\nThey call me and I go. \nIt is a frozen road \npast midnight, a dust \nof snow caught \nin the rigid wheeltracks. \nThe door opens. \nI smile, enter and \nshake off the cold. \nHere is a great woman \non her side in the bed. \nShe is sick, \nperhaps vomiting, \nperhaps laboring \nto give birth to \na tenth child. Joy! Joy! \nNight is a room \ndarkened for lovers, \nthrough the jalousies the sun \nhas sent one golden needle! \nI pick the hair from her eyes \nand watch her misery \nwith compassion.</pre>\n "}, {"title": "We Dogs of a Thursday Off", "view_node": "/poem/we-dogs-thursday", "field_author": "<a href=\"/poet/alberto-rios\" hreflang=\"und\">Alberto R\u00edos</a>", "field_date_published": "2012", "body": " <pre>\nThe wine of uncharted days,\nTheir unsteady stance against the working world,\n\nThe intense intoxication of nothing to be done,\nA day off,\n\nThe dance of the big-hearted dog \nIn us, freed into a sudden green, an immense field:\n\nOff we go, more run than care, more dance\u2014\nIf a polka could be done not in a room but straight\n\nAhead, into the beautiful distance, the booming \nSound of the phonograph weakening, but our legs\n\nGetting stronger with their bounding practice:\nThis day, that feeling, drunkenness\n\nBorn of indecision, lack of focus, but everything \nForgiven: Today is a day exposed for what it is,\n\nA workday suddenly turned over on its back, \nHoping to be rubbed.</pre>\n "}, {"title": "Lamp or Mirror", "view_node": "/poem/lamp-or-mirror", "field_author": "<a href=\"/poet/tony-barnstone\" hreflang=\"und\">Tony Barnstone</a>", "field_date_published": "2012", "body": " <pre>\nWhen strange light stirs the mirror, forces swirl \n\u00a0\u00a0the shadows by the bathtub and I glimpse\n\u00a0\u00a0\u00a0\u00a0a figure standing glowing. As I rinse\n\u00a0\u00a0\u00a0\u00a0\u00a0\u00a0the toothpaste down the drain, his blind eye whirls\nnuminous white, his hair is moonlight streaming.\n\u00a0\u00a0I know neurologists have shown the course\n\u00a0\u00a0\u00a0\u00a0of dreaming as synaptic lines of force,\n\u00a0\u00a0\u00a0\u00a0\u00a0\u00a0and even in this dream I know I'm dreaming,\nyet when the light refracts at such an angle\nit shows his broken face, frost in his beard,\n\u00a0\u00a0\u00a0\u00a0his black lips mouthing words I only hear\n\u00a0\u00a0\u00a0\u00a0\u00a0\u00a0as moaning of an operatic angel.\nHis ice hand reaches out. I flinch in fear.\n\u00a0\u00a0The mirror breaks. I gasp awake. He's here.</pre>\n "}, {"title": "Beauty Secrets, Revealed by the Queen in Snow White", "view_node": "/poem/beauty-secrets-revealed-queen-snow-white", "field_author": "<a href=\"/poet/natasha-saje\" hreflang=\"und\">Natasha Saj\u00e9</a>", "field_date_published": "2012", "body": " <pre>\nDo for your neck what you do for your face.\nFace your neck whatever the case. Pace yourself \nfor 35-55, a quick\nand bumpy ride, gone in a sneeze. Avoid \npetroleum; replace with olive oil.\nCheck bitterness at the door; be happy!\nDo for yourself what you do for others,\nthe money guru says to sisters. Embrace\na stash and a place, Virginia wrote, 80\nyears ago. Don't be dopey or sleepy,\nand don't buy all that's offered. Wake up! \nDo for your future what you should have done \nfor your past. Don't be bashful:  it's one thing \nto have a neck, another to stick it out. \nGo ahead and eat fruit fallen to the ground;\nbe wary of apples in other hands.\nKnow the party's over when the hostess  \nyawns, her jaw like folds of lace. Brace yourself \nfor 55-85, a long \nand grumpy slide. Help, Doc! Imagine lots  \nof green and see it when your eyes \nare closed. Don't see red, as in done for,\nas in broke, as in give up the chase.\nDo for your head what you do for your face.\nAvoid asking questions of mirrors.\nTo check your own sad countenance each day\nis a disgrace. If you hang on, cash can help. \nDespite it, the Iron Lady's now just a trace\nof the woman who said, <i>There's no such thing \nas society! It's our duty to look after ourselves</i>.\nA head of state. Debased.</pre>\n "}, {"title": "What They Found In the Diving Bell", "view_node": "/poem/what-they-found-diving-bell", "field_author": "<a href=\"/poet/traci-brimhall\" hreflang=\"und\">Traci Brimhall</a>", "field_date_published": "2012", "body": " <pre>\nThe first time I saw my mother, she'd been dead \nfourteen years and came as a ghost in the mirror, \n\nplucking the hair beneath her arms, and humming \na bossa nova. She lotioned her chapped heels \n\nand padded her bra as if she were alive in the old way. \nShe said I was born with my cord wrapped \n\naround my neck like a rosary, and she knew God, \nthe doomed father of her days, wanted us both. \n\nBefore midnight she plaited my hair, hemmed my skirt, \nsang lullabies she'd learned on the other side of the flood. \n\nShe lifted her dress to show her bones shedding light \non a stillborn fetus accidentally raptured into her ribs. \n\nShe said she'd choose her death again, obey any pain \nheaven gave her. Years ago she watched a man ride \n\na diving bell to the bottom of the Amazon to face \nthe mysteries God had placed there. The chain broke, \n\nand they pulled him to the surface smiling, stiff, refusing \nto open his fists. They broke and unpeeled his fingers. \n\nNo one wept or fought to hold it. She covered her eyes \nso she wouldn't see what God, in his innocence, had done.</pre>\n "}], "pager": {"current_page": 451, "total_items": "13248", "total_pages": 663, "items_per_page": 20}}