{"rows": [{"title": "Song for Lonely Roads", "view_node": "/poem/song-lonely-roads", "field_author": "<a href=\"/poet/sherwood-anderson\" hreflang=\"und\">Sherwood Anderson</a>", "field_date_published": "1918", "body": " <p>Now let us understand each other, love,<br />Long time ago I crept off home,<br />To my own gods I went.</p><p>The tale is old,<br />It has been told<br />By many men in many lands.<br />The lands belong to those who tell.<br />Now surely that is clear.</p><p>After the plow had westward swept,<br />The gods bestowed the corn to stand.<br />Long, long it stood,<br />Strong, strong it grew,<br />To make a forest for new song.</p><p>Deep in the corn the bargain hard<br />Youth with the gods drove home.<br />The gods remember,<br />Youth forgets.<br />Doubt not the soul of song that waits.</p><p>The singer dies,<br />The singer lives,<br />The gods wait in the corn,<br />The soul of song is in the land.<br />Lift up your lips to that.</p> "}, {"title": "The Sun in Bemidji, Minnesota", "view_node": "/poem/sun-bemidji-minnesota", "field_author": "<a href=\"/poet/sean-hill\" hreflang=\"en\">Sean Hill</a>", "field_date_published": "2015", "body": " <p>The sun isn\u2019t even a pearl today\u2014<br />its light diffused, strained gray<br />by winter haze\u2014this the grayest<br />day so far, so when I enter the Wells<br />Fargo parking lot the last thing I expect<br />is to see the sun in the car next to mine.<br />I watch a woman make out with the sun,<br />and I\u2019m jealous of the sun. Beautiful<br />beyond her desire\u2014wanting the sun<br />so\u2014she almost glows as she tugs<br />sweetness from his whiskers with<br />her teeth, and his drool runs down<br />her chin. I think the sun is a man,<br />but it\u2019s hard to tell in this light. No,<br />it\u2019s a mango, and I\u2019m jealous of her.</p> "}, {"title": "Mozart Songbook", "view_node": "/poem/mozart-songbook", "field_author": "<a href=\"/poet/joan-larkin\" hreflang=\"und\">Joan Larkin</a>", "field_date_published": "2015", "body": " <p>Outside on Fremont Ave, black<br />snow and no such thing as a<br />white wig or a lovestruck violet<br />who sings his heart out. My lungs<br />ached, huge with breath and the harsh<br />sweetness of strange words. <em>Veilchen,</em><br /><em>M\u00e4dchen</em><span style=\"font-family: 'Poets Electra Web', 'Times New Roman', Times, serif; font-size: 17px; line-height: 23.9999980926514px; background-color: rgb(252, 249, 249);\">\u2014</span>my brother spoke them<br />to show how my tongue was a gate<br />that could open secrets. He pressed<br />keys partway, to draw softest sounds\u00a0\u00a0\u00a0\u00a0\u00a0\u00a0\u00a0\u00a0\u00a0\u00a0\u00a0\u00a0\u00a0\u00a0<br />from the upright, and what he loved<br />I loved. That was my whole faith then.</p> "}, {"title": "Poem for Beachheads &amp; Briars", "view_node": "/poem/poem-beachheads-briars", "field_author": "<a href=\"/poet/michael-robins\" hreflang=\"und\">Michael Robins</a>", "field_date_published": "2015", "body": " <p>\u00a0</p><p>Awoken by the immaculate flaw<br />in my bed. Quietude, hollowed</p><p>limbs through which the breeze<br />still moves. Despite molecules</p><p>I\u2019ve come to intuit wavelengths,<br />how Made in America illustrates</p><p>that most blown, charitable days<br />revolve this walk swept of sand.</p><p>Smashed &amp; believing whichever<br />whim as promise, routed clouds,</p><p>scenes becoming then breached.<br />How I wish to bear the purpose</p><p>of men carrying a ladder. Maybe<br />they rescue the wayfared kitten</p><p>or cart the rungs for the woods,<br />heaved &amp; fetched until each stays.<br />\u00a0</p> "}, {"title": "Of Love: A Sonnet", "view_node": "/poem/love-sonnet", "field_author": "<a href=\"/poet/robert-herrick\" hreflang=\"und\">Robert Herrick</a>", "field_date_published": "1648", "body": "<p><span class=\"long-line\">How love came in I do not know,</span><br /><span class=\"long-line\">\nWhether by the eye, or ear, or no;</span><br /><span class=\"long-line\">\nOr whether with the soul it came</span><br /><span class=\"long-line\">\n(At first) infused with the same;</span><br /><span class=\"long-line\">\nWhether in part \u2019tis here or there,</span><br /><span class=\"long-line\">\nOr, like the soul, whole everywhere,</span><br /><span class=\"long-line\">\nThis troubles me: but I as well</span><br /><span class=\"long-line\">\nAs any other this can tell:</span><br /><span class=\"long-line\">\nThat when from hence she does depart</span><br /><span class=\"long-line\">\nThe outlet then is from the heart.</span></p>"}, {"title": "The Thaw", "view_node": "/poem/thaw", "field_author": "<a href=\"/poet/henry-david-thoreau\" hreflang=\"und\">Henry David Thoreau</a>", "field_date_published": "1895", "body": " <p>I saw the civil sun drying earth\u2019s tears \u2014<br />Her tears of joy that only faster flowed,</p><p>Fain would I stretch me by the highway side,<br />To thaw and trickle with the melting snow,<br />That mingled soul and body with the tide,<br />I too may through the pores of nature flow.</p><p>But I alas nor tinkle can nor fume,<br />One jot to forward the great work of Time,<br />\u2018Tis mine to hearken while these ply the loom,<br />So shall my silence with their music chime.</p> "}, {"title": "Living Room", "view_node": "/poem/living-room", "field_author": "<a href=\"/poet/david-yezzi\" hreflang=\"en\">David Yezzi</a>", "field_date_published": "2015", "body": " <p>God sees me. I see you. You\u2019re just like me.<br />\u00a0\u00a0\u00a0\u00a0\u00a0\u00a0 This is the cul-de-sac I\u2019ve longed to live on.<br />Pure-white and dormered houses sit handsomely</p><p>along the slate-roofed, yew-lined neighborhood.<br />\u00a0\u00a0\u00a0\u00a0\u00a0\u00a0 Past there is where my daughters walk to school,<br />across the common rounded by a wood.</p><p>And in my great room, a modest TV<br />\u00a0\u00a0\u00a0\u00a0 informs me how the earth is grown so small,<br />ringed in spice routes of connectivity.</p><p>My father lived and died in his same chair<br />\u00a0\u00a0\u00a0\u00a0\u00a0\u00a0 and kept it to one beer. There\u2019s good in that.<br />Who could look down upon, or even dare</p><p>to question, what he managed out of life?<br />\u00a0\u00a0\u00a0\u00a0\u00a0\u00a0 Age makes us foolish. Still, he had a house,<br />a patch of grass and room to breathe, a wife.</p><p>It\u2019s my house now, and I do as I please.<br />\u00a0\u00a0\u00a0\u00a0\u00a0\u00a0 I bless his name. I edge the yard, plant greens.<br />Our girls swing on the porch in a coming breeze.<br />\u00a0</p> "}, {"title": "Touching the Floor", "view_node": "/poem/touching-floor", "field_author": "<a href=\"/poet/max-ritvo\" hreflang=\"en\">Max Ritvo</a>", "field_date_published": "2015", "body": " <p>I touch my palms to the floor<br />and granite rhinos surge up my arms<br />and lock in my shoulders.<br />Water flecks on my back<br />and my head is shaved<br />by bladed cream.</p><p>But then my time in my body is up<br />and it\u2019s time for my mind:<br />It seeks wisdom<br />and the rhinos fall into a well,<br />their faces falling apart\u2014</p><p>I want to know what their last words are<br />but their lips are fading into the purple.</p><p>I put my hands into the ground again<br />but rhinos come only for the body<br />and never for the mind.</p><p>I used to want infinite time with my thoughts.<br />Now I\u2019d prefer to give all my time<br />to a body that\u2019s dying<br />from cancer.</p> "}, {"title": "Stridulation Sonnet", "view_node": "/poem/stridulation-sonnet", "field_author": "<a href=\"/poet/jessica-jacobs\" hreflang=\"en\">Jessica Jacobs</a>", "field_date_published": "2015", "body": " <p>Tiger beetles, crickets, velvet ants, all<br />know the useful friction of part on part,<br />how rub of wing to leg, plectrum to file,<br />marks territories, summons mates. How</p><p>a lip rasped over finely tined ridges can<br />play sweet as a needle on vinyl. But<br />sometimes a lone body is insufficient.<br />So the sapsucker drums chimney flashing</p><p>for our amped-up morning reveille. Or,<br />later, home again, the wind\u2019s papery<br />come hither through the locust leaves. The roof<br />arcing its tin back to meet the rain.</p><p>The bed\u2019s soft creak as I roll to my side.<br />What sounds will your body make against mine?<br />\u00a0</p> "}, {"title": "The Children", "view_node": "/poem/children", "field_author": "<a href=\"/poet/tj-jarrett\" hreflang=\"en\">TJ Jarrett</a>", "field_date_published": "2015", "body": "<p><span class=\"long-line\">Sometimes I dream of a slave ship docking at port</span><br /><span class=\"long-line\">&amp; my grandmother has brought me here. She takes my hand</span><br /><span class=\"long-line\">(in the dream I am very young) as we watch the children</span><br /><span class=\"long-line\">disembark. The children are lithe &amp; descend one after</span><br /><span class=\"long-line\">another after another\u2014squinting, lifting their hands to shield</span><br /><span class=\"long-line\">their eyes from the burning light of this new country.</span><br /><span class=\"long-line\">I ask her: <em>But will they be loved? </em>She rubs my head &amp;</span><br /><span class=\"long-line\">says: <em>The lack of it isn\u2019t the worst thing to happen</em></span><br /><em><span class=\"long-line\">to them. Think of all the ways what is not love comes for us,</span><br /><span class=\"long-line\">sometimes parading itself as obligation, or the violence</span><br /><span class=\"long-line\">we bear &amp; soon they won\u2019t distinguish one from the other.</span><br /><span class=\"long-line\">The hurt itself will be a kind of attention. </span></em>A boy hears<br /><span class=\"long-line\">us talking &amp; stares right back at me. He is black, blacker</span><br /><span class=\"long-line\">than anyone I\u2019d ever seen\u2014iridescent, glowing with it.</span><br /><span class=\"long-line\">I\u2019m so moved that I dart between the guards toward him</span><br /><span class=\"long-line\">&amp; hold him in my arms &amp; where I touch him, feathers</span><br /><span class=\"long-line\">grow. The boy sprouts wings &amp; lifts from the earth.</span><br /><span class=\"long-line\">We are transfixed\u2014me &amp; grandmamma &amp; children &amp; the guards-</span><br /><span class=\"long-line\">gazing upward. At first, he careens away, then back toward us</span><br /><span class=\"long-line\">only to ascend, blacking out the sun until he climbs</span><br /><span class=\"long-line\">high enough that he is swallowed by it altogether.</span></p>\n"}, {"title": "from \u201cFlying Point\u201d", "view_node": "/poem/flying-point", "field_author": "<a href=\"/poet/dj-dolack\" hreflang=\"en\">DJ Dolack</a>", "field_date_published": "2015", "body": " <p>The sea<br />calls to witness<br />some vastness</p><p>or that which<br />is only a declaration<br />of the limited<br />and the countable.</p><p>And the sun some tourist<br />wades out each morning<br />in obligation</p><p>to touch<br />for a few moments<br />and to forget and drown.</p><p>And then later the moon<br />high as a pill<br />does its own work</p><p>emitting no light but re-guiding<br />light emitted by another:</p><p>six ships in the hour<br />follow each other<br />far off</p><p>into some great<br />length of silence.<br />\u00a0</p> "}, {"title": "Sea Poppies", "view_node": "/poem/sea-poppies", "field_author": "<a href=\"/poet/h-d\" hreflang=\"und\">H. D.</a>", "field_date_published": "1916", "body": " <p>Amber husk<br />fluted with gold,<br />fruit on the sand<br />marked with a rich grain,</p><p>treasure<br />spilled near the shrub-pines<br />to bleach on the boulders:</p><p>your stalk has caught root<br />among wet pebbles<br />and drift flung by the sea<br />and grated shells<br />and split conch-shells.</p><p>Beautiful, wide-spread,<br />fire upon leaf,<br />what meadow yields<br />so fragrant a leaf<br />as your bright leaf?<br />\u00a0</p> "}, {"title": "Difference", "view_node": "/poem/difference", "field_author": "<a href=\"/poet/nate-klug\" hreflang=\"en\">Nate Klug</a>", "field_date_published": "2015", "body": " <p><em>Talk to you tonight,</em><br />I wrote this morning, knowing<br />it would only be the afternoon<br />where you are, will be,<br />whole neighborhood still<br />wrapped in a tule fog<br />that won\u2019t let up\u2014so you reported<br />before supper<br />\u00a0\u00a0\u00a0\u00a0\u00a0\u00a0\u00a0\u00a0\u00a0\u00a0\u00a0\u00a0\u00a0\u00a0\u00a0\u00a0\u00a0\u00a0\u00a0\u00a0\u00a0\u00a0 while I slept.<br />I almost wrote <em>this afternoon</em><br />instead, taking your point<br />of view, dissolving into it\u2014<br />but then imagined<br />you half-awake, and irked,<br />into my future/current noon<br />texting for clarification.</p> "}, {"title": "Oversight", "view_node": "/poem/oversight", "field_author": "<a href=\"/poet/melissa-ginsburg\" hreflang=\"und\">Melissa Ginsburg</a>", "field_date_published": "2015", "body": " <p>Our subjects were nice. We kept</p><p>our distance. We brewed detachment<br />in bottles. \u201cWe kept our distance\u201d</p><p>is an anecdote. Her name</p><p>is Anecdote. She was born in the study.<br />Cages, bottles. Books all around.</p><p>She was our favorite / forbid us</p><p>to see her. She was the muse<br />for the bottles marked \u201cDistance\u201d</p><p>from which we drank. Could not</p><p>get by without. We buried the results;<br />they were dead. It was painless</p><p>for us. Thanks</p><p>to detachment. Our hypothesis held up<br />a snapshot. Braces, barrettes.<br />\u00a0</p> "}, {"title": "Are You Going to Stay?", "view_node": "/poem/are-you-going-stay", "field_author": "<a href=\"/poet/thomas-meyer\" hreflang=\"en\">Thomas Meyer</a>", "field_date_published": "2015", "body": " <p>What was it I was going to say?<br />Slipped away probably because<br />it needn\u2019t be said. At that edge</p><p>almost not knowing but second<br />guessing the gain, loss, or effect<br />of an otherwise hesitant remark.</p><p>Slant of light on a brass box. The way<br />a passing thought knots the heart.<br />There\u2019s nothing, nothing to say.</p> "}, {"title": "Do Not Speak of the Dead", "view_node": "/poem/do-not-speak-dead", "field_author": "<a href=\"/poet/cecilia-llompart\" hreflang=\"en\">Cecilia Llompart</a>", "field_date_published": "2015", "body": "<blockquote><sup><em>\u201cThey tried to bury us. They didn\u2019t know we were seeds.\u201d<br />\n\u00a0\u00a0\u00a0\u00a0\u00a0\u00a0\u00a0\u00a0\u00a0\u00a0\u00a0\u00a0\u2014Mexican Proverb</em></sup></blockquote>\n\n<p><span class=\"long-line\">I was born among the bodies. I was hurried</span><br /><span class=\"long-line\">forward, and sealed a thin life for myself.</span></p>\n\n<p><span class=\"long-line\">I have shortened my name, and walk with</span><br /><span class=\"long-line\">a limp. I place pebbles in milk and offer</span></p>\n\n<p><span class=\"long-line\">them to my children when there is nothing</span><br /><span class=\"long-line\">else. We can not live on cold blood alone.</span></p>\n\n<p><span class=\"long-line\">In a dream, I am ungendered, and the moon</span><br /><span class=\"long-line\">is just the moon having a thought of itself.</span></p>\n\n<p><span class=\"long-line\">I am a wolf masked in the scent of its prey</span><br /><span class=\"long-line\">and I am driven\u2014hawk like\u2014to the dark</span></p>\n\n<p><span class=\"long-line\">center of things. I have grasped my eager</span><br /><span class=\"long-line\">heart in my own talons. I am made of fire,</span></p>\n\n<p><span class=\"long-line\">and all fire passes through me. I am made</span><br /><span class=\"long-line\">of smoke and all smoke passes through me.</span></p>\n\n<p><span class=\"long-line\">Now the bodies are just calcified gravity,</span><br /><span class=\"long-line\">built up and broken down over the years.</span></p>\n\n<p><span class=\"long-line\">Somewhere there are phantoms having their</span><br /><span class=\"long-line\">own funerals over and over again. The same</span></p>\n\n<p><span class=\"long-line\">scene for centuries. The same moon rolling</span><br /><span class=\"long-line\">down the gutter of the same sky. Somewhere</span></p>\n\n<p><span class=\"long-line\">they place a door at the beginning of a field</span><br /><span class=\"long-line\">and call it property. Somewhere, a tired man</span></p>\n\n<p><span class=\"long-line\">won\u2019t let go of his dead wife\u2019s hand. God</span><br /><span class=\"long-line\">is a performing artist working only with</span></p>\n\n<p><span class=\"long-line\">light and stone. Death is just a child come to</span><br /><span class=\"long-line\">take us by the hand, and lead us gently away.</span></p>\n\n<p><span class=\"long-line\">Fear is the paralyzing agent, the viper that</span><br /><span class=\"long-line\">swallows us living and whole. And the devil,</span></p>\n\n<p><span class=\"long-line\">wears a crooked badge, multiplies everything</span><br /><span class=\"long-line\">by three. You\u2014my dark friend. And me.</span></p>\n"}, {"title": "On Meeting Robert Hayden in a Dream", "view_node": "/poem/meeting-robert-hayden-dream", "field_author": "<a href=\"/poet/abdul-ali\" hreflang=\"en\">Abdul Ali</a>", "field_date_published": "2015", "body": " <p>here among them\u00a0 the dead\u00a0 the others\u00a0 the aliens<br />I see you without\u00a0\u00a0\u00a0 coke bottle glasses\u00a0\u00a0 a wavy comb over\u00a0<br />your nose buried inside a notebook\u00a0 over-</p><p>flowing with strange sightings\u00a0\u00a0 men and women<br />without a homeland\u00a0\u00a0 a library to shelve histories<br />dreams\u00a0\u00a0 the names of rare flowers\u00a0 fruits\u00a0 baby names</p><p>exiled from their villages\u00a0\u00a0 learning to say hello<br />with accents thick\u00a0\u00a0 with nostalgia\u00a0\u00a0 for their purple planets<br />here UFO sightings aren\u2019t so spectacular</p><p>border crossing is quintessentially american\u00a0 universal<br />crowds gather in squalid ghettoes where every country is a city<br />every city is a verse\u00a0 &amp; every verse echoes \u201cThose Winter<br />\u00a0 \u00a0 \u00a0Sundays\u201d</p><p>where a New World opens up where all the martians are<br />\u00a0 \u00a0 \u00a0welcome\u00a0<br />at the writing table with their fountain pens &amp; swollen digits &amp;<br />\u00a0 \u00a0 \u00a0you whispering</p><p>what took so long?<br />\u00a0</p> "}, {"title": "The Jungle", "view_node": "/poem/jungle", "field_author": "<a href=\"/poet/megan-fernandes\" hreflang=\"en\">Megan Fernandes</a>", "field_date_published": "2015", "body": " <p>In midsummer, in Los Angeles,<br />the night is fractured</p><p>with mountains, grilling ink<br />into the blue thaw. I trail</p><p>into pools and pastures,<br />and in the diner,</p><p>tattoos speck<br />and skirt up booths,</p><p>the waitress, Dottie, is whipping<br />shells, mac and cheese,</p><p>waffles and chickens,<br />all oracles in the oil.</p><p>You think I\u2019m kidding? Look<br />at Hopper\u2019s orange rooms,</p><p>his lone man. Vineyards<br />are boring to paint,</p><p>the coffee rumbling us all<br />into a primal scene, the mismatched</p><p>silverware like guns in a Western,<br />all the possibilities</p><p>of a warm night.<br />The thing about LA is</p><p>anyone can walk through<br />the door. The drunk drive, the</p><p>open-air and clipping down<br />Highland Avenue. Here are all the streets</p><p>I remember: Alvarado and Effie.<br />Mohawk and Montana. Before</p><p>all this? The hills of Carpinteria,<br />cattle punk, the drained floodplains</p><p>and eucharistic jimson weed.<br />But dig that ditch city,</p><p>those impersonal stones,<br />the great vigilance</p><p>of the 19th century,<br />the circus of eggs on the plate,</p><p>Dottie full of lips, just lips<br />sipping, stinging the sandy air.</p> "}, {"title": "Prayer at Sunrise", "view_node": "/poem/prayer-sunrise", "field_author": "<a href=\"/poet/james-weldon-johnson\" hreflang=\"und\">James Weldon Johnson</a>", "field_date_published": "2015", "body": "<p><span class=\"long-line\">Now thou art risen, and thy day begun.</span><br /><span class=\"long-line\">How shrink the shrouding mists before thy face,</span><br /><span class=\"long-line\">As up thou spring\u2019st to thy diurnal race!</span><br /><span class=\"long-line\">How darkness chases darkness to the west,</span><br /><span class=\"long-line\">As shades of light on light rise radiant from thy crest!</span><br /><span class=\"long-line\">For thee, great source of strength, emblem of might,</span><br /><span class=\"long-line\">In hours of darkest gloom there is no night.</span><br /><span class=\"long-line\">Thou shinest on though clouds hide thee from sight,</span><br /><span class=\"long-line\">And through each break thou sendest down thy light.</span></p>\n\n<p><span class=\"long-line\">O greater Maker of this Thy great sun,</span><br /><span class=\"long-line\">Give me the strength this one day\u2019s race to run,</span><br /><span class=\"long-line\">Fill me with light, fill me with sun-like strength,</span><br /><span class=\"long-line\">Fill me with joy to rob the day its length.</span><br /><span class=\"long-line\">Light from within, light that will outward shine,</span><br /><span class=\"long-line\">Strength to make strong some weaker heart than mine,</span><br /><span class=\"long-line\">Joy to make glad each soul that feels its touch;</span><br /><span class=\"long-line\">Great Father of the sun, I ask this much.</span></p>\n"}, {"title": "Hands", "view_node": "/poem/hands-0", "field_author": "<a href=\"/poet/safiya-sinclair\" hreflang=\"en\">Safiya Sinclair</a>", "field_date_published": "2015", "body": "<p><span class=\"long-line\">Out here the surf rewrites our silences.</span><br /><span class=\"long-line\">This smell of ocean may never leave me;</span><br /><span class=\"long-line\">our humble life or the sea a dark page</span></p>\n\n<p><span class=\"long-line\">I am trying to turn: Today my mother\u2019s words</span><br /><span class=\"long-line\">sound final. And perhaps this is her first true thing.</span><br /><span class=\"long-line\">Her hands have not been her hands</span></p>\n\n<p><span class=\"long-line\">since she was twelve,</span><br /><span class=\"long-line\">motherless and shucking whatever the sea</span><br /><span class=\"long-line\">could offer, each day orphaned in the tide</span></p>\n\n<p><span class=\"long-line\">of her own necessity\u2014where the men-o-war</span><br /><span class=\"long-line\">ballooned, wearing her face, her anchor of a heart</span><br /><span class=\"long-line\">reaching, mooring for any blasted thing:</span></p>\n\n<p><span class=\"long-line\">sea-roach and black-haired kelp, jeweled perch</span><br /><span class=\"long-line\">or a drop of pearl made with her smallest self,</span><br /><span class=\"long-line\">her night-prayers a hushed word of thanks.</span></p>\n\n<p><span class=\"long-line\">But out here the salt-depths refuse tragedy.</span><br /><span class=\"long-line\">This hand-me-down life burns sufficiently tragic\u2014</span><br /><span class=\"long-line\">here what was cannibal masters the colonial</span></p>\n\n<p><span class=\"long-line\">curse, carved our own language of the macabre,</span><br /><span class=\"long-line\">sucking on the thumb of our own disparity. Holding</span><br /><span class=\"long-line\">her spliff in the wind, she probes and squalls,</span></p>\n\n<p><span class=\"long-line\">trying to remember the face of her own mother,</span><br /><span class=\"long-line\">our island or some strange word she once found</span><br /><span class=\"long-line\">amongst the filth of sailors whose beds she made,</span></p>\n\n<p><span class=\"long-line\">whose shoes she shined, whose guns</span><br /><span class=\"long-line\">she cleaned, while the white bullet of America</span><br /><span class=\"long-line\">ricocheted in her brain. Still that face she can\u2019t recall</span></p>\n\n<p><span class=\"long-line\">made her chew her fingernails, scratch the day down</span><br /><span class=\"long-line\">to its blood, the rusty sunset of this wonder,</span><br /><span class=\"long-line\">this smashed archipelago. Our wild sea-grape kingdom</span></p>\n\n<p><span class=\"long-line\">overrun, gold and belonging in all its glory</span><br /><span class=\"long-line\">to no one. How being twelve-fingered she took her father\u2019s</span><br /><span class=\"long-line\">fishing line to the deviation, and starved</span></p>\n\n<p><span class=\"long-line\">of blood what grew savage and unwanted. Pulled</span><br /><span class=\"long-line\">until they shriveled away, two hungry mouths</span><br /><span class=\"long-line\">askance and blooming, reminding her</span></p>\n\n<p><span class=\"long-line\">that she was still woman \u00a0 \u00a0 \u00a0 \u00a0 \u00a0 \u00a0 \u00a0 \u00a0 \u00a0 \u00a0always multiplying</span><br /><span class=\"long-line\">as life\u2019s little nubs and dreams came bucking up</span><br /><span class=\"long-line\">in her disjointed. How on the god-teeth</span></p>\n\n<p><span class=\"long-line\">she cut this life, offered her hands and vessel</span><br /><span class=\"long-line\">to be made wide, made purposeful,</span><br /><span class=\"long-line\">her body opalescent with all our clamoring,</span></p>\n\n<p><span class=\"long-line\">our bloodline of what once lived</span><br /><span class=\"long-line\">and will live and live again.</span><br /><span class=\"long-line\">In the sea\u2019s one voice she hears her answer.</span></p>\n\n<p><span class=\"long-line\">Beneath her gravid belly</span><br /><span class=\"long-line\">my gliding hull</span><br /><span class=\"long-line\">a conger eel.</span></p>\n"}], "pager": {"current_page": 371, "total_items": "13248", "total_pages": 663, "items_per_page": 20}}