{"rows": [{"title": "To Kathleen ", "view_node": "/poem/kathleen", "field_author": "<a href=\"/poet/edna-st-vincent-millay\" hreflang=\"und\">Edna St. Vincent Millay</a>", "field_date_published": "2017", "body": " <p>Still must the poet as of old,\u00a0<br />In barren attic bleak and cold,\u00a0<br />Starve, freeze, and fashion verses to\u00a0<br />Such things as flowers and song and you;</p><p>Still as of old his being give\u00a0<br />In Beauty\u2019s name, while she may live,<br />Beauty that may not die as long\u00a0<br />As there are flowers and you and song.<br />\u00a0</p> "}, {"title": "A Solar Eclipse", "view_node": "/poem/solar-eclipse", "field_author": "<a href=\"/poet/ella-wheeler-wilcox\" hreflang=\"und\">Ella Wheeler Wilcox</a>", "field_date_published": "2017", "body": " <p>In that great journey of the stars through space<br />\u00a0\u00a0\u00a0\u00a0 About the mighty, all-directing Sun,<br />\u00a0\u00a0\u00a0\u00a0 The pallid, faithful Moon, has been the one<br />Companion of the Earth. Her tender face,<br />Pale with the swift, keen purpose of that race,<br />\u00a0\u00a0\u00a0\u00a0 Which at Time\u2019s natal hour was first begun,<br />\u00a0\u00a0\u00a0\u00a0 Shines ever on her lover as they run<br />And lights his orbit with her silvery smile.</p><p>Sometimes such passionate love doth in her rise,<br />\u00a0\u00a0\u00a0\u00a0 Down from her beaten path she softly slips,<br />And with her mantle veils the Sun\u2019s bold eyes,<br />\u00a0\u00a0\u00a0\u00a0 Then in the gloaming finds her lover\u2019s lips.<br />While far and near the men our world call wise<br />\u00a0\u00a0\u00a0\u00a0 See only that the Sun is in eclipse.</p> "}, {"title": "Sketch", "view_node": "/poem/sketch", "field_author": "<a href=\"/poet/carl-sandburg\" hreflang=\"und\">Carl Sandburg</a>", "field_date_published": "1916", "body": " <p>The shadows of the ships<br />Rock on the crest<br />In the low blue lustre<br />Of the tardy and the soft inrolling tide.</p><p>A long brown bar at the dip of the sky<br />Puts an arm of sand in the span of salt.</p><p>The lucid and endless wrinkles<br />Draw in, lapse and withdraw.<br />Wavelets crumble and white spent bubbles<br />Wash on the floor of the beach.</p><p>\u00a0 \u00a0 \u00a0 \u00a0 \u00a0 \u00a0 \u00a0 Rocking on the crest<br />\u00a0 \u00a0 \u00a0 \u00a0 \u00a0 \u00a0 \u00a0 In the low blue lustre<br />\u00a0 \u00a0 \u00a0 \u00a0 \u00a0 \u00a0 \u00a0 Are the shadows of the ships.<br />\u00a0</p> "}, {"title": "The Symbolic Life ", "view_node": "/poem/symbolic-life", "field_author": "<a href=\"/poet/hayan-charara\" hreflang=\"und\">Hayan Charara</a>", "field_date_published": "2017", "body": " <p>They kept showing up, for days,<br />dead on the windowsill,<br />and for days I did nothing about the ladybugs<br />except to ask if their entering the house<br />unnoticed and dying before I saw them<br />was symbolic.<br />Thinking so was easy.<br />They symbolized birth and death,<br />change and rebirth.<br />It was also possible the tiny beetles<br />embodied an inborn need<br />to show themselves,<br />to turn up in every and any place,<br />even as the dried-out remains of the once lively.<br />Or they stood for the burden of being one thing<br />relieved by becoming another,<br />which all the world\u2019s children suffer.</p><p>This went on and on, and could\u2019ve gone on<br />forever, so finally I opened the window<br />and blew them into the wide open<br />because everything and everyone should get a chance<br />to be mourned, and they got theirs,<br />but first they had to die, which is life,<br />not symbolism.</p> "}, {"title": "Circus City", "view_node": "/poem/circus-city", "field_author": "<a href=\"/poet/carol-frost\" hreflang=\"und\">Carol Frost</a>", "field_date_published": "2017", "body": " <p><em>This is what life is really like.<br />This is what life is really like.<br />This is what life is really like every day.</em><br />\u00a0\u00a0<br />\u2014Gray Parrot, Vienna, 1943.</p><p><br /><span class=\"long-line\">In the circus animals\u2019 diary: \u201cAnd all this was destroyed in ninety minutes.\u201d</span><br />Makeshift forests flaming to high heavens, metal bent bars.<br />Siberian tigers, black panthers, jaguars, pumas,<br /><span class=\"long-line\">bears, hyenas and wolves, and all the lion pit saved from burning</span><br /><span class=\"long-line\">by the keepers\u2019 own hands. By bullets. Only so much can be said.</span><br />Herbage will be scarce. Nature will gather like sleeping poppies<br />over the craters and lost species.<br /><span class=\"long-line\">The African wart-hog will be cooked over an open fire in the garden.</span><br />One thinks of one\u2019s restlessness, Faustian\u2014<br />in the minutes-before-dawn dark<br />with the devil cry of black crows, the miry skull<br />of the half-eaten rabbit, then gold grimy hills<br />and light-making jewels and hand mirrors among the trees.<br />Why are you here? It dawns. All this will never be again.<br />The circus can\u2019t be locked.\u00a0<br />\u00a0</p> "}, {"title": "Lonely Planet", "view_node": "/poem/lonely-planet", "field_author": "<a href=\"/poet/nate-klug\" hreflang=\"en\">Nate Klug</a>", "field_date_published": "2017", "body": " <p>You\u2019re used to it, the way,<br />in the first wide-eyed<br />minutes, climbing from parking lot<br />to fire trail, or rifling through<br />cupboards in a rented kitchen,<br />I can\u2019t help but tell you<br />we should visit here again,<br />my reverie inserting<br />a variation in the season,<br />or giving friends the room<br />next door, in stubborn panic<br />to fix this happiness in place<br />by escaping from it.<br />\u201cWe\u2019re here <em>now</em>,\u201d you say,<br />holding out the book I bought<br />with its dog-eared maps and lists<br />and, on the cover, a waterfall,<br />white flecks frozen, very close.</p> "}, {"title": "Daily Conscription ", "view_node": "/poem/daily-conscription", "field_author": "<a href=\"/poet/kyle-dargan\" hreflang=\"und\">Kyle Dargan</a>", "field_date_published": "2017", "body": " <p>\u201cWe can no longer afford that particular romance.\u201d<br /><em>\u2014James Baldwin</em></p><p>Brother Rickey halts me before I cross East<br />Capitol. He trumpets that we are at war.<br /><br />I want to admit that I don\u2019t believe in \u201cwhite\u201d<br />\u2014in the manner that Baldwin did not\u2014but Brother<br /><br />Rickey would simply retort that my disbelief<br />is no immunity from the imaginations of those<br /><br />who think themselves \u201cwhite.\u201d As we await<br />the stoplight\u2019s shift\u2014so I may walk and he may<br /><br />holler \u201cFinal Call!\u201d between lanes of idle traffic\u2014<br />I think of race as something akin to climate change,<br /><br />a force we don\u2019t have to believe in for it to kill us.<br />I once believed in the seasons. (I fantasize<br /><br />fall as Brother Rickey\u2019s favorite\u2014when his suits,<br />boxy and plaid, would be neither too hot nor<br /><br />thin.) But we are losing spring and fall\u2014tripping<br />from blaze to frost and back. And what\u2019s to say<br /><br />we won\u2019t soon shed another season, one of these<br />remaining two, and live on either an Earth<br /><br />of molten streets or one of frozen light? That\u2019s when<br />worlds end, no\u2014when, after we\u2019ve eradicated<br /><br />ourselves, we become faint fossils to be exhumed<br />by the curiosities of whichever life-forms follow<br /><br />our reign? I still owe Brother Rickey two dollars<br />for the paper he last placed in my hand, calling me<br /><br />\u201csoldier.\u201d I don\u2019t have to believe that I am enlisted<br />in order to understand he\u2019ll forgive my debt<br /><br />so long as this idea of \u201cwhiteness\u201d sorties above us\u2014<br />ultraviolet, obliging an aseasonal, unending deployment.<br /><br />Released by the signal, I advance\u2014my head down,<br />straining to discern the crossfire from the cover.<br />\u00a0</p> "}, {"title": "Hummingbird", "view_node": "/poem/hummingbird-0", "field_author": "<a href=\"/poet/robin-becker\" hreflang=\"und\">Robin Becker</a>", "field_date_published": "2017", "body": " <p>I love the whir of the creature come<br />to visit the pink<br />flowers in the hanging basket as she does<br /><br />most August mornings, hours away<br />from starvation to store<br />enough energy to survive overnight.<br /><br />The Aztecs saw the refraction<br />of incident light on wings<br />as resurrection of fallen warriors.<br /><br />In autumn, when daylight decreases<br />they double their body weight to survive<br />the flight across the Gulf of Mexico.<br /><br />On next-to-nothing my mother<br />flew for 85 years; after her death<br />she hovered, a bird of bones and air.</p> "}, {"title": "On Broadway ", "view_node": "/poem/broadway-0", "field_author": "<a href=\"/poet/claude-mckay\" hreflang=\"und\">Claude McKay</a>", "field_date_published": "2017", "body": "<p><span class=\"long-line\">About me young and careless feet</span><br /><span class=\"long-line\">Linger along the garish street;</span><br /><span class=\"long-line\">\u00a0\u00a0 Above, a hundred shouting signs</span><br /><span class=\"long-line\">Shed down their bright fantastic glow</span><br /><span class=\"long-line\">\u00a0\u00a0 Upon the merry crowd and lines</span><br /><span class=\"long-line\">Of moving carriages below.</span><br /><span class=\"long-line\">Oh wonderful is Broadway\u2014only</span><br /><span class=\"long-line\">My heart, my heart is lonely.</span></p>\n\n<p><span class=\"long-line\">Desire naked, linked with Passion,</span><br /><span class=\"long-line\">Goes strutting by in brazen fashion;</span><br /><span class=\"long-line\">\u00a0\u00a0 From playhouse, cabaret and inn</span><br /><span class=\"long-line\">The rainbow lights of Broadway blaze</span><br /><span class=\"long-line\">\u00a0\u00a0 All gay without, all glad within;</span><br /><span class=\"long-line\">As in a dream I stand and gaze</span><br /><span class=\"long-line\">At Broadway, shining Broadway\u2014only</span><br /><span class=\"long-line\">My heart, my heart is lonely.</span></p>\n"}, {"title": "Daughter", "view_node": "/poem/daughter-0", "field_author": "<a href=\"/poet/david-petruzelli\" hreflang=\"und\">David Petruzelli</a>", "field_date_published": "2017", "body": " <pre>\nIn the days when I wrote shorts stories\nand still didn't know how dreadful they were,\n\nwhen I used the real names of everyone \nI knew, I could not imagine\n\nanything other than how they dressed,\nwhat they ate, and why they did the expected.\n\nAnd I didn't notice across the river\nand overcast afternoon in Manhattan, or see\n\nthe girl who's taken to the children's bookstore\nwhere her favorite author signs his latest work.\n\nHer mother, who's recently divorced\nand would never describe herself as impulsive\n\ndiscovers she's attracted to the man,\nand while afterward her daughter pretends\n\nto examine the displays of books, the woman\ninvites him to their apartment for dinner.\n\nThe shop where this will happen is small\nbut well situated, filling steady orders\n\nfrom the private schools that seem to be \non every other block. The girl, who's seven\n\nand still loves being read to, is in her room\nthat looks across to Riverside Park. \n\nA wall calendar reads 1980,\nwhich seems right for the styles of dresses\n\nhanging in her closet, or the pink\nrecord player that sits in one corner\n\nand is living on borrowed time. In the kitchen\nshe has to be told more than once to eat lunch,\n\nbut she is thinking about later, and while\nshe isn't sure what will happen at the bookshop,\n\nshe dreams of discouraging clouds \nwhich shadow the other children,\n\nthat rain will punish their beautiful mothers,\nthough none as beautiful as hers,\n\nand she can see\u2015seated at a table,\nfountain pen in his long fingers\n\nand waiting patiently, the handsome prince\nwhose story she will write without my help.</pre>\n "}, {"title": "The Deadman", "view_node": "/poem/deadman", "field_author": "<a href=\"/poet/carrie-shipers\" hreflang=\"en\">Carrie Shipers</a>", "field_date_published": "2017", "body": " <pre>\n\t        <em>After Marvin Bell</em>\n\nThe Deadman speaks in sentences \nbut rarely paragraphs.  He wears boots \nwith silver buckles and walks \nwithout a sound.  His hat and coat \nexaggerate his height.  Unlike other \nwrestlers, the Deadman doesn\u2019t need \napplause to prove that he exists.  \nHe mostly moves above the waist, \nhis gestures plain from the back row.  \nThe Deadman\u2019s x-rays always blur.  \nLikewise MRIs, though he holds \nperfectly still.  He controls light \nand fire with his mind.  His burns \nare first degree.  The Deadman \nworks 19 days a year, but only 6\nof those are matches.  Even if \nhe wrestles first, he\u2019s still the main event.  \nNo matter where he dresses, \nthe Deadman runs the locker room.  \nHe shakes hands because he must.  \nHis palms are neither moist nor dry, \nhot nor cold.  His grip has nothing\nleft to prove.  The Deadman disappears \nat will, but he always returns.  \nHe did not invent his famous matches\u2014\nHell in a Cell, Buried Alive\u2014\nbut he perfected them.  The Deadman \ncan be surprised, but never by himself.\n</pre>\n "}, {"title": "He Watches the Weather Channel", "view_node": "/poem/he-watches-weather-channel", "field_author": "<a href=\"/poet/carrie-shipers\" hreflang=\"en\">Carrie Shipers</a>", "field_date_published": "2017", "body": "<blockquote><sup><em>after Reagan Lothes</em></sup></blockquote>\n\n<p><span class=\"long-line\">Because nothing else is on so early </span><br /><span class=\"long-line\">in the morning when he drinks coffee </span><br /><span class=\"long-line\">in an empty house.\u00a0Because almanacs </span></p>\n\n<p><span class=\"long-line\">are of limited use compared to satellites.</span><br /><span class=\"long-line\">Because spring will have to come somehow </span><br /><span class=\"long-line\">and cold reminds him which bones </span></p>\n\n<p><span class=\"long-line\">he\u2019s broken.\u00a0Because every flight delayed </span><br /><span class=\"long-line\">or canceled is one he won\u2019t be on.\u00a0Because </span><br /><span class=\"long-line\">people should stay where they\u2019re from, </span></p>\n\n<p><span class=\"long-line\">except his children, who were right to leave.\u00a0 </span><br /><span class=\"long-line\">Because a flood will take what it can </span><br /><span class=\"long-line\">and move uphill.\u00a0Because just once </span></p>\n\n<p><span class=\"long-line\">he\u2019d like to see a tornado touch down </span><br /><span class=\"long-line\">in an empty field and go away</span><br /><span class=\"long-line\">hungry.\u00a0Because his wife nearly died </span></p>\n\n<p><span class=\"long-line\">on an icy road.\u00a0Because he can\u2019t prepare </span><br /><span class=\"long-line\">for disasters he doesn\u2019t understand.</span><br /><span class=\"long-line\">Because wind keeps him awake.\u00a0Because </span></p>\n\n<p><span class=\"long-line\">his boots are by the door, but his slicker </span><br /><span class=\"long-line\">is in his truck.\u00a0Because he can\u2019t change </span><br /><span class=\"long-line\">a damn thing forecast and uncertainty aches </span></p>\n\n<p><span class=\"long-line\">like a tired muscle, an unhealed wound.</span></p>\n"}, {"title": "Self-Portrait as Aerialist", "view_node": "/poem/self-portrait-aerialist", "field_author": "<a href=\"/poet/carrie-shipers\" hreflang=\"en\">Carrie Shipers</a>", "field_date_published": "2017", "body": " <pre>\nI\u2019ve always been afraid to fall\u2014the rough \nembrace of the net, the crowd\u2019s shocked gasp, \nmy mother\u2019s disapproval.  She loves me best\n\nwhen I can fly, when I trust the bar, the leap,\nthe air and all my training.  From far away, \nevery catch, release and tumble looks as effortless \n\nas breath.  Up close, we grunt and cry, hands \nsweat and slip, wires creak and nearly tangle.  \nI\u2019d rather be the girl the magician disappears, \n\nthe lovely target spinning for the knives, \nassistant who holds the hoops the cats \njump through\u2014anything to avoid the long climb \n\nand quick launch into space where only light \nwill catch me every time.  Every landing\ncomes as a relief, the platform trembling \n\nbeneath my feet, ache in my chest easing.  \nIf I crash into the net I have to wave and smile, \npretend it doesn\u2019t hurt to fall so far.\n</pre>\n "}, {"title": "Prayer to Our Lady of Waiting Rooms", "view_node": "/poem/prayer-our-lady-waiting-rooms", "field_author": "<a href=\"/poet/carrie-shipers\" hreflang=\"en\">Carrie Shipers</a>", "field_date_published": "2017", "body": " <pre>\nLet the seats be plentiful and padded.  \nLet the magazines be recent or let the book \nI\u2019ve brought last until we can leave.\nLet the TV on its bolted stand be off, \nmuted, or showing something I can ignore\u2014\nweather, gameshows, CNN.  Let the room \nbe mostly empty\u2014no one shouting, sobbing, \nasking about my husband\u2019s health.  \nLet everyone be strangers except \nthe staff.  Let the walls be freshly painted, \nsoothing to behold.  Let my husband \nbe there for a physical or routine checkup.  \nLet no one comment on my clothes\nor unwashed hair, how I can sit \nso calmly while he has staples \nor a catheter removed, his lungs or heart \nor kidneys tested, an infected wound \ndebrided.  Under no circumstances \nlet me be called into the back by a nurse \nwho touches my arm, says I\u2019m sorry but\u2014  \nLet my husband walk out whistling \nbefore I\u2019ve finished my book, looked \nat my watch too many times.  Let the news\nbe good or benign, his next appointment \nnot for months.  When the waiting is over, \nlet us walk outside feeling better,\nor at least no worse, than we did before.\n</pre>\n "}, {"title": "Low-Tide", "view_node": "/poem/low-tide", "field_author": "<a href=\"/poet/edna-st-vincent-millay\" hreflang=\"und\">Edna St. Vincent Millay</a>", "field_date_published": "2017", "body": "<p><span class=\"long-line\">These wet rocks where the tide has been,</span><br /><span class=\"long-line\">\u00a0\u00a0 Barnacled white and weeded brown</span><br /><span class=\"long-line\">And slimed beneath to a beautiful green,</span><br /><span class=\"long-line\">\u00a0\u00a0 These wet rocks where the tide went down</span><br /><span class=\"long-line\">Will show again when the tide is high</span><br /><span class=\"long-line\">\u00a0\u00a0 Faint and perilous, far from shore,</span><br /><span class=\"long-line\">No place to dream, but a place to die,\u2014</span><br /><span class=\"long-line\">\u00a0\u00a0 The bottom of the sea once more.</span><br /><span class=\"long-line\"><em>There was a child that wandered through</em></span><br /><em><span class=\"long-line\">\u00a0\u00a0 A giant's empty house all day,\u2014</span><br /><span class=\"long-line\">House full of wonderful things and new,</span><br /><span class=\"long-line\">\u00a0\u00a0 But no fit place for a child to play.</span></em></p>\n"}, {"title": "Mariposa", "view_node": "/poem/mariposa", "field_author": "<a href=\"/poet/edna-st-vincent-millay\" hreflang=\"und\">Edna St. Vincent Millay</a>", "field_date_published": "2017", "body": " <p>Butterflies are white and blue<br />In this field we wander through.<br />Suffer me to take your hand.<br />Death comes in a day or two.</p><p>All the things we ever knew<br />Will be ashes in that hour,<br />Mark the transient butterfly,<br />How he hangs upon the flower.</p><p>Suffer me to take your hand.<br />Suffer me to cherish you<br />Till the dawn is in the sky.<br />Whether I be false or true,<br />Death comes in a day or two.</p> "}, {"title": "Burial", "view_node": "/poem/burial-2", "field_author": "<a href=\"/poet/edna-st-vincent-millay\" hreflang=\"und\">Edna St. Vincent Millay</a>", "field_date_published": "2017", "body": " <p>Mine is a body that should die at sea!<br />\u00a0\u00a0 And have for a grave, instead of a grave<br />Six feet deep and the length of me,<br />\u00a0\u00a0 All the water that is under the wave!</p><p>And terrible fishes to seize my flesh,<br />\u00a0\u00a0 Such as a living man might fear,<br />And eat me while I am firm and fresh,\u2014<br />\u00a0\u00a0 Not wait till I've been dead for a year!</p> "}, {"title": "Dirge", "view_node": "/poem/dirge-0", "field_author": "<a href=\"/poet/edna-st-vincent-millay\" hreflang=\"und\">Edna St. Vincent Millay</a>", "field_date_published": "2017", "body": " <p>Boys and girls that held her dear,<br />\u00a0\u00a0 Do your weeping now;<br />All you loved of her lies here.</p><p>Brought to earth the arrogant brow,<br />\u00a0\u00a0 And the withering tongue<br />Chastened; do your weeping now.</p><p>Sing whatever songs are sung,<br />\u00a0\u00a0 Wind whatever wreath,<br />For a playmate perished young,</p><p>For a spirit spent in death.<br />\u00a0\u00a0 Boys and girls that held her dear,<br />All you loved of her lies here.<br />\u00a0</p> "}, {"title": "Frogs Eat Butterflies. Snakes Eat Frogs. Hogs Eat Snakes. Men Eat Hogs.", "view_node": "/poem/frogs-eat-butterflies-snakes-eat-frogs-hogs-eat-snakes-men-eat-hogs", "field_author": "<a href=\"/poet/wallace-stevens\" hreflang=\"und\">Wallace Stevens</a>", "field_date_published": "2017", "body": " <p>It is true that the rivers went nosing like swine,<br />Tugging at banks, until they seemed<br />Bland belly-sounds in somnolent troughs,</p><p>That the air was heavy with the breath of these swine,<br />The breath of turgid summer, and<br />Heavy with thunder\u2019s rattapallax,</p><p>That the man who erected this cabin, planted<br />This field, and tended it awhile,<br />Knew not the quirks of imagery,</p><p>That the hours of his indolent, arid days,<br />Grotesque with this nosing in banks,<br />This somnolence and rattapallax,</p><p>Seemed to suckle themselves on his arid being,<br />As the swine-like rivers suckled themselves<br />While they went seaward to the sea-mouths.</p> "}, {"title": "Instructions for a Ballet", "view_node": "/poem/instructions-ballet", "field_author": "<a href=\"/poet/maxwell-bodenheim\" hreflang=\"en\">Maxwell Bodenheim</a>", "field_date_published": "2017", "body": "<p><span class=\"long-line\">Raise the right foot\u2014bound in sheer</span><br /><span class=\"long-line\">Reasons of white and gold\u2014</span><br /><span class=\"long-line\">One inch from the black stage-floor.</span><br /><span class=\"long-line\">Then perform these torpid words:</span><br /><span class=\"long-line\">\u201cMoney is dangerous to men:</span><br /><span class=\"long-line\">It shames the clearness of their thoughts.\u201d</span><br /><span class=\"long-line\">After thus accounting</span><br /><span class=\"long-line\">For the loquacious smallness</span><br /><span class=\"long-line\">Of those rare gifts that come from doubting men,</span><br /><span class=\"long-line\">Tear the left foot vigorously</span><br /><span class=\"long-line\">From the black grip of the floor,</span><br /><span class=\"long-line\">And attend its nakedness</span><br /><span class=\"long-line\">With this coronation of words:</span><br /><span class=\"long-line\">\u201cMoney is emptiness</span><br /><span class=\"long-line\">Curiously violated by colour.</span><br /><span class=\"long-line\">Crown it with originality</span><br /><span class=\"long-line\">That burns with careless discernment,</span><br /><span class=\"long-line\">And amaze the limpid</span><br /><span class=\"long-line\">Familiarity of Time.\u201d</span><br /><span class=\"long-line\">After thus accounting</span><br /><span class=\"long-line\">For an improbable situation,</span><br /><span class=\"long-line\">Abandon the farce and shrewdly</span><br /><span class=\"long-line\">Tiptoe across the stage,</span><br /><span class=\"long-line\">Peering down at your feet</span><br /><span class=\"long-line\">And mistaking their lean mysteries</span><br /><span class=\"long-line\">For possibilities in syncopation.</span><br /><span class=\"long-line\">Having thus emulated</span><br /><span class=\"long-line\">The tension of a psycho-analyst</span><br /><span class=\"long-line\">Who confuses routines with causes,</span><br /><span class=\"long-line\">Suddenly kneel upon the floor,</span><br /><span class=\"long-line\">Limp with the collapse of sightless longing,</span><br /><span class=\"long-line\">And raise one hand to the sky</span><br /><span class=\"long-line\">While clenching on the other hand at your audience,</span><br /><span class=\"long-line\">Thus expressing the thoughtful perturbations</span><br /><span class=\"long-line\">Of Occidental religions.</span><br /><span class=\"long-line\">Then dance across the stage,</span><br /><span class=\"long-line\">Giving complex decisions to your legs</span><br /><span class=\"long-line\">And interrupting the dance with a pause</span><br /><span class=\"long-line\">In which you question its cumbersome cause.</span><br /><span class=\"long-line\">Having thus defended</span><br /><span class=\"long-line\">The broken rhythm of Western philosophers\u2014</span><br /><span class=\"long-line\">Sprinkled with a carnival of details\u2014</span><br /><span class=\"long-line\">Change the dance to a borrowed waltz,</span><br /><span class=\"long-line\">Picking suave tricks from a harp</span><br /><span class=\"long-line\">That lacks an ascending scale of notes,</span><br /><span class=\"long-line\">And insisting that the result is music.</span><br /><span class=\"long-line\">The end of the ballet should portray</span><br /><span class=\"long-line\">A gradual sinking to the floor,</span><br /><span class=\"long-line\">With plentiful whispers resenting</span><br /><span class=\"long-line\">The final intrusion of Buddha.</span></p>\n"}], "pager": {"current_page": 294, "total_items": "13248", "total_pages": 663, "items_per_page": 20}}