{"rows": [{"title": "Lady Montrevor ", "view_node": "/poem/lady-montrevor", "field_author": "<a href=\"/poet/christina-rossetti\" hreflang=\"und\">Christina Rossetti</a>", "field_date_published": "2017", "body": " <p>I do not look for love that is a dream\u2014<br />\u00a0\u00a0\u00a0 I only seek for courage to be still;<br />\u00a0\u00a0\u00a0 To bear my grief with an unbending will,<br />And when I am a-weary not to seem.<br />Let the round world roll on; let the sun beam;<br />\u00a0\u00a0\u00a0 Let the wind blow, and let the rivers fill<br />\u00a0\u00a0\u00a0 The everlasting sea, and on the hill<br />The palms almost touch heaven, as children deem.<br />And, though young spring and summer pass away,<br />\u00a0\u00a0\u00a0 And autumn and cold winter come again,<br />\u00a0\u00a0\u00a0 And though my soul, being tired of its pain,<br />Pass from the ancient earth, and though my clay<br />\u00a0\u00a0\u00a0 Return to dust, my tongue shall not complain;\u2014<br />No man shall mock me after this my day.</p> "}, {"title": "This Is What Makes Us Worlds", "view_node": "/poem/what-makes-us-worlds", "field_author": "<a href=\"/poet/joshua-jennifer-espinoza\" hreflang=\"en\">Joshua Jennifer Espinoza</a>", "field_date_published": "2017", "body": " <p>Like light but<br />in reverse we billow.</p><p>We turn a corner<br />and make the hills<br />disappear.</p><p>You rearrange<br />my parts until no<br />more hurting.</p><p>No more skin-sunk<br />nighttime fear.</p><p>No more blameless death.</p><p>My hair loses its atoms.<br />My body glows<br />in the dark.</p><p>Planets are smashed<br />into oblivion,<br />stripped of their power<br />to name things.</p><p>Our love fills the air.</p><p>Our love eats<br />the deadly sounds men<br />make when they see<br />how much magic<br />we have away<br />from them.</p><br />"}, {"title": "Monday Sundown 9/17/01", "view_node": "/poem/monday-sundown-91701", "field_author": "<a href=\"/poet/lucille-clifton\" hreflang=\"und\">Lucille Clifton</a>", "field_date_published": "2017", "body": " <p>\n\n<!-- THEME DEBUG -->\n<!-- THEME HOOK: 'image' -->\n<!-- BEGIN OUTPUT from 'core/themes/classy/templates/field/image.html.twig' -->\n<img alt=\"Monday Sunday 9/17/01 by Lucille Clifton\" height=\"314\" width=\"345\" style=\"height: 314px; width: 345px;\" class=\"media-element file-media-original\" src=\"/sites/default/files/screen_shot_2017-07-31_at_10.08.27_am.png\" typeof=\"foaf:Image\" /><!-- END OUTPUT from 'core/themes/classy/templates/field/image.html.twig' --></p> "}, {"title": "Sunday Morning 9/16/01", "view_node": "/poem/sunday-morning-91601", "field_author": "<a href=\"/poet/lucille-clifton\" hreflang=\"und\">Lucille Clifton</a>", "field_date_published": "2017", "body": " <p>\n\n<!-- THEME DEBUG -->\n<!-- THEME HOOK: 'image' -->\n<!-- BEGIN OUTPUT from 'core/themes/classy/templates/field/image.html.twig' -->\n<img alt=\"Sunday Morning 9/16/01\" height=\"707\" width=\"462\" style=\"height: 707px; width: 462px;\" class=\"media-element file-media-original\" src=\"/sites/default/files/screen_shot_2017-07-31_at_10.04.42_am.png\" typeof=\"foaf:Image\" /><!-- END OUTPUT from 'core/themes/classy/templates/field/image.html.twig' --></p> "}, {"title": "Saturday 9/15/01", "view_node": "/poem/saturday-91501", "field_author": "<a href=\"/poet/lucille-clifton\" hreflang=\"und\">Lucille Clifton</a>", "field_date_published": "2017", "body": " <p>\n\n<!-- THEME DEBUG -->\n<!-- THEME HOOK: 'image' -->\n<!-- BEGIN OUTPUT from 'core/themes/classy/templates/field/image.html.twig' -->\n<img alt=\"Saturday 9/15/01 by Lucille Clifton\" height=\"196\" width=\"636\" style=\"height: 154px; width: 520px;\" class=\"media-element file-media-original\" src=\"/sites/default/files/screen_shot_2017-07-31_at_10.01.51_am.png\" typeof=\"foaf:Image\" /><!-- END OUTPUT from 'core/themes/classy/templates/field/image.html.twig' --></p> "}, {"title": "Friday 9/14/01", "view_node": "/poem/friday-91401", "field_author": "<a href=\"/poet/lucille-clifton\" hreflang=\"und\">Lucille Clifton</a>", "field_date_published": "2017", "body": " <p>\n\n<!-- THEME DEBUG -->\n<!-- THEME HOOK: 'image' -->\n<!-- BEGIN OUTPUT from 'core/themes/classy/templates/field/image.html.twig' -->\n<img alt=\"Friday 9/14/01 by Lucille Clifton\" height=\"364\" width=\"378\" style=\"height: 364px; width: 378px;\" class=\"media-element file-media-original\" src=\"/sites/default/files/screen_shot_2017-07-31_at_9.58.33_am.png\" typeof=\"foaf:Image\" /><!-- END OUTPUT from 'core/themes/classy/templates/field/image.html.twig' --></p> "}, {"title": "Thursday 9/13/01", "view_node": "/poem/thursday-91301", "field_author": "<a href=\"/poet/lucille-clifton\" hreflang=\"und\">Lucille Clifton</a>", "field_date_published": "2017", "body": " <p>\n\n<!-- THEME DEBUG -->\n<!-- THEME HOOK: 'image' -->\n<!-- BEGIN OUTPUT from 'core/themes/classy/templates/field/image.html.twig' -->\n<img alt=\"Thursday 9/13/2001 by Lucille Clifton\" height=\"379\" width=\"389\" style=\"height: 379px; width: 389px;\" class=\"media-element file-media-original\" src=\"/sites/default/files/screen_shot_2017-07-31_at_9.55.03_am.png\" typeof=\"foaf:Image\" /><!-- END OUTPUT from 'core/themes/classy/templates/field/image.html.twig' --></p> "}, {"title": "Wednesday 9/12/01", "view_node": "/poem/wednesday-91201", "field_author": "<a href=\"/poet/lucille-clifton\" hreflang=\"und\">Lucille Clifton</a>", "field_date_published": "2017", "body": " <p>\n\n<!-- THEME DEBUG -->\n<!-- THEME HOOK: 'image' -->\n<!-- BEGIN OUTPUT from 'core/themes/classy/templates/field/image.html.twig' -->\n<img alt=\"Wednesday 9/12/2001\" height=\"473\" width=\"421\" style=\"height: 473px; width: 421px;\" class=\"media-element file-media-original\" src=\"/sites/default/files/screen_shot_2017-07-31_at_9.51.26_am.png\" typeof=\"foaf:Image\" /><!-- END OUTPUT from 'core/themes/classy/templates/field/image.html.twig' --></p> "}, {"title": "Tuesday 9/11/01", "view_node": "/poem/tuesday-91101", "field_author": "<a href=\"/poet/lucille-clifton\" hreflang=\"und\">Lucille Clifton</a>", "field_date_published": "2017", "body": "<p><!-- THEME DEBUG --><!-- THEME HOOK: 'image' --><!-- BEGIN OUTPUT from 'core/themes/classy/templates/field/image.html.twig' --><img alt=\"Tuesday 9/11/2001 by Lucille Clifton\" class=\"media-element file-media-original\" height=\"329\" src=\"/sites/default/files/screen_shot_2017-07-31_at_9.39.29_am.png\" style=\"width: 448px; height: 329px; float: left;\" typeof=\"foaf:Image\" width=\"448\" /><!-- END OUTPUT from 'core/themes/classy/templates/field/image.html.twig' --></p>\n"}, {"title": "The Little Ghost", "view_node": "/poem/little-ghost", "field_author": "<a href=\"/poet/edna-st-vincent-millay\" hreflang=\"und\">Edna St. Vincent Millay</a>", "field_date_published": "2017", "body": " <p>I knew her for a little ghost<br />\u00a0 \u00a0 \u00a0That in my garden walked;<br />The wall is high\u2014higher than most\u2014<br />\u00a0 \u00a0 \u00a0And the green gate was locked.</p><p>And yet I did not think of that<br />\u00a0 \u00a0 \u00a0Till after she was gone\u2014<br />I knew her by the broad white hat,<br />\u00a0 \u00a0 \u00a0All ruffled, she had on.</p><p>By the dear ruffles round her feet,<br />\u00a0 \u00a0 \u00a0By her small hands that hung<br />In their lace mitts, austere and sweet,<br />\u00a0 \u00a0 \u00a0Her gown's white folds among.</p><p>I watched to see if she would stay,<br />\u00a0 \u00a0 \u00a0What she would do\u2014and oh!<br />She looked as if she liked the way<br />\u00a0 \u00a0 \u00a0I let my garden grow!</p><p>She bent above my favourite mint<br />\u00a0 \u00a0 \u00a0With conscious garden grace,<br />She smiled and smiled\u2014there was no hint<br />\u00a0 \u00a0 \u00a0Of sadness in her face.</p><p>She held her gown on either side<br />\u00a0 \u00a0 \u00a0To let her slippers show,<br />And up the walk she went with pride,<br />\u00a0 \u00a0 \u00a0The way great ladies go.</p><p>And where the wall is built in new<br />\u00a0 \u00a0 \u00a0And is of ivy bare<br />She paused\u2014then opened and passed through<br />\u00a0 \u00a0 \u00a0A gate that once was there.</p> "}, {"title": "Tavern", "view_node": "/poem/tavern", "field_author": "<a href=\"/poet/edna-st-vincent-millay\" hreflang=\"und\">Edna St. Vincent Millay</a>", "field_date_published": "2017", "body": " <p>I'll keep a little tavern<br />\u00a0\u00a0 Below the high hill's crest,<br />Wherein all grey-eyed people<br />\u00a0\u00a0 May set them down and rest.</p><p>There shall be plates a-plenty,<br />\u00a0\u00a0 And mugs to melt the chill<br />Of all the grey-eyed people<br />\u00a0\u00a0 Who happen up the hill.</p><p>There sound will sleep the traveller,<br />\u00a0\u00a0 And dream his journey's end,<br />But I will rouse at midnight<br />\u00a0\u00a0 The falling fire to tend.</p><p>Aye, 'tis a curious fancy\u2014<br />\u00a0\u00a0 But all the good I know<br />Was taught me out of two grey eyes<br />\u00a0\u00a0 A long time ago.</p> "}, {"title": "Sorrow", "view_node": "/poem/sorrow-0", "field_author": "<a href=\"/poet/edna-st-vincent-millay\" hreflang=\"und\">Edna St. Vincent Millay</a>", "field_date_published": "2017", "body": " <p>Sorrow like a ceaseless rain<br />\u00a0\u00a0 Beats upon my heart.<br />People twist and scream in pain,\u2014<br />Dawn will find them still again;<br />This has neither wax nor wane,<br />\u00a0\u00a0 Neither stop nor start.</p><p>People dress and go to town;<br />\u00a0\u00a0 I sit in my chair.<br />All my thoughts are slow and brown:<br />Standing up or sitting down<br />Little matters, or what gown<br />\u00a0\u00a0 Or what shoes I wear.</p> "}, {"title": "God&#039;s World", "view_node": "/poem/gods-world-0", "field_author": "<a href=\"/poet/edna-st-vincent-millay\" hreflang=\"und\">Edna St. Vincent Millay</a>", "field_date_published": "2017", "body": "<p><span class=\"long-line\">O world, I cannot hold thee close enough!</span><br /><span class=\"long-line\">\u00a0\u00a0 Thy winds, thy wide grey skies!</span><br /><span class=\"long-line\">\u00a0\u00a0 Thy mists, that roll and rise!</span><br /><span class=\"long-line\">Thy woods, this autumn day, that ache and sag</span><br /><span class=\"long-line\">And all but cry with colour! That gaunt crag</span><br /><span class=\"long-line\">To crush! To lift the lean of that black bluff!</span><br /><span class=\"long-line\">World, World, I cannot get thee close enough!</span></p>\n\n<p><span class=\"long-line\">Long have I known a glory in it all,</span><br /><span class=\"long-line\">\u00a0 \u00a0 \u00a0 \u00a0 \u00a0 \u00a0 \u00a0 \u00a0 \u00a0 \u00a0But never knew I this;</span><br /><span class=\"long-line\">\u00a0 \u00a0 \u00a0 \u00a0 \u00a0 \u00a0 \u00a0 \u00a0 \u00a0 \u00a0Here such a passion is</span><br /><span class=\"long-line\">As stretcheth me apart,\u2014Lord, I do fear</span><br /><span class=\"long-line\">Thou'st made the world too beautiful this year;</span><br /><span class=\"long-line\">My soul is all but out of me,\u2014let fall</span><br /><span class=\"long-line\">No burning leaf; prithee, let no bird call.</span></p>\n"}, {"title": "Evadne", "view_node": "/poem/evadne", "field_author": "<a href=\"/poet/h-d\" hreflang=\"und\">H. D.</a>", "field_date_published": "1921", "body": "<p><span class=\"long-line\">I first tasted under Apollo's lips,</span><br /><span class=\"long-line\">love and love sweetness,</span><br /><span class=\"long-line\">I, Evadne;</span><br /><span class=\"long-line\">my hair is made of crisp violets</span><br /><span class=\"long-line\">or hyacinth which the wind combs back</span><br /><span class=\"long-line\">across some rock shelf;</span><br /><span class=\"long-line\">I, Evadne,</span><br /><span class=\"long-line\">was mate of the god of light. </span></p>\n\n<p><span class=\"long-line\">His hair was crisp to my mouth,</span><br /><span class=\"long-line\">as the flower of the crocus,</span><br /><span class=\"long-line\">across my cheek,</span><br /><span class=\"long-line\">cool as the silver-cress</span><br /><span class=\"long-line\">on Erotos bank;</span><br /><span class=\"long-line\">between my chin and throat,</span><br /><span class=\"long-line\">his mouth slipped over and over. </span></p>\n\n<p><span class=\"long-line\">Still between my arm and shoulder,</span><br /><span class=\"long-line\">I feel the brush of his hair,</span><br /><span class=\"long-line\">and my hands keep the gold they took,</span><br /><span class=\"long-line\">as they wandered over and over,</span><br /><span class=\"long-line\">that great arm-full of yellow flowers.</span></p>\n"}, {"title": "Circe", "view_node": "/poem/circe", "field_author": "<a href=\"/poet/h-d\" hreflang=\"und\">H. D.</a>", "field_date_published": "2018", "body": " <p>It was easy enough<br />to bend them to my wish,<br />it was easy enough<br />to alter them with a touch,<br />but you<br />adrift on the great sea,<br />how shall I call you back?</p><p>Cedar and white ash,<br />rock-cedar and sand plants<br />and tamarisk<br />red cedar and white cedar<br />and black cedar from the inmost forest,<br />fragrance upon fragrance<br />and all of my sea-magic is for nought.</p><p>It was easy enough\u2014<br />a thought called them<br />from the sharp edges of the earth;<br />they prayed for a touch,<br />they cried for the sight of my face,<br />they entreated me<br />till in pity<br />I turned each to his own self.</p><p>Panther and panther,<br />then a black leopard<br />follows close\u2014<br />black panther and red<br />and a great hound,<br />a god-like beast,<br />cut the sand in a clear ring<br />and shut me from the earth,<br />and cover the sea-sound<br />with their throats,<br />and the sea-roar with their own barks<br />and bellowing and snarls,<br />and the sea-stars<br />and the swirl of the sand,<br />and the rock-tamarisk<br />and the wind resonance\u2014<br />but not your voice.</p><p>It is easy enough to call men<br />from the edges of the earth.<br />It is easy enough to summon them to my feet<br />with a thought\u2014<br />it is beautiful to see the tall panther<br />and the sleek deer-hounds<br />circle in the dark.</p><p>It is easy enough<br />to make cedar and white ash fumes<br />into palaces<br />and to cover the sea-caves<br />with ivory and onyx.</p><p>But I would give up<br />rock-fringes of coral<br />and the inmost chamber<br />of my island palace<br />and my own gifts<br />and the whole region<br />of my power and magic<br />for your glance.</p> "}, {"title": "The End ", "view_node": "/poem/end-0", "field_author": "<a href=\"/poet/amy-lowell\" hreflang=\"und\">Amy Lowell</a>", "field_date_published": "2017", "body": " <p>Throughout the echoing chambers of my brain<br />\u00a0 I hear your words in mournful cadence toll<br />\u00a0 Like some slow passing-bell which warns the soul<br />Of sundering darkness. Unrelenting, fain<br />To batter down resistance, fall again<br />\u00a0 Stroke after stroke, insistent diastole,<br />\u00a0 The bitter blows of truth, until the whole<br />Is hammered into fact made strangely plain.<br />\u00a0 Where shall I look for comfort? Not to you.<br />\u00a0\u00a0\u00a0 Our worlds are drawn apart, our spirit\u2019s suns<br />Divided, and the light of mine burnt dim.<br />\u00a0 Now in the haunted twilight I must do<br />\u00a0\u00a0\u00a0 Your will. I grasp the cup which over-runs,<br />And with my trembling lips I touch the rim.</p> "}, {"title": "Dreams", "view_node": "/poem/dreams-2", "field_author": "<a href=\"/poet/amy-lowell\" hreflang=\"und\">Amy Lowell</a>", "field_date_published": "2017", "body": " <p>I do not care to talk to you although<br />\u00a0 Your speech evokes a thousand sympathies,<br />\u00a0 And all my being\u2019s silent harmonies<br />Wake trembling into music. When you go<br />It is as if some sudden, dreadful blow<br />\u00a0 Had severed all the strings with savage ease.<br />\u00a0 No, do not talk; but let us rather seize<br />This intimate gift of silence which we know.<br />\u00a0 Others may guess your thoughts from what you say,<br />As storms are guessed from clouds where darkness broods.<br />\u00a0 To me the very essence of the day<br />Reveals its inner purpose and its moods;<br />\u00a0 As poplars feel the rain and then straightway<br />Reverse their leaves and shimmer through the woods.\u00a0</p> "}, {"title": "Listening ", "view_node": "/poem/listening-0", "field_author": "<a href=\"/poet/amy-lowell\" hreflang=\"und\">Amy Lowell</a>", "field_date_published": "2017", "body": " <p>\u00a0\u2019T is you that are the music, not your song.<br />\u00a0 The song is but a door which, opening wide,<br />\u00a0 Lets forth the pent-up melody inside,<br />Your spirit\u2019s harmony, which clear and strong<br />Sing but of you. Throughout your whole life long<br />\u00a0 Your songs, your thoughts, your doings, each divide<br />\u00a0 This perfect beauty; waves within a tide,<br />Or single notes amid a glorious throng.<br />\u00a0 The song of earth has many different chords;<br />Ocean has many moods and many tones<br />\u00a0 Yet always ocean. In the damp Spring woods<br />The painted trillium smiles, while crisp pine cones<br />\u00a0 Autumn alone can ripen. So is this<br />\u00a0 One music with a thousand cadences.\u00a0</p> "}, {"title": "Hora Stellatrix ", "view_node": "/poem/hora-stellatrix", "field_author": "<a href=\"/poet/amy-lowell\" hreflang=\"und\">Amy Lowell</a>", "field_date_published": "2017", "body": " <p>The stars hang thick in the apple tree,<br />The south wind smells of the pungent sea,<br />Gold tulip cups are heavy with dew.<br />The night\u2019s for you, Sweetheart, for you!<br />Starfire rains from the vaulted blue.</p><p>Listen! The dancing of unseen leaves.<br />A drowsy swallow stirs in the eaves.<br />Only a maiden is sorrowing.<br />\u2019T is night and spring, Sweetheart, and spring!<br />Starfire lights your heart\u2019s blossoming.</p><p>In the intimate dark there\u2019s never an ear,<br />Though the tulips stand on tiptoe to hear,<br />So give; ripe fruit must shrivel or fall.<br />As you are mine, Sweetheart, give all!<br />Starfire sparkles, your coronal.</p> "}, {"title": "Before the Altar", "view_node": "/poem/altar", "field_author": "", "field_date_published": "", "body": ""}], "pager": {"current_page": 299, "total_items": "13248", "total_pages": 663, "items_per_page": 20}}