{"rows": [{"title": "Aleph, Bet", "view_node": "/poem/aleph-bet", "field_author": "<a href=\"/poet/dora-malech\" hreflang=\"und\">Dora Malech</a>", "field_date_published": "2017", "body": " <p>In my favorite version, the man recites the alphabet<br />over and over, and when asked, he says he is praying.<br />He admits he lacks the words, but says perhaps if he provides<br />enough letters, God can piece his purpose back together.</p><p>The word is <em>kavanah</em>, translates to <em>concentration</em> or <em>intent</em>,<br />without which, the words lie inert. And with? Call it <em>all rise</em>.<br />The urge made agent, leavens the lips, tongue, throat, and eyes.<br />In other words, heart\u2019s <em>yes</em>, yeast, or likens to, likewise lives,</p><p>needs no light to grow. What say the brewer and baker?<br />What of the grapes in the sun with the <em>yes</em> on their skin,<br />the <em>blush </em>or <em>bloom</em>? And what of this <em>yes</em>\u2019s twin, the, as they say,<br /><em>opportunistic</em> pathogen? I don\u2019t believe I know. I\u2019d like to ask</p><p><span class=\"long-line\">someone who knows, summon my strongest letters together and say:</span><br /><span class=\"long-line\">How long do you think you knew before you knew you knew? Or rather,</span><br />how long do you think you think you knew before you dressed<br />your <em>I guess</em> in the <em>yes</em> you said <em>I do </em>to, to know you know now?</p> "}, {"title": "A Christmas Carol", "view_node": "/poem/christmas-carol-1", "field_author": "<a href=\"/poet/samuel-taylor-coleridge\" hreflang=\"und\">Samuel Taylor Coleridge</a>", "field_date_published": "2017", "body": " <p>I.<br /><br />\u00a0\u00a0 The Shepherds went their hasty way,<br />\u00a0\u00a0\u00a0\u00a0\u00a0\u00a0\u00a0 And found the lowly stable-shed<br />\u00a0\u00a0 Where the Virgin-Mother lay:<br />\u00a0\u00a0\u00a0\u00a0\u00a0\u00a0\u00a0 And now they checked their eager tread,<br />For to the Babe, that at her bosom clung,<br />A Mother\u2019s song the Virgin-Mother sung.<br /><br />II.<br /><br />\u00a0\u00a0 They told her how a glorious light,<br />\u00a0\u00a0\u00a0\u00a0\u00a0\u00a0\u00a0\u00a0 Streaming from a heavenly throng,<br />\u00a0\u00a0 Around them shone, suspending night!<br />\u00a0\u00a0\u00a0\u00a0\u00a0\u00a0\u00a0\u00a0 While sweeter than a Mother\u2019s song,<br />Blest Angels heralded the Saviour\u2019s birth,<br />Glory to God on high! and Peace on Earth.<br /><br />III.<br /><br />\u00a0\u00a0 She listened to the tale divine,<br />\u00a0\u00a0\u00a0\u00a0\u00a0\u00a0\u00a0\u00a0 And closer still the Babe she pressed;<br />\u00a0\u00a0 And while she cried, the Babe is mine!<br />\u00a0\u00a0\u00a0\u00a0\u00a0\u00a0\u00a0\u00a0 The milk rushed faster to her breast:<br />Joy rose within her, like a summer\u2019s morn;<br />Peace, Peace on Earth! the Prince of Peace is born.<br /><br />IV.<br /><br />\u00a0\u00a0 Thou Mother of the Prince of Peace,<br />\u00a0\u00a0\u00a0\u00a0\u00a0\u00a0\u00a0\u00a0 Poor, simple, and of low estate!<br />\u00a0\u00a0 That Strife should vanish, Battle cease,<br />\u00a0\u00a0\u00a0\u00a0\u00a0\u00a0\u00a0\u00a0 O why should this thy soul elate?<br />Sweet Music\u2019s loudest note, the Poet\u2019s story,\u2014<br />Did\u2019st thou ne\u2019er love to hear of Fame and Glory?<br /><br />V.<br /><br />\u00a0\u00a0 And is not War a youthful King,<br />\u00a0\u00a0\u00a0\u00a0\u00a0\u00a0\u00a0\u00a0 A stately Hero clad in Mail?<br />\u00a0\u00a0 Beneath his footsteps laurels spring;<br />\u00a0\u00a0\u00a0\u00a0\u00a0\u00a0\u00a0\u00a0 Him Earth\u2019s majestic monarchs hail<br />Their Friend, their Playmate! and his bold bright eye<br />Compels the maiden\u2019s love-confessing sigh.<br /><br />VI.<br /><br />\u00a0\u00a0 \u201cTell this in some more courtly scene,<br />\u00a0\u00a0\u00a0\u00a0\u00a0\u00a0\u00a0\u00a0 \u201cTo maids and youths in robes of state!<br />\u00a0\u00a0 \u201cI am a woman poor and mean,<br />\u00a0\u00a0\u00a0\u00a0\u00a0\u00a0\u00a0\u00a0 \u201cAnd therefore is my Soul elate.<br />\u201cWar is a ruffian, all with guilt defiled,<br />\u201cThat from the aged Father tears his Child!<br /><br />VII.<br /><br />\u00a0\u00a0 \u201cA murderous fiend, by fiends adored,<br />\u00a0\u00a0\u00a0\u00a0\u00a0\u00a0\u00a0\u00a0 \u201cHe kills the Sire and starves the Son;<br />\u00a0\u00a0 \u201cThe Husband kills, and from her board<br />\u00a0\u00a0\u00a0\u00a0\u00a0\u00a0\u00a0\u00a0 \u201cSteals all his Widow\u2019s toil had won;<br />\u201cPlunders God\u2019s world of beauty; rends away<br />\u201cAll safety from the Night, all comfort from the Day.<br /><br />VIII.<br /><br />\u00a0\u00a0 \u201cThen wisely is my soul elate,<br />\u00a0\u00a0\u00a0\u00a0\u00a0\u00a0\u00a0\u00a0 \u201cThat Strife should vanish, Battle cease:<br />\u00a0\u00a0 \u201cI\u2019m poor and of a low estate,<br />\u00a0\u00a0\u00a0\u00a0\u00a0\u00a0\u00a0\u00a0 \u201cThe Mother of the Prince of Peace.<br />\u201cJoy rises in me, like a summer\u2019s morn:<br />\u201cPeace, Peace on Earth, the Prince of Peace is born.\u201d\u00a0\u00a0\u00a0</p> "}, {"title": "A Nativity", "view_node": "/poem/nativity", "field_author": "<a href=\"/poet/rudyard-kipling\" hreflang=\"und\">Rudyard Kipling</a>", "field_date_published": "2017", "body": " <p>1914\u201318</p><p><em>The Babe was laid in the Manger<br />\u00a0\u00a0\u00a0\u00a0 Between the gentle kine\u2014<br />All safe from cold and danger\u2014</em><br />\u00a0\u00a0\u00a0\u00a0 \u201cBut it was not so with mine,<br />\u00a0\u00a0\u00a0\u00a0\u00a0\u00a0\u00a0\u00a0\u00a0\u00a0\u00a0\u00a0\u00a0\u00a0\u00a0\u00a0\u00a0\u00a0\u00a0\u00a0\u00a0\u00a0\u00a0 (With mine! With mine!)<br />\u201cIs it well with the child, is it well?\u201d<br />\u00a0\u00a0\u00a0\u00a0 The waiting mother prayed.<br />\u201cFor I know not how he fell,<br />\u00a0\u00a0\u00a0\u00a0 And I know not where he is laid.\u201d<br /><br /><em>A Star stood forth in Heaven;<br />\u00a0\u00a0\u00a0\u00a0 The Watchers ran to see<br />The Sign of the Promise given\u2014</em><br />\u00a0\u00a0\u00a0\u00a0 \u201cBut there comes no sign to me.<br />\u00a0\u00a0\u00a0\u00a0\u00a0\u00a0\u00a0\u00a0\u00a0\u00a0\u00a0\u00a0\u00a0\u00a0\u00a0\u00a0\u00a0\u00a0\u00a0\u00a0\u00a0\u00a0\u00a0 (To me! To me!)<br />\u201c<em>My </em>child died in the dark.<br />\u00a0\u00a0\u00a0\u00a0 Is it well with the child, is it well?<br />There was none to tend him or mark,<br />\u00a0\u00a0\u00a0\u00a0\u00a0 And I know not how he fell.\u201d<br /><br /><em>The Cross was raised on high;<br />\u00a0\u00a0\u00a0\u00a0 The Mother grieved beside\u2014</em><br />\u201cBut the Mother saw Him die<br />\u00a0\u00a0\u00a0\u00a0 And took Him when He died.<br />\u00a0\u00a0\u00a0\u00a0\u00a0\u00a0\u00a0\u00a0\u00a0\u00a0\u00a0\u00a0\u00a0\u00a0\u00a0\u00a0\u00a0\u00a0\u00a0\u00a0\u00a0\u00a0\u00a0 (He died! He died!)<br />\u201cSeemly and undefiled<br />\u00a0\u00a0\u00a0\u00a0 His burial-place was made\u2014<br />Is it well, is it well with the child?<br />\u00a0\u00a0\u00a0\u00a0 For I know not where he is laid.\u201d<br /><br /><em>On the dawning of Easter Day<br />\u00a0\u00a0\u00a0\u00a0 Comes Mary Magdalene;<br />But the Stone was rolled away,<br />\u00a0\u00a0\u00a0\u00a0 And the Body was not within\u2014<br />\u00a0\u00a0\u00a0\u00a0\u00a0\u00a0\u00a0\u00a0\u00a0\u00a0\u00a0\u00a0\u00a0\u00a0\u00a0\u00a0\u00a0\u00a0\u00a0\u00a0\u00a0\u00a0\u00a0 </em>(Within! Within!)<br />\u201cAh, who will answer my word?\u201d<br />\u00a0\u00a0\u00a0\u00a0 The broken mother prayed.<br />\u201cThey have taken away my Lord,<br />\u00a0\u00a0\u00a0\u00a0 And I know not where He is Laid.\u201d<br /><br />\u201c<em>The Star stands forth in Heaven.<br />\u00a0\u00a0\u00a0\u00a0 The watchers watch in vain<br />For Sign of the Promise given<br />\u00a0\u00a0\u00a0\u00a0 Of peace on Earth again\u2014</em><br />\u00a0\u00a0\u00a0\u00a0\u00a0\u00a0\u00a0\u00a0\u00a0\u00a0\u00a0\u00a0\u00a0\u00a0\u00a0\u00a0\u00a0\u00a0\u00a0\u00a0\u00a0\u00a0\u00a0 (Again! Again!)<br />\u201cBut I know for Whom he fell\u201d\u2014<br />\u00a0\u00a0\u00a0\u00a0 The steadfast mother smiled,<br />\u201cIs it well with the child\u2014is it well?<br />\u00a0\u00a0\u00a0\u00a0 It is well\u2014it is well with the child!\u201d</p> "}, {"title": "Untitled [Each crisp autumn]", "view_node": "/poem/untitled-each-crisp-autumn", "field_author": "<a href=\"/poet/rose-styron\" hreflang=\"en\">Rose Styron</a>", "field_date_published": "2017", "body": " <p>Each crisp autumn<br />there are fewer leaves, more clarity\u2014<br />light cycles of the haymound<br />odors of late roses<br />rivers rushing where we<br />once meandered<br />content in the casual chaos of each<br />season, plotting no espionage<br />because we did not know<br />the world as terror then.</p> "}, {"title": "Goodnight, Great Summer Sky", "view_node": "/poem/goodnight-great-summer-sky", "field_author": "<a href=\"/poet/rose-styron\" hreflang=\"en\">Rose Styron</a>", "field_date_published": "2017", "body": " <p>Goodnight, great summer sky<br />world of my childhood and the star-struck sea.<br /><br />White chaise from that ancestral southern<br />porch my raft,<br />white goose-down quilt my ballast,<br />under Orion on the green-waved lawn<br />I float, high\u2014<br />new moon, old craft<br />tide strong as ever to the sheer horizon.<br /><br />Over the seawall, on the dock<br />Andromeda their strict and jeweled guard<br />as tall Orion\u2014seas and lawns ago\u2014<br />chose to be mine,<br />our children sleep: Alexandra, Tom<br />under their folded goose-wing sails<br />true friends in dream,<br />the folly wrangle of their sibling day<br />outshone by starlight.<br /><br />Calm island evening, never-ending sea\u2014<br />our lovers\u2019 rages, too, are quiet,<br />drowned.<br /><br />Miracle of midsummer, the trust of dark<br />sails us beyond this harbor.</p> "}, {"title": "Untitled [No one&#039;s awake]", "view_node": "/poem/untitled-no-ones-awake", "field_author": "<a href=\"/poet/rose-styron\" hreflang=\"en\">Rose Styron</a>", "field_date_published": "2017", "body": " <p>No one\u2019s awake<br />but us, and a bird.<br />The day\u2019s too beautiful<br />to speak a word.</p> "}, {"title": "Christmas Tide", "view_node": "/poem/christmas-tide", "field_author": "<a href=\"/poet/eliza-cook\" hreflang=\"en\">Eliza Cook</a>", "field_date_published": "2017", "body": " <pre>                    \n          When the merry spring time weaves\n          Its peeping bloom and dewy leaves;\n          When the primrose opes its eye,\n          And the young moth flutters by;\n          When the plaintive turtle dove\n          Pours its notes of peace and love;\nAnd the clear sun flings its glory bright and wide\u2014\n          Yet, my soul will own\n          More joy in winter's frown,\nAnd wake with warmer flush at Christmas tide.\n\n          The summer beams may shine\n          On the rich and curling vine,\n          And the noon-tide rays light up\n          The tulip's dazzling cup:\n          But the pearly misletoe\n          And the holly-berries' glow\nAre not even by the boasted rose outvied;\n          For the happy hearts beneath\n          The green and coral wreath\nLove the garlands that are twined at Christmas tide.\n\n          Let the autumn days produce\n          Yellow corn and purple juice,\n          And Nature's feast be spread\n          In the fruitage ripe and red;\n          \u2019Tis grateful to behold\n          Gushing grapes and fields of gold,\nWhen cheeks are brown'd and red lips deeper dyed:\n          But give, oh! give to me\n          The winter night of glee,\nThe mirth and plenty seen at Christmas tide.\n\n          The northern gust may howl,\n          The rolling storm-cloud scowl,\n          King Frost may make a slave\n          Of the river's rapid wave,\n          The snow-drift choke the path,\n          Or the hail-shower spend its wrath;\nBut the sternest blast right bravely is defied,\n          While limbs and spirits bound\n          To the merry minstrel sound,\nAnd social wood-fires blaze at Christmas tide.\n\n          The song, the laugh, the shout,\n          Shall mock the storm without;\n          And sparkling wine-foam rise\n          \u2019Neath still more sparkling eyes;\n          The forms that rarely meet\n          Then hand to hand shall greet,\nAnd soul pledge soul that leagues too long divide.\n          Mirth, friendship, love, and light\n          Shall crown the winter night,\nAnd every glad voice welcome Christmas tide.\n\n          But while joy's echo falls \n          In gay and plenteous halls,\n          Let the poor and lowly share\n          The warmth, the sports, the fare;\n          For the one of humble lot\n          Must not shiver in his cot,\nBut claim a bounteous meed from wealth and pride.\n          Shed kindly blessings round,\n          Till no aching heart be found;\nAnd then all hail to merry Christmas tide!\n\n\n</pre>\n "}, {"title": "Shirt", "view_node": "/poem/shirt-0", "field_author": "<a href=\"/poet/carl-sandburg\" hreflang=\"und\">Carl Sandburg</a>", "field_date_published": "1916", "body": " <div>I remember once I ran after you and tagged the fluttering</div><div>\u00a0 \u00a0 \u00a0 shirt of you in the wind.</div><div>Once many days ago I drank a glassful of something and</div><div>\u00a0 \u00a0 \u00a0 the picture of you shivered and slid on top of the stuff.</div><div>And again it was nobody else but you I heard in the</div><div>\u00a0 \u00a0 \u00a0 singing voice of a careless humming woman.</div><div>One night when I sat with chums telling stories at a</div><div>\u00a0 \u00a0 \u00a0 bonfire flickering red embers, in a language its own</div><div>\u00a0 \u00a0 \u00a0 talking to a spread of white stars:</div><div>\u00a0 \u00a0 \u00a0 \u00a0 \u00a0 \u00a0 \u00a0 \u00a0 \u00a0 \u00a0 \u00a0 \u00a0 \u00a0 It was you that slunk laughing</div><div>\u00a0 \u00a0 \u00a0 \u00a0 \u00a0 \u00a0 \u00a0 \u00a0 \u00a0 \u00a0 \u00a0 \u00a0 \u00a0 in the clumsy staggering shadows.</div><div>Broken answers of remembrance let me know you are</div><div>\u00a0 \u00a0 \u00a0 alive with a peering phantom face behind a doorway</div><div>\u00a0 \u00a0 \u00a0 somewhere in the city\u2019s push and fury.</div><div>Or under a pack of moss and leaves waiting in silence</div><div>\u00a0 \u00a0 \u00a0 under a twist of oaken arms ready as ever to run</div><div>\u00a0 \u00a0 \u00a0 away again when I tag the fluttering shirt of you.</div> "}, {"title": "Passover", "view_node": "/poem/passover-0", "field_author": "<a href=\"/poet/jessie-e-sampter\" hreflang=\"en\">Jessie E. Sampter</a>", "field_date_published": "2017", "body": " <p>It\u2019s a far, far road from Egypt<br />\u00a0\u00a0\u00a0\u00a0 To our own, our happy land,<br />From the pyramids of Egypt<br />\u00a0\u00a0\u00a0\u00a0 Built beneath the tyrant\u2019s hand;<br />Its road so strange and marvelous<br />\u00a0\u00a0\u00a0\u00a0 That few can understand.<br /><br />See, the Lord had passed us over<br />\u00a0\u00a0\u00a0\u00a0 For his sign upon our gate!<br />He has spared the crushed and driven,<br />\u00a0\u00a0\u00a0\u00a0 He has judged the proud and great.<br />When the hosts of Israel rise to go<br />\u00a0\u00a0\u00a0\u00a0 He makes the crooked straight.<br /><br />It\u2019s a far, far road to Zion<br />\u00a0\u00a0\u00a0\u00a0 For the slave afraid to flee;<br />He must pass through flood and desert,<br />\u00a0\u00a0\u00a0\u00a0 Yet his land he shall not see.<br />But the man that knows the sign of God<br />\u00a0\u00a0\u00a0\u00a0 On Pesach eve is free.</p> "}, {"title": "The Light of Exile", "view_node": "/poem/light-exile", "field_author": "<a href=\"/poet/jessie-e-sampter\" hreflang=\"en\">Jessie E. Sampter</a>", "field_date_published": "2017", "body": " <p>Tell me, what is Exile\u2019s light?<br />Is it candles burning bright,<br />Little candles in the night?<br /><br />Exile\u2019s light is this old man.<br />Ere the morning he began<br />Israel\u2019s holy page to scan.<br /><br />And he teaches from this page<br />Israel\u2019s law in every age:<br />Exile\u2019s light is Israel\u2019s sage.</p> "}, {"title": "Shalom", "view_node": "/poem/shalom", "field_author": "<a href=\"/poet/jessie-e-sampter\" hreflang=\"en\">Jessie E. Sampter</a>", "field_date_published": "2017", "body": " <p>I saw a picture of a street,<br />\u00a0\u00a0\u00a0\u00a0 A Jewish street in Palestine,<br />Where Jewish families like to meet<br />\u00a0\u00a0\u00a0\u00a0 On Yom-tov, when the day is fine.<br /><br />The little houses were their own,<br />\u00a0\u00a0\u00a0\u00a0 The sun, I knew, was shining clear<br />Because I saw their shadows thrown,<br />\u00a0\u00a0\u00a0\u00a0 And what they said I tried to hear.<br /><br />My heart with longing almost broke<br />\u00a0\u00a0\u00a0\u00a0 Because I heard them: they were home,<br />And Hebrew was the tongue they spoke,<br />\u00a0\u00a0\u00a0\u00a0 And one I heard. He said, \u201cShalom!\u201d</p> "}, {"title": "Blessings for Chanukah", "view_node": "/poem/blessings-chanukah", "field_author": "<a href=\"/poet/jessie-e-sampter\" hreflang=\"en\">Jessie E. Sampter</a>", "field_date_published": "2017", "body": " <p>Blessed art thou, O God our Lord,<br />Who made us holy with his word,<br />And told us on this feast of light<br />To light one candle more each night.<br /><br />(Because when foes about us pressed<br />\u00a0\u00a0\u00a0\u00a0 To crush us all with death or shame,<br />The Lord his priests with courage blest<br />To strike and give his people rest<br />And in the House that he loved best<br />\u00a0\u00a0\u00a0\u00a0 Relight our everlasting flame.)<br /><br />Blest art Thou, the whole world\u2019s King,<br />Who did so wonderful a thing<br />For our own fathers true and bold<br />At this same time in days of old!</p> "}, {"title": "The Book", "view_node": "/poem/book", "field_author": "<a href=\"/poet/jessie-e-sampter\" hreflang=\"en\">Jessie E. Sampter</a>", "field_date_published": "2017", "body": " <p>We are the People of the Book,<br />\u00a0\u00a0\u00a0\u00a0 The written page is our salvation;<br />This only from the wreck we took<br />\u00a0\u00a0\u00a0\u00a0 When conquerors crushed our nation.<br /><br />The Holy Book has been our land,<br />\u00a0\u00a0\u00a0\u00a0 Our seed, our sowing and our reaping.<br />How can the stranger understand<br />\u00a0\u00a0\u00a0\u00a0 What treasure we are keeping!<br /><br />In shame and poverty we read<br />\u00a0\u00a0\u00a0\u00a0 The precious page of revelation,<br />And water with our tears the seed<br />\u00a0\u00a0\u00a0\u00a0 That recreates our nation.</p> "}, {"title": "The Jewish Year", "view_node": "/poem/jewish-year", "field_author": "<a href=\"/poet/jessie-e-sampter\" hreflang=\"en\">Jessie E. Sampter</a>", "field_date_published": "2017", "body": " <p>Our year begins with burnished leaves,<br />\u00a0\u00a0\u00a0\u00a0 That flame in frost and rime,<br />With purple grapes and golden sheaves<br />\u00a0\u00a0\u00a0\u00a0 In harvest time.<br /><br />Our year begins with biting cold,<br />\u00a0\u00a0\u00a0\u00a0 With winds and storms and rain;<br />The new year of the Jew grows old<br />\u00a0\u00a0\u00a0\u00a0 In strife and pain.<br /><br />When others say the year has died,<br />\u00a0\u00a0\u00a0\u00a0 We say the year is new,<br />And we arise with power and pride<br />\u00a0\u00a0\u00a0\u00a0 To prove it true.<br /><br />For we begin where others end,<br />\u00a0\u00a0\u00a0\u00a0 And fight where others yield;<br />And all the year we work and tend<br />\u00a0\u00a0\u00a0\u00a0 Our harvest field.<br /><br />And after days of stormy rain<br />\u00a0\u00a0\u00a0\u00a0 And days of drought and heat,<br />When those that toiled have reaped their grain,<br />\u00a0\u00a0\u00a0\u00a0 And all\u2019s complete.<br /><br />Oh then, when God has kept his word,<br />\u00a0\u00a0\u00a0\u00a0 In peace we end our year.<br />Our fruit is certain from the Lord.<br />\u00a0\u00a0\u00a0\u00a0 We shall not fear.</p> "}, {"title": "Judah Maccabee", "view_node": "/poem/judah-maccabee", "field_author": "<a href=\"/poet/jessie-e-sampter\" hreflang=\"en\">Jessie E. Sampter</a>", "field_date_published": "2017", "body": " <p>Judah Maccabee,<br />Give a sword to me<br />\u00a0\u00a0\u00a0\u00a0 Now, in youth!<br />By the candle\u2019s light<br />Kindled here to-night,<br />Do I vow to fight<br />\u00a0\u00a0\u00a0\u00a0 For the truth.<br /><br />Still the Greeks are here,<br />Still we yield in fear,<br />Cringe and cower.<br />Judah Maccabee,<br />Make my people free<br />That their eyes may see<br />\u00a0\u00a0\u00a0\u00a0\u00a0 Israel\u2019s power!</p> "}, {"title": "The Banner of the Jew", "view_node": "/poem/banner-jew", "field_author": "<a href=\"/poet/emma-lazarus\" hreflang=\"und\">Emma Lazarus</a>", "field_date_published": "2017", "body": " <p>Wake, Israel, wake! Recall to-day<br />\u00a0\u00a0\u00a0\u00a0 The glorious Maccabean rage,<br />The sire heroic, hoary-gray,<br />\u00a0\u00a0\u00a0\u00a0 His five-fold lion-lineage:<br />The Wise, the Elect, the Help-of-God,<br />\u00a0\u00a0\u00a0\u00a0 The Burst-of-Spring, the Avenging Rod.<br /><br />From Mizpeh\u2019s mountain-ridge they saw<br />\u00a0\u00a0\u00a0\u00a0 Jerusalem\u2019s empty streets, her shrine<br />Laid waste where Greeks profaned the Law<br />\u00a0\u00a0\u00a0\u00a0 With idol and with pagan sign.<br />Mourners in tattered black were there,<br />\u00a0\u00a0\u00a0\u00a0 With ashes sprinkled on their hair.<br /><br />Then from the stony peak there rang<br />\u00a0\u00a0\u00a0\u00a0 A blast to ope the graves; down poured<br />The Maccabean clan, who sang<br />\u00a0\u00a0\u00a0\u00a0 Their battle-anthem to the Lord.<br />Five heroes lead, and following, see,<br />\u00a0\u00a0\u00a0\u00a0 Ten thousand rush to victory!<br /><br />Oh for Jerusalem\u2019s trumpet now,<br />\u00a0\u00a0\u00a0\u00a0 To blow a blast of shattering power,<br />To wake the sleepers high and low,<br />\u00a0\u00a0\u00a0\u00a0 And rouse them to the urgent hour!<br />No hand for vengeance\u2014but to save,<br />\u00a0\u00a0\u00a0\u00a0 A million naked swords should wave.<br /><br />Oh deem not dead that martial fire,<br />\u00a0\u00a0\u00a0\u00a0 Say not the mystic flame is spent!<br />With Moses\u2019 law and David\u2019s lyre,<br />\u00a0\u00a0\u00a0\u00a0 Your ancient strength remains unbent.<br />Let but an Ezra rise anew<br />\u00a0\u00a0\u00a0\u00a0 To lift the <em>Banner of the Jew!</em><br /><br />A rag, a mock at first\u2014erelong,<br />\u00a0\u00a0\u00a0\u00a0 When men have bled and women wept<br />To guard its precious folds from wrong,<br />\u00a0\u00a0\u00a0\u00a0 Even they who shrunk, even they who slept,<br />Shall leap to bless it, and to save.<br />\u00a0\u00a0\u00a0\u00a0 Strike! for the brave revere the brave!</p> "}, {"title": "Chanukah", "view_node": "/poem/chanukah", "field_author": "<a href=\"/poet/marion-hartog\" hreflang=\"en\">Marion Hartog</a>", "field_date_published": "2017", "body": " <p>Down-trodden \u2019neath the Syrian heel<br />\u00a0\u00a0\u00a0\u00a0 Did Zion\u2019s sceptre lie;<br />Her shrine, where once God\u2019s glory flung<br />Its radiance, now wildly rung<br />\u00a0\u00a0\u00a0\u00a0 With pagan revelry.<br /><br />And in the Temple\u2019s secret place,<br />\u00a0\u00a0\u00a0\u00a0 Where once the High Priest bowed<br />In homage to the King of kings,<br />The vilest of all earthly things<br />\u00a0\u00a0\u00a0\u00a0 Was worshipped by the crowd.<br /><br />And still the flaming altar smoked,<br />\u00a0\u00a0\u00a0\u00a0 The priest was at his post,<br />Commanding Israel\u2019s sons to pray<br />To images of stone and clay,<br />\u00a0\u00a0\u00a0\u00a0 Or swell the holocaust.<br /><br />Seven glorious brethren there had stood,<br />\u00a0\u00a0\u00a0\u00a0 Unflinching, side by side,<br />And, sooner than yield up their faith,<br />Had dared the faggot\u2019s burning breath,<br />\u00a0\u00a0\u00a0\u00a0 And willing martyrs died.<br /><br />Not unavenged and not in vain<br />\u00a0\u00a0\u00a0\u00a0 Fell that undaunted race;<br />For Judas, with his patriot band,<br />Drove the oppressors from the land,<br />\u00a0\u00a0\u00a0\u00a0 And cleansed the holy place.<br /><br />Then the Menorah once again<br />\u00a0\u00a0\u00a0\u00a0 Illumed the holy shrine,<br />One little flask of sacred oil,<br />Saved unpolluted from the spoil<br />\u00a0\u00a0\u00a0\u00a0 Supplied the light divine.<br /><br />Full twenty centuries have rolled<br />\u00a0\u00a0\u00a0\u00a0 The gulf of Time adown,<br />Since those heroic Maccabees,<br />The victims of Epiphanes,<br />\u00a0\u00a0\u00a0\u00a0 Assumed the martyr\u2019s crown.<br /><br />And still the Festival of Lights<br />\u00a0\u00a0\u00a0\u00a0 Recalls those deeds of yore<br />That make our history\u2019s page sublime<br />\u00a0\u00a0\u00a0\u00a0 And live for evermore.</p> "}, {"title": "Legendary Lights", "view_node": "/poem/legendary-lights", "field_author": "<a href=\"/poet/alter-abelson\" hreflang=\"en\">Alter Abelson</a>", "field_date_published": "2017", "body": " <p>O, the legendary light,<br />Gleaming goldenly in night<br />\u00a0\u00a0\u00a0\u00a0 Like the stars above,<br />Beautiful, like lights in dream,<br />Eight, the taper-flames that stream<br />\u00a0\u00a0\u00a0\u00a0 All one glory and one love.<br /><br />In our Temple, magical\u2014<br />Memories, now tragical\u2014<br />Holy hero-hearts aflame<br />With a glory more than fame;<br />There where a shrine is every sod,<br />\u00a0\u00a0\u00a0\u00a0 Every grave, God\u2019s golden ore,<br />With a paean whose rhyme to God,<br />\u00a0\u00a0\u00a0\u00a0 Lit these lamps of yore.<br /><br />Lights, you are a living dream,<br />Faith and bravery you beam,<br />\u00a0\u00a0\u00a0\u00a0 Youth and dawn and May.<br />Would your beam were more than dream,<br />Would the light and love you stream,<br />\u00a0\u00a0\u00a0\u00a0 Stirred us, spurred us, aye!<br /><br />Fabled memories of flame,<br />Till the beast in man we tame,<br />Tyrants bow to truth, amain,<br />Brands and bullets yield to brain,<br />Guns to God, and shells to soul,<br />Hounds to heart resign the role,<br />Pillared lights of liberty,<br />In your fairy flames, we\u2019ll see<br />Faith\u2019s and freedom\u2019s Phoenix-might,<br />The Omnipotence of Right.</p> "}, {"title": "The First Snow", "view_node": "/poem/first-snow-0", "field_author": "<a href=\"/poet/philip-m-raskin\" hreflang=\"en\">Philip M. Raskin</a>", "field_date_published": "2017", "body": " <p>Fairy-like on earth advancing,<br />All transforming, all entrancing,<br />Playing on their way and dancing,<br />\u00a0\u00a0\u00a0\u00a0\u00a0\u00a0\u00a0 Soil-untarnished yet,<br /><br />Silver stars from sky are dropping,<br />Little fairies skipping, hopping,<br />On the roofs and turrets popping,<br />\u00a0\u00a0\u00a0\u00a0\u00a0\u00a0\u00a0 Crowns with diamonds set.<br /><br />Greeting nature\u2019s silver wedding,<br />Argent splendor they are shedding,<br />And a bridal veil outspreading,<br />\u00a0\u00a0\u00a0\u00a0\u00a0\u00a0\u00a0 Like a silver net;<br /><br />Till town-alleys, foul and tainted,<br />Turn cathedral-aisles ensainted,<br />Carved with gorgeous, ermine-painted,<br />\u00a0\u00a0\u00a0\u00a0\u00a0\u00a0\u00a0 Ornamental fret.<br /><br />How all changed by elfin power!<br />Every house a magic tower,<br />Every tree with lilac-flower<br />\u00a0\u00a0\u00a0\u00a0\u00a0\u00a0\u00a0 Lures like a coquette.<br /><br />Following in their magic traces,<br />Hidden joy each heart embraces,<br />Sparkling eyes and brightened faces<br />\u00a0\u00a0\u00a0\u00a0\u00a0\u00a0\u00a0 Everywhere are met.<br /><br />How I love you, white-robed city,<br />Maiden-pure, and maiden-pretty!<br />But my love is\u2014what a pity!\u2014<br />\u00a0\u00a0\u00a0\u00a0\u00a0\u00a0\u00a0 Tempered with regret.<br /><br />Truer lover you would find me,<br />If you were not to remind me<br />Of a cold land left behind me<br />\u00a0\u00a0\u00a0\u00a0\u00a0\u00a0\u00a0 That I\u2019d fain forget.</p> "}, {"title": "The Linnet", "view_node": "/poem/linnet", "field_author": "<a href=\"/poet/philip-m-raskin\" hreflang=\"en\">Philip M. Raskin</a>", "field_date_published": "2017", "body": " <p>Have you heard the linnet trilling,<br />\u00a0\u00a0\u00a0\u00a0 To discover did you try<br />What is hidden in her carol\u2014<br />\u00a0\u00a0\u00a0\u00a0 Does she sing or does she cry?<br /><br />I am singing like the linnet,<br />\u00a0\u00a0\u00a0\u00a0 When my heart does pine and long;<br />Love, and pain, and joy, and sorrow,<br />\u00a0\u00a0\u00a0\u00a0 All are hidden in my song.</p> "}], "pager": {"current_page": 271, "total_items": "13248", "total_pages": 663, "items_per_page": 20}}