{"rows": [{"title": "So, now I have confess&#039;d that he is thine (Sonnet 134)", "view_node": "/poem/so-now-i-have-confessd-he-thine-sonnet-134", "field_author": "<a href=\"/poet/william-shakespeare\" hreflang=\"und\">William Shakespeare</a>", "field_date_published": "1904", "body": "<p><span class=\"long-line\">So, now I have confess\u2019d that he is thine,</span><br /><span class=\"long-line\">And I myself am mortgaged to thy will,</span><br /><span class=\"long-line\">Myself I\u2019ll forfeit, so that other mine</span><br /><span class=\"long-line\">Thou wilt restore, to be my comfort still:</span><br /><span class=\"long-line\">But thou wilt not, nor he will not be free,</span><br /><span class=\"long-line\">For thou art covetous and he is kind;</span><br /><span class=\"long-line\">He learn\u2019d but surety-like to write for me</span><br /><span class=\"long-line\">Under that bond that him as fast doth bind,</span><br /><span class=\"long-line\">The statute of thy beauty thou wilt take,</span><br /><span class=\"long-line\">Thou usurer, that put\u2019st forth all to use</span><br /><span class=\"long-line\">And sue a friend came debtor for my sake;</span><br /><span class=\"long-line\">So him I lost through my unkind abuse.</span><br /><span class=\"long-line\">\u00a0\u00a0\u00a0\u00a0Him have I lost; thou hast both him and me:</span><br /><span class=\"long-line\">\u00a0\u00a0\u00a0\u00a0He pays the whole, and yet am I not free.</span></p>\n"}, {"title": "Thine eyes I love, and they, as pitying me (Sonnet 132)", "view_node": "/poem/thine-eyes-i-love-and-they-pitying-me-sonnet-132", "field_author": "<a href=\"/poet/william-shakespeare\" hreflang=\"und\">William Shakespeare</a>", "field_date_published": "1904", "body": "<p><span class=\"long-line\">Thine eyes I love, and they, as pitying me,</span><br /><span class=\"long-line\">Knowing thy heart torments me with disdain,</span><br /><span class=\"long-line\">Have put on black and loving mourners be,</span><br /><span class=\"long-line\">Looking with pretty ruth upon my pain.</span><br /><span class=\"long-line\">And truly not the morning sun of heaven</span><br /><span class=\"long-line\">Better becomes the grey cheeks of the east,</span><br /><span class=\"long-line\">Nor that full star that ushers in the even</span><br /><span class=\"long-line\">Doth half that glory to the sober west,</span><br /><span class=\"long-line\">As those two mourning eyes become thy face:</span><br /><span class=\"long-line\">O, let it then as well beseem thy heart</span><br /><span class=\"long-line\">To mourn for me, since mourning doth thee grace,</span><br /><span class=\"long-line\">And suit thy pity like in every part.</span><br /><span class=\"long-line\">\u00a0\u00a0\u00a0\u00a0Then will I swear beauty herself is black</span><br /><span class=\"long-line\">\u00a0\u00a0\u00a0\u00a0And all they foul that thy complexion lack.</span></p>\n"}, {"title": "Thou art as tyrannous, so as thou art (Sonnet 131)", "view_node": "/poem/thou-art-tyrannous-so-thou-art-sonnet-131", "field_author": "<a href=\"/poet/william-shakespeare\" hreflang=\"und\">William Shakespeare</a>", "field_date_published": "1904", "body": "<p><span class=\"long-line\">Thou art as tyrannous, so as thou art,</span><br /><span class=\"long-line\">As those whose beauties proudly make them cruel;</span><br /><span class=\"long-line\">For well thou know\u2019st to my dear doting heart</span><br /><span class=\"long-line\">Thou art the fairest and most precious jewel.</span><br /><span class=\"long-line\">Yet, in good faith, some say that thee behold</span><br /><span class=\"long-line\">Thy face hath not the power to make love groan:</span><br /><span class=\"long-line\">To say they err I dare not be so bold,</span><br /><span class=\"long-line\">Although I swear it to myself alone.</span><br /><span class=\"long-line\">And, to be sure that is not false I swear,</span><br /><span class=\"long-line\">A thousand groans, but thinking on thy face,</span><br /><span class=\"long-line\">One on another\u2019s neck, do witness bear</span><br /><span class=\"long-line\">Thy black is fairest in my judgement\u2019s place.</span><br /><span class=\"long-line\">\u00a0\u00a0\u00a0\u00a0In nothing art thou black save in thy deeds,</span><br /><span class=\"long-line\">\u00a0\u00a0\u00a0\u00a0And thence this slander, as I think, proceeds.</span></p>\n"}, {"title": "How oft, when thou, my music, music play&#039;st (Sonnet 128)", "view_node": "/poem/how-oft-when-thou-my-music-music-playst-sonnet-128", "field_author": "<a href=\"/poet/william-shakespeare\" hreflang=\"und\">William Shakespeare</a>", "field_date_published": "1904", "body": "<p><span class=\"long-line\">How oft, when thou, my music, music play\u2019st,</span><br /><span class=\"long-line\">Upon that blessed wood whose motion sounds</span><br /><span class=\"long-line\">With thy sweet fingers, when thou gently sway\u2019st</span><br /><span class=\"long-line\">The wiry concord that mine ear confounds,</span><br /><span class=\"long-line\">Do I envy those jacks that nimble leap</span><br /><span class=\"long-line\">To kiss the tender inward of thy hand,</span><br /><span class=\"long-line\">Whilst my poor lips, which should that harvest reap,</span><br /><span class=\"long-line\">At the wood\u2019s boldness by thee blushing stand!</span><br /><span class=\"long-line\">To be so tickled, they would change their state</span><br /><span class=\"long-line\">And situation with those dancing chips,</span><br /><span class=\"long-line\">O\u2019er whom thy fingers walk with gentle gait,</span><br /><span class=\"long-line\">Making dead wood more blest than living lips.</span><br /><span class=\"long-line\">\u00a0 \u00a0\u00a0\u00a0Since saucy jacks so happy are in this,</span><br /><span class=\"long-line\">\u00a0 \u00a0\u00a0\u00a0Give them thy fingers, me thy lips to kiss.</span></p>\n"}, {"title": "In the old age black was not counted fair (Sonnet 127)", "view_node": "/poem/old-age-black-was-not-counted-fair-sonnet-127", "field_author": "<a href=\"/poet/william-shakespeare\" hreflang=\"und\">William Shakespeare</a>", "field_date_published": "1904", "body": "<p><span class=\"long-line\">In the old age black was not counted fair,</span><br /><span class=\"long-line\">Or if it were, it bore not beauty\u2019s name;</span><br /><span class=\"long-line\">But now is black beauty\u2019s successive heir,</span><br /><span class=\"long-line\">And beauty slander\u2019d with a bastard shame:</span><br /><span class=\"long-line\">For since each hand hath put on nature\u2019s power,</span><br /><span class=\"long-line\">Fairing the foul with art\u2019s false borrow\u2019d face,</span><br /><span class=\"long-line\">Sweet beauty hath no name, no holy bower,</span><br /><span class=\"long-line\">But it profaned, if not lives in disgrace.</span><br /><span class=\"long-line\">Therefore my mistress\u2019 brows are raven black,</span><br /><span class=\"long-line\">Her eyes so suited, and they mourners seem</span><br /><span class=\"long-line\">At such who, not born fair, no beauty lack,</span><br /><span class=\"long-line\">Slandering creation with a false esteem:</span><br /><span class=\"long-line\">\u00a0\u00a0\u00a0\u00a0Yet so they mourn, becoming of their woe,</span><br /><span class=\"long-line\">\u00a0\u00a0\u00a0\u00a0That every tongue says beauty should look so.</span></p>\n"}, {"title": "Were&#039;t aught to me I bore the canopy (Sonnet 125)", "view_node": "/poem/weret-aught-me-i-bore-canopy-sonnet-125", "field_author": "<a href=\"/poet/william-shakespeare\" hreflang=\"und\">William Shakespeare</a>", "field_date_published": "1904", "body": "<p><span class=\"long-line\">Were\u2019t aught to me I bore the canopy,</span><br /><span class=\"long-line\">With my extern the outward honouring,</span><br /><span class=\"long-line\">Or laid great bases for eternity,</span><br /><span class=\"long-line\">Which prove more short than waste or ruining?</span><br /><span class=\"long-line\">Have I not seen dwellers on form and favour</span><br /><span class=\"long-line\">Lose all, and more, by paying too much rent,</span><br /><span class=\"long-line\">For compounded sweet forgoing simple savour,</span><br /><span class=\"long-line\">Pitiful thrivers, in their gazing spent?</span><br /><span class=\"long-line\">No, let me be obsequious in thy heart,</span><br /><span class=\"long-line\">And take thou my oblation, poor but free,</span><br /><span class=\"long-line\">Which is not mix\u2019d with seconds, knows no art,</span><br /><span class=\"long-line\">But mutual render, only me for thee.</span><br /><span class=\"long-line\">\u00a0\u00a0\u00a0\u00a0Hence, thou suborn\u2019d informer; a true soul</span><br /><span class=\"long-line\">\u00a0\u00a0\u00a0\u00a0When most impeach\u2019d stands lease in thy control.</span></p>\n"}, {"title": "If my dear love were but the child of state (Sonnet 124)", "view_node": "/poem/if-my-dear-love-were-child-state-sonnet-124", "field_author": "<a href=\"/poet/william-shakespeare\" hreflang=\"und\">William Shakespeare</a>", "field_date_published": "1904", "body": "<p><span class=\"long-line\">If my dear love were but the child of state,</span><br /><span class=\"long-line\">It might for Fortune\u2019s bastard be unfather\u2019d,</span><br /><span class=\"long-line\">As subject to Time\u2019s love or to Time\u2019s hate</span><br /><span class=\"long-line\">Weeds among weeds, or flowers with flowers gather\u2019d.</span><br /><span class=\"long-line\">No,\u00a0it was builded far from accident;</span><br /><span class=\"long-line\">It suffers not in smiling pomp, nor falls</span><br /><span class=\"long-line\">Under the blow of thrilled discontent,</span><br /><span class=\"long-line\">Whereto the inviting time our fashion calls:</span><br /><span class=\"long-line\">It fears not policy, that heretic,</span><br /><span class=\"long-line\">Which works on leases of short-number\u2019d hours,</span><br /><span class=\"long-line\">But all alone stands hugely politic,</span><br /><span class=\"long-line\">That it nor grows with heat nor drowns with showers.</span><br /><span class=\"long-line\">\u00a0\u00a0\u00a0\u00a0To this I witness call the fools of time,</span><br /><span class=\"long-line\">\u00a0\u00a0\u00a0\u00a0Which die for goodness, who have lived for crime. </span></p>\n"}, {"title": "No, Time, thou shalt not boast that I do change: (Sonnet 123)", "view_node": "/poem/no-time-thou-shalt-not-boast-i-do-change-sonnet-123", "field_author": "<a href=\"/poet/william-shakespeare\" hreflang=\"und\">William Shakespeare</a>", "field_date_published": "1904", "body": "<p><span class=\"long-line\">No, Time, thou shalt not boast that I do change:</span><br /><span class=\"long-line\">Thy pyramids built up with newer might</span><br /><span class=\"long-line\">To me are nothing novel, nothing strange;</span><br /><span class=\"long-line\">They are but dressings of a former sight.</span><br /><span class=\"long-line\">Our dates are brief, and therefore we admire</span><br /><span class=\"long-line\">What thou dost foist upon us that is old,</span><br /><span class=\"long-line\">And rather make them born to our desire</span><br /><span class=\"long-line\">Than think that we before have heard them told.</span><br /><span class=\"long-line\">Thy registers and thee I both defy,</span><br /><span class=\"long-line\">Not wondering at the present nor the past,</span><br /><span class=\"long-line\">For thy records and what we see doth lie,</span><br /><span class=\"long-line\">Made more or less by thy continual haste.</span><br /><span class=\"long-line\">\u00a0\u00a0\u00a0\u00a0This I do vow and this shall ever be;</span><br /><span class=\"long-line\">\u00a0\u00a0\u00a0\u00a0I will be true, despite thy scythe and thee.</span></p>\n"}, {"title": "Thy gift, thy tables, are within my brain (Sonnet 122)", "view_node": "/poem/thy-gift-thy-tables-are-within-my-brain-sonnet-122", "field_author": "<a href=\"/poet/william-shakespeare\" hreflang=\"und\">William Shakespeare</a>", "field_date_published": "1904", "body": "<p><span class=\"long-line\">Thy gift, thy tables, are within my brain</span><br /><span class=\"long-line\">Full character\u2019d with lasting memory,</span><br /><span class=\"long-line\">Which shall above that idle rank remain</span><br /><span class=\"long-line\">Beyond all date, even to eternity;</span><br /><span class=\"long-line\">Or at the least, so long as brain and heart</span><br /><span class=\"long-line\">Have faculty by nature to subsist;</span><br /><span class=\"long-line\">Till each to razed oblivion yield his part</span><br /><span class=\"long-line\">Of thee, thy record never can be miss\u2019d.</span><br /><span class=\"long-line\">That poor retention could not so much hold,</span><br /><span class=\"long-line\">Nor need I tallies thy dead love to score;</span><br /><span class=\"long-line\">Therefore to give them from me was I bold,</span><br /><span class=\"long-line\">To trust those tables that receive thee more:</span><br /><span class=\"long-line\">\u00a0\u00a0\u00a0\u00a0To keep an adjunct to remember thee</span><br /><span class=\"long-line\">\u00a0\u00a0\u00a0\u00a0Were to import forgetfulness in me. </span></p>\n"}, {"title": "&#039;Tis better to be vile than vile esteem&#039;d (Sonnet 121)", "view_node": "/poem/tis-better-be-vile-vile-esteemd-sonnet-121", "field_author": "<a href=\"/poet/william-shakespeare\" hreflang=\"und\">William Shakespeare</a>", "field_date_published": "1904", "body": "<p><span class=\"long-line\">\u2019Tis better to be vile than vile esteem\u2019d,</span><br /><span class=\"long-line\">When not to be receives reproach of being,</span><br /><span class=\"long-line\">And the just pleasure lost which is so deem\u2019d</span><br /><span class=\"long-line\">Not by our feeling but by others\u2019 seeing:</span><br /><span class=\"long-line\">For why should others\u2019 false adulterate eyes</span><br /><span class=\"long-line\">Give salutation to my sportive blood?</span><br /><span class=\"long-line\">Or on my frailties why are frailer spies,</span><br /><span class=\"long-line\">Which in their wills count bad what I think good?</span><br /><span class=\"long-line\">No, I am that I am, and they that level</span><br /><span class=\"long-line\">At my abusers reckon up their own:</span><br /><span class=\"long-line\">I may be straight, though they themselves be bevel;</span><br /><span class=\"long-line\">By their rank thoughts my deeds much not be shown;</span><br /><span class=\"long-line\">\u00a0\u00a0\u00a0\u00a0Unless this general evil they maintain,</span><br /><span class=\"long-line\">\u00a0\u00a0\u00a0\u00a0All men are bad, and in their badness reign.</span></p>\n"}, {"title": "That you were once unkind befriends me now (Sonnet 120)", "view_node": "/poem/you-were-once-unkind-befriends-me-now-sonnet-120", "field_author": "<a href=\"/poet/william-shakespeare\" hreflang=\"und\">William Shakespeare</a>", "field_date_published": "1904", "body": "<p><span class=\"long-line\">That you were once unkind befriends me now,</span><br /><span class=\"long-line\">And for that sorrow which I then did feel</span><br /><span class=\"long-line\">Needs must I under my transgression bow,</span><br /><span class=\"long-line\">Unless my nerves were brass or hammer\u2019d steel.</span><br /><span class=\"long-line\">For if you were by my unkindness shaken</span><br /><span class=\"long-line\">As I by yours, you\u2019ve pass\u2019d a hell of time,</span><br /><span class=\"long-line\">And I, a tyrant, have no leisure taken</span><br /><span class=\"long-line\">To weigh how once I suffer\u2019d in your crime.</span><br /><span class=\"long-line\">O, that our night of woe might have remember\u2019d</span><br /><span class=\"long-line\">My deepest sense, how hard true sorrow hits,</span><br /><span class=\"long-line\">And soon to you, as you to me, then tender\u2019d</span><br /><span class=\"long-line\">The humble salve which wounded bosoms fits!</span><br /><span class=\"long-line\">\u00a0\u00a0\u00a0\u00a0But that your trespass now becomes a fee;</span><br /><span class=\"long-line\">\u00a0\u00a0\u00a0\u00a0Mine\u00a0ransoms yours, and yours must ransom me.</span></p>\n"}, {"title": "What potions have I drunk of Siren tears (Sonnet 119)", "view_node": "/poem/what-potions-have-i-drunk-siren-tears-sonnet-119", "field_author": "<a href=\"/poet/william-shakespeare\" hreflang=\"und\">William Shakespeare</a>", "field_date_published": "1904", "body": "<p><span class=\"long-line\">What potions have I drunk of Siren tears,</span><br /><span class=\"long-line\">Distill\u2019d from limbecks foul as hell within,</span><br /><span class=\"long-line\">Applying fears to hopes and hopes to fears,</span><br /><span class=\"long-line\">Still losing when I saw myself to win!</span><br /><span class=\"long-line\">What wretched errors hath my heart committed,</span><br /><span class=\"long-line\">Whilst it hath thought itself so blessed never!</span><br /><span class=\"long-line\">How have mine eyes out of their spheres been fitted</span><br /><span class=\"long-line\">In the distraction of his madding fever!</span><br /><span class=\"long-line\">O benefit of ill! now I find true</span><br /><span class=\"long-line\">That better is by evil still made better;</span><br /><span class=\"long-line\">And ruin\u2019d love, when it is build anew,</span><br /><span class=\"long-line\">Grows fairer than at first, more strong, far greater.</span><br /><span class=\"long-line\">\u00a0\u00a0\u00a0\u00a0So I return rebuked to my content</span><br /><span class=\"long-line\">\u00a0\u00a0\u00a0\u00a0And gain by ills thrice more than I have spent.</span></p>\n"}, {"title": "Accuse me thus: that I have scanted all (Sonnet 117)", "view_node": "/poem/accuse-me-thus-i-have-scanted-all-sonnet-117", "field_author": "<a href=\"/poet/william-shakespeare\" hreflang=\"und\">William Shakespeare</a>", "field_date_published": "1904", "body": "<p><span class=\"long-line\">Accuse me thus: that I have scanted all</span><br /><span class=\"long-line\">Wherein I should your great deserts repay,</span><br /><span class=\"long-line\">Forgot upon your dearest love to call,</span><br /><span class=\"long-line\">Whereto all bonds do tie me day by day;</span><br /><span class=\"long-line\">That I have frequent been with unknown minds</span><br /><span class=\"long-line\">And given to time your own dear-purchased right;</span><br /><span class=\"long-line\">That I have hoisted sail to all the winds</span><br /><span class=\"long-line\">Which should transport me farthest from your sight.</span><br /><span class=\"long-line\">Book both my willfulness and errors down</span><br /><span class=\"long-line\">And on just proof surmise accumulate;</span><br /><span class=\"long-line\">Bring me within the level of your frown,</span><br /><span class=\"long-line\">But shoot not at me in your waken\u2019d hate;</span><br /><span class=\"long-line\">\u00a0\u00a0\u00a0\u00a0Since my appeal says I did strive to prove</span><br /><span class=\"long-line\">\u00a0\u00a0\u00a0\u00a0The constancy and virtue of your love.</span></p>\n"}, {"title": "Those lines that I before have writ do lie (Sonnet 115)", "view_node": "/poem/those-lines-i-have-writ-do-lie-sonnet-115", "field_author": "<a href=\"/poet/william-shakespeare\" hreflang=\"und\">William Shakespeare</a>", "field_date_published": "1904", "body": "<p><span class=\"long-line\">Those lines that I before have writ do lie,</span><br /><span class=\"long-line\">Even those that said I could not love you dearer:</span><br /><span class=\"long-line\">Yet then my judgement knew no reason why</span><br /><span class=\"long-line\">My most full flame should afterwards burn clearer.</span><br /><span class=\"long-line\">But reckoning time, whose millon\u2019d accidents</span><br /><span class=\"long-line\">Creep in \u2019twixt vows and change decrees of kings,</span><br /><span class=\"long-line\">Tan sacred beauty, blunt the sharp\u2019st intents,</span><br /><span class=\"long-line\">Divert strong minds to the course of altering things;</span><br /><span class=\"long-line\">Alas, why, fearing of time\u2019s tyranny,</span><br /><span class=\"long-line\">Might I not then say \u2018Now I love you best,\u2019</span><br /><span class=\"long-line\">When I was certain o\u2019er incertainty,</span><br /><span class=\"long-line\">Crowning the present, doubting of the rest?</span><br /><span class=\"long-line\">\u00a0\u00a0\u00a0\u00a0Love is a babe; then might I not say so,</span><br /><span class=\"long-line\">\u00a0\u00a0\u00a0\u00a0To give full growth to that which still doth grow?</span></p>\n"}, {"title": "Or whether doth my mind, being crown&#039;d with you (Sonnet 114)", "view_node": "/poem/or-whether-doth-my-mind-being-crownd-you-sonnet-114", "field_author": "<a href=\"/poet/william-shakespeare\" hreflang=\"und\">William Shakespeare</a>", "field_date_published": "1904", "body": "<p><span class=\"long-line\">Or whether doth my mind, being crown\u2019d with you,</span><br /><span class=\"long-line\">Drink up the monarch\u2019s plague, this flattery?</span><br /><span class=\"long-line\">Or whether shall I say, mine eye saith true,</span><br /><span class=\"long-line\">And that your love taught it this alchemy,</span><br /><span class=\"long-line\">To make of monsters and things indigest</span><br /><span class=\"long-line\">Such cherubins as your sweet self resemble,</span><br /><span class=\"long-line\">Creating every bad a perfect best,</span><br /><span class=\"long-line\">As fast as objects to his beams assemble?</span><br /><span class=\"long-line\">O, \u2019tis the first; \u2019tis flattery in my seeing,</span><br /><span class=\"long-line\">And my great mind most kingly drinks it up:</span><br /><span class=\"long-line\">Mine eye well knows what with his gust is \u2019greening,</span><br /><span class=\"long-line\">And to his palate doth prepare the cup:</span><br /><span class=\"long-line\">\u00a0\u00a0\u00a0\u00a0If it be poison\u2019d, \u2019tis the lesser sin</span><br /><span class=\"long-line\">\u00a0\u00a0\u00a0\u00a0That mine eye loves it and doth first begin.</span></p>\n"}, {"title": "Since I left you, mine eye is in my mind; (Sonnet 113)", "view_node": "/poem/i-left-you-mine-eye-my-mind-sonnet-113", "field_author": "<a href=\"/poet/william-shakespeare\" hreflang=\"und\">William Shakespeare</a>", "field_date_published": "1094", "body": "<p><span class=\"long-line\">Since I left you, mine eye is in my mind;</span><br /><span class=\"long-line\">And that which governs me to go about</span><br /><span class=\"long-line\">Doth part his function and is partly blind,</span><br /><span class=\"long-line\">Seems seeing, but effectually is out;</span><br /><span class=\"long-line\">For it no form delivers to the heart</span><br /><span class=\"long-line\">Of bird, of flower, or shape, which it doth latch:</span><br /><span class=\"long-line\">Of his quick objects hath the mind no part,</span><br /><span class=\"long-line\">Nor his own vision holds what it doth catch;</span><br /><span class=\"long-line\">For if it see the rudest or gentlest sight,</span><br /><span class=\"long-line\">The most sweet favour or deformed\u2019st creature,</span><br /><span class=\"long-line\">The mountain or the sea, the day or night,</span><br /><span class=\"long-line\">The crow or dove, it shapes them to your feature:</span><br /><span class=\"long-line\">\u00a0\u00a0\u00a0\u00a0Incapable of more, replete with you,</span><br /><span class=\"long-line\">\u00a0\u00a0\u00a0\u00a0My most true mind thus makes mine eye untrue.</span></p>\n"}, {"title": "Your love and pity doth the impression fill (Sonnet 112)", "view_node": "/poem/your-love-and-pity-doth-impression-fill-sonnet-112", "field_author": "<a href=\"/poet/william-shakespeare\" hreflang=\"und\">William Shakespeare</a>", "field_date_published": "1904", "body": "<p><span class=\"long-line\">Your love and pity doth the impression fill</span><br /><span class=\"long-line\">Which vulgar scandal stamp\u2019d upon my brow;</span><br /><span class=\"long-line\">For what care I who calls me well or ill,</span><br /><span class=\"long-line\">So you o\u2019er-green my bad, my good allow?</span><br /><span class=\"long-line\">You are my all the world, and I must strive</span><br /><span class=\"long-line\">To know my shames and praises from your tongue;</span><br /><span class=\"long-line\">None else to me, nor I to none alive,</span><br /><span class=\"long-line\">That my steel\u2019d sense or changes right or wrong.</span><br /><span class=\"long-line\">In so profound abysm I throw all care</span><br /><span class=\"long-line\">Of others\u2019 voices, that my adder\u2019s sense</span><br /><span class=\"long-line\">To critic and to flatterer stopped are.</span><br /><span class=\"long-line\">Mark how with my neglect I do dispense:</span><br /><span class=\"long-line\">\u00a0\u00a0\u00a0\u00a0You are so strongly in my purpose bred</span><br /><span class=\"long-line\">\u00a0\u00a0\u00a0\u00a0That all the world besides methinks are dead.</span></p>\n"}, {"title": "O, for my sake do you with Fortune chide (Sonnet 111)", "view_node": "/poem/o-my-sake-do-you-fortune-chide-sonnet-111", "field_author": "<a href=\"/poet/william-shakespeare\" hreflang=\"und\">William Shakespeare</a>", "field_date_published": "1904", "body": "<p><span class=\"long-line\">O, for my sake do you with Fortune chide,</span><br /><span class=\"long-line\">The guilty goddess of my harmful deeds,</span><br /><span class=\"long-line\">Than did not better for my life provide</span><br /><span class=\"long-line\">Than public means which public manners breeds.</span><br /><span class=\"long-line\">Thence comes it that my name receives a brand,</span><br /><span class=\"long-line\">And almost thence my nature is subdued </span><br /><span class=\"long-line\">To what it works in, like the dyer\u2019s hand:</span><br /><span class=\"long-line\">Pity me then and wish I were renew\u2019d;</span><br /><span class=\"long-line\">Whilst, like a willing patient, I will drink</span><br /><span class=\"long-line\">Potions of easel \u2019gainst my strong infection;</span><br /><span class=\"long-line\">No bitterness that I will bitter think,</span><br /><span class=\"long-line\">Nor double penance, to correct correction.</span><br /><span class=\"long-line\">\u00a0\u00a0\u00a0\u00a0Pity me then, dear friend, and I assure ye</span><br /><span class=\"long-line\">\u00a0\u00a0\u00a0\u00a0Even that your pity is enough to cure me.</span></p>\n"}, {"title": "Alas, &#039;tis true I have gone here and there (Sonnet 110)", "view_node": "/poem/alas-tis-true-i-have-gone-here-and-there-sonnet-110", "field_author": "<a href=\"/poet/william-shakespeare\" hreflang=\"und\">William Shakespeare</a>", "field_date_published": "1904", "body": "<p><span class=\"long-line\">Alas, \u2019tis true I have gone here and there</span><br /><span class=\"long-line\">And made myself a motley to the view,</span><br /><span class=\"long-line\">Gored mine own thoughts, sold cheap what is most dear,</span><br /><span class=\"long-line\">Made old offences of affections new;</span><br /><span class=\"long-line\">Most true it is that I have look\u2019d on truth</span><br /><span class=\"long-line\">Askance and strangely: but, by all above,</span><br /><span class=\"long-line\">These blenches gave my heart another youth,</span><br /><span class=\"long-line\">And worse essay proved thee my best of love,</span><br /><span class=\"long-line\">Now all is done, have what shall have no end:</span><br /><span class=\"long-line\">Mine appetite I never more will grind</span><br /><span class=\"long-line\">On newer proof, to try an older friend,</span><br /><span class=\"long-line\">A god in love, to whom I am confined.</span><br /><span class=\"long-line\">\u00a0\u00a0\u00a0\u00a0Then give me welcome, next my heaven the best,</span><br /><span class=\"long-line\">\u00a0\u00a0\u00a0\u00a0Even to thy pure and most most loving breast.</span></p>\n"}, {"title": "O, never say that I was false of heart (Sonnet 109)", "view_node": "/poem/o-never-say-i-was-false-heart-sonnet-109", "field_author": "<a href=\"/poet/william-shakespeare\" hreflang=\"und\">William Shakespeare</a>", "field_date_published": "1904", "body": "<p><span class=\"long-line\">O, never say that I was false of heart,</span><br /><span class=\"long-line\">Though absence seem\u2019d my flame to qualify,</span><br /><span class=\"long-line\">As easy might I from myself depart</span><br /><span class=\"long-line\">As from my soul, which in thy breast doth lie:</span><br /><span class=\"long-line\">That is my home of love: if I have ranged,</span><br /><span class=\"long-line\">Like him that ravels I return again,</span><br /><span class=\"long-line\">Just to the time, not with the time exchanged,</span><br /><span class=\"long-line\">So that myself bring water for my stain.</span><br /><span class=\"long-line\">Never believe, though in my nature reign\u2019d</span><br /><span class=\"long-line\">All frailties that besiege all kinds of blood,</span><br /><span class=\"long-line\">That it could so preposterously be stain\u2019d,</span><br /><span class=\"long-line\">To leave for nothing all thy sum of good;</span><br /><span class=\"long-line\">\u00a0\u00a0\u00a0\u00a0For nothing this wide universe I call,</span><br /><span class=\"long-line\">\u00a0\u00a0\u00a0\u00a0Save thou, my rose; in it thou art my all.</span></p>\n"}], "pager": {"current_page": 192, "total_items": "13248", "total_pages": 663, "items_per_page": 20}}