{"rows": [{"title": "Rosemary", "view_node": "/poem/rosemary", "field_author": "<a href=\"/poet/edna-st-vincent-millay\" hreflang=\"und\">Edna St. Vincent Millay</a>", "field_date_published": "2017", "body": " <p>For the sake of some things<br />\u00a0\u00a0 That be now no more<br />I will strew rushes<br />\u00a0\u00a0 On my chamber-floor,<br />I will plant bergamot<br />\u00a0\u00a0 At my kitchen-door.</p><p>For the sake of dim things<br />\u00a0\u00a0 That were once so plain<br />I will set a barrel<br />\u00a0\u00a0 Out to catch the rain,<br />I will hang an iron pot<br />\u00a0\u00a0 On an iron crane.</p><p>Many things be dead and gone<br />\u00a0\u00a0 That were brave and gay;<br />For the sake of these things<br />\u00a0\u00a0 I will learn to say,<br />\"An it please you, gentle sirs,\"<br />\u00a0\u00a0 \"Alack!\" and \"Well-a-day!\"</p> "}, {"title": "Song of a Second April", "view_node": "/poem/song-second-april", "field_author": "<a href=\"/poet/edna-st-vincent-millay\" hreflang=\"und\">Edna St. Vincent Millay</a>", "field_date_published": "2017", "body": "<p><span class=\"long-line\">April this year, not otherwise</span><br /><span class=\"long-line\">\u00a0\u00a0 Than April of a year ago,</span><br /><span class=\"long-line\">Is full of whispers, full of sighs,</span><br /><span class=\"long-line\">\u00a0\u00a0 Of dazzling mud and dingy snow;</span><br /><span class=\"long-line\">\u00a0\u00a0 Hepaticas that pleased you so</span><br /><span class=\"long-line\">Are here again, and butterflies.</span></p>\n\n<p><span class=\"long-line\">There rings a hammering all day,</span><br /><span class=\"long-line\">\u00a0\u00a0 And shingles lie about the doors;</span><br /><span class=\"long-line\">In orchards near and far away</span><br /><span class=\"long-line\">\u00a0\u00a0 The grey wood-pecker taps and bores;</span><br /><span class=\"long-line\">\u00a0\u00a0 The men are merry at their chores,</span><br /><span class=\"long-line\">And children earnest at their play.</span></p>\n\n<p><span class=\"long-line\">The larger streams run still and deep,</span><br /><span class=\"long-line\">\u00a0\u00a0 Noisy and swift the small brooks run</span><br /><span class=\"long-line\">Among the mullein stalks the sheep</span><br /><span class=\"long-line\">\u00a0\u00a0 Go up the hillside in the sun,</span><br /><span class=\"long-line\">\u00a0\u00a0 Pensively,\u2014only you are gone,</span><br /><span class=\"long-line\">You that alone I cared to keep.</span></p>\n"}, {"title": "The Lawyers Know Too Much", "view_node": "/poem/lawyers-know-too-much", "field_author": "<a href=\"/poet/carl-sandburg\" hreflang=\"und\">Carl Sandburg</a>", "field_date_published": "2017", "body": " <p>The lawyers, Bob, know too much.<br />They are chums of the books of the old John Marshall.<br />They know it all, what a dead hand wrote,<br />A stiff dead hand and its knuckles crumbling,<br />The bones of the fingers a thin white ash.<br />\u00a0\u00a0\u00a0\u00a0\u00a0\u00a0 The lawyers know<br />\u00a0\u00a0\u00a0\u00a0\u00a0\u00a0 a dead man\u2019s thoughts too well.</p><p>In the heels of the higgling lawyers, Bob,<br />Too many slippery ifs and buts and howevers,<br />Too much hereinbefore provided whereas,<br />Too many doors to go in and out of.</p><p>\u00a0\u00a0\u00a0\u00a0\u00a0\u00a0 When the lawyers are through<br />\u00a0\u00a0\u00a0\u00a0\u00a0\u00a0 What is there left, Bob?<br />\u00a0\u00a0\u00a0\u00a0\u00a0\u00a0 Can a mouse nibble at it<br />\u00a0\u00a0\u00a0\u00a0\u00a0\u00a0 And find enough to fasten a tooth in?</p><p>\u00a0\u00a0\u00a0\u00a0\u00a0\u00a0 Why is there always a secret singing<br />\u00a0\u00a0\u00a0\u00a0\u00a0\u00a0 When a lawyer cashes in?<br />\u00a0\u00a0\u00a0\u00a0\u00a0\u00a0 Why does a hearse horse snicker<br />\u00a0\u00a0\u00a0\u00a0\u00a0\u00a0 Hauling a lawyer away?</p><p>The work of a bricklayer goes to the blue.<br />The knack of a mason outlasts a moon.<br />The hands of a plasterer hold a room together.<br />The land of a farmer wishes him back again.<br />\u00a0\u00a0\u00a0\u00a0\u00a0\u00a0 Singers of songs and dreamers of plays<br />\u00a0\u00a0\u00a0\u00a0\u00a0\u00a0 Build a house no wind blows over.<br />The lawyers\u2014tell me why a hearse horse snickers<br />\u00a0\u00a0\u00a0\u00a0\u00a0\u00a0 hauling a lawyer\u2019s bones.</p> "}, {"title": "To Love Impuissant", "view_node": "/poem/love-impuissant", "field_author": "<a href=\"/poet/edna-st-vincent-millay\" hreflang=\"und\">Edna St. Vincent Millay</a>", "field_date_published": "2017", "body": " <p>Love, though for this you riddle me with darts,<br />\u00a0\u00a0\u00a0\u00a0 And drag me at your chariot till I die\u2014<br />Oh, heavy prince! oh, panderer of hearts!\u2014<br />\u00a0\u00a0\u00a0\u00a0 Yet hear me tell how in their throats they lie<br />Who shout you mighty: thick about my hair,<br />\u00a0\u00a0\u00a0\u00a0 Day in, day out, your ominous arrows purr,<br />Who still am free, unto no querulous care<br />\u00a0\u00a0\u00a0\u00a0 A fool, and in no temple worshipper.</p><p>I, that have bared me to your quiver\u2019s fire,<br />\u00a0\u00a0\u00a0\u00a0 Lifted my face into its puny rain,<br />Do wreathe your Impotent to Evoke Desire<br />\u00a0\u00a0\u00a0\u00a0 As you are Powerless to Elicit Pain!<br />(Now will the god, for blasphemy so brave,<br />Punish me, surely, with the shaft I crave!)</p> "}, {"title": "Elegy Before Death", "view_node": "/poem/elegy-death", "field_author": "<a href=\"/poet/edna-st-vincent-millay\" hreflang=\"und\">Edna St. Vincent Millay</a>", "field_date_published": "2017", "body": " <p>There will be rose and rhododendron<br />\u00a0\u00a0 When you are dead and under ground;<br />Still will be heard from white syringas<br />\u00a0\u00a0 Heavy with bees, a sunny sound;</p><p>Still will the tamaracks be raining<br />\u00a0\u00a0 After the rain has ceased, and still<br />Will there be robins in the stubble,<br />\u00a0\u00a0 Brown sheep upon the warm green hill.</p><p>Spring will not ail nor autumn falter;<br />\u00a0\u00a0 Nothing will know that you are gone,<br />Saving alone some sullen plough-land<br />\u00a0\u00a0 None but yourself sets foot upon;</p><p>Saving the may-weed and the pig-weed<br />\u00a0\u00a0 Nothing will know that you are dead,\u2014<br />These, and perhaps a useless wagon<br />\u00a0\u00a0 Standing beside some tumbled shed.</p><p>Oh, there will pass with your great passing<br />\u00a0\u00a0 Little of beauty not your own,\u2014<br />Only the light from common water,<br />\u00a0\u00a0 Only the grace from simple stone!</p> "}, {"title": "Weeds", "view_node": "/poem/weeds", "field_author": "<a href=\"/poet/edna-st-vincent-millay\" hreflang=\"und\">Edna St. Vincent Millay</a>", "field_date_published": "2017", "body": "<p><span class=\"long-line\">White with daisies and red with sorrel</span><br /><span class=\"long-line\">\u00a0\u00a0 And empty, empty under the sky!\u2014</span><br /><span class=\"long-line\">Life is a quest and love a quarrel\u2014</span><br /><span class=\"long-line\">\u00a0\u00a0 Here is a place for me to lie.</span></p>\n\n<p><span class=\"long-line\">Daisies spring from damn\u00e8d seeds,</span><br /><span class=\"long-line\">\u00a0\u00a0 And this red fire that here I see</span><br /><span class=\"long-line\">Is a worthless crop of crimson weeds,</span><br /><span class=\"long-line\">\u00a0\u00a0 Cursed by farmers thriftily.</span></p>\n\n<p><span class=\"long-line\">But here, unhated for an hour,</span><br /><span class=\"long-line\">\u00a0\u00a0 The sorrel runs in ragged flame,</span><br /><span class=\"long-line\">The daisy stands, a bastard flower,</span><br /><span class=\"long-line\">\u00a0\u00a0 Like flowers that bear an honest name.</span></p>\n\n<p><span class=\"long-line\">And here a while, where no wind brings</span><br /><span class=\"long-line\">\u00a0\u00a0 The baying of a pack athirst,</span><br /><span class=\"long-line\">May sleep the sleep of bless\u00e8d things,</span><br /><span class=\"long-line\">\u00a0\u00a0 The blood too bright, the brow accurst.</span></p>\n"}, {"title": "The Penitent", "view_node": "/poem/penitent", "field_author": "<a href=\"/poet/edna-st-vincent-millay\" hreflang=\"und\">Edna St. Vincent Millay</a>", "field_date_published": "2017", "body": " <p>I had a little Sorrow,<br />\u00a0\u00a0 Born of a little Sin,<br />I found a room all damp with gloom<br />\u00a0\u00a0 And shut us all within;<br />And, \"Little Sorrow, weep,\" said I,<br />\u00a0\u00a0 \"And, Little Sin, pray God to die,<br />And I upon the floor will lie<br />\u00a0\u00a0 And think how bad I've been!\"</p><p>Alas for pious planning\u2014<br />\u00a0\u00a0 It mattered not a whit!<br />As far as gloom went in that room,<br />\u00a0\u00a0 The lamp might have been lit!<br />My Little Sorrow would not weep,<br />\u00a0\u00a0 My little Sin would go to sleep\u2014<br />To save my soul I could not keep<br />\u00a0\u00a0 My graceless mind on it!</p><p>So up I got in anger,<br />\u00a0\u00a0 And took a book I had,<br />And put a ribbon on my hair<br />\u00a0\u00a0 To please a passing lad,<br />And, \"One thing there's no getting by\u2014<br />\u00a0\u00a0 I've been a wicked girl,\" said I;<br />\"But if I can't be sorry, why,<br />\u00a0\u00a0 I might as well be glad!\"</p> "}, {"title": "Note from My Mother", "view_node": "/poem/note-my-mother", "field_author": "<a href=\"/poet/jeff-hoffman\" hreflang=\"und\">Jeff Hoffman</a>", "field_date_published": "2017", "body": " <pre>\nLet\u2019s talk about\nyour long-lost lion puppet,\n\nthe one true creature\nyou could not live without.\n\nDid you know I x-actoed\nthe grasslands of his mane\n\nfrom the Sunday funnies?\nDid you know that his eyes\n\nwere not marbles at all?\nDid you know I pierced\n\na black-eyed pea with a needle\nand made it his nose?\n\nDid you know we all live for a time\nas creatures abandoned? Bring back\n\nthe ketchup bottle that you fitted\nwith a wig. Bring back the cocoons\n\nnoosed to the lid of a pickle jar;\nthe eyelashed mouth\n\nof the venus flytrap; the newts\nand tadpoles; the wood tick,\n\nits perfume-bottle grave.\nDid you know we all live\n\nall our lives with coins on our eyes?\nDid you know that your puppet\n\nwasn\u2019t a lion at all\nuntil you called him a lion?\n\nI made him no one creature\nin particular; he was cloth\n\nwith a face, and his gumball eyes\nwere sweet when you licked them\n\nand gone in a day.</pre>\n "}, {"title": "The Air of the Present", "view_node": "/poem/air-present", "field_author": "<a href=\"/poet/robert-parham\" hreflang=\"en\">Robert Parham</a>", "field_date_published": "2017", "body": " <pre>\nI was trying to remember some important quip\nBy a famous person that rang of wisdom\nOr was prescient, so obviously so that even\nIn retrospect we feel brief awe in having bumped\nInto what must be an immemorial aphorism.\n\nBut, over and over, as the brain muscle flexed,\nThe words of Uncle Lemuel recurred, indeed,\nSeveral of them. Watching Wheel of Fortune,\nBeer in hand, he cleared his throat from that place\nWhich only seemed disengaged: \u201cNot mental giants.\u201d\n\nMy uncle came from a place where horse sense ruled,\nWhere holes in one\u2019s shoes was hard but fair,\nBut failing to wear any shoe where the hard stones,\nThe sharp glass, the brutal edge of the real world bruised\nWas \u201cThat kind of man bleeds stupid.\u201d\n\nMy aunt, never undone, once stared at him, waiting perhaps\nFor his timeless remark, finally said, \u201cMy feet ache\nAt attention for your absolute genius.\u201d Maybe\nShe was his muse, so to speak, and this place\nWhich took me in on Sundays deserved respect.\n\nOutside, the crows gather among trees nearby,\nTheir number growing for a reason surely;\nOnly yesterday the newborn cardinals vanished,\nThen the gorgeous pair whose nest grew\nIn the crape myrtle before the white blossoms\n\nSurged so the slender limbs sagged with the burden\nOf summer in their arms. Today the dogs found\nThe bones of a hawk-stripped squirrel. I grabbed\nThe jaws of the black Lab who fought to keep,\nTo swallow, forced them open, made her cough\n\nThe treasure sure to choke the sweet beast\nGone savage with the blood tapped beyond\nToday\u2019s breath I forced shut until the body\nDemanded reversal, rejection so immediate\nIt was the gagged song of the present.</pre>\n "}, {"title": "Recuerdo", "view_node": "/poem/recuerdo-0", "field_author": "<a href=\"/poet/edna-st-vincent-millay\" hreflang=\"und\">Edna St. Vincent Millay</a>", "field_date_published": "2017", "body": " <p>\u00a0 We were very tired, we were very merry\u2014<br />\u00a0 We had gone back and forth all night on the ferry.<br />\u00a0 It was bare and bright, and smelled like a stable\u2014<br />\u00a0 But we looked into a fire, we leaned across a table,<br />\u00a0 We lay on a hill-top underneath the moon;<br />\u00a0 And the whistles kept blowing, and the dawn came soon.</p><p>\u00a0 We were very tired, we were very merry\u2014<br />\u00a0 We had gone back and forth all night on the ferry;<br />\u00a0 And you ate an apple, and I ate a pear,<br />\u00a0 From a dozen of each we had bought somewhere;<br />\u00a0 And the sky went wan, and the wind came cold,<br />\u00a0 And the sun rose dripping, a bucketful of gold.</p><p>\u00a0 We were very tired, we were very merry,<br />\u00a0 We had gone back and forth all night on the ferry.<br />\u00a0 We hailed, \"Good morrow, mother!\" to a shawl-covered head,<br />\u00a0 And bought a morning paper, which neither of us read;<br />\u00a0 And she wept, \"God bless you!\" for the apples and pears,<br />\u00a0 And we gave her all our money but our subway fares.</p> "}, {"title": "Poem ending with a murder/suicide", "view_node": "/poem/poem-ending-murdersuicide", "field_author": "<a href=\"/poet/bob-hicok\" hreflang=\"und\">Bob Hicok</a>", "field_date_published": "2017", "body": " <pre>\nIt\u2019s interesting to me there\u2019s a minimum\nbut no maximum wage. One without the other\nseems like pants without legs or love\nwithout someone to love. So what\nare the groups? People\nwho want no minimum or maximum wage;\npeople who want a minimum\nbut no maximum wage; people\nwho want a minimum\nand maximum wage; and people\nwho want to eat. A minimum wage\nof twenty bucks an hour\nis roughly eight hundred a week,\nor forty grand a year,\nor 1.6 million in a life. There\u2019s\nyour maximum wage\u20141.6 million a year.\nIf you earn in a year\nwhat I earn my entire life,\nyou deserve the right\nto be happy about it\nin a gated community\nwhere you don\u2019t have to be ashamed\nof the dance of your joy.\nI deserve the right\nto put heirloom tomatoes\nin the salad now and then.\nSuch as when my kid\ngot her cast off\nand her hand looked fine,\nlike it intended to go on waving\nat moonlight and birds.\nAnd I never thought about it\nbut slipped the insurance card\nout of my wallet and slid it over.\nAnd the car started\nthe first time\nfor the drive home\nto our little bungalow\nthat needs a new paint job,\nbut that\u2019ll happen this summer,\nright before we go to a lake\nfor a few days and I open a beer\none night and think, I have a place\nin whatever this is.\nThen listen to the stars\nsaying nothing in peace,\nthough what passes for peace\nis a mystery to me,\nnot unlike who\u2019s behind\nthe universe or why so many people\nin unions voted for people\nwho wanted to kill unions, but we did\nand they died, unions died.\nNow where on earth\nam I supposed to send the flowers?</pre>\n "}, {"title": "Mana Aboda", "view_node": "/poem/mana-aboda", "field_author": "<a href=\"/poet/t-e-hulme\" hreflang=\"und\">T. E. Hulme</a>", "field_date_published": "1912", "body": "<p>Beauty is the marking-time, the stationary vibration, the feigned ecstasy of an arrested impulse unable to reach its natural end.</p>\n\n<p>Mana Aboda, whose bent form<br />\nThe sky in arch\u00e8d circle is,<br />\nSeems ever for an unknown grief to mourn.<br />\nYet on a day I heard her cry:<br />\n'I weary of the roses and the singing poets\u2014<br />\nJosephs all, not tall enough to try.'</p>\n"}, {"title": "The Embankment", "view_node": "/poem/embankment", "field_author": "<a href=\"/poet/t-e-hulme\" hreflang=\"und\">T. E. Hulme</a>", "field_date_published": "1912", "body": "<p>(The fantasia of a fallen gentleman on a cold, bitter night.)</p>\n\n<p>Once, in finesse of fiddles found I ecstasy,<br />\nIn the flash of gold heels on the hard pavement.<br />\nNow see I<br />\nThat warmth\u2019s the very stuff of poesy.<br />\nOh, God, make small<br />\nThe old star-eaten blanket of the sky,<br />\nThat I may fold it round me and in comfort lie.</p>\n"}, {"title": "Above the Dock", "view_node": "/poem/above-dock", "field_author": "<a href=\"/poet/t-e-hulme\" hreflang=\"und\">T. E. Hulme</a>", "field_date_published": "1912", "body": "<p>Above the quiet dock in mid night,<br />\nTangled in the tall mast\u2019s corded height,<br />\nHangs the moon. What seemed so far away<br />\nIs but a child\u2019s balloon, forgotten after play.</p>\n"}, {"title": "Conversion", "view_node": "/poem/conversion-0", "field_author": "<a href=\"/poet/t-e-hulme\" hreflang=\"und\">T. E. Hulme</a>", "field_date_published": "1912", "body": "<p>Lighthearted I walked into the valley wood<br />\nIn the time of hyacinths,<br />\nTill beauty like a scented cloth<br />\nCast over, stifled me. I was bound<br />\nMotionless and faint of breath<br />\nBy loveliness that is her own eunuch.</p>\n\n<p>Now pass I to the final river<br />\nIgnominiously, in a sack, without sound,<br />\nAs any peeping Turk to the Bosphorus.</p>\n"}, {"title": "Dawn", "view_node": "/poem/dawn-2", "field_author": "<a href=\"/poet/john-gould-fletcher\" hreflang=\"en\">John Gould Fletcher</a>", "field_date_published": "2017", "body": " <p>Above the east horizon,<br />The great red flower of the dawn<br />Opens slowly, petal by petal;<br />The trees emerge from darkness<br />With ghostly silver leaves,<br />Dew powdered.<br />Now consciousness emerges<br />Reluctantly out of tides of sleep;<br />Finding with cold surprise<br />No strange new thing to match its dreams,<br />But merely the familiar shapes<br />Of bedpost, window-pane, and wall.</p><p>Within the city,<br />The streets which were the last to fall to sleep,<br />Hold yet stale fragments of the night.<br />Sleep oozes out of stagnant ash-barrels,<br />Sleep drowses over litter in the streets.<br />Sleep nods upon the milkcans by back doors.<br />And, in shut rooms,<br />Behind the lowered window-blinds,<br />Drawn white faces unwittingly flout the day.</p><p>But, at the edges of the city,<br />Sleep is already washed away;<br />Light filters through the moist green leaves,<br />It runs into the cups of flowers,<br />It leaps in sparks through drops of dew,<br />It whirls against the window-panes<br />With waking birds;<br />Blinds are rolled up and chimneys smoke,<br />Feet clatter past in silent paths,<br />And down white vanishing ways of steel,<br />A dozen railway trains converge<br />Upon night\u2019s stronghold.</p> "}, {"title": "The Skaters", "view_node": "/poem/skaters", "field_author": "<a href=\"/poet/john-gould-fletcher\" hreflang=\"en\">John Gould Fletcher</a>", "field_date_published": "2017", "body": " <p>Black swallows swooping or gliding<br />In a flurry of entangled loops and curves;<br />The skaters skim over the frozen river.<br />And the grinding click of their skates as they impinge upon the surface,<br />Is like the brushing together of thin wing-tips of silver.</p> "}, {"title": "The Swan", "view_node": "/poem/swan-0", "field_author": "<a href=\"/poet/john-gould-fletcher\" hreflang=\"en\">John Gould Fletcher</a>", "field_date_published": "2017", "body": "<p><span class=\"long-line\">Under a wall of bronze,</span><br /><span class=\"long-line\">Where beeches dip and trail</span><br /><span class=\"long-line\">Their branches in the water;</span><br /><span class=\"long-line\">With red-tipped head and wings\u2014</span><br /><span class=\"long-line\">A beaked ship under sail\u2014</span><br /><span class=\"long-line\">There glides a single swan.</span></p>\n\n<p><span class=\"long-line\">Under the autumn trees</span><br /><span class=\"long-line\">He goes. The branches quiver,</span><br /><span class=\"long-line\">Dance in the wraith-like water,</span><br /><span class=\"long-line\">Which ripples beneath the sedge</span><br /><span class=\"long-line\">With the slackening furrow that glides</span><br /><span class=\"long-line\">In his wake when he is gone:</span><br /><span class=\"long-line\">The beeches bow dark heads.</span></p>\n\n<p><span class=\"long-line\">Into the windless dusk,</span><br /><span class=\"long-line\">Where in mist great towers stand</span><br /><span class=\"long-line\">Guarding a lonely strand,</span><br /><span class=\"long-line\">That is bodiless and dim,</span><br /><span class=\"long-line\">He speeds with easy stride;</span><br /><span class=\"long-line\">And I would go beside,</span><br /><span class=\"long-line\">Till the low brown hills divide</span><br /><span class=\"long-line\">At last, for me and him.</span></p>\n"}, {"title": "Under Glass", "view_node": "/poem/under-glass", "field_author": "<a href=\"/poet/alfred-kreymborg\" hreflang=\"und\">Alfred Kreymborg</a>", "field_date_published": "2017", "body": " <p>If I could catch that moth,<br />that fluttering, wayward thing<br />that beats about inside me all the day and half the night,<br />(and insignificant net could certainly do it)<br />I\u2019d stick him through the head<br />with a pin that\u2019s long and thing,<br />a pin that long and strong enough to mount him under glass;<br />(an insignificant pin could certainly do it)<br />I\u2019d learn of him once for all,<br />the color of his wings,<br />the nature of those crazy things that fooled me all these years:<br />purple, red or blue,<br />yellow, white or black,<br />and whether they\u2019re one and all of these and a shade or two besides;<br />(an insignificant harmony or dissonance they could be)<br />I\u2019d learn them once for all,<br />I\u2019d know them, every vein,<br />so clear to all my neighbors, so invisible \u2013 to me.</p> "}, {"title": "Nocturne", "view_node": "/poem/nocturne-0", "field_author": "<a href=\"/poet/alfred-kreymborg\" hreflang=\"und\">Alfred Kreymborg</a>", "field_date_published": "2017", "body": " <p>The pantaloons are dancing,<br />dancing, through the night,<br />pure white pantaloons,<br />underneath the moon,<br />on a jolly wash line,<br />skipping from my room,<br />over to Miranda,<br />who washed them this noon.</p> "}], "pager": {"current_page": 295, "total_items": "13248", "total_pages": 663, "items_per_page": 20}}