{"rows": [{"title": "Anybody Can Write a Poem", "view_node": "/poem/anybody-can-write-poem", "field_author": "<a href=\"/poet/bradley-paul\" hreflang=\"und\">Bradley Paul</a>", "field_date_published": "2010", "body": " <pre>\nI am arguing with an idiot online.\nHe says anybody can write a poem.\nI say some people are afraid to speak.\nI say some people are <i>ashamed</i> to speak.\nIf they said the pronoun \"I\" \nthey would find themselves floating\nin the black Atlantic\nand a woman would swim by, completely \ndry, in a rose chiffon shirt, \nuntil the ashamed person says her name\nand the woman becomes wet and drowns\nand her face turns to flayed ragged pulp,\nwhite in the black water.\nHe says that he'd still write\neven if someone cut off both his hands.\nAs if it were the hands that make a poem,\nI say. I say what if someone cut out\nwhatever brain or gut or loin or heart\nthat lets you say hey, over here, listen, \nI have something to tell you all,\nI'm <i>different</i>.\nAs an example I mention my mother\nwho loved that I write poems\nand am such a wonderful genius.\nAnd then I delete the comment\nbecause my mother wanted no part of this or any\nargument, because \"Who am I \nto say whatever?\"\nOnce on a grade school form\nI entered her job as <i>hairwasher</i>.\nShe saw the form and was embarrassed and mad.\n\"You should have put <i>receptionist</i>.\"\nBut she didn't change it.\nThe last word she ever said was No.\nAnd now here she is in my poem,\nso proud of her idiot son, \nwho presumes to speak for a woman\nwho wants to tell him to shut up, but can't.</pre>\n "}, {"title": "Orange Girl Suite [excerpt]", "view_node": "/poem/orange-girl-suite-excerpt", "field_author": "<a href=\"/poet/simone-muench\" hreflang=\"und\">Simone Muench</a>", "field_date_published": "2010", "body": " <p>1:<br /><i>Young women carrying baskets of oranges used to stand near the stage in London theatres and sell oranges at sixpence apiece and themselves for little more</i></p>\n<pre>\nbetween dresses we came.\nbetween naked and nothing\nwe slipped into the delirious\ncoils of perfected ears, \n\n       pear dust on our skin\n              sarsparilla sounding our \n                     fizzied song in sailor mouths.  \n\nwe were translated by churchwomen\nwho placed umlauts over our words.\n\nwhen we recovered, we were sold \nin beautiful clothes, sent sailing into the gulf\nwhere the moon pitched\nits lemon-lateness over the celluloid\n\n       slickness of sea.  we were movie stars\n              who never entered the frame.\n                     we were green and gone\n\nlisping \"o\" words in the air:\n<i>ode, odalisque, obituary</i>.\n\n\n2: \n<i>The rynde of the orrendge is hot, and the meate within it is cold</i>\n\nthere are only two ways \n       to peel an orange\n              in fragments or in one\n       coiling brightness.\nlet us rewind and revel \n       in the orangeade of sun-\n              decked eyes. turn me spinning \n       in a carousel-sweet dress\near marked by radio teeth\n       red leaf breath.\n              your arm is on fire\n       as we ride in a dark\ncar to the carnival.\n       the constant clink \n              of seatbelt to belt buckle.\n       the sky\u2019s cotton candy\nmelting in a girl's cold mouth.</pre>\n "}, {"title": "Inland", "view_node": "/poem/inland", "field_author": "<a href=\"/poet/chase-twichell\" hreflang=\"und\">Chase Twichell</a>", "field_date_published": "2010", "body": " <pre>\nAbove the blond prairies,\nthe sky is all color and water.\nThe future moves\nfrom one part to another.\n\nThis is a note\nin a tender sequence\nthat I call love,\ntrying to include you,\nbut it is not love.\nIt is music, or time.\n\nTo explain the pleasure I take\nin loneliness, I speak of privacy,\nbut privacy is the house around it.\nYou could look inside,\nas through a neighbor's window\nat night, not as a spy\nbut curious and friendly.\nYou might think\nit was a still life you saw.\n\nSomewhere, the ocean\ncrashes back and forth\nlike so much broken glass,\nbut nothing breaks.\nAgainst itself,\nit is quite powerless.\n\nIrises have rooted\nall along the fence,\nand the barbed berry-vines\ngone haywire.\n\nUnpruned and broken,\nthe abandoned orchard\nreverts to the smaller,\nharder fruits, wormy and tart.\nIn the stippled shade,\nthe fallen pears move\nwith the soft bodies of wasps,\nand cows breathe in\nthe licorice silage.\n\nIt is silent\nwhere the future is.\nNo longer needed there,\nlove is folded away in a drawer\nlike something newly washed.\nIn the window,\nthe color of the pears intensifies,\nand the fern's sporadic dust\ndarkens the keys of the piano.\n\nClouds containing light\nspill out my sadness.\nThey have no sadness of their own.\n\nThe timeless trash of the sea\nmeans nothing to me\u2014\nits roaring descant,\nits multiple concussions.\nI love painting more than poetry.</pre>\n "}, {"title": "Incident on the Road to the Capital", "view_node": "/poem/incident-road-capital", "field_author": "<a href=\"/poet/dara-barroisdixon\" hreflang=\"und\">Dara Barrois/Dixon</a>", "field_date_published": "2010", "body": " <pre>\nA wolf had grown tired of his character and sought\nto find a means to transform himself into something \nmore vicious, more deadly. While his coat was slick,\nthick and well-colored, for he was an excellent hunter,\nhe yearned for something to do that had nothing to do \nwith survival or instinct. He no longer killed because\nhe needed to or could. All that was useless, too practical,\ntoo obvious. He wanted to kill for some other purpose.\nFor all of his successfully completed kills, his perfect\nrecord of stealth and elusion, he felt nothing. When he\nran into me the other day on his journey to consult the \noracle of escalated suffering we shared a table in the\nshade of a parasol tree in whose branches were preening\nhalf a dozen or so birds with gaudy chromatic feathers.\nA few of these fell onto the dome of his forehead but he\nwas too engrossed in his story to brush them away. He \ndidn't look like a very serious wolf. I think he was\nmissing a real opportunity.</pre>\n "}, {"title": "Mother Ann Tells Lucy What Gave Her Joy", "view_node": "/poem/mother-ann-tells-lucy-what-gave-her-joy", "field_author": "<a href=\"/poet/arra-lynn-ross\" hreflang=\"und\">Arra Lynn Ross</a>", "field_date_published": "2010", "body": " <pre>\nA moment of understanding\n     when the face lights up\n          and even the trees seem to kneel.\nThe mossy ground\n     below a huge willow\n          by the side of the marsh.\nChildren who come\n     with white faces\n          and turn pink\n               in the sun.\n\nThe sound of sawing in the woods\n          and the long lone hum\n               of a boat bearing lumber\n                    down the Hudson.\nThe sudden deer in the trees,\n          a streak of white tail\n               and the hoof prints\n                    filling with water.\n\nThe sound of voices\n          rounding out with grace,\n               with trust.\n                    And rosehip tea steaming in the sun.\nHow many times we threw off our shoes\n          and danced together,\n               the cool ground under our soles.\n                    And the mud! churned by feet, and horses,\n                       ox-carts and cows.\n          The open throats\n               and closed eyes,\n                    that red ringing\n                         inside my heart.\n\nAnd mornings that Lucy sang\n     making breakfast,\n          snatches of hymns\n               stuck together.\n\nThe long, quiet time of waiting.</pre>\n "}, {"title": "Ignatz Oasis", "view_node": "/poem/ignatz-oasis", "field_author": "<a href=\"/poet/monica-youn\" hreflang=\"und\">Monica Youn</a>", "field_date_published": "2010", "body": "<p><span class=\"long-line\">When you have left me</span><br /><span class=\"long-line\">the sky drains of color</span></p>\n\n<p><span class=\"long-line\">like the skin</span><br /><span class=\"long-line\">of a tightening fist.</span></p>\n\n<p><span class=\"long-line\">The sun commences</span><br /><span class=\"long-line\">its gold prowl</span></p>\n\n<p><span class=\"long-line\">batting at tinsel streamers</span><br /><span class=\"long-line\">on the electric fan.</span></p>\n\n<p><span class=\"long-line\">Crouching I hide</span><br /><span class=\"long-line\">in the coolness I stole</span></p>\n\n<p><span class=\"long-line\">from the brass rods </span><br /><span class=\"long-line\">of your bed.</span></p>\n"}, {"title": "The Keeper&#039;s Voice", "view_node": "/poem/keepers-voice", "field_author": "<a href=\"/poet/mike-carson\" hreflang=\"und\">Mike Carson</a>", "field_date_published": "2010", "body": " <pre>\n\u00a0\u00a0\u00a0\u00a0\u00a0\u00a0\u00a0\u00a0\u00a0\u00a0\u00a0\u00a0\u00a0\u00a0\u00a0John 3:27\n\nI felt the sound begin when just a boy\nUp in the dark, hot coffee in my gut,\nSwung open the pasture gate beside the barn,\nStepped farther into chill, thick sodden grass,\nLow mist, a few leftover stars that watched.\nAmong the clouds that split across the sky\nI felt my way still higher, climbed the fence\nAnd perched upon the corner post, breathed deep\nThe distance of the house, the city so far.\nInto this close and shifting hold of dark\nCalled long and low as Bob had taught me to\nThe milking cry the cows lost in the field\nUnderstood, not words but almost words,\nThe tone as otherworldly as I could make,\n<i>Sik caalf, sik caalf, hi yup, hi yup, sik caalf</i>\nAnd then their human names worked in, <i>Big Red</i>\n<i>Hi yup, hi yup Daisy, Shorty, hi up Bess</i>.\nOver the hill of the field I watched, no thought\nOf what the words once were that warped to this,\nLong conversation between the cows and men\nThat I, just ten, became the mystery of\nAgain, soliloquy of sounds I trolled\nAcross the emptiness, becoming just\nA voice until at last the bodies hulked\nSlow, shadowed, one by one, still made of dark\nStrung out. Then in the gathering herd I felt\nNot saw\u2014<i>Sik caalf, Brownie, hi yup, hi yup</i>\u2014\nThe udders tight, in sway, the drips of milk.\nA long moan answers, rising in our talk.</pre>\n "}, {"title": "Utensils", "view_node": "/poem/utensils", "field_author": "<a href=\"/poet/richard-o-moore\" hreflang=\"und\">Richard O. Moore</a>", "field_date_published": "2010", "body": " <pre>\nAn available palette thickened by air\nwords I hold and so fast lose.\n\nA thunder so low     an inaudible present     its slow\ncycles place me shaking in its throat.\n\nStare     and beauty opens like a work of fire\na made thing     a connection must be made.\n\nThis is to say necessity is a place made all of stares\ncome beauty     come the final ruin of the world. Stop   :\n\nfor what it may be     or was     a burned-in-after-flash of fire \nover distance measured light years. The glamour of it all.</pre>\n "}, {"title": "9.", "view_node": "/poem/9", "field_author": "<a href=\"/poet/e-e-cummings\" hreflang=\"und\">E. E. Cummings</a>", "field_date_published": "2010", "body": " <pre>\nthere are so many tictoc\nclocks everywhere telling people\nwhat toctic time it is for\ntictic instance five toc minutes toc\npast six tic\n\nSpring is not regulated and does\nnot get out of order nor do\nits hands a little jerking move\nover numbers slowly\n\n\t\t\twe do not\nwind it up it has no weights\nsprings wheels inside of\nits slender self no indeed dear\nnothing of the kind.\n\n(So,when kiss Spring comes\nwe'll kiss each kiss other on kiss the kiss\nlips because tic clocks toc don't make\na toctic difference\nto kisskiss you and to \nkiss me)</pre>\n "}, {"title": "Alcove", "view_node": "/poem/alcove", "field_author": "<a href=\"/poet/john-ashbery\" hreflang=\"und\">John Ashbery</a>", "field_date_published": "2010", "body": " <pre>\nIs it possible that spring could be\nonce more approaching? We forget each time\nwhat a mindless business it is, porous like sleep,\nadrift on the horizon, refusing to take sides, \"mugwump\nof the final hour,\" lest an agenda\u2014horrors!\u2014be imputed to it,\nand the whole point of its being spring collapse\nlike a hole dug in sand. It's breathy, though,\nyou have to say that for it.\nAnd should further seasons coagulate\ninto years, like spilled, dried paint, why,\nwho's to say we weren't provident? We indeed\nlooked out for others as though they mattered, and they,\ncatching the spirit, came home with us, spent the night\nin an alcove from which their breathing could be heard clearly.\nBut it's not over yet. Terrible incidents happen\ndaily. That's how we get around obstacles.</pre>\n "}, {"title": "A Book Said Dream and I Do", "view_node": "/poem/book-said-dream-and-i-do", "field_author": "<a href=\"/poet/barbara-ras\" hreflang=\"und\">Barbara Ras</a>", "field_date_published": "2010", "body": " <pre>\nThere were feathers and the light that passed through feathers.\n\nThere were birds that made the feathers and the sun that made the light.\n\nThe feathers of the birds made the air soft, softer\n\nthan the quiet in a cocoon waiting for wings,\n\nstiller than the stare of a hooded falcon.\n\nBut no falcons in this green made by the passage of parents.\n\nNo, not parents, parrots flying through slow sleep\n\ncasting green rays to light the long dream.\n\nIf skin, dew would have drenched it, but dust\n\nhung in space like the stoppage of\n\ntime itself, which, after dancing with parrots,\n\nhad said, Thank you. I'll rest now.\n\nIt's not too late to say the parrot light was thick\n\nenough to part with a hand, and the feathers softening\n\nthe path, fallen after so much touching of cheeks,\n\nwere red, hibiscus red split by veins of flight\n\nnow at the end of flying.\n\nDespite the halt of time, the feathers trusted red\n\nand believed indolence would fill the long dream,\n\nuntil the book shut and time began again to hurt.</pre>\n "}, {"title": "April", "view_node": "/poem/april-1", "field_author": "<a href=\"/poet/james-schuyler\" hreflang=\"und\">James Schuyler</a>", "field_date_published": "2010", "body": " <pre>\nThe morning sky is clouding up\nand what is that tree,\ndressed up in white? The fruit\ntree, French pear. Sulphur-\nyellow bees stud the forsythia\ncanes leaning down into the transfer\nacross the park. And trees in\nskimpy flower bud suggest\nthe uses of paint thinner, so\nfine the net they cast upon\nthe wind. Cross-pollination\nis the order of the fragrant day.\nThat was yesterday: today is May,\nnot April and the magnolias\nopen their goblets up and\nan unseen precipitation\nfills them. A gray day in May.</pre>\n "}, {"title": "Sharks in the Rivers", "view_node": "/poem/sharks-rivers", "field_author": "<a href=\"/poet/ada-limon\" hreflang=\"und\">Ada Lim\u00f3n</a>", "field_date_published": "2010", "body": " <pre>\nWe'll say unbelievable things \nto each other in the early morning\u2014 \n  \nour blue coming up from our roots, \nour water rising in our extraordinary limbs. \n  \nAll night I dreamt of bonfires and burn piles \nand ghosts of men, and spirits \nbehind those birds of flame. \n  \nI cannot tell anymore when a door opens or closes, \nI can only hear the frame saying, <i>Walk through</i>. \n  \nIt is a short walkway\u2014 \ninto another bedroom. \n  \nConsider the handle. Consider the key. \n  \nI say to a friend, how scared I am of sharks. \n  \nHow I thought I saw them in the creek \nacross from my street. \n  \nI once watched for them, holding a bundle \nof rattlesnake grass in my hand, \nshaking like a weak-leaf girl. \n  \nShe sends me an article from a recent <i>National Geographic</i> that says, \n  \n<i>Sharks bite fewer people each year than \nNew Yorkers do, according to Health Department records.</i> \n  \nThen she sends me on my way. Into the City of Sharks. \n  \nThrough another doorway, I walk to the East River saying, \n  \n<i>Sharks are people too. \nSharks are people too. \nSharks are people too.</i> \n  \nI write all the things I need on the bottom \nof my tennis shoes. I say, <i>Let's walk together</i>. \n  \nThe sun behind me is like a fire. \nTiny flames in the river's ripples. \n  \nI say something to God, but he's not a living thing, \nso I say it to the river, I say, \n  \n<i>I want to walk through this doorway \nBut without all those ghosts on the edge, \nI want them to stay here. \nI want them to go on without me. \n  \nI want them to burn in the water.</i></pre>\n "}, {"title": "Translating Garcia Lorca", "view_node": "/poem/translating-garcia-lorca", "field_author": "<a href=\"/poet/mark-statman\" hreflang=\"und\">Mark Statman</a>", "field_date_published": "2010", "body": " <pre>\n\t\t<i>for Pablo Medina</i>\n\nthe danger is not\nthat he'll take over\n<i>my</i> poems\nbut that when it happens\nI won't know\n\n(image of cow, of horse\nof cadaver or sleepy river\nor a pure and less \nthan innocent love)\n\nso when someone points it out\nI won't see\u2014\nalready eaten\ndevoured</pre>\n "}, {"title": "Born Late", "view_node": "/poem/born-late", "field_author": "<a href=\"/poet/david-dodd-lee\" hreflang=\"und\">David Dodd Lee</a>", "field_date_published": "2010", "body": " <pre>\nA block of soap\ncarved to look like Pan\n\nand that's just what came in the mail\n\na volcano under those flip flops\n\nkisses spilling off the water-wheel\n\n<i>Green becomes a stillness leftover in the late-born effluence\nof a decade's worth of smoke and flat beer</i>\n\n(I can't get any air)\n\nbecause there was no acoustic guitar\n\njust dust scraped off an anxious moth's wings</pre>\n "}, {"title": "Abraham Davenport [excerpt]", "view_node": "/poem/abraham-davenport-excerpt", "field_author": "<a href=\"/poet/john-greenleaf-whittier\" hreflang=\"und\">John Greenleaf Whittier</a>", "field_date_published": "1866", "body": " <pre>\nIn the old days (a custom laid aside\nWith breeches and cocked hats) the people sent\nTheir wisest men to make the public laws.\nAnd so, from a brown homestead, where the Sound\nDrinks the small tribute of the Mianas,\nWaved over by the woods of Rippowams,\nAnd hallowed by pure lives and tranquil deaths,\nStamford sent up to the councils of the State\nWisdom and grace in Abraham Davenport.\n\n'T was on a May-day of the far old year\nSeventeen hundred eighty, that there fell\nOver the bloom and sweet life of the Spring\nOver the fresh earth and the heaven of noon,\nA horror of great darkness, like the night\nIn day of which the Norland sagas tell,\u2014\nThe Twilight of the Gods. The low-hung sky\nWas black with ominous clouds, save where its rim\nWas fringed with a dull glow, like that which climbs\nThe crater's sides from the red hell below.\nBirds ceased to sing, and all the barnyard fowls\nRoosted; the cattle at the pasture bars\nLowed, and looked homeward; bats on leathern wings\nFlitted abroad; the sounds of labor died;\nMen prayed, and women wept; all ears grew sharp\nTo hear the doom-blast of the trumpet shatter\nThe black sky, that the dreadful face of Christ\nMight look from the rent clouds, not as he looked\nA loving guest at Bethany, but stern\nAs Justice and inexorable Law.\n\t\nMeanwhile in the old State-House, dim as ghosts,\nSat the lawgivers of Connecticut,\nTrembling beneath their legislative robes.\n\"It is the Lord's Great Day! Let us adjourn,\"\nSome said; and then, as if with one accord,\nAll eyes were turned to Abraham Davenport.\nHe rose, slow cleaving with his steady voice\nThe intolerable hush. \"This well may be\nThe Day of Judgment which the world awaits;\nBut be it so or not, I only know\nMy present duty, and my Lord's command\nTo occupy till He come. So at the post\nWhere he hast set me in His providence,\nI choose, for one, to meet Him face to face,\u2014\nNo faithless servant frightened from my task,\nBut ready when the Lord of the harvest calls;\nAnd therefore, with all reverence, I would say,\nLet God do His work, we will see to ours.\nBring in the candles.\" And they brought them in.\n\nThen by the flaring lights the Speaker read,\nAlbeit with husky voice and shaking hands,\nAn act to amend an act to regulate\nThe shad and alewive fisheries, Whereupon\nWisely and well spake Abraham Davenport,\nStraight to the question, with no figures of speech\nSave the ten Arab signs, yet not without\nThe shrewd dry humor natural to the man:\nHis awe-struck colleagues listening all the while,\nBetween the pauses of his argument,\nTo hear the thunder of the wrath of God\nBreak from the hollow trumpet of the cloud.\n\nAnd there he stands in memory to this day,\nErect, self-poised, a rugged face, half seen\nAgainst the background of unnatural dark,\nA witness to the ages as they pass,\nThat simple duty hath no place for fear.</pre>\n "}, {"title": "The Enkindled Spring", "view_node": "/poem/enkindled-spring", "field_author": "<a href=\"/poet/d-h-lawrence\" hreflang=\"und\">D. H. Lawrence</a>", "field_date_published": "1916", "body": "<p><span class=\"long-line\">This spring as it comes bursts up in bonfires green,</span><br /><span class=\"long-line\">Wild puffing of emerald trees, and flame-filled bushes,</span><br /><span class=\"long-line\">Thorn-blossom lifting in wreaths of smoke between</span><br /><span class=\"long-line\">Where the wood fumes up and the watery, flickering rushes.</span></p>\n\n<p><span class=\"long-line\">I am amazed at this spring, this conflagration </span><br /><span class=\"long-line\">Of green fires lit on the soil of the earth, this blaze</span><br /><span class=\"long-line\">Of growing, and sparks that puff in wild gyration,</span><br /><span class=\"long-line\">Faces of people streaming across my gaze.</span></p>\n\n<p><span class=\"long-line\">And I, what fountain of fire am I among</span><br /><span class=\"long-line\">This leaping combustion of spring? My spirit is tossed</span><br /><span class=\"long-line\">About like a shadow buffeted in the throng</span><br /><span class=\"long-line\">Of flames, a shadow that's gone astray, and is lost.</span></p>\n"}, {"title": "Spring in New Hampshire", "view_node": "/poem/spring-new-hampshire", "field_author": "<a href=\"/poet/claude-mckay\" hreflang=\"und\">Claude McKay</a>", "field_date_published": "1920", "body": " <pre>\nToo green the springing April grass, \nToo blue the silver-speckled sky, \nFor me to linger here, alas, \nWhile happy winds go laughing by, \nWasting the golden hours indoors, \nWashing windows and scrubbing floors. \n\nToo wonderful the April night, \nToo faintly sweet the first May flowers, \nThe stars too gloriously bright, \nFor me to spend the evening hours, \nWhen fields are fresh and streams are leaping, \nWearied, exhausted, dully sleeping.</pre>\n "}, {"title": "Spring", "view_node": "/poem/spring", "field_author": "<a href=\"/poet/gerard-manley-hopkins\" hreflang=\"und\">Gerard Manley Hopkins</a>", "field_date_published": "1918", "body": " <pre>\nNothing is so beautiful as spring\u2014\t\n\u00a0\u00a0When weeds, in wheels, shoot long and lovely and lush;\t\n\u00a0\u00a0Thrush's eggs look little low heavens, and thrush\t\nThrough the echoing timber does so rinse and wring\t\nThe ear, it strikes like lightnings to hear him sing;\t\n\u00a0\u00a0The glassy peartree leaves and blooms, they brush\t\n\u00a0\u00a0The descending blue; that blue is all in a rush\t\nWith richness; the racing lambs too have fair their fling.\t \t\nWhat is all this juice and all this joy?\t\n\u00a0\u00a0A strain of the earth's sweet being in the beginning\t\nIn Eden garden.\u2014Have, get, before it cloy,\t\n\u00a0\u00a0Before it cloud, Christ, lord, and sour with sinning,\t\nInnocent mind and Mayday in girl and boy,\t\n\u00a0\u00a0Most, O maid's child, thy choice and worthy the winning.</pre>\n "}, {"title": "Follies", "view_node": "/poem/follies", "field_author": "<a href=\"/poet/carl-sandburg\" hreflang=\"und\">Carl Sandburg</a>", "field_date_published": "1916", "body": " <pre>\nShaken,\t\nThe blossoms of lilac,\t\n  And shattered,\t\nThe atoms of purple.\t\nGreen dip the leaves,\t      \n  Darker the bark,\t\nLonger the shadows.\t\n \t\nSheer lines of poplar\t\nShimmer with masses of silver\t\nAnd down in a garden old with years\t       \nAnd broken walls of ruin and story,\t\nRoses rise with red rain-memories.\t\n      May!\t\n  In the open world\t\nThe sun comes and finds your face,\t       \n  Remembering all.</pre>\n "}], "pager": {"current_page": 500, "total_items": "13248", "total_pages": 663, "items_per_page": 20}}