{"rows": [{"title": "The Spirit of the Staircase", "view_node": "/poem/spirit-staircase", "field_author": "<a href=\"/poet/lavinia-greenlaw\" hreflang=\"und\">Lavinia Greenlaw</a>", "field_date_published": "2003", "body": " <pre>\nIn our game of flight, half-way down\nwas as near mid-air as it got: a point\nof no return we\u2019d fling ourselves at\nover and over, riding pillows or trays.\nWe were quick to smooth the edge\nof every step, grinding the carpet to glass\non which we\u2019d lose our grip.\nThe new stairs were our new toy,\nthe descent to an odd extension,\nfour new rooms at flood level\nin a sunken garden \u2014 a wing\ndislocated from a hive. Young bees\nwith soft stripes and borderless nights,\nwe\u2019d so far been squared away\nin a twin-set of bunkbeds, so tight-knit,\nmy brother and I once woke up finishing\na conversation begun in a dream.\nIt had been the simplest exchange,\none I\u2019d give much to return to:\nthe greetings of shadows unsurprised\nat having met beneath the trees\nand happy to set off again, alone,\nback into the dark.</pre>\n "}, {"title": "One of the Lives", "view_node": "/poem/one-lives", "field_author": "<a href=\"/poet/w-s-merwin\" hreflang=\"und\">W. S. Merwin</a>", "field_date_published": "1996", "body": " <pre>\nIf I had not met the red-haired boy whose father\n               had broken a leg parachuting into Provence\nto join the resistance in the final stage of the war\n               and so had been killed there as the Germans were moving north\nout of Italy and if the friend who was with him\n               as he was dying had not had an elder brother\nwho also died young quite differently in peacetime\n               leaving two children one of them with bad health\nwho had been kept out of school for a whole year by an illness\n               and if I had written anything else at the top \nof the examination form where it said college\n               of your choice or if the questions that day had been\nput differently and if a young woman in Kittanning\n               had not taught my father to drive at the age of twenty\nso that he got the job with the pastor of the big church \n               in Pittsburgh where my mother was working and if \nmy mother had not lost both parents when she was a child\n               so that she had to go to her grandmother\u2019s in Pittsburgh\nI would not have found myself on an iron cot\n               with my head by the fireplace of a stone farmhouse\nthat had stood empty since some time before I was born\n               I would not have travelled so far to lie shivering\nwith fever though I was wrapped in everything in the house\n               nor have watched the unctuous doctor hold up his needle\nat the window in the rain light of October\n               I would not have seen through the cracked pane the darkening\nvalley with its river sliding past the amber mountains\n               nor have wakened hearing plums fall in the small hour\nthinking I knew where I was as I heard them fall</pre>\n "}, {"title": "Hard Night", "view_node": "/poem/hard-night", "field_author": "<a href=\"/poet/christian-wiman\" hreflang=\"und\">Christian Wiman</a>", "field_date_published": "2005", "body": " <pre>\nWhat words or harder gift\ndoes the light require of me\ncarving from the dark\nthis difficult tree?\n\nWhat place or farther peace\ndo I almost see\nemerging from the night\nand heart of me?\n\nThe sky whitens, goes on and on.\nFields wrinkle into rows\nof cotton, go on and on.\nNight like a fling of crows\ndisperses and is gone.\n\nWhat song, what home,\nwhat calm or one clarity\ncan I not quite come to,\nnever quite see:\nthis field, this sky, this tree.</pre>\n "}, {"title": "Ars Poetica (cocoons)", "view_node": "/poem/ars-poetica-cocoons", "field_author": "<a href=\"/poet/dana-levin\" hreflang=\"und\">Dana Levin</a>", "field_date_published": "2005", "body": " <pre>\nSix monarch butterfly cocoons\n      clinging to the back of your throat\u2014\n\n      you could feel their gold wings trembling.\n\nYou were alarmed. You felt infested.\nIn the downstairs bathroom of the family home,\n      gagging to spit them out\u2014\n            and a voice saying <i>Don\u2019t, don\u2019t\u2014</i></pre>\n "}, {"title": "#4", "view_node": "/poem/4", "field_author": "<a href=\"/poet/jane-miller\" hreflang=\"und\">Jane Miller</a>", "field_date_published": "1980", "body": " <pre>\nDo you know how long it has been since a moral choice presented itself\n\nand the wrong choice was made\n\nnot two minutes\n\nwhy is it not quiet between lightning and thunder as if someone were asking\n\ndo you have other articulable feelings  if so express them now\n\ntragedy ensues\n\nwith a laser blast from the cockpit\n\nthe dangled finger of God makes contact\n\nPLEASE CALL FOR SEVERAL THOUSAND PHYSICIANS QUICKLY</pre>\n "}, {"title": "Tomorrow", "view_node": "/poem/tomorrow", "field_author": "<a href=\"/poet/david-budbill\" hreflang=\"und\">David Budbill</a>", "field_date_published": "2005", "body": " <pre>\nTomorrow \nwe are\nbones and ash, \nthe roots of weeds\npoking through\nour skulls. \n\nToday,\nsimple clothes,\nempty mind, \nfull stomach,\nalive, aware,\nright here,\nright now.\n\nDrunk on music,\nwho needs wine?\n\nCome on, \nSweetheart,\nlet's go dancing\nwhile we still \nhave feet. </pre>\n "}, {"title": "The Meaning of Zero: A Love Poem", "view_node": "/poem/meaning-zero-love-poem", "field_author": "<a href=\"/poet/amy-uyematsu\" hreflang=\"und\">Amy Uyematsu</a>", "field_date_published": "2005", "body": " <pre>\n          \u2014Is where space ends called death or infinity?\n                         Pablo Neruda, <i>The Book of Questions</i>\n\n\nA mere eyelid\u2019s distance between you and me.\n\nIt took us a long time to discover the number zero.\n\nJohn\u2019s brother is afraid to go outside.\nHe claims he knows\nthe meaning of zero.\n\nI want to kiss you.\n\nA mathematician once told me you can add infinity \nto infinity.\n\nThere is a zero vector, which starts and ends\nat the same place, its force\nand movement impossible\nto record with\nrays or maps or words.\nIt intersects yet runs parallel\nwith all others.\n\nA young man I know \nwants me to prove\nthe zero vector exists.\nI tell him I can't,\nbut nothing in my world\nmakes sense without it.</pre>\n "}, {"title": "Still Another Day: I", "view_node": "/poem/still-another-day-i", "field_author": "<a href=\"/poet/pablo-neruda\" hreflang=\"und\">Pablo Neruda</a>", "field_date_published": "2005", "body": " <pre>\nToday is that day, the day that carried\na desperate light that since has died.\nDon't let the squatters know:\nlet\u2019s keep it all between us,\nday, between your bell\nand my secret.\n\nToday is dead winter in the forgotten land\nthat comes to visit me, with a cross on the map\nand a volcano in the snow, to return to me,\nto return again the water\nfallen on the roof of my childhood.\nToday when the sun began with its shafts\nto tell the story, so clear, so old,\nthe slanting rain fell like a sword,\nthe rain my hard heart welcomes.\n\nYou, my love, still asleep in August,\nmy queen, my woman, my vastness, my geography\nkiss of mud, the carbon-coated zither,\nyou, vestment of my persistent song,\ntoday you are reborn again and with the sky\u2019s\nblack water confuse me and compel me:\nI must renew my bones in your kingdom,\nI must still uncloud my earthly duties.</pre>\n "}, {"title": "Still Another Day: XVII/Men", "view_node": "/poem/still-another-day-xviimen", "field_author": "<a href=\"/poet/pablo-neruda\" hreflang=\"und\">Pablo Neruda</a>", "field_date_published": "2005", "body": " <pre>\nThe truth is in the prologue.  Death to the romantic fool,\nto the expert in solitary confinement,\nI\u2019m the same as the teacher from Colombia,\nthe rotarian from Philadelphia, the merchant\nfrom Paysandu who save his silver\nto come here.  We all arrive by different streets,\nby unequal languages, at Silence.</pre>\n "}, {"title": "Failing and Flying", "view_node": "/poem/failing-and-flying", "field_author": "<a href=\"/poet/jack-gilbert\" hreflang=\"und\">Jack Gilbert</a>", "field_date_published": "2005", "body": "<p><span class=\"long-line\">Everyone forgets that Icarus also flew.</span><br /><span class=\"long-line\">It's the same when love comes to an end,</span><br /><span class=\"long-line\">or the marriage fails and people say</span><br /><span class=\"long-line\">they knew it was a mistake, that everybody</span><br /><span class=\"long-line\">said it would never work. That she was</span><br /><span class=\"long-line\">old enough to know better. But anything</span><br /><span class=\"long-line\">worth doing is worth doing badly.</span><br /><span class=\"long-line\">Like being there by that summer ocean</span><br /><span class=\"long-line\">on the other side of the island while</span><br /><span class=\"long-line\">love was fading out of her, the stars</span><br /><span class=\"long-line\">burning so extravagantly those nights that</span><br /><span class=\"long-line\">anyone could tell you they would never last.</span><br /><span class=\"long-line\">Every morning she was asleep in my bed</span><br /><span class=\"long-line\">like a visitation, the gentleness in her</span><br /><span class=\"long-line\">like antelope standing in the dawn mist.</span><br /><span class=\"long-line\">Each afternoon I watched her coming back</span><br /><span class=\"long-line\">through the hot stony field after swimming,</span><br /><span class=\"long-line\">the sea light behind her and the huge sky</span><br /><span class=\"long-line\">on the other side of that. Listened to her</span><br /><span class=\"long-line\">while we ate lunch. How can they say</span><br /><span class=\"long-line\">the marriage failed? Like the people who</span><br /><span class=\"long-line\">came back from Provence (when it was Provence)</span><br /><span class=\"long-line\">and said it was pretty but the food was greasy.</span><br /><span class=\"long-line\">I believe Icarus was not failing as he fell,</span><br /><span class=\"long-line\">but just coming to the end of his triumph.</span></p>\n"}, {"title": "Searchers", "view_node": "/poem/searchers", "field_author": "<a href=\"/poet/d-nurkse\" hreflang=\"und\">D. Nurkse</a>", "field_date_published": "2005", "body": " <pre>\nWe gave our dogs a button to sniff,\nor a tissue, and they bounded off\nconfident in their training,\nin the power of their senses\nto re-create the body,\n\nbut after eighteen hours in rubble\nwhere even steel was pulverized\nthey curled on themselves\nand stared up at us\nand in their soft huge eyes\nwe saw mirrored the longing for death:\n\nthen we had to beg a stranger\nto be a victim and crouch\nbehind a girder, and let the dogs\ndiscover him and tug him\nproudly, with suppressed yaps,\nback to Command and the rows\nof empty triage tables.\n\nBut who will hide from us?\nWho will keep digging for us\nhere in the cloud of ashes?</pre>\n "}, {"title": "Es/chew", "view_node": "/poem/eschew", "field_author": "<a href=\"/poet/liz-waldner\" hreflang=\"und\">Liz Waldner</a>", "field_date_published": "2004", "body": " <pre>\n<i>The better to hear\nyou with, my dear.</i>\n\nCome right\nin, prayer.\n\nLet those who have ears to hear, hear.\n<i>(Ab. Sourd, bien s\u00fbr.)</i>\n\nOf course, of course.\n<i>Amo, amas:</i>\n\nHe listens.\nShe glistens.\n\nDear god, don't\nlet me use.\n\nShadows wave. Wane.\nWeather, and in that vein,\n\na work of translation:\nshoot up, get high.\n\nPlough the clouds.\nSky furrows, the brow\n\nof night, an evil\nthought, a star\n\nespecially bright:\nanger, just that.\n\nScat, track, shit, horse\nand what'd he just throw in our yard?\n\nOf night, a needle.\nErose, the petal\n\nof the rosary to ring\ngod's words around.\n\nErose, those words\nin the mouth of night.\n\nwhere no teeth\nare.</pre>\n "}, {"title": "Seeing As [excerpt]", "view_node": "/poem/seeing-excerpt", "field_author": "<a href=\"/poet/lance-phillips\" hreflang=\"und\">Lance Phillips</a>", "field_date_published": "2004", "body": " <pre>\nSUPPERADDING HANDCUP COLLARHAND UP SHAFT TO BEAD\nTONGUE/RINGDOVE\nI ENJOY SKIN TURNING IN BLUE LUMP LATERAL AROUND\n1] OHIO\n2] THE UTOPIAN SOCIETY\n\n\n\nSHE HIS CHEST THE LIFTING ONTO MOVING UP LEFT\nA GRASSED-IN PLACE\nTHE WAY BITE IS AMMA\nSPIRAL\n\n\n\nINDEX THE DRAGGING UP UNDERSIDE FROM SAC\n\nMIRRORING COMING INTO TRUNK GRIP\n\nTHE TEN AFFINITIES TO ORIFICE RED ABOVE\nEITHER LATERAL\n\nMIRRORING DRINKING GOURD\n\n\n\nSAYING HIS MOVE\nSURROUNDING ORIFICE ROSY OVAL\nHOMOGENEOUS BONNET AND AIM\nTOAD\u2019S THE STRUCTURE AT SLEEP CONECIRCLECONE\n\n\n\n\nHANDCUP THE EAST THE WEST\nCOLLARHAND THE NORTH THE SOUTH\nAGAIN BOLT\nFIG\nTHE FIGMILK CATALYZING PANSY EXTENDING EVERYWHERE\nROLLING OVER THE ONE THE OTHER FIG\nWARMING LATERAL SURFACE WARMING-TO THUMB/NIPPLE\n\n\n\n\nSPLIT FIG\u2019S TWO ARCS ABUTMENT THEN ARROW FORCE\nBETWEEN THE CHESTS BLUEWHITE</pre>\n "}, {"title": "Angel Saint", "view_node": "/poem/angel-saint", "field_author": "<a href=\"/poet/lilah-hegnauer\" hreflang=\"und\">Lilah Hegnauer</a>", "field_date_published": "2005", "body": " <pre>\nfor Ssenono Vicent (9/1984 - 9/2003) \n\n<span class=\"long-line\">If I could choose, if it was possible, if I was worthy, if babies homes weren\u2019t crowded</span> \n<span class=\"long-line\">if aunts and grandparents weren\u2019t overburdened and I could take it all back </span>\n<span class=\"long-line\">to the point where no man had sinned, I would rather be an angel than a saint.</span>\n\n<span class=\"long-line\">I would rather float close to God and close to men than be canonized by men. </span>\n<span class=\"long-line\">I\u2019m dying and I see a light, I\u2019m dying and I see my creator, I\u2019m dying </span>\n<span class=\"long-line\">and the heat which fills my veins finally calls my lifelong bluffing</span>\n<span class=\"long-line\">\nand I leave. Life\u2019s been so long in coming and so quick in going \u2014 somewhere between </span>\n<span class=\"long-line\">watching my parents turn hollow and smelling the rainy season come on again</span>\n<span class=\"long-line\">and again life must have happened because now it\u2019s stopping and I can\u2019t find </span>\n\n<span class=\"long-line\">the part where life happened at all. Once, madam was explaining a sonnet and the turns </span>\n<span class=\"long-line\">it can take at the end and the tensions its form carries and I thought my life is less sonnet </span>\n<span class=\"long-line\">and more rhymed couplet \u2014 beginning, it is nearly done and ending, it is still being propelled.</span>\n\n<span class=\"long-line\">My lantern is fading, my coal is cooling. I want to leave this world and find another, </span>\n<span class=\"long-line\">not stay remembered here where only Ugandans would notice me looking out </span>\n<span class=\"long-line\">from prayer cards. They\u2019ll pray and I\u2019ll have to be the mendicant for their </span>\n\n<span class=\"long-line\">eyelid lesions and pointed ribs, their mouth sores, night sweats, and patching hair; </span>\n<span class=\"long-line\">so let me be an angel, let me watch again from above. I\u2019ll stop begging and </span>\n<span class=\"long-line\">start living; please give it up, please give me up, please \u2014 I want to go and meet them \u2014 </span>\n\n<span class=\"long-line\">the saints I prayed to, the angels who watched over me, the God who made me </span>\n<span class=\"long-line\">in his image. I want to see if he has shrunken muscles, too and know if his mouth </span>\n<span class=\"long-line\">grows dry in the night so he wakes swollen and cracking. I want this heat, this choice.</span></pre>\n "}, {"title": "Light By Which I Read", "view_node": "/poem/light-which-i-read", "field_author": "<a href=\"/poet/eric-pankey\" hreflang=\"und\">Eric Pankey</a>", "field_date_published": "2005", "body": " <pre>\nOne does not turn to the rose for shade, nor the charred song of the \n      redwing for solace.\nThis past I patch with words is a flaw in the silvering, \n                                                         memory seen \n        through to.\nThere I find the shallow autumn waters, the three stolen pears,\nThe horizon edged with chalk, loose where the fabric frayed.\nEach yesterday glacier-scored, each a dark passage illumined by a \n       honeycomb.\n\n                                  *\n\nI begin to fathom the brittle intricacy of the window\u2019s scrim of ice.\nFor years, I managed without memory\u2014stalled, unnumbered, \n       abridged\u2014 \nNo more alive than a dismembered saint enthroned in two hundred \n       reliquaries.\nNow, it is hard not to say <i>I remember</i>, \n                                      hard, in fact, not to remember.\nNow, I hear the filament\u2019s quiver, its annoying high frequency, light \n       by which I read.\n\n                                  *\n\nRiver mist, mudbanks, and rushes mediate the dark matter \nBetween two tomorrows: \n                      one an archive of chance effects, \nThe other a necropolis of momentary appearances and sensations.\nOne, a stain of green, where a second wash bleeds into the first.\nThe other time-bound, fecund, slick with early rain.\n\n                                  *\n\nAs if to impose a final hermeneutic, all at once the cicadas wind down.\nThe gooseberry bush looms like a moon: each berry taut, sour, aglow.\nThe creek runs tar in the cloud-light, mercury at dusk.\nThen the frogs start up. \n                        Clay-cold at the marrow. A hollow pulse-tick.\nAnd it seems, at last, I\u2019ve shed my scorched and papery husk.</pre>\n "}, {"title": "Fascination", "view_node": "/poem/fascination", "field_author": "<a href=\"/poet/charles-o-hartman\" hreflang=\"und\">Charles O. Hartman</a>", "field_date_published": "2004", "body": " <pre>\nHe buys a glass mask; now under the water he can see.\nHe buys frogfeet to swim to what he sees, and a tube\nso he can breathe. After a while he buys a spear\n<span class=\"long-line\">with three barbs, and though he draws the line at a gun with elastics,</span>\nnow he can impale what he sees. Everything stays away then,\nof course, but he is fascinated by his new powers,\nhe carries his things everywhere in a canvas bag,\n<span class=\"long-line\">and some nights he gets up secretly and in the dark he puts it all on</span>\n<span class=\"long-line\">and gazes at his watery reflection in the mirror of the sideboard.</span>\n<span class=\"long-line\">Everyone sleeps, and the soft flopping of his feet through the house</span>\nbarely disturbs the mice.</pre>\n "}, {"title": "Jaywalking the Is: &quot;First Dream&quot; [excerpt]", "view_node": "/poem/jaywalking-first-dream-excerpt", "field_author": "<a href=\"/poet/noah-eli-gordon\" hreflang=\"und\">Noah Eli Gordon</a>", "field_date_published": "2004", "body": " <pre>\nTo say sleep works by accumulation is to disregard the\nweather in my head.\n\nIt makes a genius of the pillow, an apt anthropomorphic\nredundancy.\n\nWhen the story stumbles into its fearless costume &amp;\neveryone at the edge of the woods is worried their waiting-\nroom bravado won't open to anything but the same door on\nthe same house that seemed a little off in the morning,\nevery anecdote has an empty object.\n\nWhen your own name's written on the gate, negation is just\nsomething we do.\n\nWhat's redundant about the human personal? The urge to cull\nan animal pronoun from a procession of wedding guests?\n\nAt least reductive absolutes rivet you somewhere closer to\nthe actual rainfall, adjudicating ultimatums or handling\nthe ounce of mulch it takes to cover any experience worth\ncalling tactile.\n\nThere's nothing sharp about a knife in a movie.\n\n&amp; doesn't it make you fearless &amp; brave to say so.</pre>\n<pre>\n</pre>\n "}, {"title": "osculation for easter flower", "view_node": "/poem/osculation-easter-flower", "field_author": "<a href=\"/poet/sandra-miller\" hreflang=\"und\">Sandra Miller</a>", "field_date_published": "2005", "body": " <p>if we weren't made of soot\u2014which we highly suspected/respected in her garden\u2014she had no garden we did not love her\u2014we did not let her picture fall from our wall forgive &amp; foment\u2014no one kissed me where like bad jewels\u2014good black dirt what song can't do &amp; does\u2014magnificent thumper in the wild 'the secret blackness of milk'\u2014'sordid intimacy of the abyss' when it became a corolla\u2014flickers you are like an angel\u2014yelling for attention\u2014still more still my lamentation is as perfect\u2014an almond a shell her eyes an altitude\u2014amnesic lover gathered her skirts\u2014to the blond chapel altarbirds follow us\u2014herehere herehere</p> "}, {"title": "Vietnam Epic Treatment", "view_node": "/poem/vietnam-epic-treatment", "field_author": "<a href=\"/poet/donald-revell\" hreflang=\"und\">Donald Revell</a>", "field_date_published": "2005", "body": " <pre>\nIt doesn't matter\nA damn what's playing\u2014\nIn the dead of winter\nYou go, days of 1978 -\n79, and we went\nBecause the soldiers were beautiful\nAnd doomed as Asian jungles\nKept afire Christ-like\nIn the hopeless war\nI did not go to in the end\nBecause it ended.\n\nThe 20th-century?\nIt was a war\nBetween peasants on the one side,\nHallucinations on the other.\nA peasant is a fire that burns\nBut is not consumed.\nHis movie never ends.\nIt will be beautiful\nEvery winter of our lives, my love,\nAs Christ crushes fire into his wounds\nAnd the wounds are a jungle.\nEqually, no matter when their movies end,\nHallucinations destroy the destroyers.\nThat's all.\nThere has never been a President of the United States.\n\nAnd the 21st-century?\nHallucination vs. hallucination\nIn cold battle, in dubious battle,\nNo battle at all because the peasants\nHave gone away far\nInto the lost traveler's dream,\nInto a passage from Homer,\nA woodcutter's hillside\nPeacetime superstition movie.\nOn a cold night, Hector.\nOn a cold night, Achilles.\nAround the savage and the maniac\nThe woodcutter draws a ring of fire.\nIt burns all winter long.\nHe never tires of it\nAnd for good reason:\nEvery face of the flames is doomed and beautiful;\nEvery spark that shoots out into the freezing air\nIs God's truth\nGiven us all over again\nIn the bitter weather of men's\nHallucinations. There has never been\nA President of the United States.\nThere has never been a just war.\nThere has never been any life\nBeyond this circle of firelight\nUntil now if now is no dream but an Asia.</pre>\n "}, {"title": "Upon Discovering My Entire Solution to the Attainment of Immortality Erased from the Blackboard Except the Word &#039;Save&#039;", "view_node": "/poem/upon-discovering-my-entire-solution-attainment-immortality-erased-blackboard-except-word-save", "field_author": "<a href=\"/poet/dobby-gibson\" hreflang=\"und\">Dobby Gibson</a>", "field_date_published": "2005", "body": " <pre>\nIf you have seen the snow\nsomewhere slowly fall\non a bicycle,\nthen you understand\nall beauty will be lost\nand that even loss\ncan be beautiful.\nAnd if you have looked\nat a winter garden\nand seen not a winter garden\nbut a meditation on shape,\nthen you understand why\nthis season is not\nknown for its words,\nthe cold too much \nabout the slowing of matter,\nnot enough about the making of it.\nSo you are blessed\nto forget this way:\njump rope in the ice melt,\na mitten that has lost its hand,\na sun that shines\nas if it doesn't mean it.\nAnd if in another season\nyou see a beautiful woman\nuse her bare hands\nto smooth wrinkles\nfrom her expensive dress\nfor the sake of dignity,\nbut in so doing reveal\nthe outlines of her thighs,\nthen you will remember\nsurprise assumes a space\nthat has first been forgotten,\nespecially here, where we\nrarely speak of it,\nwhere we walk out onto the roofs\nof frozen lakes\nsimply because we're stunned\nwe really can.</pre>\n "}], "pager": {"current_page": 604, "total_items": "13248", "total_pages": 663, "items_per_page": 20}}