{"rows": [{"title": "A Walk Along the Old Tracks", "view_node": "/poem/walk-along-old-tracks", "field_author": "<a href=\"/poet/robert-kinsley\" hreflang=\"und\">Robert Kinsley</a>", "field_date_published": "1998", "body": " <pre>\nWhen I was young they had already been\nabandoned for years\novergrown with sumac and sour apple,\nthe iron scrapped, the wood long\ngone for other things.\nIn summer my father would send us along them\nto fetch the cows from the back pasture,\na long walk to a far off place it seemed\nfor boys so young. Lost again for a moment\nin that simple place,\nI fling apples from a stick and look for snakes\nin the gullies. There is\na music to the past, the sweet tones\nof perfect octaves\neven though we know it was never so.\nMy father had to sell the farm in that near perfect time\nand once old Al Shott killed a six foot rattler on the tracks.\n\"And when the trolly was running\" he said, \"you could jump\nher as she went by and ride all the way to Cleveland,\nand oh,\" he said, \"what a time you could have there.\"</pre>\n "}, {"title": "blessing the boats", "view_node": "/poem/blessing-boats", "field_author": "<a href=\"/poet/lucille-clifton\" hreflang=\"und\">Lucille Clifton</a>", "field_date_published": "2001", "body": "<p>(at St. Mary\u2019s)</p>\n<p>may the tide<br />\nthat is entering even now<br />\nthe lip of our understanding<br />\ncarry you out<br />\nbeyond the face of fear<br />\nmay you kiss<br />\nthe wind then turn from it<br />\ncertain that it will<br />\nlove your back may you<br />\nopen your eyes to water<br />\nwater waving forever<br />\nand may you in your innocence<br />\nsail through this to that</p>\n"}, {"title": "Passing Through Albuquerque", "view_node": "/poem/passing-through-albuquerque", "field_author": "<a href=\"/poet/john-balaban\" hreflang=\"und\">John Balaban</a>", "field_date_published": "1991", "body": " <pre>\nAt dusk, by the irrigation ditch\ngurgling past backyards near the highway,\nlocusts raise a maze of calls in cottonwoods.\n\nA Spanish girl in a white party dress\nstrolls the levee by the muddy water\nwhere her small sister plunks in stones.\n\nBeyond a low adobe wall and a wrecked car\nmen are pitching horseshoes in a dusty lot.\nSomeone shouts as he clangs in a ringer.\n\nBig winds buffet in ahead of a storm,\nrocking the immense trees and whipping up\nclouds of dust, wild leaves, and cottonwool.\n\nIn the moment when the locusts pause and the girl\npresses her up-fluttering dress to her bony knees\nyou can hear a banjo, guitar, and fiddle\n\nplaying \"The Mississippi Sawyer\" inside a shack.\nMoments like that, you can love this country.</pre>\n "}, {"title": "A Few Lines from Rehoboth Beach", "view_node": "/poem/few-lines-rehoboth-beach", "field_author": "<a href=\"/poet/fleda-brown\" hreflang=\"und\">Fleda Brown</a>", "field_date_published": "1993", "body": " <pre>\nDear friend, you were right: the smell of fish and foam\nand algae makes one green smell together. It clears\nmy head. It empties me enough to fit down in my own\n\nskin for a while, singleminded as a surfer. The first\nday here, there was nobody, from one distance\nto the other. Rain rose from the waves like steam,\n\ndark lifted off the dark. All I could think of\nwere hymns, all I knew the words to: the oldest\nmotions tuning up in me. There was a horseshoe crab\n\nshell, a translucent egg sack, a log of a tired jetty,\nand another, and another. I walked miles, holding\nmy suffering deeply and courteously, as if I were holding\n\na package for somebody else who would come back\nlike sunlight. In the morning, the boardwalk opened\nwide and white with sun, gulls on one leg in the slicks.\n\nCold waves, cold air, and people out in heavy coats,\narm in arm along the sheen of waves. A single boy\nin shorts rode his skimboard out thigh-high, making\n\nintricate moves across the March ice-water. I thought\nhe must be painfully cold, but, I hear you say, he had\nall the world emptied, to practice his smooth stand.</pre>\n "}, {"title": "Jerimoth Hill", "view_node": "/poem/jerimoth-hill", "field_author": "<a href=\"/poet/tom-chandler\" hreflang=\"und\">Tom Chandler</a>", "field_date_published": "2002", "body": " <p class=\"XSMALL\">812 feet, the highest point in Rhode Island</p>\n<pre>\nYou will not recognize any bald knob of granite\nor sheer cliff face silhouetted against clouds,\nin fact, you won't realize you're anywhere at all\nexcept by this bullet-riddled sign by the road\nthat curves through these scraggled third growth\nwoods that was once a grove of giant pines\nthat were cut down for masts that were used\nto build ships to sail away to the rest of the world\nfrom the docks of Providence Harbor, their holds\nfilled with wool from the sheep that grazed\nin the field that had once been the giant pines\ntill the shepherds died off and the applers took over\nand grew orchards of Cortlands and Macintosh\nDelicious to fill the holds of the ships that sailed\nto the rest of the world from the docks of Providence\nHarbor with masts made from the giant pines till\nthe orchards moved west along with everything\nelse to less glacial land and the fields became\novergrowth of berries and hobblebush crisscrossed\nby walls made of stones that had slept beneath\none inch of topsoil for twelve thousand years\ntill the settlers found when they tried to plant crops\nthat this was a country that grew only rocks which\nthey made into walls to pen in the sheep that provided\nthe wool that filled the holds of the ships that sailed\nto the rest of the world from the docks of Providence Harbor.</pre>\n "}, {"title": "My Soul", "view_node": "/poem/my-soul", "field_author": "<a href=\"/poet/ember-ward\" hreflang=\"und\">Ember Ward</a>", "field_date_published": "2003", "body": " <pre>\nSometimes\nWhen I feel like I'm going to fall apart\nI hold my ribs, all the way around,\nBoth sides.\nMy ribs hold me together,\nLike glue.\nThey keep my breath close to my heartbeat.\nThey keep my soul from escaping and \nLeaving me, grounded.\nI hold brightness and shadows in \nThe hollow where my ribs meet.\nI hold them there in the memories\nOf slow, sorrowful music and\nPorch steps.\nI hold my ribs, until I feel solid.\nUntil my legs are tree trunks and \nMy fingers are fruit.</pre>\n "}, {"title": "To People I Hear Talking Loudly on Their Cell Phones", "view_node": "/poem/people-i-hear-talking-loudly-their-cell-phones", "field_author": "<a href=\"/poet/james-stevenson\" hreflang=\"und\">James Stevenson</a>", "field_date_published": "2003", "body": " <pre>\nIt is VERY IMPORTANT\nto take care of your cell phone!\nDo you know how?\n\nThe best way is to drop it in\na deep pot of chicken fat\nand bring to a boil.\nSimmer for two hours.\nLet cool.</pre>\n "}, {"title": "Write About a Radish.\u00a0.\u00a0.", "view_node": "/poem/write-about-radish", "field_author": "<a href=\"/poet/karla-kuskin\" hreflang=\"und\">Karla Kuskin</a>", "field_date_published": "2003", "body": " <pre>\nWrite about a radish\nToo many people write about the moon.\n\nThe night is black\nThe stars are small and high\nThe clock unwinds its ever-ticking tune\nHills gleam dimly\nDistant nighthawks cry.\nA radish rises in the waiting sky.</pre>\n "}, {"title": "God Went to Beauty School", "view_node": "/poem/god-went-beauty-school", "field_author": "<a href=\"/poet/cynthia-rylant\" hreflang=\"und\">Cynthia Rylant</a>", "field_date_published": "2003", "body": " <pre>\nHe went there to learn how\nto give a good perm\nand ended up just crazy \nabout nails\nso He opened up His own shop.\n\"Nails by Jim\" He called it.\nHe was afraid to call it\nNails by God.\nHe was sure people would\nthink He was being\ndisrespectful and using\nHis own name in vain\nand nobody would tip.\nHe got into nails, of course,\nbecause He'd always loved\nhands--\nhands were some of the best things\nHe'd ever done\nand this way He could just\nhold one in His\nand admire those delicate\nbones just above the knuckles,\ndelicate as birds' wings, \nand after He'd done that\nawhile,\nHe could paint all the nails \nany color He wanted,\nthen say,\n\"Beautiful,\"\nand mean it.</pre>\n "}, {"title": "Harriet Tubman", "view_node": "/poem/harriet-tubman", "field_author": "<a href=\"/poet/eloise-greenfield\" hreflang=\"und\">Eloise Greenfield</a>", "field_date_published": "2003", "body": "<p><span class=\"long-line\">Harriet Tubman didn't take no stuff</span><br /><span class=\"long-line\">Wasn't scared of nothing neither</span><br /><span class=\"long-line\">Didn't come in this world to be no slave</span><br /><span class=\"long-line\">And wasn't going to stay one either</span></p>\n\n<p><span class=\"long-line\">\"Farewell!\" she sang to her friends one night</span><br /><span class=\"long-line\">She was mighty sad to leave 'em</span><br /><span class=\"long-line\">But she ran away that dark, hot night</span><br /><span class=\"long-line\">Ran looking for her freedom</span><br /><span class=\"long-line\">She ran to the woods and she ran through the woods</span><br /><span class=\"long-line\">With the slave catchers right behind her</span><br /><span class=\"long-line\">And she kept on going till she got to the North</span><br /><span class=\"long-line\">Where those mean men couldn't find her</span></p>\n\n<p><span class=\"long-line\">Nineteen times she went back South</span><br /><span class=\"long-line\">To get three hundred others</span><br /><span class=\"long-line\">She ran for her freedom nineteen times</span><br /><span class=\"long-line\">To save Black sisters and brothers</span><br /><span class=\"long-line\">Harriet Tubman didn't take no stuff</span><br /><span class=\"long-line\">Wasn't scared of nothing neither</span><br /><span class=\"long-line\">Didn't come in this world to be no slave</span><br /><span class=\"long-line\">And didn't stay one either</span></p>\n\n<p><span class=\"long-line\">\u00a0\u00a0\u00a0\u00a0\u00a0And didn't stay one either</span></p>\n"}, {"title": "And You Thought You Were the Only One", "view_node": "/poem/and-you-thought-you-were-only-one", "field_author": "<a href=\"/poet/mark-bibbins\" hreflang=\"und\">Mark Bibbins</a>", "field_date_published": "2003", "body": " <pre>\nSomeone waits at my door. Because he is\n    dead he has time but I have my secrets--\n\n    this is what separates us from the dead.\nSee, I could order take-out or climb down\n\nthe fire escape, so it's not as though he\n    is keeping me from anything I need.\n\n    While this may sound like something I made up,\nit is not; I have forgotten how to\n\nlie, despite all my capable teachers.\n    Lies are, in this way, I think, like music\n\n    and all is the same without them as with.\nThe fluid sky retains regret, then bursts.\n\nHe is still there, standing in the hall, insisting\n    he is someone I once knew and wanted,\n\n    come laden with gifts he cannot return.\nIf I open the door he'll flash and fade\n\nlike heat lightning behind a bank of clouds\n    one summer night at the edge of the world.</pre>\n "}, {"title": "Stealing The Scream", "view_node": "/poem/stealing-scream", "field_author": "<a href=\"/poet/monica-youn\" hreflang=\"und\">Monica Youn</a>", "field_date_published": "2003", "body": " <pre>\nIt was hardly a high-tech operation, stealing <i>The Scream</i>.\nThat we know for certain, and what was left behind--\na store-bought ladder, a broken window,\nand fifty-one seconds of videotape, abstract as an overture.\n\nAnd the rest? We don't know. But we can envision\nmoonlight coming in through the broken window,\ncasting a bright shape over everything--the paintings,\nthe floor tiles, the velvet ropes: a single, sharp-edged pattern;\n\nthe figure's fixed hysteria rendered suddenly ironic\nby the fact of something happening; houses\nclapping a thousand shingle hands to shocked cheeks\nalong the road from Oslo to Asgardstrand;\n\nthe guards rushing in--too late!--greeted only\nby the gap-toothed smirk of the museum walls;\nand dangling from the picture wire like a baited hook,\na postcard: \"Thanks for the poor security.\"\n\nThe policemen, lost as tourists, stand whispering\nin the galleries: \". . .but what does it all mean?\"\nSomeone has the answers, someone who, grasping the frame,\nsaw his sun-red face reflected in that familiar boiling sky.</pre>\n "}, {"title": "[Where do words come from?]", "view_node": "/poem/where-do-words-come", "field_author": "<a href=\"/poet/venus-khoury-ghata\" hreflang=\"und\">V\u00e9nus Khoury-Ghata</a>", "field_date_published": "2003", "body": " <pre>\nWhere do words come from?\nfrom what rubbing of sounds are they born\non what flint do they light their wicks\nwhat winds brought them into our mouths\n\nTheir past is the rustling of stifled silences\nthe trumpeting of molten elements\nthe grunting of stagnant waters\n\nSometimes\nthey grip each other with a cry\nexpand into lamentations\nbecome mist on the windows of dead houses\ncrystallize into chips of grief on dead lips\nattach themselves to a fallen star\ndig their hole in nothingness\nbreathe out strayed souls\n\nWords are rocky tears\nthe keys to the first doors\nthey grumble in caverns\nlend their ruckus to storms\ntheir silence to bread that's ovened alive</pre>\n "}, {"title": "Three American Women and a German Bayonet", "view_node": "/poem/three-american-women-and-german-bayonet", "field_author": "<a href=\"/poet/winfield-townley-scott\" hreflang=\"und\">Winfield Townley Scott</a>", "field_date_published": "2003", "body": " <pre>&#13;\nOutweighing all, heavy out of the souvenir bundle&#13;\nThe German bayonet: grooved steel socketed in its worn &#13;\n   wood handle,&#13;\nIts detached and threatening silence.&#13;\nIts gun-body lost, the great knife wrested to a personal &#13;\n   particular violence--&#13;\nNow bared shamelessly for what it is, here exposed on the &#13;\n   American kitchen table and circled with the wreath&#13;\nOf his three women, the hard tool of death.&#13;\n&#13;\nAnd while Mary his mother says 'I do not like it. Put it down'&#13;\nMary the young sister, her eyes gleaming and round,&#13;\nGiddily giggles as, the awkward toy in her left hand,&#13;\nShe makes impertinent pushes toward his wife who stands&#13;\nTolerant of child's play, waiting for her to be done.&#13;\nHis mother says 'I wish he had not got it. It is wicked-looking. &#13;\n   I tell you: Put it down!'&#13;\nHis wife says 'All right, Mary: let me have it--it is mine.'&#13;\nSaucily pouting, primly frowning&#13;\nThe sister clangs bayonet on table; walks out&#13;\nAnd her mother follows.&#13;\n&#13;\nLike a live thing in not-to-be-trusted stillness,&#13;\nLike a kind of engine so foreign and self-possessed&#13;\nAs to chill her momently between worship and terror&#13;\nIt lies there waiting alone in the room with her,&#13;\nOddly familiar without ever losing strangeness.&#13;\nSlowly she moves along it a tentative finger&#13;\nAs though to measure and remember its massive, potent length:&#13;\nDeath-deep, tall as life,&#13;\nFor here prized from the enemy, wrenched away captive, his &#13;\n   dangerous escape and hers.&#13;\nMary his wife&#13;\nLifts it heavy and wonderful in her hands and with triumphant&#13;\n   tenderness.</pre>&#13;\n "}, {"title": "Cicada", "view_node": "/poem/cicada", "field_author": "<a href=\"/poet/john-blair\" hreflang=\"und\">John Blair</a>", "field_date_published": "2003", "body": "<pre>\nA youngest brother turns seventeen with a click as good as a roar,\nfinds the door and is gone.\nYou listen for that small sound, hear a memory.\nThe air-raid sirens howled of summer tornadoes, the sound\n\nthrown back against the scattered thumbs\nof grain silos and the open Oklahoma plains\nlike the warning wail of insects.\nRepudiation is fast like a whirlwind.\n\nOnly children don't know that all you live is leaving.\nYes, the first knowledge that counts is that everything stops.\nEven in the bible-belt, second comings are promises\nyou never really believed;\n\nso you turn and walk into the embrace of the world\nas you would to a woman, an arrant\nan orphic movement as shocking as the subtle\nanimal pulse of a flower opening, palm up.\n\nWe are all so helpless.\nI can look at my wife's full form now\nand hope for children,\npicture her figured by the weight of babies.\n\nOnly, it's still so much like trying to find something\nonce lost. My brother felt the fullness of his years, the pull\nin the gut that's almost sickness. His white\nsmooth face is gone into living and fierce illusion,\n\na journey dissolute and as immutable\nas the whining heat of summer.\nSoon enough, too soon, momentum just isn't enough.\nOur tragedy is to live in a world\n\nthat doesn't invite us back.\nWe slow, find ourselves sitting in a room that shifts so slightly\nwe can only imagine the difference.\nI want to tell him to listen.\n\nI want to tell him what it is to crave darkness,\nto want to crawl headfirst into a dirt-warm womb\nto sleep, to wait seventeen years,\nto emerge again.</pre>\n"}, {"title": "Monologue for an Onion", "view_node": "/poem/monologue-onion", "field_author": "<a href=\"/poet/suji-kwock-kim\" hreflang=\"und\">Suji Kwock Kim</a>", "field_date_published": "2003", "body": "<p><span class=\"long-line\">I don't mean to make you cry.</span><br /><span class=\"long-line\">I mean nothing, but this has not kept you</span><br /><span class=\"long-line\">From peeling away my body, layer by layer,</span></p>\n\n<p><span class=\"long-line\">The tears clouding your eyes as the table fills</span><br /><span class=\"long-line\">With husks, cut flesh, all the debris of pursuit.</span><br /><span class=\"long-line\">Poor deluded human: you seek my heart.</span></p>\n\n<p><span class=\"long-line\">Hunt all you want. Beneath each skin of mine</span><br /><span class=\"long-line\">Lies another skin: I am pure onion--pure union</span><br /><span class=\"long-line\">Of outside and in, surface and secret core.</span></p>\n\n<p><span class=\"long-line\">Look at you, chopping and weeping. Idiot.</span><br /><span class=\"long-line\">Is this the way you go through life, your mind</span><br /><span class=\"long-line\">A stopless knife, driven by your fantasy of truth,</span></p>\n\n<p><span class=\"long-line\">Of lasting union--slashing away skin after skin</span><br /><span class=\"long-line\">From things, ruin and tears your only signs</span><br /><span class=\"long-line\">Of progress? Enough is enough.</span></p>\n\n<p><span class=\"long-line\">You must not grieve that the world is glimpsed</span><br /><span class=\"long-line\">Through veils. How else can it be seen?</span><br /><span class=\"long-line\">How will you rip away the veil of the eye, the veil</span></p>\n\n<p><span class=\"long-line\">That you are, you who want to grasp the heart</span><br /><span class=\"long-line\">Of things, hungry to know where meaning</span><br /><span class=\"long-line\">Lies. Taste what you hold in your hands: onion-juice,</span></p>\n\n<p><span class=\"long-line\">Yellow peels, my stinging shreds. You are the one</span><br /><span class=\"long-line\">In pieces. Whatever you meant to love, in meaning to</span><br /><span class=\"long-line\">You changed yourself: you are not who you are,</span></p>\n\n<p><span class=\"long-line\">Your soul cut moment to moment by a blade</span><br /><span class=\"long-line\">Of fresh desire, the ground sown with abandoned skins.</span><br /><span class=\"long-line\">And at your inmost circle, what? A core that is</span></p>\n\n<p><span class=\"long-line\">Not one. Poor fool, you are divided at the heart,</span><br /><span class=\"long-line\">Lost in its maze of chambers, blood, and love,</span><br /><span class=\"long-line\">A heart that will one day beat you to death.</span></p>\n"}, {"title": "Autumn Grasses", "view_node": "/poem/autumn-grasses", "field_author": "<a href=\"/poet/margaret-gibson\" hreflang=\"und\">Margaret Gibson</a>", "field_date_published": "2003", "body": " <pre>&#13;\nIn fields of bush clover and hay-scent grass&#13;\nthe autumn moon takes refuge&#13;\nThe cricket's song is gold&#13;\n&#13;\nZeshin's loneliness taught him this&#13;\n&#13;\nWho is coming?&#13;\nWhat will come to pass, and pass?&#13;\n&#13;\nNeither bruise nor sweetness nor cool air&#13;\nnot-knowing&#13;\nknows the way&#13;\n&#13;\nAnd the moon?&#13;\nWho among us does not wander, and flare&#13;\nand bow to the ground?&#13;\n&#13;\nWho does not savor, and stand open&#13;\nif only in secret&#13;\n&#13;\ntaking heart in the ripening of the moon?&#13;\n&#13;\n(<i>Shibata Zeshin</i>, Autumn Grasses, <i>two-panel screen</i>)</pre>&#13;\n "}, {"title": "The Poem", "view_node": "/poem/poem", "field_author": "<a href=\"/poet/daniel-hoffman\" hreflang=\"und\">Daniel Hoffman</a>", "field_date_published": "2003", "body": "<pre>\nArriving at last\n\nIt has stumbled across the harsh\nStones, the black marshes.\n\nTrue to itself, by what craft\nAnd strength it has, it has come\nAs a sole survivor returns\n\nFrom the steep pass.\nCarved on memory's staff\nThe legend is nearly decipherable.\nIt has lived up to its vows\n\nIf it endures\nThe journey through the dark places\nTo bear witness,\nCasting its message\nIn a sort of singing.</pre>\n"}, {"title": "National Poetry Month", "view_node": "/poem/national-poetry-month", "field_author": "<a href=\"/poet/elaine-equi\" hreflang=\"und\">Elaine Equi</a>", "field_date_published": "2003", "body": " <pre>\nWhen a poem\nspeaks by itself,\nit has a spark\n\nand can be considered\npart of a divine\nconversation.\n\nSometimes the poem weaves\nlike a basket around\ntwo loaves of yellow bread.\n\n\"Break off a piece\nof this April with its\nraisin nipples,\" it says. \n\n\"And chew them slowly\nunder your pillow.\nYou belong in bed with me.\"\n\nOn the other hand,\nwhen a poem speaks\nin the voice of a celebrity\n\nit is called television\nor a movie.\n\"There is nothing to see,\"\n\nsay Robert De Niro,\nthough his poem bleeds\nall along the edges\n\nlike a puddle \ncrudely outlined\nwith yellow tape\n\nat the crime scene\nof spring.\n\"It is an old poem,\" he adds.\n\n\"And besides,\nI was very young\nwhen I made it.\"</pre>\n "}, {"title": "In Tennessee I Found a Firefly", "view_node": "/poem/tennessee-i-found-firefly", "field_author": "<a href=\"/poet/mary-szybist\" hreflang=\"und\">Mary Szybist</a>", "field_date_published": "2003", "body": " <pre>\nFlashing in the grass; the mouth of a spider clung\n     to the dark of it: the legs of the spider\nheld the tucked wings close,\n     held the abdomen still in the midst of calling\nwith thrusts of phosphorescent light--\n\nWhen I am tired of being human, I try to remember\n     the two stuck together like burrs. I try to place them\ncentral in my mind where everything else must\n     surround them, must see the burr and the barb of them.\nThere is courtship, and there is hunger. I suppose\n     there are grips from which even angels cannot fly.\nEven imagined ones. <i>Luciferin, luciferase.</i>\n     When I am tired of only touching,\nI have my mouth to try to tell you\n     what, in your arms, is not erased.</pre>\n "}], "pager": {"current_page": 625, "total_items": "13248", "total_pages": 663, "items_per_page": 20}}