{"rows": [{"title": "In Tennessee I Found a Firefly", "view_node": "/poem/tennessee-i-found-firefly", "field_author": "<a href=\"/poet/mary-szybist\" hreflang=\"und\">Mary Szybist</a>", "field_date_published": "2003", "body": " <pre>\nFlashing in the grass; the mouth of a spider clung\n     to the dark of it: the legs of the spider\nheld the tucked wings close,\n     held the abdomen still in the midst of calling\nwith thrusts of phosphorescent light--\n\nWhen I am tired of being human, I try to remember\n     the two stuck together like burrs. I try to place them\ncentral in my mind where everything else must\n     surround them, must see the burr and the barb of them.\nThere is courtship, and there is hunger. I suppose\n     there are grips from which even angels cannot fly.\nEven imagined ones. <i>Luciferin, luciferase.</i>\n     When I am tired of only touching,\nI have my mouth to try to tell you\n     what, in your arms, is not erased.</pre>\n "}, {"title": "Hariot&#039;s Round", "view_node": "/poem/hariots-round", "field_author": "<a href=\"/poet/dan-beachy-quick\" hreflang=\"und\">Dan Beachy-Quick</a>", "field_date_published": "2003", "body": " <pre>&#13;\n     I know, to entice, to convince, I must sing&#13;\n   Your ear inside stone, must sing&#13;\n     Gold bitten and true, the corn kernel, one seed, &#13;\n       I must plant one gold seed in your mouth with my lips.&#13;\nRaleigh says: the Queen knows my name. The Crown&#13;\n       Of a <i>woodpecker</i> is ruby, but shy.&#13;\n     Inhabitants adorn themselves with feathers, and feathers&#13;\n   Bright on arrow ends. Bow--before a Queen. Bend closed my book.&#13;\nThe page is deaf that turns back to look at what it found.</pre>&#13;\n "}, {"title": "Epitaph", "view_node": "/poem/epitaph", "field_author": "<a href=\"/poet/eric-pankey\" hreflang=\"und\">Eric Pankey</a>", "field_date_published": "2003", "body": " <pre>&#13;\nBeyond the traceries of the auroras,&#13;\nThe fires of tattered sea foam,&#13;\nThe ghost-terrain of submerged icebergs;&#13;\nBeyond a cinder dome's black sands, &#13;\nBeyond peninsula and archipelago,&#13;\nArchipelago and far-flung islands,&#13;\nYou have made of exile a homeland,&#13;\nVoyager, and of that chosen depth, a repose.&#13;\n&#13;\nThe eel shimmers and the dogfish darts,&#13;\nA dance of crisscrosses and trespasses&#13;\nThrough distillate glints and nacreous silts,&#13;\nAnd the sun, like fronds of royal palm&#13;\nWind-torn, tossed, lashes upon the wake,&#13;\nBut no lamplight mars or bleaches your realm,&#13;\nA dark of sediment, spawn, slough, and lees,&#13;\nRunoff, pitch-black, from the rivers of Psalms.</pre>&#13;\n "}, {"title": "Sunday", "view_node": "/poem/sunday", "field_author": "<a href=\"/poet/angela-shannon\" hreflang=\"und\">Angela Shannon</a>", "field_date_published": "2003", "body": " <pre>\nIt could have been the way the Southern man\nin his navy suit and skin rocked\nalong the church wall, swaying to the tambourine\nlike an old man wobbling to blues.\n\nOr the way Sister Nettie got the spirit\nall in her feet and behind, quick-stepping\nlike an ant hill was under her toes,\nshaking her head back and forth in disbelief\u2014\n\nOr the way Deacon Jones raised\nboth hands like the police were there,\nand started pacing the pulpit\u2014\na foreign street\u2014looking for Jesus.\n\nBut something quick came over the church\nwhen Walter's voice slid to his navel\nand plucked a piece of umbilical cord,\ntugging the notes from generations gone.\n\nAnd a sister lost in the crowd screamed,\nlike when children have their first babies,\nand screeching floated over the pews\nand took the congregation rocking\n\nBack to the first cry we made\nin this freedom-stealing country\u2014\nthe first shout on the auction block,\nand we tried to clap our way out of memory,\nto stomp out the sound like sparks of fire\nbut it was already voiced (and the seer had said,\nthis child would be different).</pre>\n "}, {"title": "Wedding the Locksmith&#039;s Daughter", "view_node": "/poem/wedding-locksmiths-daughter", "field_author": "<a href=\"/poet/robin-robertson\" hreflang=\"und\">Robin Robertson</a>", "field_date_published": "2003", "body": " <pre>&#13;\nThe slow-grained slide to embed the blade &#13;\nof the key is a sheathing,&#13;\na gliding on graphite, pushing inside&#13;\nto find the ribs of the lock.&#13;\n&#13;\nSunk home, the true key slots to its matrix;&#13;\ngeared, tight-fitting, they turn&#13;\ntogether, shooting the spring-lock,&#13;\nthrowing the bolt. Dactyls, iambics--&#13;\n&#13;\nthe clinch of words--the hidden couplings&#13;\nin the cased machine. A chime of sound&#13;\non sound: the way the sung note snibs on meaning&#13;\n&#13;\nand holds. The lines engage and marry now,&#13;\ntheir bells are keeping time;&#13;\nthe church doors close and open underground.</pre>&#13;\n "}, {"title": "Late September", "view_node": "/poem/late-september", "field_author": "<a href=\"/poet/charles-simic\" hreflang=\"und\">Charles Simic</a>", "field_date_published": "2002", "body": " <pre>\nThe mail truck goes down the coast\nCarrying a single letter.\nAt the end of a long pier\nThe bored seagull lifts a leg now and then\nAnd forgets to put it down.\nThere is a menace in the air\nOf tragedies in the making.\n\nLast night you thought you heard television\nIn the house next door.\nYou were sure it was some new\nHorror they were reporting,\nSo you went out to find out.\nBarefoot, wearing just shorts.\nIt was only the sea sounding weary\nAfter so many lifetimes\nOf pretending to be rushing off somewhere\nAnd never getting anywhere.\n\nThis morning, it felt like Sunday.\nThe heavens did their part\nBy casting no shadow along the boardwalk\nOr the row of vacant cottages,\nAmong them a small church\nWith a dozen gray tombstones huddled close\nAs if they, too, had the shivers.</pre>\n "}, {"title": "Twenty Twenty Vision", "view_node": "/poem/twenty-twenty-vision", "field_author": "<a href=\"/poet/mark-ford\" hreflang=\"und\">Mark Ford</a>", "field_date_published": "2001", "body": " <pre>&#13;\nUnwinding in a cavernous bodega he suddenly&#13;\nBurst out:--Barman, these tumblers empty themselves&#13;\nAnd yet I persist; I am wedged in the giant eye&#13;\nOf an invisible needle. Walking through doors&#13;\nOr into them, listening to anecdotes or myself spinning&#13;\nA yarn, I realize my doom is never to forget&#13;\nMy lost bearings. <i>In medias res</i> we begin&#13;\nAnd end: I was born, and then my body unfurled&#13;\nAs if to illustrate a few tiny but effective words--&#13;\nBut--<i>oh my oh my--avaunt</i>. I peered&#13;\nForth, stupefied, from the bushes as the sun set&#13;\nBehind distant hills. A pair of hungry owls&#13;\nSaluted the arrival of webby darkness; the dew&#13;\nDescended upon the creeping ferns. At first&#13;\nMy sticky blood refused to flow, gathering instead&#13;\nIn wax-like drops and pools; mixed with water and a dram&#13;\nOf colourless alcohol it thinned and reluctantly&#13;\nEbbed away. I lay emptied as a fallen&#13;\nLeaf until startled awake by a blinding flash&#13;\nOf dry lightning, and the onset of this terrible thirst.</pre>&#13;\n "}, {"title": "The Part of the Bee&#039;s Body Embedded in the Flesh", "view_node": "/poem/part-bees-body-embedded-flesh", "field_author": "<a href=\"/poet/carol-frost\" hreflang=\"und\">Carol Frost</a>", "field_date_published": "2003", "body": " <pre>\n     The bee-boy, <i>merops apiaster,</i> on sultry thundery days\n      filled his bosom between his coarse shirt and his skin\n                    with bees\u2014his every meal wild honey.\n     He had no apprehension of their stings or didn't mind\nand gave himself\u2014his palate, the soft tissues of his throat\u2014\n               what Rubens gave to the sun's illumination\n               stealing his fingers across a woman's thigh\n                  and Van Gogh's brushwork heightened.\n                Whatever it means, why not say it hurts\u2014\n             the mind's raw, gold coiling whirled against\n             air currents, want, beauty? I <i>will</i> say beauty.</pre>\n "}, {"title": "Poem for the Wheat Penny (1909-1958)", "view_node": "/poem/poem-wheat-penny-1909-1958", "field_author": "<a href=\"/poet/judith-hall\" hreflang=\"und\">Judith Hall</a>", "field_date_published": "2003", "body": " <pre>\nO beautiful\nThe amber the clamor the waves of grain\n          The need for animal feed\n     And liquor yes the need for heaven\n\n<i>I heard a voice in the midst of beasts say\nA measure of wheat for a penny</i>\n\nO spacious\nVoice that loafs and voids a day\n          A voice numismerized\n     Is it love my one\n\nNation leaning her cheek upon the grain\n\nO love\nThe penny cried which wheat which voice\n          Which night the penny moon\n     Shall subsidize the need for heaven\n\n<i>I heard a voice need yes a prop abundance\nThe measured fat of the wheat the penny-wise</i>\n\nOh say\nSay the penny candy prayer\n          The dawn a gleaming pile\n     Of trampled swords and friends\n\nThe coined and counted nice the penny life</pre>\n "}, {"title": "Parable with Broken Frame", "view_node": "/poem/parable-broken-frame", "field_author": "<a href=\"/poet/john-peck\" hreflang=\"und\">John Peck</a>", "field_date_published": "1999", "body": " <pre>\nAn old architect at a littered worktable\n     sits through morning, eyes fixed on ocean,\nintent through evening at the study window,\n     motionless though his hand rebuilds years.\n\nDown razory defiles to the rockledge landing\n     stands of flittergold awash in wind,\nand through soft lolling labia of the waves\n     tiny boats coming in, setting out.\n   \nPriest and corpsedresser begin the climb to his house,\n     their empty craft nibbles at spindrift.\nA bridegroom and his man steer for the islands,\n     plinky music unrolls with their wake.\n\nA last stone has been set in place, final tile,\n     the bride folds her face in streaming hands,\na black duo mounts to the door and goes in.\n     All of these I have been, none holds me.</pre>\n "}, {"title": "Untitled [Whence cometh such tender rapture?]", "view_node": "/poem/untitled-whence-cometh-such-tender-rapture", "field_author": "<a href=\"/poet/marina-tsvetaeva\" hreflang=\"und\">Marina Tsvetaeva</a>", "field_date_published": "2003", "body": " <pre>\nWhence cometh such tender rapture?\nThose curls--they are not the first ones\nI've smoothened, and I've already\nKnown lips--that were darker than yours.\n\nThe stars have risen and faded,\n--Whence cometh such tender rapture?--\nAnd eyes have risen and faded \nIn face of these eyes of mine\n\nI'd never yet hearkened unto\nSuch songs in the depths of darkness,\n--Whence cometh such tender rapture?--\nMy head on the bard's own breast\n\nWhence cometh such tender rapture?\nAnd what's to be done with it, artful\nYoung vagabound, passing minstrel\nWith lashes--too long to say.</pre>\n<p class=\"XSMALL\">18 February 1916</p> "}, {"title": "Winter Letter", "view_node": "/poem/winter-letter", "field_author": "<a href=\"/poet/huu-thinh\" hreflang=\"und\">Huu Thinh</a>", "field_date_published": "2003", "body": " <pre>\nThe letter I wrote you had smeared ink,\nBut the bamboo walls are thin, and fog kept leaking through.\nOn this cold mountain, I cannot sleep at night.\nBy morning, a reed stalk can fade.\n\nWhite snow on my thin blanket.\nThe stove glows red for lunch, but the mountain remains hazy.\nInk freezes inside my pen--\nI hold it over the glowing coals and it melts into a letter.\n\nBlocking the wind, a tree with purple roots trembles.\nCorn seeds shrivel underground.\nOn days when my comrades are on assignment,\nI miss them, but. . .there is an extra blanket.\n\nThe cold rooster crows lazily in a hoarse voice.\nWe beat on the cups, the bowls, to ease the strangeness.\nThe mountain hides hundreds of ores in its bosom.\nI try, but can't find enough vegetables for a meal.\n\nThe rice often comes early, the letters late.\nThe radio is on all night to make the bunker seem less desolate.\nSo many years without women,\nI mistake the sound of horse hooves for your footsteps.\n\nGathering clouds often invite me to dream;\nknowing so, you keep the light glowing late.\nWishing I had some scent of soapberry\nSo rocks would soften, the mountains grow warm.\n\n                            <i>Meo Vac, 3/82</i></pre>\n "}, {"title": "Grandfather Says", "view_node": "/poem/grandfather-says", "field_author": "<a href=\"/poet/ai\" hreflang=\"und\">  Ai   </a>", "field_date_published": "2003", "body": " <pre>\n\"Sit in my hand.\"\nI'm ten.\nI can't see him,\nbut I hear him breathing\nin the dark.\nIt's after dinner playtime.\nWe're outside,\nhidden by trees and shrubbery.\nHe calls it hide-and-seek,\nbut only my little sister seeks us\nas we hide\nand she can't find us,\nas grandfather picks me up\nand rubs his hands between my legs.\nI only feel a vague stirring\nat the edge of my consciousness.\nI don't know what it is, \nbut I like it.\nIt gives me pleasure\nthat I can't identify.\nIt's not like eating candy,\nbut it's just as bad,\nbecause I had to lie to grandmother\nwhen she asked,\n\"What do you do out there?\"\n\"Where?\" I answered.\nThen I said, \"Oh, play hide-and-seek.\"\nShe looked hard at me,\nthen she said, \"That was the last time.\nI'm stopping that game.\"\nSo it ended and I forgot.\nTen years passed, thirtyfive,\nwhen I began to reconstruct the past.\nWhen I asked myself\nwhy I was attracted to men who disgusted me\nI traveled back through time\nto the dark and heavy breathing part of my life\nI thought was gone,\nbut it had only sunk from view\ninto the quicksand of my mind.\nIt was pulling me down\nand there I found grandfather waiting,\nhis hand outstretched to lift me up,\nnaked and wet\nwhere he rubbed me.\n\"I'll do anything for you,\" he whispered,\n\"but let you go.\"\nAnd I cried, \"Yes,\" then \"No.\"\n\"I don't understand how you can do this to me.\nI'm only ten years old,\"\nand he said, \"That's old enough to know.\"</pre>\n "}, {"title": "Morning News", "view_node": "/poem/morning-news", "field_author": "<a href=\"/poet/marilyn-hacker\" hreflang=\"und\">Marilyn Hacker</a>", "field_date_published": "2003", "body": " <pre>\nSpring wafts up the smell of bus exhaust, of bread\nand fried potatoes, tips green on the branches,\nrepeats old news: arrogance, ignorance, war.\nA cinder-block wall shared by two houses\nis new rubble. On one side was a kitchen\nsink and a cupboard, on the other was\na bed, a bookshelf, three framed photographs.\n\nGlass is shattered across the photographs;\ntwo half-circles of hardened pocket bread\nsit on the cupboard. There provisionally was\nshelter, a plastic truck under the branches\nof a fig tree. A knife flashed in the kitchen,\nmerely dicing garlic. Engines of war\nmove inexorably toward certain houses\n\nwhile citizens sit safe in other houses\nreading the newspaper, whose photographs\nmake sanitized excuses for the war.\nThere are innumerable kinds of bread\nbrought up from bakeries, baked in the kitchen:\nthe date, the latitude, tell which one was\ndropped by a child beneath the bloodied branches.\n\nThe uncontrolled and multifurcate branches\nof possibility infiltrate houses'\nwalls, windowframes, ceilings. Where there was\na tower, a town: ash and burnt wires, a graph\non a distant computer screen. Elsewhere, a kitchen\ntable's setting gapes, where children bred \nto branch into new lives were culled for war.\n\nWho wore this starched smocked cotton dress? Who wore\nthis jersey blazoned for the local branch\nof the district soccer team? Who left this black bread\nand this flat gold bread in their abandoned houses?\nWhose father begged for mercy in the kitchen?\nWhose memory will frame the photograph\nand use the memory for what it was\n\nnever meant for by this girl, that old man, who was\ncaught on a ball field, near a window: war,\nexhorted through the grief a photograph\nrevives. (Or was the team a covert branch\nof a banned group; were maps drawn in the kitchen,\na bomb thrust in a hollowed loaf of bread?)\nWhat did the old men pray for in their houses\n\nof prayer, the teachers teach in schoolhouses\nbetween blackouts and blasts, when each word was\nflensed by new censure, books exchanged for bread, \nboth hostage to the happenstance of war?\nSometimes the only schoolroom is a kitchen.\nOutside the window, black strokes on a graph\nof broken glass, birds line up on bare branches.\n\n\"This letter curves, this one spreads its branches\nlike friends holding hands outside their houses.\"\nWas the lesson stopped by gunfire? Was\nthere panic, silence? Does a torn photograph\nstill gather children in the teacher's kitchen?\nAre they there meticulously learning war-\ntime lessons with the signs for house, book, bread?</pre>\n "}, {"title": "The Lightning Field, 6", "view_node": "/poem/lightning-field-6", "field_author": "<a href=\"/poet/carol-moldaw\" hreflang=\"und\">Carol Moldaw</a>", "field_date_published": "2003", "body": " <pre>\n6.\na patch of virga/a verse paragraph\nslant marks/slashing the sky/silvered in a shaft\nof sunlight/pellucid virgules marking time\nand pitch in a run of silent recitativo\nno skittering drops/no rivulets of rhyme\nshearing off the windshield/dripping from eaves\nfrom leaves/self-contained/this sheet of rain\nevaporates/is throttled/bottlenecked\nin the sky's throat/never nears/never\ngrazes/never wets/the tantalized ground\nvirginal downpour/suspended mid-fall\ncoitus interruptus/a phone call/a second\nthought/a punctured tire/a pummeled breast\nno/no/no/no/no\nthe milk/won't come/the seed/won't plant/the womb\nnulliparous/swells anyhow/the rain\nfalls/and does not fall/stalled/the drops\nmake no discernible sound/a sob/a soughing\nat the wheel/to our right/never overhead\nnot in reach/always down the road\nan etching/scraped/scraped out/scarring the sky\na series of caesuras/a fractured field\na field of splintered bones/of lines broken\ninto spits smaller than feet/smaller than\na fetus/embryonic/the arrested rain</pre>\n "}, {"title": "At Burt Lake", "view_node": "/poem/burt-lake", "field_author": "<a href=\"/poet/tom-andrews\" hreflang=\"und\">Tom Andrews</a>", "field_date_published": "2003", "body": "<pre>\nTo disappear into the right words\nand to be their meanings. . .\n\nOctober dusk.\nPink scraps of clouds, a plum-colored sky.\nThe sycamore tree spills a few leaves.\nThe cold focuses like a lens. . .\n\nNow night falls, its hair\ncaught in the lake's eye.\n\nSuch clarity of things. Already\nI've said too much. . .\n\n                  Lord,\nlanguage must happen to you\nthe way this black pane of water,\nchipped and blistered with stars,\nhappens to me.</pre>\n"}, {"title": "79", "view_node": "/poem/79", "field_author": "<a href=\"/poet/joachim-du-bellay\" hreflang=\"und\">Joachim du Bellay</a>", "field_date_published": "2003", "body": " <pre>\nI do not write of love: I am no lover.\nI do not write of beauty: I have no woman.\nI do not write of gentleness but the human\nrudeness I see. And my pleasures are all over,\nso I do not try to write of pleasure, but only\nmisery. Favors? No, I am on my own.\nI do not write of riches: I have none.\nOr of life at court, when I'm far from it and lonely.\n\nI do not write of health, for I'm often ill.\nI cannot write of France from a Roman hill.\nOr honor? I see so little of that about.\nI cannot write of friendship but only pretence.\nI will not write of virtue, here in its absence.\nOr knowledge or faith, in ignorance and doubt.</pre>\n "}, {"title": "Even the Rain", "view_node": "/poem/even-rain", "field_author": "<a href=\"/poet/agha-shahid-ali\" hreflang=\"und\">Agha Shahid Ali</a>", "field_date_published": "2003", "body": "<p><span class=\"long-line\">What will suffice for a true-love knot? Even the rain?</span><br /><span class=\"long-line\">But he has bought grief\u2019s lottery, bought even the rain.</span></p>\n<p><span class=\"long-line\">\u201cOur glosses / wanting in this world\u201d\u2014\u201cCan you remember?\u201d</span><br /><span class=\"long-line\">Anyone!\u2014\u201cwhen we thought / the poets taught\u201d even the rain?</span></p>\n<p><span class=\"long-line\">After we died\u2014<em>That was it!</em>\u2014God left us in the dark.</span><br /><span class=\"long-line\">And as we forgot the dark, we forgot even the rain.</span></p>\n<p><span class=\"long-line\">Drought was over. Where was I? Drinks were on the house.</span><br /><span class=\"long-line\">For mixers, my love, you\u2019d poured\u2014what?\u2014even the rain.</span></p>\n<p><span class=\"long-line\">Of this pear-shaped orange\u2019s perfumed twist, I will say:</span><br /><span class=\"long-line\">Extract Vermouth from the bergamot, even the rain.</span></p>\n<p><span class=\"long-line\">How did the Enemy love you\u2014with earth? air? and fire?</span><br /><span class=\"long-line\">He held just one thing back till he got even: the rain.</span></p>\n<p><span class=\"long-line\">This is God\u2019s site for a new house of executions?</span><br /><span class=\"long-line\">You swear by the Bible, Despot, even the rain?</span></p>\n<p><span class=\"long-line\">After the bones\u2014those flowers\u2014this was found in the urn:</span><br /><span class=\"long-line\">The lost river, ashes from the ghat, even the rain.</span></p>\n<p><span class=\"long-line\">What was I to prophesy if not the end of the world?</span><br /><span class=\"long-line\">A salt pillar for the lonely lot, even the rain.</span></p>\n<p><span class=\"long-line\">How the air raged, desperate, streaming the earth with flames\u2014</span><br /><span class=\"long-line\">To help burn down my house, Fire sought even the rain.</span></p>\n<p><span class=\"long-line\">He would raze the mountains, he would level the waves;</span><br /><span class=\"long-line\">he would, to smooth his epic plot, even the rain.</span></p>\n<p><span class=\"long-line\">New York belongs at daybreak to only me, just me\u2014</span><br /><span class=\"long-line\">To make this claim Memory\u2019s brought even the rain.</span></p>\n<p><span class=\"long-line\">They\u2019ve found the knife that killed you, but whose prints are these?</span><br /><span class=\"long-line\">No one has such small hands, Shahid, not even the rain.</span></p>\n"}, {"title": "Charlotte Bronte in Leeds Point", "view_node": "/poem/charlotte-bronte-leeds-point", "field_author": "<a href=\"/poet/stephen-dunn\" hreflang=\"und\">Stephen Dunn</a>", "field_date_published": "2003", "body": " <pre>\nFrom her window marshland stretched for miles.\nIf not for egrets and gulls, it reminded her of the moors\nbehind the parsonage, how the fog often hovered\nand descended as if sheltering some sweet compulsion\nthe age was not ready to see. On clear days the jagged\nskyline of Atlantic City was visible\u2014Atlantic City,\nwhere all compulsions had a home.\n\n\"Everything's too easy now,\" she said to her neighbor,\n\"nothing resisted, nothing gained.\" Once, at eighteen,\nshe dreamed of London's proud salons glowing\nwith brilliant fires and dazzling chandeliers.\nAlready her own person\u2014passionate, assertive\u2014\nsoon she'd create a governess insistent on rights equal\nto those above her rank. \"The dangerous picture\n\nof a natural heart,\" one offended critic carped.\nShe'd failed, he said, to let religion reign\nover the passions and, worse, she was a woman.\nNow she was amazed at what women had,\ndoubly amazed at what they didn't.\nBut she hadn't come back to complain or haunt.\nHer house on the bay was modest, adequate.\n\nIt need not accommodate brilliant sisters\nor dissolute brothers, spirits lost or fallen.\nFeminists would pay homage, praise her honesty\nand courage. Rarely was she pleased. After all,\nshe was an artist; to speak of honesty in art,\nshe knew, was somewhat beside the point.\nAnd she had married, had even learned to respect\n\nthe weakness in men, those qualities they called\ntheir strengths. Whatever the struggle, she wanted men\nincluded. Charlotte missed reading chapters to Emily, \nEmily reading chapters to her. As ever, though, she'd try\nto convert present into presence, something unsung\nsung, some uprush of desire frankly acknowledged,\neven in this, her new excuse for a body.\n</pre>\n "}, {"title": "The Hermit Goes Up Attic", "view_node": "/poem/hermit-goes-attic", "field_author": "<a href=\"/poet/maxine-kumin\" hreflang=\"und\">Maxine Kumin</a>", "field_date_published": "2003", "body": " <pre>\nUp attic, Lucas Harrison, God rest\nhis frugal bones, once kept a tidy account\nby knifecut of some long-gone harvest.\nThe wood was new. The pitch ran down to blunt \nthe year: 1811, the score: 10, he carved\ninto the center rafter to represent\nhis loves, beatings, losses, hours, or maybe\nthe butternuts that taxed his back and starved\nthe red squirrels higher up each scabbed tree.\n1812 ran better. If it was bushels he risked,\nhe would have set his sons to rake them ankle deep\nfor wintering over, for wrinkling off their husks\nwhile downstairs he lulled his jo to sleep.\n\nBy 1816, whatever the crop goes sour.\nThree tallies cut by the knife are all\nin a powder of dead flies and wood dust pale as flour.\nDeath, if it came then, has since gone dry and small.\n\nBut the hermit makes this up. Nothing is known\nunder this rooftree keel veed in with chestnut\nribs. Up attic he always hears the ghosts\nof Lucas Harrison's great trees complain\nchafing against their mortised pegs,\na woman in childbirth pitching from side to side\nuntil the wet head crowns between her legs\nagain, and again she will bear her man astride\nand out of the brawl of sons he will drive like oxen\ntight at the block and tackle, whipped to the trace,\ncome up these burly masts, these crossties broken\nfrom their growing and buttoned into place.\n\nWhatever it was is now a litter of shells.\nEven at noon the attic vault is dim.\nThe hermit carves his own name in the sill\nthat someone after will take stock of him.</pre>\n "}], "pager": {"current_page": 626, "total_items": "13248", "total_pages": 663, "items_per_page": 20}}