{"rows": [{"title": "Simon the Good", "view_node": "/poem/simon-good", "field_author": "<a href=\"/poet/joyelle-mcsweeney\" hreflang=\"und\">Joyelle McSweeney</a>", "field_date_published": "2018", "body": " <pre>I\u2019m the matron-king of hell\nIn yoga pants and a disused bra for a laurel\n&amp; shatter the scene inside your simmering year\n \nLike a ransom scene filmed through shattered transom\nI smear in my glamour\nI make as if\nto justify the ways of God to man\nThat\u2019s my ticket in\nThat\u2019s why God lets me speak here\nCrystostoma\u2019d\non his couch\nEven though I\u2019m derived from Hell\nHellish Helenish Hellenic\n \nI\u2019m the hanged man\nin this version\npegged up\nin mine pegged jeans\nby mine ancles, an inversion\nmine manacles are monocoles\nI spit out the key\nand squinny through the keyhole\nback at the unquittable world\n \nIn my rainment\nof gummy sunglasses\nand crows wings for epaulets\nI delicately squawk from the edges of things\nbalance unsteadily on the bust of the goddess\n \nsquawk:\nAeschelus Euphorion Aeschelus Euphorion\n \n&amp;:\n<span class=\"long-line\">I\u2019m going to tell you something so bad that when you hear it you\u2019re gonna know it\u2019s true.</span>\n \nLike all the worst stories\nIt comes from the heart\n&amp; it goes there too.\n \nBack here in St. Joseph County\n<span class=\"long-line\">a struck duck flies crown first into the asphalt and is stuck there</span>\nwith its brains for adhesive\nlike someone licked the pavement and sealed it\na postalette\nwith its cartoon feet in the air and its Jeff Koon wings\nthat\u2019s roadkill for you: realer than real\nand the cars mill by with their wheels in reverse\nheavy as chariots\nin a dealership commercial\nand I am walking my dog by the river\na matron from hell\n \nlook on me and despise\nI am like the river:\nthick as beer and with a sudsy crown\nthere polyethylene bags drape the banks like herons\n<span class=\"long-line\">and a plastic jug rides a current with something like the determination</span>\nthat creases mine own brow\nas I attempt to burn my lunch off\nthe determination of garbage\nriding for its drain\nhey-nonny it\u2019s spring\nand everything wears a crown\nas it rides its thick doom to its noplace\n \ngently brushed\nby pollen\nby the wings of hymenoptera\nlike a helicoptera\nperforming its opera\nall above Indiana\nbearing the babes away\nfrom their births to their berths\nin the NICU in Indie-un-apple-us\nUnapple us, moron God,\nYou\u2019ve turned me Deophobic\nthe greasy tracks you leave all over the internet\nthe slicey DNA\nin the scramblechondria\nthe torn jeans\npanicked like space invaders\nin an arcane video game\noh spittle-pink blossom\nthe tree don\u2019t need nomore\nshook down to slick the pavement like a payslip\nyou disused killer app\n \neach thought strikes my brain\nlike the spirals in a ham\npink pink for easter\nsliced by something machinic\neach thought zeros in\nflies hapless and demented\nfestooned like a lawn dart\nfinds its bit of eye\nspills its champagne\nsplit of pain\n \nthen we come to our senses\nsuddenly alone\nin the endzone\n</pre>\n "}, {"title": "First Forty Days", "view_node": "/poem/first-forty-days", "field_author": "<a href=\"/poet/michelle-gil-montero\" hreflang=\"en\">Michelle Gil-Montero</a>", "field_date_published": "2018", "body": " <pre>1\n \nMuddled stillness \nAll summer\nSun \n \nPunched the yellow jacket nest\n \nCavernous paper\nValved like a parched heart\n \nOver and over\nI let it\n \nBeat outside\nMy body\n \nNo dark to cradle\nThe living part \n \n \n2\n \nThe glare sears seeing  \n              \t        Something moves out of the corner\n<span class=\"long-line\">                                          \t                      Often it is more      \tnothing  </span>\n \nTumbling\nFrom its silk sack.             \t\n \nThis stillness\n \n              \t         Shifts. Streak  \n \nOf tiny particulars\nPained in relation: the experience still\n \nSo still\nIt is invisible?\n \nIt will settle, I will tell you\nWhere the edges belong\n \n \n3\n \n \nRiver\nThat bare aspiring edge\nThat killing arrow\n      \t      Feathered from its\nOwn wing\n \nThen the third\nRiver forms\n \nWhen pain\u2019s lit\n \nTaper\nDrips\n \n \nSoft lip\nOf my vision\n \nEffacing, radiates\nA late, silty light\nMy life\n \nSlowly bottoming\nInto thought  \n</pre>\n "}, {"title": "Managed Diversity", "view_node": "/poem/managed-diversity", "field_author": "<a href=\"/poet/daniel-borzutzky\" hreflang=\"en\">Daniel Borzutzky</a>", "field_date_published": "2018", "body": " <pre>Through predictive analytics I understood the inevitability of the caged-up babies\n \nThey keep coffins at the border for when the refugees get too far from home\n \nHow many thousands of bodies can we fit in a tent or a swimming pool\n \nWe can live without the unknown in front of us if we keep enough babies in cages\n \nThe cardboard box sleeps one kid comfortably\n \nTwo is snug   efficient   recommended in times of austerity\n\nRelational values change in relation to market sentiments\n\nThis is the danger of having too much access to illegal bodies\n \nLet\u2019s pretend the illegal bodies are bankers\n \nLet\u2019s stick all the bankers in cages\n \nLet\u2019s shove shit in their mouths\n \nLet\u2019s pretend they are eating cryptocurrency\n \nLet\u2019s create a crisis let\u2019s induce inflation\n \nLet\u2019s undervalue the cost of their bodies\n\nI dream of an economy where one arrested immigrant is replaced with one dead banker\n \nI am not responsible for my dreams rather I am responsible for what I do with my dreams\n \nWhen the sleep medication wears off I am alone with the machines that watch me\t\n \nThe global economy brightens my room with the surveillance of my rotten assets\n</pre>\n "}, {"title": "Self-Portrait as Semiramis", "view_node": "/poem/self-portrait-semiramis", "field_author": "<a href=\"/poet/mary-kim-arnold\" hreflang=\"en\">Mary-Kim Arnold</a>", "field_date_published": "2018", "body": " <pre>Had I been raised by doves\nwouldn\u2019t I have learned\nto fly\n \nBy wolves\nto hunt in packs\n \nHad I been raised by gods\nwouldn\u2019t I too\nbe godlike\n \nIn the movies the orphan\nis the killer\nnot loved enough\nunwanted\n \nBut wasn\u2019t I\nmost\nwanted\n \nMy mother\nfish goddess\ndove into the sea\nfor the sin of loving\na mortal man\n \nI love a mortal man too\n \nAt night I coax him\nfrom sleep\nrousing him\nwith my mouth\n \nBy day\nwe build high brick walls\naround us\n        \t  our Babylon\n \nHad my mother lived\nto see me rise from this boundless\ndeep\n        \twould she recognize me\nas I have grown large\nand my arms have become\nthe long arms of the sea\nreaching over\n        \t         and over\n                                \t     \t    for the shore\n</pre>\n "}, {"title": "At a Window", "view_node": "/poem/window-2", "field_author": "<a href=\"/poet/carl-sandburg\" hreflang=\"und\">Carl Sandburg</a>", "field_date_published": "1916", "body": " <pre>Give me hunger,\nO you gods that sit and give\nThe world its orders.\nGive me hunger, pain and want,\nShut me out with shame and failure\nFrom your doors of gold and fame,\nGive me your shabbiest, weariest hunger!\n\nBut leave me a little love,\nA voice to speak to me in the day end,\nA hand to touch me in the dark room\nBreaking the long loneliness.\nIn the dusk of day-shapes\nBlurring the sunset,\nOne little wandering, western star\nThrust out from the changing shores of shadow.\nLet me go to the window,\nWatch there the day-shapes of dusk\nAnd wait and know the coming\nOf a little love.\n</pre>\n "}, {"title": "The Shropshire Lad, III", "view_node": "/poem/shropshire-lad-iii", "field_author": "<a href=\"/poet/e-housman\" hreflang=\"und\">A. E. Housman</a>", "field_date_published": "2018", "body": " <pre>            THE RECRUIT\n\nLeave your home behind, lad,\n    And reach your friends your hand,\nAnd go, and luck go with you\n    While Ludlow tower shall stand.\n\nOh, come you home of Sunday\n    While Ludlow streets are still\nAnd Ludlow bells are calling\n    To farm and lane and mill,\n\nOr come you home of Monday\n    When Ludlow market hums\nAnd Ludlow chimes are playing\n    \u2018The conquering hero comes\u2019,\n\nCome you home a hero,\n    Or come not home at all,\nThe lads you leave will mind you\n    Till Ludlow tower shall fall.\n\nAnd you will list the bugle\n    That blows in lands of morn,\nAnd make the foes of England\n    Be sorry you were born.\n\nAnd you till trump of doomsday\n    On lands of morn may lie,\nAnd make the hearts of comrades\n    Be heavy where you die.\n\nLeave your home behind you,\n    Your friends by field and town:\nOh, town and field will mind you\n    Till Ludlow tower is down. \n</pre>\n "}, {"title": "A Shropshire Lad, I", "view_node": "/poem/shropshire-lad-i", "field_author": "<a href=\"/poet/e-housman\" hreflang=\"und\">A. E. Housman</a>", "field_date_published": "2018", "body": "<pre>\nFrom Clee to heaven the beacon burns,\n    The shires have seen it plain,\nFrom north and south the sign returns\n    And beacons burn again.  \n\nLook left, look right, the hills are bright,\n    The dales are light between,\nBecause \u2019tis fifty years to-night\n    That God has saved the Queen.\n\nNow, when the flame they watch not towers\n    About the soil they trod,\nLads, we\u2019ll remember friends of ours\n    Who shared the work with God.\n\nTo skies that knit their heartstrings right,\n    To fields that bred them brave,\nThe saviours come not home to-night:\n    Themselves they could not save.\n\nIt dawns in Asia, tombstones show\n    And Shropshire names are read;\nAnd the Nile spills his overflow\n    Beside the Severn\u2019s dead.\n\nWe pledge in peace by farm and town\n    The Queen they served in war,\nAnd fire the beacons up and down\n    The land they perished for.\n\n\u2018God save the Queen\u2019 we living sing,\n    From height to height \u2019tis heard;\nAnd with the rest your voices ring,\n    Lads of the Fifty-third.\n\nOh, God will save her, fear you not:\n    Be you the men you\u2019ve been,\nGet you the sons your fathers got,\n    And God will save the Queen.\n</pre>\n"}, {"title": "Soldier: Twentieth Century ", "view_node": "/poem/soldier-twentieth-century", "field_author": "<a href=\"/poet/isaac-rosenberg\" hreflang=\"und\">Isaac Rosenberg</a>", "field_date_published": "2018", "body": " <pre>I love you, great new Titan!\nAm I not you?\nNapoleon and Caesar\nOut of you grew.\n\nOut of unthinkable torture,\nEyes kissed by death,\nWon back to the world again,\nLost and won in a breath,\n\nCruel men are made immortal.\nOut of your pain born,\nThey have stolen the sun\u2019s power\nWith their feet on your shoulders worn.\n\nLet them shrink from your girth,\nThat has outgrown the pallid days\nWhen you slept like Circe\u2019s swine\nOr a word in the brain\u2019s ways. \n</pre>\n "}, {"title": "Killed in Action", "view_node": "/poem/killed-action", "field_author": "<a href=\"/poet/isaac-rosenberg\" hreflang=\"und\">Isaac Rosenberg</a>", "field_date_published": "2018", "body": " <pre>Your \u201cYouth\u201d has fallen from its shelf,\nAnd you have fallen, you yourself.\nThey knocked a soldier on the head,\nI mourn the poet who fell dead.\nAnd yet I think it was by chance,\nBy oversight you died in France.\nYou were so poor an outward man,\nSo small against your spirit\u2019s span,\nThat Nature, being tired awhile,\nSaw but your outward human pile;\nAnd Nature, who would never let\nA sun with light still in it set,\nBefore you even reached your sky,\nIn inadvertence let you die. \n</pre>\n<pre></pre>\n "}, {"title": "Marching", "view_node": "/poem/marching", "field_author": "<a href=\"/poet/isaac-rosenberg\" hreflang=\"und\">Isaac Rosenberg</a>", "field_date_published": "2018", "body": " <pre><em>(As seen from the left file).\n</em>\nMy eyes catch ruddy necks\nSturdily pressed back\u2014\nAll a red-brick moving glint.\nLike flaming pendulums, hands\nSwing across the khaki\u2014\nMustard-coloured khaki\u2014\nTo the automatic feet.\n\nWe husband the ancient glory\nIn these bared necks and hands.\nNot broke is the forge of Mars;\nBut a subtler brain beats iron\nTo shoe the hoofs of death\n(Who paws dynamic air now).\nBlind fingers loose an iron cloud\nTo rain immortal darkness\nOn strong eyes.\n</pre>\n "}, {"title": "The Troop Ship", "view_node": "/poem/troop-ship", "field_author": "<a href=\"/poet/isaac-rosenberg\" hreflang=\"und\">Isaac Rosenberg</a>", "field_date_published": "2018", "body": " <pre>Grotesque and queerly huddled\nContortionists to twist\nThe sleepy soul to a sleep,\nWe lie all sorts of ways\nAnd cannot sleep.\nThe wet wind is so cold,\nAnd the lurching men so careless,\nThat, should you drop to a doze,\nWinds\u2019 fumble or men\u2019s feet\nAre on your face. \n</pre>\n "}, {"title": "The Dead Heroes", "view_node": "/poem/dead-heroes", "field_author": "<a href=\"/poet/isaac-rosenberg\" hreflang=\"und\">Isaac Rosenberg</a>", "field_date_published": "2018", "body": " <pre>Flame out, you glorious skies,\nWelcome our brave;\nKiss their exultant eyes;\nGive what they gave.\n\nFlash, mailed seraphim,\nYour burning spears;\nNew days to outflame their dim\nHeroic years.\n\nThrills their baptismal tread\nThe bright proud air;\nThe embattled plumes outspread\nBurn upwards there.\n\nFlame out, flame out, O Song!\nStar ring to star;\nStrong as our hurt is strong\nOur children are.\n\nTheir blood is England\u2019s heart;\nBy their dead hands\nIt is their noble part\nThat England stands.\n\nEngland\u2014Time gave them thee;\nThey gave back this\nTo win Eternity\nAnd claim God\u2019s kiss. \n</pre>\n "}, {"title": "Louse Hunting", "view_node": "/poem/louse-hunting", "field_author": "<a href=\"/poet/isaac-rosenberg\" hreflang=\"und\">Isaac Rosenberg</a>", "field_date_published": "2018", "body": " <pre>Nudes, stark and glistening,\nYelling in lurid glee.    Grinning faces\nAnd raging limbs\nWhirl over the floor one fire;\nFor a shirt verminously busy\nYon soldier tore from his throat\nWith oaths\nGodhead might shrink at, but not the lice,\nAnd soon the shirt was aflare\nOver the candle he\u2019d lit while we lay.\n\nThen we all sprang up and stript \nTo hunt the verminous brood.\n Soon like a demons\u2019 pantomime\nThis plunge was raging.\nSee the silhouettes agape,\nSee the gibbering shadows\nMixed with the baffled arms on the wall.\n\nSee Gargantuan hooked fingers\nPluck in supreme flesh\nTo smutch supreme littleness.\nSee the merry limbs in that Highland fling\nBecause some wizard vermin willed \nTo charm from the quiet this revel\nWhen our ears were half lulled\nBy the dark music\nBlown from Sleep\u2019s trumpet.\n</pre>\n "}, {"title": "Returning, We Hear the Larks", "view_node": "/poem/returning-we-hear-larks", "field_author": "<a href=\"/poet/isaac-rosenberg\" hreflang=\"und\">Isaac Rosenberg</a>", "field_date_published": "2018", "body": " <pre>Sombre the night is:\nAnd, though we have our lives, we know\nWhat sinister threat lurks there.\n\nDragging these anguished limbs, we only know\nThis poison-blasted track opens on our camp\u2014\nOn a little safe sleep.\n\nBut hark! Joy\u2014joy\u2014strange joy. \nLo! Heights of night ringing with unseen larks:\nMusic showering on our upturned listening faces.\n\nDeath could drop from the dark\nAs easily as song\u2014\nBut song only dropped,\nLike a blind man\u2019s dreams on the sand\nBy dangerous tides;\nLike a girl\u2019s dark hair, for she dreams no ruin lies there,\nOr her kisses where a serpent hides. \n</pre>\n "}, {"title": "Break of Day in the Trenches ", "view_node": "/poem/break-day-trenches", "field_author": "<a href=\"/poet/isaac-rosenberg\" hreflang=\"und\">Isaac Rosenberg</a>", "field_date_published": "2018", "body": "<p><span class=\"long-line\">The darkness crumbles away\u2014</span><br /><span class=\"long-line\">It is the same old druid Time as ever.</span><br /><span class=\"long-line\">Only a live thing leaps my hand\u2014</span><br /><span class=\"long-line\">A queer sardonic rat\u2014</span><br /><span class=\"long-line\">As I pull the parapet\u2019s poppy</span><br /><span class=\"long-line\">To stick behind my ear.</span><br /><span class=\"long-line\">Droll rat, they would shoot you if they knew</span><br /><span class=\"long-line\">Your cosmopolitan sympathies</span><br /><span class=\"long-line\">(And God knows what antipathies).</span><br /><span class=\"long-line\">Now you have touched this English hand</span><br /><span class=\"long-line\">You will do the same to a German\u2014</span><br /><span class=\"long-line\">Soon, no doubt, if it be your pleasure</span><br /><span class=\"long-line\">To cross the sleeping green between.</span><br /><span class=\"long-line\">It seems you inwardly grin as you pass</span><br /><span class=\"long-line\">Strong eyes, fine limbs, haughty athletes</span><br /><span class=\"long-line\">Less chanced than you for life,</span><br /><span class=\"long-line\">Bonds to the whims of murder,</span><br /><span class=\"long-line\">Sprawled in the bowels of the earth,</span><br /><span class=\"long-line\">The torn fields of France. </span><br /><span class=\"long-line\">What do you see in our eyes</span><br /><span class=\"long-line\">At the shrieking iron and flame</span><br /><span class=\"long-line\">Hurled through still heavens?</span><br /><span class=\"long-line\">What quaver\u2014what heart aghast?</span><br /><span class=\"long-line\">Poppies whose roots are in man\u2019s veins</span><br /><span class=\"long-line\">Drop, and are ever dropping:</span><br /><span class=\"long-line\">But mine in my ear is safe,</span><br /><span class=\"long-line\">Just a little white with the dust.</span></p>\n"}, {"title": "On Receiving the First News of the War", "view_node": "/poem/receiving-first-news-war", "field_author": "<a href=\"/poet/isaac-rosenberg\" hreflang=\"und\">Isaac Rosenberg</a>", "field_date_published": "2018", "body": " <pre>Snow is a strange white word;\nNo ice or frost\nHas asked of bud or bird\nFor Winter\u2019s cost.\n\nYet ice and frost and snow\nFrom earth to sky\nThis Summer land doth know;\nNo man knows why.\n\nIn all men\u2019s hearts it is:\nSome spirit old\nHath turned with malign kiss\nOur lives to mould.\n\nRed fangs have torn His face,\nGod\u2019s blood is shed:\nHe mourns from His lone place\nHis children dead.\n\nO ancient crimson curse!\nCorrode, consume;\nGive back this universe\nIts pristine bloom.\n</pre>\n "}, {"title": "Daughters of War", "view_node": "/poem/daughters-war", "field_author": "<a href=\"/poet/isaac-rosenberg\" hreflang=\"und\">Isaac Rosenberg</a>", "field_date_published": "2018", "body": " <pre>Space beats the ruddy freedom of their limbs,\nTheir naked dances with man\u2019s spirit naked\nBy the root side of the tree of life\n(The under side of things\nAnd shut from earth\u2019s profoundest eyes).\n\nI saw in prophetic gleams\nThese mighty daughters in their dances\nBeckon each soul aghast from its crimson corpse\nTo mix in their glittering dances:\nI heard the mighty daughters\u2019 giant sighs\nIn sleepless passion for the sons of valour\nAnd envy of the days of flesh,\nBarring their love with mortal boughs across\u2014\nThe mortal boughs, the mortal tree of life.\nThe old bark burnt with iron wars\nThey blow to a live flame\nTo char the young green days\nAnd reach the occult soul; they have no softer lure,\nNo softer lure than the savage ways of death.\n\nWe were satisfied of our lords the moon and the sun\nTo take our wage of sleep and bread and warmth\u2014\nThese maidens came\u2014these strong everliving Amazons,\nAnd in an easy might their wrists\nOf night\u2019s sway and noon\u2019s sway the scepters brake,\nClouding the wild, the soft lustres of our eyes.\n\nClouding the wild lustres, the clinging tender lights;\nDriving the darkness into the flame of day\nWith the Amazonian wind of them\nOver our corroding faces\nThat must be broken\u2014broken for evermore,\nSo the soul can leap out\nInto their huge embraces.\nThough there are human faces\nBest sculptures of Deity,\nAnd sinews lusted after\nBy the Archangels tall,\nEven these must leap to the love-heat of these maidens\nFrom the flame of terrene days,\nLeaving grey ashes to the wind\u2014to the wind.\n\nOne (whose great lifted face,\nWhere wisdom\u2019s strength and beauty\u2019s strength\nAnd the thewed strength of large beasts\nMoved and merged, gloomed and lit)\nWas speaking, surely, as the earth-men\u2019s earth fell away;\nWhose new hearing drank the sound\nWhere pictures, lutes, and mountains mixed\nWith the loosed spirit of a thought,\nEssenced to language thus\u2014\n\n\u201cMy sisters force their males\nFrom the doomed earth, from the doomed glee\nAnd hankering of hearts. \n<span class=\"long-line\">Frail hands gleam up through the human quagmire, and lips of ash</span>\nSeem to wail, as in sad faded paintings\nFar-sunken and strange.\nMy sisters have their males\nClean of the dust of old days\nThat clings about those white hands\nAnd yearns in those voices sad:\nBut these shall not see them,\nOr think of them in any days or years;\nThey are my sisters\u2019 lovers in other days and years.\u201d\n</pre>\n "}, {"title": "The Right to Grief", "view_node": "/poem/right-grief", "field_author": "<a href=\"/poet/carl-sandburg\" hreflang=\"und\">Carl Sandburg</a>", "field_date_published": "", "body": " <p><em>To Certain Poets About to Die</em><br /><br />Take your fill of intimate remorse, perfumed sorrow,<br />Over the dead child of a millionaire,<br />And the pity of Death refusing any check on the bank<br />Which the millionaire might order his secretary to scratch off<br />And get cashed.<br /><br />\u00a0 Very well,<br />You for your grief and I for mine.<br />Let me have a sorrow my own if I want to.<br /><br />I shall cry over the dead child of a stockyards hunky.<br />His job is sweeping blood off the floor.<br />He gets a dollar seventy cents a day when he works<br /><span class=\"long-line\">And it\u2019s many tubs of blood he shoves out with a broom day by day.</span><br /><br />Now his three year old daughter<br />Is in a white coffin that cost him a week\u2019s wages.<br /><span class=\"long-line\">Every Saturday night he will pay the undertaker fifty cents till the debt is wiped out. </span><br /><br />The hunky and his wife and the kids<br />Cry over the pinched face almost at peace in the white box.<br /><br />They remember it was scrawny and ran up high doctor bills.<br /><span class=\"long-line\">They are glad it is gone for the rest of the family now will have more to eat and wear.</span><br /><br />Yet before the majesty of Death they cry around the coffin<br /><span class=\"long-line\">And wipe their eyes with red bandanas and sob when the priest says, \u201cGod have mercy on us all.\u201d</span><br /><br />I have a right to feel my throat choke about this.<br />You take your grief and I mine\u2014see?<br /><span class=\"long-line\">To-morrow there is no funeral and the hunky goes back to his job sweeping blood off the floor at a dollar seventy cents a day.</span><br /><span class=\"long-line\">All he does all day long is keep on shoving hog blood ahead of him with a broom.</span></p> "}, {"title": "Autumn", "view_node": "/poem/autumn-10", "field_author": "<a href=\"/poet/siegfried-sassoon\" hreflang=\"und\">Siegfried Sassoon</a>", "field_date_published": "2018", "body": " <p>October's bellowing anger breaks and cleaves<br />The bronzed battalions of the stricken wood<br />In whose lament I hear a voice that grieves<br />For battle's fruitless harvest, and the feud<br />Of outraged men. Their lives are like the leaves<br />Scattered in flocks of ruin, tossed and blown<br />Along the westering furnace flaring red.<br />O martyred youth and manhood overthrown,<br />The burden of your wrongs is on my head.</p> "}, {"title": "Repression of War Experience", "view_node": "/poem/repression-war-experience", "field_author": "<a href=\"/poet/siegfried-sassoon\" hreflang=\"und\">Siegfried Sassoon</a>", "field_date_published": "2018", "body": " <p>Now light the candles; one; two; there's a moth;<br />What silly beggars they are to blunder in<br />And scorch their wings with glory, liquid flame\u2014<br />No, no, not that,\u2014it's bad to think of war,<br /><span class=\"long-line\">When thoughts you've gagged all day come back to scare you;</span><br />And it's been proved that soldiers don't go mad<br />Unless they lose control of ugly thoughts<br />That drive them out to jabber among the trees.</p><p>Now light your pipe; look, what a steady hand.<br />Draw a deep breath; stop thinking; count fifteen,<br />And you're as right as rain\u2026.<br />\u00a0 \u00a0 \u00a0 \u00a0 \u00a0 \u00a0 \u00a0 \u00a0 \u00a0 \u00a0 \u00a0 \u00a0 \u00a0 \u00a0 \u00a0 \u00a0 \u00a0 \u00a0 \u00a0Why won't it rain?\u2026<br />I wish there'd be a thunder-storm to-night,<br />With bucketsful of water to sluice the dark,<br />And make the roses hang their dripping heads.</p><p>Books; what a jolly company they are,<br />Standing so quiet and patient on their shelves,<br />Dressed in dim brown, and black, and white, and green<br />And every kind of colour. Which will you read?<br />Come on; O\u00a0<em>do</em>\u00a0read something; they're so wise.<br />I tell you all the wisdom of the world<br />Is waiting for you on those shelves; and yet<br />You sit and gnaw your nails, and let your pipe out,<br />And listen to the silence: on the ceiling<br />There's one big, dizzy moth that bumps and flutters;<br />And in the breathless air outside the house<br />The garden waits for something that delays.<br />There must be crowds of ghosts among the trees,\u2014<br />Not people killed in battle,\u2014they're in France,\u2014<br />But horrible shapes in shrouds\u2014old men who died<br />Slow, natural deaths,\u2014old men with ugly souls,<br />Who wore their bodies out with nasty sins.</p><p>* * *</p><p>You're quiet and peaceful, summering safe at home;<br />You'd never think there was a bloody war on!\u2026<br />O yes, you would \u2026 why, you can hear the guns.<br />Hark! Thud, thud, thud,\u2014quite soft \u2026 they never cease\u2014<br />Those whispering guns\u2014O Christ, I want to go out<br />And screech at them to stop\u2014I'm going crazy;<br />I'm going stark, staring mad because of the guns.</p> "}], "pager": {"current_page": 208, "total_items": "13248", "total_pages": 663, "items_per_page": 20}}