{"rows": [{"title": "Winter: My Secret", "view_node": "/poem/winter-my-secret", "field_author": "<a href=\"/poet/christina-rossetti\" hreflang=\"und\">Christina Rossetti</a>", "field_date_published": "1862", "body": " <p>I tell my secret? No indeed, not I;<br />Perhaps some day, who knows?<br />But not today; it froze, and blows and snows,<br />And you're too curious: fie!<br />You want to hear it? well:<br />Only, my secret's mine, and I won't tell.<br /><br />Or, after all, perhaps there's none:<br />Suppose there is no secret after all,<br />But only just my fun.<br />Today's a nipping day, a biting day;<br />In which one wants a shawl,<br />A veil, a cloak, and other wraps:<br />I cannot ope to everyone who taps,<br />And let the draughts come whistling thro' my hall;<br />Come bounding and surrounding me,<br />Come buffeting, astounding me,<br />Nipping and clipping thro' my wraps and all.<br />I wear my mask for warmth: who ever shows<br />His nose to Russian snows<br />To be pecked at by every wind that blows?<br />You would not peck? I thank you for good will,<br />Believe, but leave the truth untested still.<br /><br />Spring's an expansive time: yet I don't trust<br />March with its peck of dust,<br />Nor April with its rainbow-crowned brief showers,<br />Nor even May, whose flowers<br />One frost may wither thro' the sunless hours.<br /><br />Perhaps some languid summer day,<br />When drowsy birds sing less and less,<br />And golden fruit is ripening to excess,<br />If there's not too much sun nor too much cloud,<br />And the warm wind is neither still nor loud,<br />Perhaps my secret I may say,<br />Or you may guess.</p> "}, {"title": "In Tenebris", "view_node": "/poem/tenebris", "field_author": "<a href=\"/poet/ford-madox-ford\" hreflang=\"und\">Ford Madox Ford</a>", "field_date_published": "1892", "body": " <p>All within is warm,<br />\u00a0\u00a0\u00a0Here without it's very cold,<br />\u00a0\u00a0\u00a0Now the year is grown so old<br />And the dead leaves swarm.<br /><br />In your heart is light,<br />\u00a0\u00a0\u00a0Here without it's very dark,<br />\u00a0\u00a0\u00a0When shall I hear the lark?<br />When see aright?<br /><br />Oh, for a moment's space!<br />\u00a0\u00a0\u00a0Draw the clinging curtains wide<br />\u00a0\u00a0\u00a0Whilst I wait and yearn outside<br />Let the light fall on my face.</p> "}, {"title": "The Year", "view_node": "/poem/year", "field_author": "<a href=\"/poet/ella-wheeler-wilcox\" hreflang=\"und\">Ella Wheeler Wilcox</a>", "field_date_published": "1917", "body": " <p>What can be said in New Year rhymes,<br />That's not been said a thousand times?<br /><br />The new years come, the old years go,<br />We know we dream, we dream we know.<br /><br />We rise up laughing with the light,<br />We lie down weeping with the night.<br /><br />We hug the world until it stings,<br />We curse it then and sigh for wings.<br /><br />We live, we love, we woo, we wed,<br />We wreathe our brides, we sheet our dead.<br /><br />We laugh, we weep, we hope, we fear,<br />And that's the burden of the year.</p> "}, {"title": "For N &amp; K", "view_node": "/poem/n-k", "field_author": "<a href=\"/poet/gina-myers\" hreflang=\"und\">Gina Myers</a>", "field_date_published": "2012", "body": " <p>Otis on vinyl<br />carries from<br />the barn. Blessed<br />is this day. The camera<br />captures us youthful<br />&amp; triumphant.<br />Blessed be this day,<br />a celebration<br />of friends coming<br />together. Last night,<br />surrounded by<br />those I love, I had wanted<br />to read Berrigan's<br />\"Words For Love,\"<br />but I didn't want to say<br />the heart <i>breaks</i>, even though I know<br />it's true &amp; the breaking<br />can be a good thing<br />sometimes, like the way<br />my heart shatters<br />a little each time<br />I think of my friends<br />&amp; how lucky in life<br />I've been to get<br />to know them, to have<br />had the time to laugh &amp;<br />drink &amp; dance &amp; to argue<br />&amp; feel hurt too.<br />How can one possibly<br />say everything<br />that should be said?<br />These feelings<br />just feelings, not<br />defined by words.<br />To be overwhelmed,<br />caught in a whirlwind<br />&amp; up to one's<br />ankles in the creek<br />as lightning bugs<br />polka-dot the sky<br />&amp; Otis, again Otis,<br />always Otis in my<br />memory, provides<br />the soundtrack.<br />Not every day<br />can be a good day<br />but this is one<br />of them, one<br />of the best days.</p> "}, {"title": "Love&#039;s Labour&#039;s Lost, Act V, Scene 2 [Winter]", "view_node": "/poem/loves-labours-lost-act-v-scene-2-winter", "field_author": "<a href=\"/poet/william-shakespeare\" hreflang=\"und\">William Shakespeare</a>", "field_date_published": "1598", "body": " <p>When icicles hang by the wall<br />\u00a0\u00a0\u00a0And Dick the shepherd blows his nail<br />And Tom bears logs into the hall<br />\u00a0\u00a0\u00a0And milk comes frozen home in pail,<br />When blood is nipp'd and ways be foul,<br />Then nightly sings the staring owl,<br />\u00a0\u00a0\u00a0\u00a0\u00a0\u00a0\u00a0\u00a0\u00a0\u00a0\u00a0\u00a0\u00a0\u00a0\u00a0\u00a0\u00a0\u00a0\u00a0\u00a0\u00a0\u00a0\u00a0\u00a0Tu-whit;<br />Tu-who, a merry note,<br />While greasy Joan doth keel the pot.<br /><br />When all aloud the wind doth blow<br />\u00a0\u00a0\u00a0And coughing drowns the parson's saw<br />And birds sit brooding in the snow<br />\u00a0\u00a0\u00a0And Marian's nose looks red and raw,<br />When roasted crabs hiss in the bowl,<br />Then nightly sings the staring owl,<br />\u00a0\u00a0\u00a0\u00a0\u00a0\u00a0\u00a0\u00a0\u00a0\u00a0\u00a0\u00a0\u00a0\u00a0\u00a0\u00a0\u00a0\u00a0\u00a0\u00a0\u00a0\u00a0\u00a0\u00a0Tu-whit;<br />Tu-who, a merry note,<br />While greasy Joan doth keel the pot.</p> "}, {"title": "Glass Corona", "view_node": "/poem/glass-corona", "field_author": "<a href=\"/poet/brian-henry\" hreflang=\"und\">Brian Henry</a>", "field_date_published": "2012", "body": " <p>The opening (read: aperture)<br />is open by design (read: default),<br />so susceptible to departure<br /><br />with the brain floating, bag of salt,<br />loud, malleable light, the sky profuse<br />in its movement from rim to vault,<br /><br />an orb (read: void) open to obtuse<br />approach from any outer corridor<br />(read: vector), as if angle could produce<br /><br />what sight announces as visitor,<br />a gravity-infected flash, or fleck,<br />that, focused, becomes meteor,<br /><br />the surface less limit than wreck,<br />the eye a crash site, open to air,<br />onto a sky that will not reflect.</p> "}, {"title": "Parochial Poetry", "view_node": "/poem/parochial-poetry", "field_author": "<a href=\"/poet/ben-doller\" hreflang=\"und\">Ben Doller</a>", "field_date_published": "2012", "body": " <p>whiter I make it when walking right in<br />unswerved, sweating fluorescent bleach,<br />preaching a moon page that says its welts:<br />learn this by heart is empty but do it<br />to do it. I make it somehow whiter, zombied<br />and I opified allover the absolutely<br />whitest room. I say keep your lines in line<br />and look at me now just lining them,<br />some flogged orthodoxen, ploughed<br />down sillion shiny sacerdotal lines<br />I'm supposed to like and looky I do.<br />I like what I like. I just like what I like.<br />I like to say look: dissident anachronistics,<br />shambolic stuff in master rows but look<br />at me. I even early balded to enhance<br />the interrogation. I meander in and form more<br />order. I like to point with my pointer, to<br />indicate. The most afraid I like to get is<br />a little bit. I app my accounts and survey<br />the advantage. I tower under.<br />I oxiclean the ivory. I shower and shower.<br />I dig on fonts. I wake up singing I say<br />never start with that but one morning<br />I wake up singing the Fat Boys. I wikipede<br />The Fat Boys. One of them is no longer.<br />The other is no longer fat. I assess the Human<br />beatbox via a Schwittersian optic.<br />I exercise my massive rights. I have the right<br />to remain. I remain. I interview just<br />like a glacier. I hand dance. I like just<br />what I like. My skin is white not. It fits<br />just tight. It burns on will. My horizon<br />is fungible. My will is like whatever.<br />My SPF is infinity. People seem to like<br />me. I was just born just this way.</p> "}, {"title": "Night Theater", "view_node": "/poem/night-theater", "field_author": "<a href=\"/poet/meena-alexander\" hreflang=\"und\">Meena Alexander</a>", "field_date_published": "2012", "body": "<p><span class=\"long-line\">Snails circle</span><br /><span class=\"long-line\">A shed where a child was born.</span><br /><br /><span class=\"long-line\">She bled into straw\u2014</span><br /><span class=\"long-line\">Who can write this?</span><br /><br /><span class=\"long-line\">Under Arcturus,</span><br /><span class=\"long-line\">Rubble of light:</span><br /><br /><span class=\"long-line\">We have no words</span><br /><span class=\"long-line\">For what is happening\u2014</span><br /><br /><span class=\"long-line\">Still language endures</span><br /><span class=\"long-line\">Celan said</span><br /><br /><span class=\"long-line\">As he stood in a torn</span><br /><span class=\"long-line\">Green coat</span><br /><br /><span class=\"long-line\">Shivering a little,</span><br /><span class=\"long-line\">In a night theater, in Bremen. </span></p>\n"}, {"title": "a woman all about love yesterday.", "view_node": "/poem/woman-all-about-love-yesterday", "field_author": "<a href=\"/poet/shira-dentz\" hreflang=\"und\">Shira Dentz</a>", "field_date_published": "2012", "body": " <p>\u00a0\u00a0\u00a0\u00a0\u00a0\u00a0\u00a0\u00a0\u00a0\u00a0\u00a0\u00a0\u00a0\u00a0\u00a0\u00a0We have a single sky.<br /><br />\u00a0\u00a0\u00a0\u00a0\u00a0\u00a0\u00a0\u00a0\u00a0\u00a0\u00a0\u00a0\u00a0\u00a0\u00a0\u00a0\u00a0\u00a0\u00a0\u00a0\u00a0have a single slash<br />\u00a0</p><table width=\"250\"><tbody><tr><td>a single sleep</td><td>rose</td></tr><tr><td>single sleeve</td><td>rosebud</td></tr><tr><td>single slap</td><td>rosette</td></tr><tr><td>single slice</td><td>roster</td></tr><tr><td>\u00a0\u00a0\u00a0slide</td><td>rostrum</td></tr><tr><td>a single slip</td><td>rotunda</td></tr><tr><td>single slope</td><td>rouble</td></tr><tr><td>single smell</td><td>roue</td></tr><tr><td>single smile</td><td>rouge</td></tr><tr><td>a single smoke</td><td>rough</td></tr><tr><td>\u00a0\u00a0\u00a0\u00a0\u00a0\u00a0snake</td><td>roughcast</td></tr><tr><td>single snow</td><td>round</td></tr></tbody></table><br /><p>gotta let the passageway silhouette,<br />benediction of my kneel creaks in ________ labyrinths;<br />trying to ________ pregnant, backgrounds with or without; married, single. pressing<br />hard, bloom drains from my hand. patch. sunlight dims<br />in the late aftertaste. sunshade dimming in the late age. 66\u00b0<br /><br />Your pearl self slows power, circles</p><p>\u00a0</p> "}, {"title": "Dear Corporation,", "view_node": "/poem/dear-corporation", "field_author": "<a href=\"/poet/adam-fell\" hreflang=\"und\">Adam Fell</a>", "field_date_published": "2012", "body": " <table width=\"230\"><tbody><tr><td><p align=\"justify\">\u00a0\u00a0\u00a0\u00a0\u00a0\u00a0\u00a0\u00a0\u00a0\u00a0\u00a0\u00a0\u00a0\u00a0\u00a0\u00a0\u00a0\u00a0\u00a0\u00a0\u00a0\u00a0\u00a0\u00a0I don't know how to say how I feel politely, or poetically, or without the jugular and collapse of the immediate heart, so tonight, I won't say anything at all. Just stare out the window at our stunned little writhe. Hold back the strongest urge to knock out a few of the capitol's most critical walls, replace its fiber optic cables with lightning bugs, replace the investment bankers all with bunker busters. I lock eyes with the capitol's bright and empty rooms and admit that, sometimes, deep in my affluent, American cells, I miss my body carved to projectile. I miss trebuchet shoulders and knuckles flaked to arrowheads, miss my hands massive and molded from molten to the bolts of ballistas. I miss blackjack and cudgel and quarterstaff and flintlock. I miss pummel and pike and I am not proud of this. I know it's not a healthy feeling. I try to un-arm, to un-cock. I try to practice my breathing. I try <i>The Master Cleanse</i>, <i>The Stationary Bike</i>, <i>The Bikram Sweat</i>, <i>The Contortion Stretch</i>, <i>The Vegan Meatloaf</i>, <i>The Nightly</i>, <i>Scorching Bath</i>, <i>The Leafy Greens</i> and <i>Venom Television</i>, <i>The Self-Mutilation of a Winter's Run</i>, but we can only cleanse our bodies so much before we realize it's not our bodies that need detoxing.</p></td></tr></tbody></table><p>\u00a0</p> "}, {"title": "Hymn", "view_node": "/poem/hymn", "field_author": "<a href=\"/poet/kazim-ali\" hreflang=\"und\">Kazim Ali</a>", "field_date_published": "2012", "body": " <p>My father's silence I cannot brook. By now he must know I live and well.</p><p>My heart is nickel, unearthed and sent. We are a manmade catastrophe.</p><p>Unable to forgive, deeply mine this earthly light that swells sickly inside.</p><p>Like wind I drift westward and profane when the doors of ice slide open.</p><p>While he prays my father swallows the sickle moon, its bone sharp path spent.</p><p>Preyed upon by calendars of stone unbound the nickel of the mountain in streams.</p><p>Mine this awful empty night. Mine this unchiming bell, his unanswered prayers.</p><p>Mine the rain-filled sandals, the road out of town. Like a wind unbound this shining river mine.</p> "}, {"title": "The Night Migrations", "view_node": "/poem/night-migrations", "field_author": "<a href=\"/poet/louise-gluck\" hreflang=\"und\">Louise Gl\u00fcck</a>", "field_date_published": "2006", "body": " <pre>\nThis is the moment when you see again\nthe red berries of the mountain ash\nand in the dark sky\nthe birds' night migrations.\n\nIt grieves me to think\nthe dead won't see them\u2014\nthese things we depend on,\nthey disappear.\n\nWhat will the soul do for solace then?\nI tell myself maybe it won't need\nthese pleasures anymore; \nmaybe just not being is simply enough,\nhard as that is to imagine.</pre>\n "}, {"title": "The Oven-Bird", "view_node": "/poem/oven-bird", "field_author": "<a href=\"/poet/robert-frost\" hreflang=\"und\">Robert Frost</a>", "field_date_published": "1916", "body": " <pre>\nThere is a singer everyone has heard,\nLoud, a mid-summer and a mid-wood bird,\nWho makes the solid tree trunks sound again.\nHe says that leaves are old and that for flowers\nMid-summer is to spring as one to ten.\nHe says the early petal-fall is past\nWhen pear and cherry bloom went down in showers\nOn sunny days a moment overcast;\nAnd comes that other fall we name the fall.\nHe says the highway dust is over all.\nThe bird would cease and be as other birds\nBut that he knows in singing not to sing.\nThe question that he frames in all but words\nIs what to make of a diminished thing.</pre>\n "}, {"title": "Twilights, V", "view_node": "/poem/twilights-v", "field_author": "<a href=\"/poet/conrad-aiken\" hreflang=\"und\">Conrad Aiken</a>", "field_date_published": "1922", "body": " <p>Now the great wheel of darkness and low clouds<br />Whirs and whirls in the heavens with dipping rim;<br />Against the ice-white wall of light in the west<br />Skeleton trees bow down in a stream of air.<br />Leaves, black leaves and smoke, are blown on the wind;<br />Mount upward past my window; swoop again;<br />In a sharp silence, loudly, loudly falls<br />The first cold drop, striking a shriveled leaf . . .<br />Doom and dusk for the earth! Upward I reach<br />To draw chill curtains and shut out the dark,<br />Pausing an instant, with uplifted hand,<br />To watch, between black ruined portals of cloud,<br />One star,\u2014the tottering portals fall and crush it.<br />Here are a thousand books! here is the wisdom<br />Alembicked out of dust, or out of nothing;<br />Choose now the weightiest word, most golden page,<br />Most somberly musicked line; hold up these lanterns,\u2014<br />These paltry lanterns, wisdoms, philosophies,\u2014<br />Above your eyes, against this wall of darkness;<br />And you'll see\u2014what? One hanging strand of cobweb,<br />A window-sill a half-inch deep in dust . . .<br />Speak out, old wise-men! Now, if ever, we need you.<br />Cry loudly, lift shrill voices like magicians<br />Against this baleful dusk, this wail of rain . . .<br />But you are nothing! Your pages turn to water<br />Under my fingers: cold, cold and gleaming,<br />Arrowy in the darkness, rippling, dripping\u2014<br />All things are rain . . . Myself, this lighted room,<br />What are we but a murmurous pool of rain? . . .<br />The slow arpeggios of it, liquid, sibilant,<br />Thrill and thrill in the dark. World-deep I lie<br />Under a sky of rain. Thus lies the sea-shell<br />Under the rustling twilight of the sea;<br />No gods remember it, no understanding<br />Cleaves the long darkness with a sword of light.</p> "}, {"title": "Reluctance", "view_node": "/poem/reluctance", "field_author": "<a href=\"/poet/robert-frost\" hreflang=\"und\">Robert Frost</a>", "field_date_published": "1913", "body": " <p>Out through the fields and the woods<br />\u00a0\u00a0\u00a0And over the walls I have wended;<br />I have climbed the hills of view<br />\u00a0\u00a0\u00a0And looked at the world, and descended;<br />I have come by the highway home,<br />\u00a0\u00a0\u00a0And lo, it is ended.<br /><br />The leaves are all dead on the ground,<br />\u00a0\u00a0\u00a0Save those that the oak is keeping<br />To ravel them one by one<br />\u00a0\u00a0\u00a0And let them go scraping and creeping<br />Out over the crusted snow,<br />\u00a0\u00a0\u00a0When others are sleeping.<br /><br />And the dead leaves lie huddled and still,<br />\u00a0\u00a0\u00a0No longer blown hither and thither;<br />The last lone aster is gone;<br />\u00a0\u00a0\u00a0The flowers of the witch hazel wither;<br />The heart is still aching to seek,<br />\u00a0\u00a0\u00a0But the feet question \u2018Whither?\u2019<br /><br />Ah, when to the heart of man<br />\u00a0\u00a0\u00a0Was it ever less than a treason<br />To go with the drift of things,<br />\u00a0\u00a0\u00a0To yield with a grace to reason,<br />And bow and accept the end<br />\u00a0\u00a0\u00a0Of a love or a season?</p> "}, {"title": "An Eternity", "view_node": "/poem/eternity-0", "field_author": "<a href=\"/poet/archibald-macleish\" hreflang=\"und\">Archibald MacLeish</a>", "field_date_published": "1917", "body": " <p>There is no dusk to be,<br />\u00a0\u00a0\u00a0There is no dawn that was,<br />Only there's now, and now,<br />\u00a0\u00a0\u00a0And the wind in the grass.<br /><br />Days I remember of<br />\u00a0\u00a0\u00a0Now in my heart, are now;<br />Days that I dream will bloom<br />\u00a0\u00a0\u00a0White peach bough.<br /><br />Dying shall never be<br />\u00a0\u00a0\u00a0Now in the windy grass;<br />Now under shooken leaves<br />\u00a0\u00a0\u00a0Death never was.</p> "}, {"title": "Fragment 3: Come, come thou bleak December wind", "view_node": "/poem/fragment-3-come-come-thou-bleak-december-wind", "field_author": "<a href=\"/poet/samuel-taylor-coleridge\" hreflang=\"und\">Samuel Taylor Coleridge</a>", "field_date_published": "1893", "body": " <p>Come, come thou bleak December wind,<br />And blow the dry leaves from the tree!<br />Flash, like a Love-thought, thro' me, Death<br />And take a Life that wearies me.</p> "}, {"title": "December, 1919", "view_node": "/poem/december-1919", "field_author": "<a href=\"/poet/claude-mckay\" hreflang=\"und\">Claude McKay</a>", "field_date_published": "1922", "body": " <p>Last night I heard your voice, mother,<br />\u00a0\u00a0\u00a0\u00a0\u00a0\u00a0The words you sang to me<br />When I, a little barefoot boy,<br />\u00a0\u00a0\u00a0\u00a0\u00a0\u00a0Knelt down against your knee.<br /><br />And tears gushed from my heart, mother,<br />\u00a0\u00a0\u00a0\u00a0\u00a0\u00a0And passed beyond its wall,<br />But though the fountain reached my throat<br />\u00a0\u00a0\u00a0\u00a0\u00a0\u00a0The drops refused to fall.<br /><br />'Tis ten years since you died, mother,<br />\u00a0\u00a0\u00a0\u00a0\u00a0\u00a0Just ten dark years of pain,<br />And oh, I only wish that I<br />\u00a0\u00a0\u00a0\u00a0\u00a0\u00a0Could weep just once again.</p> "}, {"title": "Remembered Light", "view_node": "/poem/remembered-light", "field_author": "<a href=\"/poet/clark-ashton-smith\" hreflang=\"und\">Clark Ashton Smith</a>", "field_date_published": "1912", "body": "<p><span class=\"long-line\">The years are a falling of snow,</span><br /><span class=\"long-line\">Slow, but without cessation,</span><br /><span class=\"long-line\">On hills and mountains and flowers and worlds that were;</span><br /><span class=\"long-line\">But snow and the crawling night in which it fell</span><br /><span class=\"long-line\">May be washed away in one swifter hour of flame.</span><br /><span class=\"long-line\">Thus it was that some slant of sunset</span><br /><span class=\"long-line\">In the chasms of piled cloud\u2014</span><br /><span class=\"long-line\">Transient mountains that made a new horizon,</span><br /><span class=\"long-line\">Uplifting the west to fantastic pinnacles\u2014</span><br /><span class=\"long-line\">Smote warm in a buried realm of the spirit,</span><br /><span class=\"long-line\">Till the snows of forgetfulness were gone.</span></p>\n\n<p><span class=\"long-line\">Clear in the vistas of memory,</span><br /><span class=\"long-line\">The peaks of a world long unremembered,</span><br /><span class=\"long-line\">Soared further than clouds, but fell not,</span><br /><span class=\"long-line\">Based on hills that shook not nor melted</span><br /><span class=\"long-line\">With that burden enormous, hardly to be believed.</span><br /><span class=\"long-line\">Rent with stupendous chasms,</span><br /><span class=\"long-line\">Full of an umber twilight,</span><br /><span class=\"long-line\">I beheld that larger world.</span></p>\n\n<p><span class=\"long-line\">Bright was the twilight, sharp like ethereal wine</span><br /><span class=\"long-line\">Above, but low in the clefts it thickened,</span><br /><span class=\"long-line\">Dull as with duskier tincture.</span></p>\n"}, {"title": "Places [III. Winter Sun]", "view_node": "/poem/places-iii-winter-sun", "field_author": "<a href=\"/poet/sara-teasdale\" hreflang=\"und\">Sara Teasdale</a>", "field_date_published": "1922", "body": " <p>\u00a0\u00a0\u00a0\u00a0\u00a0\u00a0\u00a0\u00a0<i>(Lenox)</i></p><p>There was a bush with scarlet berries,<br />\u00a0\u00a0\u00a0And there were hemlocks heaped with snow,<br />With a sound like surf on long sea-beaches<br />\u00a0\u00a0\u00a0They took the wind and let it go.<br /><br />The hills were shining in their samite,<br />\u00a0\u00a0\u00a0Fold after fold they flowed away;<br />\"Let come what may,\" your eyes were saying,<br />\u00a0\u00a0\u00a0\"At least we two have had to-day.\"</p> "}], "pager": {"current_page": 434, "total_items": "13248", "total_pages": 663, "items_per_page": 20}}