{"rows": [{"title": "F15", "view_node": "/poem/f15", "field_author": "<a href=\"/poet/carol-mirakove\" hreflang=\"und\">Carol Mirakove</a>", "field_date_published": "2004", "body": " <pre>\nflash card. fever down.\n\n\"ar\u00e9pa!\" as an expletive--translation=pancake. flip flop\nhappy feet: corn is what we've got &amp; worth it. \n\nscholars, watchdogs, tactics, public. thanks to you,\nCHARLES LEWIS. how long before my membership to anti-\nslavery international tags me as an accessory to a terrorist\norganization? naming corporations who use bonded labor\nto suck oil is, as they say, unpatriotic. read between the\npipelines.\n\nif you're free &amp; in. if you're running late. if you're burning\na mix. if you're better &amp; better. love. love. wondering.\nwarmth.\n\nthe gift of an eye for horror. have tape, will capture.\nsweetest v-day of the freedom freaks. we shall overthrow.\nfrozen toes or no.\n\n4 million in the streets &amp; all mobile, save NYC. saying no\nto war were college students, middle-aged couples,\nfamilies, veterans of the 60s civil rights movement,\nAverage White Guys for Peace, laborers,\nenvironmentalists, Christians, businessfolk, and elderly\nladies wearing pink kerchiefs who, after 80 years of\nglobalization, just--can't--take it anymore!\n\nrage &amp; helplessness abound in the barricades, controlled,\ninward, still denied assembly, right to sidewalks kicked to\nthe curb. beating the penned-in kneeling puppets,\nchickens watch. standoff in SoHo rings DROP BUSH, NOT\nBOMBS!\n\ntheir F-15 = detect / acquire / track / attack. the single-\nseat, low-drag, superior-weapon, Eagle air.\n\nmythological in stature: war reasons &amp; their means.\n\nactual in cost: $2,000 per family, here; entire families,\nthere. </pre>\n "}, {"title": "Bog Myrtle V", "view_node": "/poem/bog-myrtle-v", "field_author": "<a href=\"/poet/pansy-maurer-alvarez\" hreflang=\"und\">Pansy Maurer-Alvarez</a>", "field_date_published": "2004", "body": " <p class=\"xsmall\"><i>from a series of coiled basket forms<br />by Anna S. King, textile artist</i></p>&#13;\n<pre>&#13;\nTake bog myrtle&#13;\n    that unprepossessing marshland shrub&#13;\n\t    with a beautiful aroma when crushed&#13;\nPut under the brow bands of childhood ponies&#13;\n    to keep the flies away and now a reminder&#13;\n\t    of weekends on the west coast of Scotland&#13;\nBunches brought back to work with&#13;\n    aware of the option of holding something back&#13;\n\t    when lost in the hypnotic rhythm of weaving&#13;\n\t\t    &#13;\n               ***&#13;\n\t\t\t\t\t   &#13;\nI push the energy of contemplation from mind into fingers&#13;\nto this concentration of textures    centrifugally formed:&#13;\npine needles woven with waxed cotton;&#13;\nsprigs of bog myrtle   stand encircling the form&#13;\ntheir tips rising above the central hollow of the basket--&#13;\nthat space&#13;\n    containing   and    concealing&#13;\n    or offering you a place to release&#13;\n        your disturbingly secretive&#13;\n        self&#13;\n        to yourself</pre>&#13;\n "}, {"title": "On Becoming a Poet in the 1950s", "view_node": "/poem/becoming-poet-1950s", "field_author": "<a href=\"/poet/stephen-beal\" hreflang=\"und\">Stephen Beal</a>", "field_date_published": "2004", "body": " <pre>&#13;\nThere was love and there was trees.&#13;\nEither you could stay inside and probe your emotions&#13;\nor you could go outside and keenly observe nature.&#13;\nDescribe the sheen on carapaces,&#13;\nthe effect of breeze on grass.&#13;\n&#13;\nWhat's the fag doing now? Dad would say.&#13;\nPicking the nose of his heart?&#13;\nWanking off on a daffodil?&#13;\n&#13;\nHe's not homosexual, Mom would retort, using her apron as a potholder to&#13;\n    remove the apple brown betty from the oven.&#13;\nHe's sensitive. He cares.&#13;\nHe wishes to impart values and standards to an indifferent world.&#13;\n&#13;\nWow! said Dad, stomping off to the pantry for another scotch. Two poets in&#13;\nthe family. Ain't I a lucky duck?&#13;\n&#13;\nAs fate would have it, I became one of your tweedy English teachers, what&#13;\n    Dad would call a daffodil-wanker,&#13;\nand Mom ended up doing needlepoint, seventy-two kneelers for St. Fred's&#13;\n    before she expired of the heart broken on the afternoon that Dad&#13;\n    roared off with the Hell's Angels.&#13;\nWe heard a little from Big Sur. A beard. Tattoos. A girlfriend named Strawberry.&#13;\n    A boyfriend named Thor. &#13;\nBars and pot and coffeehouses, stuff like that.&#13;\n&#13;\nAfter years of quotation by younger poets, admiration but no real notice,&#13;\nDad is making the anthologies now.&#13;\nCritics cite his primal rage, the way he nails Winnetka.</pre>&#13;\n "}, {"title": "Retsepile, Ausi oa ka", "view_node": "/poem/retsepile-ausi-oa-ka", "field_author": "<a href=\"/poet/jacqueline-lyons\" hreflang=\"und\">Jacqueline Lyons</a>", "field_date_published": "2004", "body": "<blockquote><sup><em>Ausi oa ka=my sister/my daughter</em></sup></blockquote>\n\n<p><span class=\"long-line\">I wake up with bits of Africa on me, in my pockets folded <em>maloti</em></span><br /><span class=\"long-line\">Coins with raised birds, paraffin and dung smoke still knit to my clothes</span><br /><span class=\"long-line\">Dear Elizabeth, the bus that crashed on the way to your house, I</span><br /><span class=\"long-line\">\u00a0\u00a0\u00a0\u00a0\u00a0\u00a0\u00a0\u00a0\u00a0climbed out unhurt</span><br /><span class=\"long-line\">Greetings from each person passing, hearing my name so often</span><br /><span class=\"long-line\"><em>A cappella</em> singing and oil can drumming</span><br /><span class=\"long-line\">Paraffin and dung smoke</span><br /><span class=\"long-line\">Moses, I have your photos on the walls, spread in a circle around me</span><br /><span class=\"long-line\">Knit into my clothes, wrinkled but whole</span><br /><span class=\"long-line\">If I came back I could wait with my same ticket, for a different bus,</span><br /><span class=\"long-line\">\u00a0\u00a0\u00a0\u00a0\u00a0\u00a0\u00a0\u00a0\u00a0that same road</span><br /><span class=\"long-line\">I wake up in the U. S. A., hair smoothed down and throat dry </span><br /><span class=\"long-line\">If I came back, I could. . .</span><br /><span class=\"long-line\">Greetings, hearing my name so often I know I am there</span><br /><span class=\"long-line\">My mouth sings your words, hands wave in the air</span><br /><span class=\"long-line\">I'm holding my ticket, wrinkled but whole, from the bus that crashed</span><br /><span class=\"long-line\">To the Setumo family, I'm sitting here remembering <em>Re hopola Thaba Bosiu</em></span><br /><span class=\"long-line\">On the way to your house, chickens clucking, ringing of the hand-held bell</span><br /><span class=\"long-line\">Seitlheko, I know, the ticket, the <em>maloti</em>, birds and drumming</span><br /><span class=\"long-line\">Greetings from each person passing</span><br /><span class=\"long-line\">If I came back, <em>Nt\u0161ebo, Makhotso</em>, I could hear my name</span></p>\n"}, {"title": "Chronicle of the Rain", "view_node": "/poem/chronicle-rain", "field_author": "<a href=\"/poet/rafael-perez-estrada\" hreflang=\"und\">Rafael P\u00e9rez Estrada</a>", "field_date_published": "2004", "body": " <pre>&#13;\nOne of her nipples was red, tepid, carnal; the other, blue, looked&#13;\nmade for death's caress. They also brought to mind the luxuri-&#13;\nous faucets of a porcelain tub.&#13;\n&#13;\nThere's a story of a woman who was devoured by the moon. It's&#13;\nsaid that her cries were made of silver.&#13;\n&#13;\nNever write the words \"tiger\" and \"dove\" in the same line, for&#13;\nthe first may devour the second.&#13;\n&#13;\nI was fascinated by the cloud the farmer kept anchored to the &#13;\ndoor of his shack: \"It's very docile,\" he explained, \"and we milk&#13;\nit three times a week. That's all the land needs.\"&#13;\n&#13;\nI knew that he had assassinated the sea, for his hands were&#13;\nstained blue.&#13;\n&#13;\n\"That swan is a rapist!\" the frightened girl shouted at me, point-&#13;\ning at the erect neck of a ferocious swan. And I, who through&#13;\nsome strange interference shared her dreams, proposed at that &#13;\ninstant that we exchange nightmares.&#13;\n&#13;\nThe girls came running: \"The sea, the sea!\" they shouted.&#13;\n\"There's a wave made of gold!\"&#13;\n&#13;\nI asked her to, I asked her like a child asking for the impossible: she&#13;\ntook off her shoes and clothes and walked all night long on the sea.&#13;\n&#13;\nIt was a forest of infinite trees, and each tree had a swing, and&#13;\nin each swing was a dead child waiting to be resurrected.&#13;\n&#13;\nA boy whose eyes were darkening asked me, \"When I die, will&#13;\nthe sea cease to exist?\" I chose not to disillusion him.</pre>&#13;\n "}, {"title": "A Happy Birthday", "view_node": "/poem/happy-birthday", "field_author": "<a href=\"/poet/ted-kooser\" hreflang=\"und\">Ted Kooser</a>", "field_date_published": "2004", "body": " <pre>\nThis evening, I sat by an open window\nand read till the light was gone and the book\nwas no more than a part of the darkness. \nI could easily have switched on a lamp, \nbut I wanted to ride this day down into night,\nto sit alone and smooth the unreadable page \nwith the pale gray ghost of my hand.</pre>\n "}, {"title": "Moon Gathering", "view_node": "/poem/moon-gathering", "field_author": "<a href=\"/poet/eleanor-wilner\" hreflang=\"und\">Eleanor Wilner</a>", "field_date_published": "2004", "body": " <pre>\nAnd they will gather by the well,\nits dark water a mirror to catch whatever\nstars slide by in the slow precession of\nthe skies, the tilting dome of time, \nover all, a light mist like a scrim,\nand here and there some clouds\nthat will open at the last and let\nthe moon shine through; it will be \nat the wheel's turning, when\nthree zeros stand like paw-prints\nin the snow; it will be a crescent\nmoon, and it will shine up from\nthe dark water like a silver hook\nwithout a fish--until, as we lean closer, \nswimming up from the well, something\ndark but glowing, animate, like live coals--\nit is our own eyes staring up at us,\nas the moon sets its hook;\nand they, whose dim shapes are no more\nthan what we will become, take up\ntheir long-handled dippers\nof brass, and one by one, they catch\nthe moon in the cup-shaped bowls,\nand they raise its floating light\nto their lips, and with it, they drink back\nour eyes, burning with desire to see\ninto the gullet of night: each one\ndips and drinks, and dips, and drinks, \nuntil there is only dark water,\nuntil there is only the dark.</pre>\n "}, {"title": "Back with the Quakers", "view_node": "/poem/back-quakers", "field_author": "<a href=\"/poet/betsy-sholl\" hreflang=\"und\">Betsy Sholl</a>", "field_date_published": "2004", "body": " <pre>\nYou think you can handle these things:\nsunlight glinting off a red Jaguar\nhonking at the old woman who has snagged\n\nher shopping cart on a snow rut,\nor the swaggering three-piece suit who steps\noutside the bank, earless to the mossy voice\n\nat his feet asking for spare change,\nbut then the crunch of something, nothing really,\nunder your shoe--a dirty comb, a pen cap--\n\ncompletely undoes you, and it's too much,\ntoo much, being balanced, considering\nthe complexity of all sides in one\n\nsyntactically correct sentence.\nAll the driver has to say is \"Move it,\nLady,\" and you're back with the Quakers\n\nwho trained you to lie still and limp in the street.\nThree days they stepped on your hair,\nground cigarettes half an inch from your nose,\n\nwhile you lay there, trying to be against \nviolence, your fists tight as grenades\nand a payload of curses between your teeth,\n\nO woman, with a mind Picasso\ncould have painted, giving you many cheeks,\neach one turned a different way.</pre>\n "}, {"title": "House Spiders", "view_node": "/poem/house-spiders", "field_author": "<a href=\"/poet/judith-vollmer\" hreflang=\"und\">Judith Vollmer</a>", "field_date_published": "2004", "body": " <pre>\nStreetlights out again I'm walking in the dark\nlugging groceries up the steps to the porch\nwhose yellow bulb is about to go too, when a single \nfamiliar strand intersects my face,\nthe filament slides across my glasses which seem suddenly\nperfectly clean, fresh, and my whole tired day slows down\n                   walking into such a giant thread\nis a surprise every time,\nthough I never kill them, I carry them outside\non plastic lids or open books, they live\nso plainly and eat the mosquitoes.\n                Distant cousins\nto the scorpion, mine are pale &amp; small,\ndark &amp; discreet. More like the one\nwho lived in the corner of the old farm kitchen\nunder the ivy vase and behind the single\ncandle-pot--black with curved\ncrotchety legs.\n     Maya, weaver of illusions,\n     how is it we trust the web, the nest,\n     the roof over our heads, we trust the stars\n     our guardians who gave us our alphabet?\n     We trust the turtle's shell because\n     it, too, says house and how can we read\n     the footprints of birds on shoreline sand,\n     &amp; October twigs that fall to the ground\n     in patterns that match the shell &amp; stars?\n\t \n\t \nI feel less and less like\na single self, more like\na weaver, myself, spelling out\nformulae from what's given\nand from words.</pre>\n "}, {"title": "Little Fugue", "view_node": "/poem/little-fugue", "field_author": "<a href=\"/poet/marianne-boruch\" hreflang=\"und\">Marianne Boruch</a>", "field_date_published": "2004", "body": " <pre>\nEveryone should have a little fugue, she says,\nthe young conductor \ntaking her younger charges through\nthe saddest of pieces, almost a dirge\nwritten for unholy times, and no, \nnot for money.\n                Ready? she tells them, measuring out \neach line for cello, viola, violin.\nIt will sound to you\nnot quite right. She means the aching half-step\nof the minor key, no release\nfrom it, that always-on-the-verge-of, that\nrepeat, repeat.\n              <i>Everyone should have a little fugue</i>--\nI write that down like I cannot write\nthe larger griefs. For my part, I \nbelieve her. Little fugue I wouldn't\nhave to count.</pre>\n "}, {"title": "Anecdotes", "view_node": "/poem/anecdotes", "field_author": "<a href=\"/poet/baron-wormser\" hreflang=\"und\">Baron Wormser</a>", "field_date_published": "2004", "body": " <pre>\nA moment from a life--a husband holding up\nA tee-shirt for cursory inspection;\nA child trudging home from a dull school day;\nA tree in heavy wind--when placed within\n\nThe careful rails of verse acquires the dear,\nFacile pout of meaning. It's a feeling\nRather than a faith since faith knows\nIts way beforehand, while this telling us\n\nA seeking. We read under the beneficence\nOf a minor spell. Even the pain comforts:\nAny life does; any avenue counts.\nThe man recalls a Sunday softball game;\nThe child stops at a puddle and peers into\nGorgeous nothingness; the tree falls or doesn't.</pre>\n "}, {"title": "October (section I)", "view_node": "/poem/october-section-i", "field_author": "<a href=\"/poet/louise-gluck\" hreflang=\"und\">Louise Gl\u00fcck</a>", "field_date_published": "2004", "body": " <pre>Is it winter again, is it cold again,\ndidn't Frank just slip on the ice,\ndidn't he heal, weren't the spring seeds planted\n\ndidn't the night end,\ndidn't the melting ice\nflood the narrow gutters\n\nwasn't my body\nrescued, wasn't it safe\n\ndidn't the scar form, invisible\nabove the injury\n\nterror and cold,\ndidn't they just end, wasn't the back garden\nharrowed and planted\u2014\n\nI remember how the earth felt, red and dense,\nin stiff rows, weren't the seeds planted,\ndidn't vines climb the south wall\n\nI can't hear your voice\nfor the wind's cries, whistling over the bare ground\n\nI no longer care\nwhat sound it makes\n\nwhen was I silenced, when did it first seem\npointless to describe that sound\n\nwhat it sounds like can't change what it is\u2014\n\ndidn't the night end, wasn't the earth\nsafe when it was planted\n\ndidn't we plant the seeds,\nweren't we necessary to the earth,\n\nthe vines, were they harvested?</pre>\n "}, {"title": "August Evening", "view_node": "/poem/august-evening", "field_author": "<a href=\"/poet/sandor-csoori\" hreflang=\"und\">Sandor Csoori</a>", "field_date_published": "2004", "body": " <pre>See, a hand sweeps stars\n    from the August sky,\nas if my mother swept off the supper crumbs from the table at home.\nHer apron, slipping now and then, smells of parsley\n     and chives--\nThe sweet scent of her long-gone garden\n     sending me to sleep beside you tonight again.</pre>\n "}, {"title": "Between the Beating Clocks", "view_node": "/poem/between-beating-clocks", "field_author": "<a href=\"/poet/crystal-bacon\" hreflang=\"und\">Crystal Bacon</a>", "field_date_published": "2004", "body": " <pre>&#13;\nCheap, made to travel they throw their tiny drumbeats out in stereo from the bed table&#13;\nto the work station.  They fill the room&#13;\nwith a music of ticking, only just out&#13;\nof synch.  It could be maddening,&#13;\nPoe's buried heart, or that spinning toy,&#13;\na shuttlecock, ratcheting over nylon cord&#13;\nslap, slap, slap.  Or the body's racket&#13;\nin the blood, the slow tock of sex undone.&#13;\nIt soothes, they do, soothe, the ping-pong&#13;\nrhythm of their second-clapping hands:&#13;\nred line, a vein between this and that. </pre>&#13;\n "}, {"title": "R.S.V.P.", "view_node": "/poem/rsvp", "field_author": "<a href=\"/poet/jeanne-marie-beaumont\" hreflang=\"und\">Jeanne Marie Beaumont</a>", "field_date_published": "2004", "body": " <pre>&#13;\nThe road out front is all torn up and has remained that way for a long time. One day they &#13;\ntractor-pulled the trunk of a fallen tree, its roots undone by the doings. Saw crews came in &#13;\nand buzzed for days like a disturbed hive. I could not save the flowers. Pyramids of pipe plastic &#13;\nappeared overnight. Rats, unsettled, bounced across the lawns, appalling the cats. &#13;\nAll's ditches, trenches, ruts and pits. A week before the phones went dead, the sand trucks &#13;\njilted their loads, shovels clanged, someone shouted Ho! ho! ho! like an unjollied Santa. Yellow &#13;\ncones mark off the area like quarantine. Red lights flash night and day. Goodness! The whole &#13;\ncountry detours around us. Each morning a colony of hardhats I observe from my upstairs window, &#13;\nhandkerchief held to my nose, my ears stoppered with cotton and wax. Today, they were &#13;\nburning debris and circled the fire prodding like scouts.  I regret I cannot make the ceremony, &#13;\nbut clearly this is a major public project with extensive resources at its disposal and certain &#13;\nto benefit enormous numbers. It must be.  I pray the food will last and look forward to vast &#13;\nand permanent improvement.</pre>&#13;\n "}, {"title": "Patsy Sees a Ghost", "view_node": "/poem/patsy-sees-ghost", "field_author": "<a href=\"/poet/lola-haskins\" hreflang=\"und\">Lola Haskins</a>", "field_date_published": "2004", "body": " <pre>&#13;\nI'm crossing the river where it narrows,&#13;\ncarefully, it being Sunday&#13;\nand I'm past the root end of the log&#13;\nwhen I look up,&#13;\nand there's a haunt sitting&#13;\non the blossom end.&#13;\nI can see trumpet vine and blackberries&#13;\nthrough her white dress.&#13;\nGnats hang in the air.&#13;\nThe river runs, red-brown and deep.&#13;\nThe haunt sings&#13;\nand it's my music, the blood song&#13;\nof my heart and bones&#13;\nand my skull dancing in the road.&#13;\nAnd Chloe, she knows my name.&#13;\nShe says Oh Patsy, take care,&#13;\nor you will surely fall&#13;\nand the thick river&#13;\nwill pull you too to shroudy weeds&#13;\nand you'll be gone,&#13;\ngone as the moment you looked up&#13;\nand saw the trumpet vine and&#13;\nberrries, hot and ready&#13;\nthrough my white dress,&#13;\ngone as all the years since I died,&#13;\nand waited here for you.</pre>&#13;\n "}, {"title": "Queen Maeve", "view_node": "/poem/queen-maeve", "field_author": "<a href=\"/poet/eloise-bruce\" hreflang=\"und\">Eloise Bruce</a>", "field_date_published": "2004", "body": " <pre>\nDreaming within these walls all night,\nwe woke with both eyes open,\nbarely winking at the morning light.\n\nWe shower and sing with the long-legged fly.\nQueen Maeve keeps time in the attic,\nand the pig-keepers roar in the toy box below stairs.\n\nTurn out the lamp whose fringe rhymes with <i>orange</i>.\nOur words wait in sun-melted butter.\nWe'll eat our troubles with bubbling metaphor,\npunctuate the teapot with boiling time,\nhang the wash out on the line.\n\nToday, we'll scrub and paint the walls\nusing colors we don't yet recognize.\nThe key in the door shines.\nCome in. The poem is just here. Come inside.</pre>\n "}, {"title": "Misconceptions of Childhood", "view_node": "/poem/misconceptions-childhood", "field_author": "<a href=\"/poet/celia-bland\" hreflang=\"und\">Celia Bland</a>", "field_date_published": "2004", "body": " <pre>\nMy father was a sidewise Jack, \nalways in profile, a hand on his rod. \nHis pack was a Destroyer, said my mother,\nwhere he played ping-pong on \nthe deck, two fingers flat on his spade. \nI saw his photo: a big-bellied dick \nin a tailor-made sailor suit. \n\"Bye-Bye!\" he waved, and out I \nsprang, strong enough\nto shove all the drawers shut.\n\nMy teeth took root. White \nstalagmites, their stems sunk inward \nand rotted. Biting strawberries, \nthey sheared unripe heads from \nluscious tips. \nThe leaves caused a rash.\n\nMy mouth's toes, St. Theresa, \ngrind with your hips \nwhen you close your eyes. Sex is \nsacred, you say. \nLeaving me, to prove it.</pre>\n "}, {"title": "Less Music", "view_node": "/poem/less-music", "field_author": "<a href=\"/poet/marjorie-welish\" hreflang=\"und\">Marjorie Welish</a>", "field_date_published": "2004", "body": "<p><span class=\"long-line\">This freedom up.</span><br /><span class=\"long-line\">A house difficult of exit, diffident of exit.</span></p>\n\n<p><span class=\"long-line\">This flame up.</span><br /><span class=\"long-line\">The false house, house of faulty entries.</span></p>\n\n<p><span class=\"long-line\">This facade up.</span><br /><span class=\"long-line\">The manifold worries architecture.</span></p>\n\n<p><span class=\"long-line\">This face up.</span><br /><span class=\"long-line\">To the artiface's winding paths we lend our gloss.</span></p>\n\n<p><span class=\"long-line\">This fact up!</span><br /><span class=\"long-line\">This house multicursal and continuous.</span><br /><span class=\"long-line\">Do you desire to disengage the frontispiece of devastating complexity?</span></p>\n\n<p><span class=\"long-line\">This!</span><br /><span class=\"long-line\">The curving house is green.</span><br /><span class=\"long-line\">Do you wish to disappear from an escaping sentence?</span></p>\n\n<p><span class=\"long-line\">Do you wish to forget the manuscript or do you wish to evict the manuscript?</span><br /><span class=\"long-line\">This froth up.</span><br /><span class=\"long-line\">The house ancient of exit, of antecedent impressions.</span></p>\n"}, {"title": "The Kite and The Hawk", "view_node": "/poem/kite-and-hawk", "field_author": "<a href=\"/poet/lorenzo-thomas\" hreflang=\"und\">Lorenzo Thomas</a>", "field_date_published": "2004", "body": " <pre>\nMan is no longer alone in the universe!\n\nThe day I found the hieroglyphic formula\nFor happiness for all mankind\nI had to promise to give it away.\n\nIt is we have to find a way\nFor everyone to have\none more of something\nThan your neighbor has\n\nFor you--here is a dollar!\n\nAnd for you,\nI feel warm brotherhood\nAnd love intense\nBeyond what anyone has ever felt before.\n\nYou didn't think I'm going around\nAnd giving everybody money?\n\nFor me\nThe syllable of antique power\nTo shift the Light above\nEnough to cast the second or third shadow\nThe Grand Prize\nIn the lottery of loneliness.</pre>\n "}], "pager": {"current_page": 613, "total_items": "13248", "total_pages": 663, "items_per_page": 20}}