{"rows": [{"title": "Flood", "view_node": "/poem/flood", "field_author": "<a href=\"/poet/eliza-griswold\" hreflang=\"und\">Eliza Griswold</a>", "field_date_published": "2007", "body": " <pre>\nI woke to a voice within the room. perhaps.\nThe room itself: \"You're wasting this life\nexpecting disappointment.\"\nI packed my bag in the night\nand peered in its leather belly\nto count the essentials.\nNothing is essential.\nTo the east, the flood has begun.\nMen call to each other on the water\nfor the comfort of voices.\nLove surprises us.\nIt ends.</pre>\n "}, {"title": "Bent Orbit", "view_node": "/poem/bent-orbit", "field_author": "<a href=\"/poet/elaine-equi\" hreflang=\"und\">Elaine Equi</a>", "field_date_published": "2007", "body": " <pre>\nI wind my way across a black donut hole\nand space that clunks.\nOnce I saw on a stage,\nas if at the bottom of a mineshaft,\nthe precise footwork\nof some mechanical ballet.\nIt was like looking into the brain\nof a cuckoo clock and it carried\nsome part of me away forever.\nNo one knows when they first see a thing,\nhow long its after image will last. \nProust could stare at the symptom of a face\nfor years, while Frank O'Hara, like anyone with a job,\nwas always looking at his watch.\nMy favorite way of remembering is to forget.\nPlease start the record of the sea over again.\nCall up a shadow below the pendulum of a gull's wing.\nIn a city of eight million sundials, nobody has any idea\nhow long a minute really is.</pre>\n "}, {"title": "Oil &amp; Steel", "view_node": "/poem/oil-steel", "field_author": "<a href=\"/poet/henri-cole\" hreflang=\"und\">Henri Cole</a>", "field_date_published": "2007", "body": " <pre>\nMy father lived in a dirty dish mausoleum,\nwatching a portable black-and-white television,\nreading the Encyclopedia Britannica,\nwhich he preferred to Modern Fiction.\nOne by one, his schnauzers died of liver disease,\nexcept the one that guarded his corpse\nfound holding a tumbler of Bushmills.\n\"Dead is dead,\" he would say, an anti-preacher.\nI took a plaid shirt from the bedroom closet\nand some motor oil\u2014my inheritance.\nOnce, I saw him weep in a courtroom\u2014\nneglected, needing nursing\u2014this man who never showed\nme much affection but gave me a knack\nfor solitude, which has been mostly useful.</pre>\n "}, {"title": "Etiquette", "view_node": "/poem/etiquette", "field_author": "<a href=\"/poet/judson-mitcham\" hreflang=\"und\">Judson Mitcham</a>", "field_date_published": "2007", "body": " <pre>\nJune goes gaudy with bad boutonnieres\u2014\nflamingo mimosas, the giant\nmagnolia's bowl of petals. Let us consider\n\nthe man not welcome at the wedding.\nWhat's the etiquette for the bad father?\nWhat's the right flower for the ignored-\n\nwith-good-reason, the uninvited? A hydrangea,\nhead wide as a cabbage; or the bull thistle\nwild along the roads; or a dandelion,\n\nonly a stalk stuck to his lapel by the time\nhe insists on their dance? He is a sad weed\nhimself, this man who has no daughter\n\nbut tries to hold her.</pre>\n "}, {"title": "This Day", "view_node": "/poem/day", "field_author": "<a href=\"/poet/jimmy-santiago-baca\" hreflang=\"und\">Jimmy Santiago Baca</a>", "field_date_published": "2007", "body": " <pre>\nI feel foolish,\n     like those silly robins jumping on the ditch boughs\n     when I run by them.\n            Those robins do not have the grand style of the red tailed hawk,\n            no design, no dream, just robins acting stupid.\nThey've never smoked cigarettes, drank whiskey, consumed drugs\nas I have.\n            In their mindless\n            fluttering about\n            filled with nonsense,\n                 they tell me how they\n                       love the Great Spirit,\n            scold me not to be self-pitying,\n            to open my life\n            and make this day a bough on a tree\n            leaning over infinity, where eternity flows forward\n            and with day the river runs\n                       carrying all that falls in it.\n            Be happy Jimmy, they chirp,\n            Jimmy, be silly, make this day a tree\n            leaning over the river eternity\n            and fuss about in its branches.</pre>\n "}, {"title": "Ballad", "view_node": "/poem/ballad", "field_author": "<a href=\"/poet/sonia-sanchez\" hreflang=\"und\">Sonia Sanchez</a>", "field_date_published": "2007", "body": " <pre>\n\t      (<i>after the spanish</i>)\n\n\nforgive me if i laugh \nyou are so sure of love \nyou are so young \nand i too old to learn of love.\n\nthe rain exploding \nin the air is love \nthe grass excreting her \ngreen wax is love \nand stones remembering \npast steps is love, \nbut you. you are too young \nfor love \nand i too old.\n\nonce. what does it matter \nwhen or who, i knew \nof love. \ni fixed my body \nunder his and went \nto sleep in love \nall trace of me \nwas wiped away\n\nforgive me if i smile \nyoung heiress of a naked dream \nyou are so young \nand i too old to learn of love.</pre>\n "}, {"title": "Afterlife", "view_node": "/poem/afterlife", "field_author": "<a href=\"/poet/joan-larkin\" hreflang=\"und\">Joan Larkin</a>", "field_date_published": "2007", "body": "<p><span class=\"long-line\">I\u2019m older than my father when he turned</span><br /><span class=\"long-line\">bright gold and left his body with its used-up liver</span><br /><span class=\"long-line\">in the Faulkner Hospital, Jamaica Plain.\u00a0I don\u2019t </span><br /><span class=\"long-line\">believe in the afterlife, don\u2019t know where he is </span><br /><span class=\"long-line\">now his flesh has finished rotting from his long </span><br /><span class=\"long-line\">bones in the Jewish Cemetery\u2014he could be the only </span><br /><span class=\"long-line\">convert under those rows and rows of headstones.\u00a0 </span><br /><span class=\"long-line\">Once, washing dishes in a narrow kitchen </span><br /><span class=\"long-line\">I heard him whistling behind me.\u00a0My nape froze.\u00a0 </span><br /><span class=\"long-line\">Nothing like this has happened since.\u00a0But this morning </span><br /><span class=\"long-line\">we were on a plane to Virginia together.\u00a0I was 17, </span><br /><span class=\"long-line\">pregnant and scared.\u00a0Abortion was waiting, </span><br /><span class=\"long-line\">my aunt\u2019s guest bed soaked with blood, my mother </span><br /><span class=\"long-line\">screaming\u2014and he was saying Kids get into trouble\u2014\u00a0 </span><br /><span class=\"long-line\">I\u2019m getting it now: this was forgiveness.</span><br /><span class=\"long-line\">I think if he\u2019d lived he\u2019d have changed and grown</span><br /><span class=\"long-line\">but what would he have made of my flood of words</span><br /><span class=\"long-line\">after he\u2019d said in a low voice as the plane</span><br /><span class=\"long-line\">descended to Richmond in clean daylight</span><br /><span class=\"long-line\">and the stewardess walked between the rows</span><br /><span class=\"long-line\">in her neat skirt and tucked-in blouse</span><br /><span class=\"long-line\">Don\u2019t ever tell this to anyone.</span></p>\n"}, {"title": "Weather", "view_node": "/poem/weather-0", "field_author": "<a href=\"/poet/hettie-jones\" hreflang=\"und\">Hettie Jones</a>", "field_date_published": "2007", "body": " <pre>\nMy folder of poems\nlabeled \"weather\" holds \nno clues as to whether\nor not there\u2019ll be any \n\nweather to count on, say, \na hard rain like \"little nails,\" or\nthat deluge \"plunging radiant\"\n\nnow that we\u2019ve plunged into war\nand wars don\u2019t stop like rain stops\n\nlike that last slow drizzle\nonto the old tin bathroom vent\n\nsweet hint of growth\nin the soft wet drift north\n\nfire or ice, fire or ice\n\nare you breathing, are you lucky enough\nto be breathing</pre>\n "}, {"title": "The Rain Poured Down", "view_node": "/poem/rain-poured-down", "field_author": "<a href=\"/poet/dan-gerber\" hreflang=\"und\">Dan Gerber</a>", "field_date_published": "2007", "body": " <pre>\nMy mother weeping\nin the dark hallway, in the arms of a man,\nnot my father,\nas I sat at the top of the stairs unnoticed\u2014\nmy mother weeping and pleading \nfor what I didn\u2019t know and can still only imagine\u2014\nfor things to be somehow other than they were,\nnot knowing what I would change,\nfor, or to, or why,\nonly that my mother was weeping\nin the arms of a man not me,\nand the rain brought down the winter sky\nand hid me in the walls that looked on,\nindifferent to my mother\u2019s weeping,\nor mine,\nin the rain that brought down the dark afternoon.</pre>\n "}, {"title": "Eating the Bones", "view_node": "/poem/eating-bones", "field_author": "<a href=\"/poet/ellen-bass\" hreflang=\"und\">Ellen Bass</a>", "field_date_published": "2007", "body": "<p><span class=\"long-line\">The women in my family</span><br /><span class=\"long-line\">strip the succulent</span><br /><span class=\"long-line\">flesh from broiled chicken,</span><br /><span class=\"long-line\">scrape the drumstick clean;</span><br /><span class=\"long-line\">bite off the cartilage chew the gristle,</span><br /><span class=\"long-line\">crush the porous swellings</span><br /><span class=\"long-line\">at the ends of each slender baton.</span><br /><span class=\"long-line\">With strong molars</span><br /><span class=\"long-line\">they split the tibia, sucking out</span><br /><span class=\"long-line\">the dense marrow.</span><br /><span class=\"long-line\">They use up love, they swallow</span><br /><span class=\"long-line\">every dark grain,</span><br /><span class=\"long-line\">so at the end there\u2019s nothing left,</span><br /><span class=\"long-line\">a scant pile of splinters</span><br /><span class=\"long-line\">on the empty white plate.</span></p>\n"}, {"title": "With All Due Respect [excerpt]", "view_node": "/poem/all-due-respect-excerpt", "field_author": "<a href=\"/poet/vicente-aleixandre\" hreflang=\"und\">Vicente Aleixandre</a>", "field_date_published": "2007", "body": " <pre>\nTrees, women and children\nare all the same thing: Background.\nVoices, affections, brightness, joy,\nthis knowledge that finally here we all are.\nIndeed. Me and my ten fingers.\n\nNow the sun isn\u2019t horrendous like a cheek that\u2019s ready:\nit isn\u2019t a piece of clothing or a speechless flashlight.\nNor is it the answer heard by our knees,\nnor the task of touching the frontiers with the whitest part of our eyes.\nThe Sun has already become truth, lucidity, stability.\nYou converse with the mountain,\nyou trade the mountain for a heart:\nthen you can go on, weightless, going away.\nThe fish\u2019s eye, if we come to the river, \nis precisely the image of happiness God sets up for us,\nthe passionate kiss that breaks our bones.\n\nIndeed. Finally, it\u2019s life. Oh, what egg-like beauty\nin this ample gift the Valley spreads before us,\nthis limitation we can lean our heads against\nso as to hear the greatest music, that of the distant planets.\nHurry, let\u2019s all\nget close around the bonfire.\nYour hands made of petals and mine of bark,\nthese delicious improvisations we show each other,\nare good\u2014for burning, for keeping faith in tomorrow,\nso that our talk can go on ignoring our clothes.\nI don\u2019t notice our clothes. Do you?\nDressed up in three-hundred burlap suits,\nwrapped in my roughest heaviest get-up,\nI maintain a dawn-like dignity and brag of how much I know about nakedness.</pre>\n "}, {"title": "Mars Being Red", "view_node": "/poem/mars-being-red", "field_author": "<a href=\"/poet/marvin-bell\" hreflang=\"und\">Marvin Bell</a>", "field_date_published": "2007", "body": " <pre>\nBeing red is the color of a white sun where it lingers\non an arm. Color of time lost in sparks, of space lost\ninside dance. Red of walks by the railroad in the flush\nof youth, while our steps released the squeaks\nof shoots reaching for the light. Scarlet of sin, crimson\nof fresh blood, ruby and garnet of the jewel bed,\nearly sunshine, vestiges of the late sun as it turns\ngreen and disappears. Be calm. Do not give in\nto the rabid red throat of age. In a red world, imprint\nthe valentine and blush of romance for the dark.\nIt has come. You will not be this quick-to-redden\nforever. You will be green again, again and again.</pre>\n "}, {"title": "Language", "view_node": "/poem/language", "field_author": "<a href=\"/poet/w-s-merwin\" hreflang=\"und\">W. S. Merwin</a>", "field_date_published": "2007", "body": " <p>Certain words now in our knowledge we will not use again, and we will never forget them. We need them. Like the back of the picture. Like our marrow, and the color in our veins. We shine the lantern of our sleep on them, to make sure, and there they are, trembling already for the day of witness. They will be buried with us, and rise with the rest.</p> "}, {"title": "What&#039;s Written on the Body", "view_node": "/poem/whats-written-body", "field_author": "<a href=\"/poet/peter-pereira\" hreflang=\"und\">Peter Pereira</a>", "field_date_published": "2007", "body": " <pre>\nHe will not light long enough\nfor the interpreter to gather \nthe tatters of his speech.\nBut the longer we listen\nthe calmer he becomes.\nHe shows me the place where his daughter \nhas rubbed with a coin, violaceous streaks\nraising a skeletal pattern on his chest.\n<i>He thinks he\u2019s been hit by the wind.\nHe\u2019s worried it will become pneumonia</i>.\nIn Cambodia, he\u2019d be given\na special tea, a prescriptive sacrifice,\nthe right chants to say. But I\nknow nothing of Chi, of Karma,\nand ask him to lift the back of his shirt,\nso I may listen to his breathing.\nHolding the stethoscope\u2019s bell I\u2019m stunned\nby the whirl of icons and script\ntattooed across his back, their teal green color\nthe outline of a map which looks\nlike Cambodia, perhaps his village, a lake,\nthen a scroll of letters in a watery signature.\nI ask the interpreter what it means.\n<i>It\u2019s a spell, asking his ancestors\nto protect him from evil spirits </i>\u2014\nshe is tracing the lines with her fingers \u2014\n<i>and those who meet him for kindness</i>.\nThe old man waves his arms and a staccato\nof diphthongs and nasals fills the room.\n<i>He believes these words will lead his spirit \nback to Cambodia after he dies.\nI see</i>, I say, and rest my hand on his shoulder.\nHe takes full deep breaths and I listen,\ntouching down with the stethoscope\nfrom his back to his front. He watches me\nwith anticipation \u2014 as if awaiting a verdict.\nHis lungs are clear. <i>You\u2019ll be fine</i>, \nI tell him. <i>It\u2019s not your time to die</i>.\nHis shoulders relax and he folds his hands\nabove his head as if in blessing.\n<i>Ahh khun</i>, he says.  <i>All better now</i>.</pre>\n "}, {"title": "Magdalena Remembering", "view_node": "/poem/magdalena-remembering", "field_author": "<a href=\"/poet/maureen-gibbon\" hreflang=\"und\">Maureen Gibbon</a>", "field_date_published": "2007", "body": " <pre>\nWhen I was young my body was money. I bought what I thought would \nplease me. I would have married a man who kissed the fine fan of bones in\nmy foot. I squandered my pretty breasts and thighs, looking for him. \n\nI never slept beside those men. I sat on their laps and pulled kisses from their\nmouths\u2014but I never did sleep. Never dreamed. I couldn\u2019t let them see\nthat in me:  my pictures of red flowers, scented lakes, damask, orange trees.\nIn dreams I breathed water. In dreams I flew.\n\nAfter a man left I\u2019d stand a long time in front of the mirror, brushing my hair.\nThinking.\n\nMy belly\u2019s empty and I want something sweet.\nMy belly\u2019s empty and I want something salt.\nMy belly\u2019s empty and I want a bitter thing.\n\nSomewhere there is a bird like my soul.</pre>\n "}, {"title": "An exact comprehension of the composer&#039;s intent", "view_node": "/poem/exact-comprehension-composers-intent", "field_author": "<a href=\"/poet/noah-eli-gordon\" hreflang=\"und\">Noah Eli Gordon</a>", "field_date_published": "2007", "body": " <pre>\nCloudless sky, a tendril root, a chord begun\n     as unfolding duration &amp; one\u2019s lost words,\na red lexicon, an empty definition\n\ngathering its discourse\u2014the flow from content\n     to perception: language is a translation of grace.\nSay the body, say the heart, a composition in blue,\n\nthe passing energy, cell, motion, inevitability;\n     an impact until meaning wears through\nthe mind\u2019s opulence, its spindle\u2014a white thread.\n\nTethered to conviction, one says moon, one, emotion\n     \u2014the recurrence of night: a door will open,\nshifting from anonymity to intellection\u2014a translation\n\nof sight with speech, awoken not by voice\n     but what precedes it: the worldliness, wordless;\na measure of sound or movement to song.</pre>\n "}, {"title": "The light of a candle", "view_node": "/poem/light-candle", "field_author": "<a href=\"/poet/yosa-buson\" hreflang=\"und\">Yosa Buson</a>", "field_date_published": "2007", "body": "<p><span class=\"long-line\">The light of a candle</span><br /><span class=\"long-line\">\u00a0\u00a0\u00a0\u00a0\u00a0\u00a0\u00a0\u00a0\u00a0\u00a0\u00a0\u00a0\u00a0\u00a0\u00a0is transferred to another candle\u2014</span><br /><span class=\"long-line\">\u00a0\u00a0\u00a0\u00a0\u00a0\u00a0\u00a0\u00a0\u00a0\u00a0\u00a0\u00a0\u00a0\u00a0\u00a0spring twilight.</span></p>\n"}, {"title": "Pica", "view_node": "/poem/pica", "field_author": "<a href=\"/poet/jennifer-perrine\" hreflang=\"und\">Jennifer Perrine</a>", "field_date_published": "2007", "body": " <pre>\nThis is how clay becomes flesh: dirt and grit\nclumping with saliva, bits of sand wedged\n\nbetween gum and tooth. In my mother\u2019s mouth:\nher palate alive with humus: a crush\n\nof chalk threading down her throat: and somewhere\ndeep within her gut: a Galatea,\n\nmilk white, translucent: a creature she\u2019ll bring\ntogether from pulverized stone. She\u2019s sure\n\nall desire begins with me: my unborn,\nindiscriminate taste, my unwieldy\n\nappetite for handfuls of ash and soil:\nand when I\u2019m born, though she gives me a name\n\nplain and utile as toothpaste, she insists\non calling me Magpie: and how she\u2019s right:\n\nwhen I\u2019m first caught filling my cavernous\nmaw with paint chips, plaster, coffee grounds pulled\n\nfrom the trash, my father reassures her:\nthis is the work of all infants: to hold\n\nthe world inside them, piece by piece: to turn\neach sliver about on the tongue: a shape\n\nin a tangram: a code the child\u2019s mouth cracks.\nBut when my mother finds me, years later:\n\na toddler, plucking flies from the window:\nthe curse slithers out of her: freak: as though\n\nshe\u2019s never enjoyed this comfort: as though\nshe doesn\u2019t remember reaching for more.</pre>\n "}, {"title": "Horse&#039;s Adventure", "view_node": "/poem/horses-adventure", "field_author": "<a href=\"/poet/jason-bredle\" hreflang=\"und\">Jason Bredle</a>", "field_date_published": "2007", "body": " <pre>\nThe horse discovered a gateway to another \ndimension, and with nothing else to do, moseyed \ninto it just for grins, and man, you \ndon\u2019t even want to know what happened \nnext\u2014it was just, like, Horse at the French \nRevolution. Horse in Franco\u2019s living room. \nHorse on the moon. Horse in a supporting role \nin an episode of ER. Horse being shot \nout of a cannon. Horse on The Price Is Right. \nHorse in a Whitesnake video. Horse \nat Kennedy\u2019s assassination. Horse in the Tet \nOffensive. Horse at the Gap gawking at some \nkhaki pants. Horse in Julie Piepmeyer\u2019s \nbathroom. Horse being tossed out of an airplane \nwith a parachute strapped to its back, plummeting \ntoward Nebraska. Horse on Capitol Hill  \n(Yes, I\u2019d like the floor to recognize \nthe distinguished horse from Arizona). Horse \non the subway. Horse authorizing a peace treaty \nbetween the U.S. and Iraq. Horse \nin the Evansville State Hospital. Horse caught up \nin a White Hen robbery. Horse in the Kentucky \nDerby. Horse staring at the merry-go-round \nat King\u2019s Island in Cincinnati, Ohio. \nThe list goes on and on. And so goes \nthe horse\u2019s adventure, where one minute \nit\u2019s standing next to Pat Sajak and with a violent \nflash like that of a murderous camera or the twirling \nscreen and music of a Batman episode \nit\u2019s standing in the middle of US-23 \nwith a screaming motorist speeding toward it. \nAnd this horse, whirling through dimension \nafter dimension, spiraling carmines, suicidal \njasmines, and mathematical theorems tornadoing \npast it, being placed in situation \nafter situation\u2014what had it learned \nwhen all was said and done and it was back \nat Tom Wallace\u2019s farm? Nothing is better \nthan Rachel Wallace while they stand in the barn \nin the middle of February and she draws pictures of it \nto take to school tomorrow.</pre>\n "}, {"title": "The Black Bite", "view_node": "/poem/black-bite", "field_author": "<a href=\"/poet/becky-gould-gibson\" hreflang=\"und\">Becky Gould Gibson</a>", "field_date_published": "2007", "body": " <pre>\n\u2014Barking, 675. Edith, a nun dying of the plague, speaks from her bed.\n\nTake your salves     candles\nshriving basins     I\u2019ll not linger\namong buckets     bedsheets\nfoul boasters     of the living\nMy bridegroom     waits\nI\u2019ll meet him hoodless     snood\nunfastened.     He\u2019ll feed me figs\nfrom a golden dish     rub my feet\nwith henna     blossoms\nDark spins     on its axle\npinches     my throat\nHags of death     do not come\nnear me with     your stinking rags\nyour sighs     your psalters\nBury them     in the southwest\ngarden     freshly dug\nfor our brothers     and sisters\n\nFlea     rat-rider\nbog-lively     guest\nunbidden     in your tight black coat\npin-prick     so quick\nthey barely     feel it\nlovely leaps     kiss in the night\nSo small     so small\nyou\u2019re hardly     there at all\nO flea     one chosen\nflea     on her bolster\nshe\u2019s your host     your savior\nYou snack     on those\nleast-looking     Soon\nshe\u2019ll leave     you and your ilk\nbreath-robber     death-jobber\nHer sickness     her salve\nOne bite takes her out of this world \n\nIs that you     Mother\ncome from     ten other beds?\nTake this bone needle    best\nin my thread-box     I\u2019ll not\nneed it     where I\u2019m going\nno flax fields    no meadows\nno limbs brazen     with apples\nno teaching     Aesica his alphabet\nThree times     he called out\nin his dying    Edith! Edith!\nEdith!     I knew I\u2019d be next\nWax-light    tallow\nnothing to     day\u2019s dawning\nWill He     want me\nwant me    frankly?\nWill He     take me\nblotched     and swollen?\nLet me shine     not with fever\nbut with     womanliness\nYes     water\nsweet swallow     yes</pre>\n "}], "pager": {"current_page": 558, "total_items": "13248", "total_pages": 663, "items_per_page": 20}}