{"rows": [{"title": "Who is it that says most? Which can say more (Sonnet 84)", "view_node": "/poem/who-it-says-most-which-can-say-more-sonnet-84", "field_author": "<a href=\"/poet/william-shakespeare\" hreflang=\"und\">William Shakespeare</a>", "field_date_published": "1904", "body": "<p><span class=\"long-line\">Who is it that says most? Which can say more</span><br /><span class=\"long-line\">Than this rich praise, that you alone are you?</span><br /><span class=\"long-line\">In whose confine immured is the store</span><br /><span class=\"long-line\">Which should example where your equal grew</span><br /><span class=\"long-line\">Lean penury within that pen doth dwell</span><br /><span class=\"long-line\">That to his subject lends not some small glory;</span><br /><span class=\"long-line\">But he that writes of you, if he can tell</span><br /><span class=\"long-line\">That you are you, so dignified his story,</span><br /><span class=\"long-line\">Let him but copy what in you is writ,</span><br /><span class=\"long-line\">Not making worse what nature made so clear</span><br /><span class=\"long-line\">And such a counterpart shall fame his wit,</span><br /><span class=\"long-line\">Making his style admired every where.</span><br /><span class=\"long-line\">\u00a0\u00a0\u00a0\u00a0You to your beauteous blessings add a curse,</span><br /><span class=\"long-line\">\u00a0\u00a0\u00a0\u00a0Being fond on praise, which makes your praises worse.</span></p>\n"}, {"title": "I never saw that you did painting need (Sonnet 83)", "view_node": "/poem/i-never-saw-you-did-painting-need-sonnet-83", "field_author": "<a href=\"/poet/william-shakespeare\" hreflang=\"und\">William Shakespeare</a>", "field_date_published": "1904", "body": "<p><span class=\"long-line\">I never saw that you did painting need</span><br /><span class=\"long-line\">And therefore to your fair no painting set;</span><br /><span class=\"long-line\">I found, or thought I found, you did exceed</span><br /><span class=\"long-line\">The barren tender of a poet\u2019s debt;</span><br /><span class=\"long-line\">And therefore have I slept in your report,</span><br /><span class=\"long-line\">That you yourself being extant well might show</span><br /><span class=\"long-line\">How far a modern quill doth come too short,</span><br /><span class=\"long-line\">Speaking of worth, what worth in you doth grow.</span><br /><span class=\"long-line\">This silence for my sin you did impute,</span><br /><span class=\"long-line\">Which shall be most my glory, being dumb;</span><br /><span class=\"long-line\">For I impair not beauty being mute,</span><br /><span class=\"long-line\">When others would give life and bring a tomb.</span><br /><span class=\"long-line\">\u00a0\u00a0\u00a0\u00a0There lives more life in one of your fair eyes</span><br /><span class=\"long-line\">\u00a0\u00a0\u00a0\u00a0Than both your poets can in praise devise.</span></p>\n"}, {"title": "I grant thou wert not married to my Muse (Sonnet 82)", "view_node": "/poem/i-grant-thou-wert-not-married-my-muse-sonnet-82", "field_author": "<a href=\"/poet/william-shakespeare\" hreflang=\"und\">William Shakespeare</a>", "field_date_published": "1904", "body": "<p><span class=\"long-line\">I grant thou wert not married to my Muse</span><br /><span class=\"long-line\">And therefore mayst without attaint o\u2019erlook</span><br /><span class=\"long-line\">The dedicated words which writers use</span><br /><span class=\"long-line\">Of their fair subject, blessing every book.</span><br /><span class=\"long-line\">Thou art as fair in knowledge as in hue,</span><br /><span class=\"long-line\">Finding thy worth a limit past my praise,</span><br /><span class=\"long-line\">And therefore art enforced to seek anew</span><br /><span class=\"long-line\">Some fresher stamp of the time-battering days.</span><br /><span class=\"long-line\">And do so, love; yet when they have devised</span><br /><span class=\"long-line\">What strained touches rhetoric can lend,</span><br /><span class=\"long-line\">Thou truly fair wert truly sympathized</span><br /><span class=\"long-line\">In true plain words by thy true telling friend;</span><br /><span class=\"long-line\">\u00a0\u00a0\u00a0\u00a0And their gross painting might be better used</span><br /><span class=\"long-line\">\u00a0\u00a0\u00a0\u00a0Where cheeks need blood; in thee it is abused.</span></p>\n"}, {"title": "Or I shall live your epitaph to make (Sonnet 81)", "view_node": "/poem/or-i-shall-live-your-epitaph-make-sonnet-81", "field_author": "<a href=\"/poet/william-shakespeare\" hreflang=\"und\">William Shakespeare</a>", "field_date_published": "1904", "body": "<p><span class=\"long-line\">Or I shall live your epitaph to make,</span><br /><span class=\"long-line\">Or you survive when I in earth am rotten;</span><br /><span class=\"long-line\">From hence your memory death cannot take,</span><br /><span class=\"long-line\">Although in me each part will be forgotten.</span><br /><span class=\"long-line\">Your name from hence immortal life shall have,</span><br /><span class=\"long-line\">Though I, once gone, to all the world must die:</span><br /><span class=\"long-line\">The earth can yield me but a common grave,</span><br /><span class=\"long-line\">When you entombed in men\u2019s eyes shall lie.</span><br /><span class=\"long-line\">Your monument shall be my gentle verse,</span><br /><span class=\"long-line\">Which eyes not yet created shall o\u2019er-read,</span><br /><span class=\"long-line\">And tongues to be your being shall rehearse</span><br /><span class=\"long-line\">When all the breathers of this world are dead;</span><br /><span class=\"long-line\">\u00a0\u00a0\u00a0\u00a0You still shall live\u2014such virtue hath my pen\u2014</span><br /><span class=\"long-line\">\u00a0\u00a0\u00a0\u00a0Where breath most breathes, even in the mouths of men.</span></p>\n"}, {"title": "O, how I faint when I of you do write (Sonnet 80)", "view_node": "/poem/o-how-i-faint-when-i-you-do-write-sonnet-80", "field_author": "<a href=\"/poet/william-shakespeare\" hreflang=\"und\">William Shakespeare</a>", "field_date_published": "1904", "body": "<p><span class=\"long-line\">O, how I faint when I of you do write,</span><br /><span class=\"long-line\">Knowing a better spirit doth use your name,</span><br /><span class=\"long-line\">And in the praise thereof spends all his might.</span><br /><span class=\"long-line\">To make me tongue-tied, speaking of your fame!</span><br /><span class=\"long-line\">But since your worth, wide as the ocean is,</span><br /><span class=\"long-line\">The humble as the proudest sail doth bear,</span><br /><span class=\"long-line\">My saucy bark inferior far to his</span><br /><span class=\"long-line\">On your broad main doth willfully appear.</span><br /><span class=\"long-line\">Your shallowest help will hold me up afloat,</span><br /><span class=\"long-line\">Whilst he upon your soundless deep doth ride;</span><br /><span class=\"long-line\">Or, being wreck\u2019d, I am a worthless boat,</span><br /><span class=\"long-line\">He of tall building and of goodly pride:</span><br /><span class=\"long-line\">\u00a0\u00a0\u00a0\u00a0Then if he thrive and I be cast away,</span><br /><span class=\"long-line\">\u00a0\u00a0\u00a0\u00a0The worst was this; my love was my decay.</span></p>\n"}, {"title": "Whilst I alone did call upon thy aid (Sonnet 79)", "view_node": "/poem/whilst-i-alone-did-call-upon-thy-aid-sonnet-79", "field_author": "<a href=\"/poet/william-shakespeare\" hreflang=\"und\">William Shakespeare</a>", "field_date_published": "1904", "body": "<p><span class=\"long-line\">Whilst I alone did call upon thy aid,</span><br /><span class=\"long-line\">My verse alone had all thy gentle grace,</span><br /><span class=\"long-line\">But now my gracious numbers are decay\u2019d</span><br /><span class=\"long-line\">And my sick Muse doth give another place.</span><br /><span class=\"long-line\">I grant, sweet love, thy lovely argument</span><br /><span class=\"long-line\">Deserves the travail of a worthier pen,</span><br /><span class=\"long-line\">Yet what of thee thy poet doth invent</span><br /><span class=\"long-line\">He robs thee of and pays it thee again.</span><br /><span class=\"long-line\">He lends thee virtue and he stole that word</span><br /><span class=\"long-line\">From thy behaviour; beauty doth he give</span><br /><span class=\"long-line\">And found it in thy cheek; he can afford</span><br /><span class=\"long-line\">No praise to thee but what in thee doth live.</span><br /><span class=\"long-line\">\u00a0\u00a0\u00a0\u00a0Then thank him not for that which he doth say,</span><br /><span class=\"long-line\">\u00a0\u00a0\u00a0\u00a0Since what he owes thee thou thyself dost pay.</span></p>\n"}, {"title": "So oft I invoke thee for my Muse (Sonnet 78)", "view_node": "/poem/so-oft-i-invoke-thee-my-muse-sonnet-78", "field_author": "<a href=\"/poet/william-shakespeare\" hreflang=\"und\">William Shakespeare</a>", "field_date_published": "1904", "body": "<p><span class=\"long-line\">So oft I invoke thee for my Muse</span><br /><span class=\"long-line\">And found such fair assistance in my verse</span><br /><span class=\"long-line\">As every alien pen hath got my use</span><br /><span class=\"long-line\">And under thee their posey disperse.</span><br /><span class=\"long-line\">Thine eyes that taught the dumb on high to sing</span><br /><span class=\"long-line\">And heavy ignorance aloft to fly</span><br /><span class=\"long-line\">Have added feathers to the learned\u2019s wing</span><br /><span class=\"long-line\">And given grace a double majesty.</span><br /><span class=\"long-line\">Yet be most proud of that which I compile,</span><br /><span class=\"long-line\">Whose influence is thine and born of thee:</span><br /><span class=\"long-line\">In others\u2019 works thou dost but mend the style,</span><br /><span class=\"long-line\">And arts with thy sweet graces graced be;</span><br /><span class=\"long-line\">\u00a0\u00a0\u00a0\u00a0But thou art all my art and dost advance</span><br /><span class=\"long-line\">\u00a0\u00a0\u00a0\u00a0As high as learning my rude ignorance. </span></p>\n"}, {"title": "Thy glass will show thee how thy beauties wear (Sonnet 77)", "view_node": "/poem/thy-glass-will-show-thee-how-thy-beauties-wear-sonnet-77", "field_author": "<a href=\"/poet/william-shakespeare\" hreflang=\"und\">William Shakespeare</a>", "field_date_published": "1904", "body": "<p><span class=\"long-line\">Thy glass will show thee how thy beauties wear,</span><br /><span class=\"long-line\">Thy dial how thy precious minutes waste:</span><br /><span class=\"long-line\">The vacant leaves thy mind\u2019s imprint will bear,</span><br /><span class=\"long-line\">And of this book this learning mayst thou taste.</span><br /><span class=\"long-line\">The wrinkles which thy glass will truly show</span><br /><span class=\"long-line\">Of mouthed graves will give thee memory;</span><br /><span class=\"long-line\">Thou by thy dial\u2019s shady stealth mayst know</span><br /><span class=\"long-line\">Time\u2019s thievish progress to eternity.</span><br /><span class=\"long-line\">Look, what thy memory can not contain</span><br /><span class=\"long-line\">Commit to these waste blanks, and thou shalt find</span><br /><span class=\"long-line\">Those children nursed, deliver\u2019d from thy brain,</span><br /><span class=\"long-line\">To take a new acquaintance of thy mind.</span><br /><span class=\"long-line\">\u00a0\u00a0\u00a0\u00a0These offices, so oft as thou wilt look,</span><br /><span class=\"long-line\">\u00a0\u00a0\u00a0\u00a0Shall profit thee and much enrich thy book.</span></p>\n"}, {"title": "Why is my verse so barren of new pride (Sonnet 76)", "view_node": "/poem/why-my-verse-so-barren-new-pride-sonnet-76", "field_author": "<a href=\"/poet/william-shakespeare\" hreflang=\"und\">William Shakespeare</a>", "field_date_published": "1904", "body": "<p><span class=\"long-line\">Why is my verse so barren of new pride,</span><br /><span class=\"long-line\">So far from variation or quick change?</span><br /><span class=\"long-line\">Why with the time do I not glance aside </span><br /><span class=\"long-line\">To new-found methods and to compounds strange?</span><br /><span class=\"long-line\">Why write I still all one, ever the same,</span><br /><span class=\"long-line\">And keep invention in a noted weed,</span><br /><span class=\"long-line\">That every word doth almost tell my name,</span><br /><span class=\"long-line\">Showing their birth and where they did proceed?</span><br /><span class=\"long-line\">O, know, sweet love, I always write of you,</span><br /><span class=\"long-line\">And you and love are still my argument;</span><br /><span class=\"long-line\">So all my best is dressing old words new,</span><br /><span class=\"long-line\">Spending again what is already spent:</span><br /><span class=\"long-line\">\u00a0\u00a0\u00a0\u00a0For as the sun is daily new and old,</span><br /><span class=\"long-line\">\u00a0\u00a0\u00a0\u00a0So is my love still telling what is told.</span></p>\n"}, {"title": "So are you to my thoughts as food to life (Sonnet 75)", "view_node": "/poem/so-are-you-my-thoughts-food-life-sonnet-75", "field_author": "<a href=\"/poet/william-shakespeare\" hreflang=\"und\">William Shakespeare</a>", "field_date_published": "1904", "body": "<p><span class=\"long-line\">So are you to my thoughts as food to life,</span><br /><span class=\"long-line\">Or as sweet-seasoned showers are to the ground;</span><br /><span class=\"long-line\">And for the peace of you I hold such strife</span><br /><span class=\"long-line\">As \u2019twixt a miser and his wealth is found;</span><br /><span class=\"long-line\">Now proud as an enjoyer and anon</span><br /><span class=\"long-line\">Doubting the filching age will steal his treasure,</span><br /><span class=\"long-line\">Now counting best to be with you alone,</span><br /><span class=\"long-line\">Then better\u2019d that the world may see my pleasure;</span><br /><span class=\"long-line\">Sometime all full with feasting on your sight</span><br /><span class=\"long-line\">And by and by clean starved for a look;</span><br /><span class=\"long-line\">Possessing or pursuing no delight,</span><br /><span class=\"long-line\">Save what is had or must from you be took.</span><br /><span class=\"long-line\">\u00a0\u00a0\u00a0\u00a0Thus do I pine and surfeit day by day,</span><br /><span class=\"long-line\">\u00a0\u00a0\u00a0\u00a0Or gluttoning on all, or all away.</span></p>\n"}, {"title": "But be contented: when that fell arrest (Sonnet 74)", "view_node": "/poem/be-contented-when-fell-arrest-sonnet-74", "field_author": "<a href=\"/poet/william-shakespeare\" hreflang=\"und\">William Shakespeare</a>", "field_date_published": "1904", "body": "<p><span class=\"long-line\">But be contented: when that fell arrest</span><br /><span class=\"long-line\">Without all bail shall carry me away,</span><br /><span class=\"long-line\">My life hath in this line some interest,</span><br /><span class=\"long-line\">Which for memorial still with thee shall stay.</span><br /><span class=\"long-line\">When thou reviewest this, thou dost review</span><br /><span class=\"long-line\">The very part was consecrate to thee:</span><br /><span class=\"long-line\">The earth can have but earth, which is his\u00a0due;</span><br /><span class=\"long-line\">My spirit is thine, the better part of me:</span><br /><span class=\"long-line\">So then thou has but lost the dregs of life,</span><br /><span class=\"long-line\">The prey of worms, my body being dead,</span><br /><span class=\"long-line\">The coward conquest of a wretch\u2019s knife,</span><br /><span class=\"long-line\">Too base of thee to be remembered.</span><br /><span class=\"long-line\">\u00a0\u00a0\u00a0\u00a0The worth of that is that which it contains,</span><br /><span class=\"long-line\">\u00a0\u00a0\u00a0\u00a0And that is this, and this with thee remains. </span></p>\n"}, {"title": "O, lest the world should task you to recite (Sonnet 72)", "view_node": "/poem/o-lest-world-should-task-you-recite-sonnet-72", "field_author": "<a href=\"/poet/william-shakespeare\" hreflang=\"und\">William Shakespeare</a>", "field_date_published": "1904", "body": "<p><span class=\"long-line\">O, lest the world should task you to recite</span><br /><span class=\"long-line\">What merit lived in me, that you should love</span><br /><span class=\"long-line\">After my death, dear love, forget me quite,</span><br /><span class=\"long-line\">For you in me can nothing worthy prove;</span><br /><span class=\"long-line\">Unless you would devise some virtuous lie,</span><br /><span class=\"long-line\">To do more for me than mine own desert,</span><br /><span class=\"long-line\">And hang more praise upon deceased I</span><br /><span class=\"long-line\">That niggard truth love may seem false in this,</span><br /><span class=\"long-line\">That you for love speak well of me untrue,</span><br /><span class=\"long-line\">My name be buried where my body is,</span><br /><span class=\"long-line\">And live no more to shame nor me nor you.</span><br /><span class=\"long-line\">\u00a0\u00a0\u00a0\u00a0For I am shamed by that which I bring forth,</span><br /><span class=\"long-line\">\u00a0\u00a0\u00a0\u00a0And so should you, to love things nothing worth. </span></p>\n"}, {"title": "No longer mourn for me when I am dead (Sonnet 71)", "view_node": "/poem/no-longer-mourn-me-when-i-am-dead-sonnet-71", "field_author": "<a href=\"/poet/william-shakespeare\" hreflang=\"und\">William Shakespeare</a>", "field_date_published": "1904", "body": "<p><span class=\"long-line\">No longer mourn for me when I am dead</span><br /><span class=\"long-line\">Than you shall hear the surly sullen bell</span><br /><span class=\"long-line\">Given warning to the world that I am fled</span><br /><span class=\"long-line\">From this vile world, with vilest worms to dwell:</span><br /><span class=\"long-line\">Nay, if you read this line, remember not</span><br /><span class=\"long-line\">The hand that writ it; for I love you so </span><br /><span class=\"long-line\">That I in you sweetest thoughts would be forgot</span><br /><span class=\"long-line\">If thinking on me then should make you woe.</span><br /><span class=\"long-line\">O, if I say, you look upon this verse</span><br /><span class=\"long-line\">When I perhaps compounded am with clay,</span><br /><span class=\"long-line\">Do not so much as my poor name rehearse,</span><br /><span class=\"long-line\">But let your love even with my life decay,</span><br /><span class=\"long-line\">\u00a0\u00a0\u00a0\u00a0Lest the wise world should look into your moan</span><br /><span class=\"long-line\">\u00a0\u00a0\u00a0\u00a0And mock you with me after I am gone. </span></p>\n"}, {"title": "That thou art blamed shall not be thy defect (Sonnet 70)", "view_node": "/poem/thou-art-blamed-shall-not-be-thy-defect-sonnet-70", "field_author": "<a href=\"/poet/william-shakespeare\" hreflang=\"und\">William Shakespeare</a>", "field_date_published": "1904", "body": "<p><span class=\"long-line\">That thou art blamed shall not be thy defect,</span><br /><span class=\"long-line\">For slander\u2019s mark was ever yet the fair;</span><br /><span class=\"long-line\">The ornament of beauty is suspect,</span><br /><span class=\"long-line\">A crow that flies in heaven\u2019s sweetest air.</span><br /><span class=\"long-line\">So thou be good, slander doth but approve</span><br /><span class=\"long-line\">Thy worth the greater, being woo\u2019d of time;</span><br /><span class=\"long-line\">For canker vice the sweetest buds doth love,</span><br /><span class=\"long-line\">And hour present\u2019st a pure unstained prime.</span><br /><span class=\"long-line\">Thou hast pass\u2019d by the ambush of young days,</span><br /><span class=\"long-line\">Either not assail\u2019d or victor being charged;</span><br /><span class=\"long-line\">Yet this thy praise cannot be so thy praise,</span><br /><span class=\"long-line\">To tie up envy evermore enlarged:</span><br /><span class=\"long-line\">\u00a0\u00a0\u00a0\u00a0If some suspect of ill mask\u2019d not thy show,</span><br /><span class=\"long-line\">\u00a0\u00a0\u00a0\u00a0Then thou alone kingdoms of hearts shouldst owe.</span></p>\n"}, {"title": "Those parts of thee that the world&#039;s eye doth view (Sonnet 69)", "view_node": "/poem/those-parts-thee-worlds-eye-doth-view-sonnet-69", "field_author": "<a href=\"/poet/william-shakespeare\" hreflang=\"und\">William Shakespeare</a>", "field_date_published": "1904", "body": "<p><span class=\"long-line\">Those parts of thee that the world\u2019s eye doth view</span><br /><span class=\"long-line\">Want nothing that the thought of hearts can mend;</span><br /><span class=\"long-line\">All tongues, the voice of souls, give thee that due,</span><br /><span class=\"long-line\">Uttering bare truth, even so as foes commend.</span><br /><span class=\"long-line\">Thy outward thus with outward praise is crown\u2019d;</span><br /><span class=\"long-line\">But those same tongues that give thee so thine own</span><br /><span class=\"long-line\">In other accents do this praise confound</span><br /><span class=\"long-line\">By seeing farther than the eye hath shown.</span><br /><span class=\"long-line\">They look into the beauty of thy mind,</span><br /><span class=\"long-line\">And that, in guess, they measure by thy deeds;</span><br /><span class=\"long-line\">Then, churls, their thoughts, although their eyes were kind,</span><br /><span class=\"long-line\">To thy fair flower add the rank smell of weeds:</span><br /><span class=\"long-line\">\u00a0\u00a0\u00a0\u00a0But why thy odour matcheth not thy show,</span><br /><span class=\"long-line\">\u00a0\u00a0\u00a0\u00a0The solve is this, that thou dost common grow.</span></p>\n"}, {"title": "This is his cheek the map of days outworn (Sonnet 68)", "view_node": "/poem/his-cheek-map-days-outworn-sonnet-68", "field_author": "<a href=\"/poet/william-shakespeare\" hreflang=\"und\">William Shakespeare</a>", "field_date_published": "1904", "body": "<p><span class=\"long-line\">This is his cheek the map of days outworn,</span><br /><span class=\"long-line\">When beauty lived and died as flowers do now,</span><br /><span class=\"long-line\">Before these bastard signs of fair were born,</span><br /><span class=\"long-line\">Or durst inhabit on a living brow;</span><br /><span class=\"long-line\">Before the golden tresses of the dead,</span><br /><span class=\"long-line\">The right of sepulchers, were shorn away,</span><br /><span class=\"long-line\">To live a second life on second head;</span><br /><span class=\"long-line\">Ere beauty\u2019s dead fleece made another gay:</span><br /><span class=\"long-line\">In him those holy antique hours are seen,</span><br /><span class=\"long-line\">Without all ornament, itself and true,</span><br /><span class=\"long-line\">Making no summer of another\u2019s green,</span><br /><span class=\"long-line\">Robbing no old to dress his beauty new;</span><br /><span class=\"long-line\">\u00a0\u00a0\u00a0\u00a0And him as for a map doth Nature store,</span><br /><span class=\"long-line\">\u00a0\u00a0\u00a0\u00a0To show false Art what beauty was of yore.</span></p>\n"}, {"title": "Ah! wherefore with infection should he live (Sonnet 67)", "view_node": "/poem/ah-wherefore-infection-should-he-live-sonnet-67", "field_author": "<a href=\"/poet/william-shakespeare\" hreflang=\"und\">William Shakespeare</a>", "field_date_published": "1904", "body": "<p><span class=\"long-line\">Ah! wherefore with infection should he live,</span><br /><span class=\"long-line\">And with his presence grace impiety,</span><br /><span class=\"long-line\">That sin by him advantage should achieve</span><br /><span class=\"long-line\">And lace itself with his society?</span><br /><span class=\"long-line\">Why should false painting imitate his cheek</span><br /><span class=\"long-line\">And steel dead seeing of his living hue?</span><br /><span class=\"long-line\">Why should poor beauty indirectly seek</span><br /><span class=\"long-line\">Roses of shadow, since his rose is true?</span><br /><span class=\"long-line\">Why should he live, now Nature bankrupt is,</span><br /><span class=\"long-line\">Beggar\u2019d of blood to blush through lively veins?</span><br /><span class=\"long-line\">For she hath no exchequer now but his,</span><br /><span class=\"long-line\">And, proud of many, lives upon his gains.</span><br /><span class=\"long-line\">\u00a0\u00a0\u00a0\u00a0O, him she stores, to show what wealth she dad</span><br /><span class=\"long-line\">\u00a0\u00a0\u00a0\u00a0In days long since, before these last so bad.</span></p>\n"}, {"title": "When I have seen by Time&#039;s fell hand defaced (Sonnet 64)", "view_node": "/poem/when-i-have-seen-times-fell-hand-defaced-sonnet-64", "field_author": "<a href=\"/poet/william-shakespeare\" hreflang=\"und\">William Shakespeare</a>", "field_date_published": "1903", "body": "<p><span class=\"long-line\">When I have seen by Time\u2019s fell hand defaced</span><br /><span class=\"long-line\">The rich proud cost of outworn buried age;</span><br /><span class=\"long-line\">When sometime lofty towers I see down-razed</span><br /><span class=\"long-line\">And brass eternal slave to mortal rage;</span><br /><span class=\"long-line\">When I have seen the hungry ocean gain</span><br /><span class=\"long-line\">Advantage on the kingdom of the shore,</span><br /><span class=\"long-line\">And the firm soil win of the watery main,</span><br /><span class=\"long-line\">Increasing store with loss and loss with store;</span><br /><span class=\"long-line\">When I have seen such interchange of state,</span><br /><span class=\"long-line\">Or state itself confounded to decay;</span><br /><span class=\"long-line\">Ruin hath taught me thus to ruminate,</span><br /><span class=\"long-line\">That Time will come and take my love away.</span><br /><span class=\"long-line\">\u00a0\u00a0\u00a0\u00a0This thought is as a death, which cannot choose</span><br /><span class=\"long-line\">\u00a0\u00a0\u00a0\u00a0But weep to have that which it fears to lose.</span></p>\n"}, {"title": "Against my love shall be, as I am now (Sonnet 63)", "view_node": "/poem/against-my-love-shall-be-i-am-now-sonnet-63", "field_author": "<a href=\"/poet/william-shakespeare\" hreflang=\"und\">William Shakespeare</a>", "field_date_published": "1904", "body": "<p><span class=\"long-line\">Against my love shall be, as I am now,</span><br /><span class=\"long-line\">With Time\u2019s injurious hand crush\u2019d and o\u2019er-worn;</span><br /><span class=\"long-line\">When hours have drain\u2019d his blood and fill\u2019d his brow</span><br /><span class=\"long-line\">With lines and wrinkles; when his youthful morn</span><br /><span class=\"long-line\">Hath travell\u2019d on to age\u2019s steepy night,</span><br /><span class=\"long-line\">And all those beauties whereof now he\u2019s king</span><br /><span class=\"long-line\">Are vanishing or vanish\u2019d out of sight,</span><br /><span class=\"long-line\">Stealing away the treasure of his spring;</span><br /><span class=\"long-line\">For such a time do I now fortify</span><br /><span class=\"long-line\">Against confounding age\u2019s cruel knife,</span><br /><span class=\"long-line\">That he shall never cut from memory</span><br /><span class=\"long-line\">My sweet love\u2019s beauty, though my lover\u2019s life:</span><br /><span class=\"long-line\">\u00a0\u00a0\u00a0\u00a0His beauty shall in these black lines be seen,</span><br /><span class=\"long-line\">\u00a0\u00a0\u00a0\u00a0And they shall live, and he in them still green.</span></p>\n"}, {"title": "Sin of self-love possesseth all mine eye (Sonnet 62)", "view_node": "/poem/sin-self-love-possesseth-all-mine-eye-sonnet-62", "field_author": "<a href=\"/poet/william-shakespeare\" hreflang=\"und\">William Shakespeare</a>", "field_date_published": "1904", "body": "<p><span class=\"long-line\">Sin of self-love possesseth all mine eye</span><br /><span class=\"long-line\">And all my soul and all my every part;</span><br /><span class=\"long-line\">And for this sin there is no remedy,</span><br /><span class=\"long-line\">It is so grounded inward in my heart.</span><br /><span class=\"long-line\">Methinks no face so gracious is as mine,</span><br /><span class=\"long-line\">No shape so true, no truth of such account;</span><br /><span class=\"long-line\">And for myself mine own worth do define,</span><br /><span class=\"long-line\">As I all other in all worths surmount.</span><br /><span class=\"long-line\">But when my glass shows me myself indeed,</span><br /><span class=\"long-line\">Beated and chopp\u2019d with tann\u2019d antiquity,</span><br /><span class=\"long-line\">Mine own self-love quite contrary I read;</span><br /><span class=\"long-line\">Self so self-loving quite contrary I read;</span><br /><span class=\"long-line\">Self so self-loving were iniquity.</span><br /><span class=\"long-line\">\u00a0\u00a0\u00a0\u00a0\u2019Tis thee, myself, that for myself I praise,</span><br /><span class=\"long-line\">\u00a0\u00a0\u00a0\u00a0Painting my age with beauty of thy days.</span></p>\n"}], "pager": {"current_page": 194, "total_items": "13248", "total_pages": 663, "items_per_page": 20}}