{"rows": [{"title": "Late August on the Lido", "view_node": "/poem/late-august-lido", "field_author": "<a href=\"/poet/john-hollander\" hreflang=\"und\">John Hollander</a>", "field_date_published": "1993", "body": " <p>To lie on these beaches for another summer<br />Would not become them at all,<br />And yet the water and her sands will suffer<br />When, in the fall,<br />These golden children will be taken from her.<br /><br />It is not the gold they bring: enough of that<br />Has shone in the water for ages<br />And in the bright theater of Venice at their backs;<br />But the final stages<br />Of all those afternoons when they played and sat<br /><br />And waited for a beckoning wind to blow them<br />Back over the water again<br />Are scenes most necessary to this ocean.<br />What actors then<br />Will play when these disperse from the sand below them?<br /><br />All this over until, perhaps, next spring;<br />This last afternoon must be pleasing.<br />Europe, Europe is over, but they lie here still,<br />While the wind, increasing,<br />Sands teeth, sands eyes, sands taste, sands everything.</p> "}, {"title": "&quot;My True Love Hath My Heart and I Have His&quot;", "view_node": "/poem/my-true-love-hath-my-heart-and-i-have-his", "field_author": "<a href=\"/poet/mary-elizabeth-coleridge\" hreflang=\"und\">Mary Elizabeth Coleridge</a>", "field_date_published": "2013", "body": " <p>None ever was in love with me but grief.<br />\u00a0\u00a0\u00a0She wooed my from the day that I was born;<br />She stole my playthings first, the jealous thief,<br />\u00a0\u00a0\u00a0And left me there forlorn.<br /><br />The birds that in my garden would have sung,<br />\u00a0\u00a0\u00a0She scared away with her unending moan;<br />She slew my lovers too when I was young,<br />\u00a0\u00a0\u00a0And left me there alone.<br /><br />Grief, I have cursed thee often\u2014now at last<br />\u00a0\u00a0\u00a0To hate thy name I am no longer free;<br />Caught in thy bony arms and prisoned fast,<br />\u00a0\u00a0\u00a0I love no love but thee.</p> "}, {"title": "The Barcelona Inside Me", "view_node": "/poem/barcelona-inside-me", "field_author": "<a href=\"/poet/robin-becker\" hreflang=\"und\">Robin Becker</a>", "field_date_published": "2013", "body": " <p>Give me, again, the fairy tale grotto<br />with the portico-vaulting overhead.<br />Let me walk beneath the canted columns<br />of Gaud\u00ed\u2019s rookery, spiral<br />along his crenelated Jerusalem<br />of broken tiles, crazy shields.<br />Yes, it\u2019s hot as hell and full<br />of tourists at the double helix,<br />but the anarchists now occupy<br />the Food Court, and the arcadian dream<br />for the working class includes this shady<br />colonnade cut into the mountainside.<br />I\u2019ve postponed my allegiance to<br />the tiny house movement, to the 450<br />square feet of simple, American maple<br />infrastructure and the roomy<br />mind suspended like a hammock<br />between joists. Serpents and castle<br />keeps shimmer, and a mosaic invitation<br />to the Confectionery gets me a free<br />caf\u00e9 con leche on the <i>La Rambla,</i><br /><br />where honeycombed apartments bend<br />on chiseled stone and host<br />floating, wrought-iron balconies.<br />I think I\u2019ll move into Gaud\u00ed\u2019s dream<br />of recycled mesh, walk barefoot<br />on his flagstone tiles<br />inscribed with seaweed<br />and sacred graffiti<br />from pagan tombs.<br />O, Barcelona of chamfered corners!<br />And chimneys of cowled<br />warriors! From Gaud\u00ed\u2019s Book<br />of Revelations, I invite the goblet<br />and the stone Mobius strip<br />to a tapas of grilled prawns and squid.<br />Gaud\u00ed\u2019s book of Revelations.</p> "}, {"title": "Wedding Album 1977", "view_node": "/poem/wedding-album-1977", "field_author": "<a href=\"/poet/tess-taylor\" hreflang=\"und\">Tess Taylor</a>", "field_date_published": "2013", "body": " <p>My parents kissing in a kitchen.<br />In her loop-eyed dress my mother\u2014<br /><br />enormous in her belly, I loom.<br />In a commune in Fort Greene<br /><br />she typed and typed her dissertation.<br />Upstairs a woman practiced primal screams,<br /><br />a wild-haired painter mourned his dying wife.<br />My parents had already made my life<br /><br />near the mass grave<br />of hundreds of Revolutionary soldiers,<br /><br />a cockeyed brownstone full of junkies,<br />somebody who stripped my parents\u2019 jalopy<br /><br />down to wires and bones.<br />Soon they sold all they had<br /><br />and drove to Madison to have me.<br />Had five people over for pie.<br /><br />It was done then: They were married.<br />Weeks later in their bedroom I was born.<br /><br />In piles my mother\u2019s writing<br />watched us from unquiet bricks and boards.</p> "}, {"title": "[I&#039;m not with my]", "view_node": "/poem/im-not-my", "field_author": "<a href=\"/poet/joshua-beckman\" hreflang=\"und\">Joshua Beckman</a>", "field_date_published": "2013", "body": " <p>I\u2019m not with my blue toes or my doggies<br />nor am I under any arched roof rotting blossoms<br />in my drain, sunlight pouncing upon me,<br />nor am I fixed like a tree, nor am I unfixed<br />like a wind. I ate an apple, that\u2019s fine<br />and after Anthony left I got a whiskey.<br />I stared a bit like a shadow at a book,<br />a fold in my shirt showed a monk\u2019s bowing head<br />in a column of dusty light, but I just basically<br />used it to cover up my arm which was prickling<br />now because of some awful thing within me.<br />Big nasty sun making me feel old and then<br />this lovely gold bird flew up to my lunch.<br />An actual family of little white turnips<br />rolling over in the boiling pot like some<br />clouds is how I act. A great blue sky for a bed<br />and that beauty make me happy again.</p> "}, {"title": "08/22/08", "view_node": "/poem/082208", "field_author": "<a href=\"/poet/david-lehman\" hreflang=\"und\">David Lehman</a>", "field_date_published": "2013", "body": " <p>Today in 1862<br />Claude Debussy was born.<br />I remember where I was and what I was doing<br />one hundred years and two months later:<br />elementary algebra, trombone practice,<br /><i>Julius Caesar</i> on the record player<br />with Brando as Antony, simple<br />buttonhook patterns in football,<br />the French subjunctive, and the use<br />of \"quarantine\" rather than \"blockade\"<br />during the Cuban Missile Crisis.<br />It was considered the less belligerent word.<br />Much was made of it in 1962,<br />centenary of Debussy\u2019s birth.<br />And if today I play his <i>Rhapsody<br />for Saxophone and Orchestra</i><br />for the ten minutes it requires of<br />my undivided attention, who will attack me for<br />living in Paris in 1908 instead of now?<br />Let them. I'll take my stand,<br />my music stand, with the composer<br />of my favorite <i>Danse Tarantelle.</i></p> "}, {"title": "Incomplete Lioness", "view_node": "/poem/incomplete-lioness", "field_author": "<a href=\"/poet/linda-bierds\" hreflang=\"und\">Linda Bierds</a>", "field_date_published": "2013", "body": " <p>\u00a0\u00a0\u00a0\u00a0\u00a0\u00a0\u00a0\u00a0\u00a0\u00a0\u00a0\u00a0\u00a0\u00a0\u00a0\u00a0\u2014National Gallery, London<br /><br />Or lion. Too little marble left for certainty:<br />affixed to a bone-like armature, just a flank<br />and scored shoulder, and far down the missing,<br />crouching shape, a single, splay-toed paw.<br />The companion, or mate, is better formed<br />and offers a template to trace a bit, image to absence<br />to memory, until the lioness fills.<br /><br />The exhibit is <i>Fragments and Dislocations:<br />Sight and Sightlessness</i>. Across the room<br />in Renaissance, the painter, retinas tattered<br />as a saint\u2019s hem, might have filled a lioness<br />differently: absence first, then memory,<br />and then the lines around his own vision, its crags<br /><br />and wilderness. His century failed him,<br />a placard says. Just eye-lid balms<br />and powdered rhubarb. What retina remained<br />must have caught his subject\u2019s chosen states\u2014penitence<br />and ecstasy\u2014nearsightedly, which would explain<br />the perfect stones, less perfect trees. Or perhaps<br />his partial sightlessness was corneal, and thus<br /><br />the painting\u2019s mood, front-lit through gauze.<br />In either case, what the painter knew\u2014that his saint<br />and tiny crucifix would not adorn an altarpiece\u2014<br />comes to us more slowly. Wood grains,<br />punch patterns, and the small keyhole<br />beneath a varnished leaf, suggest a sacristy cupboard,<br /><br />not worship\u2019s place, but preservation\u2019s.<br /><i>Chosen states</i>, the placard said.<br />Vacancy and memory. Ecstasy and penitence.<br />And then, <i>His partial vision of the whole<br />produced a partial masterpiece:</i><br />a saint\u2014Jerome\u2014and grizzled robe, flawless<br />in its dust. The rest is incomplete, but zero-mass<br /><br />radiography, its lights and darks reversed,<br />reveals a shape beneath the scene:<br />Jerome as just two simple lines, white arc<br />across white axis\u2014before they both were white-<br />washed over, and the saint began,<br />and umber brought the lion to him.</p> "}, {"title": "Conspiracy to Commit Larceny: A Recipe", "view_node": "/poem/conspiracy-commit-larceny-recipe", "field_author": "<a href=\"/poet/jennifer-militello\" hreflang=\"und\">Jennifer Militello</a>", "field_date_published": "2013", "body": " <p>Take the man you think you love and his<br />fabulous lips. Take him from one place<br />to the next. Let him drive your car. Let him<br />drive it through the mood-crazed woods<br />until it overheats. Let the nights feed<br />from your eyes as you look at him. Do<br />not turn on the heat. Do not spill<br />the flavored oils of the heart. Do not<br />eat from the palm of your hand<br />a fluid ounce of what you may need.<br />Do something illegal. You only have to be<br />there when they bring the contraband in.<br />You only have to leave yourself behind.<br />The stars know. The police will prowl<br />your neighborhood until the plate number<br />matches and the car checks out.<br />When they bring you in, you<br />must remove your shoes and belt.<br />You must pretend there was no felony.<br />Then you must confess. Add your past,<br />a pinch of the rage you feel, and how<br />you sit until your father bursts in<br />and asks whether you have been arrested.<br />Add a mother who tells you she is<br />ashamed. An expensive lawyer. The way<br />you remember the taste of his kiss and<br />how real he was and how he would<br />drive dark roads at high speeds through<br />the back woods with the headlights off.<br />Remember what the stars see. And how<br />once it is over the lawyer will send<br />a letter saying he said you knew nothing,<br />saying he tried to keep you out of it,<br />though the police said he had given<br />you up as they made you say his name.</p> "}, {"title": "Reduction", "view_node": "/poem/reduction", "field_author": "<a href=\"/poet/page-starzinger\" hreflang=\"und\">Page Starzinger</a>", "field_date_published": "2013", "body": "<p><span class=\"long-line\">Vestigial <em>leavinges</em></span><br /><em><span class=\"long-line\">and fragmentes. </span></em><br /><span class=\"long-line\">These. However: whole\u2014</span><br /><span class=\"long-line\">\u00a0\u00a0\u00a0\u00a0\u00a0\u00a0\u00a0\u00a0\u00a0like us</span><br /><span class=\"long-line\">a piecing together;</span><br /><br /><span class=\"long-line\">\u00a0\u00a0\u00a0\u00a0\u00a0\u00a0\u00a0\u00a0\u00a0Recovered</span><br /><span class=\"long-line\">\u2014<em>or a kind of gluing,</em></span><br /><span class=\"long-line\">like dinosaurs from Hell Creek Formation,</span><br /><span class=\"long-line\">with soft tissue and blood vessels inside</span><br /><span class=\"long-line\">\u00a0\u00a0\u00a0\u00a0\u00a0\u00a0\u00a0\u00a0\u00a0femurs.</span><br /><br /><span class=\"long-line\">Recursive</span><br /><span class=\"long-line\">is not the point, not even</span><br /><span class=\"long-line\">Chomsky\u2019s theory\u2014embedding entities</span><br /><span class=\"long-line\">within like entities\u2014a tree structure.</span><br /><span class=\"long-line\">Because the most powerful ancient</span><br /><br /><span class=\"long-line\">Amazon cultures, who resist</span><br /><span class=\"long-line\">change, have no stories</span><br /><span class=\"long-line\">for what came before. There, prosody\u2014present tense:</span><br /><span class=\"long-line\">woman winding raw</span><br /><span class=\"long-line\">cotton, child at her feet, singing</span><br /><br /><span class=\"long-line\">a series of notes,</span><br /><span class=\"long-line\">like a muted horn (what</span><br /><span class=\"long-line\">sounds).</span><br /><span class=\"long-line\">\u00a0\u00a0\u00a0\u00a0\u00a0\u00a0\u00a0\u00a0\u00a0What</span><br /><br /><span class=\"long-line\">is not enough about this? Could we fall prey</span><br /><br /><span class=\"long-line\">to transcendence,</span><br /><span class=\"long-line\">and reduce, to a point that is</span><br /><span class=\"long-line\">fugitive; you are at the tip</span><br /><br /><span class=\"long-line\">of my tongue, then</span><br /><span class=\"long-line\">not. Just like a leaf drifting</span><br /><span class=\"long-line\">out of the picture. It\u2019s called</span><br /><br /><span class=\"long-line\"><em>xibipio</em>\u2014</span><br /><span class=\"long-line\">not simply gone,</span><br /><span class=\"long-line\">but out of experience. Of Christ</span><br /><span class=\"long-line\">they ask: Have you met</span><br /><span class=\"long-line\">\u00a0\u00a0\u00a0\u00a0\u00a0\u00a0\u00a0\u00a0\u00a0him?</span></p>\n"}, {"title": "Series", "view_node": "/poem/series", "field_author": "<a href=\"/poet/geoffrey-g-obrien\" hreflang=\"und\">Geoffrey G. O&#039;Brien</a>", "field_date_published": "2013", "body": " <p>To remember people in the act<br />Of speaking is to love them<br />And not the turquoise substrate<br />Redon supposed was all there was<br />To vases, any container, the vessel<br />Objects are. To remember<br />People in the act of speaking<br />Is to love them, but not for anything<br />They say. An open mouth<br />Unembarrassed in the lower parts<br />Of the face, vase that when<br />It\u2019s drawn becomes a lamp<br />Now that it\u2019s getting darker<br />Earlier, done before we are<br />Finished forgetting not to be,<br />Thinking about the lip of the vase<br />Or a smudge of stray indigo<br />Above it, and the butterfly about<br />To test the limits of what\u2019s happened<br />Once and less than once.</p> "}, {"title": "The Throats of Guantanamo", "view_node": "/poem/throats-guantanamo", "field_author": "<a href=\"/poet/katie-ford\" hreflang=\"und\">Katie Ford</a>", "field_date_published": "2013", "body": " <p>Morning opens with the comforts of my unbeaten body<br />a tinkerer\u2019s stack of quiltings and cannings the cloth finch<br /><br />half-attached to a mobile of warblers and wrens<br />in the meantime my country sends post to mothers and fathers<br /><br />back again fly a trinity of boys<br />with their throats torn out<br /><br />simultaneity drinks twig tea and stitches<br />a hidden seam<br /><br />I take a string to a bittern\u2019s back and tie it<br />to the looping newborn delight<br /><br />then read of each strangulation no bone or larynx<br />for proof maybe each part was tossed to bay<br /><br />a medieval saint was asked what would you do if you knew<br />it was the end of the world<br /><br />I\u2019d dig in my garden he said<br />oh saint it\u2019s a good answer<br /><br />but here the end is torn out<br />one by one.</p> "}, {"title": "The Living Beauty", "view_node": "/poem/living-beauty", "field_author": "<a href=\"/poet/w-b-yeats\" hreflang=\"und\">W. B. Yeats</a>", "field_date_published": "1919", "body": " <p>I'll say and maybe dream I have drawn content\u2014<br />Seeing that time has frozen up the blood,<br />The wick of youth being burned and the oil spent\u2014<br />From beauty that is cast out of a mould<br />In bronze, or that in dazzling marble appears,<br />Appears, but when we have gone is gone again,<br />Being more indifferent to our solitude<br />Than 'twere an apparition. O heart, we are old,<br />The living beauty is for younger men,<br />We cannot pay its tribute of wild tears.</p> "}, {"title": "Move to the City", "view_node": "/poem/move-city", "field_author": "<a href=\"/poet/nathaniel-bellows\" hreflang=\"und\">Nathaniel Bellows</a>", "field_date_published": "2013", "body": " <p>live life as a stranger. Disappear<br />into frequent invention, depending<br />on the district, wherever you get off<br />the train. For a night, take the name<br />of the person who\u2019d say yes to that<br />offer, that overture, the invitation to<br />kiss that mouth, sit on that lap. Assume<br />the name of whoever has the skill to<br />slip from the warm side of the sleeping<br />stranger, dress in the hallway of the<br />hotel. This is a city where people<br />know the price of everything, and<br />know that some of the best things<br />still come free. In one guise: shed<br />all that shame. In another: flaunt the<br />plumage you\u2019ve never allowed<br />yourself to leverage. Danger will<br />always be outweighed by education,<br />even if conjured by a lie. Remember:<br />go home while it\u2019s still dark. Don\u2019t<br />invite anyone back. And, once inside,<br />take off the mask. These inventions<br />are the art of a kind of citizenship,<br />and they do not last. In the end, it<br />might mean nothing beyond further<br />fortifying the walls, crystallizing<br />the questioned, tested autonomy,<br />ratifying the fact that nothing will be<br />as secret, as satisfying, as the work<br />you do alone in your room.</p> "}, {"title": "Skyscraper", "view_node": "/poem/skyscraper", "field_author": "<a href=\"/poet/matt-rasmussen\" hreflang=\"und\">Matt Rasmussen</a>", "field_date_published": "2013", "body": " <p>A sword thrust<br />into the city.<br /><br />From inside<br />the caf\u00e9, the letters<br /><br />on the window<br />look like a new<br /><br />language. It\u2019s this<br />simple: There is<br /><br />nothing within us<br />like what we are<br /><br />inside this window.<br />Colossal seppuku,<br /><br />you are the sky<br />before the sky.</p> "}, {"title": "Experiment in Divination: Voice and Character", "view_node": "/poem/experiment-divination-voice-and-character", "field_author": "<a href=\"/poet/rebecca-wolff\" hreflang=\"und\">Rebecca Wolff</a>", "field_date_published": "2013", "body": "<p><span class=\"long-line\">There is a curiosity that knows</span><br /><span class=\"long-line\">I know</span><br /><br /><span class=\"long-line\">deathless ceiling of unknowing</span><br /><span class=\"long-line\">I know</span><br /><br /><span class=\"long-line\">Querent,</span><br /><br /><span class=\"long-line\">Who I ask</span><br /><span class=\"long-line\">is changing</span><br /><br /><span class=\"long-line\">all the time</span><br /><br /><span class=\"long-line\">changing</span><br /><span class=\"long-line\">now changed.</span><br /><br /><span class=\"long-line\">How else is one to know</span><br /><br /><span class=\"long-line\">How is one to know how to proceed</span><br /><br /><span class=\"long-line\">the course of action</span><br /><br /><span class=\"long-line\">a non-reflective surface</span><br /><br /><span class=\"long-line\">a playing card on a wooden picnic table</span><br /><span class=\"long-line\">a knot of knowing on a node of playing</span><br /><br /><span class=\"long-line\">How is one to know</span><br /><br /><span class=\"long-line\">How else is one to know how to proceed</span><br /><br /><span class=\"long-line\">How is one to make the motion against</span><br /><br /><br /><span class=\"long-line\">And there\u2019s forever</span><br /><span class=\"long-line\">and that\u2019s a mighty long time.</span></p>\n"}, {"title": "Self-Portrait in a Wire Jacket", "view_node": "/poem/self-portrait-wire-jacket", "field_author": "<a href=\"/poet/monica-youn\" hreflang=\"und\">Monica Youn</a>", "field_date_published": "2013", "body": " <p>To section off<br />is to intensify,<br /><br />to deaden.<br />Some surfaces<br /><br />cannot be salvaged.<br />Leave them<br /><br />to lose function,<br />to persist only<br /><br />as armature,<br />holding in place<br /><br />those radiant<br />squares<br /><br />of sensation\u2014<br />the body a dichotomy<br /><br />of flesh and<br />blood. Wait here<br /><br />in the trellised<br />garden you<br /><br />are becoming.<br />Soon you\u2019ll know<br /><br />that the strictures<br />have themselves<br /><br />become superfluous,<br />but at that point<br /><br />you\u2019ll also know<br />that ungridded<br /><br />you could no longer survive.</p> "}, {"title": "These Hands, If Not Gods", "view_node": "/poem/these-hands-if-not-gods", "field_author": "<a href=\"/poet/natalie-diaz\" hreflang=\"und\">Natalie Diaz</a>", "field_date_published": "2013", "body": "<p>Haven\u2019t they moved like rivers\u2014<br /><span class=\"long-line\">like Glory, like light\u2014</span><br /><span class=\"long-line\">over the seven days of your body?</span></p>\n\n<p><span class=\"long-line\">And wasn\u2019t that good?</span><br /><span class=\"long-line\">Them at your hips\u2014</span></p>\n\n<p><span class=\"long-line\">isn\u2019t this what God felt when he pressed together</span><br /><span class=\"long-line\">the first Beloved: <em>Everything.</em></span><br /><span class=\"long-line\">Fever. Vapor. Atman. Pulsus. Finally,</span><br /><span class=\"long-line\">a sin worth hurting for. Finally, a sweet, a</span><br /><span class=\"long-line\"><em>You are mine.</em></span></p>\n\n<p><span class=\"long-line\">It is hard not to have faith in this:</span><br /><span class=\"long-line\">from the blue-brown clay of night</span><br /><span class=\"long-line\">these two potters crushed and smoothed you</span><br /><span class=\"long-line\">into being\u2014grind, then curve\u2014built your form up\u2014</span></p>\n\n<p><span class=\"long-line\">atlas of bone, fields of muscle,</span><br /><span class=\"long-line\">one breast a fig tree, the other a nightingale,</span><br /><span class=\"long-line\">both Morning and Evening.</span></p>\n\n<p><span class=\"long-line\">O, the beautiful making they do\u2014</span><br /><span class=\"long-line\">of trigger and carve, suffering and stars\u2014</span></p>\n\n<p><span class=\"long-line\">Aren\u2019t they, too, the dark carpenters</span><br /><span class=\"long-line\">of your small church? Have they not burned</span><br /><span class=\"long-line\">on the altar of your belly, eaten the bread</span><br /><span class=\"long-line\">of your thighs, broke you to wine, to ichor,</span><br /><span class=\"long-line\">to nectareous feast?</span></p>\n\n<p><span class=\"long-line\">Haven\u2019t they riveted your wrists, haven\u2019t they</span><br /><span class=\"long-line\">had you at your knees?</span></p>\n\n<p><span class=\"long-line\">And when these hands touched your throat,</span><br /><span class=\"long-line\">showed you how to take the apple <em>and</em> the rib,</span><br /><span class=\"long-line\">how to slip a thumb into your mouth and taste it all,</span><br /><span class=\"long-line\">didn\u2019t you sing out their ninety-nine names\u2014</span></p>\n\n<p><span class=\"long-line\">Zahir, Aleph, Hands-time-seven,</span><br /><span class=\"long-line\">Sphinx, Leonids, <em>locomotura,</em></span><br /><span class=\"long-line\">Rubidium, August, and September\u2014</span><br /><span class=\"long-line\">And when you cried out, <em>O, Prometheans,</em></span><br /><span class=\"long-line\">didn\u2019t they bring fire?</span></p>\n\n<p><span class=\"long-line\">These hands, if not gods, then why</span><br /><span class=\"long-line\">when you have come to me, and I have returned you</span><br /><span class=\"long-line\">to that from which you came\u2014bright mud, mineral-salt\u2014</span><br /><span class=\"long-line\">why then do you whisper <em>O, my Hecatonchire. My Centimani.</em></span><br /><em><span class=\"long-line\">My hundred-handed one?</span></em></p>\n"}, {"title": "An Exhortation", "view_node": "/poem/exhortation", "field_author": "<a href=\"/poet/percy-bysshe-shelley\" hreflang=\"und\">Percy Bysshe Shelley</a>", "field_date_published": "2013", "body": " <p>Chameleons feed on light and air:<br />\u00a0\u00a0\u00a0Poets' food is love and fame:<br />If in this wide world of care<br />\u00a0\u00a0\u00a0Poets could but find the same<br />With as little toil as they,<br />\u00a0\u00a0\u00a0Would they ever change their hue<br />\u00a0\u00a0\u00a0As the light chameleons do,<br />Suiting it to every ray<br />\u00a0\u00a0\u00a0\u00a0\u00a0\u00a0Twenty times a day?<br /><br />Poets are on this cold earth,<br />\u00a0\u00a0\u00a0As chameleons might be,<br />Hidden from their early birth<br />\u00a0\u00a0\u00a0In a cave beneath the sea;<br />Where light is, chameleons change:<br />\u00a0\u00a0\u00a0Where love is not, poets do:<br />\u00a0\u00a0\u00a0Fame is love disguised: if few<br />Find either, never think it strange<br />\u00a0\u00a0\u00a0\u00a0\u00a0\u00a0That poets range.<br /><br />Yet dare not stain with wealth or power<br />\u00a0\u00a0\u00a0A poet's free and heavenly mind:<br />If bright chameleons should devour<br />\u00a0\u00a0\u00a0Any food but beams and wind,<br />They would grow as earthly soon<br />\u00a0\u00a0\u00a0As their brother lizards are.<br />\u00a0\u00a0\u00a0Children of a sunnier star,<br />Spirits from beyond the moon,<br />\u00a0\u00a0\u00a0\u00a0\u00a0\u00a0Oh, refuse the boon!</p> "}, {"title": "Wild Rose", "view_node": "/poem/wild-rose", "field_author": "<a href=\"/poet/bryher\" hreflang=\"und\">Bryher</a>", "field_date_published": "1920", "body": "<p><span class=\"long-line\">O wild rose, bend above my face!</span><br /><span class=\"long-line\">There is no world\u2014</span><br /><span class=\"long-line\">Only the beat of your throat against my eyes.</span></p>\n\n<p><span class=\"long-line\">White moss is harsh</span><br /><span class=\"long-line\">Against these soft white petals of your feet.</span><br /><span class=\"long-line\">It is hard to dream you have followed the wild goats</span><br /><span class=\"long-line\">Aslant the perilous hills.</span></p>\n\n<p><span class=\"long-line\">I have only the fire of my heart to offer you,</span><br /><span class=\"long-line\">O peach-red lily of my love!</span></p>\n"}, {"title": "Elders", "view_node": "/poem/elders", "field_author": "<a href=\"/poet/louise-bogan\" hreflang=\"und\">Louise Bogan</a>", "field_date_published": "1922", "body": " <p>At night the moon shakes the bright dice of the water;<br />And the elders, their flower light as broken snow upon the bush,<br />Repeat the circle of the moon.<br /><br />Within the month<br />Black fruit breaks from the white flower.<br />The black-wheeled berries turn<br />Weighing the boughs over the road.<br />There is no harvest.<br />Heavy to withering, the black wheels bend<br />Ripe for the mouths of chance lovers,<br />Or birds.<br /><br />\u00a0\u00a0\u00a0\u00a0\u00a0\u00a0Twigs show again in the quick cleavage of season and season.<br />\u00a0\u00a0\u00a0\u00a0\u00a0\u00a0The elders sag over the powdery road-bank,<br />\u00a0\u00a0\u00a0\u00a0\u00a0\u00a0As though they bore, and it were too much,<br />\u00a0\u00a0\u00a0\u00a0\u00a0\u00a0The seed of the year beyond the year.</p> "}], "pager": {"current_page": 419, "total_items": "13248", "total_pages": 663, "items_per_page": 20}}