{"rows": [{"title": "Magdalene Poem", "view_node": "/poem/magdalene-poem", "field_author": "<a href=\"/poet/john-taggart\" hreflang=\"und\">John Taggart</a>", "field_date_published": "2010", "body": " <pre>\nLove enters the body \n\nenters \nalmost \nalmost completely breaks and enters into the body \n\nalready beaten and broken \n\npeaceful if breaking if breaking \nand entering the already broken is peaceful \n\nuntouchable fortunately \nuntouchable.</pre>\n "}, {"title": "Adjectives of Order", "view_node": "/poem/adjectives-order", "field_author": "<a href=\"/poet/alexandra-teague\" hreflang=\"und\">Alexandra Teague</a>", "field_date_published": "2010", "body": " <pre>\nThat summer, she had a student who was obsessed \nwith the order of adjectives. A soldier in the South \nVietnamese army, he had been taken prisoner when \n\nSaigon fell. He wanted to know why the order \ncould not be altered. The sweltering city streets shook\nwith rockets and helicopters. The city sweltering \n\nstreets. On the dusty brown field of the chalkboard, \nshe wrote: <i>The mother took warm homemade bread \nfrom the oven</i>. City is essential to <i>streets</i> as <i>homemade</i> \n\nis essential to <i>bread</i> . He copied this down, but \nhe wanted to know if his brothers were <i>lost</i>  before \n<i>older</i>, if he worked security at a twenty-story modern\n\ndowntown bank or downtown twenty-story modern.\nWhen he first arrived, he did not know enough English \nto order a sandwich. He asked her to explain each part \n\nof <i>Lovely big rectangular old red English Catholic\nleather Bible</i>. Evaluation before size. Age before color. \nNationality before religion. Time before length. Adding \n\n<i>and</i>, one could determine if two adjectives were equal. \nAfter Saigon fell, he had survived nine long years \nof torture. Nine <i>and</i> long. He knew no other way to say this.</pre>\n "}, {"title": "Compendium of Lost Objects", "view_node": "/poem/compendium-lost-objects", "field_author": "<a href=\"/poet/nicole-cooley\" hreflang=\"und\">Nicole Cooley</a>", "field_date_published": "2010", "body": " <p>Not the butterfly wing, the semiprecious stones,<br />\u00a0\u00a0\u00a0\u00a0\u00a0\u00a0\u00a0\u00a0\u00a0\u00a0the shard of mirror,</p><p>not the cabinet of curiosities built with secret drawers<br />\u00a0\u00a0\u00a0\u00a0\u00a0\u00a0\u00a0\u00a0\u00a0\u00a0to reveal and conceal its contents,</p><p>but the batture, the rope swing, the rusted barge<br />\u00a0\u00a0\u00a0\u00a0\u00a0\u00a0\u00a0\u00a0\u00a0\u00a0sunk at the water\u2019s edge</p><p>or the park\u2019s Live Oaks you walked through<br />\u00a0\u00a0\u00a0\u00a0\u00a0\u00a0\u00a0\u00a0\u00a0\u00a0with the forbidden man</p><p>or the pink-shuttered house on the streetcar line<br />\u00a0\u00a0\u00a0\u00a0\u00a0\u00a0\u00a0\u00a0\u00a0\u00a0where you were married</p><p>or the green shock of land off I-10, road leading<br />\u00a0\u00a0\u00a0\u00a0\u00a0\u00a0\u00a0\u00a0\u00a0\u00a0you away from home.</p><p>Not any of this<br />but a cot at the Superdome sunk in a dumpster</p><p>and lace valances from a Lakeview kitchen where water<br />\u00a0\u00a0\u00a0\u00a0\u00a0\u00a0\u00a0\u00a0\u00a0\u00a0rose six feet high inside</p><p>and a refrigerator wrapped in duct tape lying<br />\u00a0\u00a0\u00a0\u00a0\u00a0\u00a0\u00a0\u00a0\u00a0\u00a0in the dirt of a once-yard</p><p>\u00a0</p><p>and a Blue Roof and a house marked 0 and a</p><p>kitchen clock stopped at the time the hurricane hit.</p><p>Because, look, none of this fits<br />in a dark wood cabinet for safekeeping.</p><p>This is an installation<br />\u00a0\u00a0\u00a0\u00a0\u00a0\u00a0\u00a0\u00a0\u00a0\u00a0\u00a0\u00a0\u00a0\u00a0\u00a0\u00a0\u00a0\u00a0\u00a0\u00a0for dismantling<br />\u00a0\u00a0\u00a0\u00a0\u00a0\u00a0\u00a0\u00a0\u00a0\u00a0\u00a0\u00a0\u00a0\u00a0\u00a0\u00a0\u00a0\u00a0\u00a0\u00a0\u00a0\u00a0\u00a0\u00a0\u00a0\u00a0\u00a0\u00a0\u00a0\u00a0\u2014never seen again.</p> "}, {"title": "Meeting with My Father in the Orchard", "view_node": "/poem/meeting-my-father-orchard", "field_author": "<a href=\"/poet/homero-aridjis\" hreflang=\"und\">Homero Aridjis</a>", "field_date_published": "2010", "body": "<pre>\nPast noon. Past the cinema \nwith the tall sorrowful walls \non the point of coming down, I enter the orchard. \nShow over, all of them have gone: \nday laborers, dogs and doors. \nMy father is standing in front of a fig tree. \nMy mother has died. The children, grown old. \nHe\u2019s alone, small threads of air \nweave in and out of his tattered clothes. \nFor fear of getting too close and startling him \nwith my living presence, I want to go straight by, \nthe strange one now with white hair whom he asks, \n\u201cWho\u2019s that there?\u201d\n\u201cFather, it\u2019s me, your son.\u201d\n\u201cDoes your mother know you\u2019re back. Will you stay and eat?\u201d \n\u201cFather, for years now your wife has lain at rest \nby your side in the town graveyard.\u201d \nThen, as if he has divined everything, \nhe calls me by my childhood name \nand gives me a fig. \nSo we met up, the living and the dead. \nThen, each went on his way.</pre>\n"}, {"title": "Footprint on Your Heart", "view_node": "/poem/footprint-your-heart", "field_author": "<a href=\"/poet/gary-lenhart\" hreflang=\"und\">Gary Lenhart</a>", "field_date_published": "2010", "body": " <pre>\nSomeone will walk into your life,\nLeave a footprint on your heart,\nTurn it into a mudroom cluttered\nWith encrusted boots, children's mittens,\nScratchy scarves\u2014\nWhere you linger to unwrap \nOr ready yourself for rough exits \nInto howling gales or onto \nFrozen car seats, expulsions\nInto the great outdoors where touch\nIs muffled, noses glisten,\nAnd breaths stab,\nSo that when you meet someone\nWho is leaving your life\nYou will be able to wave stiff\nIcy mitts and look forward\nTo an evening in spring\nWhen you can fold winter away\nUntil your next encounter with\nA chill so numbing you strew\nThe heart's antechamber\nWith layers of rural garble.</pre>\n "}, {"title": "Parting [/Beachfront/]", "view_node": "/poem/parting-beachfront", "field_author": "<a href=\"/poet/thalia-field\" hreflang=\"und\">Thalia Field</a>", "field_date_published": "2010", "body": " <p>sand's infinitely solid, infinitely wide. Not a single grain skips or<br />blows\u2014cemented, glued. The old folks stare, and the sand hardens,<br />absorbing secretions, drying to shell. Waves abuse it and can't make a<br />scratch. Now their seeing's silk, to wear down glass tabletops. The<br />seeing sea's impatient for effect. It beats the beach which was a natural<br />one, has become real property; hard-floor finish. Stop all stupid<br />pounding. Stop before it becomes embarrassing. It's already. The sea's<br />frothing and embarrassing.</p> "}, {"title": "Beyond the Pane", "view_node": "/poem/beyond-pane", "field_author": "<a href=\"/poet/greg-hewett\" hreflang=\"und\">Greg Hewett</a>", "field_date_published": "2010", "body": " <pre>&#13;\nThe frescoed cloister is closed.&#13;\nNo echo of omniscience &#13;\nescapes to wind or metaphor.&#13;\nA cottage holds three bowls, &#13;\nearthen and chipped, on a table &#13;\nmade of planks smoothed by the surf. &#13;\nOne holds buttermilk;&#13;\nanother, tomatoes pale as moons;&#13;\nthe third, eggs the color of sand.&#13;\nOn the sill you would place a globe&#13;\nof ivory roses to echo&#13;\nthe dolphin skull beyond the pane,&#13;\nand think how sonorous, how bold,&#13;\nthis science of solitude.</pre>&#13;\n "}, {"title": "Temper", "view_node": "/poem/temper", "field_author": "<a href=\"/poet/beth-bachmann\" hreflang=\"und\">Beth Bachmann</a>", "field_date_published": "2010", "body": " <pre>\nSome things are damned to erupt like wildfire,\n\nwindblown, like wild lupine, like wings, one after\n\nanother leaving the stone-hole in the greenhouse glass.\n\nPeak bloom, a brood of blue before firebrand.\n\nAnd though it is late in the season, the bathers, also,\n\nobey. One after another, they breathe in and butterfly\n\nthe surface: <i>mimic white, harvester, spot-celled sister</i>,\n\nfed by the spring, the water beneath is cold.</pre>\n "}, {"title": "French Movie", "view_node": "/poem/french-movie", "field_author": "<a href=\"/poet/david-lehman\" hreflang=\"und\">David Lehman</a>", "field_date_published": "2010", "body": " <pre>\nI was in a French movie\nand had only nine hours to live\nand I knew it\nnot because I planned to take my life\nor swallowed a lethal but slow-working\npotion meant for a juror\nin a mob-related murder trial,\nnor did I expect to be assassinated\nlike a chemical engineer mistaken\nfor someone important in Milan\nor a Jew journalist kidnapped in Pakistan;\nno, none of that; no grounds for \nsuspicion, no murderous plots\ncentering on me with cryptic phone\nmessages and clues like a scarf or\nlipstick left in the front seat of a car;\nand yet I knew I would die\nby the end of that day\nand I knew it with a dreadful certainty,\nand when I walked in the street\nand looked in the eyes of the woman\nwalking toward me I knew that\nshe knew it, too,\nand though I had never seen her before,\nI knew she would spend the rest of that day\nwith me, those nine hours walking,\nsearching, going into a bookstore in Rome,\nsmoking a Gitane, and walking,\nwalking in London, taking the train\nto Oxford from Paddington or Cambridge\nfrom Liverpool Street and walking\nalong the river and across the bridges,\nwalking, talking, until my nine hours\nwere up and the black-and-white movie\nended with the single word FIN\nin big white letters on a bare black screen.</pre>\n "}, {"title": "Hamlet, Act IV, Scene IV [How all occasions do inform against me]", "view_node": "/poem/hamlet-act-iv-scene-iv-how-all-occasions-do-inform-against-me", "field_author": "<a href=\"/poet/william-shakespeare\" hreflang=\"und\">William Shakespeare</a>", "field_date_published": "1603", "body": " <pre>\nHow all occasions do inform against me, \nAnd spur my dull revenge! What is a man, \nIf his chief good and market of his time \nBe but to sleep and feed? a beast, no more. \nSure, he that made us with such large discourse, \nLooking before and after, gave us not \nThat capability and god-like reason \nTo fust in us unused. Now, whether it be \nBestial oblivion, or some craven scruple \nOf thinking too precisely on the event, \nA thought which, quarter'd, hath but one part wisdom \nAnd ever three parts coward, I do not know \nWhy yet I live to say 'This thing's to do;' \nSith I have cause and will and strength and means \nTo do't. Examples gross as earth exhort me: \nWitness this army of such mass and charge \nLed by a delicate and tender prince, \nWhose spirit with divine ambition puff'd \nMakes mouths at the invisible event, \nExposing what is mortal and unsure \nTo all that fortune, death and danger dare, \nEven for an egg-shell. Rightly to be great \nIs not to stir without great argument, \nBut greatly to find quarrel in a straw \nWhen honour's at the stake. How stand I then, \nThat have a father kill'd, a mother stain'd, \nExcitements of my reason and my blood, \nAnd let all sleep? while, to my shame, I see \nThe imminent death of twenty thousand men, \nThat, for a fantasy and trick of fame, \nGo to their graves like beds, fight for a plot \nWhereon the numbers cannot try the cause, \nWhich is not tomb enough and continent \nTo hide the slain? O, from this time forth, \nMy thoughts be bloody, or be nothing worth!</pre>\n "}, {"title": "Prayer", "view_node": "/poem/prayer-1", "field_author": "<a href=\"/poet/h-d\" hreflang=\"und\">H. D.</a>", "field_date_published": "1921", "body": " <pre>\nWhite, O white face\u2014\nfrom disenchanted days \nwither alike dark rose \nand fiery bays: \nno gift within our hands,\nnor strength to praise, \nonly defeat and silence; \nthough we lift hands, disenchanted, \nof small strength, nor raise \nbranch of the laurel \nor the light of torch, \nbut fold the garment \non the riven locks, \nyet hear, all-merciful, and touch \nthe fore-head, dim, unlit of pride and thought,\nMistress\u2013be near!\nGive back the glamour to our will, \nthe thought; give back the tool, \nthe chisel; once we wrought \nthings not unworthy, \nsandal and steel-clasp; \nsilver and steel, the coat \nwith white leaf-pattern \nat the arm and throat: \nsilver and metal, hammered for the ridge \nof shield and helmet-rim; \nwhite silver with the darker hammered in, \nbelt, staff and magic spear-shaft \nwith the gilt spark at the point and hilt.</pre>\n "}, {"title": "Before the Deployment", "view_node": "/poem/deployment", "field_author": "<a href=\"/poet/jehanne-dubrow\" hreflang=\"und\">Jehanne Dubrow</a>", "field_date_published": "2010", "body": " <pre>\nHe kisses me before he goes. While I,\nstill dozing, half-asleep, laugh and rub my face\n\nagainst the sueded surface of the sheets,\nthinking it\u2019s him I touch, his skin beneath\n\nmy hands, my body curving in to meet\nhis body there. I never hear him leave.\n\nBut I believe he shuts the bedroom door,\nas though unsure if he should change his mind,\n\npull off his boots, crawl beneath the blankets\nleft behind, his hand a heat against my breast,\n\nour heart rates slowing into rest. Perhaps\nall good-byes should whisper like a piece of silk\u2014\n\nand then the quick surprise of waking, alone\nexcept for the citrus ghost of his cologne.</pre>\n "}, {"title": "Shahid Reads His Own Palm", "view_node": "/poem/shahid-reads-his-own-palm", "field_author": "<a href=\"/poet/reginald-dwayne-betts\" hreflang=\"und\">Reginald Dwayne Betts</a>", "field_date_published": "2010", "body": "<p><span class=\"long-line\">I come from the cracked hands of men who used</span><br /><span class=\"long-line\">\u00a0\u00a0\u00a0\u00a0\u00a0\u00a0\u00a0\u00a0\u00a0\u00a0\u00a0the smoldering ends of blunts to blow shotguns,</span></p>\n\n<p><span class=\"long-line\">men who arranged their lives around the mystery</span><br /><span class=\"long-line\">\u00a0\u00a0\u00a0\u00a0\u00a0\u00a0\u00a0\u00a0\u00a0\u00a0\u00a0of the moon breaking a street corner in half.</span></p>\n\n<p><span class=\"long-line\">I come from \"Swann Road\" written in a child's</span><br /><span class=\"long-line\">\u00a0\u00a0\u00a0\u00a0\u00a0\u00a0\u00a0\u00a0\u00a0\u00a0\u00a0slanted block letters across a playground fence,</span></p>\n\n<p><span class=\"long-line\">the orange globe with black stripes in Bishop's left</span><br /><span class=\"long-line\">\u00a0\u00a0\u00a0\u00a0\u00a0\u00a0\u00a0\u00a0\u00a0\u00a0\u00a0hand, untethered and rolling to the sideline,</span></p>\n\n<p><span class=\"long-line\">a crowd openmouthed, waiting to see the end</span><br /><span class=\"long-line\">\u00a0\u00a0\u00a0\u00a0\u00a0\u00a0\u00a0\u00a0\u00a0\u00a0\u00a0of the sweetest crossover in a Virginia state pen.</span></p>\n\n<p><span class=\"long-line\">I come from Friday night's humid and musty air,</span><br /><span class=\"long-line\">\u00a0\u00a0\u00a0\u00a0\u00a0\u00a0\u00a0\u00a0\u00a0\u00a0\u00a0Junk Yard Band cranking in a stolen Bonneville,</span></p>\n\n<p><span class=\"long-line\">a tilted bottle of Wild Irish Rose against my lips</span><br /><span class=\"long-line\">\u00a0\u00a0\u00a0\u00a0\u00a0\u00a0\u00a0\u00a0\u00a0\u00a0\u00a0and King Hedley's secret written in the lines of my palm.</span></p>\n\n<p><span class=\"long-line\">I come from beneath a cloud of white smoke, a lit pipe</span><br /><span class=\"long-line\">\u00a0\u00a0\u00a0\u00a0\u00a0\u00a0\u00a0\u00a0\u00a0\u00a0\u00a0and the way glass heats rocks into a piece of heaven,</span></p>\n\n<p><span class=\"long-line\">from the weight of nothing in my palm,</span><br /><span class=\"long-line\">\u00a0\u00a0\u00a0\u00a0\u00a0\u00a0\u00a0\u00a0\u00a0\u00a0\u00a0a bullet in an unfired snub-nosed revolver.</span></p>\n\n<p><span class=\"long-line\">And every day the small muscles in my finger threaten to pull</span><br /><span class=\"long-line\">\u00a0\u00a0\u00a0\u00a0\u00a0\u00a0\u00a0\u00a0\u00a0\u00a0\u00a0a trigger, slight and curved like my woman's eyelashes.</span></p>\n"}, {"title": "Robin Hood&#039;s Barn (audio only)", "view_node": "/poem/robin-hoods-barn-audio-only", "field_author": "<a href=\"/poet/john-ashbery\" hreflang=\"und\">John Ashbery</a>", "field_date_published": "2010", "body": " <p>\u00a0</p><p>Click the icon above to listen to this audio poem.</p> "}, {"title": "Early Memory", "view_node": "/poem/early-memory", "field_author": "<a href=\"/poet/january-gill-oneil\" hreflang=\"und\">January Gill O\u2019Neil</a>", "field_date_published": "2010", "body": " <pre>\nI remember picking up a fistful \nof sand, smooth crystals, like hourglass sand \nand throwing it into the eyes of a boy. Johnny\nor Danny or Kevin\u2014<i>he</i> was not important. \nI was five and I knew he would cry.\n\nI remember everything about it\u2014\nthe sandbox in the corner of the room\nat Cinderella Day Care; Ms. Lee,\nwho ran over after the boy wailed for his mother,\nher stern look as the words <i>No snack</i> formed on her lips.\nMy hands with their gritty, half-mooned fingernails \nI hid in the pockets of my blue and white dress.\nHow she found them and uncurled small sandy fists.   \n\nThere must have been such rage in me, to give such pain\nto another person. This afternoon, \nI saw a man pull a gold chain off the neck\nof a woman as she crossed the street. \nShe cried out with a sound that bleached me. \nI walked on, unable to help, \nknowing that fire in childhood\nclenched deep in my pockets all the way home.</pre>\n "}, {"title": "The Heart Breaking", "view_node": "/poem/heart-breaking", "field_author": "<a href=\"/poet/abraham-cowley\" hreflang=\"und\">Abraham Cowley</a>", "field_date_published": "1656", "body": " <pre>\nIt gave a piteous groan, and so it broke;\n      In vain it something would have spoke:\n      The love within too strong for 't was,\nLike poison put into a Venice-glass.\n\nI thought that this some remedy might prove;\n      But oh, the mighty serpent Love,\n      Cut by this chance in pieces small,\nIn all still liv'd, and still it stung in all.\n\nAnd now, alas! each little broken part\n      Feels the whole pain of all my heart;\n      And every smallest corner still\nLives with that torment which the whole did kill.\n\nEven so rude armies, when the field they quit,\n      And into several quarters get;\n      Each troop does spoil and ruin more\nThan all join'd in one body did before.\n\nHow many Loves reign in my bosom now!\n      How many loves, yet all of you!\n      Thus have I chang'd with evil fate\nMy Monarch-love into a Tyrant-state.</pre>\n "}, {"title": "Written in Juice of Lemon", "view_node": "/poem/written-juice-lemon", "field_author": "<a href=\"/poet/abraham-cowley\" hreflang=\"und\">Abraham Cowley</a>", "field_date_published": "1809", "body": " <pre>\nWhilst what I write I do not see,\n      I dare thus, ev'n to you, write poetry.\nAh, foolish Muse! which dost so high aspire,\n      And know'st her judgment well,\n      How much it does thy power excel,\nYet dar'st be read by, thy just doom, the fire.\n\n      Alas! thou think'st thyself secure,\n      Because thy form is innocent and pure:\nLike hypocrites, which seem unspotted here;\n      But, when they sadly come to die,\n      And the last fire their truth must try,\nScrawled o'er like thee, and blotted, they appear.\n\n      Go then, but reverently go,\n      And, since thou needs must sin, confess it too:\nConfess 't, and with humility clothe thy shame;\n      For thou, who else must burned be\n      An heretick, if she pardon thee,\nMayst like a martyr then enjoy the flame.\n\n      But, if her wisdom grow severe,\n      And suffer not her goodness to be there;\nIf her large mercies cruelly it restrain;\n      Be not discourag'd, but require\n      A more gentle ordeal fire,\nAnd bid her by love's flames read it again.\n\n      Strange power of heat! thou yet dost show\n      Like winter-earth, naked, or cloth'd with snow:\nBut as, the quickening sun approaching near,\n      The plants arise up by degrees;\n      A sudden paint adorns the trees,\nAnd all kind Nature's characters appear.\n\n      So, nothing yet in thee is seen;\n      But, when a genial heat warms thee within,\nA new-born wood of various lines there grows;\n      Here buds an A, and there a B,\n      Here sprouts a V, and there a T,\nAnd all the flourishing letters stand in rows.\n\n      Still, silly paper! thou wilt think\n      That all this might as well be writ with ink:\nOh, no; there's sense in this, and mystery\u2014\n      Thou now mayst change thy author's name,\n      And to her hand lay noble claim;\nFor, as she reads, she makes, the words in thee.\n\n      Yet \u2014 if thine own unworthiness\n      Will still that thou art mine, not hers confess\u2014\nConsume thy self with fire before her eyes,\n      And so her grace or pity move:\n      The gods, though beasts they do not love,\nYet like them when they 're burnt in sacrifice.</pre>\n "}, {"title": "The Art of Poetry [excerpt]", "view_node": "/poem/art-poetry-excerpt", "field_author": "<a href=\"/poet/nicolas-boileau-despreaux\" hreflang=\"und\">Nicolas Boileau-Despr\u00e9aux</a>", "field_date_published": "1674", "body": " <pre>\nGently make haste, of Labour not afraid;\nA hundred times consider what you've said:\nPolish, repolish, every Colour lay,\nAnd sometimes add; but oft'ner take away.\n'Tis not enough, when swarming Faults are writ,\nThat here and there are scattered Sparks of Wit;\nEach Object must be fix'd in the due place,\nAnd diff'ring parts have Corresponding Grace:\n'Till, by a curious Art dispos'd, we find\nOne perfect whole, of all the pieces join'd.\nKeep your subject close, in all you say;\nNor for a sounding Sentence ever stray.</pre>\n "}, {"title": "Her Body [The Signature] (audio only)", "view_node": "/poem/her-body-signature-audio-only", "field_author": "<a href=\"/poet/daniel-halpern\" hreflang=\"und\">Daniel Halpern</a>", "field_date_published": "2010", "body": " <p>\u00a0</p><p>Click the icon above to listen to this audio poem.</p> "}, {"title": "How to Eat Alone (audio only)", "view_node": "/poem/how-eat-alone-audio-only", "field_author": "<a href=\"/poet/daniel-halpern\" hreflang=\"und\">Daniel Halpern</a>", "field_date_published": "2010", "body": " <p>\u00a0</p><p>Click the icon above to listen to this audio poem.</p> "}], "pager": {"current_page": 496, "total_items": "13248", "total_pages": 663, "items_per_page": 20}}