{"rows": [{"title": "Double Exposure", "view_node": "/poem/double-exposure", "field_author": "<a href=\"/poet/may-swenson\" hreflang=\"und\">May Swenson</a>", "field_date_published": "2016", "body": " <p>Taking a photo of you taking a photo of me, I see<br />the black snout of the camera framed by hair, where</p><p>your face should be. I see your arms and one hand<br />on the shutter button, the hedge behind you and</p><p>beyond, below, overexposed water and sky wiped white.<br />Some flecks out of focus are supposed to be boats.</p><p>Your back toward what light is left, you\u2019re not<br />recognizable except by those cutoff jeans that I</p><p>gave you by shooting from above, forgetting your<br />legs. So, if I didn\u2019t know, I wouldn\u2019t know who</p><p>you are, you know. I <em>do</em> know who, but you, you know,<br />could be anybody. My mistake. It was because I</p><p>wanted to trip the shutter at the exact moment you<br />did. I did when you did, and you did when I did.</p><p>I can\u2019t wait to see yours of me. It\u2019s got to be<br />even more awful. A face, facing the light, pulled up</p><p>into a squint behind the lens, which must reflect<br />the muggy setting sun. Some sort of fright mask</p><p>or Mardi Gras monster, a big glass Cyclopean eye<br />superimposed on a flattened nose, that print,</p><p>the one you took of me as I took one of you. Who,<br />or what, will it be\u2014will <em>I \u00a0</em>be, I wonder? Can\u2019t wait.</p> "}, {"title": "Blue ", "view_node": "/poem/blue-1", "field_author": "<a href=\"/poet/sidney-wade\" hreflang=\"und\">Sidney Wade</a>", "field_date_published": "2016", "body": " <p>The great blue<br />song of the earth<br />is sung in all<br />the best venues\u2014<br />treetop, marsh,<br />desert, shore\u2014<br />and on this spring<br />day in the wetlands<br />where, under<br />a late sun,<br />we stand alone<br />and in love<br />with each other<br />and the passing day<br />we watch a cormorant<br />whose eye is ringed<br />in blue diamonds,<br />a shimmering lure,<br />and we love this blue<br />and this dark bird<br />and this deepening sky<br />that pinks and hums<br />in the west, and then</p><p>the bird opens his beak<br />and flutters his throat<br />and the late<br />afternoon light<br />illuminates<br />the inside tissue<br />of his mouth<br />which is as blue<br />as his ocular jewelry,<br />as blue as the bluest<br />ocean, as blue<br />as the sky in all<br />its depth, as blue<br />as the back of the small<br />and determined beetle<br />who struggles to roll<br />his enormous dung ball<br />in his own breeding bid<br />to enchant another<br />small blue miracle.<br />\u00a0</p> "}, {"title": "From the Peninsula", "view_node": "/poem/peninsula", "field_author": "<a href=\"/poet/ishion-hutchinson\" hreflang=\"en\">Ishion Hutchinson </a>", "field_date_published": "2016", "body": " <p>The old trees shake out medals at midday<br />to the ship paused for a meteor\u2019s blunting<br />glimpse in the windy yellow of the water,</p><p>partway to inventing another world.<br />Through the window\u2019s tiger slats,<br />the bakery pumps smoke, years between</p><p>her irretrievable shawl, which crimsons<br />what I see, watching further and further,<br />until canisters shatter into nitrate stars,</p><p>late at night, saluting an unforgiving song.<br />I tilt down on her iron bed and cluster<br />haunted basil, the scent rifts morning open<br /><br />to argon of cobwebs, the dim cargo, the bent<br />hills, the black gold, her hands, clasped<br />shut her children, long gone, under the sea.<br />\u00a0</p> "}, {"title": "Their Secret Was", "view_node": "/poem/their-secret-was", "field_author": "", "field_date_published": "", "body": ""}, {"title": "This Union", "view_node": "/poem/union", "field_author": "<a href=\"/poet/hafez\" hreflang=\"und\">Hafez</a>", "field_date_published": "2016", "body": " <p style=\"text-align: center;\">This</p><p style=\"text-align: center;\">Union you want</p><p style=\"text-align: center;\">With the earth and sky,</p><p style=\"text-align: center;\">This union we all need with love,</p><p style=\"text-align: center;\">A golden wing from God\u2019s heart just</p><p style=\"text-align: center;\">Touched the ground,</p><p style=\"text-align: center;\">Now</p><p style=\"text-align: center;\">Step upon it</p><p style=\"text-align: center;\">With your brave sun-vows</p><p style=\"text-align: center;\">And help our eyes</p><p style=\"text-align: center;\">To</p><p style=\"text-align: center;\">Dance!</p> "}, {"title": "A Great Need", "view_node": "/poem/great-need", "field_author": "<a href=\"/poet/hafez\" hreflang=\"und\">Hafez</a>", "field_date_published": "2016", "body": "<p style=\"text-align: center;\"><span class=\"long-line\">Out</span></p>\n\n<p style=\"text-align: center;\"><span class=\"long-line\">Of a great need</span></p>\n\n<p style=\"text-align: center;\"><span class=\"long-line\">We are all holding hands</span></p>\n\n<p style=\"text-align: center;\"><span class=\"long-line\">And climbing.</span></p>\n\n<p style=\"text-align: center;\"><span class=\"long-line\">Not loving is a letting go.</span></p>\n\n<p style=\"text-align: center;\"><span class=\"long-line\">Listen,</span></p>\n\n<p style=\"text-align: center;\"><span class=\"long-line\">The terrain around here</span></p>\n\n<p style=\"text-align: center;\"><span class=\"long-line\">Is</span></p>\n\n<p style=\"text-align: center;\"><span class=\"long-line\">Far too</span></p>\n\n<p style=\"text-align: center;\"><span class=\"long-line\">Dangerous</span></p>\n\n<p style=\"text-align: center;\"><span class=\"long-line\">For</span></p>\n\n<p style=\"text-align: center;\"><span class=\"long-line\">That.</span></p>\n"}, {"title": "Mind-Body Problem ", "view_node": "/poem/mind-body-problem", "field_author": "<a href=\"/poet/wayne-miller\" hreflang=\"und\">Wayne Miller</a>", "field_date_published": "2016", "body": " <p>When I touch your skin and goosebumps lift,<br />it\u2019s your mind that surfaces there.<br />When your iris tightens mechanically<br />around your pupil, that aperture<br />becomes for me the blacked-out<br />cockpit of your mind.<br />\u00a0 \u00a0 \u00a0 \u00a0 \u00a0 \u00a0 \u00a0 \u00a0 \u00a0 \u00a0 \u00a0 \u00a0 \u00a0 \u00a0 \u00a0 \u00a0 \u00a0 \u00a0 \u00a0 \u00a0 It\u2019s your mind<br />that touches your tongue to mine,<br />your mind that, when you\u2019re driving,<br />lowers your hand to my thigh<br />almost mindlessly.<br />\u00a0 \u00a0 \u00a0 \u00a0 \u00a0 \u00a0 \u00a0 \u00a0 \u00a0 \u00a0 \u00a0 \u00a0 \u00a0 \u00a0 \u00a0 \u00a0 \u00a0 Your mind<br />like a pilot light inside your sleep,<br />your mind that beats your heart\u2014<br />slower, then faster\u2014infusion pump<br />in the chest, flooding your mind.</p><p>But your heart is not your mind.<br />The curve of your hip; the soft<br />skin of your wrist is not your mind.<br />The tumor growing in your brain<br />is just your brain, I say.<br />\u00a0 \u00a0 \u00a0 \u00a0 \u00a0 \u00a0 \u00a0 \u00a0 \u00a0 \u00a0 \u00a0 \u00a0 \u00a0 \u00a0 \u00a0 \u00a0 \u00a0 \u00a0 \u00a0 \u00a0 \u00a0The shape<br />of your face; the sound of your voice,<br />which I love so much, is not your mind.<br />Your mind spills through\u2014fire</p><p>I can\u2019t stop watching from the far<br />side of this darkening valley.</p> "}, {"title": "You Can&#039;t Build a Child", "view_node": "/poem/you-cant-build-child", "field_author": "<a href=\"/poet/sandra-simonds\" hreflang=\"und\">Sandra Simonds</a>", "field_date_published": "2012", "body": "<p><span class=\"long-line\">with the medicinal poppies of June</span><br /><span class=\"long-line\">nor with Celan's bloom-fest of dredged stone,</span><br /><span class=\"long-line\">\u00a0\u00a0\u00a0\u00a0\u00a0 not with history's choo-choo train of corpses,</span><br /><span class=\"long-line\">\u00a0\u00a0\u00a0 not with Nottingham's Robin Hood</span><br /><span class=\"long-line\">\u00a0\u00a0\u00a0\u00a0\u00a0\u00a0\u00a0\u00a0\u00a0\u00a0\u00a0 nor Antwerp's Diamondland.</span></p>\n\n<p><span class=\"long-line\">Not walking on the Strand in Manhattan Beach with her</span><br /><span class=\"long-line\">\u00a0\u00a0\u00a0\u00a0\u00a0\u00a0 silicone breast implants, refinery, waves of trash,</span><br /><span class=\"long-line\">\u00a0\u00a0\u00a0\u00a0\u00a0\u00a0\u00a0 not out of the Library of Alexandria</span><br /><span class=\"long-line\">\u00a0\u00a0\u00a0\u00a0\u00a0\u00a0\u00a0\u00a0\u00a0\u00a0\u00a0 with her burnt gardens that prefigure gnarly,</span><br /><span class=\"long-line\">\u00a0\u00a0\u00a0\u00a0\u00a0\u00a0\u00a0 barnacle-laden surfboards broken in half.</span></p>\n\n<p><span class=\"long-line\">You can't build the child with the stone paths</span><br /><span class=\"long-line\">\u00a0\u00a0\u00a0\u00a0\u00a0\u00a0\u00a0 that we have walked on through the atmosphere,</span><br /><span class=\"long-line\">\u00a0\u00a0\u00a0\u00a0\u00a0\u00a0\u00a0\u00a0\u00a0\u00a0\u00a0 the pirate's plank, the diving board, the plunge,</span><br /><span class=\"long-line\">\u00a0\u00a0\u00a0\u00a0\u00a0\u00a0\u00a0\u00a0\u00a0 nor with the moon whether</span><br /><span class=\"long-line\">\u00a0\u00a0\u00a0\u00a0\u00a0\u00a0\u00a0\u00a0\u00a0\u00a0\u00a0\u00a0\u00a0\u00a0\u00a0 she be zombie or vampire.</span><br /><span class=\"long-line\">\u00a0\u00a0\u00a0\u00a0\u00a0\u00a0\u00a0 Not with Delphi, not with fangs, or cardamom bought</span><br /><span class=\"long-line\">\u00a0\u00a0\u00a0\u00a0\u00a0\u00a0\u00a0\u00a0\u00a0\u00a0\u00a0\u00a0\u00a0\u00a0\u00a0 in Fez, red with spring, red with</span><br /><span class=\"long-line\">\u00a0\u00a0\u00a0\u00a0\u00a0\u00a0\u00a0\u00a0\u00a0\u00a0\u00a0\u00a0\u00a0\u00a0\u00a0\u00a0\u00a0\u00a0\u00a0 marathon running cheeks.</span></p>\n\n<p><span class=\"long-line\">\u00a0\u00a0\u00a0\u00a0\u00a0\u00a0\u00a0\u00a0\u00a0\u00a0\u00a0 Not with monk chant, bomb chant,</span><br /><span class=\"long-line\">\u00a0\u00a0\u00a0\u00a0\u00a0\u00a0\u00a0 war paint, not with the gigantic Zen pleasure zones,</span><br /><span class=\"long-line\">\u00a0\u00a0\u00a0\u00a0\u00a0\u00a0\u00a0\u00a0\u00a0\u00a0\u00a0\u00a0\u00a0\u00a0\u00a0 nor with this harnessed pig</span><br /><span class=\"long-line\">\u00a0\u00a0\u00a0\u00a0\u00a0\u00a0\u00a0 on the carousel that I am sitting on with my son</span><br /><span class=\"long-line\">\u00a0\u00a0\u00a0\u00a0\u00a0\u00a0\u00a0\u00a0\u00a0\u00a0\u00a0\u00a0\u00a0\u00a0\u00a0 in Nice, France. How it burns on its axis</span><br /><span class=\"long-line\">\u00a0\u00a0\u00a0\u00a0\u00a0\u00a0\u00a0\u00a0\u00a0\u00a0\u00a0 as if it were turning into pineapple-colored kerosene</span><br /><span class=\"long-line\">\u00a0\u00a0\u00a0\u00a0\u00a0\u00a0\u00a0 the way the Hawaiian pig, apple in snout, roasts</span><br /><span class=\"long-line\">\u00a0\u00a0\u00a0\u00a0\u00a0\u00a0\u00a0\u00a0\u00a0\u00a0 in its own tropical meat under the countdown sun.</span></p>\n"}, {"title": "Christmas Eve: My Mother Dressing", "view_node": "/poem/christmas-eve-my-mother-dressing", "field_author": "<a href=\"/poet/toi-derricotte\" hreflang=\"und\">Toi Derricotte</a>", "field_date_published": "2012", "body": " <p>My mother was not impressed with her beauty;<br />once a year she put it on like a costume,<br />plaited her black hair, slick as cornsilk, down past her hips,\u00a0\u00a0<br />in one rope-thick braid, turned it, carefully, hand over hand,\u00a0\u00a0<br />and fixed it at the nape of her neck, stiff and elegant as a crown,\u00a0\u00a0<br />with tortoise pins, like huge insects,<br />some belonging to her dead mother,<br />some to my living grandmother.<br />Sitting on the stool at the mirror,<br />she applied a peachy foundation that seemed to hold her down, to trap her,<br />as if we never would have noticed what flew among us<br />unless it was weighted and bound in its mask.<br />Vaseline shined her eyebrows,<br />mascara blackened her lashes until they swept down like feathers;<br />her eyes deepened until they shone from far away.</p><p>Now I remember her hands, her poor hands, which, even<br />then were old from scrubbing, whiter on the inside than they should have been,<br />and hard, the first joints of her fingers, little fattened pads,<br />the nails filed to sharp points like old-fashioned ink pens, painted a jolly color.<br />Her hands stood next to her face and wanted to be put away, prayed<br />for the scrub bucket and brush to make them useful.<br />And, as I write, I forget the years I watched her<br />pull hairs like a witch from her chin, magnify<br />every blotch\u2014as if acid were thrown from the inside.\u00a0</p><p>But once a year my mother<br />rose in her white silk slip,<br />not the slave of the house, the woman,<br />took the ironed dress from the hanger\u2014<br />allowing me to stand on the bed, so that<br />my face looked directly into her face,<br />and hold the garment away from her<br />as she pulled it down.</p> "}, {"title": "I Hid My Love", "view_node": "/poem/i-hid-my-love", "field_author": "<a href=\"/poet/john-clare\" hreflang=\"und\">John Clare</a>", "field_date_published": "2016", "body": " <p>I hid my love when young till I<br />Couldn\u2019t bear the buzzing of a fly;<br />I hid my love to my despite<br />Till I could not bear to look at light:<br />I dare not gaze upon her face<br />But left her memory in each place;<br />Where\u2019er I saw a wild flower lie<br />I kissed and bade my love good-bye.</p><p>I met her in the greenest dells,<br />Where dewdrops pearl the wood bluebells;<br />The lost breeze kissed her bright blue eye,<br />The bee kissed and went singing by,<br />A sunbeam found a passage there,<br />A gold chain round her neck so fair;<br />As secret as the wild bee\u2019s song<br />She lay there all the summer long.</p><p>I hid my love in field and town<br />Till e\u2019en the breeze would knock me down;<br />The bees seemed singing ballads o\u2019er,<br />The fly\u2019s bass turned a lion\u2019s roar;<br />And even silence found a tongue,<br />To haunt me all the summer long;<br />The riddle nature could not prove<br />Was nothing else but secret love.</p> "}, {"title": "My Mother&#039;s Name Lucha", "view_node": "/poem/my-mothers-name-lucha", "field_author": "<a href=\"/poet/juan-felipe-herrera\" hreflang=\"und\">Juan Felipe Herrera</a>", "field_date_published": "2012", "body": "<p><span class=\"long-line\">your hands my hands</span></p>\n\n<p><span class=\"long-line\">kindnesses\u00a0\u00a0 dances\u00a0\u00a0 silences\u00a0 sitting\u00a0\u00a0\u00a0\u00a0\u00a0 you\u00a0 i</span></p>\n\n<p><span class=\"long-line\">\u00a0\u00a0\u00a0\u00a0\u00a0\u00a0\u00a0\u00a0\u00a0\u00a0\u00a0\u00a0\u00a0\u00a0\u00a0 El\u00a0 Paso\u00a0\u00a0 Texas\u00a0\u00a0 Segundo\u00a0 Barrio</span></p>\n\n<p><span class=\"long-line\">Juarez\u00a0\u00a0 1918\u00a0\u00a0\u00a0\u00a0\u00a0\u00a0\u00a0\u00a0\u00a0\u00a0 1936\u00a0 in\u00a0 gypsy\u00a0\u00a0\u00a0\u00a0 dress\u00a0 actress</span></p>\n\n<p><span class=\"long-line\">you sing\u00a0\u00a0\u00a0\u00a0\u00a0\u00a0\u00a0 i sing we sing\u00a0\u00a0\u00a0\u00a0\u00a0\u00a0\u00a0 lullabies of old</span></p>\n\n<p><span class=\"long-line\">this\u00a0\u00a0\u00a0\u00a0 now lines now\u00a0\u00a0\u00a0\u00a0 my birth</span></p>\n\n<p><span class=\"long-line\">heart now life</span></p>\n\n<p><span class=\"long-line\">\u00a0\u00a0\u00a0\u00a0\u00a0\u00a0\u00a0\u00a0\u00a0\u00a0\u00a0\u00a0\u00a0\u00a0\u00a0\u00a0\u00a0\u00a0\u00a0\u00a0\u00a0\u00a0\u00a0\u00a0\u00a0\u00a0\u00a0\u00a0\u00a0\u00a0\u00a0\u00a0\u00a0\u00a0\u00a0\u00a0\u00a0\u00a0\u00a0\u00a0\u00a0\u00a0\u00a0\u00a0\u00a0\u00a0\u00a0\u00a0\u00a0\u00a0\u00a0\u00a0 all life\u00a0\u00a0\u00a0\u00a0\u00a0\u00a0 now</span></p>\n\n<p><span class=\"long-line\">\u00a0\u00a0\u00a0\u00a0\u00a0\u00a0\u00a0\u00a0\u00a0\u00a0\u00a0\u00a0\u00a0\u00a0\u00a0\u00a0\u00a0\u00a0\u00a0\u00a0\u00a0\u00a0\u00a0\u00a0\u00a0\u00a0\u00a0\u00a0\u00a0 i\u00a0\u00a0\u00a0 bow\u00a0\u00a0\u00a0\u00a0\u00a0\u00a0\u00a0\u00a0\u00a0\u00a0\u00a0\u00a0\u00a0\u00a0\u00a0 \u00a0 \u00a0\u00a0\u00a0\u00a0\u00a0\u00a0\u00a0 to you</span></p>\n"}, {"title": "Wonder as Wander", "view_node": "/poem/wonder-wander", "field_author": "<a href=\"/poet/sharon-olds\" hreflang=\"und\">Sharon Olds</a>", "field_date_published": "2012", "body": " <p>At dusk, on those evenings she does not go out,<br />my mother potters around her house.<br />Her daily helpers are gone, there is no one<br />there, no one to tell what to do,<br />she wanders, sometimes she talks to herself,<br />fondly scolding, sometimes she suddenly<br />throws out her arms and screams\u2014high notes<br />lying here and there on the carpets<br />like bodies touched by a downed wire,<br />she journeys, she quests, she marco-polos through<br />the gilded gleamy loot-rooms, who is she.<br />I feel, now, that I do not know her,<br />and for all my staring, I have not seen her<br />\u2014like the song she sang, when we were small,<br />I wonder as I wander, out under the sky,<br />how Jesus, the Savior, was born for, to die,<br />for poor lonely people, like you, and like I<br />\u2014on the slow evenings alone, when she delays<br />and delays her supper, walking the familiar<br />halls past the mirrors and night windows,<br />I wonder if my mother is tasting a life<br />beyond this life\u2014not heaven, her late<br />beloved is absent, her father absent,<br />and her staff is absent, maybe this is earth<br />alone, as she had not experienced it,<br />as if she is one of the poor lonely people,<br />as if she is born to die. I hold fast<br />to the thought of her, wandering in her house,<br />a luna moth in a chambered cage.<br />Fifty years ago, I'd squat in her<br />garden, with her Red Queens, and try<br />to sense the flyways of the fairies as they kept<br />the pollen flowing on its local paths,<br />and our breaths on their course of puffs\u2014they kept<br />our eyes wide with seeing what we<br />could see, and not seeing what we could not see</p> "}, {"title": "My Father\u2019s Breed", "view_node": "/poem/my-fathers-breed", "field_author": "<a href=\"/poet/valzhyna-mort\" hreflang=\"und\">Valzhyna Mort</a>", "field_date_published": "2012", "body": "<p><span class=\"long-line\">It\u2019s four in the morning.</span><br /><span class=\"long-line\">I\u2019m ten years old.</span><br /><span class=\"long-line\">I\u2019m beating my mother between the mirror and the shoe rack.</span><br /><span class=\"long-line\">The front door is ajar. A bridge</span><br /><span class=\"long-line\">presses its finger to the frozen strip of water.</span><br /><span class=\"long-line\">Snow falls over it gritting like sand on glass.</span><br /><span class=\"long-line\">Both of us in our long nightgowns.</span></p>\n\n<p><span class=\"long-line\">I stare into her earring hole and aim</span><br /><span class=\"long-line\">at her large breasts not to hurt my knuckles.</span><br /><span class=\"long-line\">I slap her face like I flip through channels.</span></p>\n\n<p><span class=\"long-line\">My father lies at the door. From his shirt</span><br /><span class=\"long-line\">lipstick smiles at me with the warmth of urine.</span><br /><span class=\"long-line\">It\u2019s as if somebody threw at him slices</span><br /><span class=\"long-line\">of skinned grapefruit.</span><br /><span class=\"long-line\">Every time she hits him\u2014I hit her.</span><br /><span class=\"long-line\"><em>Look at this. Look whom you\u2019ve bred.</em></span></p>\n\n<p><span class=\"long-line\">How can he see from under his pink vomit.</span><br /><span class=\"long-line\">But his body smiles\u2014</span><br /><span class=\"long-line\">cannot stop smiling.</span></p>\n"}, {"title": "Secrets", "view_node": "/poem/secrets", "field_author": "<a href=\"/poet/jim-moore\" hreflang=\"und\">Jim Moore</a>", "field_date_published": "2012", "body": " <p><em>for my mother on her birthday</em></p><p>\u00a0 \u00a0 \u00a0Somewhere at this very moment someone is eating peanut butter right out of the jar! He is alone and the television is off. His mother has no idea what he is doing. It is his secret. Very far away a dog barks, a horn honks. The day his grandmother died he had a crazy desire to laugh and yet he was very sad. You don\u2019t tell your mother your secrets for fear she won\u2019t love you.</p><div>\u00a0</div> "}, {"title": "For My Mother", "view_node": "/poem/my-mother-2", "field_author": "<a href=\"/poet/may-sarton\" hreflang=\"und\">May Sarton</a>", "field_date_published": "2016", "body": " <p>Once more<br />I summon you<br />Out of the past<br />With poignant love,<br />You who nourished the poet<br />And the lover.<br />I see your gray eyes<br />Looking out to sea<br />In those Rockport summers,<br />Keeping a distance<br />Within the closeness<br />Which was never intrusive<br />Opening out<br />Into the world.<br />And what I remember<br />Is how we laughed<br />Till we cried<br />Swept into merriment<br />Especially when times were hard.<br />And what I remember<br />Is how you never stopped creating<br />And how people sent me<br />Dresses you had designed<br />With rich embroidery<br />In brilliant colors<br />Because they could not bear<br />To give them away<br />Or cast them aside.<br />I summon you now<br />Not to think of<br />The ceaseless battle<br />With pain and ill health,<br />The frailty and the anguish.<br />No, today I remember<br />The creator,<br />The lion-hearted.</p> "}, {"title": "Mercy", "view_node": "/poem/mercy", "field_author": "<a href=\"/poet/tyehimba-jess\" hreflang=\"und\">Tyehimba Jess</a>", "field_date_published": "2016", "body": " <p>the war speaks at night<br />with its lips of shredded children,<br />with its brow of plastique<br />and its fighter jet breath,<br />and then it speaks at daybreak<br />with the soft slur of money<br />unfolding leaf upon leaf.<br />it speaks between the news<br />programs in the music<br />of commercials, then sings<br />in the voices of a national anthem.<br />it has a dirty coin jingle in its step,<br />it has a hand of many lost hands,<br />a palm of missing fingers,<br />the stump of an arm that it lost<br />reaching up to heaven, a foot<br />that digs a trench for its dead.<br />the war staggers forward,<br />compelled, inexorable, ticking.<br />it looks to me<br />with its one eye of napalm<br />and one eye of ice,<br />with its hair of fire<br />and its nuclear heart,<br />and yes, it is so human<br />and so pitiful as it stands there,<br />waiting for my hand.<br />it wants to know my answer.<br />it wants to know how i intend<br />to show it out of its misery,<br />and i only want it<br />to teach me how to kill.</p> "}, {"title": "Charlie Howard\u2019s Descent", "view_node": "/poem/charlie-howards-descent", "field_author": "<a href=\"/poet/mark-doty\" hreflang=\"und\">Mark Doty</a>", "field_date_published": "2016", "body": " <p>Between the bridge and the river<br />he falls through<br />a huge portion of night;<br />it is not as if falling</p><p>is something new. Over and over<br />he slipped into the gulf<br />between what he knew and how<br />he was known. What others wanted</p><p>opened like an abyss: the laughing<br />stock-clerks at the grocery, women<br />at the luncheonette amused by his gestures.<br />What could he do, live</p><p>with one hand tied<br />behind his back? So he began to fall<br />into the star-faced section<br />of night between the trestle</p><p>and the water because he could not meet<br />a little town's demands,<br />and his earrings shone and his wrists<br />were as limp as they were.</p><p>I imagine he took the insults in<br />and made of them a place to live;<br />we learn to use the names<br />because they are there,</p><p>familiar furniture: faggot<br />was the bed he slept in, hard<br />and white, but simple somehow,<br />queer something sharp</p><p>but finally useful, a tool,<br />all the jokes a chair,<br />stiff-backed to keep the spine straight,<br />a table, a lamp. And because</p><p>he's fallen for twenty-three years,<br />despite whatever awkwardness<br />his flailing arms and legs assume<br />he is beautiful</p><p>and like any good diver<br />has only an edge of fear<br />he transforms into grace.<br />Or else he is not afraid,</p><p>and in this way climbs back<br />up the ladder of his fall,<br />out of the river into the arms<br />of the three teenage boys</p><p>who hurled him from the edge -<br />really boys now, afraid,<br />their fathers' cars shivering behind them,<br />headlights on - and tells them</p><p>it's all right, that he knows<br />they didn't believe him<br />when he said he couldn't swim,<br />and blesses his killers</p><p>in the way that only the dead<br />can afford to forgive.</p> "}, {"title": "The Hours Fly Quick", "view_node": "/poem/hours-fly-quick", "field_author": "<a href=\"/poet/quincy-troupe\" hreflang=\"und\">Quincy Troupe</a>", "field_date_published": "2016", "body": " <p>the hours fly quick on wings of clipped winds<br />like nonsense blown from mouths of hot air\u2014<br />people\u2014including my own\u2014form syllables, suds,<br />words shot through pursed lips like greased sleaze<br />&amp; bloom inside all these rooms dominated by television\u2019s<br />babble sluicing idiot images invented in modern test tubes\u2014<br />clones\u2014blinking, slathering all over controlled airwaves<br />of an up-for-sale world, blinking a paucity of spirit,<br />so dance you leering ventriloquists, marionettes,<br />you greedy counterfeits, dance, dance, dance</p> "}, {"title": "The World We Want Is Us", "view_node": "/poem/world-we-want-us", "field_author": "<a href=\"/poet/alice-walker\" hreflang=\"und\">Alice Walker</a>", "field_date_published": "2016", "body": " <p>It moves my heart to see your awakened faces;<br />the look of \"aha!\"<br />shining, finally, in<br />so many<br />wide open eyes.<br />Yes, we are the 99%<br />all of us<br />refusing to forget<br />each other<br />no matter, in our hunger, what crumbs<br />are dropped by<br />the 1%.<br />The world we want is on the way; Arundhati<br />and now we<br />are<br />hearing her breathing.<br />That world we want is Us;\u00a0<em>united;</em>\u00a0already moving<br />into it.</p> "}, {"title": "True Peace", "view_node": "/poem/true-peace", "field_author": "<a href=\"/poet/sam-hamill\" hreflang=\"und\">Sam Hamill</a>", "field_date_published": "2016", "body": " <p>Half broken on that smoky night,<br />hunched over sake in a serviceman's dive<br />somewhere in Naha, Okinawa,<br />nearly fifty years ago,<br /><br />I read of the Saigon Buddhist monks<br />who stopped the traffic on a downtown<br />thoroughfare<br />so their master, Thich Quang D\u00fac, could take up<br />the lotus posture in the middle of the street.<br />And they baptized him there with gas<br />and kerosene, and he struck a match<br />and burst into flame.<br /><br />That was June, nineteen-sixty-three,<br />and I was twenty, a U.S. Marine.<br /><br />The master did not move, did not squirm,<br />he did not scream<br />in pain as his body was consumed.<br /><br />Neither child nor yet a man,<br />I wondered to my Okinawan friend,<br />what can it possibly mean<br />to make such a sacrifice, to give one's life<br />with such horror, but with dignity and conviction.<br />How can any man endure such pain<br />and never cry and never blink.<br /><br />And my friend said simply, \"Thich Quang D\u00fac<br />had achieved true peace.\"<br /><br />And I knew that night true peace<br />for me would never come.<br />Not for me, Nirvana. This suffering world<br />is mine, mine to suffer in its grief.<br /><br />Half a century later, I think<br />of B\u00f4 T\u00e1t Thich Quang D\u00fac,<br />revered as a bodhisattva now\u2014his lifetime<br />building temples, teaching peace,<br />and of his death and the statement that it made.<br /><br />Like Shelley's, his heart refused to burn,<br />even when they burned his ashes once again<br />in the crematorium\u2014his generous heart<br />turned magically to stone.<br /><br />What is true peace, I cannot know.<br />A hundred wars have come and gone<br />as I've grown old. I bear their burdens in my bones.<br />Mine's the heart that burns<br />today, mine the thirst, the hunger in the soul.<br /><br />Old master, old teacher,<br />what is it that I've learned?</p> "}], "pager": {"current_page": 342, "total_items": "13248", "total_pages": 663, "items_per_page": 20}}