{"rows": [{"title": "Summons (audio only)", "view_node": "/poem/summons-audio-only", "field_author": "<a href=\"/poet/joan-larkin\" hreflang=\"und\">Joan Larkin</a>", "field_date_published": "2011", "body": " <p>\u00a0</p><p>Click the icon above to listen to this audio poem.</p> "}, {"title": "Photo (audio only)", "view_node": "/poem/photo-audio-only", "field_author": "<a href=\"/poet/joan-larkin\" hreflang=\"und\">Joan Larkin</a>", "field_date_published": "2011", "body": " <p>\u00a0</p><p>Click the icon above to listen to this audio poem.</p> "}, {"title": "Knot (audio only)", "view_node": "/poem/knot-audio-only", "field_author": "<a href=\"/poet/joan-larkin\" hreflang=\"und\">Joan Larkin</a>", "field_date_published": "2011", "body": " <p>\u00a0</p><p>Click the icon above to listen to this audio poem.</p> "}, {"title": "Eye of Newt (audio only)", "view_node": "/poem/eye-newt-audio-only", "field_author": "<a href=\"/poet/joan-larkin\" hreflang=\"und\">Joan Larkin</a>", "field_date_published": "2011", "body": " <p>\u00a0</p><p>Click the icon above to listen to this audio poem.</p> "}, {"title": "Cutleaf Beech (audio only)", "view_node": "/poem/cutleaf-beech-audio-only", "field_author": "<a href=\"/poet/joan-larkin\" hreflang=\"und\">Joan Larkin</a>", "field_date_published": "2011", "body": " <p>\u00a0</p><p>Click the icon above to listen to this audio poem.</p> "}, {"title": "Artemisia (audio only)", "view_node": "/poem/artemisia-audio-only", "field_author": "<a href=\"/poet/joan-larkin\" hreflang=\"und\">Joan Larkin</a>", "field_date_published": "2011", "body": " <p>\u00a0</p><p>Click the icon above to listen to this audio poem.</p> "}, {"title": "Legend of the Snow (audio only)", "view_node": "/poem/legend-snow-audio-only", "field_author": "<a href=\"/poet/jeffrey-angles\" hreflang=\"und\">Jeffrey Angles</a>", "field_date_published": "2011", "body": "<p>\u00a0</p>\n\n<p>Click the icon above to listen to this audio poem.</p>\n"}, {"title": "After Half a Century (audio only)", "view_node": "/poem/after-half-century-audio-only", "field_author": "<a href=\"/poet/jeffrey-angles\" hreflang=\"und\">Jeffrey Angles</a>", "field_date_published": "2011", "body": "<p>Click the icon above to listen to this audio poem.</p>\n"}, {"title": "Visiting Auschwitz (audio only)", "view_node": "/poem/visiting-auschwitz-audio-only", "field_author": "<a href=\"/poet/elana-bell\" hreflang=\"und\">Elana Bell</a>", "field_date_published": "2011", "body": " <p>\u00a0</p><p>Click the icon above to listen to this audio poem.</p> "}, {"title": "On a Hilltop at the Nassar Farm (audio only)", "view_node": "/poem/hilltop-nassar-farm-audio-only", "field_author": "<a href=\"/poet/elana-bell\" hreflang=\"und\">Elana Bell</a>", "field_date_published": "2011", "body": " <p>\u00a0</p><p>Click the icon above to listen to this audio poem.</p> "}, {"title": "Poetry Is (audio only)", "view_node": "/poem/poetry-audio-only", "field_author": "<a href=\"/poet/dominic-siracusa\" hreflang=\"und\">Dominic Siracusa</a>", "field_date_published": "2011", "body": " <p>\u00a0</p><p>Click the icon above to listen to this audio poem.</p><p>\u00a0</p><p>\u00a0</p> "}, {"title": "Never", "view_node": "/poem/never", "field_author": "<a href=\"/poet/chase-twichell\" hreflang=\"und\">Chase Twichell</a>", "field_date_published": "2014", "body": " <p>The clouds\u2019 disintegrating script<br />spells out the word <em>squander</em>.</p><p>Tree shadows lie down in the field.<br />Clipped to a grass blade\u2019s underside,</p><p>a crisp green grasshopper<br />weighs down the tip,</p><p>swaying between birth and death.<br />I\u2019ll think of him as we clink</p><p>glasses with the guests,<br />eating olives as the sun goes down.</p> "}, {"title": "from One With Others", "view_node": "/poem/one-others", "field_author": "<a href=\"/poet/c-d-wright\" hreflang=\"und\">C. D. Wright</a>", "field_date_published": "2011", "body": " <p>\u00a0\u00a0\u00a0\u00a0 People study the dingy chenille clouds for a sign.</p><p>\u00a0</p><p>\u00a0\u00a0\u00a0\u00a0 People did what they have done.</p><p>\u00a0</p><p>\u00a0\u00a0\u00a0\u00a0 A town, a time, and a woman who lived there.</p><p>\u00a0</p><p>\u00a0\u00a0\u00a0\u00a0 And left undone what they ought not to have did.</p><p>\u00a0</p><p style=\"text-align: center;\">\u00a0\u00a0\u00a0\u00a0\u00a0\u00a0\u00a0\u00a0\u00a0 +++</p><p>\u00a0</p><p>\u00a0\u00a0\u00a0\u00a0 I take one more drive across town thinking about the retired welding teacher easing over that rise seeing the parking lot full of white men. I wonder if he thought he would die in the jungle [where no Vietcong ever called him [N-word]\u00a0 ] or he would die in front of the bowling alley [without ever having been inside] or die in the swimming pool [without ever having been in it, except when drained, and the police had him in their sights]. Or if, because he was a young man, he would never die. I attach V to my driving-around thoughts.</p><p>\u00a0</p><p>\u00a0\u00a0\u00a0\u00a0 An object unworthy of love she thought she was.</p><p>\u00a0</p><p>\u00a0\u00a0\u00a0\u00a0 It was a <em>cri de coeur</em>.</p><p>\u00a0</p><p>\u00a0\u00a0\u00a0\u00a0 Those of our get had given her a <em>nom de guerre</em>: V.</p><p>\u00a0</p><p>\u00a0\u00a0\u00a0\u00a0 A simple act, to join a march against fear</p><p>\u00a0\u00a0\u00a0\u00a0 down an old military road.</p><p>\u00a0</p><p>\u00a0\u00a0\u00a0\u00a0 We were watching an old movie the night</p><p>\u00a0</p><p>\u00a0\u00a0\u00a0\u00a0 the table started walking toward us</p><p>\u00a0</p><p>\u00a0\u00a0\u00a0\u00a0 and there was trouble on Division.</p><p>\u00a0</p><p>\u00a0\u00a0\u00a0\u00a0 She became a disaffiliated member [of her race].</p><p>\u00a0</p><p>\u00a0\u00a0\u00a0\u00a0 I'm one of them now, she said, upon release</p><p>\u00a0</p><p>\u00a0\u00a0\u00a0\u00a0 from jail. I am an invader.</p><p>\u00a0</p><p>\u00a0</p><p>\u00a0</p><p>\u00a0\u00a0\u00a0\u00a0 Look into the dark heart and you will see what the dark eats other than your heart.</p><p>\u00a0</p><p>\u00a0\u00a0\u00a0\u00a0 The world is not ineluctably finished</p><p>\u00a0</p><p>\u00a0\u00a0\u00a0\u00a0 though the watchfires have been doused</p><p>\u00a0</p><p>\u00a0\u00a0\u00a0\u00a0 more walls have come down</p><p>\u00a0</p><p>\u00a0\u00a0\u00a0\u00a0 more walls are being built</p><p>\u00a0</p><p>\u00a0\u00a0\u00a0\u00a0 Sound of the future, uncanny how close</p><p>\u00a0</p><p>\u00a0\u00a0\u00a0\u00a0 to the sound of the old</p><p>\u00a0</p><p>\u00a0\u00a0\u00a0\u00a0 At Daddy's Eyes</p><p>\u00a0</p><p>\u00a0\u00a0\u00a0\u00a0 \"Pusherman\" still on the jukebox</p><p>\u00a0</p><p>\u00a0\u00a0\u00a0\u00a0 Everybody's past redacted</p><p style=\"text-align: center;\">\u00a0</p><p style=\"text-align: center;\">+++</p><p>\u00a0</p><p>\u00a0\u00a0\u00a0\u00a0\u00a0\u00a0\u00a0\u00a0\u00a0\u00a0\u00a0\u00a0\u00a0\u00a0\u00a0\u00a0\u00a0\u00a0\u00a0\u00a0\u00a0\u00a0\u00a0\u00a0\u00a0\u00a0\u00a0\u00a0\u00a0\u00a0\u00a0\u00a0\u00a0\u00a0\u00a0\u00a0\u00a0\u00a0\u00a0\u00a0\u00a0\u00a0\u00a0\u00a0\u00a0\u00a0\u00a0\u00a0\u00a0\u00a0\u00a0\u00a0\u00a0\u00a0\u00a0\u00a0\u00a0\u00a0\u00a0\u00a0\u00a0\u00a0\u00a0\u00a0\u00a0\u00a0\u00a0\u00a0\u00a0\u00a0\u00a0\u00a0\u00a0\u00a0\u00a0\u00a0\u00a0\u00a0\u00a0\u00a0\u00a0\u00a0 For me</p><p>\u00a0</p><p>\u00a0\u00a0\u00a0\u00a0 it has always been a series of doors:</p><p>\u00a0</p><p>\u00a0\u00a0\u00a0\u00a0 if one is opened precipitously a figure is caught bolting from bed</p><p>\u00a0</p><p>\u00a0\u00a0\u00a0\u00a0 if another, a small table, a list of demands on school paper</p><p>\u00a0</p><p>\u00a0\u00a0\u00a0\u00a0 if another, a child on the linoleum, saying she wants a white doll</p><p>\u00a0</p><p>\u00a0\u00a0\u00a0\u00a0 a woman sitting on a bed, holding a folded flag</p><p>\u00a0</p><p>\u00a0\u00a0\u00a0\u00a0 a shelf of trophies behind her head</p><p>\u00a0</p><p>\u00a0\u00a0\u00a0\u00a0 an ironing board, bottle of bourbon on the end</p><p>\u00a0</p><p>\u00a0\u00a0\u00a0\u00a0 sewing machine on a porch</p><p>\u00a0</p><p>\u00a0\u00a0\u00a0\u00a0 To walk down the road without fear</p><p>\u00a0</p><p>\u00a0\u00a0\u00a0\u00a0 To sit in a booth and order a sweet soft drink</p><p>\u00a0</p><p>\u00a0\u00a0\u00a0\u00a0 To work at the front desk</p><p>\u00a0</p><p>\u00a0\u00a0\u00a0\u00a0 To be referred to as Gentleman</p><p>\u00a0</p><p>\u00a0\u00a0\u00a0\u00a0 To swim in the pool</p><p>\u00a0</p><p>\u00a0\u00a0\u00a0\u00a0 To sit in the front row and watch <em>Run Wild, Run Free </em>[next week: <em>Death of a Gunfighter</em>]</p><p>\u00a0</p><p>\u00a0\u00a0\u00a0\u00a0 To make your way to the end of the day with both eyes in your head</p><p>\u00a0</p><p>\u00a0\u00a0\u00a0\u00a0 Nothing is not integral</p><p>\u00a0</p><p>\u00a0\u00a0\u00a0\u00a0 You want to illumine what you see</p><p>\u00a0</p><p>\u00a0\u00a0\u00a0\u00a0 Fear reflected off an upturned face</p><p>\u00a0</p><p>\u00a0\u00a0\u00a0\u00a0 Those walnuts turning black in the grass</p><p>\u00a0</p><p>\u00a0\u00a0\u00a0\u00a0 It is a relatively stable world</p><p>\u00a0</p><p>\u00a0\u00a0\u00a0\u00a0 Gentle Reader</p><p>\u00a0</p><p>\u00a0\u00a0\u00a0\u00a0 But beyond that door</p><p>\u00a0</p><p>\u00a0\u00a0\u00a0\u00a0 It defies description</p> "}, {"title": "from In Search of Wealth (audio only)", "view_node": "/poem/search-wealth-audio-only", "field_author": "<a href=\"/poet/anna-moschovakis\" hreflang=\"und\">Anna Moschovakis</a>", "field_date_published": "2011", "body": " <p>\u00a0</p><p>Click the icon above to listen to this audio poem.</p> "}, {"title": "from &quot;3 Bewildered Landscapes\u201d", "view_node": "/poem/3-bewildered-landscapes", "field_author": "<a href=\"/poet/joanna-klink\" hreflang=\"und\">Joanna Klink</a>", "field_date_published": "2014", "body": " <p><br />STARS, SCATTERSTILL. Constellations of people and quiet.\u00a0<br /><br />Those nights when nothing catches, nothing also is artless.\u00a0<br /><br />I walked for hours in those forests, my legs a canvas of scratches,<br /><br />trading on the old hopes\u2014<em>we were meant to be lost</em>. But being lost<br /><br />means not knowing what it means. Inside the meadow is the grass,<br /><br />rich with darkness. Inside the grass is the wish to be rooted, inside the rain<br /><br />the wish to dissolve. What you think you live for you may not live for.\u00a0<br /><br />One star goes out. One breath lifts inside a crow inside a field.</p> "}, {"title": "Afterwards", "view_node": "/poem/afterwards-0", "field_author": "<a href=\"/poet/philip-schultz\" hreflang=\"und\">Philip Schultz</a>", "field_date_published": "2014", "body": " <p>Suddenly<br />everything feels afterwards,<br />stoic and inevitable,\u00a0<br />my eyes ringed with the grease of rumor and complicity,<br />my hands eager to hold any agreeable infatuation<br />that might otherwise slip away.<br />Suddenly<br />it\u2019s evening and the lights up and<br />down the street appear hopeful,<br />even magnanimous,<br />swollen as they are with ancient grievances<br />and souring schemes. The sky,<br />however,<br />appears unwelcoming,<br />and aloof, eager to surrender<br />its indifference to our suffering.<br />Speaking of suffering,<br />the houses\u2014our sober, recalcitrant houses\u2014<br />are swollen with dreams that have grown opaque with age,<br />hoarding as they do truths<br />untranslatable into auspicious beliefs.<br />Meanwhile,<br />our loneliness,<br />upon which so many laws are based,<br />continues to consume everything.<br />Suddenly,<br />regardless of what the gods say,<br />the present remains uninhabitable,<br />the past unforgiving of the harm it\u2019s seen,<br />while<br />the future remains translucent<br />and unambiguous<br />in its desire to elude us.</p> "}, {"title": "Such and Such a Time at Such and Such a Palace", "view_node": "/poem/such-and-such-time-such-and-such-palace", "field_author": "<a href=\"/poet/heather-christle\" hreflang=\"und\">Heather Christle</a>", "field_date_published": "2014", "body": " <p>The lack of a single-word infinitive<br />in our language is what is killing me</p><p>this morning<br />\u00a0 \u00a0 \u00a0 \u00a0 \u00a0 \u00a0 \u00a0 \u00a0 \u00a0 \u00a0 \u00a0 \u00a0 \u00a0 \u00a0A single word for all<br />infinitives is what God is doing tonight</p><p>This is just one of many acts<br />to have passed through the garden</p><p>Previously on this show they put<br />a peacock back together wrong</p><p>after its demise<br />\u00a0 \u00a0 \u00a0 \u00a0 \u00a0 \u00a0 \u00a0 \u00a0 \u00a0 \u00a0 \u00a0 \u00a0 \u00a0 \u00a0 \u00a0 \u00a0 Something<br />there was in the syntax</p><p>Poor bird could feel it in his bones<br />\u00a0</p> "}, {"title": "Poem in the Modernist Manner", "view_node": "/poem/poem-modernist-manner", "field_author": "<a href=\"/poet/david-lehman\" hreflang=\"und\">David Lehman</a>", "field_date_published": "2014", "body": " <p>They were cheap but they were real,<br />the old bistros. You could have a meal,<br />drink the devil\u2019s own red wine, and contemplate<br />the sawdust on the floor, or fate,<br />as the full-fed beast kicked the empty pail.</p><p>The conspiracy of the second rate<br />continued to reverberate.<br />Everyone wanted to get his licks.<br />Everyone said it was a steal.</p><p>So the girl and I stayed out late.<br />We walked along the shore<br />and I campaigned some more.<br />And the city built with words not bricks<br />burned like a paper plate.</p> "}, {"title": "Weave in, My Hardy Life", "view_node": "/poem/weave-my-hardy-life", "field_author": "<a href=\"/poet/walt-whitman\" hreflang=\"und\">Walt Whitman</a>", "field_date_published": "2014", "body": "<p><span class=\"long-line\">Weave in, weave in, my hardy life,</span><br /><span class=\"long-line\">\nWeave yet a soldier strong and full for great campaigns to come,</span><br /><span class=\"long-line\">\nWeave in red blood, weave sinews in like ropes, the senses, sight weave in,</span><br /><span class=\"long-line\">\nWeave lasting sure, weave day and night the weft, the warp, incessant weave, tire not,</span><br /><span class=\"long-line\">\n(We know not what the use O life, nor know the aim, the end, nor really aught we know,</span><br /><span class=\"long-line\">\nBut know the work, the need goes on and shall go on, the death-envelop\u2019d march of peace as well as war goes on,)</span><br /><span class=\"long-line\">\nFor great campaigns of peace the same the wiry threads to weave,</span><br /><span class=\"long-line\">\nWe know not why or what, yet weave, forever weave.</span></p>"}, {"title": "Weekend Guests from Chicago, 1945", "view_node": "/poem/weekend-guests-chicago-1945", "field_author": "<a href=\"/poet/toi-derricotte\" hreflang=\"und\">Toi Derricotte</a>", "field_date_published": "2013", "body": " <p>In their brand new caramel Cadillac,<br />Julia and Walter arrived at 4,<br />Trunk stuffed with leather suitcases,<br />Steaks, champagne and oysters in a cooler,<br />And Walter\u2019s only drink\u2014Johnnie Walker Blue.<br />Julia, hands flaring, in the clunky music<br />Of a pound of real gold charms,<br />Walter in a tan linen jacket<br />And shoes soft as old money.</p><p>Sweet-tempered, sweet-tongued,<br />He\u2019d tease the women to blushing,<br />And let his wife reign queen<br />In a diamond ring to knock your eyes out.</p><p>She was known from New York to LA<br />For her fried chicken and greens,<br />And didn\u2019t hesitate, after hours of driving,<br />To throw an apron over a French cotton dress<br />And slap the flour on thirty or more pieces.</p><p>Oh the chicken breasts and thighs<br />Spattering, juicy, in just the right degree of heat,<br />As she told stories, hilarious and true<br />To a kitchen full of steamy women<br />That made them double over and pee themselves.</p><p>Saturday morning, men to golf,<br />And women in floral robes<br />With cups of a New Orleans blend<br />So strong they said<br />It stained the rim and turned you black;<br />Me, in a high chair, straining<br />For language, my bottle<br />Stirred with a spoon of coffee<br />And half a pint of cream.</p><p>At 15,<br />My first trip cross-country on a train,<br />I stopped to spend the night.<br />We took the \u201cL\u201d to Marshall Fields<br />Where Julia bought my first expensive cold creams<br />And hose the shades of which\u2014for the first time\u2014<br />Dared the colors of our colored skin.\u00a0</p><p>She told me she had lovers,<br />One a handsome Pullman porter.<br />My last nights onboard,<br />I, myself, enjoyed a notable service:<br />A caf\u00e9 au lait gentleman<br />Woke me for breakfast<br />By slipping his hand through the sealed drapes<br />And gently shaking my rump.<br />I waited all night,<br />damp with wonder.</p><p>She had a wart on her chin or nose\u2014<br />I can\u2019t remember which\u2014<br />She wore it\u00a0<br />Like exquisite jewelry,<br />Like Marilyn Monroe wore her beauty mark,<br />With unforgettable style.</p> "}], "pager": {"current_page": 394, "total_items": "13248", "total_pages": 663, "items_per_page": 20}}