{"rows": [{"title": "Noetics", "view_node": "/poem/noetics", "field_author": "<a href=\"/poet/emily-kendal-frey\" hreflang=\"und\">Emily Kendal Frey</a>", "field_date_published": "2015", "body": " <p>You might think you are not thinking, but you are.</p><p>A thought moves from dirt up through me and if I do not<br />\u00a0\u00a0\u00a0 disabuse it, it grows.</p><p>To suffer, to bear from below.</p><p>Coming down the mountain I could see a reservoir through the<br />\u00a0\u00a0\u00a0 trees, fat and glowing.</p><p>You are alone in your one life and no one will enter your<br />\u00a0\u00a0\u00a0 dreams.</p><p>Teenagers sit on the sign outside the nunnery.</p><p>We are so afraid of failing we can't live.</p><p>So we leave apartments, not breathing, breathe on the way<br />\u00a0\u00a0\u00a0 home.</p><p>The potential is not the actual.</p><p>I was not a good skateboarder.</p><p>As we allow for suffering, we live.</p><p>You took a picture of me at sunset, thighs drying roses against<br />\u00a0\u00a0\u00a0 an orange sky.</p><p>\u201cThis alone is deathless and everlasting\u201d</p><p>In the dark we know one another finally.</p><p>I can be as you as I am.</p><p>\u201cThe mind-body problem\u201d</p><p>You did things to block out the light.</p><p>Yes, another reference to morning.</p><p>When I am feeding myself I hate myself.</p><p>I was younger and not planning on dying.</p><p>In the forest between trees we dismantle thought.</p><p>Bed of summer branches, us gently.</p><p>\u201cMuch learning does not teach the mind\u201d</p><p>And, walking across the road to the post office, able to see the<br />\u00a0\u00a0\u00a0 ocean.</p><p>You: I googled \u201cIf you postpone love will it not end?\u201d</p><p>To feel you have to exit the body.</p><p>To use a higher mind is to be part of the cosmos.</p><p>Then she lowered her voice to a rasp and told those assembled<br />\u00a0\u00a0\u00a0 a secret.</p><p>There are no edges.</p><p>Waiting on the patio with whiskey, girl, they said, he\u2019s not<br />\u00a0\u00a0\u00a0 coming.</p><p>The ethical implications of thinking.</p><p>In order to understand nature do we have to die?</p><p>Affixed to us driving the road to a mountain lake.</p><p>One must stay diligent to avoid becoming a symbol.</p><p>Let us bow down and never leave the island.</p><p>Me: \u201cDid you think my angry phase would end?\u201d</p><p>A day, a peeling scrim.</p><p>The moon looks into our lion mouths.</p><p>The mind\u2019s hedge in an empty neighborhood.</p><p>If god is reason the mind is dead.</p><p>Ornate Senate of Loss, Call Me Forth to Announce Myself as<br />\u00a0\u00a0\u00a0 Infinite Mystery.</p><p>You\u2019ll use what I taught you to manipulate others.</p><p>This gives me sad pleasure.</p><p>Orange rose.<br />\u00a0</p> "}, {"title": "Only as the Day Is Long", "view_node": "/poem/only-day-long", "field_author": "<a href=\"/poet/dorianne-laux\" hreflang=\"und\">Dorianne Laux</a>", "field_date_published": "2015", "body": " <p>Soon she will be no more than a passing thought,<br />a pang, a timpani of wind in the chimes, bent spoons<br />hung from the eaves on a first night in a new house<br />on a street where no dog sings, no cat visits<br />a neighbor cat in the middle of the street, winding<br />and rubbing fur against fur, throwing sparks.\u00a0<br /><br />Her atoms are out there, circling the earth, minus<br />her happiness, minus her grief, only her body\u2019s<br />water atoms, her hair and bone and teeth atoms,<br />her fleshy atoms, her boozy atoms, her saltines<br />and cheese and tea, but not her piano concerto<br />atoms, her atoms of laughter and cruelty, her atoms<br />of lies and lilies along the driveway and her slippers,<br />Lord her slippers, where are they now?</p> "}, {"title": "The Erotic Is a Measure Between", "view_node": "/poem/erotic-measure-between", "field_author": "<a href=\"/poet/kyle-dargan\" hreflang=\"und\">Kyle Dargan</a>", "field_date_published": "2015", "body": " <p><em>after Lorde</em></p><p>Your body is not my pommel horse<br />nor my Olympic pool or diving board.<br />Your body is not my personal Internet<br />channel nor my timeline,<br />nor my warm Apollo spotlight.<br />Your body is not my award<br />gala. Your body is not my game\u2014<br />preseason or playoffs.<br />Your body is not my political party<br />convention. Your body is not<br />my frontline or my war\u2019s theatre.<br />Your body is not my time<br />trial. Your body is not my entrance<br />exam or naturalization interview.<br />I am a citizen of this skin\u2014that<br />alone\u2014and yours is not to be<br />passed nor won. What is done\u2014<br />when we let our bodies sharpen<br />the graphite of each other\u2019s bodies<br />\u2014is not my test, not my solo<br />show. One day I\u2019ll learn. I\u2019ll prove<br />I know how to lie with you without<br />anticipating the scorecards of your eyes,<br />how I might merely abide\u2014we two<br />unseated, equidistant from the wings<br />in a beating black box, all stage.<br />\u00a0</p> "}, {"title": "Summer Rain", "view_node": "/poem/summer-rain", "field_author": "<a href=\"/poet/amy-lowell\" hreflang=\"und\">Amy Lowell</a>", "field_date_published": "1919", "body": " <p>All night our room was outer-walled with rain.<br />Drops fell and flattened on the tin roof,<br />And rang like little disks of metal.<br />Ping!\u2014Ping!\u2014and there was not a pin-point of silence between<br />\u00a0\u00a0\u00a0 them.<br />The rain rattled and clashed,<br />And the slats of the shutters danced and glittered.<br />But to me the darkness was red-gold and crocus-colored<br />With your brightness,<br />And the words you whispered to me<br />Sprang up and flamed\u2014orange torches against the rain.<br />Torches against the wall of cool, silver rain!</p> "}, {"title": "Not Here, Exactly", "view_node": "/poem/not-here-exactly", "field_author": "<a href=\"/poet/joanna-fuhrman\" hreflang=\"und\">Joanna Fuhrman</a>", "field_date_published": "2015", "body": " <p>I found your letter<br />in the pocket</p><p>of a borrowed goat.</p><p>It showed me<br />the way\u2014</p><p>small as an eye.</p><p>One mountain tried<br />to taste another,</p><p>then spit it out.</p><p>Your letter called<br />all the other letters</p><p>\u201cfriends.\u201d</p><p>You too were<br />my friend,</p><p>soft as a melting<br />or melted nail.</p><p>Dear little cage,<br />dark plum.</p> "}, {"title": "When I Rise Up", "view_node": "/poem/when-i-rise", "field_author": "<a href=\"/poet/georgia-douglas-johnson\" hreflang=\"und\">Georgia Douglas Johnson</a>", "field_date_published": "1922", "body": "<p><span class=\"long-line\">When I rise up above the earth,</span><br /><span class=\"long-line\">And look down on the things that fetter me,</span><br /><span class=\"long-line\">I beat my wings upon the air,</span><br /><span class=\"long-line\">Or tranquil lie,</span><br /><span class=\"long-line\">Surge after surge of potent strength</span><br /><span class=\"long-line\">Like incense comes to me</span><br /><span class=\"long-line\">When I rise up above the earth</span><br /><span class=\"long-line\">And look down upon the things that fetter me.</span></p>\n"}, {"title": "A Blessing for Wedding", "view_node": "/poem/blessing-wedding", "field_author": "<a href=\"/poet/jane-hirshfield\" hreflang=\"und\">Jane Hirshfield</a>", "field_date_published": "2011", "body": "<p><span class=\"long-line\">Today when persimmons ripen</span><br /><span class=\"long-line\">Today when fox-kits come out of their den into snow</span><br /><span class=\"long-line\">Today when the spotted egg releases its wren song</span><br /><span class=\"long-line\">Today when the maple sets down its red leaves</span><br /><span class=\"long-line\">Today when windows keep their promise to open</span><br /><span class=\"long-line\">Today when fire keeps its promise to warm</span><br /><span class=\"long-line\">Today when someone you love has died</span><br /><span class=\"long-line\">\u00a0\u00a0\u00a0\u00a0 or someone you never met has died</span><br /><span class=\"long-line\">Today when someone you love has been born</span><br /><span class=\"long-line\">\u00a0 \u00a0 \u00a0or someone you will not meet has been born</span><br /><span class=\"long-line\">Today when rain leaps to the waiting of roots in their dryness</span><br /><span class=\"long-line\">Today when starlight bends to the roofs of the hungry and tired</span><br /><span class=\"long-line\">Today when someone sits long inside his last sorrow</span><br /><span class=\"long-line\">Today when someone steps into the heat of her first embrace</span><br /><span class=\"long-line\">Today, let this light bless you</span><br /><span class=\"long-line\">With these friends let it bless you</span><br /><span class=\"long-line\">With snow-scent and lavender bless you</span><br /><span class=\"long-line\">Let the vow of this day keep itself wildly and wholly</span><br /><span class=\"long-line\">Spoken and silent, surprise you inside your ears</span><br /><span class=\"long-line\">Sleeping and waking, unfold itself inside your eyes</span><br /><span class=\"long-line\">Let its fierceness and tenderness hold you</span><br /><span class=\"long-line\">Let its vastness be undisguised in all your days</span></p>\n\n<p><span class=\"long-line\">\u20142008</span><br />\n\u00a0</p>\n"}, {"title": "Summer", "view_node": "/poem/summer-3", "field_author": "<a href=\"/poet/robin-coste-lewis\" hreflang=\"en\">Robin Coste Lewis</a>", "field_date_published": "2015", "body": " <p>Last summer, two discrete young snakes left their skin on my\u00a0small porch, two mornings in a row.\u00a0Being\u00a0post-modern now, I pretended as if I did not see them, nor\u00a0understand what I knew to be\u00a0circling\u00a0inside me.\u00a0 Instead, every hour I told my son to stop with his\u00a0incessant back-chat. I peeled\u00a0a banana.\u00a0 And cursed God\u2014His arrogance, His gall\u2014to still\u00a0expect our devotion\u00a0after creating love.\u00a0 And mosquitoes.\u00a0 I showed my son the papery\u00a0dead skins\u00a0so he could know, too, what it feels like when something shows\u00a0up at your door\u2014twice\u2014telling you what you already know.</p> "}, {"title": "Let Everything Happen to You", "view_node": "/poem/let-everything-happen-you", "field_author": "<a href=\"/poet/natalie-eilbert\" hreflang=\"en\">Natalie Eilbert</a>", "field_date_published": "2015", "body": "<p><span class=\"long-line\">As a girl I made my calves into little drinking elephants,</span><br /><span class=\"long-line\">I would stare at the wonder of their pumping muscles,</span><br /><span class=\"long-line\">the sup of their leg-trunks. I resuscitated a bunny once</span><br /><span class=\"long-line\">from my cat\u2019s electric teeth. I was on neighborhood watch</span><br /><span class=\"long-line\">to save animals, as many as I could. My damage was easy.</span><br /><span class=\"long-line\">My plainspoken voice is a watercolor. I\u2019m afraid of it</span><br /><span class=\"long-line\">as I\u2019m afraid of what the world will do to color. I don\u2019t</span><br /><span class=\"long-line\">think I\u2019ve done much. A table leans against itself</span><br /><span class=\"long-line\">to be a table. I hold nothing but this air. I give it off.</span><br /><span class=\"long-line\"><em>I want a literature that is not made from literature</em>, says Bhanu.</span><br /><span class=\"long-line\">Last night my legs ached a low-tone. I imagined the body</span><br /><span class=\"long-line\">giving itself up for another system. Dandelions tickling</span><br /><span class=\"long-line\">out of my knee. The meniscus a household of worms.</span><br /><span class=\"long-line\">It is okay to bear. My apartment hums in a Rilke sense.</span><br /><span class=\"long-line\">A pain blooms. I am told that it\u2019s okay to forego details</span><br /><span class=\"long-line\">of what happened. I am told it doesn\u2019t matter now.</span><br /><span class=\"long-line\">I want to write sentences for days. I want days to not</span><br /><span class=\"long-line\">be a sentence. We put men in boxes and sail them away.</span><br /><span class=\"long-line\">Justice gave me an amber necklace. I tried to swallow</span><br /><span class=\"long-line\">as many as I could.</span></p>\n"}, {"title": "Hermitage", "view_node": "/poem/hermitage", "field_author": "<a href=\"/poet/joseph-fasano\" hreflang=\"und\">Joseph Fasano</a>", "field_date_published": "2015", "body": " <p>It\u2019s true there were times when it was too much<br />and I slipped off in the first light or its last hour<br />and drove up through the crooked way of the valley</p><p>and swam out to those ruins on an island.<br />Blackbirds were the only music in the spruces,<br />and the stars, as they faded out, offered themselves to me</p><p>like glasses of water ringing by the empty linens of the dead.<br />When Delilah watched the dark hair of her lover<br />tumble, she did not shatter. When Abraham</p><p>relented, he did not relent.<br />Still, I would tell you of the humbling and the waking.<br />I would tell you of the wild hours of surrender,</p><p>when the river stripped the cove\u2019s stones<br />from the margin and the blackbirds built<br />their strict songs in the high</p><p>pines, when the great nests swayed the lattice<br />of the branches, the moon\u2019s brute music<br />touching them with fire.</p><p>And you, there, stranger in the sway<br />of it, what would you have done<br />there, in the ruins, when they rose</p><p>from you, when the burning wings<br />ascended, when the old ghosts<br />shook the music from your branches and the great lie</p><p>of your one sweet life was lifted?</p> "}, {"title": "More Stones", "view_node": "/poem/more-stones", "field_author": "<a href=\"/poet/andrea-cohen\" hreflang=\"en\">Andrea Cohen</a>", "field_date_published": "2015", "body": " <p><em>for Philip Levine</em></p><p>Donald Justice has died twice:<br />once in Miami, in the sun, on a Sunday,<br />and once in Iowa City, on a Friday<br />in August, which was not without<br />its own sun<span style=\"font-size: 13.0080003738403px; line-height: 20.0063037872314px;\">\u2014</span>if not bright spot.<br />The first time he died, he was thinking<br />of Vallejo, who died in Paris, maybe<br />on a Thursday, surely in rain.<br />Vallejo died again in Paris,<br />in April, of an unknown illness<br />which may have been malaria,<br />as fictionalized in Bola\u00f1o\u2019s<br /><em>Monsieur Pain</em>. \u201cThere is, brothers,<br />very much to do,\u201d Vallejo said<br />between his deaths, and Phil,<br />you must have died once<br />in Seville, in the land of Machado,<br />before going again last Saturday<br />in Fresno, so you no longer write<br />to us or bring in trash bins filled<br />with light. Phil, I will die, maybe<br />on a Sunday in Wellfleet, because<br />today it is Sunday, and ice<br />is jamming the eaves, and there<br />is nowhere to put the snow<br />that keeps recalling all<br />those other snows\u2014<br />or the stones on more stones.<br />\u00a0</p> "}, {"title": "Gwendolyn Brooks Park, Topeka", "view_node": "/poem/gwendolyn-brooks-park-topeka", "field_author": "<a href=\"/poet/ed-skoog\" hreflang=\"en\">Ed Skoog</a>", "field_date_published": "2015", "body": " <p>They carved the letters yellow,<br />and painted<br />the wood around the letters green,<br />chained a picnic table to the grass<br />out near where the roof of the dead<br />mall directs a crack<br />of sunset to radiate the Burger King sign gold.<br />Last place open after midnight:<br />then apartment windows hold<br />stars and satellites in the cold.<br />A creek runs like a paper fold<br />from one corner of park to other,<br />twenty or thirty blocks from where<br />she took her first breaths of infancy<br />in the only city I know of<br />with the letters for <em>poet</em><br />that does not also carry<br />a port or a point in its name.</p> "}, {"title": "Summer Morn in New Hampshire", "view_node": "/poem/summer-morn-new-hampshire", "field_author": "<a href=\"/poet/claude-mckay\" hreflang=\"und\">Claude McKay</a>", "field_date_published": "1922", "body": " <p>All yesterday it poured, and all night long<br />\u00a0 \u00a0 I could not sleep; the rain unceasing beat<br />Upon the shingled roof like a weird song,<br />\u00a0 \u00a0 Upon the grass like running children\u2019s feet.<br />And down the mountains by the dark cloud kissed,<br />\u00a0 \u00a0 Like a strange shape in filmy veiling dressed,<br />Slid slowly, silently, the wraith-like mist,<br />\u00a0 \u00a0 And nestled soft against the earth\u2019s wet breast.<br />But lo, there was a miracle at dawn!<br />\u00a0 \u00a0 The still air stirred at touch of the faint breeze,<br />The sun a sheet of gold bequeathed the lawn,<br />\u00a0 \u00a0 The songsters twittered in the rustling trees.<br />And all things were transfigured in the day,<br />\u00a0 \u00a0 But me whom radiant beauty could not move;<br />For you, more wonderful, were far away,<br />\u00a0 \u00a0 And I was blind with hunger for your love.</p> "}, {"title": "LXV [Once, I knew a fine song]", "view_node": "/poem/lxv-once-i-knew-fine-song", "field_author": "<a href=\"/poet/stephen-crane\" hreflang=\"und\">Stephen Crane</a>", "field_date_published": "1896", "body": " <p>Once, I knew a fine song,<br />\u2014It is true, believe me,\u2014<br />It was all of birds,<br />And I held them in a basket;<br />When I opened the wicket,<br />Heavens! They all flew away.<br />I cried, \u201cCome back, little thoughts!\u201d<br />But they only laughed.<br />They flew on<br />Until they were as sand<br />Thrown between me and the sky.</p> "}, {"title": "Respect", "view_node": "/poem/respect", "field_author": "<a href=\"/poet/melissa-studdard\" hreflang=\"en\">Melissa Studdard</a>", "field_date_published": "2015", "body": " <p>Because her body is winter inside a cave<br />because someone built<br />fire there and forgot to put it out<br />because bedtime is a castle<br />she\u2019s building inside herself<br />with a moat<br />and portcullis<br />and buckets full of mist<br />because when you let go<br />the reins<br />horses<br />tumble over cliffs and turn<br />into moths before hitting bottom<br />because their hooves leave streaks of midnight<br />in the sky<br />because stuffed rabbits<br />are better at keeping secrets<br />than stopping hands<br />because when the world got<br />shoved up inside her<br />she held it tight like a kegel ball<br />and wondered<br />at the struggle Atlas had<br />carrying such a tiny thing<br />on his back</p> "}, {"title": "Axis Mundi", "view_node": "/poem/axis-mundi", "field_author": "<a href=\"/poet/harriet-levin\" hreflang=\"en\">Harriet Levin</a>", "field_date_published": "2015", "body": " <p>Where in the church of the mind,<br />the mind\u2019s sawn down trees,</p><p>where hardwood\u2019s stacked up,<br />quartered and milled where under the nave</p><p>the painting is placed,<br />in the left-hand side aisle,</p><p>the viewpoint from which one approaches the altar<br />do the putti recover us and give us wings?</p><p>The figures are over life size,<br />their heart beats thump through the church</p><p>in the direction of the brushstroke,<br />drift at the edge of fields left to the shape it takes.</p><p>Sometimes it\u2019s rain the reach of rain.\u00a0<br />Sometimes it\u2019s purer, less mixed. Jubilance.</p><p>I feel it running down the hill in the rain<br />running so as not to get wet but getting wet.\u00a0</p><p>Pause to tie my shoelace,<br />as if, tying it, I might actually pull together\u2014finding it undone.</p> "}, {"title": "Property", "view_node": "/poem/property", "field_author": "<a href=\"/poet/emily-hunt\" hreflang=\"en\">Emily Hunt</a>", "field_date_published": "2015", "body": " <p>There are these flowers<br />with centers like liquid</p><p>hollows up close<br />and the outline</p><p>melts like a trick.<br />An illusion is usually</p><p>dark by the end.<br />An illusion is thin</p><p>curving for some<br />spark, along it to trace</p><p>a straight<br />shot to the rigged</p><p>bones of the plot,<br />to drink the quiet, like dirt.</p> "}, {"title": "The Sadness of Clothes", "view_node": "/poem/sadness-clothes", "field_author": "<a href=\"/poet/emily-fragos\" hreflang=\"und\">Emily Fragos</a>", "field_date_published": "2015", "body": "<p><span class=\"long-line\">When someone dies, the clothes are so sad. They have outlived</span><br /><span class=\"long-line\">their usefulness and cannot get warm and full.</span><br /><span class=\"long-line\">You talk to the clothes and explain that he is not coming back</span></p>\n\n<p><span class=\"long-line\">as when he showed up immaculately dressed in slacks and plaid jacket</span><br /><span class=\"long-line\">and had that beautiful smile on and you\u2019d talk.</span><br /><span class=\"long-line\">You\u2019d go to get something and come back and he\u2019d be gone.</span></p>\n\n<p><span class=\"long-line\">You explain death to the clothes like that dream.</span><br /><span class=\"long-line\">You tell them how much you miss the spouse</span><br /><span class=\"long-line\">and how much you miss the pet with its little winter sweater.</span></p>\n\n<p><span class=\"long-line\">You tell the worn raincoat that if you talk about it,</span><br /><span class=\"long-line\">you will finally let grief out. The ancients etched the words</span><br /><span class=\"long-line\">for battle and victory onto their shields and then they went out</span></p>\n\n<p><span class=\"long-line\">and fought to the last breath. Words have that kind of power</span><br /><span class=\"long-line\">you remind the clothes that remain in the drawer, arms stubbornly</span><br /><span class=\"long-line\">folded across the chest, or slung across the backs of chairs,</span></p>\n\n<p><span class=\"long-line\">or hanging inside the dark closet. Do with us what you will,</span><br /><span class=\"long-line\">they faintly sigh, as you close the door on them.</span><br /><span class=\"long-line\">He is gone and no one can tell us where.</span></p>\n"}, {"title": "In Tongues", "view_node": "/poem/tongues", "field_author": "<a href=\"/poet/tonya-m-foster\" hreflang=\"en\">Tonya M. Foster</a>", "field_date_published": "2015", "body": "<p><em>for Auntie Jeanette</em></p>\n\n<p><span class=\"long-line\"><span class=\"long-line\">1.</span><br /><span class=\"long-line\">Because you haven\u2019t spoken</span><br /><span class=\"long-line\">in so long, the tongue stumbles and stutters,</span><br /><span class=\"long-line\">sticks to the roof and floor as if the mouth were just</span><br /><span class=\"long-line\">a house in which it could stagger like a body unto itself.</span></span></p>\n\n<p><span class=\"long-line\">You once loved a man so tall</span><br /><span class=\"long-line\">sometimes you stood on a chair to kiss him.</span></p>\n\n<p><span class=\"long-line\">2.</span><br /><span class=\"long-line\">What to say when one says,</span><br /><span class=\"long-line\">\u201cYou\u2019re sooo musical,\u201d takes your stuttering for scatting,</span><br /><span class=\"long-line\">takes your stagger for strutting,</span><br /><span class=\"long-line\">takes your try and tried again for willful/playful deviation?</span></p>\n\n<p><span class=\"long-line\">It makes you wanna not holla</span><br /><span class=\"long-line\">silence to miss perception\u2019s face.</span></p>\n\n<p><span class=\"long-line\">3.</span><br /><span class=\"long-line\">It ain\u2019t even morning or early,</span><br /><span class=\"long-line\">though the sun-up says \u201cday,\u201d and you been</span><br /><span class=\"long-line\">staggering lange Zeit gegen a certain</span><br /><span class=\"long-line\">breathless stillness that we can\u2019t but call death.</span></p>\n\n<p><span class=\"long-line\">Though stillness suggests a possibility</span><br /><span class=\"long-line\">of less than dead, of move, of still be.</span></p>\n\n<p><span class=\"long-line\">4.</span><br /><span class=\"long-line\">How that one calling your tryin\u2019</span><br /><span class=\"long-line\">music, calling you sayin\u2019 entertaining, thinks</span><br /><span class=\"long-line\">there\u2019s no then that we, (who den dat we?), remember/</span><br /><span class=\"long-line\">trace in our permutations of say?</span></p>\n\n<p><span class=\"long-line\">What mastadonic presumptions precede and</span><br /><span class=\"long-line\">follow each word, each be, each bitter being?</span></p>\n\n<p><span class=\"long-line\">5.</span><br /><span class=\"long-line\">These yawns into which we enter as into a harbor\u2014</span><br /><span class=\"long-line\"><em>Come. Go. Don\u2019t.</em> says the vocal oceans which usher</span><br /><span class=\"long-line\">each us, so unlike any ship steered or steering into.</span><br /><span class=\"long-line\">A habit of place and placing a body.</span></p>\n\n<p><span class=\"long-line\">Which choruses of limbs and wanting, of limp</span><br /><span class=\"long-line\">linger in each syllabic foot tapping its chronic codes?</span></p>\n"}, {"title": "Sonnet VII [O Solitude! if I must with thee dwell]", "view_node": "/poem/sonnet-vii-o-solitude-if-i-must-thee-dwell", "field_author": "<a href=\"/poet/john-keats\" hreflang=\"und\">John Keats</a>", "field_date_published": "1817", "body": "<p><span class=\"long-line\">O Solitude! if I must with thee dwell,</span><br /><span class=\"long-line\">Let it not be among the jumbled heap</span><br /><span class=\"long-line\">Of murky buildings; climb with me the steep,\u2014</span><br /><span class=\"long-line\">Nature\u2019s observatory\u2014whence the dell,</span><br /><span class=\"long-line\">Its flowery slopes, its river\u2019s crystal swell,</span><br /><span class=\"long-line\">May seem a span; let me thy vigils keep</span><br /><span class=\"long-line\">\u2019Mongst boughs pavillion\u2019d, where the deer\u2019s swift leap</span><br /><span class=\"long-line\">Startles the wild bee from the fox-glove bell.</span><br /><span class=\"long-line\">But though I\u2019ll gladly trace these scenes with thee,</span><br /><span class=\"long-line\">Yet the sweet converse of an innocent mind,</span><br /><span class=\"long-line\">Whose words are images of thoughts refin\u2019d,</span><br /><span class=\"long-line\">Is my soul\u2019s pleasure; and it sure must be</span><br /><span class=\"long-line\">Almost the highest bliss of human-kind,</span><br /><span class=\"long-line\">When to thy haunts two kindred spirits flee.</span></p>\n"}], "pager": {"current_page": 370, "total_items": "13248", "total_pages": 663, "items_per_page": 20}}