{"rows": [{"title": "The White Ones", "view_node": "/poem/white-ones", "field_author": "<a href=\"/poet/langston-hughes\" hreflang=\"und\">Langston Hughes</a>", "field_date_published": "1926", "body": "<p>I do not hate you,<br />\nFor your faces are beautiful, too.<br />\nI do not hate you,<br />\nYour faces are whirling lights of loveliness and splendor, too.<br />\nYet why do you torture me,<br />\nO, white strong ones,<br />\nWhy do you torture me?</p>\n"}, {"title": "Disillusion", "view_node": "/poem/disillusion", "field_author": "<a href=\"/poet/langston-hughes\" hreflang=\"und\">Langston Hughes</a>", "field_date_published": "1926", "body": "<p>I would be simple again,<br />\nSimple and clean<br />\nLike the earth,<br />\nLike the rain,<br />\nNor ever know,<br />\nDark Harlem,<br />\nThe wild laughter<br />\nOf your mirth<br />\nNor the salt tears<br />\nOf your pain.<br />\nBe kind to me,<br />\nOh, great dark city.<br />\nLet me forget.<br />\nI will not come<br />\nTo you again.</p>\n"}, {"title": "Summer Night", "view_node": "/poem/summer-night-0", "field_author": "<a href=\"/poet/langston-hughes\" hreflang=\"und\">Langston Hughes</a>", "field_date_published": "1926", "body": "<p>The sounds<br />\nOf the Harlem night<br />\nDrop one by one into stillness.<br />\nThe last player-piano is closed.\u00a0<br />\nThe last victrola ceases with the<br />\n\u201cJazz Boy Blues.\u201d<br />\nThe last crying baby sleeps<br />\nAnd the night becomes<br />\nStill as a whispering heartbeat.<br />\nI toss<br />\nWithout rest in the darkness,<br />\nWeary as the tired night,<br />\nMy soul<br />\nEmpty as the silence,<br />\nEmpty with a vague,<br />\nAching emptiness,<br />\nDesiring,<br />\nNeeding someone,<br />\nSomething.</p>\n<p>I toss without rest<br />\nIn the darkness<br />\nUntil the new dawn,<br />\nWan and pale,<br />\nDescends like a white mist<br />\nInto the court-yard.</p>\n<p>\u00a0</p>\n"}, {"title": "Afraid", "view_node": "/poem/afraid", "field_author": "<a href=\"/poet/langston-hughes\" hreflang=\"und\">Langston Hughes</a>", "field_date_published": "1926", "body": "<p>We cry among the skyscrapers<br />\nAs our ancestors<br />\nCried among the palms in Africa<br />\nBecause we are alone,<br />\nIt is night,<br />\nAnd we\u2019re afraid.\u00a0</p>\n"}, {"title": "Lament for Dark Peoples", "view_node": "/poem/lament-dark-peoples", "field_author": "<a href=\"/poet/langston-hughes\" hreflang=\"und\">Langston Hughes</a>", "field_date_published": "1926", "body": "<p>I was a red man one time,<br />\nBut the white men came.<br />\nI was a black man, too,<br />\nBut the white men came.</p>\n<p>They drove me out of the forest.<br />\nThey took me away from the jungles.<br />\nI lost my trees.<br />\nI lost my silver moons.</p>\n<p>Now they\u2019ve caged me<br />\nIn the circus of civilization.<br />\nNow I herd with the many\u2014<br />\nCaged in the circus of civilization.\u00a0<br />\n\u00a0</p>\n"}, {"title": " Death of an Old Seaman ", "view_node": "/poem/death-old-seaman", "field_author": "<a href=\"/poet/langston-hughes\" hreflang=\"und\">Langston Hughes</a>", "field_date_published": "1926", "body": "<p><span class=\"long-line\">We buried him high on a windy hill, </span><br /><span class=\"long-line\">But his soul went out to sea. </span><br /><span class=\"long-line\">I know, for I heard, when all was still,</span><br /><span class=\"long-line\">His sea-soul say to me:</span></p>\n\n<p><span class=\"long-line\">Put no tombstone at my head, </span><br /><span class=\"long-line\">For here I do not make my bed.</span><br /><span class=\"long-line\">Strew no flowers on my grave,</span><br /><span class=\"long-line\">I\u2019ve gone back to the wind and wave. </span><br /><span class=\"long-line\">Do not, do not weep for me,</span><br /><span class=\"long-line\">For I am happy with my sea. </span></p>\n"}, {"title": "Sea Charm", "view_node": "/poem/sea-charm", "field_author": "<a href=\"/poet/langston-hughes\" hreflang=\"und\">Langston Hughes</a>", "field_date_published": "1926", "body": "<p><span class=\"long line\">Sea charm </span><br /><span class=\"long-line\">The sea\u2019s own children</span><br /><span class=\"long-line\">Do not understand. </span><br /><span class=\"long-line\">They know</span><br /><span class=\"long-line\">But that the sea is strong</span><br /><span class=\"long-line\">Like God\u2019s hand.</span><br /><span class=\"long-line\">They know </span><br /><span class=\"long-line\">But that sea wind is sweet</span><br /><span class=\"long-line\">Like God\u2019s breath,</span><br /><span class=\"long-line\">And that the sea holds</span><br /><span class=\"long-line\">A wide, deep death. </span></p>\n"}, {"title": "Natcha", "view_node": "/poem/natcha", "field_author": "<a href=\"/poet/langston-hughes\" hreflang=\"und\">Langston Hughes</a>", "field_date_published": "1926", "body": "<p><span class=\"long line\">Natcha, offering love. </span><br /><span class=\"long-line\">For ten shillings offering love.</span><br /><span class=\"long-line\">Offering: A night with me, honey.</span><br /><span class=\"long-line\">A long, sweet night with me. </span><br /><span class=\"long-line\">\u00a0\u00a0\u00a0Come, drink palm wine. </span><br /><span class=\"long-line\">\u00a0\u00a0\u00a0Come, drink kisses.</span><br /><span class=\"long-line\">A long, dream night with me.</span></p>\n"}, {"title": "Seascape", "view_node": "/poem/seascape", "field_author": "<a href=\"/poet/langston-hughes\" hreflang=\"und\">Langston Hughes</a>", "field_date_published": "1926", "body": "<p><span class=\"long-line\">Off the coast of Ireland</span><br /><span class=\"long-line\">\u00a0\u00a0\u00a0\u00a0As our ship passed by</span><br /><span class=\"long-line\">We saw a line of fishing ships</span><br /><span class=\"long-line\">\u00a0\u00a0\u00a0\u00a0Etched against the sky.</span></p>\n\n<p><span class=\"long-line\">Off the coast of England</span><br /><span class=\"long-line\">\u00a0\u00a0\u00a0\u00a0As we rode the foam </span><br /><span class=\"long-line\">We saw an Indian merchantman </span><br /><span class=\"long-line\">\u00a0\u00a0\u00a0\u00a0Coming home.</span></p>\n"}, {"title": "Young Sailor ", "view_node": "/poem/young-sailor", "field_author": "<a href=\"/poet/langston-hughes\" hreflang=\"und\">Langston Hughes</a>", "field_date_published": "1926", "body": "<p><span class=\"long-line\">He carries </span><br /><span class=\"long-line\">His own strength </span><br /><span class=\"long-line\">And his own laughter,</span><br /><span class=\"long-line\">His own today </span><br /><span class=\"long-line\">And his own hereafter,\u2013\u2013</span><br /><span class=\"long-line\">This strong young sailor </span><br /><span class=\"long-line\">Of the wide seas.</span></p>\n\n<p><span class=\"long-line\">What is money for? </span><br /><span class=\"long-line\">To spend, he says.</span><br /><span class=\"long-line\">And wine?</span><br /><span class=\"long-line\">To drink.</span><br /><span class=\"long-line\">And women?</span><br /><span class=\"long-line\">To love. </span><br /><span class=\"long-line\">And today?</span><br /><span class=\"long-line\">For joy.</span><br /><span class=\"long-line\">And tomorrow?</span><br /><span class=\"long-line\">For joy.</span><br /><span class=\"long-line\">And the green sea</span><br /><span class=\"long-line\">For strength, </span><br /><span class=\"long-line\">And the brown land</span><br /><span class=\"long-line\">For laughter.</span><br /><span class=\"long-line\">And nothing hereafter.</span></p>\n"}, {"title": "Caribbean Sunset", "view_node": "/poem/caribbean-sunset", "field_author": "<a href=\"/poet/langston-hughes\" hreflang=\"und\">Langston Hughes</a>", "field_date_published": "1926", "body": "<p><span class=\"long-line\">God having a hemorrhage,</span><br /><span class=\"long-line\">Blood coughed across the sky,</span><br /><span class=\"long-line\">Staining the dark sea red, </span><br /><span class=\"long-line\">That is sunset in the Caribbean.</span></p>\n"}, {"title": "8. ", "view_node": "/poem/8", "field_author": "<a href=\"/poet/bell-hooks\" hreflang=\"en\">bell hooks</a>", "field_date_published": "2012", "body": "<p>snow-covered earth<br />\nsuch silence<br />\nstill divine presence<br />\nechoes immortal migrants<br />\nall life sustained<br />\ndarkness comes<br />\nsuffering touches us<br />\nagain and again<br />\nthere is pain<br />\nthere in the midst of<br />\nsuch harsh barrenness<br />\na cardinal framed in the glass<br />\nred light<br />\ncalling away despair<br />\neternal promise<br />\neverything changes and ends</p>\n"}, {"title": "Sea Calm", "view_node": "/poem/sea-calm", "field_author": "<a href=\"/poet/langston-hughes\" hreflang=\"und\">Langston Hughes</a>", "field_date_published": "1926", "body": "<p><span class=\"long-line\">How still,</span><br /><span class=\"long-line\">How strangely still</span><br /><span class=\"long-line\">The water is today.</span><br /><span class=\"long-line\">It is not good</span><br /><span class=\"long-line\">For water</span><br /><span class=\"long-line\">To be so still that way. </span></p>\n"}, {"title": "Port Town", "view_node": "/poem/port-town", "field_author": "<a href=\"/poet/langston-hughes\" hreflang=\"und\">Langston Hughes</a>", "field_date_published": "1926", "body": "<p><span class=\"long-line\">Hello, sailor boy,</span><br /><span class=\"long-line\">In from the sea!</span><br /><span class=\"long-line\">Hello, sailor, </span><br /><span class=\"long-line\">Come with me!</span></p>\n\n<p><span class=\"long-line\">Come on drink cognac.</span><br /><span class=\"long-line\">Rather have wine?</span><br /><span class=\"long-line\">Come here, I love you.</span><br /><span class=\"long-line\">Come and be mine. </span></p>\n\n<p><span class=\"long-line\">Lights, sailor boy, </span><br /><span class=\"long-line\">Warm, white lights.</span><br /><span class=\"long-line\">Solid land, kid. </span><br /><span class=\"long-line\">Wild, white nights. </span></p>\n\n<p><span class=\"long-line\">Come on, sailor, </span><br /><span class=\"long-line\">Out o\u2019 the sea. </span><br /><span class=\"long-line\">Let\u2019s go, sweetie!</span><br /><span class=\"long-line\">Come with me.</span></p>\n"}, {"title": "Long Trip", "view_node": "/poem/long-trip", "field_author": "<a href=\"/poet/langston-hughes\" hreflang=\"und\">Langston Hughes</a>", "field_date_published": "1926", "body": "<p><span class=\"long-line\">The sea is a wilderness of waves,</span><br /><span class=\"long-line\">A desert of water.</span><br /><span class=\"long-line\">We dip and dive,</span><br /><span class=\"long-line\">Rise and roll,</span><br /><span class=\"long-line\">Hide and are hidden</span><br /><span class=\"long-line\">On the sea. </span><br /><span class=\"long-line\">\u00a0\u00a0\u00a0Day, night,</span><br /><span class=\"long-line\">\u00a0\u00a0\u00a0Night, day,</span><br /><span class=\"long-line\">The sea is a desert of waves,</span><br /><span class=\"long-line\">A wilderness of water.</span></p>\n"}, {"title": "4. ", "view_node": "/poem/4-0", "field_author": "<a href=\"/poet/bell-hooks\" hreflang=\"en\">bell hooks</a>", "field_date_published": "2012", "body": "<p>earth works<br />\nthick brown mud<br />\nclinging pulling<br />\na body down<br />\nhear wounded earth cry<br />\nbequeath to me<br />\nthe hoe the hope<br />\nancestral rights<br />\nto turn the ground over<br />\nto shovel and sift<br />\nuntil history<br />\nrewritten resurrected<br />\nreturns to its rightful owners<br />\na past to claim<br />\nyet another stone lifted to<br />\nthrow against the enemy<br />\nmaking way for new endings<br />\nrandom seeds<br />\nspreading over the hillside<br />\nwild roses<br />\ncome by fierce wind and hard rain<br />\nunleashed furies<br />\nhere in this untouched wood<br />\na dirge a lamentation<br />\nfor earth to live again<br />\nearth that is all at once a grave<br />\na resting place a bed of new beginnings<br />\navalanche of splendor<br />\n\u00a0</p>\n"}, {"title": "A Farewell", "view_node": "/poem/farewell-5", "field_author": "<a href=\"/poet/langston-hughes\" hreflang=\"und\">Langston Hughes</a>", "field_date_published": "1926", "body": "<p><span class=\"long line\">With gypsies and sailors,</span><br /><span class=\"long-line\">Wanderers of the hills and seas,</span><br /><span class=\"long-line\">I go to seek my fortune.</span><br /><span class=\"long-line\">With pious folk and fair</span><br /><span class=\"long-line\">I must have a parting. </span><br /><span class=\"long-line\">But you will not miss me,\u2013\u2013</span><br /><span class=\"long-line\">You who live between the hills</span><br /><span class=\"long-line\">And have never seen the seas. </span></p>\n"}, {"title": "Water Front Streets", "view_node": "/poem/water-front-streets", "field_author": "<a href=\"/poet/langston-hughes\" hreflang=\"und\">Langston Hughes</a>", "field_date_published": "1926", "body": "<p><span class=\"long-line\">The spring is not so beautiful there,\u2013\u2013</span><br /><span class=\"long-line\">\u00a0\u00a0\u00a0But dream ships sail away</span><br /><span class=\"long-line\">To where the spring is wondrous rare</span><br /><span class=\"long-line\">\u00a0\u00a0\u00a0And life is gay.</span></p>\n\n<p><span class=\"long-line\">The spring is not so beautiful there,\u2013\u2013</span><br /><span class=\"long-line\">\u00a0\u00a0\u00a0But lads put out to sea</span><br /><span class=\"long-line\">Who carry beauties in their hearts</span><br /><span class=\"long-line\">\u00a0\u00a0\u00a0And dreams, like me.</span></p>\n"}, {"title": "What Comes", "view_node": "/poem/what-comes", "field_author": "<a href=\"/poet/carolyn-forche\" hreflang=\"und\">Carolyn Forch\u00e9</a>", "field_date_published": "2020", "body": "<blockquote><sup><em>J\u2019ai rapport\u00e9 du d\u00e9sespoir un panier si petit mon amour, qu\u2019on a pu le tresser en osier.<br /><span class=\"long-line\">I brought from despair a basket so small, my love, that it might have been woven of willow.</span></em><br /><span class=\"long-line\">\u00a0\u00a0\u00a0\u00a0\u00a0\u00a0\u00a0\u00a0\u00a0\u00a0\u00a0\u00a0\u00a0\u00a0\u00a0\u00a0\u00a0\u00a0\u00a0\u00a0\u00a0\u00a0\u00a0\u00a0\u00a0\u00a0\u00a0\u00a0\u00a0\u00a0\u00a0\u00a0\u00a0\u00a0\u00a0\u00a0\u00a0\u00a0\u00a0\u00a0\u00a0\u00a0\u00a0\u00a0\u00a0\u00a0\u00a0\u00a0\u00a0\u00a0\u00a0\u00a0\u00a0\u00a0\u00a0\u00a0\u00a0\u00a0\u00a0\u00a0\u00a0\u00a0\u00a0\u00a0\u00a0\u00a0\u00a0\u00a0\u00a0\u00a0\u00a0\u00a0\u00a0\u00a0\u00a0\u00a0\u00a0\u00a0\u00a0\u00a0\u00a0\u00a0\u00a0\u00a0\u00a0\u00a0 \u2014Rene Char</span></sup></blockquote>\n\n<blockquote>\u00a0</blockquote>\n\n<p><span class=\"long-line\">to speak is not yet to have spoken.</span></p>\n\n<p><span class=\"long-line\">the not-yet of a white realm of nothing left</span></p>\n\n<p><span class=\"long-line\">neither for itself nor another</span></p>\n\n<p><span class=\"long-line\">a no-longer already there, along with the arrival of what has been\u00a0 </span></p>\n\n<p><span class=\"long-line\">light and the reverse of light</span></p>\n\n<p><span class=\"long-line\">terror as walking blind along the breaking sea, body in whom I lived</span></p>\n\n<p><span class=\"long-line\">the not-yet of death darkening what it briefly illuminates</span></p>\n\n<p><span class=\"long-line\">an unknown place as between languages</span></p>\n\n<p><span class=\"long-line\">back and forth, breath to breath as a calm</span></p>\n\n<p><span class=\"long-line\">in the surround rises, fireflies in lindens, an ache of pine</span></p>\n\n<p><span class=\"long-line\">you have yourself within you</span></p>\n\n<p><span class=\"long-line\">yourself, you have her, and there is nothing </span></p>\n\n<p><span class=\"long-line\">that cannot be seen</span></p>\n\n<p><span class=\"long-line\">open then to the coming of what comes</span></p>\n"}, {"title": "Toward the End", "view_node": "/poem/toward-end", "field_author": "<a href=\"/poet/carolyn-forche\" hreflang=\"und\">Carolyn Forch\u00e9</a>", "field_date_published": "2020", "body": "<p><span class=\"long-line\">In this archipelago of thought a fog descends, horns of ships to unseen ships, a year</span></p><p><span class=\"long-line\">passing overhead, the cry of a year not knowing where, someone in the aftermath </span></p>\n\n<p><span class=\"long-line\">\u00a0</span></p><p><span class=\"long-line\">who once you knew, the one you were, a little frisson of recognition,</span></p><p><span class=\"long-line\">then just like that\u2014gone, and no one for hours, a sound you thought you heard</span></p>\n\n<p><span class=\"long-line\">\u00a0</span></p><p><span class=\"long-line\">but in waking darkness is not heard again, two sharp knocks on the door, death</span></p><p><span class=\"long-line\">it was you said but now nothing, islands, places you have been, the sea the uncertain,</span></p>\n\n<p><span class=\"long-line\">\u00a0</span></p><p><span class=\"long-line\">ghosts calling out, lost as they are, no one you knew in life, a moon above</span></p><p><span class=\"long-line\">the whole of it, like the light at the bottom of a well opening in the iced air</span></p>\n\n<p><span class=\"long-line\">\u00a0</span></p><p><span class=\"long-line\">where you have gone under and come back light, no longer tethered </span></p><p><span class=\"long-line\">to your own past, and were it not for the weather of trance, of haze and murk, you could </span></p>\n\n<p><span class=\"long-line\">\u00a0</span></p><p><span class=\"long-line\">see everything at once: every moment you have lived or place you have been, without </span></p><p><span class=\"long-line\">confusion or bafflement, and you would be one person. You would be one person again.</span></p>"}], "pager": {"current_page": 47, "total_items": "13248", "total_pages": 663, "items_per_page": 20}}