{"rows": [{"title": "King Lear", "view_node": "/poem/king-lear", "field_author": "<a href=\"/poet/lisa-sewell\" hreflang=\"und\">Lisa Sewell</a>", "field_date_published": "2014", "body": " <p>For the father who wakes<br />and wakes himself, eyes full of himself<br /><br />and for the one, who when the sun descends<br />slips into the stormy<br /><br /><em>smite flat the rotundity o\u2019 the world.</em><br /><br />Done in with conspiracy and murder<br />in his sleep (his eye-tooth finally unfixed<br />and tucked into a cheek for safekeeping)<br /><br />he dreams of a three-armed garment<br />unable to wonder or comprehend<br />how he has come to this blurred ridge and broken\u2014<br /><br />I try to fix in my mind, his shining eyes<br />the terrors he shut his lips against<br /><br />and his early morning utterly lucid accusation:<br />\u201cI never would have believed,\u201d he said to me<br />\u201cthat you would be among them.\u201d</p> "}, {"title": "Upon Hearing the News You Buried Our Dog", "view_node": "/poem/upon-hearing-news-you-buried-our-dog", "field_author": "<a href=\"/poet/aimee-nezhukumatathil\" hreflang=\"und\">Aimee Nezhukumatathil</a>", "field_date_published": "2014", "body": " <p>I have faith in the single glossy capsule of a butterfly egg.<br />I have faith in the way a wasp nest is never quiet<br /><br />and never wants to be. I have faith that the pile of forty<br />painted turtles balanced on top of each other will not fall<br /><br />as the whole messy mass makes a scrabble-run<br />for the creek and away from a fox\u2019s muddy paws.<br /><br />I have been thinking of you on these moonless nights\u2014<br />nights so full of blue fur and needle-whiskers, I don\u2019t dare<br /><br />linger outside for long. I wonder if scientists could classify<br />us a binary star\u2014something like <em>Albireo</em>, four-hundred<br /><br />light years away. I love that this star is actually two\u2014<br />one blue, one gold, circling each other, never touching\u2014<br /><br />a single star soldered and edged in two colors if you spy it<br />on a clear night in July. And if this evening, wherever you are,<br /><br />brings you face to face with a raccoon or possum\u2014<br />be careful of the teeth and all that wet bite.<br /><br />During the darkest part of the night, teeth grow longer<br />in their mouths. And if the oleander spins you still<br /><br />another way\u2014take a turn and follow it. It will help you avoid<br />the spun-light sky, what singularity we might\u2019ve become.</p> "}, {"title": "Sea and Rain: Lake Michigan", "view_node": "/poem/sea-and-rain-lake-michigan", "field_author": "<a href=\"/poet/keith-taylor\" hreflang=\"und\">Keith Taylor</a>", "field_date_published": "2014", "body": " <p><em>after James McNeill Whistler, 1865</em><br /><br />There is a dance at water\u2019s edge,<br />a movement between the lake, its sand<br />and the horizon where lake becomes cloud.<br /><br />Between those lines our world\u2019s<br />a thin wash of muted tones, beige<br />and gray with a hint of white,<br /><br />almost abstract, until the dancer<br />steps out into the pool.<br />She makes the whole thing real.</p> "}, {"title": "Another Poem for Mothers", "view_node": "/poem/another-poem-mothers", "field_author": "<a href=\"/poet/erin-belieu\" hreflang=\"und\">Erin Belieu</a>", "field_date_published": "2014", "body": " <p><em>Mother, I'm trying<br />to write<br />a poem to you\u2014</em><br /><br />which is how most<br />poems to mothers must<br />begin\u2014<em>or, What I've wanted<br />to say, Mother.</em>..but we<br />as children of mothers,<br />even when mothers ourselves,<br /><br />cannot bear our poems<br />to them. Poems to<br />mothers make us feel<br /><br />little again. How to describe<br />that world that mothers spin<br />and consume and trap<br /><br />and love us in, that spreads<br />for years and men and miles?<br />Those particular hands that could<br /><br />smooth anything: butter on bread,<br />cool sheets or weather. It's<br />the wonder of them, good or bad,<br /><br />those mother-hands that pet<br />and shape and slap,<br />that sew you together<br />the pieces of a better house<br />or life in which you'll try<br />to live. Mother,<br /><br />I've done no better<br />than the others, but for now,<br />here is your clever failure.</p> "}, {"title": "On Being an Artist", "view_node": "/poem/being-artist", "field_author": "<a href=\"/poet/noelle-kocot\" hreflang=\"und\">Noelle Kocot</a>", "field_date_published": "2014", "body": " <p>Saturn seems habitual,<br />The way it rages in the sky<br />When we're not looking.<br />On this note, the trees still sing<br />To me, and I long for this<br />Mottled world. Patterns<br />Of the lamplight on this leather,<br />The sun, listening.<br />My brother, my sister,<br />I was born to tell you certain<br />Things, even if no one<br />Really listens. Give it back<br />To me, as the bird takes up<br />The whole sky, ruined with<br />Nightfall. If I can remember<br />The words in the storm,<br />I will be well enough to sit<br />Here with you a little while.</p> "}, {"title": "Money Is an Energy", "view_node": "/poem/money-energy", "field_author": "<a href=\"/poet/justin-marks\" hreflang=\"und\">Justin Marks</a>", "field_date_published": "2014", "body": "<p><span class=\"long-line\">Everybody is already</span><br /><span class=\"long-line\">someone else</span><br /><span class=\"long-line\">An existential tag line</span><br /><br /><span class=\"long-line\">Money is current</span><br /><br /><span class=\"long-line\">I would like to not live</span><br /><span class=\"long-line\">paycheck to paycheck</span><br /><br /><span class=\"long-line\">You could make a pun on currency</span><br /><span class=\"long-line\">but not quite</span><br /><br /><span class=\"long-line\">Money is an energy nonetheless</span><br /><br /><span class=\"long-line\">Dark space \u00a0 \u00a0 \u00a0 \u00a0Dark water</span><br /><br /><span class=\"long-line\">A long silent drive</span><br /><br /><span class=\"long-line\">Dark matter(s)</span><br /><br /><span class=\"long-line\">Driving is my personality</span><br /><br /><span class=\"long-line\">The methods of one wor(l)d revealing</span><br /><span class=\"long-line\">the hidden harmonies of another</span><br /><br /><span class=\"long-line\">Prayer card \u00a0 \u00a0 \u00a0Lotto ticket \u00a0 \u00a0 \u00a0You occupy</span><br /><span class=\"long-line\">my pocket</span><br /><br /><span class=\"long-line\">My payment has not arrived</span></p>\n"}, {"title": "The Fire", "view_node": "/poem/fire", "field_author": "<a href=\"/poet/katie-ford\" hreflang=\"und\">Katie Ford</a>", "field_date_published": "2014", "body": " <p>When a human is asked about a particular fire,<br />she comes close:<br />then it is too hot,<br />so she turns her face\u2014<br /><br />and that\u2019s when the forest of her bearable life appears,<br />always on the other side of the fire. The fire<br />she\u2019s been asked to tell the story of,<br />she has to turn from it, so the story you hear<br />is that of pines and twitching leaves<br />and how her body is like neither\u2014<br /><br />all the while there is a fire<br />at her back<br />which she feels in fine detail,<br />as if the flame were a dremel<br />and her back its etching glass.<br /><br />You will not know all about the fire<br />simply because you asked.<br />When she speaks of the forest<br />this is what she is teaching you,<br /><br />you who thought you were her master.</p> "}, {"title": "Translator\u2019s Confession, 3 a.m.", "view_node": "/poem/translators-confession-3-am", "field_author": "<a href=\"/poet/idra-novey\" hreflang=\"und\">Idra Novey</a>", "field_date_published": "2014", "body": " <p>Dear C, I dropped<br /><br />your sentence in hot water.<br />I talked to the boil. I said Here<br /><br />is my thumb for you to burn.<br /><br />Here is the soft heart<br />of my hand and my arm and<br /><br />the nape of my wreck.<br /><br />I said <em>vapor, just take me.</em><br />I\u2019m done burning<br /><br />with these pages. Being invisible<br />doesn\u2019t mean a person<br /><br />won\u2019t blister, doesn\u2019t mean<br /><br />the blisters won\u2019t fill<br />with pockets of water<br /><br />or when lanced the rawest flesh<br /><br />won\u2019t emerge. First the word<br />then the murky leak<br /><br />begins\u2014what another mind<br />may scrape against<br /><br />but never skin.</p> "}, {"title": "From Tanka Diary", "view_node": "/poem/tanka-diary", "field_author": "<a href=\"/poet/harryette-mullen\" hreflang=\"und\">Harryette Mullen</a>", "field_date_published": "2014", "body": "<p><span class=\"long-line\">The botanical garden is just as I remember,</span><br /><span class=\"long-line\">although it is certain that everything</span><br /><span class=\"long-line\">has changed since my last visit.</span><br /><br /><span class=\"long-line\">How many hilarious questions these fuzzy</span><br /><span class=\"long-line\">fiddleheads are inquiring of spring</span><br /><span class=\"long-line\">will be answered as green ferns unfurl?</span><br /><br /><span class=\"long-line\">Walking the path, I stop to pick up</span><br /><span class=\"long-line\">bleached bark from a tree, curled into</span><br /><span class=\"long-line\">a scroll of ancient wisdom I am unable to read.</span><br /><br /><span class=\"long-line\">Even in my dreams I\u2019m hiking</span><br /><span class=\"long-line\">these mountain trails expecting to find a rock</span><br /><span class=\"long-line\">that nature has shaped to remind me of a heart.</span></p>\n"}, {"title": "Let\u2019s Get Out of Here", "view_node": "/poem/lets-get-out-here", "field_author": "<a href=\"/poet/corey-zeller\" hreflang=\"en\">Corey Zeller</a>", "field_date_published": "2014", "body": " <pre>&#13;\nThe river is a fish&#13;\nand my tongue &#13;\nis white paper&#13;\nyou draw&#13;\nyour hand on&#13;\nand the sounds &#13;\nkeys make&#13;\non the waist &#13;\nof a janitor&#13;\nin an empty building&#13;\non the night of your birth&#13;\nwhen the moon was&#13;\na live bird pinned &#13;\nto a girl\u2019s chest&#13;\nand the color &#13;\nof a beat-up door &#13;\nthat hides a paint chipped &#13;\nlife where we lick the throats&#13;\nof passing trains &#13;\nand wear bright pills &#13;\nover our faces &#13;\nlike ghost masks&#13;\nand move the tiny ghosts &#13;\nthat live in us&#13;\nlike dominos. &#13;\n</pre>&#13;\n "}, {"title": "Burial", "view_node": "/poem/burial-1", "field_author": "<a href=\"/poet/cathy-linh-che\" hreflang=\"en\">Cathy Linh Che</a>", "field_date_published": "2014", "body": " <pre>&#13;\nThere is the rain, the odor of fresh earth, and you, &#13;\n        grandmother, &#13;\n\tin a box. I bury the distance, 22 years of not meeting you &#13;\n\t\tand your ruined hands. &#13;\n&#13;\nI bury your hair, parted to the side and pinned back, &#13;\n        \tyour \u00e1o da\u0300i of crushed velvet, &#13;\n\t\tthe implements you used to farm, &#13;\n&#13;\nthe stroke which claimed your right side,&#13;\n\tthe land you gave up when you remarried, &#13;\n\t\tyour grief over my grandfather's passing, &#13;\n\t\t&#13;\nthe war that evaporated your father's leg, &#13;\n\tthe war that crushed your bowls, &#13;\n\t\tyour childhood home razed &#13;\n&#13;\nby the rutted wheels &#13;\n\tof an American tank\u2014&#13;\n\t\tI bury it all.&#13;\n&#13;\nYou learned that nothing stays in this life, &#13;\n\tnot your daughter, not your uncle,&#13;\n\t\tnot even the dignity of leaving this world&#13;\n&#13;\nwith your pants on. The bed sores on your hips&#13;\n\twere clean and sunken in. What did I know, child &#13;\n\t\twho heard you speak only once, &#13;\n&#13;\nand when we met for the first time,&#13;\n\ttears watered the side of your face.&#13;\n\t\tI held your hand and said,&#13;\n&#13;\n<i>ba\u0300 ngoa\u0323i, ba\u0300 ngoa\u0323i,</i>&#13;\n&#13;\nTen years later, I returned. &#13;\n\t It rained on your gravesite.&#13;\n\t\tIn the picture above your tomb, &#13;\n\t\t&#13;\nyou looked just like my mother. &#13;\n\tWe lit the joss sticks and planted them. &#13;\n\t\tWe kept the encroaching grass at bay.</pre>&#13;\n "}, {"title": "Matrimonial Toast", "view_node": "/poem/matrimonial-toast", "field_author": "<a href=\"/poet/ken-white\" hreflang=\"en\">Ken White</a>", "field_date_published": "2014", "body": " <pre>\nMy dear near-to-hearts, commoners and peers, miscreants,\nCluniacs and other such habitu\u00e9s, the day of my wedding\nis every day. Let us be thankful for the long\nperpetually animate hands of John Berryman\n\ntweaking the guylines of his Pal, Mr. Bones. And let us hope \nthat if he were here he might extend that glorious pallor\nof his index finger, that skeletal and elegant baton\ntoward the podium to bless this union \n                                                         over here\n                                                           and other such wonders \n                                                              we\u2019re sitting on.\n</pre>\n "}, {"title": "Shift #5", "view_node": "/poem/shift-5", "field_author": "<a href=\"/poet/ali-liebegott\" hreflang=\"en\">Ali Liebegott</a>", "field_date_published": "2014", "body": " <pre>\n<em>for Seamus Heaney </em>\n\n \na box of coconut water \ntwo cans of coconut milk \n\nso many looking for help \n\nsome people care when a poet dies \n\na poem is a conscience \na report card, a confession: \n\ntoday my lies were a motor that spun the Earth \n\nhow can you get truth from a hill \nwhen I am the continent that drifts? \n\nhow can I taste what I\u2019m mourning \nwhen soon everything will be salt from the sea? \n\n \n<em>\u20148/30/13, Register 6 \n          1 PM\u20145:15 p.m.</em>\n</pre>\n "}, {"title": "Bread and Cake", "view_node": "/poem/bread-and-cake", "field_author": "<a href=\"/poet/kevin-prufer\" hreflang=\"und\">Kevin Prufer</a>", "field_date_published": "2014", "body": " <pre>\nThe black Mercedes\nwith the Ayn Rand \nvanity plate\ncrashed through \nthe glass bus stop\nand came to rest \namong a bakery\u2019s \nupturned tables.\nIn the stunned silence,  \nfat pigeons descended \nto the wreckage\nand pecked at \nthe scattered\nbread and cake.\nThe driver slept,\nhead to the wheel.\nThe pigeons grew\nrich with crumbs.\nThe broken glass winked.\nGod grinned.</pre>\n "}, {"title": "Apostate ", "view_node": "/poem/apostate", "field_author": "<a href=\"/poet/leonie-adams\" hreflang=\"und\">L\u00e9onie Adams</a>", "field_date_published": "1921", "body": " <pre>\nFrom weariness I looked out on the stars\n   And there beheld them, fixed in throbbing joy, \nNor racked by such mad dance of moods as mars\n   For us each moment\u2019s grace with swift alloy. \nAnd as they pierced the heavens\u2019 serene deep\n   An envy of that one consummate part\nSwept me, who mock. Whether I laugh or weep,\n   Some inner silences are at my heart.\nCold shame is mine for all the masks I wear,\n   Belying that in me which shines and sings\nBefore Him, to face down man\u2019s alien stare\u2014\n   A graceless puppet on unmeaning strings, \nI that looked out, and saw, and was at rest,\n   Stars, and faint wings, rose-etched along the west.</pre>\n "}, {"title": "Burial", "view_node": "/poem/burial-0", "field_author": "<a href=\"/poet/robert-mcalmon\" hreflang=\"en\">Robert McAlmon</a>", "field_date_published": "1921", "body": "<p><span class=\"long-line\">Geometry is a perfect religion, </span><br /><span class=\"long-line\">Axiom after axiom:</span><br /><span class=\"long-line\">One proves a way into infinity</span><br /><span class=\"long-line\">And logic makes obeisance at command. </span></p>\n\n<p><span class=\"long-line\">Outside of the triangle, cubes, and polystructures </span><br /><span class=\"long-line\">There is restless pummeling, pounding and taunting. </span><br /><span class=\"long-line\">The end is diffused into channels</span><br /><span class=\"long-line\">Every step into eternity\u2014and steps are endless.</span></p>\n"}, {"title": "Friendship After Love", "view_node": "/poem/friendship-after-love", "field_author": "<a href=\"/poet/ella-wheeler-wilcox\" hreflang=\"und\">Ella Wheeler Wilcox</a>", "field_date_published": "2014", "body": " <pre>\nAfter the fierce midsummer all ablaze\n    Has burned itself to ashes, and expires\n    In the intensity of its own fires,\nThere come the mellow, mild, St. Martin days\nCrowned with the calm of peace, but sad with haze.\n    So after Love has led us, till he tires\n    Of his own throes, and torments, and desires,\nComes large-eyed friendship: with a restful gaze,\nHe beckons us to follow, and across\n    Cool verdant vales we wander free from care.\n    Is it a touch of frost lies in the air?\nWhy are we haunted with a sense of loss?\nWe do not wish the pain back, or the heat;\nAnd yet, and yet, these days are incomplete.</pre>\n "}, {"title": "Train-Mates", "view_node": "/poem/train-mates", "field_author": "<a href=\"/poet/witter-bynner\" hreflang=\"und\">Witter Bynner</a>", "field_date_published": "1913", "body": " <div>Outside hove Shasta, snowy height on height,<span class=\"Apple-tab-span\" style=\"white-space:pre\"> </span></div><div>A glory; but a negligible sight,<span class=\"Apple-tab-span\" style=\"white-space:pre\"> </span></div><div>For you had often seen a mountain-peak<span class=\"Apple-tab-span\" style=\"white-space:pre\"> </span></div><div>But not my paper. So we came to speak...<span class=\"Apple-tab-span\" style=\"white-space:pre\"> </span></div><div>\u00a0\u00a0</div><div>A smoke, a smile,\u2014a good way to commence</div><div>The comfortable exchange of difference!<span class=\"Apple-tab-span\" style=\"white-space:pre\"> </span></div><div>You a young engineer, five feet eleven,<span class=\"Apple-tab-span\" style=\"white-space:pre\"> </span></div><div>Forty-five chest, with football in your heaven,<span class=\"Apple-tab-span\" style=\"white-space:pre\"> </span></div><div>Liking a road-bed newly built and clean,<span class=\"Apple-tab-span\" style=\"white-space:pre\"> </span></div><div>Your fingers hot to cut away the green</div><div>Of brush and flowers that bring beside a track<span class=\"Apple-tab-span\" style=\"white-space:pre\"> </span></div><div>The kind of beauty steel lines ought to lack,\u2014<span class=\"Apple-tab-span\" style=\"white-space:pre\"> </span></div><div>And I a poet, wistful of my betters,<span class=\"Apple-tab-span\" style=\"white-space:pre\"> </span></div><div>Reading George Meredith's high-hearted letters,<span class=\"Apple-tab-span\" style=\"white-space:pre\"> </span></div><div>Joining betweenwhile in the mingled speech</div><div>Of a drummer, circus-man, and parson, each<span class=\"Apple-tab-span\" style=\"white-space:pre\"> </span></div><div>Absorbing to himself\u2014as I to me<span class=\"Apple-tab-span\" style=\"white-space:pre\"> </span></div><div>And you to you\u2014a glad identity!<span class=\"Apple-tab-span\" style=\"white-space:pre\"> </span></div><div>\u00a0\u00a0</div><div>After a time, when others went away,<span class=\"Apple-tab-span\" style=\"white-space:pre\"> </span></div><div>A curious kinship made us choose to stay,</div><div>Which I could tell you now; but at the time<span class=\"Apple-tab-span\" style=\"white-space:pre\"> </span></div><div>You thought of baseball teams and I of rhyme,<span class=\"Apple-tab-span\" style=\"white-space:pre\"> </span></div><div>Until we found that we were college men<span class=\"Apple-tab-span\" style=\"white-space:pre\"> </span></div><div>And smoked more easily and smiled again;<span class=\"Apple-tab-span\" style=\"white-space:pre\"> </span></div><div>And I from Cambridge cried, the poet still:</div><div>\"I know your fine Greek theatre on the hill<span class=\"Apple-tab-span\" style=\"white-space:pre\"> </span></div><div>At Berkeley!\" With your happy Grecian head<span class=\"Apple-tab-span\" style=\"white-space:pre\"> </span></div><div>Upraised, \"I never saw the place,\" you said\u2014<span class=\"Apple-tab-span\" style=\"white-space:pre\"> </span></div><div>\"Once I was free of class, I always went<span class=\"Apple-tab-span\" style=\"white-space:pre\"> </span></div><div>Out to the field.\"</div><div>\u00a0\u00a0</div><div>Young engineer, you meant<span class=\"Apple-tab-span\" style=\"white-space:pre\"> </span></div><div>As fair a tribute to the better part<span class=\"Apple-tab-span\" style=\"white-space:pre\"> </span></div><div>As ever I did. Beauty of the heart<span class=\"Apple-tab-span\" style=\"white-space:pre\"> </span></div><div>Is evident in temples. But it breathes<span class=\"Apple-tab-span\" style=\"white-space:pre\"> </span></div><div>Alive where athletes quicken curly wreaths,</div><div>Which are the lovelier because they die.<span class=\"Apple-tab-span\" style=\"white-space:pre\"> </span></div><div>You are a poet quite as much as I,<span class=\"Apple-tab-span\" style=\"white-space:pre\"> </span></div><div>Though differences appear in what we do,<span class=\"Apple-tab-span\" style=\"white-space:pre\"> </span></div><div>And I an athlete quite as much as you.<span class=\"Apple-tab-span\" style=\"white-space:pre\"> </span></div><div>Because you half-surmise my quarter-mile</div><div>And I your quatrain, we could greet and smile.<span class=\"Apple-tab-span\" style=\"white-space:pre\"> </span></div><div>Who knows but we shall look again and find<span class=\"Apple-tab-span\" style=\"white-space:pre\"> </span></div><div>The circus-man and drummer, not behind<span class=\"Apple-tab-span\" style=\"white-space:pre\"> </span></div><div>But leading in our visible estate\u2014<span class=\"Apple-tab-span\" style=\"white-space:pre\"> </span></div><div>As discus-thrower and as laureate?</div> "}, {"title": "Undressing You", "view_node": "/poem/undressing-you", "field_author": "<a href=\"/poet/witter-bynner\" hreflang=\"und\">Witter Bynner</a>", "field_date_published": "1929", "body": " <div>Fiercely I remove from you</div><div>All the little vestiges\u2014</div><div>Garments that confine you,</div><div>Things that touch the flesh,</div><div>The wool and the silk</div><div>And the linen that entwine you,</div><div>Tear them all away from you,</div><div>Bare you from the mesh.</div><div>And now I have you as you are,</div><div>Nothing to encumber you\u2014</div><div>But now I see, caressing you,</div><div>Colder hands than mine.</div><div>They take away your flesh and bone,</div><div>And, utterly undressing you,</div><div>They tear you from your beauty</div><div>And they leave no sign.\u00a0</div> "}, {"title": "The Hills, 11", "view_node": "/poem/hills-11", "field_author": "<a href=\"/poet/kate-durbin\" hreflang=\"und\">Kate Durbin</a>", "field_date_published": "2014", "body": " <pre>\n\u201cLeft this city for a day,\u201d sings The Feeling. Shot of two men from the waist down on a sunny sidewalk. One in surf shorts holds a blue Powerade; one in white dress pants walks a Lhasa Apso. Shot of a crowd of people on the sidewalk from the waist up. Shot of two blonde girls in pink tank tops and short white shorts, walking toward the camera. They are slightly out of focus. Their bodies are fit and tan and they are wearing clogs. Close-up of a black stretch limo with a white Playboy bunny emblem on the side. The limo passes the camera. A tan BMW passes the camera. \u201cYou took me southwards on a plane and showed me Spain,\u201d continues the song. A drilling sound joins the song. Shot of the outside of a beige apartment complex. The sign says: \u201cHeidi and Spencer\u2019s Apartment, Hollywood, CA.\u201d Shot of a blender whirring with purple liquid inside. A man\u2019s tan hand presses the top of the blender down. The machine is industrial. Next to the blender are a blue plastic cup, a white container of protein Milk mix, and a bottle of Bragg\u2019s Liquid Amino Acids. Behind the blender are two bottles of champagne. Wider angle shot of the blender and the man with the hand. His hair is curly blonde and he is wearing a black t-shirt with unreadable white letters. White letters appear in the right hand bottom corner of the screen. They say: \u201cSpencer, Heidi\u2019s Boyfriend.\u201d  \u201cI liked,\u201d begins a girl\u2019s voice. Shot of Heidi\u2019s face. She is not wearing makeup. The screen says \u201cHeidi.\u201d \u201cAll your friends last night,\u201d Heidi continues in a sing-song voice. She bats her eyelashes and shrugs. Shot of Spencer in the kitchen. He is looking down at the counter and doing something below the camera\u2019s view. \u201cYou know, they love you,\u201d he says, smiling at the counter. Shot of Heidi. She has on a grey hoodie with a navy rose print. \u201cThey seem very nice, all of them,\u201d she says. She waves some papers mostly out of the camera\u2019s view. Behind her is a large flat screen TV, turned off. Shot of Spencer. \u201cOh, Frankie invited us to his birthday party at Les Deux tonight,\u201d he says. There is a sound of papers shuffling. Shot of Heidi on a cream couch. The couch appears to have a raised floral print. Heidi holds letters in her hand. \u201cOh yeah?\u201d she says. Heidi shuffles the letters around. Several of them appear to be opened. Shot of Spencer. He stares at the bottle of Liquid Aminos he is holding in front of his face. \u201cIs um Lauren going?\u201d Heidi asks. Spencer puts the bottle down. Shot of Heidi. She looks at her French-manicured fingernails, then makes a fist and twirls it. Shot of Spencer. It is now possible to read the letters on his shirt. They say \u201cInnovation Management.\u201d \u201cUh she actually just called me, I just missed her call uh uh I\u2019ll call her back and ask her and see what she says,\u201d he says, smiling. His teeth are white. He looks down at something he is doing on the counter. \u201cI wish that Audrina,\u201d Heidi interrupts. Shot of Heidi on the couch. \u201c\u2014and Lauren would have come last night,\u201d Heidi finishes. She twirls her hand, mostly out of the frame.  Shot of Spencer in the kitchen. He is moving around a lot. \u201cI mean I totally accept that she doesn\u2019t like me,\u201d Spencer says. Shot of Heidi. \u201cYeah,\u201d says Heidi, grimacing. \u201cBut she shouldn\u2019t take that out on you,\u201d continues Spencer. \u201cI know,\u201d says Heidi, furrowing her brow. \u201cOur friendship shouldn\u2019t suffer from it,\u201d she mumbles, looking down. Punky guitar music begins. \u201cThere\u2019s something wrong here,\u201d sings Cori Yarckin. Shot of Spencer in the kitchen, hands pressed to the counter. He looks to the side then to the front again. He opens and shuts his mouth. Shot of Heidi. She shakes her head. Her eyes shift back and forth. </pre>\n "}], "pager": {"current_page": 406, "total_items": "13248", "total_pages": 663, "items_per_page": 20}}