{"rows": [{"title": "The Guarded Wound", "view_node": "/poem/guarded-wound", "field_author": "<a href=\"/poet/adelaide-crapsey\" hreflang=\"und\">Adelaide Crapsey</a>", "field_date_published": "1915", "body": " <pre>\nIf it \nWere lighter touch \nThan petal of flower resting \nOn grass, oh still too heavy it were, \nToo heavy! </pre>\n "}, {"title": "First Fig", "view_node": "/poem/first-fig", "field_author": "<a href=\"/poet/edna-st-vincent-millay\" hreflang=\"und\">Edna St. Vincent Millay</a>", "field_date_published": "1920", "body": "<p><span class=\"long-line\">My candle burns at both ends;</span><br /><span class=\"long-line\">\u00a0 \u00a0 It will not last the night;</span><br /><span class=\"long-line\">But ah, my foes, and oh, my friends\u2014</span><br /><span class=\"long-line\">\u00a0 \u00a0 It gives a lovely light!</span></p>\n"}, {"title": "Babylon", "view_node": "/poem/babylon", "field_author": "<a href=\"/poet/robert-graves\" hreflang=\"und\">Robert Graves</a>", "field_date_published": "1918", "body": " <pre>\nThe child alone a poet is:\nSpring and Fairyland are his.\nTruth and Reason show but dim,\nAnd all's poetry with him.\nRhyme and music flow in plenty\nFor the lad of one-and-twenty,\nBut Spring for him is no more now\nThan daisies to a munching cow;\nJust a cheery pleasant season,\nDaisy buds to live at ease on.\nHe's forgotten how he smiled\nAnd shrieked at snowdrops when a child,\nOr wept one evening secretly\nFor April's glorious misery.\nWisdom made him old and wary\nBanishing the Lords of Faery.\nWisdom made a breach and battered\nBabylon to bits: she scattered\nTo the hedges and ditches\nAll our nursery gnomes and witches.\nLob and Puck, poor frantic elves,\nDrag their treasures from the shelves.\nJack the Giant-killer's gone,\nMother Goose and Oberon,\nBluebeard and King Solomon.\nRobin, and Red Riding Hood\nTake together to the wood,\nAnd Sir Galahad lies hid\nIn a cave with Captain Kidd.\nNone of all the magic hosts,\nNone remain but a few ghosts\nOf timorous heart, to linger on\nWeeping for lost Babylon.</pre>\n "}, {"title": "The Caterpillar", "view_node": "/poem/caterpillar", "field_author": "<a href=\"/poet/robert-graves\" hreflang=\"und\">Robert Graves</a>", "field_date_published": "1918", "body": " <pre>\nUnder this loop of honeysuckle,\nA creeping, coloured caterpillar,\nI gnaw the fresh green hawthorn spray,\nI nibble it leaf by leaf away.\n\nDown beneath grow dandelions,\nDaisies, old-man's-looking-glasses;\nRooks flap croaking across the lane.\nI eat and swallow and eat again.\n\nHere come raindrops helter-skelter;\nI munch and nibble unregarding:\nHawthorn leaves are juicy and firm.\nI'll mind my business: I'm a good worm.\n\nWhen I'm old, tired, melancholy,\nI'll build a leaf-green mausoleum\nClose by, here on this lovely spray,\nAnd die and dream the ages away.\n\nSome say worms win resurrection,\nWith white wings beating flitter-flutter,\nBut wings or a sound sleep, why should I care?\nEither way I'll miss my share.\n\nUnder this loop of honeysuckle,\nA hungry, hairy caterpillar,\nI crawl on my high and swinging seat,\nAnd eat, eat, eat\u2014as one ought to eat.</pre>\n "}, {"title": "The Phoenix", "view_node": "/poem/phoenix", "field_author": "<a href=\"/poet/hafez\" hreflang=\"und\">Hafez</a>", "field_date_published": "1876", "body": " <pre>My phoenix long ago secured \n   His nest in sky-vault's cope; \nIn the body's cage immured, \n   He is weary of life's hope. \n\nRound and round this heap of ashes \n   Now flies the bird amain, \nBut in that odorous niche of heaven \n   Nestles the bird again. \n\nOnce flies he upward, he will perch \n   On Tuba's golden bough: \nHis home is on that fruited arch \n   Which cools the blest below. \n\nIf over this world of ours \n   His wings my phoenix spread, \nHow gracious falls on land and sea \n   The soul-refreshing shade! \n\nEither world inhabits he, \n   Sees oft below him planets roll; \nHis body is all of air compact, \n   Of Allah's love his soul.</pre>\n "}, {"title": "See How the Roses Burn!", "view_node": "/poem/see-how-roses-burn", "field_author": "<a href=\"/poet/hafez\" hreflang=\"und\">Hafez</a>", "field_date_published": "1858", "body": " <pre>\nSee how the roses burn!\n   Bring wine to quench the fire!\nAlas! the flames come up with us,\u2014\n   We perish with desire.</pre>\n "}, {"title": "Dregs", "view_node": "/poem/dregs", "field_author": "<a href=\"/poet/cesar-vallejo\" hreflang=\"und\">C\u00e9sar Vallejo</a>", "field_date_published": "2007", "body": " <pre>\n     This afternoon it is raining, as never before; and I \nhave no desire to live, my heart. \n\n     This afternoon is sweet. Why should it not be? \nDressed in grace and pain; dressed like a woman. \n\n     This afternoon in Lima it is raining. And I recall \nthe cruel caverns of my ingratitude; \nmy block of ice over her poppy, \nstronger than her \"Don't be this way!\"\n\n     My violent black flowers; and the barbaric  \nand terrible stoning; and the glacial distance. \nAnd the silence of her dignity \nwith burning holy oils will put all end to it. \n\n     So this afternoon, as never before, I am \nwith this owl, with this heart. \n\n     Other women go by; and seeing me so sad, \nthey take on a bit of you \nin the abrupt wrinkle of my deep remorse. \n\n     This afternoon it is raining, raining hard. And I\nhave no desire to live, my heart!</pre>\n "}, {"title": "Weary Rings", "view_node": "/poem/weary-rings", "field_author": "<a href=\"/poet/cesar-vallejo\" hreflang=\"und\">C\u00e9sar Vallejo</a>", "field_date_published": "2007", "body": "<p><span class=\"long-line\">\u00a0 \u00a0 \u00a0 \u00a0There are desires to return, to love, to not disappear, </span><br /><span class=\"long-line\">and there are desires to die, fought by two </span><br /><span class=\"long-line\">opposing waters that have never isthmused.</span></p>\n\n<p><span class=\"long-line\">\u00a0\u00a0\u00a0\u00a0\u00a0\u00a0\u00a0There are desires for a great kiss that would shroud Life,</span><br /><span class=\"long-line\">one that ends in the Africa of a fiery agony, </span><br /><span class=\"long-line\">a suicide! </span></p>\n\n<p><span class=\"long-line\">\u00a0\u00a0\u00a0\u00a0\u00a0\u00a0\u00a0There are desires to. . .have no desires, Lord; </span><br /><span class=\"long-line\">I point my deicidal finger at you: </span><br /><span class=\"long-line\">there are desires to not have had a heart. </span></p>\n\n<p><span class=\"long-line\">\u00a0\u00a0\u00a0\u00a0\u00a0\u00a0\u00a0Spring returns, returns and will depart. And God, </span><br /><span class=\"long-line\">bent in time, repeats himself, and passes, passes </span><br /><span class=\"long-line\">with the spinal column of the Universe on his back. </span></p>\n\n<p><span class=\"long-line\">\u00a0\u00a0\u00a0\u00a0\u00a0\u00a0\u00a0When my temples beat their lugubrious drum, </span><br /><span class=\"long-line\">when the dream engraved on a dagger aches me, </span><br /><span class=\"long-line\">there are desires to be left standing in this verse!</span></p>\n"}, {"title": "LXI", "view_node": "/poem/lxi", "field_author": "<a href=\"/poet/cesar-vallejo\" hreflang=\"und\">C\u00e9sar Vallejo</a>", "field_date_published": "2007", "body": " <pre>\n    Tonight I get down from my horse, \nbefore the door of the house, where \nI said farewell with the cock's crowing.\nIt is shut and no one responds. \n\n    The stone bench on which mama gave birth \nto my older brother, so he could saddle \nbacks I had ridden bare, \nthrough lanes, past hedges, a village boy; \nthe bench on which I left my heartsick childhood \nyellowing in the sun ... And this mourning \nthat frames the portal? \n\n    God in alien peace, \nthe beast sneezes, as if calling too; \nnoses about, prodding the cobbles. Then doubts,\nwhinnies, \nhis ears all ears. \n\n    Papa must be up praying, and perhaps\nhe will think I am late. \nMy sisters, humming their simple, \nbubblish illusions, \npreparing for the approaching holy day,\nand now it's almost here. \nI wait, I wait, my heart \nan egg at its moment, that gets blocked. \n\n    Large family that we left \nnot long ago, no one awake now, and not even a candle \nplaced on the altar so that we might return. \n\n    I call again, and nothing. \nWe fall silent and begin to sob, and the animal \nwhinnies, keeps on whinnying. \n\n    They're all sleeping forever, \nand so nicely, that at last \nmy horse dead-tired starts nodding \nin his turn, and half-asleep, with each pardon, says \nit's all right, everything is quite all right.</pre>\n "}, {"title": "XIII", "view_node": "/poem/xiii", "field_author": "<a href=\"/poet/cesar-vallejo\" hreflang=\"und\">C\u00e9sar Vallejo</a>", "field_date_published": "2007", "body": " <pre>\n    I think about your sex.\nMy heart simplified, I think about your sex,\nbefore the ripe daughterloin of day.\nI touch the bud of joy, it is in season.\nAnd an ancient sentiment dies\ndegenerated into brains.\n\n    I think about your sex, furrow more prolific\nand harmonious than the belly of the Shadow,\nthough Death conceives and bears\nfrom God himself.\nOh Conscience,\nI am thinking, yes, about the free beast\nwho takes pleasure where he wants, where he can.\n\n    Oh, scandal of the honey of twilights.\nOh mute thunder.\n\n    Rednuhtetum!</pre>\n "}, {"title": "The Fly", "view_node": "/poem/fly", "field_author": "<a href=\"/poet/william-blake\" hreflang=\"und\">William Blake</a>", "field_date_published": "1794", "body": "<p><span class=\"long-line\">Little fly,</span><br /><span class=\"long-line\">Thy summer\u2019s play</span><br /><span class=\"long-line\">My thoughtless hand</span><br /><span class=\"long-line\">Has brushed away.</span></p>\n\n<p><span class=\"long-line\">Am not I</span><br /><span class=\"long-line\">A fly like thee?</span><br /><span class=\"long-line\">Or art not thou</span><br /><span class=\"long-line\">A man like me?</span></p>\n\n<p><span class=\"long-line\">For I dance</span><br /><span class=\"long-line\">And drink and sing,</span><br /><span class=\"long-line\">Till some blind hand</span><br /><span class=\"long-line\">Shall brush my wing.</span></p>\n\n<p><span class=\"long-line\">If thought is life</span><br /><span class=\"long-line\">And strength and breath,</span><br /><span class=\"long-line\">And the want</span><br /><span class=\"long-line\">Of thought is death,</span></p>\n\n<p><span class=\"long-line\">Then am I</span><br /><span class=\"long-line\">A happy fly,</span><br /><span class=\"long-line\">If I live,</span><br /><span class=\"long-line\">Or if I die.</span></p>\n"}, {"title": "Your Journey (4:111)", "view_node": "/poem/your-journey-4111", "field_author": "<a href=\"/poet/jonathan-thirkield\" hreflang=\"und\">Jonathan Thirkield</a>", "field_date_published": "2008", "body": " <p>Boat toy boat law boat low in Melodie's arms. She blows green water ripples, she squeezes humming blots from bows, her lungs. She goes</p><p>No. No honey. She bolts high birds filled with fancy over her pale Melodie. Now darling leave, let it set. Let it boat now. Mother links</p><p>Me, Melodie lapsed on a string. The watches are stirring with scissors. Low boats in the sing. She bleats and she pushes the paper pink</p><p>Boat, sail first, into green. It swallows her fists. The water is thick. With boats seasick with boats. Where lime dyes eddy she rows.</p> "}, {"title": "Jacksonville, Vermont", "view_node": "/poem/jacksonville-vermont", "field_author": "<a href=\"/poet/jason-shinder\" hreflang=\"und\">Jason Shinder</a>", "field_date_published": "2005", "body": " <pre>\nBecause I am not married, I have the skin of an orange \n\nthat has spent its life in the dark. Inside the orange \nI am blind. I cannot tell when a hand reaches in \n\nand breaks the atoms of the blood. Sometimes\n \na blackbird will bring the wind into my hair. \nOr the yellow clouds falling on the cold floor are animals \n\nbeginning to fight each other out of their drifting misery. \n\nAll the women I have known have been ruined by fog \nand the deer crossing the field at night. </pre>\n "}, {"title": "Little America", "view_node": "/poem/little-america", "field_author": "<a href=\"/poet/jason-shinder\" hreflang=\"und\">Jason Shinder</a>", "field_date_published": "2005", "body": " <pre>\nMy friend says she is like an empty drawer \n\nbeing pulled out of the earth. \nI am the long neck of the giraffe coming down \n\nto see what she doesn't have. \n\nWhat holds us chained to the same cold river, \nwhere we are surprised by the circles \n\nwe make in the ice? When we talk about the past\n\nit is like pushing stones back into the earth. \nSometimes she digs her nails into her leather bag \n\nto find out where my heart is. The white sleeves\n\nof her shirt are bright with waves when I visit. \nWhen we lie, we live a little longer\u2014\n\nwhich is unbelievable. If you love \n\nsomeone, the water moves up from the well. </pre>\n "}, {"title": "How I Am", "view_node": "/poem/how-i-am", "field_author": "<a href=\"/poet/jason-shinder\" hreflang=\"und\">Jason Shinder</a>", "field_date_published": "2005", "body": " <pre>\nWhen I talk to my friends I pretend I am standing on the wings \n\nof a flying plane. I cannot be trusted to tell them how I am. \nOr if I am falling to earth weighing less \n\nthan a dozen roses. Sometimes I dream they have broken up \n\nwith their lovers and are carrying food to my house. \nWhen I open the mailbox I hear their voices \n\nlike the long upward-winding curve of a train whistle \n\npassing through the tall grasses and ferns \nafter the train has passed. I never get ahead of their shadows. \n\nI embrace them in front of moving cars. I keep them away \n\nfrom my miseries because to say I am miserable is to say I am like them. </pre>\n "}, {"title": "The Visit", "view_node": "/poem/visit", "field_author": "<a href=\"/poet/jason-shinder\" hreflang=\"und\">Jason Shinder</a>", "field_date_published": "2005", "body": " <pre>\nMy only mother, who lost sixty pounds, tried to stand up in the bathroom \n\nand fell backwards on the white linoleum floor in the first hour of the morning \nand was carried to the bed in the nurse's arms and then abruptly \n\nopened her eyes, later, the room dark, and twisted the needles in her arms \n\nand talked to her dead friend, Rosie, and heard the doorbell ring \nas though in the kitchen in the old place deciding if she should answer, \n\nrubbing the circle on her finger where the wedding ring once was \n\nwhile slipping downward on the sheets like a body without limbs and I slid \nmy good arms beneath her arm-pits and pulled her bony body up \n\nagainst the two thin pillows. And then, when she was asleep again, \n\nI walked down the hallway's arc of yellow light, ghosts hovering \non either side of the doors of rooms where the strange sickness \n\nof being alive was the last thing between dreaming and eternity \n\nwhich closes like the ocean closes over the blue-starry body \nand does not stop, and I understood again that we never come back, \n\nand upright, with everything that takes its life seriously, I returned to my mother. </pre>\n "}, {"title": "Abend (10:101)", "view_node": "/poem/abend-10101", "field_author": "<a href=\"/poet/jonathan-thirkield\" hreflang=\"und\">Jonathan Thirkield</a>", "field_date_published": "2008", "body": " <p>In K\u00f6ln, each triangle picks at the dome; spines work their way, out of the scaffolds and stainless girders, into spires.</p><p>A brown even sky with light fixtures in the dents; her mouth overlaid by a few beads of frost on the train window in transit.</p><p>The station's metal wrists. Traced white with snow. A ministry of interstice. Of atoms tensed inside a crystal lattice.</p><p>The fiberglass shudders. She holds down his knee to steady them. Pins the other against the side rail. You were sleeping.</p><p>Are we there?</p><p>We pass as two shapes may assume a form of love. If just in passing. In the seats across a slender man bends over a book placed</p><p>At his knees. His daughter rests a flashlight on his shoulder, her ear pressed firmly to his jaw. Should he be whispering?</p><p>A tree. Lit momentarily in the passing. Train lights. Quickly it grows. Ductile. And cannot hold to its shape. What sound</p><p>Now grows with you? I am not standing. In a steel extension of when snow. Was not heavy before metal. But light on one spoon.</p><p>The overlook passes. The cathedral arrows. From the small lungs inside her. A coughing; it crowns. To the rounded south.</p> "}, {"title": "Design for a Silver Box in the Shape of a Melon, 1918", "view_node": "/poem/design-silver-box-shape-melon-1918", "field_author": "<a href=\"/poet/jonathan-thirkield\" hreflang=\"und\">Jonathan Thirkield</a>", "field_date_published": "2008", "body": " <pre>\n<i>after Peche</i>\n\nIn sheet metal or silver shallows\nfilled with these:\nhollow, floating\nwhere some assumed votives\nwould be lit. Or\nlanterns.\n\nDo you see the time of day? With still\nsome red to\nflush the waders,\nscatter against a few\nboats, and fire\ncannons\n\nDistantly, first. When we see the flare,\nwe listen.\nSand buries at\nour ankles. They appear,\nthe apples or\nmelons\n\nPrinted along the wallpaper, half\nsubmerged in\ntheir setting, brushed\ndark with stems, the silver\nflats folded in\nfans. Too\n\nMany of the waders grasp the stem\nand pull off\nthe top of an\napple or melon, so\nthe base fills with\nwater\n\nAnd sinks. Silver leaves from the stem. One\nsmall woman's\npearl earring drops\nlike so many others\nin the shallows.\nEardrops.\n\n \nI met a woman in Viennese\nglass. What was\nin her jewel case?\nA shade that turns over\na blue trellis.\nFlower\n\nTheater (or garden) on the flattened\nsilver wall,\na gray screen where\nboats fire, the blush falls\nand dyes a cherry \nchime.</pre>\n "}, {"title": "Deposition [excerpt] (audio only)", "view_node": "/poem/deposition-excerpt-audio-only", "field_author": "<a href=\"/poet/julie-agoos\" hreflang=\"und\">Julie Agoos</a>", "field_date_published": "2008", "body": " <p>\u00a0</p><p>Click the icon above to listen to this audio poem.</p> "}, {"title": "Groovin&#039; Low (audio only)", "view_node": "/poem/groovin-low-audio-only", "field_author": "<a href=\"/poet/b-spellman\" hreflang=\"und\">A. B. Spellman</a>", "field_date_published": "2008", "body": " <p>\u00a0</p><p>Click the icon above to listen to this audio poem.</p> "}], "pager": {"current_page": 534, "total_items": "13248", "total_pages": 663, "items_per_page": 20}}