{"rows": [{"title": "Summer (audio only)", "view_node": "/poem/summer-audio-only", "field_author": "<a href=\"/poet/louise-gluck\" hreflang=\"und\">Louise Gl\u00fcck</a>", "field_date_published": "1985", "body": "<p>Click the icon above to listen to this audio poem.</p>\n"}, {"title": "September Twilight (audio only)", "view_node": "/poem/september-twilight-audio-only", "field_author": "<a href=\"/poet/louise-gluck\" hreflang=\"und\">Louise Gl\u00fcck</a>", "field_date_published": "1992", "body": "<p>Click the icon above to listen to this audio poem.</p>\n"}, {"title": "Origins [from The Garden] (audio only)", "view_node": "/poem/origins-garden-audio-only", "field_author": "<a href=\"/poet/louise-gluck\" hreflang=\"und\">Louise Gl\u00fcck</a>", "field_date_published": "1980", "body": "<p>Click the icon above to listen to this audio poem.</p>\n"}, {"title": "Mock Orange (audio only)", "view_node": "/poem/mock-orange-audio-only", "field_author": "<a href=\"/poet/louise-gluck\" hreflang=\"und\">Louise Gl\u00fcck</a>", "field_date_published": "1985", "body": "<p>Click the icon above to listen to this audio poem.</p>\n"}, {"title": "First Goodbye [from Marathon] (audio only)", "view_node": "/poem/first-goodbye-marathon-audio-only", "field_author": "<a href=\"/poet/louise-gluck\" hreflang=\"und\">Louise Gl\u00fcck</a>", "field_date_published": "1985", "body": "<p>Click the icon above to listen to this audio poem.</p>\n"}, {"title": "Night Song [from Marathon] (audio only)", "view_node": "/poem/night-song-marathon-audio-only", "field_author": "<a href=\"/poet/louise-gluck\" hreflang=\"und\">Louise Gl\u00fcck</a>", "field_date_published": "1985", "body": "<p>Click the icon above to listen to this audio poem.</p>\n"}, {"title": "Field Flowers (audio only)", "view_node": "/poem/field-flowers-audio-only", "field_author": "<a href=\"/poet/louise-gluck\" hreflang=\"und\">Louise Gl\u00fcck</a>", "field_date_published": "1992", "body": "<p>Click the icon above to listen to this audio poem.</p>\n"}, {"title": "Brooding Likeness (audio only)", "view_node": "/poem/brooding-likeness-audio-only", "field_author": "<a href=\"/poet/louise-gluck\" hreflang=\"und\">Louise Gl\u00fcck</a>", "field_date_published": "1985", "body": "<p>Click the icon above to listen to this audio poem.</p>\n"}, {"title": "Horse (audio only)", "view_node": "/poem/horse-audio-only", "field_author": "<a href=\"/poet/louise-gluck\" hreflang=\"und\">Louise Gl\u00fcck</a>", "field_date_published": "1985", "body": "<p>Click the icon above to listen to this audio poem.</p>\n"}, {"title": "Lamentations (audio only)", "view_node": "/poem/lamentations-audio-only", "field_author": "<a href=\"/poet/louise-gluck\" hreflang=\"und\">Louise Gl\u00fcck</a>", "field_date_published": "1980", "body": "<p>Click the icon above to listen to this audio poem.</p>\n"}, {"title": "Metamorphosis (audio only)", "view_node": "/poem/metamorphosis-audio-only", "field_author": "<a href=\"/poet/louise-gluck\" hreflang=\"und\">Louise Gl\u00fcck</a>", "field_date_published": "1985", "body": "<p>Click the icon above to listen to this audio poem.</p>\n"}, {"title": "Matins [Not the sun merely] (audio only)", "view_node": "/poem/matins-not-sun-merely-audio-only", "field_author": "<a href=\"/poet/louise-gluck\" hreflang=\"und\">Louise Gl\u00fcck</a>", "field_date_published": "1992", "body": "<p>Click the icon above to listen to this audio poem.</p>\n"}, {"title": "Matins [Unreachable father] (audio only)", "view_node": "/poem/matins-unreachable-father-audio-only", "field_author": "<a href=\"/poet/louise-gluck\" hreflang=\"und\">Louise Gl\u00fcck</a>", "field_date_published": "1992", "body": "<p>Click the icon above to listen to this audio poem.</p>\n"}, {"title": "Vespers [I know what you planned...] (audio only)", "view_node": "/poem/vespers-i-know-what-you-planned-audio-only", "field_author": "<a href=\"/poet/louise-gluck\" hreflang=\"und\">Louise Gl\u00fcck</a>", "field_date_published": "1992", "body": "<p>Click the icon above to listen to this audio poem.</p>\n"}, {"title": "Vespers [You thought we didn&#039;t know...] (audio only)", "view_node": "/poem/vespers-you-thought-we-didnt-know-audio-only", "field_author": "<a href=\"/poet/louise-gluck\" hreflang=\"und\">Louise Gl\u00fcck</a>", "field_date_published": "1992", "body": "<p>Click the icon above to listen to this audio poem.</p>\n"}, {"title": "N\u00f3, Actually, Soy Salvadore\u00f1o", "view_node": "/poem/no-actually-soy-salvadoreno", "field_author": "<a href=\"/poet/javier-zamora\" hreflang=\"en\">Javier Zamora</a>", "field_date_published": "2020", "body": "<p><span class=\"long-line\">\u201cEL Sal-va-doh-RE-AN Salva-doh-RAN, Salva-DOH-R\u00cd-an,\u201d</span><br /><span class=\"long-line\">los mui-muis, we don\u2019t even know what</span><br /><span class=\"long-line\">to call ourselves. How to eat</span><br /><span class=\"long-line\">a pupusa: \u00bffork &amp; knife? or</span><br /><span class=\"long-line\">\u00bfopen it up &amp; treat it like a taco? but</span><br /><span class=\"long-line\">then, we\u2019re betraying our nationalistic (read:</span><br /><span class=\"long-line\">anti-black, anti-indigenous) impulse</span><br /><span class=\"long-line\">to not mix with anyone else. \u00bf&amp; what\u2019s</span><br /><span class=\"long-line\">with jalape\u00f1os in the curtido,</span><br /><span class=\"long-line\">cipotes? \u00bfWith using spicy \u201csalsa\u201d</span><br /><span class=\"long-line\">instead of salsa de tomate? There\u2019s too many</span><br /><span class=\"long-line\">\u201crestaurantes,\u201d one side of the menu: Mexican,</span><br /><span class=\"long-line\">the other, platos t\u00edpicos. Typically</span><br /><span class=\"long-line\">I want to order the ensalada, but then</span><br /><span class=\"long-line\">they bring me an actual salad.</span><br /><span class=\"long-line\">I say: c\u00f3man miercoles, they</span><br /><span class=\"long-line\">want to charge me extra for harina de arroz. Extra</span><br /><span class=\"long-line\">por los nueagados. There\u2019s</span><br /><span class=\"long-line\">nowhere I\u2019d rather be most</span><br /><span class=\"long-line\">than in Abuelita\u2019s kitchen, watching her</span><br /><span class=\"long-line\">throw bay leaves, tomatoes, garlic, or\u00e9gano</span><br /><span class=\"long-line\">into the blender, then chicharr\u00f3n,</span><br /><span class=\"long-line\">helping her sell to everyone that knows</span><br /><span class=\"long-line\"><em>she</em> made the best pupusas</span><br /><span class=\"long-line\">from 1985 to 2004. By then,</span><br /><span class=\"long-line\">Salvadore\u00f1os became \u201cHermanos Lejanos,\u201d</span><br /><span class=\"long-line\">we traded Col\u00f3n for Washingt\u00f3n. By then,</span><br /><span class=\"long-line\">Los Hermanos Flores looked for new singers</span><br /><span class=\"long-line\">every time they returned from Los Yunaited</span><br /><span class=\"long-line\">to San Salvador. Stay, no se vayan,</span><br /><span class=\"long-line\">es-tei, no sean dundos, was all</span><br /><span class=\"long-line\">those Salvadore\u00f1os could say.</span><br /><span class=\"long-line\">We didn\u2019t listen &amp; came here</span><br /><span class=\"long-line\">only to be called Mexican or Puerto Rican,</span><br /><span class=\"long-line\">depending on the coast. We had to fight</span><br /><span class=\"long-line\">for our better horchata, not</span><br /><span class=\"long-line\">the lazy whiter one with only rice. &amp; when</span><br /><span class=\"long-line\">we didn\u2019t want to fight</span><br /><span class=\"long-line\">we tried to blend, speak more \u201cMexican,\u201d</span><br /><span class=\"long-line\">more ira, more popote, more</span><br /><span class=\"long-line\">no pos guao. \u00a1N\u00f3, majes!</span><br /><span class=\"long-line\">\u00a1No se me hagan dundos,</span><br /><span class=\"long-line\">ponganse trucha vos!</span><br /><span class=\"long-line\">When anyone wants to call you: Mexican.</span><br /><span class=\"long-line\">You can just say: N\u00f3,</span><br /><span class=\"long-line\">actually, and\u00e1te a la M\u2014</span><br /><span class=\"long-line\">racista cara de nacionalista.</span></p>\n"}, {"title": "Dysphoria", "view_node": "/poem/dysphoria", "field_author": "<a href=\"/poet/oliver-baez-bendorf\" hreflang=\"en\">Oliver Baez Bendorf</a>", "field_date_published": "2020", "body": "<p><span class=\"long-line\">It\u2019s true that I\u2019m im-</span><br /><span class=\"long-line\">patient under affliction. So?</span><br /><span class=\"long-line\">Most of what the dead can</span></p>\n\n<p><span class=\"long-line\">do is difficult to carry. As for</span><br /><span class=\"long-line\">gender I can\u2019t explain it</span><br /><span class=\"long-line\">any more than a poem: there</span></p>\n\n<p><span class=\"long-line\">was an instinct, I followed</span><br /><span class=\"long-line\">it. A song. A bell. I saw</span><br /><span class=\"long-line\">deer tracks in the snow. Little</span></p>\n\n<p><span class=\"long-line\">split hearts beckoned me</span><br /><span class=\"long-line\">across the lawn. My body</span><br /><span class=\"long-line\">bucked me, fond of me.</span></p>\n\n<p><span class=\"long-line\">Here is how you bear this flourish.</span><br /><span class=\"long-line\">Bud, I\u2019m buckling to blossoms now.</span></p>\n"}, {"title": "Nuestra Se\u00f1ora de las Iguanas", "view_node": "/poem/nuestra-senora-de-las-iguanas", "field_author": "<a href=\"/poet/brenda-cardenas\" hreflang=\"en\">Brenda C\u00e1rdenas</a>", "field_date_published": "2020", "body": "<blockquote><sup><em>(after Graciela Iturbide\u2019s 1979 photograph)</em></sup></blockquote>\n\n<p><span class=\"long-line\">My warm morning skin bristles </span><br /><span class=\"long-line\">in the jungle hut\u2019s frigid shower</span></p>\n\n<p><span class=\"long-line\">as shrill chirps trill</span><br /><span class=\"long-line\">off my inner ear\u2019s high-hat. </span></p>\n\n<p><span class=\"long-line\">What tropical bird lurks</span><br /><span class=\"long-line\">outside this screen-less window? </span></p>\n\n<p><span class=\"long-line\">I imagine lime green wings,</span><br /><span class=\"long-line\">a feathered turquoise face, </span></p>\n\n<p><span class=\"long-line\">but when its squeak rattles </span><br /><span class=\"long-line\">into a hiss that creeps </span></p>\n\n<p><span class=\"long-line\">behind me like a shadow, I turn </span><br /><span class=\"long-line\">to stare straight into the onyx </span></p>\n\n<p><span class=\"long-line\">eye of an iguana, iridescent</span><br /><span class=\"long-line\">crown gleaming down</span></p>\n\n<p><span class=\"long-line\">on my miserable wet head, tail </span><br /><span class=\"long-line\">coiling the shower pole, tongue reach- </span></p>\n\n<p><span class=\"long-line\">ing for my splashed shoulder.</span><br /><span class=\"long-line\">I slink back, leave dirt in the bends</span></p>\n\n<p><span class=\"long-line\">of elbows and knees, relinquish</span><br /><span class=\"long-line\">a chance to feel eyes licked</span></p>\n\n<p><span class=\"long-line\">into the back of my head. I am not </span><br /><span class=\"long-line\">la Nuestra Se\u00f1ora de las Iguanas </span></p>\n\n<p><span class=\"long-line\">donning her Zapotec headdress </span><br /><span class=\"long-line\">of protruding limbs about to leap, </span></p>\n\n<p><span class=\"long-line\">folded faces, triple chins. Not</span><br /><span class=\"long-line\">Iturbide\u2019s pebble squint refusing to blink </span></p>\n\n<p><span class=\"long-line\">as it latches onto the queen of Juchit\u00e1n</span><br /><span class=\"long-line\">so far away, yet so near to where I stand</span></p>\n\n<p><span class=\"long-line\">dripping on this poured concrete floor.</span></p>\n"}, {"title": "When I Became La Promesa", "view_node": "/poem/when-i-became-la-promesa", "field_author": "<a href=\"/poet/peggy-robles-alvarado\" hreflang=\"en\">Peggy Robles-Alvarado </a>", "field_date_published": "2020", "body": "<p><span class=\"long-line\">For every unexpected illness that required medical insurance,</span><br /><span class=\"long-line\">every second-trimester miscarriage, every chaos unemployment</span><br /><span class=\"long-line\">caused, every looming eviction, every arrest warrant gone</span><br /><span class=\"long-line\">unanswered, the women in my family made promesas to plaster</span><br /><span class=\"long-line\">cast statues worshipped in overcrowded apartments with rum</span><br /><span class=\"long-line\">poured over linoleum, nine-day candles coughing black soot</span><br /><span class=\"long-line\">until the wick surrendered, Florida water perfuming doorways</span><br /><span class=\"long-line\">and the backs of necks. </span></p>\n\n<p><span class=\"long-line\">Promesas: barters/contracts with a God they didn\u2019t vow to</span><br /><span class=\"long-line\">change for but always appeased/ bowls of fruit/ paper bags filled</span><br /><span class=\"long-line\">with coconut candy and caserolas de ajiaco/ left at busy intersections,</span><br /><span class=\"long-line\">an oak tree in High bridge park, the doorway of the 34th precinct,</span><br /><span class=\"long-line\">and when mar pacifico and rompe saraguey refused to grow on</span><br /><span class=\"long-line\">Washington Heights windowsills, the youngest became part of</span><br /><span class=\"long-line\">the trade. </span></p>\n\n<p><span class=\"long-line\">Unsullied and unaware: cousin Mari pissed about having to dress</span><br /><span class=\"long-line\">in green and red for twenty-one days to keep T\u00edo Pablo out of jail/</span><br /><span class=\"long-line\">Luisito scratching at an anklet made of braided corn silk to help</span><br /><span class=\"long-line\">T\u00eda Lorna find a new job/ and my hair not to be cut until Papi\u2019s</span><br /><span class=\"long-line\">tumor was removed. </span></p>\n\n<p><span class=\"long-line\">Gathered in tight buns or sectioned pigtails, falling long past my</span><br /><span class=\"long-line\">waist when asymmetrical bobs were in fashion, unaware my crown</span><br /><span class=\"long-line\">had the necessary coercion to dislodge a mass from a colon, I grabbed</span><br /><span class=\"long-line\">my older brother\u2019s clippers, ran thirsty blades across my right temple</span><br /><span class=\"long-line\">to the back of my ear, massaged the softness that emerged as strands</span><br /><span class=\"long-line\">surrendered on bathroom tiles. My desire to mimic freestyle icons,</span><br /><span class=\"long-line\">whose albums my cousins and I scratched on old record players,</span><br /><span class=\"long-line\">wagered against Papi\u2019s large intestine. </span></p>\n\n<p><span class=\"long-line\">My unsteady hand: a fist</span><br /><span class=\"long-line\">in the face of God.</span></p>\n"}, {"title": "California", "view_node": "/poem/california", "field_author": "<a href=\"/poet/rafael-campo\" hreflang=\"und\">Rafael Campo</a>", "field_date_published": "2020", "body": "<p>I used to dream of living here. I hike<br /><span class=\"long-line\">a trail I know that at the end opens </span></p>\n\n<p><span class=\"long-line\">to glorious views of the city I did </span><br /><span class=\"long-line\">live in once, when men my age kept dying </span></p>\n\n<p><span class=\"long-line\">while I learned how to diagnose AIDS. </span><br /><span class=\"long-line\">Some dreams don\u2019t come true, and some dreams become </span></p>\n\n<p><span class=\"long-line\">nightmares. Across a field that smells of sage, </span><br /><span class=\"long-line\">a few horses loiter. I want to think </span></p>\n\n<p><span class=\"long-line\">that they forgive me, since they\u2019re noble creatures. </span><br /><span class=\"long-line\">They stamp and snort, reminding me they know </span></p>\n\n<p><span class=\"long-line\">nothing of forgiveness. I used to dream </span><br /><span class=\"long-line\">that someday I\u2019d escape to San Francisco, </span></p>\n\n<p><span class=\"long-line\">when I was still in high school and I knew. </span><br /><span class=\"long-line\">Tall and muscled, the horses are like the jocks </span></p>\n\n<p><span class=\"long-line\">on the football team who beat me once, as if pain </span><br /><span class=\"long-line\">teaches truth and they knew I had to learn. </span></p>\n\n<p><span class=\"long-line\">I used to dream I was as white as them, </span><br /><span class=\"long-line\">that I could slam my locker closed and not </span></p>\n\n<p><span class=\"long-line\">think of jail. Some nightmares come true, </span><br /><span class=\"long-line\">like when my uncle got arrested for </span></p>\n\n<p><span class=\"long-line\">cocaine. My family never talked about it, </span><br /><span class=\"long-line\">which made me realize they could also feel shame. </span></p>\n\n<p><span class=\"long-line\">That\u2019s when I started dreaming I could be </span><br /><span class=\"long-line\">a doctor someday, that I could get away, </span></p>\n\n<p><span class=\"long-line\">prescribe myself a new life. Right now, as </span><br /><span class=\"long-line\">the city comes into view, I think of those </span></p>\n\n<p><span class=\"long-line\">animals and hope they got what they deserved. </span><br /><span class=\"long-line\">The city stretches out its arms, its two bridges </span></p>\n\n<p><span class=\"long-line\">to Oakland, to Stockton, to San Rafael, </span><br /><span class=\"long-line\">to Vallejo; places I could have been from </span></p>\n\n<p><span class=\"long-line\">but wasn\u2019t. It looks just as it did </span><br /><span class=\"long-line\">all those years ago. Yet I know it\u2019s changed </span></p>\n\n<p><span class=\"long-line\">because so many of us died, like Rico, </span><br /><span class=\"long-line\">who took me up here for the first time. </span></p>\n\n<p><span class=\"long-line\">We kicked a soccer ball around and smoked </span><br /><span class=\"long-line\">a joint. I think we talked about our dreams, </span></p>\n\n<p><span class=\"long-line\">but who can remember dreams. I look out </span><br /><span class=\"long-line\">and the sun like your hand on my face </span></p>\n\n<p><span class=\"long-line\">is warm, and for a moment I think this is </span><br /><span class=\"long-line\">glorious, this is what forgiveness feels like.</span></p>\n"}], "pager": {"current_page": 96, "total_items": "13248", "total_pages": 663, "items_per_page": 20}}