{"rows": [{"title": "The Thousand Somethings of Someone", "view_node": "/poem/thousand-somethings-someone", "field_author": "<a href=\"/poet/forrest-gander\" hreflang=\"und\">Forrest Gander</a>", "field_date_published": "2012", "body": " <pre>\nCould have been\notherwise and \nbirdsong make us \nnauseous. And\ngigantic roiling sunsets\ngive us vertigo. The\nworld of flowers is\nfor insects, not \nus. But tonic\nis durance among.</pre>\n "}, {"title": "Self-Portrait as Letter Addressed to Self", "view_node": "/poem/self-portrait-letter-addressed-self", "field_author": "<a href=\"/poet/j-michael-martinez\" hreflang=\"und\">J. Michael Martinez</a>", "field_date_published": "2012", "body": " <p>X.X.,</p><br /><p>Someday, across glacier, a green horse will ride toward you; despite steam rising from heavy breath, you'll touch its snout.</p><p>When you paired a person's gait to signature, what lilt signed your step? What tautology, what tense was this body's hypothesis?</p><p>Do you remember your mother's <i>Strawberry Fruit-Salad Recipe</i>? 2 round Angel Cakes (2 pounds or 4 halves), 16 oz of vanilla pudding, 4 bananas, 2 containers of 8 oz strawberries, 1 big container of whipped cream. Layer and eat.</p><p>Your hands shaking, you wrote, \"Christ is sentiment.\"</p><p>A cup cracked through with sky. A saucer planed into the shapes of numbers. Every written thing stripped bare, the more supple formulation of given law.</p><p>I told you distance to a thing is the purchase of its reality. Why are people like that for us? The more we love the more physical space our love inhabits &amp; the world's lightness' &amp; darkness' assume the order of human tongue.</p><p>Last night we tore &amp; tossed memories into ponds. Geese swam across, pecked the waters. I splashed at them &amp;, after, my hands shook. You stood beside me in a red dress. I wanted to drown you this pretty.</p><p>xoxo,<br />X.X.</p> "}, {"title": "Gradeschool&#039;s Large Windows", "view_node": "/poem/gradeschools-large-windows", "field_author": "<a href=\"/poet/thomas-lux\" hreflang=\"und\">Thomas Lux</a>", "field_date_published": "2012", "body": " <pre>\nweren't built to let the sunlight in.\nThey were large to let the germs out. \nWhen polio, which sounds like the first dactyl\nof a jump rope song, was on the rage,\nyou did not swim in public waters.\nThe awful thing was an iron lung.\nWe lined up in our underwear to get the shot.\nSome kids fainted, we all were stung.\nMy cousin Speed sat in a vat\nof ice cubes until his scarlet fever waned,\nbut from then on his heart was not the same.\nMy friend's girlfriend was murdered in a hayfield\nby two guys from Springfield.\nLinda got a bad thing in her blood.\nEverybody's grandmother died.\nThree times, I believe, Bobby shot his mother.\nRat poison took a beloved local bowler.\nA famous singer sent condolences.\nIn the large second floor corner room\nof my 4th grade class the windows were open.\nSnow, in fat, well-fed flakes\nfloats in where they and the chalk-motes meet.\nAnd the white rat powder, too, sifts down\ninto a box of oatmeal\non the shelf below.</pre>\n "}, {"title": "Division Street", "view_node": "/poem/division-street", "field_author": "<a href=\"/poet/elise-paschen\" hreflang=\"und\">Elise Paschen</a>", "field_date_published": "2012", "body": " <pre>\n\u00a0\u00a0\u00a0\u00a0\u00a0\u00a0\u00a0\u00a0\u00a0\u00a0\u00a0\u00a0\u00a0\u00a0\u00a0\u00a0\u00a0\u00a0\u00a0\u00a0\u00a0\u00a0\u00a0\u00a0\u00a0\". . . Prayer book and Mother, shot themselves last Sunday.\"\n\u00a0\u00a0\u00a0\u00a0\u00a0\u00a0\u00a0\u00a0\u00a0\u00a0\u00a0\u00a0\u00a0\u00a0\u00a0\u00a0\u00a0\u00a0\u00a0\u00a0\u00a0\u00a0\u00a0\u00a0\u00a0\u00a0\u00a0\u00a0\u00a0\u00a0\u00a0\u00a0\u00a0\u00a0\u00a0\u00a0\u00a0\u00a0\u00a0\u00a0Gwendolyn Brooks\n\n\nThe spire of Holy Name Cathedral rose like a prayer\nabove Chicago Avenue. I thumbed a leather-bound book\nin catechism class, recited the <i>Hail Mary</i>. Fire and\ndevils blazed at night. The nuns told my mother\nI had a calling. On Scott Street a man lay shot\ndead in our alley. It was the Gold Coast.  They prided themselves\non sidewalks safe as shrines. I questioned God, the last\nto leave the room. Riots flared in Cabrini-Green that Sunday.</pre>\n "}, {"title": "This Did Not Happen", "view_node": "/poem/did-not-happen", "field_author": "<a href=\"/poet/thylias-moss\" hreflang=\"und\">Thylias Moss</a>", "field_date_published": "2012", "body": " <pre>\nThis did not happen\n\n\n\nalthough I have memories of it:\na doctor unwrapping a tutu \nso I knew I was in a hospital\nbut one unlike any other\npracticing strange medicine \nbut this strangeness has been effective\n\n\nA hospital for dancers?\n\n\n\n\nI was in pink,\nsequined\n\nI had been in a street,\nan alley and\n\nI was left there, tutu shredded, \nI couldn't dance\n\nanymore.\n\nNo animals other than myself, so the animal \nin me\n\nemerged\n\n\n\nbut tried to hurt no one\n\nelse.</pre>\n "}, {"title": "The First Olympic Ode [excerpt]", "view_node": "/poem/first-olympic-ode-excerpt", "field_author": "<a href=\"/poet/pindar\" hreflang=\"und\">Pindar</a>", "field_date_published": "1824", "body": " <p>Chief is water <i>of the elements</i>; gold too, amid ennobling wealth, shines eminent, like fire, flaming in the night: but my soul, if thou desire to blazon combats, seek not, during day, any brilliant star, <i>wheeling</i> through the desert air, more radiant than the sun: neither any list, more excellent than Olympia's, (whence, to resound Saturn's son, proceeds the song of fame, <i>framed</i> by the poets' skill) can we speak, coming to the wealthy, happy mansion of Hiero.</p> "}, {"title": "Offerings", "view_node": "/poem/offerings", "field_author": "<a href=\"/poet/howard-altmann\" hreflang=\"und\">Howard Altmann</a>", "field_date_published": "2012", "body": " <pre>\nTo the night I offered a flower\nand the dark sky accepted it\nlike earth, bedding\nfor light.\n\nTo the desert I offered an apple\nand the dunes received it\nlike a mouth, speaking \nfor wind.\n\nTo the installation I offered a tree\nand the museum planted it\nlike a man, viewing \nhis place.\n\nTo the ocean I offered a seed \nand its body dissolved it\nlike time, composing\na life.</pre>\n "}, {"title": "In This Light", "view_node": "/poem/light", "field_author": "<a href=\"/poet/matt-hart\" hreflang=\"und\">Matt Hart</a>", "field_date_published": "2012", "body": " <pre>\nnothing and nothing\ngets by you, but I get\nso distracted\nthat my notice\nhas been put on notice\nfor birds and for traffic\nFor instance,\nthe constant\nslap of the sound\nof waves\nagainst gutters\ngets by me\nGrass stain on my hands\nfrom falling down\nat the hospital\ngets by me\u00a0\u00a0\u00a0\u00a0\u00a0Physics\nSequined dresses\nThe Olympics get by me\nMeanwhile,\nthe mountains are,\nso far, only distant,\nand some days\nI am even making my way\nthrough them\nwith my pants on,\nwhich is lucky,\nthough at other junctures\nsunflowers and pine tree\nneedles\u00a0\u00a0\u00a0\u00a0\u00a0my arms\nin full blossom\nas you appear\naround a corner\nkaleidoscopically\nThe day looking up\nbetween us\npink clouds</pre>\n "}, {"title": "Veterans of Foreign Wars", "view_node": "/poem/veterans-foreign-wars", "field_author": "<a href=\"/poet/edward-hirsch\" hreflang=\"und\">Edward Hirsch</a>", "field_date_published": "2012", "body": " <pre>\nLet's not forget the General\nShuffling out in his gray slippers\nTo feed the pigeons in Logan Square.\n\nHe wore a battered White Sox cap\nAnd a heavy woolen scarf tossed\nOver his shoulder, even in summer.\n\nI remember how he muttered to himself\nAnd coughed into his newspaper\nAnd complained about his gout\n\nTo the other Latvian exiles, \nThe physicist who lived on Gogol Street\nIn Riga, my grandfather's hometown,\n\nThe auxiliary policeman from Daugavpils,\nAnd the chemical engineer,\nWho always gave me hard candy,\n\nThough grandfather spit\nAnd grandmother hurried me away\nWhen she saw them coming.</pre>\n "}, {"title": "Morning Antlers", "view_node": "/poem/morning-antlers", "field_author": "<a href=\"/poet/arthur-sze\" hreflang=\"und\">Arthur Sze</a>", "field_date_published": "2012", "body": " <pre>\nRedwinged blackbirds in the cattail pond\u2014\ntoday I kicked and flipped a wing \nin the sand and saw it was a sheared \noff flicker's. Yesterday's rain has left \n\t\t\t\nsnow on Tesuque Peak, and the river \nwill widen then dwindle. We step \ninto a house and notice antlers mounted \non the wall behind us; a ten-day-old child \n\t\t\t\nlooks, nurses, and sleeps; his mother \nsmiles but says she cries then cries \nas emptiness brims up and over.  \nAnd as actions are rooted in feelings, \n\nI see how picking spinach in a field \nblossoms the picker, how a thoughtless act \nshears a wing. As we walk out \nto the car, the daylight is brighter \n\t\t\t\nthan we knew. We do not believe \nflames shoot out of a cauldron of days \nbut, looking at the horizon, see\nflames leap and crown from tree to tree.</pre>\n "}, {"title": "The Restorer", "view_node": "/poem/restorer", "field_author": "<a href=\"/poet/devin-johnston\" hreflang=\"und\">Devin Johnston</a>", "field_date_published": "2012", "body": " <pre>\nDone with mortise and tenon,\nlinseed oil and wax,\nshe stands back from the highboy\nto snap a photograph with her phone,\nall the while, defending a shim\nto absent interlocutors\nwho have, admittedly, \nnever seen her work\t\nand died three hundred years ago.</pre>\n "}, {"title": "A Midsummer Night&#039;s Dream, Act II, Scene I [Over hill, over dale]", "view_node": "/poem/midsummer-nights-dream-act-ii-scene-i-over-hill-over-dale", "field_author": "<a href=\"/poet/william-shakespeare\" hreflang=\"und\">William Shakespeare</a>", "field_date_published": "1596", "body": " <pre>\n<i>A wood near Athens. A Fairy speaks.</i>\n\nOver hill, over dale, \nThorough bush, thorough brier, \nOver park, over pale, \nThorough flood, thorough fire, \nI do wander every where, \nSwifter than the moon's sphere; \nAnd I serve the fairy queen, \nTo dew her orbs upon the green: \nThe cowslips tall her pensioners be; \nIn their gold coats spots you see; \nThose be rubies, fairy favours, \nIn those freckles live their savours: \nI must go seek some dew-drops here \nAnd hang a pearl in every cowslip's ear. \nFarewell, thou lob of spirits: I'll be gone; \nOur queen and all her elves come here anon.</pre>\n "}, {"title": "Gulls", "view_node": "/poem/gulls", "field_author": "<a href=\"/poet/william-carlos-williams\" hreflang=\"und\">William Carlos Williams</a>", "field_date_published": "1917", "body": " <pre>\nMy townspeople, beyond in the great world,\nare many with whom it were far more\nprofitable for me to live than here with you.\nThese whirr about me calling, calling!\nand for my own part I answer them, loud as I can,\nbut they, being free, pass!\nI remain! Therefore, listen!\nFor you will not soon have another singer.\n\nFirst I say this: you have seen\nthe strange birds, have you not, that sometimes\nrest upon our river in winter?\nLet them cause you to think well then of the storms\nthat drive many to shelter. These things\ndo not happen without reason.\n\nAnd the next thing I say is this:\nI saw an eagle once circling against the clouds\nover one of our principal churches\u2014\nEaster, it was\u2014a beautiful day!\nthree gulls came from above the river\nand crossed slowly seaward!\nOh, I know you have your own hymns, I have heard them\u2014\nand because I knew they invoked some great protector\nI could not be angry with you, no matter\nhow much they outraged true music\u2014\n\nYou see, it is not necessary for us to leap at each other,\nand, as I told you, in the end\nthe gulls moved seaward very quietly.</pre>\n "}, {"title": "Tanka Diary [Awakened too early on Saturday morning]", "view_node": "/poem/tanka-diary-awakened-too-early-saturday-morning", "field_author": "<a href=\"/poet/harryette-mullen\" hreflang=\"und\">Harryette Mullen</a>", "field_date_published": "2012", "body": " <pre>\nAwakened too early on Saturday morning \nby the song of a mockingbird \nimitating my clock radio alarm.\n\t\t\t\t\n\u00a0\u00a0\u00a0\u00a0\u00a0\u00a0\u00a0\u00a0\u00a0\u00a0\u00a0\u00a0\u00a0\u00a0\u00a0\u00a0*\n\nWalking along the green path with buds \nin my ears, too engrossed in the morning news\nto listen to the stillness of the garden.</pre>\n "}, {"title": "Peyton Place: A Haiku Soap Opera [excerpt]", "view_node": "/poem/peyton-place-haiku-soap-opera-excerpt", "field_author": "<a href=\"/poet/david-trinidad\" hreflang=\"und\">David Trinidad</a>", "field_date_published": "2012", "body": " <pre>\n348\n\nJust when you think you\ncan trust someone, they turn out\nto be the Bad Seed.\n\n349\n\nI do not know which\nto prefer: Shakespeare quote or\npillow fight after.\n\n350\n\nStuffed bird and weirdo\nbehind desk\u2014is Jack checking\ninto Bates Motel?\n\n351\n\nRachel kidnaps the\nbaby, yes, but in preview\nBetty and Rod kiss.\n\n352\n\nSomething I learned long\nago, Connie: never turn\ndown a sedative.\n\n353\n\nTwo policemen shoot\nat and chase Chandler. All three\nof them run like girls.\n\n354\n\nLeigh will one day win\nEmmy, but not for losing\nher mind on this show.\n\n355\n\nHere's Gena Rowlands,\nMrs. John Cassavetes,\nmuch-needed fresh blood.\n\n356\n\nRelax, Rita won't\ncroak. Her weak heart will tick till\nthis soap gets canceled.\n\n357\n\nJack escapes from jail\nand takes off to do guest spots\non TV Westerns.\n\n358\n\nWhack! Nothing ends an\nepisode better than a\ngood slap in the face.\n\n359\n\nAnd nothing starts an\nepisode better than a\nrepeat of that slap.\n\n360\n\n\"Again\" (Fox standard)\nis always playing at the\nColonial Inn.\n\n361\n\nStep right up, folks, and\nwitness Rod's imitation\nof a barking seal.\n\n362\n\nThis is just to say\nElliot ate an apple\u2014\nGolden Delicious.</pre>\n "}, {"title": "Untitled [I know now the beloved]", "view_node": "/poem/untitled-i-know-now-beloved", "field_author": "<a href=\"/poet/gregory-orr\" hreflang=\"und\">Gregory Orr</a>", "field_date_published": "2012", "body": " <pre>\nI know now the beloved\nHas no fixed abode,\nThat each body \nShe inhabits\nIs only a temporary\nHome.\n\u00a0\u00a0\u00a0\u00a0\u00a0\u00a0\u00a0\u00a0\u00a0\u00a0\u00a0\u00a0\u00a0That she\nCasts off forms\nAs eagerly\nAs lovers shed clothes.\n\nI accept that he's\nJust passing through\nThat flower\nOr that stone.\n\nAnd yet, it makes \nMe dizzy\u2014\nThe way he hides\nIn the flow of it,\nThe way she shifts\nIn fluid motions,\nBecoming other things.\n\nI want to stop him\u2014 \nIf only briefly.\nI want to lure her\nTo the surface\nAnd catch her\nIn this net of words.</pre>\n "}, {"title": "The Bean House", "view_node": "/poem/bean-house", "field_author": "<a href=\"/poet/john-koethe\" hreflang=\"und\">John Koethe</a>", "field_date_published": "2012", "body": " <blockquote><i>. . . humming in the summer haze.</i></blockquote><br /><pre>\nDiane christened it the Bean House,\nSince everything in it came straight from an \nL.L. Bean Home catalog. It looks out upon two\nMeadows separated by a stand of trees, and at night,\nWhen the heat begins to dissipate and the stars\nBecome visible in the uncontaminated sky,\nI like to sit here on the deck, listening to the music\nWafting from the inside through the sliding patio doors,\nListening to the music in my head. It's what I do:\nThe days go by, the days remain the same, dwindling\nDown to a precious few as I try to write my name\nIn the book of passing days, the book of water. Some\nDays I go fishing, usually unsuccessfully, casting\nGently across a small stream that flows along beneath\nSome overhanging trees or through a field of cows.\nCall it late bucolic: this morning I awoke to rain\nAnd a late spring chill, with water dripping from the\nEaves, the apple trees, the pergola down the hill.\nNo fishing today, as I await the summation\nOf my interrupted eclogue, waiting on the rain\nAnd rhythms of the world for the music to resume,\nAs indeed it does: all things end eventually,\nNo matter how permanent they seem, no matter how\nDesperately you want them to remain. And now the sun\nComes out once more, and life becomes sweet again,\nSweet and familiar, on the verge of summer.</pre>\n "}, {"title": "On My Third Anniversary in New Jersey", "view_node": "/poem/my-third-anniversary-new-jersey", "field_author": "<a href=\"/poet/noelle-kocot\" hreflang=\"und\">Noelle Kocot</a>", "field_date_published": "2012", "body": " <pre>\nIt's the fern beyond the wind, the classic\nEruptions.  Night is a funnel that is overcome.\nViolence of signs beyond the pale. Stasis\nHas its own way, the hard work, the violence. \nConvalesce, convalesce in the green green\nWorld, in which you could hardly walk,\nBut that was before, before life set its rhythms\nIn its way. Passion is confused by silence.\nGone are the slow horses, the wetness and the \nGoing forth, that's made me whole again.\nA small room, a sandwich in the moonlight,\nIntermittently, I see a hummingbird at\nThe flower box, and the great church bells\nRing.  This is the beginning. I lived in a small\nRoom long ago. The soft earth beckoned me\nHere, and I stayed. There is a dearness about\nAll of this, and though I want to be hungry\nAgain, I find that I am filled. My legs fly into\nSummer, into the morning air and the leaves.  \nSo this is what peace is, no need to spiral \nIn the twilight, no need to ask, season after\nSeason, where are you now? And, should I go?</pre>\n "}, {"title": "Chirality", "view_node": "/poem/chirality", "field_author": "<a href=\"/poet/rae-armantrout\" hreflang=\"und\">Rae Armantrout</a>", "field_date_published": "2012", "body": " <pre>\nIf I didn't need \nto do anything,\nwould I?\n\nWould I oscillate\nin two\nor three dimensions?\n\nWould I summon\na beholder\n\nand change chirality\nfor \"him\"?\n\nA massless particle\npasses through the void\nwith no resistance.\n\nAsk what it means\nto pass through the void.\n\nAsk how it differs\nfrom not passing.</pre>\n "}, {"title": "Mars Poetica", "view_node": "/poem/mars-poetica", "field_author": "<a href=\"/poet/wyn-cooper\" hreflang=\"und\">Wyn Cooper</a>", "field_date_published": "2012", "body": " <pre>\nImagine you're on Mars, looking at earth,\na swirl of colors in the distance.\nTell us what you miss most, or least.\n\nLet your feelings rise to the surface.\nSkim that surface with a tiny net. \nNow you're getting the hang of it.\n\nTell us your story slantwise,\nstreetwise, in the disguise\nof an astronaut in his suit.     \n\nTell us something we didn't know\nbefore: how words mean things\nwe didn't know we knew.</pre>\n "}], "pager": {"current_page": 441, "total_items": "13248", "total_pages": 663, "items_per_page": 20}}