{"rows": [{"title": "It&#039;s obvious", "view_node": "/poem/its-obvious", "field_author": "<a href=\"/poet/greg-hewett\" hreflang=\"und\">Greg Hewett</a>", "field_date_published": "2006", "body": " <p><em>It\u2019s obvious </em><br />beauty is a postage stamp,<br />a composed self-portrait<br />of Frida Kahlo<br />wearing a simple necklace,<br />an image chosen by the USPS<br />not because it was like one she painted<br />for Trotsky. Of course<br />beauty could not include<br />imagery of hammer and sickle<br />or black monkey leering<br />over her shoulder or parrot<br />twisted under her chin.<br />And not the one with snakes.<br />Not the one of her<br />all butched-up, hair cropped short,<br />wearing one of Diego\u2019s suits<br />after they split for the final time.<br />Not one with wheelchair, spinal-brace,<br />or scar down her long trunk.<br />Forget the one of her cloven wide open,<br />a jungle of history and myth, of poetry<br />burgeoning forth from her innermost.<br />Most definitely not<br />the one of her wearing the collar<br />of thorns in memory<br />of Jesus and Trotsky<br />and revolution<br />lost.</p> "}, {"title": "Everybody Loves Eric Dolphy", "view_node": "/poem/everybody-loves-eric-dolphy", "field_author": "<a href=\"/poet/sarah-fox\" hreflang=\"und\">Sarah Fox</a>", "field_date_published": "2006", "body": " <p>\u2014for Brian Engel-Fuentes</p><p><br />Father glues the hippo back<br />together, as he\u2019s done before<br />when the others broke.<br /><br />It\u2019s no small task.<br /><br />Opened envelopes hang<br />like cranes on a line. Herons,<br />in real life, are bigger but hard<br /><br />to make with a piece of paper.<br /><br />When Elvis died, nothing<br />happened to the weather. Nectar<br />toured the planet, nesting<br /><br />in the mouths of bees.<br /><br />A cello murmurs something<br />about tennis, or sailing.<br />Only the walls know for sure\u2014<br /><br />they\u2019re so discreet!<br /><br />Days are short here, nights<br />shorter. We sleep<br />like blind sailors in beds<br /><br />that deliver us secretly home.</p> "}, {"title": "A Poem about Intelligence for My Brothers and Sisters (audio only)", "view_node": "/poem/poem-about-intelligence-my-brothers-and-sisters-audio-only", "field_author": "<a href=\"/poet/june-jordan\" hreflang=\"und\">June Jordan</a>", "field_date_published": "1992", "body": " <p>\u00a0</p><p>Click the icon above to listen to this audio poem.</p> "}, {"title": "The Rwanda Poems [excerpt] (audio only)", "view_node": "/poem/rwanda-poems-excerpt-audio-only", "field_author": "<a href=\"/poet/kamau-brathwaite\" hreflang=\"und\">Kamau Brathwaite</a>", "field_date_published": "1994", "body": " <p>\u00a0</p><p>Click the icon above to listen to this audio poem.</p> "}, {"title": "Privilege of Being (audio only)", "view_node": "/poem/privilege-being-audio-only", "field_author": "<a href=\"/poet/robert-hass\" hreflang=\"und\">Robert Hass</a>", "field_date_published": "1988", "body": " <p>\u00a0</p><p>Click the icon above to listen to this audio poem.</p> "}, {"title": "Yonder", "view_node": "/poem/yonder", "field_author": "<a href=\"/poet/rae-armantrout\" hreflang=\"und\">Rae Armantrout</a>", "field_date_published": "2007", "body": " <pre>\n       1\n\n\nAnything cancels\neverything out.\n\nIf each point\nis a singularity,\n\nthrusting all else\naside for good,\n\n\u201cgood\u201d takes the form\nof a throng\nof empty chairs.\n\nOr  it\u2019s ants\nswarming a bone.\n\n\n       2 \n\nI\u2019m afraid\nI don\u2019t love\nmy mother\nwho\u2019s dead\n\nthough I once \u2013\nwhat does \u201conce\u201d mean? \u2013\ndid love her .\n\nSo who\u2019ll meet me over yonder?\nI don\u2019t recognize the place names.\n\nOr I do, but they come\nfrom televised wars.</pre>\n "}, {"title": "Two, Three", "view_node": "/poem/two-three", "field_author": "<a href=\"/poet/rae-armantrout\" hreflang=\"und\">Rae Armantrout</a>", "field_date_published": "2004", "body": " <pre>\nSad, fat boy in pirate hat.\nLong, old, dented,\ncopper-colored Ford.\n\nHow many traits\nmust a thing have\nin order to be singular?\n\n(Echo persuades us\neverything we say\nhas been said at least once \n                                        before.)\n\nTwo plump, bald men\nin gray tee-shirts\nand tan shorts \n\nare walking a small bulldog \u2013\nfollowed by the eyes\nof an invisible third person.\n\nThe Trinity was born\nfrom what we know\nof the bitter \n\nsymbiosis of couples.\nCan we reduce echo\u2019s sadness\nby synchronizing our speeches?\n\nIs it the beginning or end\nof real love\nwhen we pity a person\n\nbecause, in him,\nwe see ourselves?</pre>\n "}, {"title": "The Pumpkin", "view_node": "/poem/pumpkin", "field_author": "<a href=\"/poet/john-greenleaf-whittier\" hreflang=\"und\">John Greenleaf Whittier</a>", "field_date_published": "1850", "body": " <pre>\nOh, greenly and fair in the lands of the sun, \nThe vines of the gourd and the rich melon run, \nAnd the rock and the tree and the cottage enfold, \nWith broad leaves all greenness and blossoms all gold, \nLike that which o'er Nineveh's prophet once grew, \nWhile he waited to know that his warning was true, \nAnd longed for the storm-cloud, and listened in vain \nFor the rush of the whirlwind and red fire-rain. \n\nOn the banks of the Xenil the dark Spanish maiden \nComes up with the fruit of the tangled vine laden; \nAnd the Creole of Cuba laughs out to behold \nThrough orange-leaves shining the broad spheres of gold; \nYet with dearer delight from his home in the North, \nOn the fields of his harvest the Yankee looks forth, \nWhere crook-necks are coiling and yellow fruit shines, \nAnd the sun of September melts down on his vines. \n\nAh! on Thanksgiving day, when from East and from West, \nFrom North and from South comes the pilgrim and guest; \nWhen the gray-haired New Englander sees round his board \nThe old broken links of affection restored, \nWhen the care-wearied man seeks his mother once more, \nAnd the worn matron smiles where the girl smiled before, \nWhat moistens the lip and what brightens the eye? \nWhat calls back the past, like the rich Pumpkin pie? \n\nOh, fruit loved of boyhood! the old days recalling, \nWhen wood-grapes were purpling and brown nuts were falling! \nWhen wild, ugly faces we carved in its skin, \nGlaring out through the dark with a candle within! \nWhen we laughed round the corn-heap, with hearts all in tune, \nOur chair a broad pumpkin,\u2014our lantern the moon, \nTelling tales of the fairy who travelled like steam \nIn a pumpkin-shell coach, with two rats for her team! \n\nThen thanks for thy present! none sweeter or better \nE'er smoked from an oven or circled a platter! \nFairer hands never wrought at a pastry more fine, \nBrighter eyes never watched o'er its baking, than thine! \nAnd the prayer, which my mouth is too full to express, \nSwells my heart that thy shadow may never be less, \nThat the days of thy lot may be lengthened below, \nAnd the fame of thy worth like a pumpkin-vine grow, \nAnd thy life be as sweet, and its last sunset sky \nGolden-tinted and fair as thy own Pumpkin pie! </pre>\n "}, {"title": "It Was Raining in Delft", "view_node": "/poem/it-was-raining-delft", "field_author": "<a href=\"/poet/peter-gizzi\" hreflang=\"und\">Peter Gizzi</a>", "field_date_published": "2003", "body": " <p>A cornerstone. Marble pilings. Curbstones and brick.<br />I saw rooftops. The sun after a rain shower.<br />Liz, there are children in clumsy jackets. Cobblestones<br />\u00a0\u00a0\u00a0\u00a0\u00a0\u00a0\u00a0\u00a0\u00a0and the sun now in a curbside pool.<br />I will call in an hour where you are sleeping. I\u2019ve been walking<br />\u00a0\u00a0\u00a0\u00a0\u00a0\u00a0\u00a0\u00a0\u00a0for 7 hrs on yr name day.<br />Dead, I am calling you now.<br />There are colonnades. Yellow wrappers in the square.<br />Just what you\u2019d suspect: a market with flowers and matrons,<br />\u00a0\u00a0\u00a0\u00a0\u00a0\u00a0\u00a0\u00a0\u00a0handbags.<br />Beauty walks this world. It ages everything.<br />I am far and I am an animal and I am just another I-am poem,<br />\u00a0\u00a0\u00a0\u00a0\u00a0\u00a0\u00a0\u00a0\u00a0a we-see poem, a they-love poem.<br />The green. All the different windows.<br />There is so much stone here. And grass. So beautiful each<br />\u00a0\u00a0\u00a0\u00a0\u00a0\u00a0\u00a0\u00a0\u00a0translucent electric blade.<br />And the noise. Cheers folding into traffic. These things.<br />\u00a0\u00a0\u00a0\u00a0\u00a0\u00a0\u00a0\u00a0\u00a0Things that have been already said many times:<br />leaf, zipper, sparrow, lintel, scarf, window shade.</p> "}, {"title": "Chateau If", "view_node": "/poem/chateau-if", "field_author": "<a href=\"/poet/peter-gizzi\" hreflang=\"und\">Peter Gizzi</a>", "field_date_published": "2003", "body": " <p>\u00a0\u00a0\u00a0\u00a0\u00a0\u00a0\u00a0\u00a0\u00a0If love if then if now if the flowers of if the conditional<br />if of arrows the condition of if<br />\u00a0\u00a0\u00a0\u00a0\u00a0\u00a0\u00a0\u00a0\u00a0if to say light to inhabit light if to speak if to live, so<br />\u00a0\u00a0\u00a0\u00a0\u00a0\u00a0\u00a0\u00a0\u00a0if to say it is you if love is if your form is if your waist that<br />pictures the fluted stem if lavender<br />\u00a0\u00a0\u00a0\u00a0\u00a0\u00a0\u00a0\u00a0\u00a0if in this field<br />\u00a0\u00a0\u00a0\u00a0\u00a0\u00a0\u00a0\u00a0\u00a0if I were to say hummingbird it might behave as an<br />adjective here<br />\u00a0\u00a0\u00a0\u00a0\u00a0\u00a0\u00a0\u00a0\u00a0if not if the heart\u2019s a flutter if nerves map a city if a city<br />on fire<br />\u00a0\u00a0\u00a0\u00a0\u00a0\u00a0\u00a0\u00a0\u00a0if I say myself am I saying myself (if in this instant) as if<br />the object of your gaze if in a sentence about love you might<br />write if one day if you would, so<br />\u00a0\u00a0\u00a0\u00a0\u00a0\u00a0\u00a0\u00a0\u00a0if to say myself if in this instance if to speak as<br />another\u2014<br />\u00a0\u00a0\u00a0\u00a0\u00a0\u00a0\u00a0\u00a0\u00a0if only to render if in time and accept if to live now as if<br />disembodied from the actual handwritten letters m-y-s-e-l-f<br />\u00a0\u00a0\u00a0\u00a0\u00a0\u00a0\u00a0\u00a0\u00a0if a creature if what you say if only to embroider\u2014a<br />city that overtakes the city I write.</p> "}, {"title": "A Slice of Wedding Cake (audio only)", "view_node": "/poem/slice-wedding-cake-audio-only", "field_author": "<a href=\"/poet/robert-graves\" hreflang=\"und\">Robert Graves</a>", "field_date_published": "1966", "body": " <p>\u00a0</p><p>Click the icon above to listen to this audio poem.</p> "}, {"title": "It&#039;s all I have to bring today (26)", "view_node": "/poem/its-all-i-have-bring-today-26", "field_author": "<a href=\"/poet/emily-dickinson\" hreflang=\"und\">Emily Dickinson</a>", "field_date_published": "1890", "body": "<p><span class=\"long-line\">It's all I have to bring today\u2014</span><br /><span class=\"long-line\">This, and my heart beside\u2014</span><br /><span class=\"long-line\">This, and my heart, and all the fields\u2014</span><br /><span class=\"long-line\">And all the meadows wide\u2014</span><br /><span class=\"long-line\">Be sure you count\u2014should I forget</span><br /><span class=\"long-line\">Some one the sum could tell\u2014</span><br /><span class=\"long-line\">This, and my heart, and all the Bees</span><br /><span class=\"long-line\">Which in the Clover dwell.</span></p>\n"}, {"title": "To Sylvia, To Wed", "view_node": "/poem/sylvia-wed", "field_author": "<a href=\"/poet/robert-herrick\" hreflang=\"und\">Robert Herrick</a>", "field_date_published": "1648", "body": " <p>Let us, though late, at last, my Silvia, wed;<br />And loving lie in one devoted bed.<br />Thy watch may stand, my minutes fly post haste;<br />No sound calls back the year that once is past.<br />Then, sweetest Silvia, let's no longer stay;<br />True love, we know, precipitates delay.<br />Away with doubts, all scruples hence remove!<br />No man, at one time, can be wise, and love.</p> "}, {"title": "A Hand", "view_node": "/poem/hand", "field_author": "<a href=\"/poet/jane-hirshfield\" hreflang=\"und\">Jane Hirshfield</a>", "field_date_published": "2001", "body": "<p><span class=\"long-line\">A hand is not four fingers and a thumb.</span></p>\n<p><span class=\"long-line\">Nor is it palm and knuckles,</span><br /><span class=\"long-line\">not ligaments or the fat's yellow pillow,</span><br /><span class=\"long-line\">not tendons, star of the wristbone, meander of veins.</span></p>\n<p><span class=\"long-line\">A hand is not the thick thatch of its lines</span><br /><span class=\"long-line\">with their infinite dramas,</span><br /><span class=\"long-line\">nor what it has written,</span><br /><span class=\"long-line\">not on the page,</span><br /><span class=\"long-line\">not on the ecstatic body.</span></p>\n<p><span class=\"long-line\">Nor is the hand its meadows of holding, of shaping\u2014</span><br /><span class=\"long-line\">not sponge of rising yeast-bread,</span><br /><span class=\"long-line\">not rotor pin's smoothness,</span><br /><span class=\"long-line\">not ink.</span></p>\n<p><span class=\"long-line\">The maple's green hands do not cup</span><br /><span class=\"long-line\">the proliferant rain.</span><br /><span class=\"long-line\">What empties itself falls into the place that is open.</span></p>\n<p><span class=\"long-line\">A hand turned upward holds only a single, transparent question.</span></p>\n<p><span class=\"long-line\">Unanswerable, humming like bees, it rises, swarms, departs.</span></p>\n<p>\u20142000</p>\n"}, {"title": "Waking This Morning Dreamless After Long Sleep", "view_node": "/poem/waking-morning-dreamless-after-long-sleep", "field_author": "<a href=\"/poet/jane-hirshfield\" hreflang=\"und\">Jane Hirshfield</a>", "field_date_published": "2001", "body": "<p>But with the sentence: <i>\"Use your failures for paper.\"</i> Meaning, I understood, the backs of failed poems, but also my life. Whose far side I begin now to enter\u2014 A book imprinted without seeming season, each blank day bearing on its reverse, in random order, the mad-set type of another. December 12, 1960. April 4, 1981. 13th of August, 1974\u2014 Certain words bleed through to the unwritten pages. To call this memory offers no solace. <i>\"Even in sleep, the heavy millstones turning.\"</i> I do not know where the words come from, what the millstones, where the turning may lead. I, a woman forty-five, beginning to gray at the temples, putting pages of ruined paper into a basket, pulling them out again.</p>\n\n<p>\u20141998</p>\n"}, {"title": "This Was Once a Love Poem", "view_node": "/poem/was-once-love-poem", "field_author": "<a href=\"/poet/jane-hirshfield\" hreflang=\"und\">Jane Hirshfield</a>", "field_date_published": "2001", "body": "<p><span class=\"long-line\">This was once a love poem,</span><br /><span class=\"long-line\">before its haunches thickened, its breath grew short,</span><br /><span class=\"long-line\">before it found itself sitting,</span><br /><span class=\"long-line\">perplexed and a little embarrassed,</span><br /><span class=\"long-line\">on the fender of a parked car,</span><br /><span class=\"long-line\">while many people passed by without turning their heads.</span></p>\n\n<p><span class=\"long-line\">It remembers itself dressing as if for a great engagement.</span><br /><span class=\"long-line\">It remembers choosing these shoes,</span><br /><span class=\"long-line\">this scarf or tie.</span></p>\n\n<p><span class=\"long-line\">Once, it drank beer for breakfast,</span><br /><span class=\"long-line\">drifted its feet</span><br /><span class=\"long-line\">in a river side by side with the feet of another.</span></p>\n\n<p><span class=\"long-line\">Once it pretended shyness, then grew truly shy,</span><br /><span class=\"long-line\">dropping its head so the hair would fall forward,</span><br /><span class=\"long-line\">so the eyes would not be seen.</span></p>\n\n<p><span class=\"long-line\">IT spoke with passion of history, of art.</span><br /><span class=\"long-line\">It was lovely then, this poem.</span><br /><span class=\"long-line\">Under its chin, no fold of skin softened.</span><br /><span class=\"long-line\">Behind the knees, no pad of yellow fat.</span><br /><span class=\"long-line\">What it knew in the morning it still believed at nightfall.</span><br /><span class=\"long-line\">An unconjured confidence lifted its eyebrows, its cheeks.</span></p>\n\n<p><span class=\"long-line\">The longing has not diminished.</span><br /><span class=\"long-line\">Still it understands. It is time to consider a cat,</span><br /><span class=\"long-line\">the cultivation of African violets or flowering cactus.</span></p>\n\n<p><span class=\"long-line\">Yes, it decides:</span><br /><span class=\"long-line\">Many miniature cacti, in blue and red painted pots. </span><br /><span class=\"long-line\">When it finds itself disquieted </span><br /><span class=\"long-line\">by the pure and unfamiliar silence of its new life,</span><br /><span class=\"long-line\">it will touch them\u2014one, then another\u2014</span><br /><span class=\"long-line\">with a single finger outstretched like a tiny flame.</span></p>\n\n<p><span class=\"long-line\">\u20141998</span></p>\n"}, {"title": "Space Station", "view_node": "/poem/space-station", "field_author": "<a href=\"/poet/tom-sleigh\" hreflang=\"und\">Tom Sleigh</a>", "field_date_published": "2005", "body": " <p>(Note: a space station generates gravity by revolving one way and then another. When it reverses direction to revolve the other way, there are several moments when gravity is suspended.)</p>\n<pre>\nMy mother and I and the dog were floating\nWeightless in the kitchen. Silverware\nHovered above the table. Napkins drifted\nJust below the ceiling. The dead who had been crushed\nBy gravity were free to move about the room,\nTo take their place at supper, lift a fork, knife, spoon\u2014\nA spoon, knife, fork that, outside this moment's weightlessness,\nWould have been immovable as mountains.\n\nMy mother and I and the dog were orbiting\nIn the void that follows after happiness\nOf an intimate gesture: Her hand stroking the dog's head\nAnd the dog looking up, expectant, into her eyes:\nThe beast gaze so direct and alienly concerned\nTo have its stare returned; the human gaze\nThat forgets, for a moment, that it sees\nWhat it's seeing and simply, fervently, sees...\n\nBut only for a moment. Only for a moment were my mother\nAnd the dog looking at each other not mother\nOr dog but that look\u2014I couldn't help but think,\nIf only I were a dog, or Mother was,\nThen that intimate gesture, this happiness passing\nCould last forever...such a vain, hopeless wish\nI was wishing; I knew it and didn't know it\nJust as my mother knew she was my mother\n\nAnd didn't...and as for the dog, her large black pupils,\nFixed on my mother's faintly smiling face,\nSeemed to contain a drop of the void\nWe were all suspended in; though only a dog\nWho chews a ragged rawhide chew toy shaped\nInto a bone, femur or cannonbone\nOf the heavy body that we no longer labored\nTo lift against the miles-deep air pressing\n\nUs to our chairs. The dog pricked her ears,\nSensing a dead one approaching. Crossing the kitchen,\nMy father was moving with the clumsy gestures\nOf a man in a space suit\u2014the strangeness of death\nMoving among the living\u2014though the world\nWas floating with a lightness that made us\nFeel we were phantoms: I don't know\nIf my mother saw him\u2014he didn't look at her\n\nWhen he too put his hand on the dog's head\nAnd the dog turned its eyes from her stare to his...\nAnd then the moment on its axis reversed,\nThe kitchen spun us the other way round\nAnd pressed heavy hands down on our shoulders\nSo that my father sank into the carpet,\nMy mother rested her chin on her hand\nAnd let her other hand slide off the dog's head,\n\nHer knuckles bent in a kind of torment\nOf moonscape erosion, ridging up into\nPeaks giving way to seamed plains\nWith names like The Sea of Tranquility\n\u2014Though nothing but a metaphor for how\nI saw her hand, her empty, still strong hand\nDangling all alone in the infinite space\nBetween the carpet and the neon-lit ceiling.</pre>\n "}, {"title": "Oracle", "view_node": "/poem/oracle", "field_author": "<a href=\"/poet/tom-sleigh\" hreflang=\"und\">Tom Sleigh</a>", "field_date_published": "2005", "body": " <pre>\nBecause the burn's unstable, burning too hot\nin the liquid hydrogen suction line\nand so causing vortices in the rocket fuel \n\nflaming hotter and hotter as the \"big boy\"\nblasts off, crawling painfully slowly \nup the blank sky, then, when he blinks \n\nexploding white hot against his wincing\nretina, the fireball's corona searing \nin his brain, he drives with wife and sons\n\nthe twisting road at dawn to help with the Saturday\ntest his division's working on: the crowd \nof engineers surrounding a pit dug in snow \n\nseeming talky, joky men for 6 a.m., masking \ntheir tension, hoping the booster rocket's\nsolid fuel will burn more evenly than the liquid\n\nand keep the company from layoffs rumored\nduring recess, though pride in making\nchemicals do just what they're calculated to\n\nalso keys them up as they lounge behind \npink caution tape sagging inertly \nin the morning calm: in the back seat, I kick \n\nmy twin brother's shin, bored at 6:10 a.m. \nuntil Dad turns to us and says, in a neutral tone, \n<i>Stop it, stop it now</i>, and we stop and watch: \n\na plaque of heat, a roar like a diesel blasting\nin your ear, heatwaves ricocheting off gray mist\nmelting backward into dawn, shockwaves rippling \n\nto grip the car and shake us gently, flame \ndimly seen like flame inside the brain confused \nby a father who promises pancakes after, \n\nwho's visibly elated to see the blast shoot \narabesques of mud and grit fountaining up \nfrom the snow-fringed hole mottling to black slag \n\nfired to ruts and cracks like a parched streambed. \nDeliriously sleepy, what were those flames doing \nmixed up with blueberry pancakes, imaginings of honey \n\ndripping and strawberry syrup or waffles, \nmaybe, corrugated like that earth, or a stack \nof half-dollars drenched and sticky...? \n\nMy father's gentle smile and nodding head\u2014\ngone ten years, and still I see him climbing \nslick concrete steps as if emerging from our next door\n\nneighbor's bomb shelter, his long-chilled shade \nfeeling sunlight on backs of hands, warmth on cheeks,\nthe brightness making eyes blink and blink...\n\nso like his expression when a friend came \nto say goodbye to him shrunken inside \nhimself as into a miles-deep bunker...\n\nand then he smiled, his white goatee \nflexing, his parched lips cracked but welcoming \nas he took that friend's hand and held it, held it \n\nand pressed it to his cheek... The scales, weighing \none man's death and his son's grief against \na city's char and flare, blast-furnace heat melting \n\nto slag whatever is there, then not there\u2014\ndoesn't seesaw to a balance, but keeps shifting,\nshifting...nor does it suffice to make simple\n\ncorrespondences between bunkers and one man's \nisolation inside his death, a death \nhe died at home and chose...at least insofar \n\nas death allows anyone a choice, for what\ncan you say to someone who's father or mother\ncrossing the street at random, or running \n\nfor cover finds the air sucked out \nof them in a vacuum of fire calibrated\nin silence in a man's brain like my father's\n\n\u2014the numbers calculated inside the engineer's \nimagination become a shadowy gesture as in Leonardo's \ndrawing of a mortar I once showed my father \n\nand that we admired for its precision, shot raining \ndown over fortress walls in spray softly pattering,\nhailing down shrapnel like the fountain of Trevi\n\nperfectly uniform, lulling to the ear and eye\nuntil it takes shape in the unforgiving\nthree dimensional, as when the fragile, \n\nantagonized, antagonistic human face\nbegins to slacken into death as in my own \nfather's face, a truly gentle man except \n\nfor his work which was conducted gently too\u2014\nsince \"technicals\" like him were too shy for sales \nor management, and what angers he may have had \n\nseemed to be turned inward against judging\nothers so the noise inside his head was quieter\nthan most and made him, to those who knew him well,\n\nnot many, but by what they told me after he died,\nthe least judgemental person \nthey'd ever known\u2014who, at his almost next to last \n\nbreath, uncomplaining, said to his son's \nstraining, over-eager solicitation, \n\u2014<i>Is there something you need, anything?\n\n\u2014That picture\u2014straighten it...</i> his face smoothing \nto a slate onto which light scribbles what? a dark joke,\nan elegant equation, a garbled oracle?\n</pre>\n "}, {"title": "Mood Indigo (audio only)", "view_node": "/poem/mood-indigo-audio-only", "field_author": "<a href=\"/poet/william-matthews\" hreflang=\"und\">William Matthews</a>", "field_date_published": "1970", "body": " <p>\u00a0</p><p>Click the icon above to listen to this audio poem.</p> "}, {"title": "calles de los dolores y trastorno de tension postraumatica", "view_node": "/poem/calles-de-los-dolores-y-trastorno-de-tension-postraumatica", "field_author": "<a href=\"/poet/barbara-jane-reyes\" hreflang=\"und\">Barbara Jane Reyes</a>", "field_date_published": "2005", "body": " <p>your methods are unacceptable :: beyond human restraint :: things get confused i know :: the heart\u2019s a white sepulcher and no man guards its doors :: against the growing dark :: incessant blades beat air :: incessant blades :: what means are available to terminate :: gook names :: with extreme prejudice :: you may use those :: blades beat :: easier than learning their gook names :: your boys don\u2019t know any better than :: gook names :: dead men hanging from trees so far from the known world :: how does it come to this :: being blown to hell :: incessant :: gook names :: in panic mode trigger finger instinct efficiency :: incessant blades beat air :: blades beat :: dead men hanging :: gook names :: no sin committed :: no dead men :: to forgive.</p> "}], "pager": {"current_page": 578, "total_items": "13248", "total_pages": 663, "items_per_page": 20}}