{"rows": [{"title": "Father Lynch Returns from the Dead", "view_node": "/poem/father-lynch-returns-dead", "field_author": "<a href=\"/poet/jean-valentine\" hreflang=\"und\">Jean Valentine</a>", "field_date_published": "2004", "body": " <pre>\nThere's one day a year\nthey can return, \nif they want.\nHe says he won't again.\nI ask what it's like\u2014\nhe quotes St. Paul:\n\"Now hope is sweet.\"\nThen in his own voice.\n<i>Oh well it's a great scandal,\nthe naked are easier to kill</i>.</pre>\n "}, {"title": "In Passing", "view_node": "/poem/passing-0", "field_author": "<a href=\"/poet/stanley-plumly\" hreflang=\"und\">Stanley Plumly</a>", "field_date_published": "2000", "body": " <pre>\nOn the Canadian side, we're standing far enough away\nthe Falls look like photography, the roar a radio.\n\nIn the real rain, so vertical it fuses with the air,\nthe boat below us is starting for the caves.\n\nEveryone on deck is dressed in black, braced for weather\nand crossing against the current of the river.\n\nThey seem lost in the gorge dimensions of the place,\nthen, in fog, in a moment, gone.\n\n                                             In the Chekhov story,\nthe lovers live in a cloud, above the sheer witness of a valley.\n\nThey call it circumstance. They look up at the open wing\nof the sky, or they look down into the future.\n\nDeath is a power like any other pull of the earth.\nThe people in the raingear with the cameras want to see it\n\nfrom the inside, from behind, from the dark looking into the light.\nThey want to take its picture, give it size\u2014\n\nhow much easier to get lost in the gradations of a large\nand yellow leaf drifting its good-bye down one side of the gorge.\n\nThere is almost nothing that does not signal loneliness,\nthen loveliness, then something connecting all we will become.\n\nAll around us the luminous passage of the air, \nthe flat, wet gold of the leaves. I will never love you\n\nmore than at this moment, here in October, \nthe new rain rising slowly from the river.</pre>\n "}, {"title": "An Arbor", "view_node": "/poem/arbor", "field_author": "<a href=\"/poet/linda-gregerson\" hreflang=\"und\">Linda Gregerson</a>", "field_date_published": "1996", "body": " <pre>\n          1\n\nThe world's a world of trouble, your mother must\n                    have told you\n          that. Poison leaks into the basements\n\nand tedium into the schools. The oak\n                    is going the way\n          of the elm in the upper Midwest\u2014my cousin\n\nearns a living by taking the dead ones\n                    down.\n          And Jason's alive yet, the fair-\n\nhaired child, his metal crib next\n                     to my daughter's.\n          Jason is nearly one year old but last\n\nsaw light five months ago and won't\n                    see light again.\n\n          2\n\nLeaf against leaf without malice\n                    or forethought,\n          the manifold species of murmuring\n\nharm. No harm intended, there never is.\n                    The new\n          inadequate software gets the reference librarian\n\nfired. The maintenance crew turns off power one\n                    weekend\n          and Monday the lab is a morgue: fifty-four\n\nrabbits and seventeen months of research.\n                    Ignorance loves\n          as ignorance does and always\n\nholds high office.\n\n          3\n\nJason had the misfortune to suffer misfortune\n                    the third\n          of July. July's the month of hospital ro-\n\ntations; on holiday weekends the venerable\n                    stay home.\n          So when Jason lay blue and inert on the table\n\nand couldn't be made to breathe for three-and-a-\n                    quarter hours, \n          the staff were too green to let him go.\n\nThe household gods have abandoned us to the gods\n                    of juris-\n          prudence and suburban sprawl. The curve\n\nof new tarmac, the municipal pool, \n                    the sky at work\n          on the pock-marked river, fatuous sky,\n\nthe park where idling cars, mere yards\n                    from the slide\n          and the swingset, deal beautiful oblivion in nickel\n\nbags: the admitting room and its stately drive,\n                    possessed\n          of the town's best view.\n\n          4\n\nAnd what's to become of the three-year-old brother?\n                    When Jason was found\n          face down near the dogdish\u2014it takes\n\njust a cupful of water to drown\u2014\n                    his brother stood still\n          in the corner and said he was hungry\n\nand said that it wasn't his fault.\n                    No fault.\n          The fault's in nature, who will\n\nwithout system or explanation\n                    make permanent\n          havoc of little mistakes. A natural\n\nmistake, the transient ill will we define\n                    as the normal\n          and trust to be inconsequent,\n\nby nature's own abundance soon absorbed. \n\n          5\n\nOak wilt, it's called, the new disease.\n                    Like any such\n          contagion\u2014hypocrisy in the conference room,\n\nflattery in the hall\u2014it works its mischief mostly\n                    unremarked.\n          The men on the links haven't noticed\n\nyet. Their form is good. They're par.\n                    The woman who's\n          prospered from hating ideas loves causes\n\ninstead. A little shade, a little firewood.\n                    I know\n          a stand of oak on which my father's\n\nearthly joy depends. We're slow\n                    to cut our losses.</pre>\n "}, {"title": "Pastoral", "view_node": "/poem/pastoral-0", "field_author": "<a href=\"/poet/emily-wilson\" hreflang=\"und\">Emily Wilson</a>", "field_date_published": "2001", "body": " <pre>\nThe mordants in their noise,\nthe night transports.\n\nA means of coming to\nthe switchyard of the tongue.\n\nTo have once\nset such store by\n\nforced creatures.\nNot changed toward\n\nsomething of my own.\nThe towns raised chaffed\n\nseas to ground them.\nIn that frieze before\n\nstorm you went on.\nEffigy loomed out\n\nof cornfield. Future\ninside its trussed forms.</pre>\n "}, {"title": "Thought as Philosophical Torment", "view_node": "/poem/thought-philosophical-torment", "field_author": "<a href=\"/poet/will-alexander\" hreflang=\"und\">Will Alexander</a>", "field_date_published": "2009", "body": " <pre>\nIn the mirror of excessive drift\nthere exist those values\nwhich exist within schisms\nwithin error wracked spectrums\nwhich glow by means of vapour\nabove anti-dimensional obstruction\n\nthe visage of metrics\ntuned to a mesmeric lisp\nto a rancid facial dice\nthrown across ethers\nacross 3 or 4 sierras or voids\n\nso that each sculpting\neach prism\nadvances\nthe apparitional understanding\nto a macro-positional scalding\nwhich collapses\nwhich takes on the centigrade of absence\nbound to invisible comradery</pre>\n "}, {"title": "The Last 4 Things [That hard thread]", "view_node": "/poem/last-4-things-hard-thread", "field_author": "<a href=\"/poet/kate-greenstreet\" hreflang=\"und\">Kate Greenstreet</a>", "field_date_published": "2009", "body": " <pre>\nThat hard thread\nbetween us.\n\nIs it gold? Do I have to be\nso outshined by my curtain?\n\nOpened,\nespecially by breaking.\n\n<i>people who would die\npeople who would almost\n\ndie and\nwho would be injured</i>\n\n\nMy dad was in the water.\nAcross an unprecedented space.\n\nIt would rain\nfor days, they said\n\nhe'd come home.\n[<i>lists the father's wounds</i>]\n\n\nThat hard thread\nis a bone. Is made of bone.\n\nWhen I was \nalone, \na girl,\n\nthe first loss,\nbetween tunnels...\n\nI didn't need so much.\nI'd eventually get hungry.</pre>\n "}, {"title": "Stanzas Written in Dejection, Near Naples", "view_node": "/poem/stanzas-written-dejection-near-naples", "field_author": "<a href=\"/poet/percy-bysshe-shelley\" hreflang=\"und\">Percy Bysshe Shelley</a>", "field_date_published": "1824", "body": " <pre>\n                                I\n  The sun is warm, the sky is clear,\n    The waves are dancing fast and bright,\n  Blue isles and snowy mountains wear\n    The purple noon's transparent might,\n    The breath of the moist earth is light,\n  Around its unexpanded buds;\n    Like many a voice of one delight,\n  The winds, the birds, the ocean floods, \nThe City's voice itself, is soft like Solitude's.\n\n                                II\n  I see the Deep's untrampled floor\n    With green and purple seaweeds strown;\n  I see the waves upon the shore,\n    Like light dissolved in star-showers, thrown:\n    I sit upon the sands alone,\u2014\n  The lightning of the noontide ocean\n    Is flashing round me, and a tone\n  Arises from its measured motion, \nHow sweet! did any heart now share in my emotion.\n\n                                III\n  Alas! I have nor hope nor health,\n    Nor peace within nor calm around, \n  Nor that content surpassing wealth\n    The sage in mediation found,\n    And walked with inward glory crowned\u2014\n  Nor fame, nor power, nor love, nor leisure.\n    Others I see whom these surround\u2014\n  Smiling they live, and call life pleasure;\u2014\nto me that cup has been dealt in another measure.\n\n                                IV\n  Yet now despair itself is mild, \n    Even as the winds and waters are;\n  I could lie down like a tired child,\n    And weep away the life of care\n    Which I have borne and yet must bear, \n  Till death like sleep might steal on me, \n    And I might feel in the warm air\n  My cheek grow cold, and hear the sea\nBreathe o'er my dying brain its last monotony.\n\n                                V\n  Some might lament that I were cold,\n    As I, when this sweet day is gone, \n  Which my lost heart, too soon grown old, \n    Insults with this untimely moan;\n    They might lament\u2014for I am one\n  Whom men love not,\u2014and yet regret, \n    Unlike this day, which, when the sun\n  Shall on its stainless glory set, \nWill linger, though enjoyed, like joy in memory yet.</pre>\n "}, {"title": "Release", "view_node": "/poem/release", "field_author": "<a href=\"/poet/peter-makuck\" hreflang=\"und\">Peter Makuck</a>", "field_date_published": "2010", "body": " <pre>\nWith rod and tackle box, \nI'm slogging through soft sand,  \n\na red sun going down in the surf,\nswag-belly clouds drifting in\n\nwith Ray, only two months dead, \ngoing on about girls that summer\n\nwe studied French in Qu\u00e9bec and\nguzzled Labatts at the <i>Chien d'Or</i>,\n\nabout how he'll marry again, keep \nat it until he gets it right\u2014<i>Pas vrai</i>?\n\nAbove the tide wrack, a woman\nin a two-piece with half my years\n\nkneels struggling in the sand\nwith a pillow of feathers, \n\none wing flapping\u2014a pelican \ntangled in fish line, treble hook \n\nin the bill pouch, the other in its wing.\nRay says, <i>Ask her out for a drink</i>\n\nbut she says, <i>Could you give me a hand</i>?\nI drop the tackle and secure the wing\n\nwhile she croons to calm him and\nwith one free hand untangles the line.\n\nWith pliers from the tackle box,\nI expose the barbs and carefully clip, \n\na total of six loud snaps. Then I hold\nthe bird while she frees the last tangle\n \nand we step back, join the onlookers, \na father explaining care to his kids.\n\nThe pelican now tests his wings, rowing\nin place. He looks around and seems \n\nto enjoy the attention, just as Ray did\nin bars, buying drinks and telling jokes.\n\nBut this college boy with a can of Bud\nis no joke and says they watched it flap \n\nall afternoon from that deck on the dune.  \nHis buddy agrees with a belch \n\nthat buys a round of frat boy laughter.\nRay tells me the kid needs his clock cleaned\n\njust when the pelican waddles up\nand puts his soft webbed foot on mine. \n\nHe tilts his head to catch my look, then\nflapping runs into the air, tucks his feet,\n\nand climbs, turning over our small circle, \nbefore heading west. Dazzled and dumb,\n\nI'm faintly aware of the woman, then gone, \nweightless and soaring over water, looking\n\ndown on myself slogging through sand, \ncertain that I'm being watched,\n\nif only by another self\nwho will have to tell how it happened.</pre>\n "}, {"title": "Designer Kisses", "view_node": "/poem/designer-kisses", "field_author": "<a href=\"/poet/major-jackson\" hreflang=\"und\">Major Jackson</a>", "field_date_published": "2010", "body": "<p><span class=\"long-line\">I'm glum about your sportive flesh in the empire of blab,</span><br /><span class=\"long-line\">and the latest guy running his trendy tongue like a tantalizing surge</span><br /><span class=\"long-line\">over your molars, how droll. Love by a graveyard <em>is</em> redundant,</span><br /><span class=\"long-line\">but the skin is an obstacle course like Miami where we are </span><br /><span class=\"long-line\">inescapably consigned: tourists keeping the views new.</span><br /><span class=\"long-line\">What as yet we desire, our own fonts of adoration. By morning,</span><br /><span class=\"long-line\">we're laid out like liquid timepieces, each other's exercise in perpetual</span><br /><span class=\"long-line\">enchantment, for there is that beach in us that is untranslatable; footprints</span><br /><span class=\"long-line\">abound. I understand: you're at a clothes rack at Saks</span><br /><span class=\"long-line\">lifting a white linen blouse at tear's edge wondering.</span></p>\n"}, {"title": "[Snow White]", "view_node": "/poem/snow-white", "field_author": "<a href=\"/poet/lightsey-darst\" hreflang=\"und\">Lightsey Darst</a>", "field_date_published": "2010", "body": " <pre>\n\u00a0\u00a0\u00a0\u00a0\u00a0\u00a0\u00a0\u00a0\u00a0\u00a0\u00a0\u00a0\u00a0\u00a0<i>do you have\n\u00a0\u00a0\u00a0\u00a0\u00a0\u00a0\u00a0\u00a0\u00a0\u00a0\u00a0\u00a0\u00a0\u00a0\u00a0\u00a0\u00a0\u00a0\u00a0\u00a0scars</i> / if not the hurt is mostly imagined.\n\nslash of blood against snow and who would wish for a child\n\"red as blood\"\u2014pretty words,\nbut the daughter suffers.\n\n<i>When I was young I loved</i> ____, <i>now\nI love</i> ____, and in between\n\u00a0\u00a0\u00a0\u00a0\u00a0\u00a0\u00a0\u00a0\u00a0\u00a0\u00a0\u00a0\u00a0\u00a0\u00a0\u00a0\u00a0\u00a0\u00a0\u00a0\u00a0\u00a0\u00a0\u00a0\u00a0salt air, eclipse, the tinny rust of each year's puncture.\n\n\"As white as snow as red as blood\"\u2014I'd include more news\n\n\u00a0\u00a0\u00a0\u00a0\u00a0\u00a0\u00a0\u00a0\u00a0\u00a0\u00a0\u00a0\u00a0\u00a0\u00a0\u00a0\u00a0\u00a0\u00a0\u00a0\u00a0\u00a0\u00a0\u00a0\u00a0if I knew it. For she was a thin little thing, \nhardly more than a peep coming from that carmine mouth\u2014\n\n\u00a0\u00a0\u00a0\u00a0\u00a0\u00a0\u00a0\u00a0\u00a0\u00a0\u00a0\u00a0\u00a0\u00a0\u00a0\u00a0\u00a0\u00a0\u00a0\u00a0\u00a0\u00a0\u00a0\u00a0\u00a0yes ma'am, I'd like to bite the shiny apple, please.\n\u00a0\u00a0\u00a0\u00a0\u00a0\u00a0\u00a0\u00a0\u00a0A disease will \ufb01ll the airwaves until spring and then a girl\n\nand then a war. \"And black as ebony.\" Mother,\nyou had your wishes, all three. And then you die and she\n\n\u00a0\u00a0\u00a0\u00a0\u00a0\u00a0\u00a0\u00a0\u00a0is running through midnight woods while \n\u00a0\u00a0\u00a0\u00a0\u00a0\u00a0\u00a0\u00a0\u00a0\u00a0\u00a0\u00a0\u00a0\u00a0\u00a0\u00a0\u00a0\u00a0the most beautiful woman in the world \n\u00a0\u00a0\u00a0\u00a0\u00a0\u00a0\u00a0\u00a0\u00a0salts and peppers the heart &amp; lungs she leaves behind.</pre>\n "}, {"title": "Fabliau of Florida", "view_node": "/poem/fabliau-florida", "field_author": "<a href=\"/poet/wallace-stevens\" hreflang=\"und\">Wallace Stevens</a>", "field_date_published": "1923", "body": " <pre>\nBarque of phosphor\nOn the palmy beach,\n\nMove outward into heaven,\nInto the alabasters\nAnd night blues.\n\nFoam and cloud are one.\nSultry moon-monsters\nAre dissolving.\n\nFill your black hull\nWith white moonlight.\n\nThere will never be an end\nTo this droning of the surf.</pre>\n "}, {"title": "What the Last Evening Will Be Like", "view_node": "/poem/what-last-evening-will-be", "field_author": "<a href=\"/poet/edward-hirsch\" hreflang=\"und\">Edward Hirsch</a>", "field_date_published": "2010", "body": " <pre>\nYou're sitting at a small bay window\nin an empty caf\u00e9 by the sea.\nIt's nightfall, and the owner is locking up,\nthough you're still hunched over the radiator,\nwhich is slowly losing warmth.\n\nNow you're walking down to the shore\nto watch the last blues fading on the waves.\nYou've lived in small houses, tight spaces\u2014\nthe walls around you kept closing in\u2014\nbut the sea and the sky were also yours.\n\nNo one else is around to drink with you\nfrom the watery fog, shadowy depths.\nYou're alone with the whirling cosmos.\nGoodbye, love, far away, in a warm place.\nNight is endless here, silence infinite.</pre>\n "}, {"title": "Thread", "view_node": "/poem/thread-0", "field_author": "<a href=\"/poet/dan-chiasson\" hreflang=\"und\">Dan Chiasson</a>", "field_date_published": "2010", "body": "<p><span class=\"long-line\">I lack the rigor of a lightning bolt,</span><br /><span class=\"long-line\">the weight of an anchor. I am</span><br /><span class=\"long-line\">frayed where it would be highly useful\u2014</span><br /><span class=\"long-line\">and this I feel perpetually\u2014to make a point.</span></p>\n\n<p><span class=\"long-line\">I think if I can concentrate I might turn sharp.</span><br /><span class=\"long-line\">Only, I don't know how to concentrate\u2014</span><br /><span class=\"long-line\">I know only the look of someone concentrating,</span><br /><span class=\"long-line\">indistinguishable from nearsightedness.</span></p>\n\n<p><span class=\"long-line\">It is hard for you to be near me,</span><br /><span class=\"long-line\">my silly intensity shuffling</span><br /><span class=\"long-line\">all the insignia of interiority.</span><br /><span class=\"long-line\">Knowing me never made anyone a needle.</span></p>\n"}, {"title": "Evolution", "view_node": "/poem/evolution", "field_author": "<a href=\"/poet/john-banister-tabb\" hreflang=\"und\">John Banister Tabb</a>", "field_date_published": "1894", "body": " <pre>\nOut of the dusk a shadow,\n   Then, a spark;\nOut of the cloud a silence,\n   Then, a lark;\nOut of the heart a rapture,\n   Then, a pain;\nOut of the dead, cold ashes,\n   Life again.</pre>\n "}, {"title": "The Destruction Of Sennacherib", "view_node": "/poem/destruction-sennacherib", "field_author": "<a href=\"/poet/george-gordon-byron\" hreflang=\"und\">George Gordon Byron</a>", "field_date_published": "1815", "body": " <pre>\nThe Assyrian came down like the wolf on the fold,\nAnd his cohorts were gleaming in purple and gold;\nAnd the sheen of their spears was like stars on the sea,\nWhen the blue wave rolls nightly on deep Galilee.\n \nLike the leaves of the forest when Summer is green,\nThat host with their banners at sunset were seen;\nLike the leaves of the forest when Autumn hath blown,\nThat host on the morrow lay withered and strown.\n \nFor the Angel of Death spread his wings on the blast,\nAnd breathed in the face of the foe as he passed;\nAnd the eyes of the sleepers waxed deadly and chill,\nAnd their hearts but once heaved, and for ever grew still!\n \nAnd there lay the steed with his nostril all wide,\nBut through it there rolled not the breath of his pride;\nAnd the foam of his gasping lay white on the turf,\nAnd cold as the spray of the rock-beating surf.\n \nAnd there lay the rider distorted and pale,\nWith the dew on his brow, and the rust on his mail;\nAnd the tents were all silent, the banners alone,\nThe lances unlifted, the trumpet unblown.\n \nAnd the widows of Ashur are loud in their wail,\nAnd the idols are broke in the temple of Baal;\nAnd the might of the Gentile, unsmote by the sword,\nHath melted like snow in the glance of the Lord.</pre>\n "}, {"title": "Stars", "view_node": "/poem/stars", "field_author": "<a href=\"/poet/keith-douglas\" hreflang=\"und\">Keith Douglas</a>", "field_date_published": "2010", "body": " <pre>\n\u00a0\u00a0\u00a0\u00a0\u00a0\u00a0\u00a0<i>(For Antoinette)</i>\n\nThe stars still marching in extended order\nmove out of nowhere into nowhere. Look, they are halted\non a vast field tonight, true no man's land.\nFar down the sky with sword and belt must stand\nOrion. For commissariat of this exalted\nwar-company, the Wain. No fabulous border\n\ncould swallow all this bravery, no band\nwill ever face them: nothing but discipline\nhas mobilized and still maintains them. So\nTime and his ancestors have seen them. So\nalways to fight disorder is their business,\nand victory continues in their hand.\n\nFrom under the old hills to overhead,\nand down there marching on the hills again\ntheir camp extends. There go the messengers,\nComets, with greetings of ethereal officers\nfrom tent to tent. Yes, we look up with pain\nat distant comrades and plains we cannot tread.\n\n\u00a0\u00a0\u00a0\u00a0\u00a0\u00a0\u00a01939</pre>\n "}, {"title": "Chaos Is the New Calm", "view_node": "/poem/chaos-new-calm", "field_author": "<a href=\"/poet/wyn-cooper\" hreflang=\"und\">Wyn Cooper</a>", "field_date_published": "2010", "body": " <pre>\nChaos is the new calm\nviolence the new balm   \nto be spread on lips\nunused to a kiss.             \n\nLeft is the new right\nas I brace for a fight\nwith a man who stands\non his remaining hand.\n\nFetid harbor harbor me      \nuntil someone is free          \nto drive me away          \nfrom what happened today.\n        \nDon't strand me standing here.\nIf you leave, leave beer. </pre>\n "}, {"title": "Completely Friday", "view_node": "/poem/completely-friday", "field_author": "<a href=\"/poet/luis-garcia-montero\" hreflang=\"und\">Luis Garc\u00eda Montero</a>", "field_date_published": "2010", "body": " <pre>\nBy the detergents and dish soap\nby the orderly books and broom on the floor,\nby the clean windows, by the table\nwithout papers, notebooks or pens,\nby the easy chairs without newspapers,\nwhoever approaches my house\nwill find a day\nthat is completely Friday.\n\nThat is how I find it\nwhen I go out into the streets\nand the cathedral has been\ntaken over by the world of the living\nand in the supermarket\nJune becomes a bottle of gin,\nsausages and dessert,\nfan of light in the kiosk\nof the flower shop,\ncity that undresses completely Friday.\n\nAs does my body\nwhich recalls the memory of your body\nand foretells your presence\nin the restlessness of all it touches,\nin the remote control for the music,\nin the paper of the magazine,\nin the ice melted away\njust as the morning melts away\ncompletely Friday.\n\nWhen the front door opens\nthe icebox divines what my body knew\nand suggests other titles for this poem:\ncompletely you,\nmorning of the return, good love,\ngood company.</pre>\n "}, {"title": "Apocalypse Soliloquy", "view_node": "/poem/apocalypse-soliloquy", "field_author": "<a href=\"/poet/scott-hightower\" hreflang=\"und\">Scott Hightower</a>", "field_date_published": "2010", "body": " <pre>\nI hope my death is not stolen from me\nby a fiery blast of Fahrenheit or Celsius      \nor another calculatable accuracy.                       \n\nI will gladly relinquish all the pleasures of daily \nbread, the pride and dreams of art\u2014even pulse;\nbut I hope my death will not be taken from me.\n\nActually, it is a modest policy;\nlittle there to discuss as to solace\nor in the way of privacy.\n\nA valued moment of self-possession? Might it be\nsomething to embrace more than to expulse?\nI hope my death will not be pried from me.\n\nMy end is not to be just a cause in a public sea \nof scientists teaming against a disease,\na private point in a welter of piracy.\n\nAfter all, won't it fundamentally and rightly \nbe mine and no one else's? I hope my death is \nnot taken from me; better, it be \nan appointment kept in a private sea.</pre>\n "}, {"title": "Cameo One", "view_node": "/poem/cameo-one", "field_author": "<a href=\"/poet/michael-mcclure\" hreflang=\"und\">Michael McClure</a>", "field_date_published": "2010", "body": " <p align=\"center\">WE HAVE GONE<br />GONE. GONE<br />in the hole where<br />soul swells<br />into<br />nothing<br />leaving solid space<br />where profiles<br />of gods and fairies<br />are carved<br />and<br />finely<br />polished<br />by the clanking of trucks,<br />thunder-shaking<br />waves,<br />and the taste of mangos.</p> "}], "pager": {"current_page": 491, "total_items": "13248", "total_pages": 663, "items_per_page": 20}}