{"rows": [{"title": "Love for This Book", "view_node": "/poem/love-book", "field_author": "<a href=\"/poet/pablo-neruda\" hreflang=\"und\">Pablo Neruda</a>", "field_date_published": "1966", "body": "<p><span class=\"long-line\">In these lonely regions I have been powerful</span><br /><span class=\"long-line\">in the same way as a cheerful tool</span><br /><span class=\"long-line\">or like untrammeled grass which lets loose its seed</span><br /><span class=\"long-line\">or like a dog rolling around in the dew.</span><br /><span class=\"long-line\">Matilde, time will pass wearing out and burning</span><br /><span class=\"long-line\">another skin, other fingernails, other eyes, and then</span><br /><span class=\"long-line\">the algae that lashed our wild rocks,</span><br /><span class=\"long-line\">the waves that unceasingly construct their own whiteness,</span><br /><span class=\"long-line\">all will be firm without us,</span><br /><span class=\"long-line\">all will be ready for the new days,</span><br /><span class=\"long-line\">which will not know our destiny.</span></p>\n\n<p><span class=\"long-line\">What do we leave here but the lost cry</span><br /><span class=\"long-line\">of the seabird, in the sand of winter, in the gusts of wind</span><br /><span class=\"long-line\">that cut our faces and kept us</span><br /><span class=\"long-line\">erect in the light of purity,</span><br /><span class=\"long-line\">as in the heart of an illustrious star?</span></p>\n\n<p><span class=\"long-line\">What do we leave, living like a nest</span><br /><span class=\"long-line\">of surly birds, alive, among the thickets</span><br /><span class=\"long-line\">or static, perched on the frigid cliffs?</span><br /><span class=\"long-line\">So then, if living was nothing more than anticipating</span><br /><span class=\"long-line\">the earth, this soil and its harshness,</span><br /><span class=\"long-line\">deliver me, my love, from not doing my duty, and help me</span><br /><span class=\"long-line\">return to my place beneath the hungry earth.</span></p>\n\n<p><span class=\"long-line\">We asked the ocean for its rose,</span><br /><span class=\"long-line\">its open star, its bitter contact,</span><br /><span class=\"long-line\">and to the overburdened, to the fellow human being, to the wounded</span><br /><span class=\"long-line\">we gave the freedom gathered in the wind.</span><br /><span class=\"long-line\">It's late now. Perhaps</span><br /><span class=\"long-line\">it was only a long day the color of honey and blue,</span><br /><span class=\"long-line\">perhaps only a night, like the eyelid</span><br /><span class=\"long-line\">of a grave look that encompassed</span><br /><span class=\"long-line\">the measure of the sea that surrounded us,</span><br /><span class=\"long-line\">and in this territory we found only a kiss,</span><br /><span class=\"long-line\">only ungraspable love that will remain here</span><br /><span class=\"long-line\">wandering among the sea foam and roots.</span></p>\n"}, {"title": "Lunch With the Sole Survivor", "view_node": "/poem/lunch-sole-survivor", "field_author": "<a href=\"/poet/kenneth-fearing\" hreflang=\"und\">Kenneth Fearing</a>", "field_date_published": "1936", "body": " <pre>\nMeaning what it seems to when the day's receipts are\n       counted and locked inside the store and the \n       keys are taken home\n   feeling as it does to drive a car that rides and rides like\n       a long, low, dark, silent streak of radio waves\n   just the way the hero feels in a smash-hit show\n   exactly like the giant in a Times Square sign making\n       love across the sky to a lady made of light\n\t   \nAnd then as though the switch were thrown and all of \n       the lights went out\n   then as though the curtain fell and then they swept\n       the aisles and then it's someone's turn to go\n   smoke the last cigarette, drink the last tall drink, go\n       with the last long whistle of the midnight train\n       as it fades among the hills\n\t   \nMeaning what it seems to mean but feeling the way it \n       does\n   as though the wind would always, always blow away\n       from home.</pre>\n "}, {"title": "Beating his lead", "view_node": "/poem/beating-his-lead", "field_author": "<a href=\"/poet/hans-faverey\" hreflang=\"und\">Hans Faverey</a>", "field_date_published": "2004", "body": " <pre>&#13;\nBeating his lead with the blunt &#13;\nend of his axe, flattening it&#13;\nin order to forget that he is&#13;\n&#13;\na child of death who wants to weight &#13;\n&#13;\nhis net. Until it is suddenly&#13;\ndone and the one who did not disappear&#13;\nstands in my room, taking me&#13;\nin; still lying whether I am,&#13;\n&#13;\nand how. Just as you might ask&#13;\na fisherman returning with nothing:&#13;\nSo where's the fish? And for him to reply,&#13;\nwithout resentment, without envy:&#13;\nThe fish--it's in the sea.</pre>&#13;\n "}, {"title": "Lake Como", "view_node": "/poem/lake-como", "field_author": "<a href=\"/poet/nicholas-christopher\" hreflang=\"und\">Nicholas Christopher</a>", "field_date_published": "2004", "body": " <pre>\nThe searchlight of a February moon\nat the end of the street\n\nbare trees black railing\nan eastern star set like a pearl atop a steeple\n\nthat shadows the doorway\nwhere the one-armed card shark squats\n\nshuffling his deck on a milk crate\nwaiting for the No. 6 bus to discharge\n\nthe off-duty cop the seamstress\nthe drunken mechanic and the clerk on crutches\n\nwho pauses before his building to watch\nthe mechanic lose three dollars at blackjack\n\nand then stiffly ascends the five flights\nto his two rooms on a shaftway\n\nhanging his coat on a hook\nand sitting down at the table\n\non which this morning he placed\na soup bowl and spoon\n\na tin of crackers and the crossword\npuzzle he had been laboring over\n\nbeneath the gaze of his late wife\nher color photograph propped up in a small frame\n\na young woman in a boxy dress and felt cap\nwaving shyly by the edge of a lake\n\nwhere over her shoulder beneath a clear sky\na sailboat rides the wind\n\npassengers on the polished deck\ngazing at the glowing mountain peaks\n\nthe cypresses lining the shore\nand the pink palazzi with ancient gardens\n\nthese men and women in white\nwho seem to live upon the water\n\ngliding among themselves oblivious to strife\nand all else that wears a body down\n\nsome sipping from crystal goblets\nothers just drinking in the light</pre>\n "}, {"title": "Grandma Climbs", "view_node": "/poem/grandma-climbs", "field_author": "<a href=\"/poet/philip-schultz\" hreflang=\"und\">Philip Schultz</a>", "field_date_published": "2004", "body": "<p><span class=\"long-line\">Grandma climbs a chair to yell at God for killing</span><br /><span class=\"long-line\">her only husband whose only crime was forgetting</span><br /><span class=\"long-line\">where he put things. Finally, God misplaced him. Everyone</span><br /><span class=\"long-line\">in this house is a razor, a police radio, a bulging vein.</span><br /><span class=\"long-line\">It's too late for any of us, Grandma says to the ceiling. </span><br /><span class=\"long-line\">She believes we are chosen to be disgraced and perplexed.</span><br /><span class=\"long-line\">She squints at anyone who treats her like a customer, including</span><br /><span class=\"long-line\">the toilet mirror, and twists her mouth into a deadly scheme.</span><br /><span class=\"long-line\">Late at night I run at the mirror until I disappear. The day is over</span><br /><span class=\"long-line\">before it begins, Grandma says, jerking the shade down over</span><br /><span class=\"long-line\">its once rosy eye. She keeps her husband's teeth in a matchbox,</span><br /><span class=\"long-line\">in perfumed paraffin; his silk skullcap (with its orthodox stains)</span><br /><span class=\"long-line\">in the icebox, behind Uncle's Jell-O aquarium of floating lowlifes.</span><br /><span class=\"long-line\">I know what Mrs. Einhorn said Mrs. Edels told Mr. Kook about us:</span><br /><span class=\"long-line\">God save us from having one shirt, one eye, one child. I know</span><br /><span class=\"long-line\">in order to survive. Grandma throws her shawl of exuberant birds</span><br /><span class=\"long-line\">over her bony shoulders and ladles up yet another chicken thigh</span><br /><span class=\"long-line\">out of the steaming broth of the infinite night sky.</span></p>\n"}, {"title": "Lullaby", "view_node": "/poem/lullaby-0", "field_author": "<a href=\"/poet/w-h-auden\" hreflang=\"und\">W. H. Auden</a>", "field_date_published": "1940", "body": "<p><span class=\"long-line\">Lay your sleeping head, my love,</span><br /><span class=\"long-line\">Human on my faithless arm;</span><br /><span class=\"long-line\">Time and fevers burn away</span><br /><span class=\"long-line\">Individual beauty from</span><br /><span class=\"long-line\">Thoughtful children, and the grave</span><br /><span class=\"long-line\">Proves the child ephemeral:</span><br /><span class=\"long-line\">But in my arms till break of day</span><br /><span class=\"long-line\">Let the living creature lie,</span><br /><span class=\"long-line\">Mortal, guilty, but to me</span><br /><span class=\"long-line\">The entirely beautiful.</span></p>\n\n<p><span class=\"long-line\">Soul and body have no bounds:</span><br /><span class=\"long-line\">To lovers as they lie upon</span><br /><span class=\"long-line\">Her tolerant enchanted slope</span><br /><span class=\"long-line\">In their ordinary swoon,</span><br /><span class=\"long-line\">Grave the vision Venus sends</span><br /><span class=\"long-line\">Of supernatural sympathy,</span><br /><span class=\"long-line\">Universal love and hope;</span><br /><span class=\"long-line\">While an abstract insight wakes</span><br /><span class=\"long-line\">Among the glaciers and the rocks</span><br /><span class=\"long-line\">The hermit's carnal ecstasy.</span></p>\n\n<p><span class=\"long-line\">Certainty, fidelity</span><br /><span class=\"long-line\">On the stroke of midnight pass</span><br /><span class=\"long-line\">Like vibrations of a bell,</span><br /><span class=\"long-line\">And fashionable madmen raise</span><br /><span class=\"long-line\">Their pedantic boring cry:</span><br /><span class=\"long-line\">Every farthing of the cost,</span><br /><span class=\"long-line\">All the dreaded cards foretell,</span><br /><span class=\"long-line\">Shall be paid, but from this night</span><br /><span class=\"long-line\">Not a whisper, not a thought,</span><br /><span class=\"long-line\">Not a kiss nor look be lost.</span></p>\n\n<p><span class=\"long-line\">Beauty, midnight, vision dies:</span><br /><span class=\"long-line\">Let the winds of dawn that blow</span><br /><span class=\"long-line\">Softly round your dreaming head</span><br /><span class=\"long-line\">Such a day of welcome show</span><br /><span class=\"long-line\">Eye and knocking heart may bless,</span><br /><span class=\"long-line\">Find the mortal world enough;</span><br /><span class=\"long-line\">Noons of dryness find you fed</span><br /><span class=\"long-line\">By the involuntary powers,</span><br /><span class=\"long-line\">Nights of insult let you pass</span><br /><span class=\"long-line\">Watched by every human love.</span></p>\n"}, {"title": "The Iliad, Book I, [A Friend Consigned to Death]", "view_node": "/poem/iliad-book-i-friend-consigned-death", "field_author": "<a href=\"/poet/homer\" hreflang=\"und\">Homer</a>", "field_date_published": "1974", "body": " <pre>\"Sleeping so? Thou hast forgotten me,\nAkhilleus. Never was I uncared for\nin life but am in death. Accord me burial\nin all haste: let me pass the gates of Death.\nShades that are images of used-up men\nmotion me away, will not receive me\namong their hosts beyond the river. I wander\nabout the wide gates and the hall of Death.\nGive me your hand. I sorrow.\nWhen thou shalt have allotted me my fire\nI will not fare here from the dark again.\nAs living men we'll no more sit apart\nfrom our companions, making plans. The day\nof wrath appointed for me at my birth\nengulfed and took me down. Thou too, Akhilleus, \nface iron destiny, godlike as thou art,\nto die under the wall of highborn Trojans.\nOne more message, one behest, I leave thee:\nnot to inter my bones apart from thine\nbut close together, as we grew together,\nin thy family's hall. Menoitios\nfrom Opoeis had brought me, under a cloud,\na boy still, on the day I killed the son\nof Lord Amph\u00eddamas--though I wished it not--\nin childish anger over a game of dice.\nP\u00ealeus, master of horse, adopted me\nand reared me kindly, naming me your squire.\nSo may the same urn hide our bones, the one \nof gold your gracious mother gave.\"</pre>\n "}, {"title": "The Odyssey, Book XXIII, [The Trunk of the Olive Tree]", "view_node": "/poem/odyssey-book-xxiii-trunk-olive-tree", "field_author": "<a href=\"/poet/homer\" hreflang=\"und\">Homer</a>", "field_date_published": "1961", "body": " <pre>\n        An old trunk of olive\ngrew like a pillar on the building plot,\nand I laid out our bedroom round that tree,\nlined up the stone walls, built the walls and roof,\ngave it a doorway and smooth-fitting doors.\nThen I lopped off the silvery leaves and branches,\nhewed and shaped that stump from the roots up\ninto a bedpost, drilled it, let it serve\nas model for the rest. I planed them all,\ninlaid them all with silver, gold and ivory,\nand stretched a bed between--a pliant web \nof oxhide thongs dyed crimson.</pre>\n "}, {"title": "Sonnet 131 [I&#039;d sing of Love in such a novel fashion]", "view_node": "/poem/sonnet-131-id-sing-love-such-novel-fashion", "field_author": "<a href=\"/poet/petrarch\" hreflang=\"und\">Petrarch</a>", "field_date_published": "2004", "body": "<p><span class=\"long-line\">I'd sing of Love in such a novel fashion</span><br /><span class=\"long-line\">that from her cruel side I would draw by force</span><br /><span class=\"long-line\">a thousand sighs a day, kindling again</span><br /><span class=\"long-line\">in her cold mind a thousand high desires;</span></p>\n\n<p><span class=\"long-line\">I'd see her lovely face transform quite often</span><br /><span class=\"long-line\">her eyes grow wet and more compassionate,</span><br /><span class=\"long-line\">like one who feels regret, when it's too late,</span><br /><span class=\"long-line\">for causing someone's suffering by mistake;</span></p>\n\n<p><span class=\"long-line\">And I'd see scarlet roses in the snows,</span><br /><span class=\"long-line\">tossed by the breeze, discover ivory</span><br /><span class=\"long-line\">that turns to marble those who see it near them;</span></p>\n\n<p><span class=\"long-line\">All this I'd do because I do not mind </span><br /><span class=\"long-line\">my discontentment in this one short life,</span><br /><span class=\"long-line\">but glory rather in my later fame.</span></p>\n"}, {"title": "The Guitar", "view_node": "/poem/guitar", "field_author": "<a href=\"/poet/federico-garcia-lorca\" hreflang=\"und\">Federico Garc\u00eda Lorca</a>", "field_date_published": "2002", "body": "<p><span class=\"long-line\"><span class=\"long-line\">The weeping of the guitar</span><br /><span class=\"long-line\">begins.</span><br /><span class=\"long-line\">The goblets of dawn</span><br /><span class=\"long-line\">are smashed.</span><br /><span class=\"long-line\">The weeping of the guitar</span><br /><span class=\"long-line\">begins.</span><br /><span class=\"long-line\">Useless</span><br /><span class=\"long-line\">to silence it.</span><br /><span class=\"long-line\">Impossible </span><br /><span class=\"long-line\">to silence it.</span><br /><span class=\"long-line\">It weeps monotonously</span><br /><span class=\"long-line\">as water weeps</span><br /><span class=\"long-line\">as the wind weeps</span><br /><span class=\"long-line\">over snowfields.</span><br /><span class=\"long-line\">Impossible</span><br /><span class=\"long-line\">to silence it.</span><br /><span class=\"long-line\">It weeps for distant </span><br /><span class=\"long-line\">things.</span><br /><span class=\"long-line\">Hot southern sands</span><br /><span class=\"long-line\">yearning for white camellias.</span><br /><span class=\"long-line\">Weeps arrow without target</span><br /><span class=\"long-line\">evening without morning</span><br /><span class=\"long-line\">and the first dead bird</span><br /><span class=\"long-line\">on the branch.</span><br /><span class=\"long-line\">Oh, guitar!</span><br /><span class=\"long-line\">Heart mortally wounded</span><br /><span class=\"long-line\">by five swords.</span></span></p>\n"}, {"title": "Coming Up Into the Light", "view_node": "/poem/coming-light-0", "field_author": "<a href=\"/poet/julie-williams\" hreflang=\"und\">Julie Williams</a>", "field_date_published": "2004", "body": " <pre>&#13;\nYou can only hunker down so long &amp; then the wind dies&#13;\n   or rushes on to some other place to do its damage&#13;\n   &amp; all that time you've been huddled there together&#13;\n        holding your breath, hoping against&#13;\n\t\t &#13;\n        wildest hope that up aboveground&#13;\n          nothing you love has been&#13;\n              blown away&#13;\n\t\t\t\t &#13;\n          hoping with a deep longing&#13;\n            the wind has cleared&#13;\n                the air &amp;&#13;\n\t\t\t\t  &#13;\n                 the new&#13;\n                  light&#13;\n                 shining&#13;\n                   is &#13;\n                  there &#13;\n                   to &#13;\n                  stay</pre>&#13;\n "}, {"title": "Gladdening", "view_node": "/poem/gladdening", "field_author": "<a href=\"/poet/jessie-haas\" hreflang=\"und\">Jessie Haas</a>", "field_date_published": "2004", "body": " <pre>&#13;\nFeed them some small treat.&#13;\nNotice the surprised forward flick of ears, &#13;\nthe lightening and softening&#13;\nof their large, beautiful eyes.&#13;\nHow kindly they look on you&#13;\nthe next time you approach.&#13;\nYou are not the first to have discovered this.&#13;\nSoldiers, winter-camped&#13;\non drear ill-chosen marshes,&#13;\nwhere the great cat Starvation&#13;\nlifted her paw,&#13;\nallowed me and beasts to creep&#13;\na few inches away from death,&#13;\nand lay wriggling her haunches,&#13;\nready to spring--&#13;\nthese soldiers heartened themselves&#13;\nby saving morsels of biscuit,&#13;\nwarmed themselves, briefly,&#13;\nin their horses' gladdening eyes.</pre>&#13;\n<p><i>1700s Europe</i></p> "}, {"title": "In the Land of Words", "view_node": "/poem/land-words", "field_author": "<a href=\"/poet/eloise-greenfield\" hreflang=\"und\">Eloise Greenfield</a>", "field_date_published": "2004", "body": " <pre>&#13;\nIn the land&#13;\nof words,&#13;\nI stand as still&#13;\nas a tree,&#13;\nand let the words&#13;\nrain down on me.&#13;\nCome, rain, bring&#13;\nyour knowledge and your&#13;\nmusic.   Sing&#13;\nwhile I grow green &#13;\nand full.&#13;\nI'll stand as still &#13;\nas a tree,&#13;\nand let your blessings&#13;\nfall on me.</pre>&#13;\n "}, {"title": "San Antonio", "view_node": "/poem/san-antonio", "field_author": "<a href=\"/poet/naomi-shihab-nye\" hreflang=\"und\">Naomi Shihab Nye</a>", "field_date_published": "2004", "body": "<pre>\nTonight I lingered over your name,\nthe delicate assembly of vowels\na voice inside my head.\nYou were sleeping when I arrived.\nI stood by your bed\nand watched the sheets rise gently.\nI knew what slant of light\nwould make you turn over.\nIt was then I felt \nthe highways slide out of my hands.\nI remembered the old men\nin the west side cafe,\ndealing dominoes like magical charms.\nIt was then I knew,\nlike a woman looking backward,\nI could not leave you,\nor find anyone I loved more.</pre>\n"}, {"title": "To market, to market", "view_node": "/poem/market-market", "field_author": "", "field_date_published": "2004", "body": "<pre>\n<i>To market,\nTo market,</i>\nTo buy a fat pig.\nHome again, \nHome again,\nJiggity jig.\n<i>To market,\nTo market,</i>\nTo buy a fat hog.\nHome again, \nHome again,\nJiggity jog.\n<i>To market,\nTo market,</i>\nTo buy a plum bun.\nHome again, \nHome again,\nMarket is done.</pre>\n"}, {"title": "A Nest Full of Stars", "view_node": "/poem/nest-full-stars", "field_author": "<a href=\"/poet/james-berry\" hreflang=\"und\">James Berry</a>", "field_date_published": "2004", "body": " <pre>&#13;\nOnly chance made me come and find&#13;\nmy hen, stepping from her hidden&#13;\nnest, in our kitchen garden.&#13;\n&#13;\nIn her clever secret place, her tenth&#13;\negg, still warm, had just been dropped.&#13;\n&#13;\nNot sure of what to do, I picked up&#13;\nevery egg, counting them, then put them&#13;\ndown again. <i>All were mine.</i>&#13;\n&#13;\nAll swept me away and back.&#13;\nI blinked, I saw: a whole hand&#13;\nof ripe bananas, nesting.&#13;\n&#13;\nI blinked, I saw: a basketful&#13;\nof ripe oranges, nesting.&#13;\n&#13;\nI blinked, I saw: a trayful&#13;\nof ripe naseberries, nesting.&#13;\n&#13;\nI blinked, I saw: an open bagful&#13;\nof ripe mangoes, nesting.&#13;\n&#13;\nI blinked, I saw:&#13;\na mighty nest full of stars.</pre>&#13;\n<p><i>naseberry: sapodilla plum with sweet brown flesh</i></p> "}, {"title": "A Sock Is a Pocket for Your Toes [excerpt]", "view_node": "/poem/sock-pocket-your-toes-excerpt", "field_author": "<a href=\"/poet/elizabeth-garton-scanlon\" hreflang=\"und\">Elizabeth Garton Scanlon</a>", "field_date_published": "2004", "body": " <pre>\nA sock is a pocket for your toes,\n\na vase is a pocket\nfor a rose.\n\nA pocket for a chicken \nis a coop,\n\nand a bowl is a pocket full of soup\u2014\n<b>uh-oh!</b>\n\nA bowl is a pocket spilling soup.</pre>\n "}, {"title": "Tales from Gizzard&#039;s Grill [excerpt]", "view_node": "/poem/tales-gizzards-grill-excerpt", "field_author": "<a href=\"/poet/jeanne-steig\" hreflang=\"und\">Jeanne Steig</a>", "field_date_published": "2004", "body": " <pre>&#13;\n\"My feet's a revelation,&#13;\nAnd that's my guarantee.&#13;\nThey're the worstest smellin' pair of feet&#13;\nOn man or chimpanzee.\"&#13;\n&#13;\n\"I've roved the wild world over,&#13;\nI've dueled with many a man,&#13;\nAnd I've seen 'em all just laid out flat,&#13;\nLike pullets in a pan.\"&#13;\n&#13;\n\"Well, here's one good old biddy &#13;\nCan answer to your call!\"&#13;\nIt was ancient Myrna Poke leaped up,&#13;\nAll wizened, weak, and small.&#13;\n&#13;\n\"I'm ready for a showdown,\"&#13;\nThe little lady cried.&#13;\n\"Why passin' skunk onced smelled my feet,&#13;\nFlipped upside down, and died.\"</pre>&#13;\n "}, {"title": "Mr. Grumpledump\u2019s Song", "view_node": "/poem/mr-grumpledumps-song", "field_author": "<a href=\"/poet/shel-silverstein\" hreflang=\"und\">Shel Silverstein</a>", "field_date_published": "2004", "body": "<p><span class=\"long-line\">Everything\u2019s wrong,</span><br /><span class=\"long-line\">Days are too long,</span><br /><span class=\"long-line\">Sunshine\u2019s too hot,</span><br /><span class=\"long-line\">Wind is too strong.</span><br /><span class=\"long-line\">Clouds are too fluffy,</span><br /><span class=\"long-line\">Grass is too green,</span><br /><span class=\"long-line\">Ground is too dusty,</span><br /><span class=\"long-line\">Sheets are too clean.</span><br /><span class=\"long-line\">Stars are too twinkly,</span><br /><span class=\"long-line\">Moon is too high,</span><br /><span class=\"long-line\">Water\u2019s too drippy,</span><br /><span class=\"long-line\">Sand is too dry.</span><br /><span class=\"long-line\">Rocks are too heavy,</span><br /><span class=\"long-line\">Feathers too light,</span><br /><span class=\"long-line\">Kids are too noisy,</span><br /><span class=\"long-line\">Shoes are too tight.</span><br /><span class=\"long-line\">Folks are too happy,</span><br /><span class=\"long-line\">Singin\u2019 their songs.</span><br /><span class=\"long-line\">Why can\u2019t they see it?</span><br /><span class=\"long-line\">Everything\u2019s wrong!</span></p>\n"}, {"title": "Footfalls", "view_node": "/poem/footfalls", "field_author": "<a href=\"/poet/sharon-creech\" hreflang=\"und\">Sharon Creech</a>", "field_date_published": "2004", "body": " <pre>&#13;\n<i>Thump-thump, thump-thump</i>&#13;\nbare feet hitting the grass&#13;\nas I run run run&#13;\nin the air and like the air&#13;\nweaving through the trees&#13;\nskimming over the ground&#13;\n&#13;\ntouching down&#13;\n<i>thump-thump, thump-thump</i>&#13;\nhere and there&#13;\nthere and here&#13;\nin the soft damp grass&#13;\n&#13;\n<i>thump-thump, thump-thump</i>&#13;\nknowing I could fly fly fly&#13;\nbut letting my feet&#13;\n<i>thump-thump, thump-thump</i>&#13;\n&#13;\ntouch the earth&#13;\n&#13;\nat least for now. . .</pre>&#13;\n "}], "pager": {"current_page": 612, "total_items": "13248", "total_pages": 663, "items_per_page": 20}}