{"rows": [{"title": "In April", "view_node": "/poem/april", "field_author": "<a href=\"/poet/james-hearst\" hreflang=\"und\">James Hearst</a>", "field_date_published": "2001", "body": " <pre>\nThis I saw on an April day:\nWarm rain spilt from a sun-lined cloud,\nA sky-flung wave of gold at evening,\nAnd a cock pheasant treading a dusty path\nShy and proud.\n\n\nAnd this I found in an April field:\nA new white calf in the sun at noon,\nA flash of blue in a cool moss bank,\nAnd tips of tulips promising flowers\nTo a blue-winged loon.\n\n\nAnd this I tried to understand\nAs I scrubbed the rust from my brightening plow:\nThe movement of seed in furrowed earth,\nAnd a blackbird whistling sweet and clear\nFrom a green-sprayed bough.\n</pre>\n "}, {"title": "The Aura of the Blue Flower That is a Goddess", "view_node": "/poem/aura-blue-flower-goddess", "field_author": "<a href=\"/poet/ray-young-bear\" hreflang=\"und\">Ray Young Bear</a>", "field_date_published": "2001", "body": " <pre>Immediately after the two brothers entered \n<i>The Seafood Shoppe</i> with their wide-eyed wives \nand extra-brown complexioned stepchildren, \nthe shrimp scampi sauce suddenly altered \nits taste to bitter dishsoap. It took a moment \nto realize the notorious twosome were \"carrying\"\nmedicines, and that I was most likely the next \ntarget in the supernatural shooting gallery. \nIt was yet another stab at my precious \nshadow, <i>ne no ke we ni</i>, the one who \nalways Stands First, wildly unafraid \nbut vulnerable.\n\nThis placement of time, this chance meeting \nat Long John Silver's had already been discussed \nover the burning flower clusters, approved, \nand scheduled for a divine assassination.\nWhat an ideal place to invisibly send forth \na petraglyph thorn to the sensitive \nand unsuspecting instep I thought.\nOut of fear I had to spit out the masticated \ncrustacean into the folded Dutch bandana. \nI signalled Selene with my eyes:\n<i>something is terribly wrong here</i>.\n\nEven in the old stories, <i>ke ta-a ji mo na ni</i>, \nmy grandmother recited there was always \ndisagreement, jealousy, and animosity \nbetween supernatural deities. That \nactuality for humans, <i>me to se na ni wa ki</i>, \nhowever was everpresent. It didn't conclude \nas an impasse that gave us the weather, \nthe four seasons, the stars, sun, and moon. \nEverything that was held together.\n\n                    Unfortunately,\nthere could only be one re-creation \nof earth. If it was requested in the aura \nof the blue flower that I die, \nthe aura would make sure I die. . .\n\nLater, the invisible thorn--when removed by \nresident-physicians (paying back their medical \nloans)--would transform into some unidentifiable \nprotoplasm and continue to hide in the more \nsensitive, cancer-attracting parts of the fish-\neater.\n\nIn the mythical darkness that would follow \nthe stories the luminescent mantle of the kerosene \nlamp would aptly remind me of stars who cooled \ndown in pre-arranged peace--to quietly wait \nand glow.</pre>\n "}, {"title": "Madrigal", "view_node": "/poem/madrigal", "field_author": "<a href=\"/poet/mary-leader\" hreflang=\"und\">Mary Leader</a>", "field_date_published": "2001", "body": " <pre>\nHow the tenor warbles in April!\nHe thrushes, he nightingales, 0 he's a lark.\nHe cuts the cinquefoil air into snippets\nWith his love's scissors in the shape of a stork.\n\nHear the alto's glissando, October.\nShe drapes blue air on her love's shoulders,\nOn his velvet jerkin the color of crows.\nHer cape of felt &amp; old pearls enfolds her.\n\nHow the baritone roots out in May!\nHis depths reach even the silence inside\nThe worms moving level, the worms moving up,\nThe pike plunging under the noisy tide.\n\nHear the soprano's vibrato, November,\nWater surface trembles, cold in the troughs.\nShe transforms blowing hedges into fences,\nShe transforms scarlet leaves into moths.\n</pre>\n "}, {"title": "What are the consequences of silence?", "view_node": "/poem/what-are-consequences-silence", "field_author": "<a href=\"/poet/bhanu-kapil\" hreflang=\"und\">Bhanu Kapil</a>", "field_date_published": "2001", "body": " <pre>\n53.\n\nRed Canna, I see you. Edge of. What I saw: a flower blossoming, in slow motion. \n<i>Not specific enough</i>. Okay. <i>No</i>. Cannot. Red Canna, I veer into you. I am not in \none straight line. Red Canna, I see you. 1904. The University of Arizona Museum \nof Art. Opening in slow motion: are you okay? Are you okay? Can you hear me? \n(<i>I can't</i>)\n\nThat's how it begins: impenetrable.\n\nThe book of two words I happen to see, out of the corner of my eye, on a wall. Such \nslowness.\n\nThese words took years to arrive.\n</pre>\n "}, {"title": "The One Secret That Has Carried", "view_node": "/poem/one-secret-has-carried", "field_author": "<a href=\"/poet/jason-shinder\" hreflang=\"und\">Jason Shinder</a>", "field_date_published": "2001", "body": " <pre>\nIrene loves a man\n      who is afraid of sex-- \n            she's attended\n\nto everything,\n      said it was okay,\n            held me until I slept.\n\nShe says, <i>Why don't you just\n      not think about it?</i>\n            But I want to know\n\nevery sensation,\n      nothing untouched,\n            though I pull my hand away\n\nonce she's found it\n      I can't be around a woman\n            too long,\n\ntoo much.\n      I say, <i>I was mistreated.</i>\n            She says, <i>A cup of tea?</i>\n\nI say, <i>I can't start a thing</i>\n      and then\n            describe the kind\n\nof thing I'd start.\n      We talk about ballrooms,\n            long sleeves and sashes,\n\nsay someday \n      we should go somewhere\n            though we can't think\n\nof anywhere\n      and then I say abruptly,\n            <i>I've never loved</i>\n\n<i>hard enough\n      to be loved back.</i>\n            I say it as if I've had enough\n\nof the whole goddamn\n      world and will never\n            be satisfied.\n\nI'm looking\n      at the wall.\n            She's looking out\n\nthe window because\n      she needs \n            to be somewhere.\n\nLater, I leave a note:\n      <i>Sorry for the difficulties.</i>\n            Meaning: how come\n\nyou don't leave?\n      I've never told this story.\n            Even at the moment\n\t\t\t\nof dying, \n      I would say\n            it was someone else's.\n</pre>\n "}, {"title": "Mostly Mick Jagger", "view_node": "/poem/mostly-mick-jagger", "field_author": "<a href=\"/poet/catie-rosemurgy\" hreflang=\"und\">Catie Rosemurgy</a>", "field_date_published": "2001", "body": " <pre>\n               1\n\nThank god he stuck his tongue out.\nWhen I was twelve I was in danger \nof taking my body seriously. \nI thought the ache in my nipple was priceless. \nI thought I should stay very still \nand compare it to a button, \na china saucer, \na flash in a car side-mirror, \nso I could name the ache either big or little, \nthen keep it forever. He blew no one a kiss, \nthen turned into a maw.\n\nAfter I saw him, when a wish moved in my pants.\nI nurtured it. I stalked around my room\nkicking my feet up just like him, making\na big deal of my lips. I was my own big boy.\nI wouldn't admit it then,\nbut be definitely cocks his hip\nas if he is his own little girl.\n\n               2\n\nPeople ask me--I make up interviews\nwhile I brush my teeth--\"So, what do you remember best \nabout your childhood?\" I say\nmostly the drive toward Chicago.\nFeeling as if I'm being slowly pressed against the skyline. \nHoping to break a window.\nMostly quick handfuls of boys' skin.\nSummer twilights that took forever to get rid of.\nMostly Mick Jagger. \n\n               3\n\nHow do I explain my hungry stare?\nMy Friday night spent changing clothes?\nMy love for travel? I rewind the way he says \"now\" \nwith so much roof of the mouth.\nI rewind until I get a clear image of myself:\nI'm telling the joke he taught me\nabout my body. My mouth is stretched open \nso I don't laugh. My hands are pretending\nto have just discovered my own face. \nMy name is written out in metal studs \nacross my little pink jumper.\nI've got a mirror and a good idea\nof the way I want my face to look.\nWhen I glance sideways my smile should twitch \nas if a funny picture of me is taped up \ninside the corner of my eye.\nA picture where my hair is combed over each shoulder, \nmy breasts are well-supported, and my teeth barely show. \nA picture where I'm trying hard to say \"beautiful.\"\n\nHe always says \"This is my skinny rib cage, \nmy one, two chest hairs.\"\nThat's all he ever says. \nThink of a bird with no feathers\nor think of a hundred lips bruising every inch of his skin.\nThere are no pictures of him hoping\nhe said the right thing.\n</pre>\n "}, {"title": "The Art of Translation (audio only)", "view_node": "/poem/art-translation-audio-only", "field_author": "<a href=\"/poet/adrienne-rich\" hreflang=\"und\">Adrienne Rich</a>", "field_date_published": "1997", "body": " <p>\u00a0</p><p>Click the icon above to listen to this audio poem.</p> "}, {"title": "La Figlia Che Piange", "view_node": "/poem/la-figlia-che-piange", "field_author": "<a href=\"/poet/t-s-eliot\" hreflang=\"und\">T. S. Eliot</a>", "field_date_published": "1917", "body": " <p>\u00a0\u00a0\u00a0\u00a0\u00a0\u00a0\u00a0\u00a0\u00a0\u00a0\u00a0\u00a0\u00a0\u00a0<i>O quam te memorem virgo</i></p>\n<pre>\nStand on the highest pavement of the stair\u2014\t\nLean on a garden urn\u2014\t\nWeave, weave the sunlight in your hair\u2014\t\nClasp your flowers to you with a pained surprise\u2014\t\nFling them to the ground and turn\t     \nWith a fugitive resentment in your eyes:\t\nBut weave, weave the sunlight in your hair.\t\n \nSo I would have had him leave,\t\nSo I would have had her stand and grieve,\t\nSo he would have left\t        \nAs the soul leaves the body torn and bruised,\t\nAs the mind deserts the body it has used.\t\nI should find\t\nSome way incomparably light and deft,\t\nSome way we both should understand,\t        \nSimple and faithless as a smile and shake of the hand.\t\n \nShe turned away, but with the autumn weather\t\nCompelled my imagination many days,\t\nMany days and many hours:\t\nHer hair over her arms and her arms full of flowers.\nAnd I wonder how they should have been together!\t\nI should have lost a gesture and a pose.\t\nSometimes these cogitations still amaze\t\nThe troubled midnight and the noon's repose.</pre>\n "}, {"title": "Sylvia (audio only)", "view_node": "/poem/sylvia-audio-only", "field_author": "<a href=\"/poet/gerald-stern\" hreflang=\"und\">Gerald Stern</a>", "field_date_published": "1992", "body": " <p><!--- audio only ---></p><p>Click the icon above to listen to this audio poem.</p> "}, {"title": "M. Degas Teaches Art &amp; Science at Durfee Intermediate School, Detroit 1942 (audio only)", "view_node": "/poem/m-degas-teaches-art-science-durfee-intermediate-school-detroit-1942-audio-only", "field_author": "<a href=\"/poet/philip-levine\" hreflang=\"und\">Philip Levine</a>", "field_date_published": "1991", "body": " <p>\u00a0</p><p>Click the icon above to listen to this audio poem.</p> "}, {"title": "Lamp, Terracotta Base, U.S., ca. 1925 (audio only)", "view_node": "/poem/lamp-terracotta-base-us-ca-1925-audio-only", "field_author": "<a href=\"/poet/james-merrill\" hreflang=\"und\">James Merrill</a>", "field_date_published": "1992", "body": " <p>\u00a0</p><p>Click the icon above to listen to this audio poem.</p> "}, {"title": "Symposium (audio only)", "view_node": "/poem/symposium-audio-only", "field_author": "<a href=\"/poet/paul-muldoon\" hreflang=\"und\">Paul Muldoon</a>", "field_date_published": "1996", "body": " <p>\u00a0</p><p>Click the icon above to listen to this audio poem.</p> "}, {"title": "The Year of the Kiln Portraits (audio only)", "view_node": "/poem/year-kiln-portraits-audio-only", "field_author": "<a href=\"/poet/les-murray\" hreflang=\"und\">Les Murray</a>", "field_date_published": "1996", "body": " <p>\u00a0</p><p>Click the icon above to listen to this audio poem.</p> "}, {"title": "Long Distance (audio only)", "view_node": "/poem/long-distance-audio-only", "field_author": "<a href=\"/poet/howard-nemerov\" hreflang=\"und\">Howard Nemerov</a>", "field_date_published": "1989", "body": " <p>\u00a0</p><p>Click the icon above to listen to this audio poem.</p> "}, {"title": "That the Soul May Wax Plump", "view_node": "/poem/soul-may-wax-plump", "field_author": "<a href=\"/poet/may-swenson\" hreflang=\"und\">May Swenson</a>", "field_date_published": "1978", "body": "<p>\u00a0\u00a0\u00a0\u00a0 \"He who has reached the highest degree of<br />\n\u00a0\u00a0\u00a0\u00a0 emptiness will be secure in repose.\"<br />\n\u00a0\u00a0\u00a0\u00a0 \u2014<i>A Taoist saying</i></p>\n\n<pre>\nMy dumpy little mother on the undertaker's slab\nhad a mannequin's grace. From chin to foot\nthe sheet outlined her, thin and tall. Her face\nuptilted, bloodless, smooth, had a long smile. \nHer head rested on a block under her nape,\nher neck was long, her hair waved, upswept. But later,\nat \"the viewing,\" sunk in the casket in pink tulle,\nan expensive present that might spoil, dressed\nin Eden's green apron, organdy bonnet on,\nshe shrank, grew short again, and yellow. Who\nput the gold-rimmed glasses on her shut face, who\nlaid her left hand with the wedding ring on\nher stomach that really didn't seem to be there\nunder the fake lace?\n\nMother's work before she died was self-purification,\na regimen of near starvation, to be worthy to go \nto Our Father, Whom she confused (or, more aptly, fused)\nwith our father, in Heaven long since. She believed\nin evacuation, an often and fierce purgation,\nmeant to teach the body to be hollow, that the soul\nmay wax plump. At the moment of her death, the wind\nrushed out from all her pipes at once. Throat and rectum\nsang together, a galvanic spasm, hiss of ecstasy.\nThen, a flat collapse. Legs and arms flung wide,\nlike that female Spanish saint slung by the ankles\nto a cross, her mouth stayed open in a dark O. So,\nher vigorous soul whizzed free. On the undertaker's slab, she\nlay youthful, cool, triumphant, with a long smile.  \n</pre>\n"}, {"title": "A Lesson for This Sunday", "view_node": "/poem/lesson-sunday", "field_author": "<a href=\"/poet/derek-walcott\" hreflang=\"und\">Derek Walcott</a>", "field_date_published": "1986", "body": " <pre>\nThe growing idleness of summer grass\nWith its frail kites of furious butterflies\nRequests the lemonade of simple praise\nIn scansion gentler than my hammock swings\nAnd rituals no more upsetting than a\nBlack maid shaking linen as she sings\nThe plain notes of some Protestant hosanna\u2014\nSince I lie idling from the thought in things\u2014\n\nOr so they should, until I hear the cries\nOf two small children hunting yellow wings,\nWho break my Sabbath with the thought of sin.\nBrother and sister, with a common pin,\nFrowning like serious lepidopterists.\nThe little surgeon pierces the thin eyes.\nCrouched on plump haunches, as a mantis prays\nShe shrieks to eviscerate its abdomen.\nThe lesson is the same. The maid removes\nBoth prodigies from their interest in science.\nThe girl, in lemon frock, begins to scream\nAs the maimed, teetering thing attempts its flight.\nShe is herself a thing of summery light,\nFrail as a flower in this blue August air,\nNot marked for some late grief that cannot speak.\n\nThe mind swings inward on itself in fear\nSwayed towards nausea from each normal sign.\nHeredity of cruelty everywhere,\nAnd everywhere the frocks of summer torn,\nThe long look back to see where choice is born,\nAs summer grass sways to the scythe's design.</pre>\n "}, {"title": "The Nature of a Mirror (audio only)", "view_node": "/poem/nature-mirror-audio-only", "field_author": "<a href=\"/poet/robert-penn-warren\" hreflang=\"und\">Robert Penn Warren</a>", "field_date_published": "1977", "body": " <p>\u00a0</p><p>Click the icon above to listen to this audio poem.</p> "}, {"title": "The Covenant (audio only)", "view_node": "/poem/covenant-audio-only", "field_author": "<a href=\"/poet/c-k-williams\" hreflang=\"und\">C. K. Williams</a>", "field_date_published": "1992", "body": " <p>\u00a0</p><p>Click the icon above to listen to this audio poem.</p> "}, {"title": "That Woman", "view_node": "/poem/woman", "field_author": "<a href=\"/poet/sarah-getty\" hreflang=\"und\">Sarah Getty</a>", "field_date_published": "1996", "body": " <pre>\nLook! A flash of orange along the river's edge--\n\"oriole!\" comes to your lips like instinct, then\nit's vanished--lost in the foliage,\n\nin all your head holds, getting on with the day.  \nBut not gone for good. There is that woman    \t\nwalks unseen beside you with her apron\n  \npockets full.  Days later, or years, when you least    \nseem to need it--reading Frost on the subway,    \nsinging over a candled cake--she'll reach\n\ninto a pocket and hand you this intact    \nmoment--the river, the orange streak parting \nthe willow, and the \"oriole!\" that leapt\n\nto your lips.  Unnoticed, steadfast, she gathers      \nall this jumble, sorts it, hands it back like \nprizes from Crackerjack.  She is your mother,\n\nwho first said, \"Look! a robin!\" and pointed,   \nand there was a robin, because her own\nmother had said to her, \"Look!\" and pointed, \n\nand so on, back to the beginning: the mother, \nthe child, and the world.  The damp bottom \non one arm and pointing with the other: \n\t\t\t\t\t\t\t\nthe peach tree, the small rocks in the shallows,    \nthe moon and the man in the moon.  So you keep on, \nseeing, forgetting, faithfully followed;   \n\nand you yourself, unwitting, gaining weight,\nhave thinned to invisibility, become\nthat follower.  Even now, your daughter\n\ndoesn't see you at her elbow as she walks\nthe beach.  There! a gull dips to the Pacific,\nand she points and says to the baby, \"Look!\"</pre>\n "}, {"title": "The Wash", "view_node": "/poem/wash", "field_author": "<a href=\"/poet/sarah-getty\" hreflang=\"und\">Sarah Getty</a>", "field_date_published": "1996", "body": " <pre>\nA round white troll with a black, greasy  \nheart shuddered and hummed \"Diogenes,  \nDiogenes,\" while it sloshed the wash.  \nIt stayed in the basement, a cave-dank\nplace I could only like on Mondays,\nhelping mother.  My job was stirring\nthe rinse.  The troll hummed.  Its wringer stuck\nout each piece of laundry like a tongue-- \n\nsocks, aprons, Daddy's shirts, my brother's \nfunny (I see London) underpants.  \nThe whole family came past, mashed flat \nas Bugs Bunny pancaked by a train. \nThey flopped into the rinse tub and learned\nto swim, relaxing, almost arms and legs  \nagain. I helped the transformation  \nwith a stick we picked up one summer \n\nat the lake.  Wave-peeled, worn to gray, inch \nthick, it was a first rate stirring stick.\nApprenticed on my stool, I sang a rhyme \nof Simple Simon gone afishing \nand poked the clothes around the cauldron\nand around.  The wringer was risky.\nTouch it with just your fingertip,\nit would pull you in and spit you out\n\nflat as a dishrag.  It grabbed Mother \nonce--rolled her arm right to the elbow.\nBut she kept her head, flipped the lever\nto reverse, and got her arm back, pretty\nand round as new.  This was a story\nfrom Before.  Still, I seemed to see it--\nmy mother brave as a movie star, \nthe flattened arm pumping up again, \n\nlike Popeye's.  I fished out the rinsing \nswimmers, one by one.  Mother fed them\nback to the wringer and they flopped, flat,\ninto baskets.  Then the machine peed \nright on the floor; the foamy water \ncurled around the drain and gurgled down.  \nMother, under the slanting basement \ndoors, where it was darkest, reached up that \n\nmiraculous arm and raised the lid.\nSunlight fell down the stairs, shouting \n\"This way out!\"  There was the day, an Easter \negg cut-out of grass and trees and sky.  \nMother lugged the baskets up.  Too short \nto reach the clothesline, I would slide down \nthe bulkhead or sit and drum my heels \nto aggravate the troll (Who's that trit-\n\ntrotting...) and watch.  Thus I learned the rules \nof hanging clothes: Shirts went upside down, \npinned at the placket and seams.  Sheets hung \nlike hammocks; socks were a toe-bitten \nrow.  Underpants, indecently mixed, \nflapped chainwise, cheek to cheek.  Mother\ntook hold of the clothespole like a knight \ncouching his lance and propped the sagging \n\nline up high, to catch the wind.  We all\nwere airborne then, sleeves puffed out round  \nas sausages, bottoms billowing,\nlegs in arabesque.  Our heaviness\nwas scattered into air, our secrets\nbleached back to white.  Mother stood easing \nher back and smiled, queen of the backyard\nand all that flapping crowd.  For a week\n\nnow, each day, we'd put on this jubilee,    \nwalk inside it, wash with it, and sleep\nin its sweetness.  At night, best of all,\nI'd see with closed eyes the sheets aloft,\npajamas dancing, pillow cases \nshaking out white signals in the sun,  \nand my mother with the basket, bent\nand then rising, stretching up her arms.</pre>\n "}], "pager": {"current_page": 652, "total_items": "13248", "total_pages": 663, "items_per_page": 20}}