{"rows": [{"title": "Toothpaste Kids Sunburn", "view_node": "/poem/toothpaste-kids-sunburn", "field_author": "<a href=\"/poet/jordan-davis\" hreflang=\"und\">Jordan Davis</a>", "field_date_published": "2011", "body": " <pre>\nI tell you I will not make any more raids,\nThe elusive going-elsewhere motherboard \n\nAn electrical sound marking stretches \nAfternoon is carving into the wood of us,\n\nThat's our modern way of saline allegory\u2014\nTo make gods of times of day. I won't \n\nCooperate with this love that steals itself \nInto a brand name, preferring to abandon \n\nLike feathers or a rocket stage the moves \nTraffic up till now couldn't touch. That's me,\n\nThat warm breath dying on the neck,\nThe only chain they couldn't save in the fire \n\nEverybody but the Buddha called  \nA day at the beach.</pre>\n "}, {"title": "Alphabet Poem", "view_node": "/poem/alphabet-poem", "field_author": "<a href=\"/poet/edward-lear\" hreflang=\"und\">Edward Lear</a>", "field_date_published": "1877", "body": " <pre>\nA     tumbled down, and hurt his Arm, against a bit of wood.\nB     said, \"My Boy, O! do not cry' it cannot do you good!\"\nC     said, \"A Cup of Coffee hot can't do you any harm.\"\nD     said, \"A Doctor should be fetched, and he would cure the arm.\"\nE     said, \"An Egg beat up in milk would quickly make him well.\"\nF     said, \"A Fish, if broiled, might cure, if only by the smell.\"\nG     said, \"Green Gooseberry fool, the best of cures I hold.\"\nH     said, \"His Hat should be kept on, keep him from the cold.\"\nI     said, \"Some Ice upon his head will make him better soon.\"\nJ     said, \"Some Jam, if spread on bread, or given in a spoon.\"\nK     said, \"A Kangaroo is here,\u2014this picture let him see.\"\nL     said, \"A Lamp pray keep alight, to make some barley tea.\"\nM     said, \"A Mulberry or two might give him satisfaction.\"\nN     said, \"Some Nuts, if rolled about, might be a slight attraction.\"\nO     said, \"An Owl might make him laugh, if only it would wink.\"\nP     said, \"Some Poetry might be read aloud, to make him think.\"\nQ     said, \"A Quince I recommend,\u2014A Quince, or else a Quail.\"\nR     said, \"Some Rats might make him move, if fastened by their tail.\"\nS     said, \"A Song should now be sung, in hopes to make him laugh!\"\nT     said, \"A Turnip might avail, if sliced or cut in half.\"\nU     said, \"An Urn, with water hot, place underneath his chin!\"\nV     said, \"I'll stand upon a chair, and play a Violin!\"\nW    said, \"Some Whiskey-Whizzgigs fetch, some marbles and a ball!\"\nX     said, \"Some double XX ale would be the best of all!\"\nY     said, \"Some Yeast mised up with salt would make a perfect plaster!\"\nZ     said, \"Here is a box of Zinc! Get in my little master!\n       We'll shut you up! We'll nail you down!\n       We will, my little master!\n       We think we've all heard quite enough of this sad disaster!\"</pre>\n "}, {"title": "[Untitled]", "view_node": "/poem/untitled-1", "field_author": "<a href=\"/poet/j-michael-martinez\" hreflang=\"und\">J. Michael Martinez</a>", "field_date_published": "2011", "body": " <p>Imagine\u2014in front of us\u2014they silently pass. And they believe unrelated<br />\u00a0\u00a0\u00a0objects are machines<br />for recognizing the human. And, again, we are no longer interruptions.</p><p>Imagine\u2014in front of us\u2014the beginning is not a study. And they believe<br />\u00a0\u00a0\u00a0the cicada's larva<br />reveals narrow secrets. And we accompany: to form, to shape.</p><p>Imagine\u2014in front of us\u2014a beautiful garden. And they believe color is the<br />\u00a0\u00a0\u00a0shoreline's end<br />where we abandon our too sudden bodies. And, here, we are carriers of different<br />\u00a0\u00a0\u00a0significance.</p><p>Imagine\u2014in front of us\u2014each word devolves a lexicon. And they believe<br />\u00a0\u00a0\u00a0shape shuts on a hinge<br />within the voice they fable. And, here, we slaughter the spring lambs.</p><p>Imagine\u2014in front of us\u2014they pass us between nature, between history.<br />\u00a0\u00a0\u00a0And they believe the door<br />frame alters the curtains' flow. And we are a dark summer moving against oceans.</p><p>Imagine starlings circling in a postcard's blue. And they believe oration is the living<br />\u00a0\u00a0\u00a0thing, the end<br />of geometric space. And here, in full sunlight, we are gifts hoisted to the vanishing<br />\u00a0\u00a0\u00a0point.</p> "}, {"title": "An Acrostic", "view_node": "/poem/acrostic", "field_author": "<a href=\"/poet/edgar-allan-poe\" hreflang=\"und\">Edgar Allan Poe</a>", "field_date_published": "1911", "body": "<p><span class=\"long-line\">Elizabeth it is in vain you say</span><br /><span class=\"long-line\">\"Love not\" \u2014 thou sayest it in so sweet a way:</span><br /><span class=\"long-line\">In vain those words from thee or L.E.L.</span><br /><span class=\"long-line\">Zantippe's talents had enforced so well:</span><br /><span class=\"long-line\">Ah! if that language from thy heart arise,</span><br /><span class=\"long-line\">Breath it less gently forth \u2014 and veil thine eyes.</span><br /><span class=\"long-line\">Endymion, recollect, when Luna tried</span><br /><span class=\"long-line\">To cure his love \u2014 was cured of all beside \u2014</span><br /><span class=\"long-line\">His follie \u2014 pride \u2014 and passion \u2014 for he died.</span></p>\n"}, {"title": "A Boat, Beneath a Sunny Sky", "view_node": "/poem/boat-beneath-sunny-sky", "field_author": "<a href=\"/poet/lewis-carroll\" hreflang=\"und\">Lewis Carroll</a>", "field_date_published": "", "body": "<p><span class=\"long-line\">A boat, beneath a sunny sky</span><br /><span class=\"long-line\">Lingering onward dreamily</span><br /><span class=\"long-line\">In an evening of July\u2014</span></p>\n\n<p><span class=\"long-line\">Children three that nestle near,</span><br /><span class=\"long-line\">Eager eye and willing ear,</span><br /><span class=\"long-line\">Pleased a simple tale to hear\u2014</span></p>\n\n<p><span class=\"long-line\">Long has paled that sunny sky:</span><br /><span class=\"long-line\">Echoes fade and memories die:</span><br /><span class=\"long-line\">Autumn frosts have slain July.</span></p>\n\n<p><span class=\"long-line\">Still she haunts me, phantomwise,</span><br /><span class=\"long-line\">Alice moving under skies</span><br /><span class=\"long-line\">Never seen by waking eyes.</span></p>\n\n<p><span class=\"long-line\">Children yet, the tale to hear,</span><br /><span class=\"long-line\">Eager eye and willing ear,</span><br /><span class=\"long-line\">Lovingly shall nestle near.</span></p>\n\n<p><span class=\"long-line\">In a Wonderland they lie,</span><br /><span class=\"long-line\">Dreaming as the days go by,</span><br /><span class=\"long-line\">Dreaming as the summers die:</span></p>\n\n<p><span class=\"long-line\">Ever drifting down the stream\u2014</span><br /><span class=\"long-line\">Lingering in the golden gleam\u2014</span><br /><span class=\"long-line\">Life, what is it but a dream?</span></p>\n"}, {"title": "Tired with all these, for restful death I cry (Sonnet 66)", "view_node": "/poem/tired-all-these-restful-death-i-cry-sonnet-66", "field_author": "<a href=\"/poet/william-shakespeare\" hreflang=\"und\">William Shakespeare</a>", "field_date_published": "1609", "body": "<p><span class=\"long-line\">Tired with all these, for restful death I cry,</span><br /><span class=\"long-line\">As to behold desert a beggar born, </span><br /><span class=\"long-line\">And needy nothing trimm'd in jollity,</span><br /><span class=\"long-line\">And purest faith unhappily forsworn,</span><br /><span class=\"long-line\">And gilded honour shamefully misplac'd,</span><br /><span class=\"long-line\">And maiden virtue rudely strumpeted,</span><br /><span class=\"long-line\">And right perfection wrongfully disgrac'd,</span><br /><span class=\"long-line\">And strength by limping sway disabled</span><br /><span class=\"long-line\">And art made tongue-tied by authority,</span><br /><span class=\"long-line\">And folly\u2014doctor-like\u2014controlling skill,</span><br /><span class=\"long-line\">And simple truth miscall'd simplicity,</span><br /><span class=\"long-line\">And captive good attending captain ill:</span><br /><span class=\"long-line\">\u00a0\u00a0\u00a0\u00a0Tir'd with all these, from these would I be gone,</span><br /><span class=\"long-line\">\u00a0\u00a0\u00a0\u00a0Save that, to die, I leave my love alone.</span></p>\n"}, {"title": "The Unquiet Grave", "view_node": "/poem/unquiet-grave", "field_author": "<a href=\"/poet/anonymous\" hreflang=\"und\">Anonymous</a>", "field_date_published": "1400", "body": " <pre>\nI\n\n'The wind doth blow today, my love,  \n  And a few small drops of rain;  \nI never had but one true-love;  \n  In cold grave she was lain.  \n  \nII\n\n'I'll do as much for my true-love \n  As any young man may;  \nI'll sit and mourn all at her grave  \n  For a twelvemonth and a day.'  \n  \nIII\n\nThe twelvemonth and a day being up,  \n  The dead began to speak:\n'Oh who sits weeping on my grave,  \n  And will not let me sleep?'\u2014  \n  \nIV\n\n''Tis I, my love, sits on your grave,  \n  And will not let you sleep;  \nFor I crave one kiss of your clay-cold lips,\n  And that is all I seek.'\u2014  \n  \nV\n\n'You crave one kiss of my clay-cold lips;  \n  But my breath smells earthy strong;  \nIf you have one kiss of my clay-cold lips,  \n  Your time will not be long.\n  \nVI\n\n''Tis down in yonder garden green,  \n  Love, where we used to walk,  \nThe finest flower that ere was seen  \n  Is wither'd to a stalk.  \n  \nVII\n\n'The stalk is wither'd dry, my love,\n  So will our hearts decay;  \nSo make yourself content, my love,  \n  Till God calls you away.'</pre>\n "}, {"title": "Work Without Hope", "view_node": "/poem/work-without-hope", "field_author": "<a href=\"/poet/samuel-taylor-coleridge\" hreflang=\"und\">Samuel Taylor Coleridge</a>", "field_date_published": "1825", "body": "<p><span class=\"long-line\">All Nature seems at work. Slugs leave their lair\u2014 \u00a0 </span><br /><span class=\"long-line\">The bees are stirring\u2014birds are on the wing\u2014 \u00a0 </span><br /><span class=\"long-line\">And Winter, slumbering in the open air, \u00a0 </span><br /><span class=\"long-line\">Wears on his smiling face a dream of Spring! \u00a0 </span><br /><span class=\"long-line\">And I, the while, the sole unbusy thing, \u00a0\u00a0\u00a0\u00a0\u00a0\u00a0\u00a0\u00a0\u00a0 </span><br /><span class=\"long-line\">Nor honey make, nor pair, nor build, nor sing. \u00a0 </span></p>\n\n<p><span class=\"long-line\">Yet well I ken the banks where amaranths blow, \u00a0 </span><br /><span class=\"long-line\">Have traced the fount whence streams of nectar flow. \u00a0 </span><br /><span class=\"long-line\">Bloom, O ye amaranths! bloom for whom ye may, \u00a0 </span><br /><span class=\"long-line\">For me ye bloom not! Glide, rich streams, away! \u00a0\u00a0 </span><br /><span class=\"long-line\">With lips unbrighten'd, wreathless brow, I stroll: \u00a0 </span><br /><span class=\"long-line\">And would you learn the spells that drowse my soul? \u00a0 </span><br /><span class=\"long-line\">Work without Hope draws nectar in a sieve, \u00a0 </span><br /><span class=\"long-line\">And Hope without an object cannot live. </span></p>\n"}, {"title": "To W.C.W. M.D.", "view_node": "/poem/wcw-md", "field_author": "<a href=\"/poet/alfred-kreymborg\" hreflang=\"und\">Alfred Kreymborg</a>", "field_date_published": "1920", "body": " <pre>\nThere has been\nAnother death.\nThis time\nI bring it to you.\nYou are kind,\nBrutal,\nYou know\nHow to lower \nBodies.\nI ask only\nThat the rope\nIsn't silk,\n(Silk doesn't break)\nNor thread,\n(Thread does.)\nIf it lifts\nAnd lowers\nCommon things,\nIt will do.</pre>\n "}, {"title": "The Horrid Voice of Science", "view_node": "/poem/horrid-voice-science", "field_author": "<a href=\"/poet/vachel-lindsay\" hreflang=\"und\">Vachel Lindsay</a>", "field_date_published": "1919", "body": "<p><span class=\"long-line\">\"There's machinery in the</span><br /><span class=\"long-line\">\u00a0\u00a0\u00a0\u00a0\u00a0\u00a0\u00a0\u00a0\u00a0\u00a0\u00a0butterfly;</span><br /><span class=\"long-line\">\u00a0\u00a0\u00a0\u00a0\u00a0\u00a0There's a mainspring to the</span><br /><span class=\"long-line\">\u00a0\u00a0\u00a0\u00a0\u00a0\u00a0\u00a0\u00a0\u00a0\u00a0\u00a0bee;</span><br /><span class=\"long-line\">There's hydraulics to a daisy,</span><br /><span class=\"long-line\">\u00a0\u00a0\u00a0\u00a0\u00a0\u00a0And contraptions to a tree.\"</span></p>\n\n<p><span class=\"long-line\">\"If we could see the birdie</span><br /><span class=\"long-line\">\u00a0\u00a0\u00a0\u00a0\u00a0\u00a0\u00a0\u00a0\u00a0\u00a0\u00a0That makes the chirping sound</span><br /><span class=\"long-line\">With x-ray, scientific eyes,</span><br /><span class=\"long-line\">\u00a0\u00a0\u00a0\u00a0\u00a0\u00a0We could see the wheels go</span><br /><span class=\"long-line\">\u00a0\u00a0\u00a0\u00a0\u00a0\u00a0round.\"</span></p>\n\n<p><span class=\"long-line\"><em>And I hope all men</em></span><br /><em><span class=\"long-line\">Who think like this</span><br /><span class=\"long-line\">Will soon lie</span><br /><span class=\"long-line\">Underground.</span></em></p>\n"}, {"title": "in the decision of a beginning [3]", "view_node": "/poem/decision-beginning-3", "field_author": "<a href=\"/poet/rusty-morrison\" hreflang=\"und\">Rusty Morrison</a>", "field_date_published": "2011", "body": " <p>No sensation of falling, which suggests that this condition may be flight.</p><p>My eyes might be open or not. My coffee poured into a cup or</p><p>onto the countertop. This, a ball of saved rubberbands or the thick clot of tremors</p><p>I usually keep deep in the drawer that I can trust will stick</p><p>when I absent-mindedly forget, and try to open it.</p><p>What would it mean for a body to yield?</p><p>A use.</p><p>That is to say, dew moistens the grass and is gone.</p><p>The body moves from out of its past with each glimpse of its own</p><p>disappearance, cumulatively. With each drop of rain the earth\u2019s atmosphere pelts</p><p>its grove of tall cedars and saplings</p><p>with equal force. A body</p><p>negating itself as an object possessable. To hold one\u2019s breath would be to drown</p><p>in order to avoid drowning.</p> "}, {"title": "Evening Song", "view_node": "/poem/evening-song", "field_author": "<a href=\"/poet/sherwood-anderson\" hreflang=\"und\">Sherwood Anderson</a>", "field_date_published": "1917", "body": " <p>My song will rest while I rest. I struggle along. I'll get back to the corn and<br />\u00a0\u00a0\u00a0the open fields. Don't fret, love, I'll come out all right.</p><p>Back of Chicago the open fields. Were you ever there\u2014trains coming toward<br />\u00a0\u00a0\u00a0you out of the West\u2014streaks of light on the long gray plains? Many a<br />\u00a0\u00a0\u00a0song\u2014aching to sing.</p><p>I've got a gray and ragged brother in my breast\u2014that's a fact. Back of<br />\u00a0\u00a0\u00a0Chicago the open fields\u2014long trains go west too\u2014in the silence. Don't<br />\u00a0\u00a0\u00a0fret, love. I'll come out all right.</p> "}, {"title": "Discordants [Dead Cleopatra lies in a crystal casket]", "view_node": "/poem/discordants-dead-cleopatra-lies-crystal-casket", "field_author": "<a href=\"/poet/conrad-aiken\" hreflang=\"und\">Conrad Aiken</a>", "field_date_published": "1916", "body": " <p><b>IV</b></p>\n<pre>\nDead Cleopatra lies in a crystal casket,\t\nWrapped and spiced by the cunningest of hands.\t\nAround her neck they have put a golden necklace,\t\nHer tatbebs, it is said, are worn with sands.\t\n \nDead Cleopatra was once revered in Egypt\u2014\t        \nWarm-eyed she was, this princess of the south.\t\nNow she is very old and dry and faded,\t\nWith black bitumen they have sealed up her mouth.\t\n \nGrave-robbers pulled the gold rings from her fingers,\t\nDespite the holy symbols across her breast;\t        \nThey scared the bats that quietly whirled above her.\t\nPoor lady! she would have been long since at rest\t\n \nIf she had not been wrapped and spiced so shrewdly,\t\nPreserved, obscene, to mock black flights of years.\t\nWhat would her lover have said, had he foreseen it?\t        \nHad he been moved to ecstasy, or tears?\t\n \nO sweet clean earth from whom the green blade cometh!\u2014\t\nWhen we are dead, my best-beloved and I,\t\nClose well above us that we may rest forever,\t\nSending up grass and blossoms to the sky.</pre>\n "}, {"title": "Air Envelope", "view_node": "/poem/air-envelope", "field_author": "<a href=\"/poet/catherine-wagner\" hreflang=\"und\">Catherine Wagner</a>", "field_date_published": "2011", "body": " <pre>\nA skylight stippled\nWet, scatted\nWith translucent brown maple seedwings\n\nI'm under that\n\nI wrote it as if it were a poem\nAnd my handy margin\nWould profit me.\n\nThe notebook margin\nLends to me\nIts frugal axis, asking\nNothing, determinist\nOf route, but blandly so.\n\n\"I didn't know.\"\n\nPush forward\nThe bag of skin\nScaffolded animated\nAnd house at the same time\n\nThe hinge we turn on\nWrap around night\nBecomes day, same page\nWe're on it.</pre>\n "}, {"title": "Poem [Your breath was shed]", "view_node": "/poem/poem-your-breath-was-shed", "field_author": "<a href=\"/poet/dylan-thomas\" hreflang=\"und\">Dylan Thomas</a>", "field_date_published": "1946", "body": " <pre>\nYour breath was shed\nInvisible to make\nAbout the soiled undead\nNight for my sake,\n\nA raining trail\nIntangible to them\nWith biter's tooth and tail\nAnd cobweb drum,\n\nA dark as deep\nMy love as a round wave\nTo hide the wolves of sleep\nAnd mask the grave.</pre>\n "}, {"title": "Poem [Daniel Boone]", "view_node": "/poem/poem-daniel-boone", "field_author": "<a href=\"/poet/william-carlos-williams\" hreflang=\"und\">William Carlos Williams</a>", "field_date_published": "1953", "body": " <p>Daniel Boone, the father of Kentucky. Col. W. Crawford, the martyr to Indian revenge. Simon Gerty, the White Savage. Molly Finney, the beautiful Canadian Captive. Majors Samuel and John McCullough, patriots and frontiersmen. Lewis Wetzel, the Indian killer. Simon Kenton, the intrepid pioneer. Gen. George R. Clark, that heroic conqueror. Capt. Brady, the great Indian fighter. Davy Crockett, the hero of the Alamo. Gen. Sam Houston, the liberator of the Lone Star State. Kit Carson, the celebrated plainsman and explorer. Gen. Custer, the hero of Little Big Horn. Buffalo Bill, the tireless rider, hunter and scout. Wild Bill, the lightning marksman. California Joe, the scout. Texas Jack, the government scout and hunter. Captain Jack, the poet scout. Gen. Crook, the conqueror of the Apaches.</p> "}, {"title": "Poem [on getting a card]", "view_node": "/poem/poem-getting-card", "field_author": "<a href=\"/poet/william-carlos-williams\" hreflang=\"und\">William Carlos Williams</a>", "field_date_published": "1953", "body": " <pre>\non getting a card\nlong delayed\nfrom a poet whom I love\nbut\n\nwith whom I differ\ntouching\nthe modern poetic\ntechnique\n\nI was much moved \nto hear\nfrom him if\nas yet he does not\n\nconcede the point\nnor is he\nindeed conscious of it\nno matter\n\nhis style \nhas other outstanding\nvirtues\nwhich delight me</pre>\n "}, {"title": "Poem [song birds take a bath in our elephant pool]", "view_node": "/poem/poem-song-birds-take-bath-our-elephant-pool", "field_author": "<a href=\"/poet/bernadette-mayer\" hreflang=\"und\">Bernadette Mayer</a>", "field_date_published": "2005", "body": " <pre>\nsong birds take a bath in our elephant pool\nturtles don't come to our turtle yet\nsunflower cytology apprehend the weeds in our garden\ncytologies you mean &amp; well there's poison ivy\nas in drew barrymore or\ndream creatures knocking at the window\nthreatening to kill you on a snowy road\nand now the luna moth creeps along as creeks bring\nblue herons flying into flower\nwatches like herons nesting oh! what mayhem\nwe behold, so many Gnostic beings landing at our\ndoorstep ready to start something or else\nthere'll be a rainbow or parhelion or fire or\nwith the party to put an end to hunger as they say\nin the old days and should we have a rent strike\n\u00e0 la hoag's corners? what wilt thou?\nfrogs and bugs and little dead farm animals in the\nhay, oh hell i've lived in new york city\ni know about dead beings like all get out\nof the sidewalks and burning buildings along with\nthe living tho the living usually stay unless they're\n\u00a0\u00a0\u00a0\u00a0\u00a0\u00a0\u00a0\u00a0\u00a0\u00a0the living dead</pre>\n "}, {"title": "Proem", "view_node": "/poem/proem", "field_author": "<a href=\"/poet/octavio-paz\" hreflang=\"und\">Octavio Paz</a>", "field_date_published": "1986", "body": "<p><span class=\"\u201clong-line\u201d\">\u00a0 At times poetry is the vertigo of bodies and the vertigo of speech and the vertigo of death;</span><br /><span class=\"long-line\">\u00a0 the walk with eyes closed along the edge of the cliff, and the verbena in submarine gardens;</span><br /><span class=\"long-line\">\u00a0 the laughter that sets on fire the rules and the holy commandments;</span><br /><span class=\"long-line\">\u00a0 the descent of parachuting words onto the sands of the page;</span><br /><span class=\"long-line\">\u00a0 the despair that boards a paper boat and crosses,</span><br /><span class=\"long-line\">\u00a0 for forty nights and forty days, the night-sorrow sea and the day-sorrow desert;</span><br /><span class=\"long-line\">\u00a0 the idolatry of the self and the desecration of the self and the dissipation of the self;</span><br /><span class=\"long-line\">\u00a0 the beheading of epithets, the burial of mirrors; the recollection of pronouns freshly cut in the garden of Epicurus, and the garden of Netzahualcoyotl;</span><br /><span class=\"long-line\">\u00a0 the flute solo on the terrace of memory and the dance of flames in the cave of thought;</span><br /><span class=\"long-line\">\u00a0 the migrations of millions of verbs, wings and claws, seeds and hands;</span><br /><span class=\"long-line\">\u00a0 the nouns, bony and full of roots, planted on the waves of language;</span><br /><span class=\"long-line\">\u00a0 the love unseen and the love unheard and the love unsaid: the love in love.</span></p>\n\n<p><br /><em>Syllables seeds</em>.</p>\n"}, {"title": "The Hills, 5", "view_node": "/poem/hills-5", "field_author": "<a href=\"/poet/kate-durbin\" hreflang=\"und\">Kate Durbin</a>", "field_date_published": "2011", "body": " <style type=\"text/css\">\n<!--/*--><![CDATA[/* ><!--*/\n\np { line-height: 1.5em; }\nblockquote p { line-height: 1.5em; }\n/*--><!]]>*/\n</style><p>Song \"I Feel Like Something's Changed\" plays over a shot of a sidewalk full of people. The street sign says Sierra Bonita Ave. Shot of a black and white Guess by Marciano billboard. The woman on the billboard is reclining on a dock in a black bikini with black high heels and a zebra print cotton shirt that is being blown open by the wind. She has long blonde curly hair. Behind her is the sea. Behind the billboard are the Hollywood Hills and one lone palm tree. Shot of an intersection with a black Mazda zipping past. The building set against the blue sky is white with curliques and has red umbrella'd tables in front. The sign says \"Milk\" and each letter appears inside a different red milk bottle. The caption says \"Milk Los Angeles, CA.\" As cars whiz through the intersection, Lauren's voice can be heard saying: \"Oh my god I have to tell you something.\" Shot of Lauren's face. She is outdoors, wearing brown sunglasses and her hair is tied back with a blue Pucci headband. The caption says: \"Lauren.\" The back of a blond woman's head can be seen sitting across from Lauren. The blond woman is out of focus and there is a red straw going from the barely visible tip of her sunglasses to the corner of the screen. \"Audrina was at work today,\" continues Lauren. Her tongue flashes against her white teeth. \"And Heidi walked into her work,\" says Lauren. She picks up her white Styrofoam cup. Shot of woman across from Lauren. The caption says: \"Whitney.\" She is wearing large brown sunglasses with a lizard print frame. Her hair is tied back in little braids. Behind her cars are driving past. \"Really?\" she says, scrunching up her mouth. She puts something in her mouth. It's not viewable. She has a gold large ring on her middle finger. Shot of Lauren lifting her Styrofoam cup. Her fingernails are burgundy and short. \"She came to give us invitations to her housewarming party,\" says Lauren. Shot of Whitney chewing with her mouth open. Whitney lifts up another piece of yellow looking food as she continues to chew. She says with her mouth full: \"That's strange, does she really think you're gonna go?\" She puts the yellow food in her mouth. Her fingernails are short and black. Shot of Lauren. Lauren makes a sound like \"no\" or \"oh.\" She shakes her head slightly. \"She can't think I'm gonna go,\" Lauren says. Shot of Whitney. \"I feel bad not going,\" Whitney says slowly. She pulls a strand of hair out of her mouth. \"But at the same time I just think I'd feel really uncomfortable being there.\" She picks up her drink and sips from the red straw. Shot of Lauren pursing her mouth. \"She's in a different world,\" says Whitney. Lauren nods, barely. \"Yeah,\" Lauren says in a low voice. Shot of Whitney chewing on her straw. \"Oh well,\" Whitney says. \"Hope she has fun.\" She slurps. Shot of Lauren. She is drinking. \"So what are we doing tonight?\" asks Whitney. Shot of Whitney. She tugs on her right ear. \"We're going to Les Deux,\" says Lauren. \"You should come.\" Shot of Lauren. Her chin is resting on her fingers. \"Almost every time I go there I meet a cute guy,\" says Lauren. \"Really?\" asks Whitney. Shot of Whitney smiling. She looks over her shoulder at something out of the camera frame. \"That sounds fun.\" She laughs. Shot of Lauren nodding. She smiles and laughs. Picks up her drink. A rap song begins.</p> "}], "pager": {"current_page": 460, "total_items": "13248", "total_pages": 663, "items_per_page": 20}}