{"rows": [{"title": "World Upside Down", "view_node": "/poem/world-upside-down", "field_author": "<a href=\"/poet/diane-raptosh\" hreflang=\"en\">Diane Raptosh</a>", "field_date_published": "2017", "body": " <p>Despite the fact I can\u2019t lay flat<br />\u00a0\u00a0\u00a0\u00a0\u00a0\u00a0\u00a0\u00a0\u00a0\u00a0\u00a0 two fingers,</p><p>on my way home from work<br /><span style=\"font-size: 13.008px;\">\u00a0 \u00a0 \u00a0 \u00a0 \u00a0 \u00a0\u00a0</span>I walked on my hands</p><p>from my corner\u2014<br /><span style=\"font-size: 13.008px;\">\u00a0 \u00a0 \u00a0 \u00a0 \u00a0 \u00a0\u00a0</span>over grass and elm shadow and across</p><p>the sidewalk\u2019s light<br /><span style=\"font-size: 13.008px;\">\u00a0 \u00a0 \u00a0 \u00a0 \u00a0 \u00a0\u00a0</span>upheavals, half the way</p><p>to Sunbeam Grocery\u2014fresh blood-chutes<br /><span style=\"font-size: 13.008px;\">\u00a0 \u00a0 \u00a0 \u00a0 \u00a0 \u00a0\u00a0</span>to the brain with each<br />\u00a0<br />stride of the palm,<br /><span style=\"font-size: 13.008px;\">\u00a0 \u00a0 \u00a0 \u00a0 \u00a0 \u00a0\u00a0</span>pair of inner blue pumps<br />\u00a0<br />pretty much off duty;<br /><span style=\"font-size: 13.008px;\">\u00a0 \u00a0 \u00a0 \u00a0 \u00a0 \u00a0\u00a0</span>spine, lats, and thyroid cartilage elongated fully.</p><p>This I do with the soles of my hands:<br /><span style=\"font-size: 13.008px;\">\u00a0 \u00a0 \u00a0 \u00a0 \u00a0 \u00a0\u00a0</span>cop a feel of the globe</p><p>in mega-dimension, how dogs sniff voles<br /><span style=\"font-size: 13.008px;\">\u00a0 \u00a0 \u00a0 \u00a0 \u00a0 \u00a0\u00a0</span>through fronds of wild rye.</p><p>With how much grandeur dandelions keep their minds afloat!<br /><span style=\"font-size: 13.008px;\">\u00a0 \u00a0 \u00a0 \u00a0 \u00a0 \u00a0\u00a0</span>Noble, with clover laced in</p><p>industrial bug juice, my dog Toby a swatch<br /><span style=\"font-size: 13.008px;\">\u00a0 \u00a0 \u00a0 \u00a0 \u00a0 \u00a0\u00a0</span>of roving cumulus. The whole schmeer,</p><p>by which I must now mean the full-on world,<br /><span style=\"font-size: 13.008px;\">\u00a0 \u00a0 \u00a0 \u00a0 \u00a0 \u00a0\u00a0</span>seems half again as much a meanness derby</p><p>as anything else. Therefore, let me lay<br /><span style=\"font-size: 13.008px;\">\u00a0 \u00a0 \u00a0 \u00a0 \u00a0 \u00a0\u00a0</span>these words in the church of your mouth.</p> "}, {"title": "Ours Is the Age of Pre-Post-Hope", "view_node": "/poem/ours-age-pre-post-hope", "field_author": "<a href=\"/poet/diane-raptosh\" hreflang=\"en\">Diane Raptosh</a>", "field_date_published": "2017", "body": " <p>Tonight\u2019s the night to spin a world<br />that does not reproduce the now,</p><p>like the inventor of the Vegetebrella,<br />who thought the beauty of the simulacrum</p><p>of a butter lettuce head<br />and levered silver pole could live as one.</p><p>This Kindle is jealous<br />of that dulcimer, and even these specks</p><p>of tension make me feel<br />rag-edged as a contorted filbert.</p><p>Consider, if you will, the following:<br />Cities should try to sell umbrellas</p><p>only in slim numbers,<br />forcing strangers in twos</p><p>to rub arm hairs together.<br />Padmasambhava is said to have said</p><p>the basis for realizing enlightenment<br />is the human body. Understand.</p><p>These pairs of persons<br />wouldn\u2019t even have to talk,</p><p>looking over each other\u2019s shoulders<br />at the town\u2019s shins\u2014</p><p>broad umbel shadowing<br />the earth between them,</p><p>carving raw closeness<br />with the lights of their ribs.</p> "}, {"title": "Marsyas", "view_node": "/poem/marsyas", "field_author": "<a href=\"/poet/paisley-rekdal\" hreflang=\"und\">Paisley Rekdal</a>", "field_date_published": "2017", "body": " <p>We think Marsyas is the only one<br />who changed, stepping forth<br />from the forest to challenge Apollo, staring at the god</p><p>he could never rival as if<br />into a harshly lit mirror, each recoiling</p><p>at what he found there: the jealousy knifed<br />inside the mortal talent, the cold perfection<br />threaded through with rage.</p><p>But then the muses stirred behind them.<br />And Marsyas, out the painful human wish<br />to be admired, cannot help but play.</p><p>And afterwards, the cutting,<br />the stripped corpuscles, the ruined mouth\u2014</p><p>\u00a0\u00a0\u00a0\u00a0 Only after his victory would Apollo reach out<br />and clip three small muscles from the satyr\u2019s throat<br />and shoulders, and dry them on a rock, and string them between<br />the curved horns of his lyre. Then the god</p><p>would pull a song<br />through that tender sinew, telling himself</p><p>it was not the crying of one<br />who\u2019s lost everything he loves but the god\u2019s<br />own singing that he heard, and after which<br />the muses strained, because it was the song</p><p>of someone who knew what it was like<br />to be alive, which the god could not bear<br />to know, or to stop playing.</p><p>And so Apollo, unthinking, binds himself<br />to Marsyas: the god taking from his rival</p><p>fear and desire, the satyr hardened by the god\u2019s<br />cruel skill, until both songs</p><p>writhe inside each other, sung<br />by one who cannot understand death, and so</p><p>never understands what he plays,<br />knowing only how his hand<br />trembles over the plucked muscle:</p><p>adding, he thinks, something lower to the notes,<br />something sweeter, and infinitely strange.</p> "}, {"title": "After All", "view_node": "/poem/after-all", "field_author": "<a href=\"/poet/john-koethe\" hreflang=\"und\">John Koethe</a>", "field_date_published": "2017", "body": " <p><em>\u201cAfter all,\u201d that too might be possible . . .</em><br />\u2014John Ashbery</p><p>It isn\u2019t too late, but for what I\u2019m not sure.<br />Though I live for possibility, I loathe unbridled<br />Speculation, let alone those vague attempts<br />At self-exploration that become days wasted<br />Trying out the various modes of being:<br />The ecstatic mode, which celebrates the world, a high<br />That fades into an old idea; the contemplative,<br />Which says, <em>So what?</em> and leaves it there;<br />The skeptical, a way of being in the world<br />Without accepting it (whatever that might mean).<br />They\u2019re all poses, adequate to different ends<br />And certain ages, none of them conclusive<br />Or sufficient to the day. I find myself surprised<br />By my indifference to what happens next:<br />You\u2019d think that after almost seventy years of waiting<br />For the figure in the carpet to emerge I\u2019d feel a sense of<br />Urgency about the future, rather than dismissing it<br />As another pretext for more idle speculation.<br />I\u2019m happy, but I have a pessimistic cast of mind.<br />I like to generalize, but realize it\u2019s pointless,<br />Since everything is there to see. I love remembering<br />For its own sake and the feel of passing time<br />It generates, which lends it meaning and endows it<br />With a private sense of purpose\u2014as though every life<br />Were a long effort to salvage something of its past,<br />An effort bound to fail in the long run, though it comes<br />With a self-defeating guarantee: the evaporating<br />Air of recognition that lingers around a name<br />Or rises from a page from time to time; or the nothing<br />Waiting at the end of age; whichever comes last.</p> "}, {"title": "For My Son Born in La Mariscal", "view_node": "/poem/my-son-born-la-mariscal", "field_author": "<a href=\"/poet/natalie-scenters-zapico\" hreflang=\"en\">Natalie Scenters-Zapico</a>", "field_date_published": "2017", "body": " <p>\u2014<em>Ciudad Ju\u00e1rez</em></p><p>You bob &amp; spit &amp; bite<br />\u00a0\u00a0\u00a0\u00a0 at my breast. You are my private<br />colony of sharp stones. I burn<br />\u00a0\u00a0\u00a0\u00a0 your umbilical cord to ash.<br />Come, meet the spirits. Before<br />\u00a0\u00a0\u00a0\u00a0 your birth I thought you an eyeball<br />bruised purple. I have no crib<br />\u00a0\u00a0\u00a0\u00a0 to leave you in, but a maizena cardboard box<br />&amp; a blanket of my thick dark hair.<br />\u00a0\u00a0\u00a0\u00a0 I have done many things to feed your body\u2014<br />open-legged, dark-thumbed<br />\u00a0\u00a0\u00a0\u00a0 things. Things for the price of what I<br />can endure in thirty minutes before<br />\u00a0\u00a0\u00a0\u00a0 breaking. I know I can\u2019t keep you,<br />but even stillborn I used the blood<br />\u00a0\u00a0\u00a0\u00a0 I gave you to wash my legs clean.</p> "}, {"title": "Hunter", "view_node": "/poem/hunter-0", "field_author": "<a href=\"/poet/bianca-stone\" hreflang=\"en\">Bianca Stone</a>", "field_date_published": "2017", "body": " <p>Erotic dancing takes the place of Greek tragedy<br />just as the gladiatorial fights did in Rome\u2014but it is a<br />private dance<br />no one can touch or see. A feeling every day I enter and close<br />a curtain behind. Sitting alone with it,<br />looking at it through a tiny hole,<br />something lithe and naked, shaking in the spotlight<br />beyond which I can never reach\u2014</p><p>suffering cannot do what it did for Christ.<br />We do not get to go home afterward, cannot be<br />imagined into the arms of the absent father. See how<br />I do not rise up or shift the stone, do not<br />inspire a nation\u2014I sit at the bar<br />consuming fried food. I put $5 into a machine<br />and shoot bucks with a long green rifle,<br />not speaking, not calling out anyone\u2019s name,<br />just me and the deer<br />grazing in a digital clearing of the wood.</p><p>I can\u2019t tell anymore for whom I grieve.<br />Something bigger<br />and more catastrophic has died<br />but died out of necessity\u2014something that thought itself<br />into <em>indispensability</em><br />something burst from every atom<br />outward, like autumn fireworks over the lake<br />and now<br />I\u2019m just recording its scream and glitter-down,<br />just making a serial<br />from its fantastical, dazzling demise\u2014<br />I can\u2019t tell anymore whether I am grieving <em>you</em> particularly<br />or I simply find life and death erroneous\u2014this<br />big expired grief<br />\u00a0\u00a0\u00a0\u00a0\u00a0\u00a0\u00a0\u00a0\u00a0\u00a0\u00a0\u00a0\u00a0\u00a0\u00a0\u00a0\u00a0\u00a0\u00a0\u00a0\u00a0 like a limb people deny ownership of, find<br />in their beds and throw on the floor, only to be told<br />\u00a0\u00a0\u00a0\u00a0\u00a0\u00a0\u00a0\u00a0\u00a0\u00a0\u00a0 again and again, when the<br />whole body is thrown with it\u2014that it is</p><p>attached,</p><p>\u00a0\u00a0\u00a0\u00a0\u00a0\u00a0\u00a0\u00a0\u00a0\u00a0 it is theirs, that they were<br />born with it.</p> "}, {"title": "Is It True All Legends Once Were Rumors", "view_node": "/poem/it-true-all-legends-once-were-rumors", "field_author": "<a href=\"/poet/carl-phillips\" hreflang=\"und\">Carl Phillips</a>", "field_date_published": "2017", "body": " <p><span class=\"long-line\">And it was as we\u2019d been told it would be: some stumbling wingless;</span><br /><span class=\"long-line\">others flew beheaded. But at first when we looked at them, we could</span><br /><span class=\"long-line\">see no difference, the way it can take a while to realize about how</span><br /><span class=\"long-line\">regretfulness is not regret. As for being frightened: though for many</span><br /><span class=\"long-line\">animals the governing instinct, when most afraid, is to attack, what about</span><br /><span class=\"long-line\">the tendency of songbirds, in a storm, toward silence\u2014is that fear, too?</span><br /><span class=\"long-line\">For mostly, yes, we were silent\u2014tired, as well, though as much out of</span><br /><span class=\"long-line\">boredom as for the need to stretch a bit, why not the rest on foot, we</span><br /><span class=\"long-line\">at last decided\u2014and dismounting, each walked with his horse close</span><br /><span class=\"long-line\">beside him. We mapped our way north by the stars, old school, until there</span><br /><span class=\"long-line\">were no stars, just the weather of childhood, where it\u2019s snowing forever.</span></p> "}, {"title": "The Carrying", "view_node": "/poem/carrying", "field_author": "<a href=\"/poet/ada-limon\" hreflang=\"und\">Ada Lim\u00f3n</a>", "field_date_published": "2017", "body": " <p>The sky\u2019s white with November\u2019s teeth,<br />and the air is ash and woodsmoke.<br />A flush of color from the dying tree,<br />a cargo train speeding through, and there,<br />that\u2019s me, standing in the wintering<br />grass watching the dog suffer the cold<br />leaves. I\u2019m not large from this distance,<br />just a fence post, a hedge of holly.<br />Wider still, beyond the rumble of overpass,<br />mares look for what\u2019s left of green<br />in the pasture, a few weanlings kick<br />out, and theirs is the same sky, white<br />like a calm flag of surrender pulled taut.<br />A few farms over, there\u2019s our mare,<br />her belly barrel-round with foal, or idea<br />of foal. It\u2019s Kentucky, late fall, and any<br />mare worth her salt is carrying the next<br />potential stake\u2019s winner. Ours, her coat<br />thicker with the season\u2019s muck, leans against<br />the black fence and this image is heavy<br />within me. How my own body, empty,<br />clean of secrets, knows how to carry her,<br />knows we were all meant for something.</p> "}, {"title": "The School of Night &amp; Hyphens", "view_node": "/poem/school-night-hyphens", "field_author": "<a href=\"/poet/chen-chen\" hreflang=\"en\">Chen Chen</a>", "field_date_published": "2017", "body": "<p><span class=\"long-line\">The sky tonight, so without aliens. The woods, very lacking</span><br /><span class=\"long-line\">in witches. But the people, as usual, replete</span></p>\n<p><span class=\"long-line\">with people. &amp; so you, with your headset, sit</span><br /><span class=\"long-line\">in the home office across the hall, stuck in a hell</span></p>\n<p><span class=\"long-line\">of strangers crying, computers dying, the new</span><br /><span class=\"long-line\">father\u2019s dropped-in-toilet baby</span></p>\n<p><span class=\"long-line\">photos, the old Canadian, her grandson Gregory,</span><br /><span class=\"long-line\">all-grown-up-now Greg, who gave her this phone</span></p>\n<p><span class=\"long-line\">but won\u2019t call her. You call her</span><br /><span class=\"long-line\">wonderful. You encourage her to tell you what\u2019s wrong</span></p>\n<p><span class=\"long-line\">with her device. You with your good-at-your-job</span><br /><span class=\"long-line\">good-looking-ness, I bet even over the phone</span></p>\n<p><span class=\"long-line\">it\u2019s visible. I bet all the Canadian grandmas</span><br /><span class=\"long-line\">want you, but hey, you\u2019re with me. Hey, take off</span></p>\n<p><span class=\"long-line\">that headset. Steal away from your post. Cross</span><br /><span class=\"long-line\">the hall, you sings-the-chorus-too-soon, you</span></p>\n<p><span class=\"long-line\">makes-a-killer-veggie-taco, you</span><br /><span class=\"long-line\">played-tennis-in-college-build, you Jeffrey, you</span></p>\n<p><span class=\"long-line\">Jeff-ship full of stars, cauldron full of you,</span><br /><span class=\"long-line\">come teach me a little bit</span></p>\n<p><span class=\"long-line\">of nothing, in the dark</span><br /><span class=\"long-line\">abundant hours.</span></p>\n"}, {"title": "Oughta Be a Woman", "view_node": "/poem/oughta-be-woman", "field_author": "<a href=\"/poet/june-jordan\" hreflang=\"und\">June Jordan</a>", "field_date_published": "2017", "body": "<p><span class=\"long-line\">Washing the floors to send you to college</span><br /><span class=\"long-line\">Staying at home so you can feel safe</span><br /><span class=\"long-line\">What do you think is the soul of her knowledge</span><br /><span class=\"long-line\">What do you think that makes her feel safe</span><br /><br /><span class=\"long-line\">Biting her lips and lowering her eyes</span><br /><span class=\"long-line\">To make sure there's food on the table</span><br /><span class=\"long-line\">What do you think would be her surprise</span><br /><span class=\"long-line\">If the world was as willing as she's able</span><br /><br /><span class=\"long-line\">Hugging herself in an old kitchen chair</span><br /><span class=\"long-line\">She listens to your hurt and your rage</span><br /><span class=\"long-line\">What do you think she knows of despair</span><br /><span class=\"long-line\">What is the aching of age</span><br /><br /><span class=\"long-line\">The fathers, the children, the brothers</span><br /><span class=\"long-line\">Turn to her and everybody white turns to her</span><br /><span class=\"long-line\">What about her turning around</span><br /><span class=\"long-line\">Alone in the everyday light</span><br /><br /><span class=\"long-line\">There oughta be a woman can break</span><br /><span class=\"long-line\">Down, sit down, break down, sit down</span><br /><span class=\"long-line\">Like everybody else call it quits on Mondays</span><br /><span class=\"long-line\">Blues on Tuesdays, sleep until Sunday</span><br /><span class=\"long-line\">Down, sit down, break down, sit down</span><br /><br /><span class=\"long-line\">A way outa no way is flesh outa flesh</span><br /><span class=\"long-line\">Courage that cries out at night</span><br /><span class=\"long-line\">A way outa no way is flesh outa flesh</span><br /><span class=\"long-line\">Bravery kept outa sight</span><br /><span class=\"long-line\">A way outa no way is too much to ask</span><br /><span class=\"long-line\">Too much of a task for any one woman</span></p>\n"}, {"title": "When I or Else", "view_node": "/poem/when-i-or-else", "field_author": "<a href=\"/poet/june-jordan\" hreflang=\"und\">June Jordan</a>", "field_date_published": "2017", "body": " <p>when I or else when you<br />and I or we<br />deliberate I lose I<br />cannot choose if you if<br />we then near or where<br />unless I stand as loser<br />of that losing possibility<br />that something that I have<br />or always want more than much<br />more at<br />least to have as less and<br />yes directed by desire</p> "}, {"title": "Roman Poem Number Thirteen", "view_node": "/poem/roman-poem-number-thirteen", "field_author": "<a href=\"/poet/june-jordan\" hreflang=\"und\">June Jordan</a>", "field_date_published": "2017", "body": "<p>\u00a0 \u00a0 \u00a0 \u00a0 \u00a0 \u00a0 \u00a0 \u00a0 \u00a0 \u00a0 \u00a0 \u00a0 \u00a0 \u00a0 \u00a0 \u00a0 \u00a0 \u00a0 \u00a0\u00a0<sup>For Eddie</sup></p>\n\n<p>Only our hearts will argue hard<br />\nagainst the small lights letting in the news<br />\nand who can choose between the worst possibility<br />\nand the last<br />\nbetween the winners of the wars against breathing<br />\nand the last<br />\nwar everyone will lose<br />\nand who can choose between the dry gas<br />\ndomination of the future<br />\nand the past<br />\nbetween the consequences of the killers<br />\nand the past<br />\nof all the killing? There<br />\nis no choice in these.<br />\nYour voice<br />\nbreaks very close to me my love.</p>\n"}, {"title": "Modern Love: XIII", "view_node": "/poem/modern-love-xiii", "field_author": "<a href=\"/poet/george-meredith\" hreflang=\"und\">George Meredith</a>", "field_date_published": "1909", "body": " <div>\u2018I play for Seasons; not Eternities!\u2019</div><div>Says Nature, laughing on her way. \u2018So must</div><div>All those whose stake is nothing more than dust!\u2019</div><div>And lo, she wins, and of her harmonies</div><div>She is full sure! Upon her dying rose,</div><div>She drops a look of fondness, and goes by,</div><div>Scarce any retrospection in her eye;</div><div>For she the laws of growth most deeply knows,</div><div>Whose hands bear, here, a seed-bag\u2014there, an urn.</div><div>Pledged she herself to aught, \u2019t would mark her end!</div><div>This lesson of our only visible friend,</div><div>Can we not teach our foolish hearts to learn?</div><div>Yes! yes!\u2014but, oh, our human rose is fair</div><div>Surpassingly! Lose calmly Love\u2019s great bliss,</div><div>When she renewed for ever of a kiss</div><div>Whirls life within the shower of loosened hair!</div><div>\u00a0</div> "}, {"title": "Modern Love: XII", "view_node": "/poem/modern-love-xii", "field_author": "<a href=\"/poet/george-meredith\" hreflang=\"und\">George Meredith</a>", "field_date_published": "1909", "body": " <div>Not solely that the Future she destroys,</div><div>And the fair life which in the distance lies</div><div>For all men, beckoning out from dim rich skies:</div><div>Nor that the passing hour\u2019s supporting joys</div><div>Have lost the keen-edged flavour, which begat</div><div>Distinction in old times, and still should breed</div><div>Sweet Memory, and Hope,\u2014earth\u2019s modest seed,</div><div>And heaven\u2019s high prompting: not that the world is flat</div><div>Since that soft-luring creature I embraced,</div><div>Among the children of Illusion went:</div><div>Methinks with all this loss I were content,</div><div>If the mad Past, on which my foot is based,</div><div>Were firm, or might be blotted: but the whole</div><div>Of life is mixed: the mocking Past will stay:</div><div>And if I drink oblivion of a day,</div><div>So shorten I the stature of my soul.</div><div>\u00a0</div> "}, {"title": "Modern Love: XI", "view_node": "/poem/modern-love-xi-0", "field_author": "<a href=\"/poet/george-meredith\" hreflang=\"und\">George Meredith</a>", "field_date_published": "1909", "body": " <div>Out in the yellow meadows, where the bee</div><div>Hums by us with the honey of the Spring,</div><div>And showers of sweet notes from the larks on wing,</div><div>Are dropping like a noon-dew, wander we.</div><div>Or is it now? or was it then? for now,</div><div>As then, the larks from running rings pour showers:</div><div>The golden foot of May is on the flowers,</div><div>And friendly shadows dance upon her brow.</div><div>What\u2019s this, when Nature swears there is no change</div><div>To challenge eyesight? Now, as then, the grace</div><div>Of heaven seems holding earth in its embrace.</div><div>Nor eyes, nor heart, has she to feel it strange?</div><div>Look, woman, in the West. There wilt thou see</div><div>An amber cradle near the sun\u2019s decline:</div><div>Within it, featured even in death divine,</div><div>Is lying a dead infant, slain by thee.</div><div>\u00a0</div> "}, {"title": "Modern Love: XI", "view_node": "/poem/modern-love-xi", "field_author": "<a href=\"/poet/george-meredith\" hreflang=\"und\">George Meredith</a>", "field_date_published": "1909", "body": " <div>Out in the yellow meadows, where the bee</div><div>Hums by us with the honey of the Spring,</div><div>And showers of sweet notes from the larks on wing,</div><div>Are dropping like a noon-dew, wander we.</div><div>Or is it now? or was it then? for now,</div><div>As then, the larks from running rings pour showers:</div><div>The golden foot of May is on the flowers,</div><div>And friendly shadows dance upon her brow.</div><div>What\u2019s this, when Nature swears there is no change</div><div>To challenge eyesight? Now, as then, the grace</div><div>Of heaven seems holding earth in its embrace.</div><div>Nor eyes, nor heart, has she to feel it strange?</div><div>Look, woman, in the West. There wilt thou see</div><div>An amber cradle near the sun\u2019s decline:</div><div>Within it, featured even in death divine,</div><div>Is lying a dead infant, slain by thee.</div><div>\u00a0</div> "}, {"title": "Modern Love: X", "view_node": "/poem/modern-love-x", "field_author": "<a href=\"/poet/george-meredith\" hreflang=\"und\">George Meredith</a>", "field_date_published": "1909", "body": " <div>But where began the change; and what\u2019s my crime?</div><div>The wretch condemned, who has not been arraigned</div><div>Chafes at his sentence. Shall I, unsustained,</div><div>Drag on Love\u2019s nerveless body thro\u2019 all time?</div><div>I must have slept, since now I wake. Prepare,</div><div>You lovers, to know Love a thing of moods:</div><div>Not like hard life, of laws. In Love\u2019s deep woods,</div><div>\u00a0I dreamt of loyal Life:\u2014the offence is there!</div><div>Love\u2019s jealous woods about the sun are curled;</div><div>At least, the sun far brighter there did beam.\u2014</div><div>My crime is, that the puppet of a dream,</div><div>I plotted to be worthy of the world.</div><div>Oh, had I with my darling helped to mince</div><div>That facts of life, you still had seen me go</div><div>With hindward feather and with forward tow,</div><div>Her much-adored delightful Fairy Prince!</div><div>\u00a0</div> "}, {"title": "Modern Love: IX", "view_node": "/poem/modern-love-ix", "field_author": "<a href=\"/poet/george-meredith\" hreflang=\"und\">George Meredith</a>", "field_date_published": "1909", "body": " <div>He felt the wild beast in him between whiles</div><div>So masterfully rude, that he would grieve</div><div>To see the helpless delicate thing receive</div><div>His guardianship through certain dark defiles.</div><div>Had he not teeth to rend, and hunger too?</div><div>But still be spared her. Once: \u2018Have you no fear?\u2019</div><div>He said: \u2019t was dusk; she in his grasp; none near.</div><div>She laughed: \u2018No, surely; am I not with you?\u2019</div><div>And uttering that soft starry \u2018you,\u2019 she leaned</div><div>\u00a0Her gentle body near him, looking up;</div><div>And from her eyes, as from a poison-cup,</div><div>He drank until the flittering eyelids screened.</div><div>Devilish malignant witch! and oh, young beam</div><div>Of heaven\u2019s circle-glory! Here thy shape</div><div>To squeeze like an intoxicating grape\u2014</div><div>I might, and yet thou goest safe, supreme.</div><div>\u00a0</div> "}, {"title": "Modern Love: VIII", "view_node": "/poem/modern-love-viii", "field_author": "<a href=\"/poet/george-meredith\" hreflang=\"und\">George Meredith</a>", "field_date_published": "1909", "body": " <div>Yet it was plain she struggled, and that salt</div><div>Of righteous feeling made her pitiful.</div><div>Poor twisting worm, so queenly beautiful!</div><div>Where came the cleft between us? whose the fault?</div><div>My tears are on thee, that have rarely dropped</div><div>As balm for any bitter wound of mine:</div><div>My breast will open for thee at a sign!</div><div>But no: we are two reed-pipes, coarsely stopped:</div><div>The God once filled them with his mellow breath;</div><div>And they were music till he flung them down,</div><div>Used! used! Hear now the discord-loving clown</div><div>Puff his gross spirit in them, worse than death!</div><div>I do not know myself without thee more:</div><div>In this unholy battle I grow base:</div><div>If the same soul be under the same face,</div><div>Speak, and a taste of that old time restore!</div><div>\u00a0</div> "}, {"title": "Modern Love: VII", "view_node": "/poem/modern-love-vii", "field_author": "<a href=\"/poet/george-meredith\" hreflang=\"und\">George Meredith</a>", "field_date_published": "1909", "body": " <div>She issues radiant from her dressing-room,</div><div>Like one prepared to scale an upper sphere:</div><div>\u2014By stirring up a lower, much I fear!</div><div>How deftly that oiled barber lays his bloom!</div><div>That long-shanked dapper Cupid with frisked curls</div><div>Can make known woman torturingly fair;</div><div>The gold-eyed serpent dwelling in rich hair,</div><div>Awakes beneath his magic whisks and twirls.</div><div>His art can take the eyes from out my head,</div><div>Until I see with eyes of other men;</div><div>While deeper knowledge crouches in its den,</div><div>And sends a spark up:\u2014is it true we\u2019re wed?</div><div>Yea! filthiness of body is most vile,</div><div>But faithlessness of heart I do hold worse.</div><div>The former, it were not so great a curse</div><div>To read on the steel-mirror of her smile.</div><div>\u00a0</div> "}], "pager": {"current_page": 275, "total_items": "13248", "total_pages": 663, "items_per_page": 20}}