{"rows": [{"title": "Shakespeare&#039;s Horse", "view_node": "/poem/shakespeares-horse", "field_author": "<a href=\"/poet/joseph-harrison\" hreflang=\"en\">Joseph Harrison</a>", "field_date_published": "2014", "body": " <pre>\nHe was a man knew horses, so we moved\nAs wills were one, and all was won at will,\nIn hand with such sleight handling as improved\nThose parks and parcels where we\u2019re racing still,\n\nPounding like pairs of hooves or pairs of hearts\nThrough woodland scenes and lush, dramatic spaces, \nWith all our parts in play to play all parts\nIn pace with pace to put us through his paces.\n\nAges have passed. All channels channel what\nImagined these green plots and gave them names\nDown to the smallest role, if and and but,\nWhat flies the time (the globe gone up in flames),\n\nWhat thunders back to ring the ringing course\nAnd runs like the streaking will, like Shakespeare\u2019s horse.\n</pre>\n "}, {"title": "Corruptive", "view_node": "/poem/corruptive", "field_author": "<a href=\"/poet/olena-kalytiak-davis\" hreflang=\"und\">Olena Kalytiak Davis</a>", "field_date_published": "2014", "body": " <pre>\nThe dark wood <em>after</em> the dark wood: the cold \nafter cold in April's false November.\nIn that second worser place: more gone, less there,\nbut in that lurid present present, cast and held, \n\nrooted, kept, like some old false-berried yew. \nJust against; the door leading to preferment \nshut; no longer believing in <em>still</em>, by <em>some</em>, few\nmeans, method, <em>could be, but for</em> the bad day set, \n\nleft, leaning atop bad day. \n\t\t\t\t\t\t\tOut- and un-\n\nranked, toothached, wronged\u2014 rankled corruptive thing!\nIll-wishing, in-iquitous, clipped, up-hoped, stripped: just plain: thin.\nDare thy commit: commit this final fatal sin: \n<em>God my God, I am displeased by spring.</em>\n</pre>\n "}, {"title": "In the Sanatorium", "view_node": "/poem/sanatorium", "field_author": "<a href=\"/poet/anya-silver\" hreflang=\"en\">Anya Silver</a>", "field_date_published": "2014", "body": " <pre>\nIt was after the war.\nMy father lay in an Austrian sanatorium,\nhis lungs full of tuberculosis.\nNext to him, a young Soviet veteran\nneeded to confess to another Russian.\nHe had done something terrible, he said.\t\t\t\nIn Kharkov, before the Germans came.\nUnder orders, he had taken enemies of the state,\nshoved them between two stopped trains,\nand burned them to death.  Then swept away remains.  \nCould he ever be forgiven for such a sin?\n\nHow could he know, that tormented man,\nthat my father\u2019s father was one of the dead?\nWhat chance that these two men would lie, \nshushed to sleep by nurses, bed to bed?\n\nMy father, unable to respond, simply averted\nhis head, refusing to grant comfort.\nRiven, six more decades, between two ghosts:\none wasted from coughing, pale; one burning.\nBoth beyond any word he might have spoken.\n</pre>\n "}, {"title": "Kelly Sleeping", "view_node": "/poem/kelly-sleeping", "field_author": "<a href=\"/poet/david-bottoms\" hreflang=\"und\">David Bottoms</a>", "field_date_published": "2014", "body": " <pre>\n\nSometimes when she sleeps, her face against the pillow (or sheet)\nalmost achieves an otherworldly peace.\n\nSometimes when the traffic and bother of the day dissolve\nand her deeper self eases out, when sunlight edges \n\nthrough curtains and drapes the bed, I know she\u2019s in another place, \na purer place, which perhaps doesn\u2019t include me,\n\nthough certainly includes love, which may include the possibility of me.\nSometimes then her face against the sheet (or pillow)\n\nachieves (almost) an otherworldly calm, (do I dare say that?)\nand glows (almost) as it glowed years ago\n\njust after our daughter\u2019s head slipped through the birth canal.\n\nI remember that wet sticky swirl of hair\nturning slightly so the slick body might follow more easily,\n\nand how the midwife or nurse or doctor (or someone)\nlaid an firm open hand under that head\n\nand guided our child into the world.\nWhen that hand laid our daughter on her mother\u2019s breast,\n\nsuch a sigh followed, a long \n\nexhausted breath, and (stunned) I saw in my wife\u2019s face \nan ecstasy I knew I\u2019d never (quite) see again.\n\n</pre>\n "}, {"title": "Thief", "view_node": "/poem/thief", "field_author": "<a href=\"/poet/sally-van-doren\" hreflang=\"und\">Sally Van Doren</a>", "field_date_published": "2014", "body": " <pre>\nI remember the hour\nyou stole time from me\n\nand here in these late pages\nI try to collect back\n\nthe kisses in the parking lot\nthat erased my history\n\nnext to that green F-150\nwhen you became my future.</pre>\n "}, {"title": "From Trance Notebook #2 [nerdy questions about exact pitch]", "view_node": "/poem/trance-notebook-2-nerdy-questions-about-exact-pitch", "field_author": "<a href=\"/poet/wayne-koestenbaum\" hreflang=\"und\">Wayne Koestenbaum</a>", "field_date_published": "2014", "body": " <pre>\n\n            sell me a clip-on\nbow-tie or a mock\nfringe chapeau worn on\nthe collarbone\u2014a\nnew style of \u201cshoulder\nhat,\u201d a cape to\nprotect your shoulders\nfrom rain and chill and\nto prevent the wearer\nfrom sliding (like\nMickey Mantle) into\na third gender\n \n__________\n \n            now I\u2019ve\nreached the \u201cclinker\u201d zone\nof perforated opportunities\n \n__________\n \n \n            \u2014perforated appurtenances\n \n____________\n \n \nbut then Edith Piaf\nsuddenly thrilled me\n \n__________\n \n            a newly\ndiscovered Venezuela, a\nview\u2014\n \n____________\n \n            a <i>rendre compte,</i>\na liar on the corner\n(thirsty corner) of\n23rd and 9th, a gazelle,\na rendezvous chapel\n \n \n__________\n \n             (a chaplet of\ndaisies around my\npleurisy brow)\u2014\n</pre>\n "}, {"title": "Allegorical Baraka", "view_node": "/poem/allegorical-baraka", "field_author": "<a href=\"/poet/anne-waldman\" hreflang=\"und\">Anne Waldman</a>", "field_date_published": "2014", "body": " <pre>\n\n\u201cthe tongues of dying men/enforce attention like deep harmony.\u201d\n                                                                   \u2014W.S. Shakespeare\n\n <i>in memoriam LeRoi Jones/ Amiri Baraka 1934-2014</i>\n\n\n\nwho wakes you up\nbad scenic tapestry\ndove barely escaping hawk\nvillains bandits robber barons\nslave traders\nan excuse for progress?\nwho wakes you up\nbiblical, literal or \nactual rips\nin bright kente cloth\nor black today\nsymbolizing \u201cintensified\nspiritual energy\u201d\nenigmatic dreams \nget made with you\nenfolding your selves\no man of social action\nlift consciousness\nto teach us ugly deeds\ntoes keep a thrum\nupon the body politic\n\u201csurvival dancing\u201d\n&amp; deconstruct for us \n\u201cstate control\u201d\nharrowing acts of cruelty,\nintricacies a Byzantine\ncloak and dagger\nmorality play gets made of\ntragic events unfathomable\n<i>fury fury fury</i>\nor redemption\nin verbal spells\n(contagious elegance\u2019s\ncontroversial logic)\nsuch sweetness too\nin a man you love\nturns poetry from\ndangerous toy to weapon\nlament or dirge\nor love song\nskillful means, <i>upaya\u2019s</i> wit\nrhetoric of praise\n&amp; ceremony\nor un-censorable blame\njazz riff toward \nvisionary plateau \nwhose time is come\nthis is the way it <i>sounds\ngriot\u2019s call</i>\nwho\u2019s a daemon?\n<i>griot calling</i>\nit <i>sounds</i> &amp; poetry\n<i>is</i> your gospel\ntruth who was target\na whole long life\n<i>in the struggle</i>\nfor syntax of revolution\nbe these accidents or\nmiracles that bind us\nbe this friendship\n&amp; love\nwho told it as it is, <i>love of\nhuman freedom is a love supreme</i>\nis this buried, mere ornament\n<i>poet</i>\nsaying to one coming up on stage\n<i>read like your ancestors are on fire?</i>\nchivalric banner guilds\nbowstrings\nobligatory joust\nreluctance in the cities\nin the suburbs\nbut ready to rise\na surreal riddle\u2019s surprise\nflee? escape?\nsurrender?\nfight back?\nconsistency\nin the man\nlooking back\u2026\nand moving forward looking back\nthough he break hearts\nhe never forgets <i>arke</i>\nhistory &amp; purpose\ntwin dynamics\nfor a new-to-come action-poetics\nwith post-post-post-post \nmedieval exegesis\nwho was this journeyman\nplangent messenger\ngood dark angel Amiri\nand could be wrathful too\nnot about accordance\nthe whole range is\ntranscending\nhuman suffering, <i>you dig?</i>\nhis gleaming steel\nuncompromised \nbrilliance our reward\n</pre>\n "}, {"title": "Daytime Begins with a Line by Anna Akhmatova", "view_node": "/poem/daytime-begins-line-anna-akhmatova", "field_author": "<a href=\"/poet/yusef-komunyakaa\" hreflang=\"und\">Yusef Komunyakaa</a>", "field_date_published": "2014", "body": "<p><span class=\"long-line\">The round, hanging lanterns,</span><br /><span class=\"long-line\">lit faces in a window of the Marble Palace</span><br /><span class=\"long-line\">Catherine the Great built for a lover, </span><br /><span class=\"long-line\">with the Field of Mars below,</span><br /><span class=\"long-line\">snow falling inside two minds. </span><br /><span class=\"long-line\">One translated Babylonian folktales</span><br /><span class=\"long-line\">so the other could stand in line early morning </span><br /><span class=\"long-line\">for bread at the House of Scholars.</span><br /><span class=\"long-line\">A touch of dawn was again nightfall,</span><br /><span class=\"long-line\">their room furnished with scattered papers,</span><br /><span class=\"long-line\">rare books, a couch with springs poking out,</span><br /><span class=\"long-line\">a bookcase, a floral pitcher, a china cabinet,</span><br /><span class=\"long-line\">a naked light bulb dangling over a table.</span><br /><span class=\"long-line\">Did the two poets learn it took more</span><br /><span class=\"long-line\">to sing &amp; reflect the burning icy stars\u00a0 </span><br /><span class=\"long-line\">of poetry where privilege &amp; squalor</span><br /><span class=\"long-line\">lived beneath the same ornate ceiling?</span><br /><span class=\"long-line\">Did they tiptoe from the wintery dusk</span><br /><span class=\"long-line\">of the servants\u2019 wing, follow the pseudo-</span><br /><span class=\"long-line\">Gothic stairs up to the forbidden aromas</span><br /><span class=\"long-line\">of Turkish tobacco, sugar, &amp; exotic teas?</span><br /><span class=\"long-line\">Sometimes, they kept themselves warm</span><br /><span class=\"long-line\">with talk of the empress\u2019s love of horses</span><br /><span class=\"long-line\">as they galloped another century. Then,\u00a0 </span><br /><span class=\"long-line\">sketches\u00a0 of their time at the Stray Dog</span><br /><span class=\"long-line\">lit the air around those neoclassic nights,</span><br /><span class=\"long-line\">&amp; maybe they also spoke about \u201cVenice</span><br /><span class=\"long-line\">rotting with gold\u201d near the Arctic Circle,</span><br /><span class=\"long-line\">&amp; anger almost kept them warm on days</span><br /><span class=\"long-line\">they bent over pages of snow-blindness</span><br /><span class=\"long-line\">where tears brought them to laughter. </span></p>\n"}, {"title": "Sonnet", "view_node": "/poem/sonnet", "field_author": "<a href=\"/poet/bill-knott\" hreflang=\"en\">Bill Knott</a>", "field_date_published": "1989", "body": " <pre>\nThe way the world is not\nAstonished at you\nIt doesn't blink a leaf\nWhen we step from the house\nLeads me to think\nThat beauty is natural, unremarkable\nAnd not to be spoken of\nExcept in the course of things\nThe course of singing and worksharing\nThe course of squeezes and neighbors\nThe course of you tying back your raving hair to go out\nAnd the course of course of me\nAstonished at you\nThe way the world is not</pre>\n "}, {"title": "I Have a Rendezvous With Life", "view_node": "/poem/i-have-rendezvous-life", "field_author": "<a href=\"/poet/countee-cullen\" hreflang=\"und\">Countee Cullen</a>", "field_date_published": "1916", "body": "<p><span class=\"long-line\">I have a rendezvous with Life,</span><br /><span class=\"long-line\">In days I hope will come,</span><br /><span class=\"long-line\">Ere youth has sped, and strength of mind,</span><br /><span class=\"long-line\">Ere voices sweet grow dumb.</span><br /><span class=\"long-line\">I have a rendezvous with Life,</span><br /><span class=\"long-line\">When Spring's first heralds hum.</span><br /><span class=\"long-line\">Sure some would cry it's better far</span><br /><span class=\"long-line\">To crown their days with sleep</span><br /><span class=\"long-line\">Than face the road, the wind and rain,</span><br /><span class=\"long-line\">To heed the calling deep.</span><br /><span class=\"long-line\">Though wet nor blow nor space I fear,</span><br /><span class=\"long-line\">Yet fear I deeply, too,</span><br /><span class=\"long-line\">Lest Death should meet and claim me ere</span><br /><span class=\"long-line\">I keep Life's rendezvous.</span></p>\n"}, {"title": "In the City of Night", "view_node": "/poem/city-night", "field_author": "<a href=\"/poet/john-gould-fletcher\" hreflang=\"en\">John Gould Fletcher</a>", "field_date_published": "1921", "body": " <pre>\n<i>(To the Memory of Edgar Allan Poe)</i>\n\n\n\nCity of night,\nWrap me in your folds of shadow.\n\nCity of twilight,\nCity that projects into the west,\nCity whose columns rest upon the sunset, city of square, threatening \n    masses blocking out the light:\nCity of twilight,\nWrap me in your folds of shadow.\n\nCity of midnight, city that the full moon overflows, city where the cats \n    prowl and the closed iron dust-carts go rattling through the shadows:\nCity of midnight,\nWrap me in your folds of shadow.\n\nCity of early morning, cool fresh-sprinkled city, city whose sharp roof \n    peaks are splintered against the stars, city that unbars tall haggard \n    gates in pity,\nCity of midnight,\nWrap me in your folds of shadow.\n\nCity of rain, city where the bleak wind batters the hard drops once and again, \n    sousing a shivering, cursing beggar who clings amid the stiff Apostles on the \n    cathedral portico;\nCity where the glare is dull and lowering, city where the clouds flare and flicker \n    as they pass upwards, where sputtering lamps stare into the muddy pools \n    beneath them;\nCity where the winds shriek up the streets and tear into the squares, city whose \n    cobbles quiver and whose pinnacles waver before the buzzing chatter of raindrops \n    in their flight;\nCity of midnight,\nDrench me with your rain of sorrow.\n\nCity of vermilion curtains, city whose windows drip with crimson, tawdry, tinselled, \n    sensual city, throw me pitilessly into your crowds.\nCity filled with women's faces leering at the passers by,\nCity with doorways always open, city of silks and swishing laces, city where bands \n    bray dance-music all night in the plaza,\nCity where the overscented light hangs tepidly, stabbed with jabber of the crowd, \n    city where the stars stare coldly, falsely smiling through the smoke-filled air,\nCity of midnight,\nSmite me with your despair.\n\nCity of emptiness, city of the white fa\u00e7ades, city where one lonely dangling lantern \n    wavers aloft like a taper before a marble sarcophagus, frightening away the ghosts;\nCity where a single white-lit window in a motionless blackened house-front swallows \n    the hosts of darkness that stream down the street towards it;\nCity above whose dark tree-tangled park emerges suddenly, unlit, uncannily, a grey \n    ghostly tower whose base is lost in the fog, and whose summit has no end.\nCity of midnight,\nBury me in your silence.\n\nCity of night,\nWrap me in your folds of shadow.\n\nCity of restlessness, city where I have tramped and wandered,\nCity where the herded crowds glance at me suspiciously, city where the churches are \n    locked, the shops unopened, the houses without hospitality,\nCity of restlessness,\nWrap me in your folds of shadow.\n\nCity of sleeplessness, city of cheap airless rooms, where in the gloom are heard snores \n    through the partition, lovers that struggle, couples that squabble, cabs that rattle, \n    cats that squall,\nCity of sleeplessness,\nWrap me in your folds of shadow.\n\nCity of feverish dreams, city that is being besieged by all the demons of darkness, city of \n    innumerable shadowy vaults and towers, city where passion flowers desperately and \n    treachery ends in death the strong:\nCity of night,\nWrap me in your folds of shadow.</pre>\n "}, {"title": "Past Inclemency &amp; Present Warmth", "view_node": "/poem/past-inclemency-present-warmth", "field_author": "<a href=\"/poet/eryn-green\" hreflang=\"en\">Eryn Green</a>", "field_date_published": "2014", "body": " <pre>\nIt was\n \ntime that was\n \nthe tenderness\u2014eden, as it is\n \n       in need of\n \nand tolerating no history\u2014<i>thus no tracks</i>\n \nof conventionalism in our shared patched boot\n \nand oversoul pasts\u2014just new snow, crossed through\n \nlike uncommon winter birds do\u2014making paths invisible\n \nbut to few\n \n\u2014\n \nBut too few\n \ncontinue\u2014I've started to\n \nthink differently of nests\n \nneeds and webs. It's inevitable\n \nI guess\u2014&amp; yet resplendent\n \nisn't it? Always\n \na shocking testament\n \nto what? Home? I don't know\n \nhow paradise found its parade\n \nbut I love it\u2014patterns in steam\n \nspinning off the Tivoli \n \nbrewing tower yesterday\u2014<i>eye beams \n \n       into steel\n \n                      greylit grey\n \n    glisten      glistening</i></pre>\n "}, {"title": "If the ocean had a mouth", "view_node": "/poem/if-ocean-had-mouth", "field_author": "<a href=\"/poet/marie-elizabeth-mali\" hreflang=\"en\">Marie-Elizabeth Mali</a>", "field_date_published": "2014", "body": " <pre>\nI'd lean close, my ear\nto her whisper and roar,\nher tongue scattered\nwith stars.\n \nShe'd belt her brassy voice\nover the waves' backbeat.\nNo one sings better than her.\n \nWould she ever bite\nthe inside of her cheek?\n \nWould she yell at the moon\nto quit tugging at her hem,\nor would she whistle, drop\nher blue dress and shimmy\nthrough space to cleave\nto that shimmer?\n \nWhat did she mean to say\nthat morning she spit out\nthe emaciated whale\nwearing a net for a corset?\n \nAll this emptying\non the sand. Eyeless\nshrimp. Oiled pelicans.\n \nWithin her jaws the coral forests,\nglittering fish, waves like teeth,\nher hungry mortal brine.</pre>\n "}, {"title": "Company", "view_node": "/poem/company", "field_author": "<a href=\"/poet/karen-leona-anderson\" hreflang=\"en\">Karen Leona Anderson</a>", "field_date_published": "2014", "body": "<blockquote><sup><em>after The I Hate to Cook Cookbook (1961)</em></sup></blockquote>\n\n<p><span class=\"long-line\">How scattered I am: post-spouse, with company coming;</span><br /><span class=\"long-line\">in Florida in my earthquake gown, in my eelskin slingbacks</span><br /><br /><span class=\"long-line\">and electric mink stole. I tried to make</span><br /><span class=\"long-line\">puff paste with sweating hands; butter</span><br /><br /><span class=\"long-line\">in the KitchenAid, covered in Everglaze;</span><br /><span class=\"long-line\">apocalyptic looking and no one to stall.</span><br /><br /><span class=\"long-line\">Now egret feathers and alligators and gas</span><br /><span class=\"long-line\">are gone; polar fur coats are all vintage</span><br /><br /><span class=\"long-line\">or bottle jobs and the corn is crawling even in the Bracken</span><br /><span class=\"long-line\">and the Glades. But I'm up and dressed, at least; I make</span><br /><br /><span class=\"long-line\">of this doctored lambskin a dish of myself: big hair,</span><br /><span class=\"long-line\">lippy, a little bit lush, maybe even horny. I'm going</span><br /><br /><span class=\"long-line\">to breathe in and replate the take-out</span><br /><span class=\"long-line\">again, shake cocktails. I'm going to spread swampy,</span><br /><br /><span class=\"long-line\">an idea, a mangrove of the air.</span></p>\n"}, {"title": "If You Must Hide Yourself From Love ", "view_node": "/poem/if-you-must-hide-yourself-love", "field_author": "<a href=\"/poet/christopher-salerno\" hreflang=\"en\">Christopher Salerno</a>", "field_date_published": "2014", "body": " <pre>&#13;\nIt is important to face the rear of the train&#13;\nas it leaves the republic. Not that all&#13;\n &#13;\ndeparting is yearning. First love is&#13;\na factory. We sleep in a bed that had once&#13;\n &#13;\nbeen a tree. Nothing is forgot.&#13;\nYet facts, over time, lose their charm,&#13;\n &#13;\nwarned a dying Plato. You have to isolate&#13;\nthe lies you love. Are we any less&#13;\n &#13;\nphotorealistic? I spot in someone's Face-&#13;\nbook sonogram a tiny dictum&#13;\n &#13;\nfull of syllogisms. One says: all kisses come&#13;\ndown to a hole in the skull,&#13;\n &#13;\ntoothpaste and gin; therefore your eyes&#13;\nare bull, your mouth is a goal.</pre>&#13;\n "}, {"title": "On Viewing the Skull and Bones of a Wolf", "view_node": "/poem/viewing-skull-and-bones-wolf", "field_author": "<a href=\"/poet/alexander-posey\" hreflang=\"en\">Alexander Posey</a>", "field_date_published": "1910", "body": "<p><span class=\"long-line\">How savage, fierce and grim!<br /><span class=\"long-line\">\u00a0\u00a0\u00a0\u00a0 His bones are bleached and white. </span><br /><span class=\"long-line\">But what is death to him? </span><br /><span class=\"long-line\">\u00a0\u00a0\u00a0\u00a0 He grins as if to bite. </span><br /><span class=\"long-line\">He mocks the fate </span><br /><span class=\"long-line\">\u00a0\u00a0\u00a0\u00a0 That bade, ''Begone.'' </span><br /><span class=\"long-line\">There's fierceness stamped </span><br /><span class=\"long-line\">\u00a0\u00a0\u00a0\u00a0 In ev'ry bone. </span><br /><span class=\"long-line\">\u00a0</span></span></p>\n\n<p><span class=\"long-line\">Let silence settle from the midnight sky\u2014 </span><br /><span class=\"long-line\">Such silence as you've broken with your cry; </span><br /><span class=\"long-line\">The bleak wind howl, unto the ut'most verge </span><br /><span class=\"long-line\">Of this mighty waste, thy fitting dirge.</span></p>\n"}, {"title": "A Parisian Roof Garden in 1918", "view_node": "/poem/parisian-roof-garden-1918", "field_author": "<a href=\"/poet/natalie-clifford-barney\" hreflang=\"en\">Natalie Clifford Barney</a>", "field_date_published": "1920", "body": " <pre>\nAs I must mount to feed those doves of ours,  \nPerhaps you too will spend nocturnal hours   \n      Upon your roof   \n      So high aloof \nThat from its terraced bowers   \nWe catch at clouds and draw a bath from showers.  \nBefore the moon has made all pale the night,  \nLet's meet with flute and viol, and supper light :  \nA yew lamb, minted sauce, a raisined bun,  \nA melon riper than the melting sun\u2014  \nA flask of Xeres, that we've scarce begun\u2014  \nWe'll try the \u00ab lunar waltz \u00bb while floats afar  \nUpon the liquid night\u2014night's nenuphar.  \nOr else, with senses tuned alike perchance,  \nReclining love will make the heavens dance;  \nAnd if the enemy from aerial cars  \nDrops death, we'll share it vibrant with the stars!</pre>\n "}, {"title": "The Hammers", "view_node": "/poem/hammers", "field_author": "<a href=\"/poet/jericho-brown\" hreflang=\"und\">Jericho Brown</a>", "field_date_published": "2014", "body": " <pre>\nThey sat on the dresser like anything\nI put in my pocket before leaving\nThe house.  I even saw a few tiny ones\nTilted against the window of my living\nRoom, little metal threats with splinters\nFor handles.  They leaned like those\nTeenage boys at the corner who might\nNot be teenage boys because they ask\nFor dollars in the middle\nOf the April day and because they knock \nAt 10 a.m.  Do I need help lifting some-\nThing heavy?  Yard work?  I wondered \nIf only I saw the hammers.  The teenage\nBoys visiting seemed not to care that\nThey lay on the floor lit by the TV. \nI\u2019d have covered them up with rugs,\nWith dry towels and linen, but their claw\nAnd sledge and ball-peen heads shone\nIn the dark, which is, at least, a view\nIn the dark.  And their handles meant\nMy hands, striking surfaces, getting\nShelves up, finally.  One stayed \nIn my tub, slowing the drain.  I found\nAnother propped near the bulb\nIn the refrigerator.  Wasn\u2019t I hungry?  \nWhy have them there if I could not\nUse them, if I could not look at my own\nReflection in the mirror and take one\nTo the temple and knock myself out?\n</pre>\n "}, {"title": "Forth Into View, Random Warriors", "view_node": "/poem/forth-view-random-warriors", "field_author": "<a href=\"/poet/pattiann-rogers\" hreflang=\"und\">Pattiann Rogers</a>", "field_date_published": "2014", "body": " <pre>\nThe slender checkered beetle, pale\nearth brown, sallies forth from among \nthe bark canals of the oak, the eaten mar \nof the woody gall left dying.  Her spiny \nyellow hairs sparkle in the summer sun.\n\nLacewings, locust, and laurel loosen\ncocoon, carapace, and bud, shimmy out\nand pause, airing wings expanding like rumpled\npetals, spreading petals opening like slatted \nwings, as they pass into the new world.\n\nToe by toe the children of the sun depart \nfrom the east out of living fire to become\nspikes, glumes, anthers, sheaves, broad\nmontane grassland, flowing steppe, \nsavannah, veld, wild horse pampas. \n\nThe fiddler crab with his royal blue \nspot emerges beside the great charging \ndawn of the morning sea, scuttles sideways \nout of the drenched sands and savory \nmud bank of the tidal marsh.\n\n<i>Now</i> echoes in cougar lairs, snake crannies,\ncoon burrows, the hillside den of gray fox.  \nMoonrat's  nose appears from the crevice \nin the bluff, sniffing fish and wormy mud.  \nTurtle's beak shows at shell's edge first.\nClaws and feet extend directly.\n\t\t\nThe smooth, golden-green swale \nof the trout swivels upward, breaks \nthrough the boundaries of sky \nwith its mouth wide open gulping day.\n\nAfter parting the flap, after gripping \nthe knob, after lifting the latch, after kicking \nthe door until the hinges crack and fail \nand the hindrance falls, then the jaunt, \nthe saunter, the sprint, the lope, the totter, \nramble and meander, the traipse and slink,\nthe shamble, shuffle, gallop and glide, \nthe push against the beyond begins.\n</pre>\n "}, {"title": "Sky Burial", "view_node": "/poem/sky-burial", "field_author": "<a href=\"/poet/ron-koertge\" hreflang=\"en\">Ron Koertge</a>", "field_date_published": "2014", "body": " <pre>\nQ.  You\u2019re Such a Disciplined Writer.  Were You Always That Way?\n\n\nA.  When I was in graduate school, I worked part-time at a local\nlibrary.  I ran the used bookstore in the basement.  The money \ncame  in handy.  There was plenty of time to study. \n\nI learned to know the regulars who talked about living with pain \nand waiting for bland meals to be delivered.\n\nOne sweltering afternoon I read about Tibetan body breakers \nwho dismember corpses with their hatchets and flaying knives \nso the vultures will have an easier time.\n\nI imagined my own body and the monks asking, \u201cWhat did this \none do?\u201d And the answer would be, \u201cNot much.\u201d  As the hand I \ncould have written with flew away from the wrist. </pre>\n "}], "pager": {"current_page": 408, "total_items": "13248", "total_pages": 663, "items_per_page": 20}}