{"rows": [{"title": "Post-Dissertation-Intervention (i.)", "view_node": "/poem/post-dissertation-intervention-i", "field_author": "<a href=\"/poet/ronaldo-v-wilson\" hreflang=\"und\">Ronaldo V. Wilson</a>", "field_date_published": "2014", "body": " <pre>&#13;\n<i>I always tell my dancers. You are not defined by your fingertips, or the top of your head, or the &#13;\nbottom of your feet. You are defined by you. You are the expanse. You are the infinity. </i>&#13;\n&#13;\n\u2014Judith Jameson&#13;\n &#13;\n&#13;\nElizabeth Alexander in <i>The Black Interior</i> writes about beauty, and how black artists &#13;\nresist monstrousness by their own self-definitions.  &#13;\n&#13;\nI\u2019m interested in this repair, too, but find comfort in the ugly.  I love monsters.&#13;\nWe both consider Brooks.  In the poem, \u201cThe Life of Lincoln West,\u201d when Elizabeth &#13;\n&#13;\nhones in on two white men describing little, black Lincoln, <i>specie,</i> I zip to the poem\u2019s &#13;\nend, to what I read as Lincoln\u2019s release: \u201cit <i>comforts</i> him to be <i>the real thing.\u201d</i> &#13;\n&#13;\nI align after June Jordan, <i>whom am I when pinched, patted, and bent?</i>&#13;\nGet behind her defense of Black English in <u>On Call:</u> <i>How can I be who I am?</i>&#13;\n&#13;\nWe do with what\u2019s given.  I suppose, I may not share viewpoints, but still, &#13;\nI connect.  Of prose, Meena Alexander says she uses it to clear the underbrush &#13;\n&#13;\nto make space for the poem.  Vacate fields, ropes, a body.  Don\u2019t hate on Elizabeth. &#13;\nDo you.  Frame how she pairs Brooks with Lawrence and Bearden.  &#13;\n&#13;\nTo argue, she opens walls, and living rooms.  So, you like death?  Is your project &#13;\nFanon\u2019s?  Is this all a setup?  Fan  \u2013 on \u2013 it was a jolt in perception, then.&#13;\n&#13;\nPieces of this, repeat.  Toni Morrison, where she writes: <i>the remains of what were left&#13;\nbehind to reconstruct the world these remains imply.</i>&#13;\n&#13;\nTies to Brooks\u2019s litany of the black body that endures, a stream of violent verbs&#13;\nto enter, under buzz and rows of halogen: <i>burned, bricked, roped to trees, and bound.</i>&#13;\n&#13;\nNow, what contexts shift in the stacks that glare before you?  And how do you return,&#13;\nafter, to what seized Brooks at Fisk, standing to face all those Blacks?  &#13;\n</pre>&#13;\n "}, {"title": "Snow Globe", "view_node": "/poem/snow-globe", "field_author": "<a href=\"/poet/kathy-fagan\" hreflang=\"und\">Kathy Fagan</a>", "field_date_published": "2014", "body": " <pre>\nafter <i>Encounters at the End of the World</i> by Werner Herzog\n\n\nWith booms &amp; chirrs seals\nspeak under the ice of an ocean\nfrozen over.\nStationary ocean. Electrified song.\nColor: snow day with autumn\nleaves inside it, \nglassene sheers of cantaloupe &amp; kiwi on\nlavender, gunmetal, jetwing\u2014\n\t\t\t\t   When you rode the elephant through\nthe puncture, the first syllable of my name\nparted the deep with your beautiful hand.\nSparrow shuddered in her dustbath, swath of pleasure\nraked up\n\t    &amp; out.\n\t\t    This is where I sat\nin the avalanche.\n\t                 In winter,\nwhere I was born,\nyou pulled a cord of silk in your beautiful hand.\nI heard nothing\nunder the ice. <i>Bye bye now,</i> our people would say.\n<i>Bye bye later.</i>\nFirst, song,\n\t       a detonation\u2014\nthen white everywhere.\n</pre>\n "}, {"title": "Mrs. Cavendish and the Dancer", "view_node": "/poem/mrs-cavendish-and-dancer", "field_author": "<a href=\"/poet/stephen-dunn\" hreflang=\"und\">Stephen Dunn</a>", "field_date_published": "2014", "body": " <pre>&#13;\nMrs. Cavendish desired the man in the fedora &#13;\nwho danced the tarantella without regard&#13;\nfor who might care.  All her life she had&#13;\na weakness for abandon, and, if the music&#13;\nstopped, for anyone who could turn&#13;\na phrase. The problem was&#13;\nMrs. Cavendish wanted it all&#13;\nto mean something in a world crazed &#13;\nand splattered with the gook &#13;\nof apparent significance, and meaning  &#13;\nhad an affinity for being elsewhere.&#13;\nThe dancer studied philosophy, she told me,&#13;\nknew the difference between a sophist&#13;\nand a sophomore, despite my insistence&#13;\nthat hardly any existed. It seemed everyone &#13;\nbut she knew that sadness awaits the needy.&#13;\nMr. Cavendish, too, when he was alive,&#13;\nwas equally na\u00efve, might invite a wolf&#13;\nin man's clothing to spend a night &#13;\nat their house. This was how the missus &#13;\nmythologized her husband \u2013 a man of what&#13;\nshe called honor, no sense of marital danger,&#13;\nscrupled  beyond all scrupulosity. &#13;\nThe tarantella man was gorgeous and oily,  &#13;\nand, let's forgive her, Mrs. Cavendish&#13;\nwas lonely. His hair slicked back, he didn't&#13;\nresemble her deceased in the slightest,&#13;\nwhich in the half-light of memory's belittered&#13;\npassageways made her ga-ga. And I, as ever,&#13;\nwould cajole and warn, hoping history&#13;\nand friendship might be on my side.&#13;\nMrs. Cavendish, I'd implore, lie down &#13;\nwith this liar if it feels good, but, please, &#13;\nwhen he smells most of sweetness, get a grip, &#13;\ndevelop a gripe, try to breathe your own air.</pre>&#13;\n "}, {"title": "Measurement Fable", "view_node": "/poem/measurement-fable", "field_author": "<a href=\"/poet/rusty-morrison\" hreflang=\"und\">Rusty Morrison</a>", "field_date_published": "2014", "body": " <p><i>like water in water</i> \u2014George Bataille</p><br /><br /><pre>&#13;\nEggs, transparent and sometimes red-veined as insect wings, might be hidden&#13;\nin bark crevices &#13;\n&#13;\nor a scatter of tawny leaves.&#13;\n&#13;\nThe distance between one gestation and the next, a pleat of the dress I wear &#13;\ncarelessly, &#13;\n&#13;\nas if I could sew myself another.&#13;\n&#13;\nPracticed, my tendon-reflex where the tunnel narrows its halo&#13;\ninto a noose. I trust &#13;\n&#13;\ndexterity as a kind of nourishment, as I believe my own &#13;\nmother couldn\u2019t.&#13;\n&#13;\nTo own, beauty is the first lie of it, and brief &#13;\nas incident&#13;\n&#13;\nis gray &#13;\nthistles turning silver in sunrise as if for my eyes alone.&#13;\n&#13;\nI see you surround me, mother, measuring what my exoskeleton &#13;\nwithstands. Embellishment&#13;\n&#13;\nis thin. When the eye inside blinks, its bone-house splinters. No eye inside sky &#13;\nbut an insect &#13;\n&#13;\ndrone can cause the entire horizon, seasonal&#13;\nas hindsight &#13;\n&#13;\nwhich follows rain. No death &#13;\n&#13;\nwill stop measurement&#13;\nspiraling out, a long ribbon of salt I must choose repeatedly to cross.</pre>&#13;\n "}, {"title": "Paper Swallow", "view_node": "/poem/paper-swallow", "field_author": "<a href=\"/poet/stanley-moss\" hreflang=\"und\">Stanley Moss</a>", "field_date_published": "2014", "body": " <pre>&#13;\nFrancisco Goya y Lucientes,&#13;\nI dedicate this paper swallow to you and fly it&#13;\nfrom the balcony of San Antonio de la Florida&#13;\npast the empty chapels of the Four Doctors of the Church.&#13;\nMy praying hands are fish fins again,&#13;\none eye a lump of tar, the other hard blood,&#13;\nmy flapping lids sewed down to my cheekbones.&#13;\nTime, the invisible snake, keeps its head&#13;\nand fangs deep in the vagina of space.&#13;\nReason blinded me, banished me.&#13;\nI fight the liar in me, selective desire,&#13;\nmy calling nightmares \u2018dreamless sleep.\u2019&#13;\nBlind, <i>co\u00f1o,</i> I made a musical watch,&#13;\nthe image of Don Quixote points the hours,&#13;\nSancho the minute hand. I hear the right time&#13;\nwhen I listen to my watch play church bells.&#13;\nMystery this, mystery that.&#13;\nI have another watch\u2014wolves howling and dogs barking.&#13;\nNow the invisible snake swims in the Ebro.&#13;\nI look out of my window to see time&#13;\nas if it were not in my mouth&#13;\nand all my other two-timing orifices.&#13;\nDon Francisco, I swear at the feet of the dead who maim me&#13;\nand the living who heal me that the least sound,&#13;\na page turning, whips me. I owe my blindness,&#13;\nthis paper swallow, to you, because I lived&#13;\nmost of my life, a <i>marrano,</i> in your deaf house.&#13;\nI pull open one of my eyes like the jaws of a beast.</pre>&#13;\n "}, {"title": "Another Country", "view_node": "/poem/another-country", "field_author": "<a href=\"/poet/ryan-teitman\" hreflang=\"und\">Ryan Teitman</a>", "field_date_published": "2014", "body": " <pre>\nThe days unfold\nlike maps. Fresh dirt\nin the garden, black\nas cake, grows warm.\n\nThe roses perform\na silent recital,\neach playing its part\nfrom memory. I wait\n\nfor my father the way\nmen wait for a train.\nI wait for my father\nthe way a dancer\n\nwaits for music.\nMy mother is a curtain\nin the window.\nShe calls me in\n\nto fit my shadow\nfor a suit. I keep still\nas she pinches the tape\naround its wrist.\n\nAround her neck\nmy mother\u2019s pearls\nclink like teeth.\nYour shadow grows\n\nfaster than you do,\nshe says. She says\nthat waiting is\na kind of dancing.\n\nAt night I dance\nwith the stillness.\nMy blood waits\nbehind my chest\n\nlike a man behind\na locked door.\nMy father waits\nin another country.\n</pre>\n "}, {"title": "Token Loss", "view_node": "/poem/token-loss", "field_author": "<a href=\"/poet/kay-ryan\" hreflang=\"und\">Kay Ryan</a>", "field_date_published": "2014", "body": " <pre>\nTo the dragon\nany loss is\ntotal. His rest \nis disrupted\nif a single \njewel encrusted\ngoblet has\nbeen stolen.\nThe circle\nof himself\nin the nest\nof his gold\nhas been\nbroken. No\nloss is token.</pre>\n "}, {"title": "Mountain Pines", "view_node": "/poem/mountain-pines", "field_author": "<a href=\"/poet/robinson-jeffers\" hreflang=\"und\">Robinson Jeffers</a>", "field_date_published": "1904", "body": " <pre>\nIn scornful upright loneliness they stand,\n     Counting themselves no kin of anything\n     Whether of earth or sky. Their gnarled roots cling\nLike wasted fingers of a clutching hand\nIn the grim rock. A silent spectral band\n     They watch the old sky, but hold no communing\n     With aught. Only, when some lone eagle's wing\nFlaps past above their grey and desolate land,\nOr when the wind pants up a rough-hewn glen, \n     Bending them down as with an age of thought,\n     Or when, 'mid flying clouds that can not dull\nHer constant light, the moon shines silver, then\n     They find a soul, and their dim moan is wrought\n     Into a singing sad and beautiful. </pre>\n "}, {"title": "Sympathy", "view_node": "/poem/sympathy-0", "field_author": "<a href=\"/poet/edith-franklin-wyatt\" hreflang=\"und\">Edith Franklin Wyatt</a>", "field_date_published": "1913", "body": " <pre>\nAs one within a moated tower,\t\n    I lived my life alone;\t\nAnd dreamed not other granges\u2019 dower,\t\n    Nor ways unlike mine own.\t\nI thought I loved. But all alone\n    As one within a moated tower\t\nI lived. Nor truly knew\t\n    One other mortal fortune\u2019s hour.\t\nAs one within a moated tower,\t\n    One fate alone I knew.\nWho hears afar the break of day\t\n    Before the silvered air\t\nReveals her hooded presence gray,\t\n    And she, herself, is there?\t\nI know not how, but now I see\n    The road, the plain, the pluming tree,\t\nThe carter on the wain.\t\n    On my horizon wakes a star.\t\nThe distant hillsides wrinkled far\t\n    Fold many hearts\u2019 domain.\nOn one the fire-worn forests sweep,\t\n    Above a purple mountain-keep\t\nAnd soar to domes of snow.\t\n    One heart has swarded fountains deep\t\nWhere water-lilies blow:\n    And one, a cheerful house and yard,\t\nWith curtains at the pane,\t\n    Board-walks down lawns all clover-starred,\t\nAnd full-fold fields of grain.\t\n    As one within a moated tower\nI lived my life alone;\t\n    And dreamed not other granges\u2019 dower\t\nNor ways unlike mine own.\t\n    But now the salt-chased seas uncurled\t\nAnd mountains trooped with pine\n    Are mine. I look on all the world\t\nAnd all the world is mine.</pre>\n "}, {"title": "Prairie Spring", "view_node": "/poem/prairie-spring", "field_author": "<a href=\"/poet/willa-cather\" hreflang=\"und\">Willa Cather</a>", "field_date_published": "1913", "body": " <pre>\nEvening and the flat land,\nRich and sombre and always silent;\nThe miles of fresh-plowed soil,\nHeavy and black, full of strength and harshness;\nThe growing wheat, the growing weeds,\nThe toiling horses, the tired men;\nThe long empty roads,\nSullen fires of sunset, fading,\nThe eternal, unresponsive sky.\nAgainst all this, Youth,\nFlaming like the wild roses,\nSinging like the larks over the plowed fields,\nFlashing like a star out of the twilight;\nYouth with its insupportable sweetness,\nIts fierce necessity,\nIts sharp desire,\nSinging and singing,\nOut of the lips of silence,\nOut of the earthy dusk.</pre>\n "}, {"title": "A January Dandelion", "view_node": "/poem/january-dandelion", "field_author": "<a href=\"/poet/george-marion-mcclellan\" hreflang=\"und\">George Marion McClellan</a>", "field_date_published": "1916", "body": "<p><span class=\"long-line\">All Nashville is a-chill!\u00a0And everywhere,</span><br /><span class=\"long-line\">As wind-swept sands upon the deserts blow,</span><br /><span class=\"long-line\">There is, each moment, sifted through the air,</span><br /><span class=\"long-line\">A powered blast of January snow.</span><br /><span class=\"long-line\">O\u00a0thoughtless Dandelion!\u00a0to be misled</span><br /><span class=\"long-line\">By a few warm days to leave thy natural bed,</span><br /><span class=\"long-line\">Was folly growth and blooming over soon.</span><br /><span class=\"long-line\">And yet, thou blasted, yellow-coated gem!</span><br /><span class=\"long-line\">Full many hearts have\u00a0but a common boon</span><br /><span class=\"long-line\">With thee, now freezing on thy slender stem.</span><br /><span class=\"long-line\">When once the heart-blooms by love's fervid breath</span><br /><span class=\"long-line\">Is left, and chilling snow is sifted in,</span><br /><span class=\"long-line\">It still may beat, but there is blast and death</span><br /><span class=\"long-line\">To all that blooming life that might have been.</span></p>\n"}, {"title": "Hagar in the Wilderness", "view_node": "/poem/hagar-wilderness", "field_author": "<a href=\"/poet/tyehimba-jess\" hreflang=\"und\">Tyehimba Jess</a>", "field_date_published": "2013", "body": " <pre>\n<i>Carved Marble. Edmonia Lewis, 1875</i>\n \nMy God is the living God,\nGod of the impertinent exile.\nAn outcast who carved me\ninto an outcast carved\nby sheer and stony will\nto wander the desert\nin search of deliverance\nthe way a mother hunts\nfor her wayward child.\nGod of each eye fixed to heaven,\nGod of the fallen water jug,\nof all the hope a vessel holds\nbefore spilling to barren sand.\nGod of flesh hewn from earth\nand hammered beneath a will\nimmaculate with the power\nto bear life from the lifeless\nlike a well in a wasteland.\nI'm made in the image of a God\nthat knows flight but stays me\nrock still to tell a story ancient as\nslavery, old as the first time\nhands clasped together for mercy\nand parted to find only their own\nsalty blessing of sweat.\nI have been touched by my God\nin my creation, I've known her caress\nof anointing callus across my face. \nI know the lyric of her pulse\nacross these lips...  and yes,\nI've kissed the fingertips\nof my dark and mortal God.\nShe has shown me the truth\nbehind each chiseled blow\nthat's carved me into this life,\nthe weight any woman might bear \nto stretch her mouth toward her\none true God, her own\nbeaten, marble song.\n \n \n<i>Edmonia Lewis (1845-1907) was an African/Native American expatriate sculptor who was phenomenally successful in Rome.</i></pre>\n "}, {"title": "Manifest Destiny", "view_node": "/poem/manifest-destiny", "field_author": "<a href=\"/poet/cynthia-lowen\" hreflang=\"und\">Cynthia Lowen </a>", "field_date_published": "2013", "body": " <pre>&#13;\nThe god I\u2019d left behind sent one last email &#13;\nbefore returning to his people.&#13;\n&#13;\nThat summer was sixty-five degrees and fluorescent. &#13;\nI was working at a law firm.&#13;\n&#13;\nThe logical mind thinks,&#13;\nYou\u2019ll be paid for your suffering.&#13;\n&#13;\n<i>Paradise is of this earth &#13;\nand it is yours,</i>&#13;\nsaid the copy-machine.&#13;\n&#13;\nThe impenetrable old growth of paper on my desk &#13;\nbegged to be made&#13;\nirrelevant.&#13;\n&#13;\nWhen I took off my skirt-suit I felt like my mother, or myself&#13;\n&#13;\ndone pretending &#13;\nto be my mother.&#13;\n&#13;\nI stood at the edge &#13;\nof a New World.&#13;\n&#13;\nI stared up the long rocky coast.&#13;\n&#13;\nWhichever way was something to bump against &#13;\nI pressed on in that direction.&#13;\n&#13;\nIt was like a sickness.&#13;\nIt was like the uncontrollable urge &#13;\nto eat dirt.</pre>&#13;\n "}, {"title": "Songs of a Girl", "view_node": "/poem/songs-girl", "field_author": "<a href=\"/poet/mary-carolyn-davies\" hreflang=\"und\">Mary Carolyn Davies</a>", "field_date_published": "1917", "body": " <pre>\nI\nPerhaps,\nGod, planting Eden,\t\nDropped, by mistake, a seed\t\nIn Time\u2019s neighbor-plot,\t\nThat grew to be\nThis hour?\t\n \nII\nYou and I picked up Life and looked at it curiously;\t\nWe did not know whether to keep it for a plaything or not.\t\nIt was beautiful to see, like a red firecracker,\t\nAnd we knew, too, that it was lighted.\nWe dropped it while the fuse was still burning \u2026\t\n \nIII\nI am going to die too, flower, in a little while\u2014\t\nDo not be so proud.\t\n \nIV\nThe sun is dying\t\nAlone\nOn an island\t\nIn the bay.\t\n \nClose your eyes, poppies\u2014\t\nI would not have you see death.\t\nYou are so young!\n \nV\nThe sun falls\t\nLike a drop of blood\t\nFrom some hero.\t\n \nWe,\t\nWho love pain,\nDelight in this.</pre>\n "}, {"title": "Tackle Football", "view_node": "/poem/tackle-football", "field_author": "<a href=\"/poet/dan-chiasson\" hreflang=\"und\">Dan Chiasson</a>", "field_date_published": "2013", "body": " <pre>&#13;\nSnow up to our waists and coming down still.&#13;\nThere was a field here once, when we began.&#13;\nWe marked the end zones and set up the goals.&#13;\n&#13;\nNow nobody can even move, much less tackle.&#13;\nI am Ganymede fleeing on a temple frieze.&#13;\nWe stand around like lovesick Neanderthals.&#13;\n&#13;\nWe\u2019re Pompeian before Pompeii was hot.&#13;\nWe have the aspect of the classic dead&#13;\nOr of stranded, shivering astronauts.&#13;\n&#13;\nIt was early in the era of the pause button:&#13;\nWe paused and paused the afternoons away&#13;\nIndoors, blasting our ballistic erections&#13;\n&#13;\nAt the blurred bikinis of celebrities,&#13;\nThen, splaying on the linoleum floor,&#13;\nAwaited the apportioned pizza delivery.&#13;\n&#13;\nNow, someone has paused us, or so it appears,&#13;\nBut they didn\u2019t pause the snow, or the hour:&#13;\nAs the one gets higher, the other gets later.</pre>&#13;\n "}, {"title": "Hospital Writing Workshop", "view_node": "/poem/hospital-writing-workshop", "field_author": "<a href=\"/poet/rafael-campo\" hreflang=\"und\">Rafael Campo</a>", "field_date_published": "2014", "body": " <pre>\nArriving late, my clinic having run\npast 6 again, I realize I don\u2019t\nhave cancer, don\u2019t have HIV, like them,\nthese students who are patients, who I lead\nin writing exercises, reading poems.\nFor them, this isn\u2019t academic, it\u2019s\nreality:  I ask that they describe\nan object right in front of them, to make\nit come alive, and one writes about death,\nher death, as if by just imagining\nthe softness of its skin, its panting rush\ninto her lap, that she might tame it; one\nobserves instead the love he lost, he\u2019s there,\nbeside him in his gown and wheelchair,\ntogether finally again.  I take\na good, long breath; we\u2019re quiet as newborns.\nThe little conference room grows warm, and right\nbefore my eyes, I see that what I thought\nunspeakable was more than this, was hope.</pre>\n "}, {"title": "Ephemeral Stream", "view_node": "/poem/ephemeral-stream", "field_author": "<a href=\"/poet/elizabeth-willis\" hreflang=\"und\">Elizabeth Willis</a>", "field_date_published": "2014", "body": " <pre>&#13;\nThis is the way water &#13;\nthinks about the desert.&#13;\nThe way the thought of water &#13;\ngives you something &#13;\nto stumble on. A ghost river.&#13;\nA sentence trailing off&#13;\ntoward lower ground.&#13;\nA finger pointing&#13;\nat the rest of the show.&#13;\n&#13;\nI wanted to read it. &#13;\nI wanted to write a poem &#13;\nand call it \"Ephemeral Stream\"&#13;\nbecause you made of this &#13;\nimaginary creek&#13;\na hole so deep &#13;\nit looked like a green eye &#13;\ntaking in the storm, &#13;\na poem interrupted &#13;\nby forgiveness.&#13;\n&#13;\nIt's not over yet.&#13;\nA dream can spend &#13;\nall night fighting off &#13;\nthe morning. Let me&#13;\nstart again. A stream &#13;\nmay be a branch or a beck, &#13;\na crick or kill or lick,&#13;\na syke, a runnel. It pours &#13;\nthrough a corridor. The door &#13;\nis open. The keys&#13;\nare on the dashboard. </pre>&#13;\n "}, {"title": "Action Poem", "view_node": "/poem/action-poem", "field_author": "<a href=\"/poet/helen-hoyt\" hreflang=\"und\">Helen Hoyt</a>", "field_date_published": "1915", "body": " <pre>\n<i>A Song to Wake Your Dear in the Morning</i>\n\nI kiss the locks of your hair:\nDo you feel me there,\nSleepy one?\n\nI will put a kiss on your brow:\nAre you waking now?\nWon't you wake, sleepy one?\n\nA kiss on your left eye; on your right\u2014\nClosed tight, closed tight!\nOh, you are a hard one to wake!\n\nA kiss on your nose\nWhere your deep breath goes,\nSleepy one!\n\nNow a kiss for each ear:\nDo you hear, do you hear?\nWake, sleepy one!\n\nA kiss for this cheek; a kiss for this:\nHow many kisses you will miss!\nWon't you wake?    Won't you wake?\n\nNow I come to your lips that I love:\nOh, you are waking!    You wake and move!\nSleepy one!\n\nSleepy one,\nMy kisses are done.\nOh, you are a hard one to wake!</pre>\n "}, {"title": "Meaning", "view_node": "/poem/meaning", "field_author": "<a href=\"/poet/carl-dennis\" hreflang=\"und\">Carl Dennis</a>", "field_date_published": "2013", "body": " <pre>\nIf a life needn\u2019t be useful to be meaningful,\nThen maybe a life of sunbathing on a beach\nCan be thought of as meaningful for at least a few,\nThe few, say, who view the sun as a god\nAnd consider basking a form of worship.\n\nAs for those devoted to partnership with a surfboard\nOr a pair of ice skates or a bag of golf clubs,\nThough I can\u2019t argue their lives are useful,\nI\u2019d be reluctant to claim they have no meaning\nEven if no one observes their display of mastery.\n\nNo one is listening to the librarian\nI can call to mind as she practices, after work,\nIn her flat on Hoover Street, the viola da gamba\nIn the one hour of day that for her is golden.\nSo what if she\u2019ll never be good enough\nTo give a concert people will pay to hear?\n\nWhen I need to think of her with an audience,\nI can imagine the ghosts of composers dead for centuries,\nPleased to hear her doing her best with their music.\n\nAnd isn\u2019t it pleasing, as we walk at dusk to our cars\nParked on Hoover Street, after a meeting\nOn saving a shuttered hotel from the wrecking ball,\nTo catch the sound of someone filling a room\nWe won\u2019t be visiting with a haunting solo?\n\nAnd then the gifts we receive by imagining\nHow down at the beach today surfers made sure\nThe big waves we weren\u2019t there to appreciate\nDidn\u2019t go begging for attention.\nAnd think of the sunlight we failed to welcome,\nHow others stepped forward to take it in.</pre>\n "}, {"title": "Amethyst Beads", "view_node": "/poem/amethyst-beads", "field_author": "<a href=\"/poet/eavan-boland\" hreflang=\"und\">Eavan Boland</a>", "field_date_published": "2013", "body": " <pre>&#13;\nAnd when I take them out of&#13;\nthe cherrywood box these beads are&#13;\nthe colour of dog-violets in shadow. Then&#13;\nat the well of the throat where&#13;\ntears start&#13;\nthey darken. Now I wear at my neck an old stress&#13;\nof crystal: an impression of earthly housekeeping.&#13;\nA mysterious brightness&#13;\nmade underground where there is no sun&#13;\nonly stories of a strayed child and her mother bargaining&#13;\nwith a sullen king. Promising and arguing: &#13;\nwhat she can keep, what she can let him have. Shadows &#13;\nand the season violets start up in are part of &#13;\nthe settlement. Stolen from such a place&#13;\nthese beads cannot be anything &#13;\nbut wise to the healing arts of compromise,&#13;\nof survival. And when I wear them it is almost&#13;\nas if my skin was taking into itself&#13;\na medicine of light. Something like the old simples.&#13;\nRosemary, say, or tansy.&#13;\nOr camomile which they kept&#13;\nto cool fever. Which they once used to soothe a child&#13;\ntossing from side to side, beads of sweat catching &#13;\nand holding a gleam from the vigil lamp. &#13;\nA child crying out in her sleep&#13;\n<i>Wait for me. Don\u2019t leave me here.</i>&#13;\nWho will never remember this.&#13;\nWho will never remember this. </pre>&#13;\n "}], "pager": {"current_page": 412, "total_items": "13248", "total_pages": 663, "items_per_page": 20}}