{"rows": [{"title": "Belief (audio only)", "view_node": "/poem/belief-audio-only", "field_author": "<a href=\"/poet/lia-purpura\" hreflang=\"und\">Lia Purpura</a>", "field_date_published": "2013", "body": " <p>\u00a0</p><p>Click the icon above to listen to this audio poem.</p> "}, {"title": "Sadness, Restaurant (audio only)", "view_node": "/poem/sadness-restaurant-audio-only", "field_author": "<a href=\"/poet/lia-purpura\" hreflang=\"und\">Lia Purpura</a>", "field_date_published": "2013", "body": " <p>\u00a0</p><p>Click the icon above to listen to this audio poem.</p> "}, {"title": "from King Baby (audio only)", "view_node": "/poem/king-baby-audio-only", "field_author": "<a href=\"/poet/lia-purpura\" hreflang=\"und\">Lia Purpura</a>", "field_date_published": "2013", "body": " <p>\u00a0</p><p>Click the icon above to listen to this audio poem.</p> "}, {"title": "Beginning (audio only)", "view_node": "/poem/beginning-audio-only", "field_author": "<a href=\"/poet/lia-purpura\" hreflang=\"und\">Lia Purpura</a>", "field_date_published": "2013", "body": " <p>\u00a0</p><p>Click the icon above to listen to this audio poem.</p> "}, {"title": "All Through the Night (audio only)", "view_node": "/poem/all-through-night-audio-only", "field_author": "<a href=\"/poet/mary-jo-bang\" hreflang=\"und\">Mary Jo Bang</a>", "field_date_published": "2013", "body": " <p>\u00a0</p><p>Click the icon above to listen to this audio poem.</p> "}, {"title": "An Autopsy of an Era (audio only)", "view_node": "/poem/autopsy-era-audio-only", "field_author": "<a href=\"/poet/mary-jo-bang\" hreflang=\"und\">Mary Jo Bang</a>", "field_date_published": "2013", "body": " <p>\u00a0</p><p>Click the icon above to listen to this audio poem.</p> "}, {"title": "The Circus Watcher (audio only)", "view_node": "/poem/circus-watcher-audio-only", "field_author": "<a href=\"/poet/mary-jo-bang\" hreflang=\"und\">Mary Jo Bang</a>", "field_date_published": "2013", "body": " <p>\u00a0</p><p>Click the icon above to listen to this audio poem.</p> "}, {"title": "A Calculation Based on Figures in a Scene (audio only)", "view_node": "/poem/calculation-based-figures-scene-audio-only", "field_author": "<a href=\"/poet/mary-jo-bang\" hreflang=\"und\">Mary Jo Bang</a>", "field_date_published": "2013", "body": " <p>\u00a0</p><p>Click the icon above to listen to this audio poem.</p> "}, {"title": "Man and Woman (audio only)", "view_node": "/poem/man-and-woman-audio-only", "field_author": "<a href=\"/poet/mary-jo-bang\" hreflang=\"und\">Mary Jo Bang</a>", "field_date_published": "2013", "body": " <p>\u00a0</p><p>Click the icon above to listen to this audio poem.</p> "}, {"title": "Maggot Therapy (audio only)", "view_node": "/poem/maggot-therapy-audio-only", "field_author": "<a href=\"/poet/roger-reeves\" hreflang=\"und\">Roger Reeves</a>", "field_date_published": "2013", "body": " <p>\u00a0</p><p>Click the icon above to listen to this audio poem.</p> "}, {"title": "According to Scholars, Everything (audio only)", "view_node": "/poem/according-scholars-everything-audio-only", "field_author": "<a href=\"/poet/roger-reeves\" hreflang=\"und\">Roger Reeves</a>", "field_date_published": "2013", "body": " <p>\u00a0</p><p>Click the icon above to listen to this audio poem.</p> "}, {"title": "The Mare of Money (audio only)", "view_node": "/poem/mare-money-audio-only", "field_author": "<a href=\"/poet/roger-reeves\" hreflang=\"und\">Roger Reeves</a>", "field_date_published": "2013", "body": " <p>\u00a0</p><p>Click the icon above to listen to this audio poem.</p> "}, {"title": "Romanticism (the Blue Keats) (audio only)", "view_node": "/poem/romanticism-blue-keats-audio-only", "field_author": "<a href=\"/poet/roger-reeves\" hreflang=\"und\">Roger Reeves</a>", "field_date_published": "2013", "body": " <p>\u00a0</p><p>Click the icon above to listen to this audio poem.</p> "}, {"title": "Before Diagnosis (audio only)", "view_node": "/poem/diagnosis-audio-only", "field_author": "<a href=\"/poet/roger-reeves\" hreflang=\"und\">Roger Reeves</a>", "field_date_published": "2013", "body": " <p>\u00a0</p><p>Click the icon above to listen to this audio poem.</p> "}, {"title": "Brief Angel (audio only)", "view_node": "/poem/brief-angel-audio-only", "field_author": "<a href=\"/poet/roger-reeves\" hreflang=\"und\">Roger Reeves</a>", "field_date_published": "2013", "body": " <p>\u00a0</p><p>Click the icon above to listen to this audio poem.</p> "}, {"title": "Cross Country (audio only)", "view_node": "/poem/cross-country-audio-only", "field_author": "<a href=\"/poet/roger-reeves\" hreflang=\"und\">Roger Reeves</a>", "field_date_published": "2013", "body": " <p>\u00a0</p><p>Click the icon above to listen to this audio poem.</p> "}, {"title": "Thinking of Anne Frank in the Middle of Winter (audio only)", "view_node": "/poem/thinking-anne-frank-middle-winter-audio-only", "field_author": "<a href=\"/poet/roger-reeves\" hreflang=\"und\">Roger Reeves</a>", "field_date_published": "2013", "body": " <p>\u00a0</p><p>Click the icon above to listen to this audio poem.</p> "}, {"title": "Someday I&#039;ll Love Roger Reeves (audio only)", "view_node": "/poem/someday-ill-love-roger-reeves-audio-only", "field_author": "<a href=\"/poet/roger-reeves\" hreflang=\"und\">Roger Reeves</a>", "field_date_published": "2013", "body": " <p>\u00a0</p><p>Click the icon above to listen to this audio poem.</p> "}, {"title": "Some Young Kings (audio only)", "view_node": "/poem/some-young-kings-audio-only", "field_author": "<a href=\"/poet/roger-reeves\" hreflang=\"und\">Roger Reeves</a>", "field_date_published": "2013", "body": " <p>\u00a0</p><p>Click the icon above to listen to this audio poem.</p> "}, {"title": "Driftless Elegy (audio only)", "view_node": "/poem/driftless-elegy-audio-only", "field_author": "<a href=\"/poet/mark-wunderlich\" hreflang=\"und\">Mark Wunderlich</a>", "field_date_published": "2013", "body": " <p>\u00a0</p><p>Click the icon above to listen to this audio poem.</p> "}], "pager": {"current_page": 396, "total_items": "13248", "total_pages": 663, "items_per_page": 20}}