{"rows": [{"title": "Plums", "view_node": "/poem/plums", "field_author": "<a href=\"/poet/catherine-savage-brosman\" hreflang=\"und\">Catherine Savage Brosman</a>", "field_date_published": "2007", "body": " <pre>\nThey\u2019re Santa Rosas, crimson, touched by blue,\nwith slightly mottled skin and amber flesh,\ntransparently proposing by their hue\nthe splendor of an August morning, fresh\n\nbut ruddy, ripening toward fall.\u2014\"So sweet,\nso cold,\" the poet said; but this one\u2019s tart,\nits sunny glow perfected in deceit,\nas emulation of a cunning heart.\n\nI eat it anyway, until the pit\nalone remains, with scattered drops of juice,\nsuch sour trophies proving nature's wit:\nappearances and real in fragile truce.</pre>\n "}, {"title": "The Little Sisters of the Sacred Heart", "view_node": "/poem/little-sisters-sacred-heart", "field_author": "<a href=\"/poet/david-kirby\" hreflang=\"und\">David Kirby</a>", "field_date_published": "2007", "body": " <pre>\nI'm bouncing across the Scottish heath in a rented Morris Minor\n\t\tand listening to an interview with Rat Scabies, drummer\nof the first punk band, The Damned, and Mr. Scabies,\n\twho\u2019s probably 50 or so and living comfortably on royalties,\nis as recalcitrant as ever, as full of despair and self-loathing,\n\nbut the interviewer won't have it, and he keeps calling him \"Rattie,\"\n\t\tsaying, \"Ah, Rattie, it's all a bit of a put-on, isn't it?\"\nand \"Ah, you're just pulling the old leg now, aren't you, Rattie?\"\n\tto which Mr. Scabies keeps saying things like\n\"We're fooked, ya daft prat. Oh, yeah, absolutely\u2014fooked!\"\n\nFunny old Rattie\u2014he believed in nothing, which is something.\n\t\tIf it weren't for summat, there'd be naught, as they say\nin that part of the world. I wonder if his dad wasn't a bit of a bastard,\n\tdidn't drink himself to death, say, as opposed to a dad like mine,\nwho, though also dead now, was as nice as he could be when he was alive.\n\nA month before, I\u2019d been in Florence and walked by the <i>casa di cura</i> where\n\t\tmy son Will was born 27 years ago, though it's not a hospital\nnow but a home for the old nuns of Le Suore Minime del Sacra Cuore\n\twho helped to deliver and bathe and care for him when he was just\na few minutes old, and when I look over the gate, I see three\n\nof these holy sisters sitting in the garden there, and I wave at them,\n\t\tand they wave back, and I wonder if they were on duty\nwhen Will was born, these women who have had no sex at all,\n\tprobably not even very much candy, yet who believe in something\nthat may be nothing, after all, though I love them for giving me my boy.\n\nThey\u2019re dozing and talking, these mystical brides of Christ,\n\t\tand thinking about their Husband, and it looks to me\nas though they\u2019re having their version of the <i>sacra conversazione,</i>\n\ta favorite subject of Renaissance artists in which people who care\nfor one another are painted chatting together about noble things,\n\nand I'm wondering if, as I walk by later when the shadows are long,\n\t\twill their white faces be like stars against their black habits,\nthe three of them a constellation about to rise into the vault\n\tthat arches over Tuscany, the fires there now twinkling,\nnow steadfast in the chambered heart of the sky.</pre>\n "}, {"title": "Basement Barber", "view_node": "/poem/basement-barber", "field_author": "<a href=\"/poet/michael-chitwood\" hreflang=\"und\">Michael Chitwood</a>", "field_date_published": "2007", "body": " <pre>\nHere were said the words men say.\nThe oil stove winked its slit black eye;\nit knew they did not have their way.\n\nA whitetail made for the edge of the page.\nVitalis came before the talc.\nMy father's dark hair began to fade.\n\nBarrelhead Thurman palmed my scalp,\nknuckled my ear when he was done\njust to hear a little boy yelp.\n\nThey rode, hats off, through years of lies\non bus seats the county junked,\nout-fished, out-hunted the ones who\u2019d died.\n\nMy father's dark hair began to fade.\nThe oil stove winked its slit black eye.\nIt knew he did not have his way.\n\nThe dead grow long and beautiful hair.\nThey have said what they had to say\nto stir that basement's damp, sweet air.</pre>\n "}, {"title": "Q and A: Do you have any tips? Answer #2", "view_node": "/poem/q-and-do-you-have-any-tips-answer-2", "field_author": "<a href=\"/poet/julianna-baggott\" hreflang=\"und\">Julianna Baggott</a>", "field_date_published": "2007", "body": " <pre>\nHow many times do I have to say it: Listen,\na whine in a bulb,\n\t\tits hiss of life,\nthe fragile sister of the mosquito, the electric life of wings.\nThere is a wheel rut for each of us somewhere.\nLook closely at the skein of eggs,\n\t\troot the mud for a clamped oyster\nfallen from a truck.  Cover your nose and mouth\nwith both hands, and there,\n\t\t\tin that shallow cup,\nfeel a buffalo's breathing steam.\nA toppled stone, its face veiled by weeds\u2014\ncrouch. The blooms become helmets.\nAllow for delirium, a thirst. Take in\nso much sun that you feel a cold absence,\nas if you\u2019ve sipped a hole into the world.</pre>\n "}, {"title": "Poem", "view_node": "/poem/poem-0", "field_author": "<a href=\"/poet/matthew-rohrer\" hreflang=\"und\">Matthew Rohrer</a>", "field_date_published": "2007", "body": " <pre>\nYou called, you're on the train, on Sunday,\nI have just taken a shower and await\nyou. Clouds are slipping in off the ocean,\nbut the room is gently lit by the green\nshirt you gave me. I have been practicing\na new way to say hello and it is fantastic.\nYou were so sad: goodbye. I was so sad.\nAll the shops were closed but the sky \nwas high and blue. I tried to walk it off\nbut I must have walked in the wrong direction.</pre>\n "}, {"title": "Mixed Mode", "view_node": "/poem/mixed-mode", "field_author": "<a href=\"/poet/geoffrey-g-obrien\" hreflang=\"und\">Geoffrey G. O&#039;Brien</a>", "field_date_published": "2007", "body": " <pre>\nThe experience of leaving\none category for another, \nof smooth being colder\nthan rough and of\nthat December I suffer\nas the experience of leaving\none category for another,\nusing life that way\nthat opens and stops\nmoving, done,\nfurtively waving\nas with one month\nthat opens and stops\namong the others,\nwaiting and waking\nin a place which seems filled\nwith restrained abilities\nthat experience that\nhas never seemed to me\nto arrive before night\nexcept as the need\nto want to live\nand want to be dead,\nusing a life that way,\nface first, name gone,\nand coming to\namong a rival's things</pre>\n "}, {"title": "Second Draft", "view_node": "/poem/second-draft", "field_author": "<a href=\"/poet/james-longenbach\" hreflang=\"und\">James Longenbach</a>", "field_date_published": "2007", "body": " <pre>\nAs an older man,\nGraying, not stooped,\nI saw the future:\nExtremities\n\nCold, tongue\nSluggish,\nFoam at the lips.\nExcessive hope \n\nSeemed more\nIndulgent\nThan despair.\nI ran great distances.\nI stood in sunlight\n\nJust to see my shadow,\nShow it off.\nFor the first time I remember\n\nMy soul looked back.\nWhat other people learn\nFrom birth,\nBetrayal,\nI learned late.\n\nMy soul perched\nOn an olive branch\nCombing itself,\nWaving its plumes. I said\n\nBeing mortal,\nI aspire to \nMortal things.\n\nI need you,\nSaid my soul,\nIf you\u2019re telling the truth.</pre>\n "}, {"title": "As I Walk These Broad Majestic Days", "view_node": "/poem/i-walk-these-broad-majestic-days", "field_author": "<a href=\"/poet/walt-whitman\" hreflang=\"und\">Walt Whitman</a>", "field_date_published": "1891", "body": "<p><span class=\"long-line\">As I walk these broad majestic days of peace,</span><br /><span class=\"long-line\">(For the war, the struggle of blood finish'd, wherein, O terrific Ideal,</span><br /><span class=\"long-line\">Against vast odds erewhile having gloriously won,</span><br /><span class=\"long-line\">Now thou stridest on, yet perhaps in time toward denser wars,</span><br /><span class=\"long-line\">Perhaps to engage in time in still more dreadful contests, dangers,</span><br /><span class=\"long-line\">Longer campaigns and crises, labors beyond all others,)</span><br /><span class=\"long-line\">Around me I hear that eclat of the world, politics, produce,</span><br /><span class=\"long-line\">The announcements of recognized things, science,</span><br /><span class=\"long-line\">The approved growth of cities and the spread of inventions.</span></p>\n\n<p><span class=\"long-line\">I see the ships, (they will last a few years,)</span><br /><span class=\"long-line\">The vast factories with their foremen and workmen,</span><br /><span class=\"long-line\">And hear the indorsement of all, and do not object to it.</span></p>\n\n<p><span class=\"long-line\">But I too announce solid things,</span><br /><span class=\"long-line\">Science, ships, politics, cities, factories, are not nothing,</span><br /><span class=\"long-line\">Like a grand procession to music of distant bugles pouring, triumphantly moving, and grander heaving in sight,</span><br /><span class=\"long-line\">They stand for realities\u2014all is as it should be.</span></p>\n\n<p><span class=\"long-line\">Then my realities;</span><br /><span class=\"long-line\">What else is so real as mine?</span><br /><span class=\"long-line\">Libertad and the divine average, freedom to every slave on the face of the earth,</span><br /><span class=\"long-line\">The rapt promises and lumin\u00e9 of seers, the spiritual world, these centuries-lasting songs,</span><br /><span class=\"long-line\">And our visions, the visions of poets, the most solid announcements of any.</span></p>\n"}, {"title": "Muse &amp; Drudge [just as I am I come]", "view_node": "/poem/muse-drudge-just-i-am-i-come", "field_author": "<a href=\"/poet/harryette-mullen\" hreflang=\"und\">Harryette Mullen</a>", "field_date_published": "2006", "body": " <pre>\njust as I am I come\nknee bent and body bowed \nthis here's sorrow's home \nmy body's southern song\n\ncram all you can \ninto jelly jam \npreserve a feeling \nkeep it sweet \n\nso beautiful it was \npresumptuous to alter \nthe shape of my pleasure\nin doing or making\n\nproceed with abandon \nfinding yourself where you are \nand who you're playing for \nwhat stray companion</pre>\n "}, {"title": "Lost Fugue for Chet", "view_node": "/poem/lost-fugue-chet", "field_author": "<a href=\"/poet/lynda-hull\" hreflang=\"und\">Lynda Hull</a>", "field_date_published": "2006", "body": " <pre>\n\t\t<i>Chet Baker, Amsterdam, 1988</i>  \n\nA single spot slides the trumpet\u2019s flare then stops\n    at that face, the extraordinary ruins thumb-marked\nwith the hollows of heroin, the rest chiaroscuroed.\n    Amsterdam, the final gig, canals &amp; countless\n\nstone bridges arc, glimmered in lamps. Later this week\n     his Badlands face, handsome in a print from thirty\nyears ago, will follow me from the obituary page\n     insistent as windblown papers by the black cathedral\n\nof St. Nicholas standing closed today: pigeon shit\n     &amp; feathers, posters swathing tarnished doors, a litter\nof syringes. Junkies cloud the gutted railway station blocks\n     &amp; dealers from doorways call <i>coca, heroina,</i> some throaty\n\nfoaming harmony. A measured inhalation, again\n     the sweet embouchure, metallic, wet stem. Ghostly,\nthe horn\u2019s improvisations purl &amp; murmur\n     the narrow <i>strasses of Rosse Buurt,</i> the district rife\n\nwith purse-snatchers, women alluring, desolate, poised\n     in blue windows, Michelangelo boys, hair spilling\nfluent running chords, mares\u2019 tails in the sky green\n     &amp; violet. So easy to get lost, these cavernous\n\nbrown caf\u00e9s. Amsterdam, &amp; its spectral fogs, its\n     bars &amp; softly shifting tugboats. He builds once more\nthe dense harmonic structure, the gabled houses.\n     Let\u2019s get lost. Why court the brink &amp; then step back?\n\nAfter surviving, what arrives? So what\u2019s the point\n     when there are so many women, creamy callas with single\nfurled petals turning in &amp; upon themselves\n     like variation, nights when the horn\u2019s coming\n\ngenius riffs, metal &amp; spit, that rich consuming rush\n     of good dope, a brief languor burnishing\nthe groin, better than any sex. Fuck Death.\n     In the audience, there\u2019s always this gaunt man, cigarette\n\nin hand, black Maserati at the curb, waiting,\n     the fast ride through mountain passes, descending with\nno rails between asphalt &amp; precipice. Inside, magnetic\n     whispering <i>take me there, take me.</i> April, the lindens\n\n&amp; horse chestnuts flowering, cold white blossoms\n     on the canal. He\u2019s lost as he hears those inner voicings,\na slurred veneer of chords, molten, fingering\n     articulate. His glance below Dutch headlines, the fall\n\n\"accidental\" from a hotel sill. Too loaded. What do you do\n     at the brink? Stepping back in time, I can only\nimagine the last hit, lilies insinuating themselves\n     up your arms, leaves around your face, one hand vanishing\n\nsabled to shadow. The newsprint photo &amp; I\u2019m trying\n     to recall names, songs, the sinuous figures, but facts\ndon\u2019t matter, what counts is out of pained dissonance,\n     the sick vivid green of backstage bathrooms, out of\n\nbroken rhythms\u2014and I\u2019ve never forgotten, never\u2014\n     <i>this is the tied-off vein, this is 3 a.m. terror\nthrumming, this is the carnation of blood clouding\n     the syringe,</i> you shaped <i>summer rains across the quays\n\nof Paris, flame suffusing jade against a girl\u2019s\n     dark ear.</i> From the trumpet, pawned, redeemed, pawned again\nyou formed one wrenching blue arrangement, a phrase endlessly\n     complicated as that twilit dive through smoke, applause,\n\nthe pale hunted rooms. Cold chestnuts flowering April\n     &amp; you\u2019re falling from heaven in a shower of eighth notes\nto the cobbled street below &amp; foaming dappled horses\n     plunge beneath the still green waters of the Grand Canal.</pre>\n "}, {"title": "James Lewis&#039;s Hands", "view_node": "/poem/james-lewiss-hands-0", "field_author": "<a href=\"/poet/constance-quarterman-bridges\" hreflang=\"und\">Constance Quarterman Bridges</a>", "field_date_published": "2006", "body": " <pre>\n<i>My Grand (James Lewis) loved her (Ellen) very much even though he had many lady friends.</i>\n                  -Mother's Journal\n\nJames loved the ladies.\nThe women came with pies, oozed\nwords, as sticky as their pies.\nThey brought fresh churned butter,\nthick and fluffy as summer clouds.\nThey buzzed and rubbed their legs\ntogether, queen bees, drunk with want,\ndrawn to honey of his Cherokee tongue\nand deep-set, promising, midnight eyes.\nEven after James went to Staunton, Virginia,\nmiles away, brought Ellen to his marriage\nbed, women came, as surely as seasons.\nThey followed James to his ripe fields,\nshadows trailing a summer sun.\nThere he hummed, but never sang.\n\nHis long lean shadow cast him larger\nas he stroked tobacco leaves with strong\nbrown hands; his eyes stroked them.\nThey watched his hands weave baskets, \npull cane for chair bottoms, tried to will\nhis hands on them even for a moment.\nEvenings his fingers wandered the curve\nof Ellen\u2019s neck and throat.\nThey entangled themselves in her hair,\nmade love to her lips and eyes, followed\nfamiliar paths of her varied textures.\nHis warm lips and body in full and varied\ntones sang his love songs for her.\nNight ears heard him say, <i>Beloved El.</i>\nShe whispered her name for him, <i>Song Bird.</i></pre>\n "}, {"title": "On the Terrace", "view_node": "/poem/terrace", "field_author": "<a href=\"/poet/landis-everson\" hreflang=\"und\">Landis Everson</a>", "field_date_published": "2006", "body": "<p><span class=\"long-line\">The lonely breakfast table starts the day,</span><br /><span class=\"long-line\">an adjustment is made to understand</span><br /><span class=\"long-line\">why the other chair is empty. The morning</span><br /><span class=\"long-line\">beautiful and still to be, should woo me. Yet</span><br /><span class=\"long-line\">the appetite is not shared, lost somewhere in memory.</span></p>\n\n<p><span class=\"long-line\">How lucky the horizon is blue and needs</span><br /><span class=\"long-line\">no handwriting on its emptiness. I am</span><br /><span class=\"long-line\">written on thoroughly, a lost novel</span><br /><span class=\"long-line\">found again. I remember the predictable plot too late,</span><br /><span class=\"long-line\">realize the silly, sad urgency of moss.</span></p>\n"}, {"title": "Photographing Aspirations", "view_node": "/poem/photographing-aspirations", "field_author": "<a href=\"/poet/les-murray\" hreflang=\"und\">Les Murray</a>", "field_date_published": "2007", "body": " <pre>\nFume-glossed, unbearably shrill,\nthis car is dilated with a glaze\nthat will vanish before standstill\u2014\n\nand here's the youth swimming in space\nabove his whiplash motorcycle:\nquadriplegia shows him its propped face\u2014\n\nafter, he begged video scenes\nnot display his soaking jeans,\nurine that leathers would have hidden\n\nand the drag cars have engines on their engines.</pre>\n "}, {"title": "The Song of Wandering Aengus", "view_node": "/poem/song-wandering-aengus", "field_author": "<a href=\"/poet/w-b-yeats\" hreflang=\"und\">W. B. Yeats</a>", "field_date_published": "1899", "body": "<p><span class=\"long-line\">I went out to the hazel wood,\u00a0\u00a0 </span><br /><span class=\"long-line\">Because a fire was in my head,\u00a0\u00a0 </span><br /><span class=\"long-line\">And cut and peeled a hazel wand,\u00a0\u00a0 </span><br /><span class=\"long-line\">And hooked a berry to a thread;\u00a0\u00a0 </span><br /><span class=\"long-line\">And when white moths were on the wing,</span><br /><span class=\"long-line\">And moth-like stars were flickering out,\u00a0\u00a0 </span><br /><span class=\"long-line\">I dropped the berry in a stream\u00a0\u00a0 </span><br /><span class=\"long-line\">And caught a little silver trout.\u00a0\u00a0 </span></p>\n\n<p><span class=\"long-line\">When I had laid it on the floor\u00a0\u00a0 </span><br /><span class=\"long-line\">I went to blow the fire a-flame,</span><br /><span class=\"long-line\">But something rustled on the floor,\u00a0\u00a0 </span><br /><span class=\"long-line\">And someone called me by my name:\u00a0\u00a0 </span><br /><span class=\"long-line\">It had become a glimmering girl\u00a0\u00a0 </span><br /><span class=\"long-line\">With apple blossom in her hair\u00a0\u00a0 </span><br /><span class=\"long-line\">Who called me by my name and ran</span><br /><span class=\"long-line\">And faded through the brightening air.\u00a0\u00a0 </span></p>\n\n<p><span class=\"long-line\">Though I am old with wandering\u00a0\u00a0 </span><br /><span class=\"long-line\">Through hollow lands and hilly lands,\u00a0\u00a0 </span><br /><span class=\"long-line\">I will find out where she has gone,\u00a0\u00a0 </span><br /><span class=\"long-line\">And kiss her lips and take her hands;</span><br /><span class=\"long-line\">And walk among long dappled grass,\u00a0\u00a0 </span><br /><span class=\"long-line\">And pluck till time and times are done,\u00a0\u00a0 </span><br /><span class=\"long-line\">The silver apples of the moon,\u00a0\u00a0 </span><br /><span class=\"long-line\">The golden apples of the sun.</span></p>\n"}, {"title": "And water lies plainly", "view_node": "/poem/and-water-lies-plainly", "field_author": "<a href=\"/poet/laurie-sheck\" hreflang=\"und\">Laurie Sheck</a>", "field_date_published": "2007", "body": " <pre>\nThen I came to an edge of very calm\nBut couldn\u2019t stay there. It was the washed greenblue mapmakers use to indicate\nInlets and coves, softbroken contours where the land leaves off\nAnd water lies plainly, as if lamped by its own justice. I hardly know how to say how it was\nThough it spoke to me most kindly,\nUnlike a hard afterwards or the motions of forestalling.\n\nNow in evening light the far-off ridge carries marks of burning.\nThe hills turn thundercolored, and my thoughts move toward them, rough skins\nWithout their bodies. What is the part of us that feels it isn\u2019t named, that doesn\u2019t know\nHow to respond to any name? That scarcely or not at all can lift its head\nInto the blue and so unfold there?</pre>\n "}, {"title": "For the Confederate Dead", "view_node": "/poem/confederate-dead", "field_author": "<a href=\"/poet/kevin-young\" hreflang=\"und\">Kevin Young</a>", "field_date_published": "2007", "body": " <pre>\n<i>I go with the team also.</i>\n                       \u2014Whitman\n\nThese are the last days\nmy television says. Tornadoes, more\nrain, overcast, a chance\n\nof sun but I do not\ntrust weathermen,\nnever have. In my fridge only\n\nthe milk makes sense\u2014\nexpires. No one, much less\nmy parents, can tell me why\n\nmy middle name is Lowell,\nand from my table\nacross from the Confederate\n\nMonument to the dead (that pale\nfinger bone) a plaque\ndeclares war\u2014not Civil,\n\nor Between\nthe States, but for Southern\nIndependence. In this caf\u00e9, below sea-\n\nand eye-level a mural runs\nthe wall, flaking, a plantation\nscene most do not see\u2014\n\nit's too much\naround the knees, height\nof a child. In its fields Negroes bend\n\nto pick the endless white.\nIn livery a few drive carriages\nlike slaves, whipping the horses, faces\n\nblank and peeling. The old hotel\nlobby this once was no longer\nwelcomes guests\u2014maroon ledger,\n\nbellboys gone but\nfor this. Like an inheritance\nthe owner found it\n\nstripping hundred years\n(at least) of paint\nand plaster. More leaves each day.\n\nIn my movie there are no\nhorses, no heroes,\nonly draftees fleeing\n\ninto the pines, some few\nwho survive, gravely\nwounded, lying\n\nburrowed beneath the dead\u2014\nsilent until the enemy\nbayonets what is believed\n\nto be the last\nof the breathing. It is getting later.\nWe prepare\n\nfor wars no longer\nthere. The weather\ninevitable, unusual\u2014\n\nmore this time of year\nthan anyone ever seed. The earth\nshudders, the air\u2014\n\nif I did not know\nbetter, I would think\nwe were living all along\n\na fault. How late\nit has gotten . . .\nForget the weatherman\n\nwhose maps move, blink,\nbut stay crossed\nwith lines none has seen. Race\n\ninstead against the almost\nrain, digging beside the monument\n(that giant anchor)\n\ntill we strike\nwater, sweat\nfighting the sleepwalking air.</pre>\n "}, {"title": "Smoke", "view_node": "/poem/smoke", "field_author": "<a href=\"/poet/w-s-di-piero\" hreflang=\"und\">W. S. Di Piero</a>", "field_date_published": "2007", "body": " <pre>\nWe loiter in the cobblestone alley,\nBeans, Clams, Yom-Yom and me,\nsmoking punk. Snip the wiry stem,\ntrim the nubby end, scratch fire\nfrom a zipper then pass the stink around.\nWilliam Penn designed these blocks\nsquared off, brick, crosshatched by alleys\nto prevent the spread of fire. So fire\nruns down my throat, reed\nturning to iron inside my lungs.\n\nYom-Yom has an uncle in Bucks County.\nCountry boys sneak behind barns and puff\non cedar bark. Smoke\u2019s the only thing\nwe have in common. Smoke when our breath\nmeets cold moist air, though no smoke rings\nin winter, while sullen cars drag gray on gray\ndown city streets or country roads.\nSomeday I\u2019ll smoke Camels, my father\u2019s brand,\nthen Gauloises to prove I\u2019m stronger than him\nin burning whatever\u2019s inside that won\u2019t sleep.</pre>\n "}, {"title": "Man and Camel", "view_node": "/poem/man-and-camel", "field_author": "<a href=\"/poet/mark-strand\" hreflang=\"und\">Mark Strand</a>", "field_date_published": "2006", "body": " <pre>\nOn the eve of my fortieth birthday\nI sat on the porch having a smoke\nwhen out of the blue a man and a camel\nhappened by. Neither uttered a sound\nat first, but as they drifted up the street\nand out of town the two of them began to sing.\nYet what they sang is still a mystery to me\u2014\nthe words were indistinct and the tune\ntoo ornamental to recall. Into the desert\nthey went and as they went their voices\nrose as one above the sifting sound\nof windblown sand. The wonder of their singing,\nits elusive blend of man and camel, seemed\nan ideal image for all uncommon couples.\nWas this the night that I had waited for\nso long? I wanted to believe it was,\nbut just as they were vanishing, the man\nand camel ceased to sing, and galloped\nback to town. They stood before my porch,\nstaring up at me with beady eyes, and said:\n\"You ruined it. You ruined it forever.\"</pre>\n "}, {"title": "North-Looking Room", "view_node": "/poem/north-looking-room", "field_author": "<a href=\"/poet/brad-leithauser\" hreflang=\"und\">Brad Leithauser</a>", "field_date_published": "2006", "body": " <pre>\nIn a seldom-entered attic\nyou force a balky door,\ndisclosing a room made brilliant\nby an orange tree whose branches bear\n\n\nno fruit but maple leaves;\nWe\u2019re in New England, after all.\nThough rippling foliage fills\nthe pane, the flush that tints the wall\n\n\nwill last a week or two, no more.\n\n\n*\n\nAnd this conception, if consoling,\nof a high, untenanted room\nlit solely by a tree\nhouses as well\u2013at least for those\n\n\nwho\u2019d sidestep round the fear\nthat in the give-and-take of calls\nto answer, calls to make,\nwe lose the light most dim, most clear\u2014\n\n\na reprimand no breeze can shake.</pre>\n "}, {"title": "Littlefoot, 19, [This is the bird hour]", "view_node": "/poem/littlefoot-19-bird-hour", "field_author": "<a href=\"/poet/charles-wright\" hreflang=\"und\">Charles Wright</a>", "field_date_published": "2007", "body": " <pre>19\n\nThis is the bird hour, peony blossoms falling bigger than wren hearts\nOn the cutting border's railroad ties,\nSparrows and other feathery things\nHoming from one hedge to the next,\n                                                    late May, gnat-floating evening.\n\nIs love stronger than unlove?\n                                         Only the unloved know.\nAnd the mockingbird, whose heart is cloned and colorless.\n\nAnd who's this tiny chirper,\n                         lost in the loose leaves of the weeping cherry tree?\nHis song is not more than three feet off the ground, and singular,\nAnd going nowhere.\nListen. It sounds a lot like you, hermano.\n                                                           It sounds like me.</pre>\n "}], "pager": {"current_page": 555, "total_items": "13248", "total_pages": 663, "items_per_page": 20}}