{"rows": [{"title": "Showers", "view_node": "/poem/showers", "field_author": "<a href=\"/poet/d-nurkse\" hreflang=\"und\">D. Nurkse</a>", "field_date_published": "2015", "body": " <p>The child tells me,\u00a0 <em>put a brick in the tank,\u00a0\u00a0<br />don\u2019t wear leather, don\u2019t eat brisket,<br />snapper, or farmed salmon</em>\u2014not tells,<br />orders\u2014doesn\u2019t she know the sluice gates<br />are wide open and a trillion gallons<br />wasted just for the dare of it?\u00a0\u00a0</p><p>Until the staring eye shares that thrill,<br />witnessing: <em>I am just iris and cornea,<br />blind spot where brain meets mind,<br />the place where the image forms itself<br />from a spark</em><em>\u2014</em><em>image of the coming storm</em>.</p><p>Still the child waits outside the bathroom<br />with the watch she got for Best Essay,<br />muttering,\u00a0 <em>two minutes too long</em>.</p><p><em>Half measures</em>, I say. She says, <em>action</em>.<br />I: <em>I\u2019m one man</em>. She: <em>Seven billion</em>.\u00a0</p><p><em>If you choose, the sea goes back</em>.</p> "}, {"title": "The Book of Genesis", "view_node": "/poem/book-genesis", "field_author": "<a href=\"/poet/morgan-parker\" hreflang=\"en\">Morgan Parker</a>", "field_date_published": "2015", "body": " <p>Once I was:<br />lone brown spot<br />in a garden<br /><br />of upright stems<br />They said<br />what do you have to say<br /><br />let your dry lips open<br />let cocoa powder<br />rain onto our desks<br /><br />they stared at me<br />for six days<br />as if I were a peach pit<br /><br />as if by lunchtime<br />I would be swallowed<br />into the sandbox<br /><br />like a dream\u00a0\u00a0 They led me<br />to a sink made me<br />wash my hands in cold oil<br /><br />I was a temple<br />angels are watching over<br />they chanted<br /><br />until I never slept<br />my eyes turned purple<br />with guilt and imagination<br /><br />they never let me eat<br />the stale body or fill<br />my ribs with bitter juice<br /><br />they led me to an apple tree<br />I swear to God<br />told me to sit and wait<br /><br />until my earrings got heavy<br />and I could see right through<br />the whole damn city<br /><br />these days I think<br />I can find truth in song<br />as if it started inside me<br /><br />these days I think<br />a powdered rock<br />could save us<br /><br />cold oils of a stranger\u2019s tongue<br />and I sleep with<br />my hands in little fists<br /><br />tucked close to my chin<br />this is the way my people<br />have slept for years<br /><br />O garden of soiled light<br />I believe in<br />different reasons</p> "}, {"title": "Sort of Coping", "view_node": "/poem/sort-coping", "field_author": "<a href=\"/poet/farrah-field\" hreflang=\"und\">Farrah Field</a>", "field_date_published": "2015", "body": " <p>Why is anyone in the world so terrible. Real catastrophe<br />and catastrophizing. If we only knew when it was going to<br />\u00a0 \u00a0 \u00a0 happen.</p><p>I saw you put your hands on the floor. Intimacy without<br />\u00a0 \u00a0 \u00a0 disturbances.<br />The scope here of memorization, planets. The history of children</p><p>sitting still. You are so cute in all your facebook photos.<br />When you moved to Portland I forgot we used to call you</p><p>Tumbleweed Tex. All those barking dogs, feathered hair.<br />We have something in common I never mention. I wish</p><p>I\u2019d written it down and folded it into one of your piles<br />saying I want to read every one of these books! Do you think</p><p>you\u2019ll have read them all before the end of time. Did you go in<br />to see her when she was dead. Maybe you already knew.<br />\u00a0</p> "}, {"title": "Spring (Again) ", "view_node": "/poem/spring-again", "field_author": "<a href=\"/poet/michael-ryan\" hreflang=\"und\">Michael Ryan</a>", "field_date_published": "2015", "body": " <p>The birds were louder this morning,<br />raucous, oblivious, tweeting their teensy bird-brains out.<br />It scared me, until I remembered it\u2019s Spring.<br />How do they know it? A stupid question.<br />Thank you, birdies. I had forgotten how promise feels.</p> "}, {"title": "Mending", "view_node": "/poem/mending", "field_author": "<a href=\"/poet/hazel-hall\" hreflang=\"und\">Hazel Hall</a>", "field_date_published": "2015", "body": " <p>Here are old things:<br />Fraying edges,<br />Ravelling threads;<br />And here are scraps of new goods,<br />Needles and thread,<br />An expectant thimble,<br />A pair of silver-toothed scissors.<br />Thimble on a finger,<br />New thread through an eye;<br />Needle, do not linger,<br />Hurry as you ply.<br />If you ever would be through<br />Hurry, scurry, fly!<br />Here are patches,<br />Felled edges,<br />Darned threads,<br />Strengthening old utility,<br />Pending the coming of the new.<br />Yes, I have been mending \u2026<br />But also,<br />I have been enacting<br />A little travesty on life.</p> "}, {"title": "Midnight Loon", "view_node": "/poem/midnight-loon", "field_author": "<a href=\"/poet/arthur-sze\" hreflang=\"und\">Arthur Sze</a>", "field_date_published": "2015", "body": " <p>Burglars enter an apartment and ransack drawers;<br />finding neither gold nor cash, they flee,</p><p>leaving the laundry and bathroom lights on\u2014<br />they have fled themselves. I catch the dipping</p><p>pitch of a motorcycle, iceberg hues in clouds;<br />the gravel courtyard's a midnight garden,</p><p>as in Japan, raked to resemble ocean waves<br />in moonshine, whirlpool eddies, circular ripples\u2014</p><p>and nothing is quite what it appears to be.<br />When I unlatch the screen door, a snake</p><p>slides under the weathered decking; I spot<br />the jagged hole edged with glass where a burglar\u00a0</p><p>reached through the window, but no one<br />marks the poplars darker with thunder and rain.</p><p>In moonlight I watch the whirlpool hues<br />of clouds drift over our courtyard, adobe walls,</p><p>and gate, and, though there is no loon,<br />a loon calls out over the yard, over the water.</p> "}, {"title": "Strike-Slip", "view_node": "/poem/strike-slip", "field_author": "<a href=\"/poet/arthur-sze\" hreflang=\"und\">Arthur Sze</a>", "field_date_published": "2015", "body": " <p>Faucets drip, and the night plunges to minus<br />\u00a0\u00a0\u00a0\u00a0 fifteen degrees. Today you stared at a map<br />of Africa on a school wall and shook your head<br />\u00a0\u00a0\u00a0\u00a0 at \u201cYugoslavia\u201d written along the Adriatic<br />coast near the top\u2014how many times<br />\u00a0\u00a0\u00a0\u00a0 are lines drawn and redrawn, and to what end?</p><p>This ebony bead yours, that amber one<br />\u00a0\u00a0\u00a0\u00a0 another's. A coelacanth swims in the depths<br />off Mozambique and eludes a net; a crystal<br />\u00a0\u00a0\u00a0\u00a0 layer forms behind your retinas. Today<br />you saw the long plastic sheet in the furrow<br />\u00a0\u00a0\u00a0\u00a0 blown, like a shroud, around elm branches.</p><p>A V-shaped aquatic grass cutter leans<br />\u00a0\u00a0\u00a0\u00a0 against the porch, and you ponder how things<br />get to where they are. A young writer<br />\u00a0\u00a0\u00a0\u00a0 from Milwaukee who yearned to travel calls\u2014<br />he\u2019s hiked the Himalayas and frets<br />\u00a0\u00a0\u00a0\u00a0 at what to do: in Nepal, during civil strife,</p><p>he and an Israeli backpacker smoked<br />\u00a0\u00a0\u00a0\u00a0 and yakked all night in the emptied hotel;<br />now that the snow is dissolving off Everest,<br />\u00a0\u00a0\u00a0\u00a0 bodies of climbers and trash are exposed.<br />A glowing eel in the darkness\u2014anguish.<br />\u00a0\u00a0\u00a0\u00a0 He clacks the beads, <em>how to live, where to go.</em></p> "}, {"title": "Song in My Heart", "view_node": "/poem/song-my-heart", "field_author": "<a href=\"/poet/diane-seuss\" hreflang=\"und\">Diane Seuss</a>", "field_date_published": "2015", "body": " <p>If there\u2019s pee on the seat it\u2019s my pee,<br />battery\u2019s dead I killed it, canary at the bottom<br />of the cage I bury it, like God tromping the sky<br />in his undershirt carrying his brass spittoon,<br />raging and sobbing in his Hush Puppy house<br />slippers with the backs broke down, no Mrs.<br />God to make him reasonable as he gets out<br />the straight razor to slice the hair off his face,<br />using the Black Sea as a mirror when everyone<br />knows the Black Sea is a terrible mirror,<br />like God is a terrible simile for me but like<br />God with his mirror, I use it.</p> "}, {"title": "At night, by marriage:", "view_node": "/poem/night-marriage", "field_author": "<a href=\"/poet/lisa-ciccarello\" hreflang=\"en\">Lisa Ciccarello</a>", "field_date_published": "2015", "body": " <p>Here is how I control my heart: I string each thought one behind\u00a0the next, like beads.</p><p>I wear the answers I am waiting to give. The jewelry becomes\u00a0heavy as soil.</p><p>My long blink is a scream &amp; a yes. There are things I have to say, but they do not yet know the questions they must ask. &amp; a blink is no word; if they misunderstand\u2014</p><p>A heart is just soil. Ask anyone. A heartbeat is a blink. A long blink is a scream. A longer blink is sleep. All night I am screaming.<br />\u00a0</p> "}, {"title": "from The Uses of the Body", "view_node": "/poem/uses-body", "field_author": "<a href=\"/poet/deborah-landau\" hreflang=\"und\">Deborah Landau</a>", "field_date_published": "2015", "body": " <p>Before you have kids,<br />you get a dog.</p><p>Then when you get a baby,<br />you wait for the dog to die.</p><p>When the dog dies,<br />it\u2019s a relief.</p><p>When your babies aren\u2019t babies,<br />you want a dog again.</p><p>The uses of the body,<br />you see where they end.</p><p>But we are only in the middle,<br />only mid-way.</p><p>The organs growing older in their plush pockets<br />ticking toward the wearing out.</p><p>We are here and soon won\u2019t be<br />(despite the cozy bed stuffed dog pillows books clock).</p><p>The boy with his socks on and pajamas.<br />A series of accidental collisions.</p><p>Pressure in the chest. Everyone breathing<br />for now, in and out, all night.</p><p>These sad things, they have to be.<br />I go into the kitchen thinking to sweeten myself.</p><p>Boiled eggs won\u2019t do a thing.<br />Oysters. Lysol. Peanut butter. Gin.</p><p>Big babyface, getting fed.<br />I am twenty. I am thirty. I am forty years old.</p><p>A friend said <em>Listen,<br />you have to try to calm down.</em></p> "}, {"title": "In a Whispering Gallery", "view_node": "/poem/whispering-gallery", "field_author": "<a href=\"/poet/thomas-hardy\" hreflang=\"und\">Thomas Hardy</a>", "field_date_published": "2015", "body": " <p>That whisper takes the voice<br />Of a Spirit, speaking to me,<br />Close, but invisible,<br />And throws me under a spell<br />At the kindling vision it brings;<br />And for a moment I rejoice,<br />And believe in transcendent things<br />That would make of this muddy earth<br />A spot for the splendid birth<br />Of everlasting lives,<br />Whereto no night arrives;<br />And this gaunt gray gallery<br />A tabernacle of worth<br />On this drab-aired afternoon,<br />When you can barely see<br />Across its hazed lacune<br />If opposite aught there be<br />Of fleshed humanity<br />Wherewith I may commune;<br />Or if the voice so near<br />Be a soul\u2019s voice floating here.</p> "}, {"title": "Climbing China\u2019s Great Wall", "view_node": "/poem/climbing-chinas-great-wall", "field_author": "<a href=\"/poet/afaa-michael-weaver\" hreflang=\"und\">Afaa Michael Weaver</a>", "field_date_published": "2015", "body": " <p>This wall is a great stairway, walls<br />are things that shoot up, keep out, line<br />the places where we mark the halls</p><p>that carry our names. The busts<br />of this one and that one, this history<br />is in the hard labor of hearts, thrusts</p><p>of piston and valve. I sit down<br />at the first house, dizzy at the view<br />over the wall, the tourist town</p><p>below us, in buildings made old<br />by the deliberate hand of business,<br />not the rain, the sun, the untold</p><p>billions of raindrops and tear drops<br />of soldiers wishing for the lovers<br />they left behind, untended crops,</p><p>mothers weaving braids of grief<br />in their hair. A little old woman<br />bounces past me, leaping the brief</p><p>weld of stone to stone, the stairs<br />the legend and skeleton of the wall,<br />where white cranes dance in pairs.</p> "}, {"title": "Field in Spring", "view_node": "/poem/field-spring", "field_author": "<a href=\"/poet/susan-stewart\" hreflang=\"und\">Susan Stewart</a>", "field_date_published": "2015", "body": "<p><span class=\"long-line\">Your eye moving</span></p>\n\n<p><span class=\"long-line\">left to right across</span></p>\n\n<p><span class=\"long-line\">the plowed lines</span></p>\n\n<p><span class=\"long-line\">looking to touch down</span></p>\n\n<p><span class=\"long-line\">on the first</span></p>\n\n<p><span class=\"long-line\">shoots coming up</span></p>\n\n<p><span class=\"long-line\">like a frieze</span></p>\n\n<p><span class=\"long-line\">from the dark where</span></p>\n\n<p><span class=\"long-line\">pale roots</span></p>\n\n<p><span class=\"long-line\">and wood-lice gorge</span></p>\n\n<p><span class=\"long-line\">on mold.</span></p>\n\n<p><span class=\"long-line\">Red haze atop</span></p>\n\n<p><span class=\"long-line\">the far trees.</span></p>\n\n<p><span class=\"long-line\">A two dot, then</span></p>\n\n<p><span class=\"long-line\">a ten dot</span></p>\n\n<p><span class=\"long-line\">ladybug. Within</span></p>\n\n<p><span class=\"long-line\">the wind, a per-</span></p>\n\n<p><span class=\"long-line\">pendicular breeze.</span></p>\n\n<p><span class=\"long-line\">Hold a mirror,</span></p>\n\n<p><span class=\"long-line\">horizontal,</span></p>\n\n<p><span class=\"long-line\">to the rain. Now</span></p>\n\n<p><span class=\"long-line\">the blurred repetition</span></p>\n\n<p><span class=\"long-line\">of ruled lines, the faint</span></p>\n\n<p><span class=\"long-line\">green, quickening,</span></p>\n\n<p><span class=\"long-line\">the doubled tears.</span></p>\n\n<p><span class=\"long-line\">Wake up.</span></p>\n\n<p><span class=\"long-line\">The wind is not for seeing,</span></p>\n\n<p><span class=\"long-line\">neither is the first</span></p>\n\n<p><span class=\"long-line\">song, soon half-</span></p>\n\n<p><span class=\"long-line\">way gone,</span></p>\n\n<p><span class=\"long-line\">and the figures,</span></p>\n\n<p><span class=\"long-line\">the figures are not waiting.</span></p>\n\n<p><span class=\"long-line\">To see what is</span></p>\n\n<p><span class=\"long-line\">in motion you must move.</span></p>\n"}, {"title": "Hilaria Batista de Almeida, Provider ", "view_node": "/poem/hilaria-batista-de-almeida-provider", "field_author": "<a href=\"/poet/marilyn-nelson\" hreflang=\"und\">Marilyn Nelson</a>", "field_date_published": "2015", "body": " <p><em>Sisterhood of the Good Death, Bahia, Brazil<br />August 14, ca. 1850</em></p><p>Tomorrow, after we\u2019ve led the procession<br />following Our Lady of the Good Death<br />back to our chapel, two hundred Sisters,<br />in our white eyelet headwraps and dresses<br />and the company of the Ancestors,<br />will dance a Glory samba, with our neighbors<br />like us redeemed, and those we work to free.<br />We\u2019ll dance as if we don\u2019t know aches and pains,<br />to celebrate the best death of all time.</p><p>No death is easy, but some deaths are good.<br />The free die good deaths. The people we free<br />will be put down with honor and music.<br />The best death was the one Our Lady had,<br />passing directly from breath to glory.<br />Glory is ours, too, just one death from now.<br />What dies lives on no longer slave, but free:<br />The same essence, wearing another face,<br />like an <em>orixa </em>changed into a saint.</p><p>Tomorrow is Our Lady\u2019s Assumption Day.<br />Today we sit in our rooms to prepare,<br />searching the dark silence to find glory.<br />My still hands, thick from cutting sugarcane\u2026<br />and there it is, that flood of thanksgiving.<br />These nimble fingers that can tell from touch<br />the best tobacco leaf and when to stop<br />rolling a cigar smooth on the table,<br />this year helped free thirty Yoruba slaves!<br />\u00a0</p> "}, {"title": "du bois in ghana", "view_node": "/poem/du-bois-ghana", "field_author": "<a href=\"/poet/evie-shockley\" hreflang=\"und\">Evie Shockley</a>", "field_date_published": "2015", "body": "<p><span class=\"long-line\">at 93, you determined to pick up and go\u2014</span><br /><span class=\"long-line\">and <em>stay </em>gone. the job nkrumah called you to,</span><br /><span class=\"long-line\">to create, at last, your <em>encyclopedia africana</em></span><br /><span class=\"long-line\">\u00a0 \u00a0 \u00a0 \u00a0 \u00a0 \u00a0 \u00a0(encompassing a continent chipped</span></p>\n\n<p><span class=\"long-line\">like wood beneath an axe, a large enough</span><br /><span class=\"long-line\">diaspora to girdle the globe, and a mere four</span><br /><span class=\"long-line\">thousand years) was either well-deserved</span><br /><span class=\"long-line\">\u00a0 \u00a0 \u00a0 \u00a0 \u00a0 \u00a0 \u00a0 sinecure or well-earned trust</span></p>\n\n<p><span class=\"long-line\">that your health was as indestructible as</span><br /><span class=\"long-line\">your will. my mind wrestles with possible pictures:</span><br /><span class=\"long-line\">the victorian sensibility, the charcoal wool</span><br /><span class=\"long-line\">\u00a0 \u00a0 \u00a0 \u00a0 \u00a0 \u00a0 \u00a0 formality of your coats and vests, the trim</span></p>\n\n<p><span class=\"long-line\">of your beard as sharp as the crease of your</span><br /><span class=\"long-line\">collar\u2014how would these du boisian essentials</span><br /><span class=\"long-line\">hold up to sub-saharan heat? would</span><br /><span class=\"long-line\">\u00a0 \u00a0 \u00a0 \u00a0 \u00a0 \u00a0 \u00a0 your critical faculties wilt in accra\u2019s</span></p>\n\n<p><span class=\"long-line\">urban tropics as i\u2019ve read that westerners\u2019</span><br /><span class=\"long-line\">are wont to do? dr. du bois, i presume</span><br /><span class=\"long-line\">you took the climate in stride, took to it,</span><br /><span class=\"long-line\">\u00a0 \u00a0 \u00a0 \u00a0 \u00a0 \u00a0 \u00a0 looked out your library\u2019s louvered windows</span></p>\n\n<p><span class=\"long-line\">onto a land you needed</span><br /><span class=\"long-line\">neither to condemn nor conquer,</span><br /><span class=\"long-line\">and let the sun tell you what you already knew:</span><br /><span class=\"long-line\">\u00a0 \u00a0 \u00a0 \u00a0 \u00a0 \u00a0 \u00a0 this was not a port to pass on.</span></p>\n\n<p><span class=\"long-line\">your 95th birthday photo found you bathed</span><br /><span class=\"long-line\">in white cloth, cane still in hand, sharing a smile</span><br /><span class=\"long-line\">with a head of state who knew your worth\u2014joy</span><br /><span class=\"long-line\">\u00a0 \u00a0 \u00a0 \u00a0 \u00a0 \u00a0 \u00a0 that <em>this </em>nation\u2019s birth occurred in time</span></p>\n\n<p><span class=\"long-line\">for you to step out of a cold, cold storm</span><br /><span class=\"long-line\">into outstretched arms. would your pan-</span><br /><span class=\"long-line\">african dream have survived a dictatorial</span><br /><span class=\"long-line\">\u00a0 \u00a0 \u00a0 \u00a0 \u00a0 \u00a0 \u00a0 nkrumah, an nkrumah in exile? you took</span></p>\n\n<p><span class=\"long-line\">the prerogative of age and died without telling,</span><br /><span class=\"long-line\">without knowing. a half-century later, here</span><br /><span class=\"long-line\">in the country where you were born, i look</span><br /><span class=\"long-line\">\u00a0 \u00a0 \u00a0 \u00a0 \u00a0 \u00a0 \u00a0into a screen and watch as, near and far, a pan-</span></p>\n\n<p><span class=\"long-line\">demic of violence and abuse staggers the planet.</span><br /><span class=\"long-line\">we seed the world with blood, grow</span><br /><span class=\"long-line\">bleeding, harvest death and the promise</span><br /><span class=\"long-line\">\u00a0 \u00a0 \u00a0 \u00a0 \u00a0 \u00a0 \u00a0 of more. when i turn bitter, seeing no potential</span></p>\n\n<p><span class=\"long-line\">for escape, i think of the outrages you saw\u2014wars,</span><br /><span class=\"long-line\">lynchings, genocide, mccarthy, communism\u2019s</span><br /><span class=\"long-line\">failure to rise above corrupting power</span><br /><span class=\"long-line\">\u00a0 \u00a0 \u00a0 \u00a0 \u00a0 \u00a0 \u00a0any better than capitalism had, the civil rights</span></p>\n\n<p><span class=\"long-line\">movement\u2019s endless struggle\u2014and how</span><br /><span class=\"long-line\">you kept writing and walking, looking</span><br /><span class=\"long-line\">for what you knew was out there. your memory,</span><br /><span class=\"long-line\">\u00a0 \u00a0 \u00a0 \u00a0 \u00a0 \u00a0 \u00a0your tireless radiant energy, calls me</span></p>\n\n<p><span class=\"long-line\">to my work, to my feet, insisting</span><br /><span class=\"long-line\">that somewhere on the earth, freedom is</span><br /><span class=\"long-line\">learning to walk, trying not to fall,</span><br /><span class=\"long-line\">\u00a0 \u00a0 \u00a0 \u00a0 \u00a0 \u00a0 \u00a0 and, somewhere, laboring to be born.</span></p>\n"}, {"title": "The Thinker", "view_node": "/poem/thinker", "field_author": "<a href=\"/poet/william-carlos-williams\" hreflang=\"und\">William Carlos Williams</a>", "field_date_published": "2015", "body": " <p>My wife\u2019s new pink slippers<br />have gay pom-poms.<br />There is not a spot or a stain<br />on their satin toes or their sides.<br />All night they lie together<br />under her bed\u2019s edge.<br />Shivering I catch sight of them<br />and smile, in the morning.<br />Later I watch them<br />descending the stair,<br />hurrying through the doors<br />and round the table,<br />moving stiffly<br />with a shake of their gay pom-poms!<br />And I talk to them<br />in my secret mind<br />out of pure happiness.</p> "}, {"title": "By the Stream", "view_node": "/poem/stream", "field_author": "<a href=\"/poet/paul-laurence-dunbar\" hreflang=\"und\">Paul Laurence Dunbar</a>", "field_date_published": "1900", "body": "<p><span class=\"long-line\">By the stream I dream in calm delight, and watch as in a glass,</span><br /><span class=\"long-line\">How the clouds like crowds of snowy-hued and white-robed maidens pass,</span><br /><span class=\"long-line\">And the water into ripples breaks and sparkles as it spreads,</span><br /><span class=\"long-line\">Like a host of armored knights with silver helmets on their heads.</span><br /><span class=\"long-line\">And I deem the stream an emblem fit of human life may go,</span><br /><span class=\"long-line\">For I find a mind may sparkle much and yet but shallows show,</span><br /><span class=\"long-line\">And a soul may glow with myriad lights and wondrous mysteries,</span><br /><span class=\"long-line\">When it only lies a dormant thing and mirrors what it sees.</span></p>\n"}, {"title": " The Interviewer Acknowledges Grief ", "view_node": "/poem/interviewer-acknowledges-grief", "field_author": "<a href=\"/poet/tarfia-faizullah\" hreflang=\"en\">Tarfia  Faizullah</a>", "field_date_published": "2015", "body": " <p>Sister, I waste time. I play<br />\u00a0\u00a0\u00a0\u00a0\u00a0\u00a0\u00a0\u00a0\u00a0\u00a0\u00a0\u00a0\u00a0\u00a0and replay the voices of these<br />hurt women flowering</p><p>\u00a0\u00a0\u00a0\u00a0\u00a0\u00a0\u00a0\u00a0\u00a0\u00a0\u00a0\u00a0\u00a0like marigolds or thistles.<br />Something lost, forgotten\u2014<br />\u00a0\u00a0\u00a0\u00a0\u00a0\u00a0\u00a0\u00a0\u00a0\u00a0\u00a0\u00a0\u00a0that picture of you, violin</p><p>sewn fast to your shoulder,<br />\u00a0\u00a0\u00a0\u00a0\u00a0\u00a0\u00a0\u00a0\u00a0\u00a0\u00a0\u00a0\u00a0bow in one hand poised<br />eternal. Again, the power's</p><p>\u00a0\u00a0\u00a0\u00a0\u00a0\u00a0\u00a0\u00a0\u00a0\u00a0\u00a0\u00a0\u00a0gone out\u2014tell me, what is<br />it to say I miss you? Because<br />\u00a0\u00a0\u00a0\u00a0\u00a0\u00a0\u00a0\u00a0\u00a0\u00a0\u00a0\u00a0\u00a0you won't grow breasts, never</p><p>feel desire rippling across you<br />\u00a0\u00a0\u00a0\u00a0\u00a0\u00a0\u00a0\u00a0\u00a0\u00a0\u00a0\u00a0\u00a0like bolts of silk these many<br />lithe men unshelf daily</p><p>\u00a0\u00a0\u00a0\u00a0\u00a0\u00a0\u00a0\u00a0\u00a0\u00a0\u00a0\u00a0\u00a0for my choosing. Because you<br />can't reassure me I have<br />\u00a0\u00a0\u00a0\u00a0\u00a0\u00a0\u00a0\u00a0\u00a0\u00a0\u00a0\u00a0\u00a0the right to ask anything</p><p>of women whose bodies won't<br />\u00a0\u00a0\u00a0\u00a0\u00a0\u00a0\u00a0\u00a0\u00a0\u00a0\u00a0\u00a0\u00a0\u00a0ever again be their own. You<br />can't blot away this utter, sooted</p><p>\u00a0\u00a0\u00a0\u00a0\u00a0\u00a0\u00a0\u00a0\u00a0\u00a0\u00a0\u00a0\u00a0\u00a0darkness. You don't hesitate<br />when another birangona asks you,<br />\u00a0\u00a0\u00a0\u00a0\u00a0\u00a0\u00a0\u00a0\u00a0\u00a0\u00a0\u00a0\u00a0\u00a0<em>Do you have any siblings?</em></p><p>For decades, you've been<br />\u00a0\u00a0\u00a0\u00a0\u00a0\u00a0\u00a0\u00a0\u00a0\u00a0\u00a0\u00a0\u00a0\u00a0so small: a child tapping<br />on opaque windows. Now,</p><p>\u00a0\u00a0\u00a0\u00a0\u00a0\u00a0\u00a0\u00a0\u00a0\u00a0\u00a0\u00a0\u00a0\u00a0through the veranda's black<br />iron bars, I see you, dark<br />\u00a0\u00a0\u00a0\u00a0\u00a0\u00a0\u00a0\u00a0\u00a0\u00a0\u00a0\u00a0\u00a0\u00a0silhouette hurrying past,</p><p>a bagged red box dangling<br />\u00a0\u00a0\u00a0\u00a0\u00a0\u00a0\u00a0\u00a0\u00a0\u00a0\u00a0\u00a0\u00a0\u00a0from one slender arm\u2014gift<br />for a lover or mother. Again,</p><p>\u00a0\u00a0\u00a0\u00a0\u00a0\u00a0\u00a0\u00a0\u00a0\u00a0\u00a0\u00a0\u00a0\u00a0\u00a0the generator shudders me back<br />into light. Isn't this, Sister,<br />\u00a0\u00a0\u00a0\u00a0\u00a0\u00a0\u00a0\u00a0\u00a0\u00a0\u00a0\u00a0\u00a0\u00a0\u00a0what I always said I wanted?</p> "}, {"title": "Spring 1931", "view_node": "/poem/spring-1931", "field_author": "<a href=\"/poet/sam-cornish\" hreflang=\"en\">Sam Cornish</a>", "field_date_published": "2015", "body": " <p>Northern black<br />boy traveling<br />with empty belly;<br />these are the American<br />blues,<br />shanties, and fine<br />big houses, a sad<br />song<br />on a poor man\u2019s tongue<br />land of cotton and trouble<br />night sweet as dusk<br />on its gentle people<br />until today,<br />when<br />Scottsboro<br />was just a place<br />where the train<br />had to stop<br />and the Southern<br />night<br />was beautiful<br />I traveled<br />hungry<br />from Memphis to Georgia<br />drinking my whiskey<br />and<br />singing my blues</p> "}, {"title": "Loneliness", "view_node": "/poem/loneliness-0", "field_author": "<a href=\"/poet/fanny-howe\" hreflang=\"und\">Fanny Howe</a>", "field_date_published": "2015", "body": " <p>Loneliness is not an accident or a choice.<br />It\u2019s an uninvited and uncreated companion.<br />It slips in beside you when you are not aware that a<br />choice you are making will have consequences.<br />It does you no good even though it\u2019s like one of the<br />elements in the world that you cannot exist without.<br />It takes your hand and walks with you. It lies down<br />with you. It sits beside you. It\u2019s as dark as a shadow<br />but it has substance that is familiar.<br />It swims with you and swings around on stools.<br />It boards the ferry and leans on the motel desk.<br /><br />Nothing great happens as a result of loneliness.<br />Your character flaws remain in place. You still stop in<br />with friends and have wonderful hours among them,<br />but you must run as soon as you hear it calling.<br />It does call. And you climb the stairs obediently,<br />pushing aside books and notes to let it know that you<br />have returned to it, all is well.<br />If you don\u2019t answer its call, you sense that it will sink<br />towards a deep gravity and adopt a limp.<br /><br />From loneliness you learn very little. It pulls you<br />back, it pulls you down.<br /><br />It\u2019s the manifestation of a vow never made but kept:<br />I will go home now and forever in solitude.<br /><br />And after that loneliness will accompany you to<br />every airport, train station, bus depot, caf\u00e9, cinema,<br />and onto airplanes and into cars, strange rooms and<br />offices, classrooms and libraries, and it will hang near<br />your hand like a habit.<br />But it isn\u2019t a habit and no one can see it.<br /><br />It\u2019s your obligation, and your companion warms itself<br />against you.<br />You are faithful to it because it was the only vow you<br />made finally, when it was unnecessary.<br /><br />If you figured out why you chose it, years later, would<br />you ask it to go?<br />How would you replace it?</p><p>No, saying good-bye would be too embarrassing.<br />Why?<br />First you might cry.<br />Because shame and loneliness are almost one.<br />Shame at existing in the first place. Shame at being<br />visible, taking up space, breathing some of the sky,<br />sleeping in a whole bed, asking for a share.<br /><br />Loneliness feels so much like shame, it always seems<br />to need a little more time on its own.</p> "}], "pager": {"current_page": 376, "total_items": "13248", "total_pages": 663, "items_per_page": 20}}