{"rows": [{"title": "Leap Year&#039;s Eve", "view_node": "/poem/leap-years-eve", "field_author": "<a href=\"/poet/rose-styron\" hreflang=\"en\">Rose Styron</a>", "field_date_published": "2018", "body": " <pre>Crisp white snow\non our dark green firs\n\nheart lights gleam\nan owl spell stirs\n\nfull moon on fire\nthis leap year night\u2014\n\ngift: one day more\nfor love's last flight</pre>\n "}, {"title": "February 14th", "view_node": "/poem/february-14th", "field_author": "<a href=\"/poet/rose-styron\" hreflang=\"en\">Rose Styron</a>", "field_date_published": "2018", "body": " <pre>Valentine's Day,\nour first apart.\nAre you not coming back?\nWhere do I put this paper heart?\n\nThe snow, the sleet last night\nthis morning's year\nwhites-out out world.\nThey said you'd reappear\n\nonce I let you go\ngot rid of history's mess\n(the noise, the clutter I created)\nsaid you'd return to bless\n\na quiet life\nshare it again with me\nlend me one more swift chance\nto perfectly\n\ntell you how long I've loved\nand not let pride\nor fear from decades past\nlure me to hide\n\nmy need, my hope\nor lately, fresh desire.\nStrange: thopse weeks, our words,\nhow you'd admire\n\nsome silly thing I'd done\noutfit I'd wear\nfresh thought or\nmy unruly hair.\n\nEarlier seasons, you had not,\nbut now you'd say\nover and over,\nas that day\n\nin ancient Rome: I love you.\nWhat wild sweet flight\nwhat daring ride we ended.\nWas I right\n\nto let you go? How can\nthe earth make sense?\nChilled cardinals huddle here\n\nand lightfooted horses\nblack-paied at our fence.</pre> "}, {"title": "December 24th", "view_node": "/poem/december-24th", "field_author": "<a href=\"/poet/rose-styron\" hreflang=\"en\">Rose Styron</a>", "field_date_published": "2018", "body": " <pre>The world tonight is clear,\nif only for an hour\n\nOrion's belt encircling us,\nthe far indigo ocean\nthundering near\n\nand I remember\nrain the alley\nno shortcut home.</pre>\n "}, {"title": "Last Night", "view_node": "/poem/last-night-0", "field_author": "<a href=\"/poet/rose-styron\" hreflang=\"en\">Rose Styron</a>", "field_date_published": "2015", "body": " <pre>We were the family\nthere on his bed the five of us\ntouching his arms, his chest,\ncradling his head.\n\nFor children\nbending to\nhim, to ease his departure, bless\nhis mysterious\n\njourney\u2014\nthen I alone\nuncovering the bony legs,\npreparing him for rest.\n\nNow I, in the limbo of\nour fashioned earth,\ncannot remember\nhow to be\n\nalive,\ncrossing abandoned fields,\nedges of cracked white sea,\nhigh priest of sky. </pre>\n "}, {"title": "The Kindness of Strangers", "view_node": "/poem/kindness-strangers", "field_author": "<a href=\"/poet/sally-van-doren\" hreflang=\"und\">Sally Van Doren</a>", "field_date_published": "2017", "body": " <p>Here I am with all my flaws<br />seeking form and shelter.</p><p>I blanche at the notion<br />of violence, but it\u2019s coming</p><p>after us, closing in like a<br />superstition I can\u2019t shake.</p><p>If I acquiesce to your harsh<br />future you must promise me</p><p>one thing. Where we go we will<br />find our youth again. Can you</p><p>see it there under the yellow linen<br />tablecloth? I\u2019m depending on it.</p> "}, {"title": "Empress", "view_node": "/poem/empress", "field_author": "<a href=\"/poet/sally-van-doren\" hreflang=\"und\">Sally Van Doren</a>", "field_date_published": "2017", "body": " <p>Her regime expires when<br />the moon meets the sun<br />on the horizon we can\u2019t see<br />because the sycamore trees</p><p>next door block our view.<br />Our world droops in anticipation.<br />We would like to exchange<br />the unkind for the kind but</p><p>we can\u2019t find the strength<br />to oust the inevitable. Instead<br />we joke about politics and watch<br />our neighbors arm themselves.</p> "}, {"title": "Or", "view_node": "/poem/or", "field_author": "<a href=\"/poet/sally-van-doren\" hreflang=\"und\">Sally Van Doren</a>", "field_date_published": "2017", "body": "<p>Every morning I let it all go.<br /><span class=\"\u201clong\" line=\"\">Then it starts coming back,</span><br /><span class=\"\u201clong\" line=\"\">sometimes blurred, sometimes</span><br /><span class=\"\u201clong\" line=\"\">stuttering, sometimes suspended</span><br /><span class=\"\u201clong\" line=\"\">on a linear dartboard that</span><br /><span class=\"\u201clong\" line=\"\">I try to impale myself upon.</span><br /><span class=\"\u201clong\" line=\"\">Even when the skylight is leaking,</span><br /><span class=\"\u201clong\" line=\"\">I look for the peephole</span><br /><span class=\"\u201clong\" line=\"\">that will ensnare my vision</span><br /><span class=\"\u201clong\" line=\"\">of things: the boy sashaying</span><br /><span class=\"\u201clong\" line=\"\">through the mud, the man shaving,</span><br /><span class=\"\u201clong\" line=\"\">the mother scrubbing shoes</span><br /><span class=\"\u201clong\" line=\"\">in the driveway. I want to say</span><br /><span class=\"\u201clong\" line=\"\">that I feel too, that I remember,</span><br /><span class=\"\u201clong\" line=\"\">and then I forget, and then I notice</span><br /><span class=\"\u201clong\" line=\"\">that almost all the leaves are off the trees</span><br /><span class=\"\u201clong\" line=\"\">and on the ground, save my three magnolias.</span></p>\n"}, {"title": "Scene", "view_node": "/poem/scene", "field_author": "<a href=\"/poet/sally-van-doren\" hreflang=\"und\">Sally Van Doren</a>", "field_date_published": "2017", "body": " <p style=\"text-align: right;\"><em>After TM Davy </em></p><p>The impending light<br />pushes out from<br />an unstable center.</p><p>It tries to convert<br />flux into stasis. I<br />watch it from my</p><p>indolent perch<br />on the couch. If it<br />pushes too hard</p><p>we will capsize.<br />I prefer to regard<br />it from across</p><p>the room, letting<br />it guide me without<br />burning a hole in my sight.</p> "}, {"title": "After Every There 3", "view_node": "/poem/after-every-there-3", "field_author": "<a href=\"/poet/sally-van-doren\" hreflang=\"und\">Sally Van Doren</a>", "field_date_published": "2017", "body": " <p>I want to claim<br />that burst of blue,<br />to register it is an<br />antidote to the explosion<br />of too much emotion,<br />the yellows, reds and greens<br />that bombard my morning<br />vision.\u00a0 Can we get<br />along or can\u2019t we?<br />Not when one young man<br />sets his anger on fire<br />and it\u2019s lights out<br />for everyone around him.</p><p><em>In response to Eva Lundsager\u2019s painting of the same title.</em></p> "}, {"title": "Like Stride", "view_node": "/poem/stride", "field_author": "<a href=\"/poet/cedar-sigo\" hreflang=\"und\">Cedar  Sigo</a>", "field_date_published": "2017", "body": "<p><span class=\"long-line\">We will live forever misaligning the changes</span><br /><span class=\"long-line\">into further time stinted tricks</span><br /><span class=\"long-line\">giving up post kickflip failures</span><br /><span class=\"long-line\">scribbling prepared remarks to notebooks</span><br /><span class=\"long-line\">unlocked over dry spells flooded with demand</span><br /><span class=\"long-line\">salt crystals crushed, the past flashed</span><br /><span class=\"long-line\">and I was a working writer, nursing the pools</span><br /><span class=\"long-line\">in everyone\u2019s hearts, disembarking</span><br /><span class=\"long-line\">soothing the air around a final question</span><br /><span class=\"long-line\">away in the country toweling off</span><br /><span class=\"long-line\">my doing the most proper thing turned</span><br /><span class=\"long-line\">somehow slick, of feminine wiles, a clap trap</span><br /><span class=\"long-line\">case book, the dream at the end so delicate</span><br /><span class=\"long-line\">and put out. Makes light so pained</span><br /><span class=\"long-line\">two reclining long in the turn of the neck</span><br /><span class=\"long-line\">in like stride, imparting poetic asides</span><br /><span class=\"long-line\">(bored to tears in Taos) cross out words</span><br /><span class=\"long-line\">and tunnel the line, the guts will sit atop</span><br /><span class=\"long-line\">glistening, hand stamped valves really</span><br /><span class=\"long-line\">toying with release, a lighted display</span><br /><span class=\"long-line\">corresponding controls, to repave</span><br /><span class=\"long-line\">an entire arcade in release of our well</span><br /><span class=\"long-line\">whiskey texting back dimension</span><br /><span class=\"long-line\">We are poor and not cheap, in love</span><br /><span class=\"long-line\">with the same little song slashed booklet</span></p>\n"}, {"title": "Poem of Regret for an Old Friend", "view_node": "/poem/poem-regret-old-friend", "field_author": "<a href=\"/poet/meghan-orourke\" hreflang=\"und\">Meghan O&#039;Rourke</a>", "field_date_published": "2017", "body": " <p>What you did wasn\u2019t so bad.<br />You stood in a small room, waiting for the sun.<br />At least you told yourself that.<br />I know it was small,<br />but there was something, a kind of pulped lemon,<br />at the low edge of the sky.</p><p>No, you\u2019re right, it was terrible.<br />Terrible to live without love<br />in small rooms with vinyl blinds<br />listening to music secretly,<br />the secret music of one\u2019s head<br />which can\u2019t be shared.</p><p>A dream is the only way to breathe.<br />But you must<br />find a more useful way to live.<br />I suppose you\u2019re right<br />this was a failure: to stand there<br />so still, waiting for\u2014what?</p><p>When I think about this life,<br />the life you led, I think of England,<br />of secret gardens that never open,<br />and novels sliding off the bed<br />at night where the small handkerchief<br />of darkness settles over<br />one\u2019s face.</p> "}, {"title": "Exploded Stars", "view_node": "/poem/exploded-stars", "field_author": "<a href=\"/poet/kamilah-aisha-moon\" hreflang=\"en\">Kamilah  Aisha Moon</a>", "field_date_published": "2017", "body": " <pre>\n\thaunted by\nwholeness\u2014\n\tbright debris sibilant\nbeneath skin tug-of-warring\n\twith gravity, we\nharvest shine\n\tfrom the caves of\nmouths &amp; crevices\n\tof eyes incandescent\nas we remember\n\tthe most massive\nflares among us,\n\tdetonate inside\neach other to hold\n\ttiny supernovae\nin our arms. Crushed\n\tbodies craving fusion\nkeep us brimming\n\twith enough energy\nto pass on,\n\tkeep us lit &amp; lying\nto ourselves about\n\tthe eventual &amp; sudden\nways we black hole\u2014\n\tit already happened, it\u2019s happening\nanyway, to happen soon,\n           scattering all that we think\nmatters so much now\n\tfor another radiant giant to gather\nthen fling across galaxies\n\tagain\u2014reconstituted\n&amp; scorched clean,\n           new turmoil begging\nfrom the inside out\n           to burn.\n</pre>\n "}, {"title": "\u2014My form against those at border\u2014 ", "view_node": "/poem/my-form-against-those-border", "field_author": "<a href=\"/poet/dawn-lundy-martin\" hreflang=\"und\">Dawn Lundy Martin</a>", "field_date_published": "2017", "body": " <pre>\n[arbitrary line] [perish]\n\n\tknocking among other refugees\n\n\t\u2014the islands\n\t\u2014no one to help\n\t\u2014thousands buried by water\n\nA butchered animal at my feet.\n\nWolves howl. Soot falls from sky.\n\nThe rescuers are never prepared.\nAnd we, here, amid a failure of images.\n\nScrub a spot whiter than before.\nDemarcate before there is nothing left.\n\nBreach into white sand. The dead ache so. \n</pre>\n "}, {"title": "Deportation Letter", "view_node": "/poem/deportation-letter", "field_author": "<a href=\"/poet/javier-zamora\" hreflang=\"en\">Javier Zamora</a>", "field_date_published": "2017", "body": " <pre>\n                      for my cousin Julia Zetino\n\n<span class=\"long-line\">The words <em>Notice to Appear</em> flap like a monarch trapped in a puddle.</span>\n<span class=\"long-line\">Translation: ten years in a cell cold enough to be named Hielera.</span>\n<span class=\"long-line\">If not that, a plane with chains locked to her legs. My aunt swam across</span>\n<span class=\"long-line\">the R\u00edo Bravo twice to see her second daughter born in Greenbrae.</span>\n<span class=\"long-line\">\u00bfWhy can\u2019t my sister come here? asks the one who speaks English.</span>\n<span class=\"long-line\">The monarch\u2019s beaten, but it won\u2019t listen. Since nothing\u2019s wasted,</span>\n<span class=\"long-line\">it might get eaten, it will nourish ants already gathering.</span>\n\n      *\n<em><span class=\"long-line\">It was a hill like this. I was tired. I couldn\u2019t keep running and fell. If it wasn\u2019t for</span>\n<span class=\"long-line\">the women who went back to pick me up from the shore, I wouldn\u2019t be here.</span>\n</em>\n      *\n<span class=\"long-line\">Somewhere along here there\u2019s a bridge. A cactus-pear bridge, red</span>\n<span class=\"long-line\">like: the dirtiest sunset, Gila monster hiding, leftover sardines in tin.</span>\n<span class=\"long-line\">\u00bfThe hibiscus sprouting? \u00bfBougainvillea? One daughter wakes</span>\n<span class=\"long-line\">and sees them and the volcano, and fire flowers through her window.</span>\nShe\u2019s never seen the bridge her mom isn\u2019t afraid of.\n\n      *\n<span class=\"long-line\">My aunt, twenty-five years selling pupusas near that pier, ten and counting</span>\n<span class=\"long-line\">cleaning houses, baking bread, anything in Larkspur. Most people</span>\n<span class=\"long-line\">in La Herradura haven\u2019t seen their parents. Her daughter Julia, over there.</span>\n<span class=\"long-line\">Here, her daughter Adriana takes the bus to school every day.</span>\n\n      *\n<em><span class=\"long-line\">The first try we were already in that van and La Migra was chasing us. The driver</span>\n<span class=\"long-line\">said he was going to stop, we should open the doors and run. There were a lot of trucks.</span>\n<span class=\"long-line\">Sirens. Men through the speakers. I got to a bush and hid. One dog found me.</span>\n<span class=\"long-line\">He didn\u2019t bite. He just stood next to me till one gringo handcuffed me.</span></em>\n\n      *\n<em><span class=\"long-line\">This beach, these hills, are pretty. It looks like La Puntilla, except it\u2019s cold.</span>\n<span class=\"long-line\">I wish Julia was here. Javier, take a picture of Adriana and me. I\u2019ll send it to Julia.</span>\n</em>\n      *\n<span class=\"long-line\">It\u2019s complicated. <em>Mam\u00e1 me dejaste, dec\u00ed que vas a regresar,</em> I said, at night</span>\n<span class=\"long-line\">on that same bed you sleep in now. Same bed next to the window</span>\n<span class=\"long-line\">from which you see the lemons, the custard apples, the bean fields,</span>\n<span class=\"long-line\">then the volcano. I\u2019m sorry none of us ever saw you draw butterflies</span>\n<span class=\"long-line\">like we see Adriana draw them, with the caption: \u201cthe butterflies</span>\nwere going to save the world from tornado. And did.\u201d\n</pre>\n "}, {"title": "Clotheslines", "view_node": "/poem/clotheslines", "field_author": "<a href=\"/poet/michael-mcfee\" hreflang=\"en\">Michael McFee</a>", "field_date_published": "2017", "body": " <pre>\n\nThe lines sag deeper and deeper with sweet wet gossip. \nThe clever pins do headstands all day, jaws clenched.\n\nMy parents preached the virtues of clothes dried outside. \nDryers are a rich man's fad, the static can kill you.\n\nA Halloween of underwear, haunting the neighborhood. \nThe socks' threadbare parody of Christmas morning.\n\nThe shirts surrender, they pray, they are crucified. \nThe hung pants stiffen like casts in the hungry sun.\n\nI press out their rigor mortis with Gothic devotion. \nI polish the clothes with the day's lost water and heat.\n\nMy parents were well dressed the last time I saw them. \nThe basket feels fuller and lighter as I walk back in.\n</pre>\n "}, {"title": "  To Work", "view_node": "/poem/work-2", "field_author": "<a href=\"/poet/michael-mcfee\" hreflang=\"en\">Michael McFee</a>", "field_date_published": "2017", "body": " <pre>\n\nBrookshire had come to work second shift\nat Walker Manufacturing the day it opened\n\nand stayed until the recession shut it down\na dozen years later.  He was an end finisher,\n\nsix-foot-four and strong enough to hang\nthe bent and welded tailpipes and mufflers\n\non a fast-moving chain that would loop them\nthrough a room-sized oven for rustproofing.\n\nHe loaded and unloaded them left-handed\nuntil that arm was so muscular it looked\n\nlike the claw of a human fiddler crab,\nuntil that hand was so thickly calloused\n\nhe didn\u2019t need to wear protective gloves\nwhen he handled the rough or heated metal.\n\nHe liked the work, its good wage and routine\nand not having to think about what he did.\n\nHe liked his forearm, its Popeye tattoo\nthat slowly vanished underneath the grime\n\nof a nine-hour shift, as daylight itself \nclocked out while he worked.  He liked leaving\n\nthe plant at one-thirty in the morning\nexhausted, especially in the summer,\n\nwalking into the cool mountain night\ndark as the water that would soon be flowing\n\nfrom his skin as he carefully scrubbed away\nall the filth that had seeped through his clothes,\n\nblackening his pale body utterly\nexcept where his underwear and socks had been.\n\nHis sleep was clean and deep and very long.\nTo work is to get dirty then get paid.</pre>\n "}, {"title": "Valentine\u2019s Afternoon", "view_node": "/poem/valentines-afternoon", "field_author": "<a href=\"/poet/michael-mcfee\" hreflang=\"en\">Michael McFee</a>", "field_date_published": "2017", "body": " <pre>Four lanes over, a plump helium heart\u2014\n\nslipped, maybe, from some kid\u2019s wrist\nor a rushed lover\u2019s empty passenger seat\n\nthrough a half-cracked car window\u2014\n\nrises like a shiny purple cloudlet\ntoward today\u2019s gray mess of clouds,\n\ntrailing its gold ribbon like lightning\n\nthat will never strike anything\nor anyone here on the forsaken ground,\n\nits bold LOVE increasingly illegible\n\nas it ascends over the frozen oaks,\nriding swift currents toward the horizon,\n\na swollen word wobbling out of sight.\n</pre>\n "}, {"title": "Q", "view_node": "/poem/q-1", "field_author": "<a href=\"/poet/michael-mcfee\" hreflang=\"en\">Michael McFee</a>", "field_date_published": "2017", "body": " <pre>\n\n<em>U</em>\u2019s mate, <em>O</em> with a new root,\nthe one capital letter\nwhich probes below the base line,\nhere\u2019s to the quirky beauty\n\nof its tail, that fluent tongue\nstuck from a wide-open mouth,\nthat elegant half-mustache\nparted quickly toward the east,\n\nthat antique handle we grasp\nto lift up the monocle\nof our alphabet\u2019s monarch,\nthat final flourish of the quill.</pre>\n "}, {"title": "Cast-Iron Ghazal", "view_node": "/poem/cast-iron-ghazal", "field_author": "<a href=\"/poet/michael-mcfee\" hreflang=\"en\">Michael McFee</a>", "field_date_published": "2017", "body": " <pre>\n\nMy mouth won\u2019t ever forget her skill with a skillet,\nmy father\u2019s mother, cooking\nwith her mother\u2019s skillet.\n\nLooking deep into its heavy antique mirror, I see\nher wedding day: white dress\nand this coal-dark skillet.\n\nHeaven was bacon\u2019s sizzle waking my ears and nose.\nOr was it one of her chickens \nslow-frying in the skillet?\n\nHer husband once took it hunting without asking:\nshe said she\u2019d bust his skull \nwith that upraised skillet.\n\nFire-born bell whose clapper was a plain dinner fork,\njuicy fauna and flora notes\nrang out from her skillet.\n\nI see early widowhood, cooked-for children gone:\ndarkness lends its seasoning\nto every cast-iron skillet.\n\nShe hid its teardrop handle inside her strong grip\nwhen pouring red-eye gravy\nfrom one lip of the skillet.\n\nWhat went into the oven as batter we two mixed\ncame out as cornbread glory,\nsteaming amen in a skillet.\n\nBlack as her Bible, black as her once-maiden hair,\nblack as a panther howling\nat midnight, this skillet.\n\nI see her funeral day, the kitchen filled with food\nnot made by her, no flame\nkissing the empty skillet.\n\nI say McFee into its circle, hear her savory voice \ngiving back the family name \nfrom her (now my) skillet.\n</pre>\n "}, {"title": "Let Me Try Again", "view_node": "/poem/let-me-try-again", "field_author": "<a href=\"/poet/javier-zamora\" hreflang=\"en\">Javier Zamora</a>", "field_date_published": "2017", "body": " <pre>\nI could bore you with the sunset, the way water tasted\n     after so many days without it, \n<span class=\"long-line\">                                                     the trees,</span>\nthe breed of dogs, but I can\u2019t say \n<span class=\"long-line\">                                                    there were forty people</span>\nwhen we found the ranch with the thin white man, \n           his dogs, \n                          and his shotgun. \n\nUntil this 5 a.m. I couldn\u2019t remember\n                           there were only five, \nor seven people\u2014\n\nWe\u2019d separated by the paloverdes.\n      We, meaning: \n                             four people. Not forty. \nThe rest. . . \n     I don\u2019t know. \n                            They weren\u2019t there \nwhen the thin white man \n<span class=\"long-line\">                                         let us drink from a hose</span>\nwhile pointing his shotgun. \n<span class=\"long-line\">                                             In pocho Spanish he told us</span>\n<em>si correr perros atacar.\n<span class=\"long-line\">                                      If run dogs trained attack.</span></em>\n\nWhen La Migra arrived, an officer \n     who probably called himself Hispanic at best,\n\nnot Mejicano like we called him, said \n<em><span class=\"long-line\">                                                      buenas noches</span></em>\n     and gave us pan dulce y chocolate. \n\nProcedure says he should\u2019ve taken us \n     back to the station, \n\nchecked our fingerprints, \n                                             etc\u00e9tera. \n\nHe must\u2019ve remembered his family \n      over the border, \n\nor the border coming over them, \n     because he drove us to the border \n\nand told us \n    <em> next time, rest at least five days, </em>\n\n<em>don\u2019t trust anyone calling themselves coyotes, \n      bring more tortillas, sardines, Alhambra. </em>\n\nHe knew we would try again \n      and again,\n                       like everyone does.  </pre>\n "}], "pager": {"current_page": 288, "total_items": "13248", "total_pages": 663, "items_per_page": 20}}