{"rows": [{"title": "The Easter Flower", "view_node": "/poem/easter-flower", "field_author": "<a href=\"/poet/claude-mckay\" hreflang=\"und\">Claude McKay</a>", "field_date_published": "1922", "body": "<p><span class=\"long-line\">Far from this foreign Easter damp and chilly</span><br /><span class=\"long-line\">\u00a0 \u00a0 \u00a0 \u00a0 \u00a0My soul steals to a pear-shaped plot of ground,</span><br /><span class=\"long-line\">Where gleamed the lilac-tinted Easter lily</span><br /><span class=\"long-line\">\u00a0 \u00a0 \u00a0 \u00a0 \u00a0Soft-scented in the air for yards around;</span></p>\n<p><span class=\"long-line\">Alone, without a hint of guardian leaf!</span><br /><span class=\"long-line\">\u00a0 \u00a0 \u00a0 \u00a0 \u00a0Just like a fragile bell of silver rime,</span><br /><span class=\"long-line\">It burst the tomb for freedom sweet and brief</span><br /><span class=\"long-line\">\u00a0 \u00a0 \u00a0 \u00a0 \u00a0In the young pregnant year at Eastertime;</span></p>\n<p><span class=\"long-line\">And many thought it was a sacred sign,</span><br /><span class=\"long-line\">\u00a0 \u00a0 \u00a0 \u00a0 \u00a0And some called it the resurrection flower;</span><br /><span class=\"long-line\">And I, a pagan, worshiped at its shrine,</span><br /><span class=\"long-line\">\u00a0 \u00a0 \u00a0 \u00a0 \u00a0Yielding my heart unto its perfumed power.</span></p>\n"}, {"title": "Beat, Old Heart", "view_node": "/poem/beat-old-heart", "field_author": "<a href=\"/poet/carl-sandburg\" hreflang=\"und\">Carl Sandburg</a>", "field_date_published": "1922", "body": "<p><span class=\"long-line\">Beat, old heart, these are the old bars</span><br /><span class=\"long-line\">All stragglers have beat against.</span><br /><span class=\"long-line\">Beat on these bars like the old sea</span><br /><span class=\"long-line\">Beats on the rocks and beaches.</span><br /><span class=\"long-line\">Beat here like the old winter winds</span><br /><span class=\"long-line\">Beat on the prairies and timbers.</span><br /><span class=\"long-line\">Old grizzlies, eagles, buffalo,</span><br /><span class=\"long-line\">Their paws and beaks register this.</span><br /><span class=\"long-line\">Their hides and heads say it with scars.</span></p>\n"}, {"title": "Fins", "view_node": "/poem/fins", "field_author": "<a href=\"/poet/carl-sandburg\" hreflang=\"und\">Carl Sandburg</a>", "field_date_published": "1922", "body": "<p><span class=\"long-line\">Plow over bars of sea plowing,</span><br /><span class=\"long-line\">the moon by moon work of the sea,</span><br /><span class=\"long-line\">the plowing, sand and rock, must</span><br /><span class=\"long-line\">be done.</span></p>\n<p><span class=\"long-line\">Ride over, ride over bars of sea riding,</span><br /><span class=\"long-line\">the sun and the blue riding of the sea\u2014</span><br /><span class=\"long-line\">sit in the saddles and say it, sea riders.</span></p>\n<p><span class=\"long-line\">Slant up and go, silver breakers; mix</span><br /><span class=\"long-line\">the high howls of your dancing; shoot</span><br /><span class=\"long-line\">your laugh of rainbow foam tops.</span></p>\n<p><span class=\"long-line\">Foam wings, fly; pick the comers, the fin pink,</span><br /><span class=\"long-line\">the belly green, the blue rain sparks, the</span><br /><span class=\"long-line\">white wave spit\u2014fly, you foam wings.</span></p>\n<p><span class=\"long-line\">The men of the sea are gone to work; the women</span><br /><span class=\"long-line\">of the sea are off buying new hats, combs, clocks;</span><br /><span class=\"long-line\">it is rust and gold on the roofs of the sea.</span></p>\n"}, {"title": "Four Steichen Prints", "view_node": "/poem/four-steichen-prints-0", "field_author": "<a href=\"/poet/carl-sandburg\" hreflang=\"und\">Carl Sandburg</a>", "field_date_published": "1922", "body": "<p><span class=\"long-line\">The earth, the rock and the oil of the earth, the</span><br /><span class=\"long-line\">slippery frozen places of the earth, these are for homes</span><br /><span class=\"long-line\">of rainbow bubbles, curves of the circles of a bubble,</span><br /><span class=\"long-line\">curves of the arcs of the rainbow prisms\u2014between sun</span><br /><span class=\"long-line\">and rock they lift to the sun their foam feather and go.</span></p>\n<p>. .</p>\n<p><span class=\"long-line\">Throw your neck back, throw it back till the neck</span><br /><span class=\"long-line\">muscles shine at the sun, till the falling hair at the</span><br /><span class=\"long-line\">scalp is a black cry, till limbs and knee bones form</span><br /><span class=\"long-line\">an altar, and a girl's torso over the fire-rock torso shouts</span><br /><span class=\"long-line\">hi yi, hi yee, hallelujah.</span></p>\n<p>. .</p>\n<p><span class=\"long-line\">Goat girl caught in the brambles, deerfoot or fox-head,</span><br /><span class=\"long-line\">ankles and hair of feeders of the wind, let all the covering</span><br /><span class=\"long-line\">burn, let all stopping a naked plunger from plunging</span><br /><span class=\"long-line\">naked, let it all burn in this wind fire, let the fire have</span><br /><span class=\"long-line\">it in a fast crunch and a flash.</span></p>\n<p>. .</p>\n<p><span class=\"long-line\">They threw you into a pot of thorns with a wreath in</span><br /><span class=\"long-line\">your hair and bunches of grapes over your head\u2014your</span><br /><span class=\"long-line\">hard little buttocks in the thorn\u2014then the black eyes,</span><br /><span class=\"long-line\">the white teeth, the nameless muscular flair of you,</span><br /><span class=\"long-line\">rippled and twisted in sliding rising scales of laughter;</span><br /><span class=\"long-line\">the earth never had a gladder friend; pigs, goats, deer,</span><br /><span class=\"long-line\">tawny tough-haired jaguars might understand you.</span></p>\n"}, {"title": "Wind Rising in the Alleys ", "view_node": "/poem/wind-rising-alleys", "field_author": "<a href=\"/poet/lola-ridge\" hreflang=\"und\">Lola Ridge</a>", "field_date_published": "1920", "body": "<p><span><span><span><span><span><span>Wind rising in the alleys </span></span></span></span></span></span><br /><span><span><span><span><span><span>My spirit lifts in you like a banner </span></span></span></span></span></span><br /><span><span><span><span><span><span>\u00a0 Streaming free of hot walls.</span></span></span></span></span></span><br /><span><span><span><span><span><span>You are full of unspent dreams . . .</span></span></span></span></span></span><br /><span><span><span><span><span><span>You are laden with beginnings . . . </span></span></span></span></span></span><br /><span><span><span><span><span><span>There is hope in you . . . not sweet . . . </span></span></span></span></span></span><br /><span><span><span><span><span><span>\u00a0 \u00a0 acrid as blood in the mouth.</span></span></span></span></span></span><br /><span><span><span><span><span><span>Come into my tossing dust </span></span></span></span></span></span><br /><span><span><span><span><span><span>Scattering the peace of old deaths, </span></span></span></span></span></span><br /><span><span><span><span><span><span>Wind rising in the alleys </span></span></span></span></span></span><br /><span><span><span><span><span><span>Carrying stuff of flame. </span></span></span></span></span></span></p>\n"}, {"title": "In Summer Twilight ", "view_node": "/poem/summer-twilight", "field_author": "<a href=\"/poet/joshua-henry-jones-jr\" hreflang=\"en\">Joshua Henry Jones, Jr.</a>", "field_date_published": "1919", "body": "<p><span class=\"long-line\">Just a dash of lambent carmine </span><br /><span class=\"long-line\">\u00a0 Shading into sky of gold; </span><br /><span class=\"long-line\">Just a twitter of a song-bird</span><br /><span class=\"long-line\">\u00a0 Ere the wings its head enfold; </span><br /><span class=\"long-line\">Just a rustling sigh of parting</span><br /><span class=\"long-line\">\u00a0 From the moon-kissed hill to breeze;</span><br /><span class=\"long-line\">And a cheerful gentle, nodding</span><br /><span class=\"long-line\">\u00a0 Adieu waving from the trees; </span><br /><span class=\"long-line\">Just a friendly sunbeam\u2019s flutter</span><br /><span class=\"long-line\">\u00a0 Wishing all a night\u2019s repose, </span><br /><span class=\"long-line\">Ere the stars swing back the curtain</span><br /><span class=\"long-line\">\u00a0 Bringing twilight\u2019s dewy close.</span></p>\n"}, {"title": "Rememory", "view_node": "/poem/rememory", "field_author": "<a href=\"/poet/roya-marsh\" hreflang=\"en\">Roya Marsh </a>", "field_date_published": "2021", "body": "<p><span class=\"long-line\">\u00a0 \u00a0 \u00a0 \u00a0 \u00a0 \u00a0is the sound of me thinking</span><br /><span class=\"long-line\">in a language stolen from my</span><br /><span class=\"long-line\">ancestors. I can\u2019t tell you who the</span><br /><span class=\"long-line\">first slave in my family was, but we</span><br /><span class=\"long-line\">are the last. Descendants</span><br /><span class=\"long-line\">of the sun. Rye skinned</span><br /><span class=\"long-line\">and vibrant, wailing to</span><br /><span class=\"long-line\">a sailing tomb. We twist</span><br /><span class=\"long-line\">creoled tongues. Make English</span><br /><span class=\"long-line\">a song worth singing. You erase</span><br /><span class=\"long-line\">our history and call it freedom.</span><br /><span class=\"long-line\">Take our flesh and call it fashion.</span><br /><span class=\"long-line\">Swallow nations and call it</span><br /><span class=\"long-line\">humanity. We so savage</span><br /><span class=\"long-line\">we let you live.\u00a0</span><br /><span class=\"long-line\">\u00a0 \u00a0 \u00a0 \u00a0 \u00a0 \u00a0I can\u2019t tell you who the first slave</span><br /><span class=\"long-line\">in my family was, but we remember</span><br /><span class=\"long-line\">the bodies. \u00a0 Our bodies remember.</span><br /><span class=\"long-line\">We are their favorite melody. Beat</span><br /><span class=\"long-line\">into bucket. Broken</span><br /><span class=\"long-line\">into cardboard covered</span><br /><span class=\"long-line\">concrete. Shaken</span><br /><span class=\"long-line\">into Harlem. The getting over</span><br /><span class=\"long-line\">never begins, but there</span><br /><span class=\"long-line\">is always the get down. Our DNA</span><br /><span class=\"long-line\">sheet music humming</span><br /><span class=\"long-line\">at the bottom</span><br /><span class=\"long-line\">of the ocean.</span></p>\n"}, {"title": "Once upon a Black Imagination...", "view_node": "/poem/once-upon-black-imagination", "field_author": "<a href=\"/poet/natasha-marin\" hreflang=\"en\">Natasha Marin </a>", "field_date_published": "2021", "body": "<p>The space of Blackness represents safety because this is where everyone can finally belong. The clumsy fantasy of Whiteness has finally been moved off the stage and back into the audience after being muted for taking up too much space.</p>\n<p>People who previously believed they weren\u2019t Black because they never believed Black to be synonymous with \u201chuman\u2019\u2019 unlearn their antiblackness, upend the clumsy possum of their proxy privilege, back away from the hot trash of color-blind rhetoric and stop talking about the impossibility of walking a mile in the shoes of others. No one apologizes for being Black because Being Black is more of a \u201cyou\u2019re welcome\u201d situation.</p>\n<p>We are finally allowed to make mistakes and express our emotions and be as mediocre as we can allow ourselves to be. After 8 generations, we have forgotten the ways we now call \u201cdominant\u201d and make space for loving ourselves for no reason.</p>\n"}, {"title": "window on my part-time employer in the one building that was once two", "view_node": "/poem/window-my-part-time-employer-one-building-was-once-two", "field_author": "<a href=\"/poet/sheila-maldonado\" hreflang=\"en\">Sheila Maldonado</a>", "field_date_published": "2021", "body": "<p>i\u2019m writing to the building of writing that is continually giving us the boot. writing alone can\u2019t hold it up. i want to say writing created it, but it might have just assisted. and yet writing is its own building. writing extends the building. i\u2019m from a long line of building extenders, a line that was broken. that line can be broken. it can be outlawed and driven out of town, the word finding refuge in the mountain, the mouth, the memory. it can be fired and replaced, a thread erased. it can\u2019t all be put down. it rises up an ancestor told me. a few ancestors told me that. i will be an ancestor telling you to rise up. but as a present-day person I tend to lay there. i\u2019ve been thrust from the building of letters, syllables, characters. they\u2019re scattered and i lack the will to gather them. it is fine to lay among them. let them scramble. eventually i will get up and put them together again. it won\u2019t be like i imagined. it will be.</p>\n<p><strong>immediate post-script</strong><br />\n\u00a0<br />\nfor a minute there, my keyboard stopped working. i was talking about letters and they wouldn\u2019t come. i did not lay calmly. it was not a calm, it was a panic. i am wrong to say i could be so calm. i would fight for a while. i would fight to get back to the letter, to get back to the building, fight to make a new one.<br />\n\u00a0</p>\n"}, {"title": "from The Laceration", "view_node": "/poem/laceration", "field_author": "<a href=\"/poet/dawn-lundy-martin\" hreflang=\"und\">Dawn Lundy Martin</a>", "field_date_published": "2021", "body": "<p><span class=\"long-line\">As if the tender body is. As if the will is tender</span></p>\n\n<p><span class=\"long-line\">And like any creature that has its hood up, you</span></p>\n\n<p><span class=\"long-line\">take a photo of yourself in front of a window, rain</span></p>\n\n<p><span class=\"long-line\">so dark, the day/perspective so desired. You are so</span></p>\n\n<p><span class=\"long-line\">desperate for beautiful adventure, the lights shut off</span></p>\n\n<p><span class=\"long-line\">and the sweat of some hot stranger in your mouth. As if</span></p>\n\n<p><span class=\"long-line\">to say \u201cbefore\u201d is to enter a house filled with teenagers</span></p>\n\n<p><span class=\"long-line\">piled on top of each other. Did I tell you that it\u2019s raining?</span></p>\n\n<p><span class=\"long-line\">It\u2019s not hard to think that it\u2019s already night and necessary,</span></p>\n\n<p><span class=\"long-line\">how any green is a wild form, and lastly, I don\u2019t want to</span></p>\n\n<p><span class=\"long-line\">inspire devotion if it means the I becomes separated from the world.</span></p>\n\n<center>*\u00a0</center>\n\n<p><span class=\"long-line\">To travel into and out of place [\u2026] swift unnature of staying</span></p>\n\n<p><span class=\"long-line\">becomes a frequency [\u2026] you can no longer hear, the construct</span></p>\n\n<p><span class=\"long-line\">of happiness, for example, how we long for a heartbeat.</span></p>\n\n<p><span class=\"long-line\">Cement lot [\u2026] aching willow tree, our bodies [before] beneath</span></p>\n\n<p><span class=\"long-line\">splay, all sinew and glean, black drape and raw confidence. It\u2019s 1986</span></p>\n\n<p><span class=\"long-line\">and freedom is something inevitable, the way brown boys run</span></p>\n\n<p><span class=\"long-line\">shirtless, invisible siren roaring toward a fit mouth to bit it, O</span></p>\n\n<p><span class=\"long-line\">from saying lightness, from\u2014</span></p>\n\n<p><span class=\"long-line\">What is the opposite of devastation? Fruit? </span></p>\n"}, {"title": "preface to a traffic stop: sound", "view_node": "/poem/preface-traffic-stop-sound", "field_author": "<a href=\"/poet/randall-horton\" hreflang=\"en\">Randall Horton </a>", "field_date_published": "2021", "body": "<p>i always thought <em>sound</em> was meant to indicate a kinda genuine, authentic, absolute individuation, which struck me as <strong>A</strong>: undesirable\u2014&amp; <strong>B</strong>: damn near impossible. whereas sound was reality in the midst of this intense engagement with all the <em>sound</em> you ever heard. <em>sound</em> shaped within a climate inciting performance as black matter .or. anti matter, as in against. <em>sound</em> a central body of \u201csonic\u201d\u00a0whereas you struggle to make a difference, so to speak, within that <em>sound</em>\u2014&amp; that difference isn\u2019t necessarily about you as an individual but more simply trying to augment &amp; differentiate the <em>sound</em> around you getting closer &amp; closer to a never-ending where you are the proletariat in somebody else\u2019s melodrama as both spectacle and spectator\u2014as the drama unfolds\u2014hold\u2014hold on.</p>\n"}, {"title": "Upstream", "view_node": "/poem/upstream", "field_author": "<a href=\"/poet/carl-sandburg\" hreflang=\"und\">Carl Sandburg</a>", "field_date_published": "1922", "body": "<p><span class=\"long-line\">The strong men keep coming on.</span><br /><span class=\"long-line\">They go down shot, hanged, sick, broken.</span><br /><span class=\"long-line\">They live on fighting, singing, lucky as plungers.</span><br /><span class=\"long-line\">The strong mothers pulling them on..</span><br /><span class=\"long-line\">The strong mothers pulling them from a dark sea, a great prairie, a long mountain.</span><br /><span class=\"long-line\">Call hallelujah, call amen, call deep thanks.</span><br /><span class=\"long-line\">The strong men keep coming on.</span></p>\n"}, {"title": "Black Horizons", "view_node": "/poem/black-horizons-0", "field_author": "<a href=\"/poet/carl-sandburg\" hreflang=\"und\">Carl Sandburg</a>", "field_date_published": "1922", "body": "<p><span class=\"long-line\">Black horizons, come up.</span><br /><span class=\"long-line\">Black horizons, kiss me.</span><br /><span class=\"long-line\">That is all; so many lies; killing so cheap;</span><br /><span class=\"long-line\">babies so cheap; blood, people, so cheap; and</span><br /><span class=\"long-line\">land high, land dear; a speck of the earth</span><br /><span class=\"long-line\">costs; a suck at the tit of Mother Dirt so</span><br /><span class=\"long-line\">clean and strong, it costs; fences, papers,</span><br /><span class=\"long-line\">sheriffs; fences, laws, guns; and so many</span><br /><span class=\"long-line\">stars and so few hours to dream; such a big</span><br /><span class=\"long-line\">song and so little a footing to stand and</span><br /><span class=\"long-line\">sing; take a look; wars to come; red rivers</span><br /><span class=\"long-line\">to cross.</span><br /><span class=\"long-line\">Black horizons, come up.</span><br /><span class=\"long-line\">Black horizons, kiss me.</span></p>\n"}, {"title": "Sea Slant", "view_node": "/poem/sea-slant", "field_author": "<a href=\"/poet/carl-sandburg\" hreflang=\"und\">Carl Sandburg</a>", "field_date_published": "1922", "body": "<p><span class=\"long-line\">On up the sea slant,</span><br /><span class=\"long-line\">On up the horizon,</span><br /><span class=\"long-line\">This ship limps.</span></p>\n<p><span class=\"long-line\">The bone of her nose fog-gray,</span><br /><span class=\"long-line\">The heart of her sea-strong,</span><br /><span class=\"long-line\">She came a long way,</span><br /><span class=\"long-line\">She goes a long way.</span></p>\n<p><span class=\"long-line\">On up the horizon,</span><br /><span class=\"long-line\">On up the sea-slant,</span><br /><span class=\"long-line\">She limps sea-strong, fog-gray.</span></p>\n<p><span class=\"long-line\">She is a green-lit night gray.</span><br /><span class=\"long-line\">She comes and goes in sea fog.</span><br /><span class=\"long-line\">Up the horizon slant she limps.</span></p>\n"}, {"title": "July", "view_node": "/poem/july-0", "field_author": "<a href=\"/poet/henrietta-cordelia-ray\" hreflang=\"en\">Henrietta Cordelia Ray</a>", "field_date_published": "1910", "body": "<p><span class=\"long-line\">Sunshine and shadow play amid the trees</span><br /><span class=\"long-line\">In bosky groves, while from the vivid sky</span><br /><span class=\"long-line\">The sun\u2019s gold arrows fleck the fields at noon, </span><br /><span class=\"long-line\">\u00a0 \u00a0 \u00a0 Where weary cattle to their slumber hie.</span><br /><span class=\"long-line\">How sweet the music of the purling rill, </span><br /><span class=\"long-line\">Trickling adown the grassy hill! </span><br /><span class=\"long-line\">While dreamy fancies come to give repose</span><br /><span class=\"long-line\">When the first star of evening glows.</span></p>\n"}, {"title": "The Cottonwood People", "view_node": "/poem/cottonwood-people", "field_author": "<a href=\"/poet/melissa-kwasny\" hreflang=\"und\">Melissa Kwasny</a>", "field_date_published": "2017", "body": "<p><span class=\"long-line\">Faint. Uncombed. Awash in rain.</span><br /><span class=\"long-line\">They share the kind of beauty shared by older women.</span></p>\n<p><span class=\"long-line\">Rhapsody in wind. Buds,</span><br /><span class=\"long-line\">not leaves: the small greens crowding up behind them.</span></p>\n<p><span class=\"long-line\">Music, if one could see it, its wicker, its cursive strain.</span><br /><span class=\"long-line\">Spruce, which has the heavier sails, flapping. </span></p>\n<p><em><span class=\"long-line\">You are everything you feel beside the river.</span></em><br /><span class=\"long-line\">Through the silver-paned bark, the diamond pores of</span></p>\n<p><span class=\"long-line\">sloughed off skin. If I saw my soul, she would be this tree,</span><br /><span class=\"long-line\">and I would love her.</span></p>\n<p><span class=\"long-line\">Placing stops between the strings, a composer</span><br /><span class=\"long-line\">warps the score though making noise is never the intention.</span></p>\n<p><span class=\"long-line\">One can draw anything on paper and ask a musician to play it.</span><br /><span class=\"long-line\">For instance, a violinist known for her sheer nerves.</span></p>\n<p><span class=\"long-line\">It is good to be cold, to remember cold. Hushed by rain,</span><br /><span class=\"long-line\">to be ordained in a dry place. Suppleness of the word \u201cposture.\u201d</span></p>\n<p><span class=\"long-line\">By the time my friend received the diagnosis, she was no longer</span><br /><span class=\"long-line\">prepared to accept it\u2014</span></p>\n<p><span class=\"long-line\">\u00a0 \u00a0 \u00a0 \u00a0 \u00a0 \u00a0 \u00a0 \u00a0 \u00a0 \u00a0 \u00a0 \u00a0an afterimage shot with stores of pollen.</span></p>\n"}, {"title": "Good Night", "view_node": "/poem/good-night-0", "field_author": "<a href=\"/poet/carl-sandburg\" hreflang=\"und\">Carl Sandburg</a>", "field_date_published": "1921", "body": "<p><span class=\"long-line\">Many ways to spell\u00a0good night. </span></p>\n<p><span class=\"long-line\">Fireworks at a pier on the Fourth of July </span><br /><span class=\"long-line\">\u00a0 \u00a0 \u00a0 \u00a0 spell it with red wheels and yellow spokes. </span><br /><span class=\"long-line\">They fizz in the air, touch the water and quit. </span><br /><span class=\"long-line\">Rockets make a trajectory of gold-and-blue </span><br /><span class=\"long-line\">\u00a0 \u00a0 \u00a0 \u00a0 and then go out. </span></p>\n<p><span class=\"long-line\">Railroad trains at night spell with a smokestack</span><br /><span class=\"long-line\">\u00a0 \u00a0 \u00a0 \u00a0 mushrooming a white pillar. </span></p>\n<p><span class=\"long-line\">Steamboats turn a curve in the Mississippi crying</span><br /><span class=\"long-line\">\u00a0 \u00a0 \u00a0 \u00a0 in a baritone that crosses lowland cottonfields</span><br /><span class=\"long-line\">\u00a0 \u00a0 \u00a0 \u00a0 to a razorback hill. </span></p>\n<p><span class=\"long-line\">It is easy to spell good night. </span><br /><span class=\"long-line\">\u00a0 \u00a0 \u00a0 \u00a0 \u00a0 \u00a0 \u00a0 \u00a0 \u00a0 \u00a0 \u00a0 \u00a0 \u00a0 \u00a0 \u00a0 \u00a0 \u00a0 \u00a0 \u00a0Many ways to spell good night. </span></p>\n"}, {"title": "remedies I", "view_node": "/poem/remedies-i", "field_author": "<a href=\"/poet/san-d-henry-smith\" hreflang=\"en\">S*an D. Henry Smith</a>", "field_date_published": "2021", "body": "<p><span class=\"long-line\">what can I know of this life but what it cost me? pretending to </span><br /><span class=\"long-line\">love these patterns of negotiation, pretending the Doubleworld </span><br /><span class=\"long-line\">was acceptable\u2014the Skin beneath the Skin made Hell of our Hell, </span><br /><span class=\"long-line\">the Source from which the Source draws rectifies its embellishment, </span><br /><span class=\"long-line\">reifies its abandon. Another way: in a room filled w/ overturned </span><br /><span class=\"long-line\">bottles, the ceiling fan turns, knowing not the relief it provides, </span><br /><span class=\"long-line\">but damns w/ its clicking; we lie awake at night wondering would </span><br /><span class=\"long-line\">it be better to sweat out our sheets, turn the thing off. we remember </span><br /><span class=\"long-line\">stillness as we enact it, hoping to quiet our body as to cool it.</span><br /><span class=\"long-line\"><span style=\"float:right\">&amp; briefly </span><br /><span class=\"long-line\">I recall how slowly Granny eat, I see her in her dining room chair.</span></span></p>\n"}, {"title": "What he thought belly down, when I was 8 years old", "view_node": "/poem/what-he-thought-belly-down-when-i-was-8-years-old", "field_author": "<a href=\"/poet/duriel-e-harris\" hreflang=\"en\">Duriel E. Harris</a>", "field_date_published": "2021", "body": "<p>What he thought belly down, face down on the beige speckled tile floor, new wax, drill holes where desks had been anchored. Of the shield-thick hovering air. He could be a ribbon of wax, a thin trail of caulk. Something left over above his breath and heart sounds he could hear waiting like a hymn and pipe organs\u2019 stop just before release.</p>\n\n<p>What he thought belly down, face down on the ice sliding between cars toward the gutter. Of the rifle smug and steady at his forehead and jittery sawed-off rushing his wife for her wedding rings. Of the streetlight shadow. The hydrant hunched in the snow-crusted grass. The salted walk. His little girl mid-step on the porch and the wrought iron storm door and front door ajar.</p>\n\n<p><span class=\"long-line\">When I was 8 years old I thought my father was a monster.</span><br /><span class=\"long-line\">When I was 8 years old I thought my father could fly.</span><br /><span class=\"long-line\">When I was 8 years old I thought my father was a dark room</span><br /><span class=\"long-line\">In a dark house with walls of eyes and teeth and banisters of thick rough skin.</span><br /><span class=\"long-line\">The rooms around him were also monsters and they were tall</span><br /><span class=\"long-line\">As telephone poles with flesh of kerosene and black fire.</span><br /><span class=\"long-line\">Their arms were always open and they surrounded my father,</span><br /><span class=\"long-line\">Keeping him warm for as long as he chose to stand on the earth</span><br /><span class=\"long-line\">Watching me.</span></p>\n"}, {"title": "Born. Living. Will. Die.", "view_node": "/poem/born-living-will-die", "field_author": "<a href=\"/poet/camonghne-felix\" hreflang=\"en\">Camonghne Felix</a>", "field_date_published": "2021", "body": "<blockquote><sup><em>for my favorite auntie, Jeanette</em></sup></blockquote>\n\n<p><span class=\"long-line\"><span class=\"long-line\">Sometimes I think I\u2019m never going to write a poem again</span><br /><span class=\"long-line\">and then there\u2019s a full moon.</span></span></p>\n\n<p>I miss being in love but I miss<br /><span class=\"long-line\">myself most when I\u2019m gone.</span></p>\n\n<p><span class=\"long-line\">In the salty wet air of my ancestry</span><br /><span class=\"long-line\">my auntie peels a mango with her teeth</span></p>\n\n<p><span class=\"long-line\">and I\u2019m no longer</span><br /><span class=\"long-line\">writing political poems; because there are</span></p>\n\n<p><span class=\"long-line\">mangoes and my favorite memory is still alive.</span><br /><span class=\"long-line\">I\u2019m digging for meaning but haunted by purpose</span></p>\n\n<p><span class=\"long-line\">and it\u2019s an insufficient approach.</span><br /><span class=\"long-line\">What\u2019s the margin of loss on words not spent today?</span></p>\n\n<p><span class=\"long-line\">I\u2019m getting older. I\u2019m buying smaller images to travel light.</span><br /><span class=\"long-line\">I wake up, I light up, I tidy, and it\u2019s all over now.</span></p>\n"}], "pager": {"current_page": 68, "total_items": "13248", "total_pages": 663, "items_per_page": 20}}