{"rows": [{"title": "The Difference between a Child and a Poem", "view_node": "/poem/difference-between-child-and-poem", "field_author": "<a href=\"/poet/michael-blumenthal\" hreflang=\"und\">Michael Blumenthal</a>", "field_date_published": "1992", "body": " <pre>\nIf you are terrified of your own death,\nand want to escape from it,\nyou may want to write a poem,\nfor the poem might carry your name\ninto eternity, the poem\nmay become immortal, beyond flesh\nand fashion, it may be read\nin a thousand years by someone\nas frightened of death as you are,\nin a dark field, at night,\nwhen he has failed once again at love\nand there is no illusion with which to escape\nthe inward pull of his own flesh\nagainst the narrowing margins of the spirit.\n\nBut if you have accepted your own death,\nif you have pinched daily the corroborating flesh,\nand have passed the infinite gravestones\nbearing your name, if you know for certain\nthat the day will one day come\nwhen you will gaze into the mirror in search of your face\nand find only a silence, then\nyou may want to make a child, you may want to push\nthe small oracles of flesh forward\ninto some merely finite but lengthening story,\nyou may want to toss your seed into the wind\nlike a marigold, or a passion fruit, and watch\nas a fresh flower grows in your place, as your face\ninches onto another face, and your eyes\nslip down over your cheeks onto the forehead\nof your silenced, speakable future.\n\nAnd, then, when you are done with all that,\nyou may want to write a poem.</pre>\n "}, {"title": "United Jewish Appeal", "view_node": "/poem/united-jewish-appeal", "field_author": "<a href=\"/poet/michael-blumenthal\" hreflang=\"und\">Michael Blumenthal</a>", "field_date_published": "1992", "body": " <pre>\nMy grandmother was eighty-nine and blind\nand I was a young boy hungry for quarters,\nso, in the waning light\nof Sunday afternoons, my parents gone,\nI would ring the doorbell\n(my friend Raymond smirking\nfrom behind the stairwell) and listen\nfor the slow shuffle of slippers\nin the hall, the soft thump\nof her body against the closet.\n\nShe would come to the door,\nmy parakeet Jerry trapped in her hairnet,\nstammering a \"Who's there?\" in minimal English,\nbetween the chain and the doorjamb,\nand, without hesitancy or shame,\nin a cracked, mock-Hassidic voice,\nI'd answer: \"United Jewish Appeal,\"\nswaying my hand, like a small plane\nmoving over an airstrip, toward her.\n\nShe would open the door\u2014tentative,\ntimid, charity having won out over terror\u2014\nand reach a palm out into the hallway,\nthe way she reached out under the candles\nto bless me on Sabbath. \"My daughter . . .\"\nshe would stammer, \"she is not home now,\"\npoking her eyes like Borges into the vastness.\nA better heart than mine was\nmight have stopped there, but I was a boy\nravenous for malteds and baseball cards,\nso I repeated the words of my small litany,\n\"United Jewish Appeal,\" and reached my hand out again\nuntil it almost touched the blue print of her smock.\n\nAll the while my parakeet sat there,\ndropping small coils of bird shit onto her hair\nuntil she retreated again down the long yellow hallway,\nreading the braille of the walls\nwith her hands. And I would wink\nat my good friend Raymond behind the stairwell\nwhen the rattle of change clanged out\nfrom my parents' bedroom, and we heard again\nthe slow sweep of her feet, and, at last,\nthe shiny fruits of cleverness and hunger\nfell into my palm, and my grandmother Johanna,\nthe parakeet still flapping like a crazed duck\nin her hairnet, closed the door behind her,\nleaving me and my friend Raymond\nto frolic off into the sun-licked,\nagnostic streets of Washington Heights,\nfull of the love of grandmothers\nand of change, forever singing the praises\nof the United Jewish Appeal.</pre>\n "}, {"title": "At a Window", "view_node": "/poem/window", "field_author": "", "field_date_published": "", "body": ""}, {"title": "The Indications [excerpt]", "view_node": "/poem/indications-excerpt", "field_author": "<a href=\"/poet/walt-whitman\" hreflang=\"und\">Walt Whitman</a>", "field_date_published": "1900", "body": "<p><span class=\"long-line\">The words of the true poems give you more than poems, </span><br /><span class=\"long-line\">They give you to form for yourself, poems, religions, politics, war, peace, behavior, histories, essays, romances, and everything else, </span><br /><span class=\"long-line\">They balance ranks, colors, races, creeds, and the sexes,</span><br /><span class=\"long-line\">They do not seek beauty\u2014they are sought, </span><br /><span class=\"long-line\">Forever touching them, or close upon them, follows beauty, longing, fain, love-sick. </span></p>\n\n<p><span class=\"long-line\">They prepare for death\u2014yet are they not the finish, but rather the outset, </span><br /><span class=\"long-line\">They bring none to his or her terminus, or to be content and full; </span><br /><span class=\"long-line\">Whom they take, they take into space, to behold the birth of stars, to learn one of the meanings,</span><br /><span class=\"long-line\">To launch off with absolute faith\u2014to sweep through the ceaseless rings, and never be quiet again.</span></p>\n"}, {"title": "The Outlet (162)", "view_node": "/poem/outlet-162", "field_author": "<a href=\"/poet/emily-dickinson\" hreflang=\"und\">Emily Dickinson</a>", "field_date_published": "1860", "body": " <pre>\nMy river runs to thee:  \nBlue sea, wilt welcome me?  \n   \nMy river waits reply.  \nOh sea, look graciously!  \n   \nI'll fetch thee brooks\nFrom spotted nooks,\u2014  \n   \nSay, sea,  \nTake me!</pre>\n "}, {"title": "The Pasture", "view_node": "/poem/pasture", "field_author": "<a href=\"/poet/robert-frost\" hreflang=\"und\">Robert Frost</a>", "field_date_published": "1915", "body": " <pre>\nI'm going out to clean the pasture spring;  \nI'll only stop to rake the leaves away  \n(And wait to watch the water clear, I may):  \nI sha'n't be gone long.\u2014You come too.  \n  \nI'm going out to fetch the little calf\nThat's standing by the mother. It's so young,  \nIt totters when she licks it with her tongue.  \nI sha'n't be gone long.\u2014You come too.</pre>\n "}, {"title": "Afternoon on a Hill", "view_node": "/poem/afternoon-hill", "field_author": "<a href=\"/poet/edna-st-vincent-millay\" hreflang=\"und\">Edna St. Vincent Millay</a>", "field_date_published": "1917", "body": "<p><span class=\"long-line\">I will be the gladdest thing</span><br /><span class=\"long-line\">\u00a0\u00a0\u00a0\u00a0Under the sun!</span><br /><span class=\"long-line\">I will touch a hundred flowers</span><br /><span class=\"long-line\">\u00a0\u00a0\u00a0\u00a0And not pick one.</span></p>\n\n<p><span class=\"long-line\">I will look at cliffs and clouds</span><br /><span class=\"long-line\">\u00a0\u00a0\u00a0\u00a0With quiet eyes,</span><br /><span class=\"long-line\">Watch the wind bow down the grass,</span><br /><span class=\"long-line\">\u00a0\u00a0\u00a0\u00a0And the grass rise.</span></p>\n\n<p><span class=\"long-line\">And when lights begin to show</span><br /><span class=\"long-line\">\u00a0\u00a0\u00a0\u00a0Up from the town,</span><br /><span class=\"long-line\">I will mark which must be mine,</span><br /><span class=\"long-line\">\u00a0\u00a0\u00a0\u00a0And then start down!</span></p>\n"}, {"title": "Eletelephony", "view_node": "/poem/eletelephony", "field_author": "<a href=\"/poet/laura-elizabeth-richards\" hreflang=\"und\">Laura Elizabeth Richards</a>", "field_date_published": "1932", "body": "<p><span class=\"long-line\">Once there was an elephant,</span><br /><span class=\"long-line\">Who tried to use the telephant\u2014</span><br /><span class=\"long-line\">No! No! I mean an elephone</span><br /><span class=\"long-line\">Who tried to use the telephone\u2014</span><br /><span class=\"long-line\">(Dear me! I am not certain quite</span><br /><span class=\"long-line\">That even now I've got it right.)</span><br /><span class=\"long-line\">Howe'er it was, he got his trunk</span><br /><span class=\"long-line\">Entangled in the telephunk;</span><br /><span class=\"long-line\">The more he tried to get it free,</span><br /><span class=\"long-line\">The louder buzzed the telephee\u2014</span><br /><span class=\"long-line\">(I fear I'd better drop the song</span><br /><span class=\"long-line\">Of elephop and telephong!)</span></p>\n"}, {"title": "The Tree", "view_node": "/poem/tree", "field_author": "<a href=\"/poet/alfred-kreymborg\" hreflang=\"und\">Alfred Kreymborg</a>", "field_date_published": "1916", "body": " <pre>\nI am four monkeys.\nOne hangs from a limb,\ntail-wise,\nchattering at the earth;\nanother is cramming his belly with cocoanut;\nthe third is up in the top branches,\nquizzing the sky,\nand the fourth\u2014\nhe's chasing another monkey.\nHow many monkeys are you?</pre>\n "}, {"title": "Crocus", "view_node": "/poem/crocus", "field_author": "<a href=\"/poet/alfred-kreymborg\" hreflang=\"und\">Alfred Kreymborg</a>", "field_date_published": "1933", "body": "<p><span class=\"long-line\">When trees have lost remembrance of the leaves</span><br /><span class=\"long-line\">that spring bequeaths to summer, autumn weaves</span><br /><span class=\"long-line\">and loosens mournfully\u2014this dirge, to whom</span><br /><span class=\"long-line\">does it belong\u2014who treads the hidden loom?</span></p>\n\n<p><span class=\"long-line\">When peaks are overwhelmed with snow and ice,</span><br /><span class=\"long-line\">and clouds with crepe bedeck and shroud the skies\u2014 </span><br /><span class=\"long-line\">nor any sun or moon or star, it seems,</span><br /><span class=\"long-line\">can wedge a path of light through such black dreams\u2014 </span></p>\n\n<p><span class=\"long-line\">All motion cold, and dead all traces thereof:</span><br /><span class=\"long-line\">What sudden shock below, or spark above,</span><br /><span class=\"long-line\">starts torrents raging down till rivers surge\u2014 </span><br /><span class=\"long-line\">that aid the first small crocus to emerge?</span></p>\n\n<p><span class=\"long-line\">The earth will turn and spin and fairly soar,</span><br /><span class=\"long-line\">that couldn't move a tortoise-foot before\u2014 </span><br /><span class=\"long-line\">and planets permeate the atmosphere</span><br /><span class=\"long-line\">till misery depart and mystery clear!\u2014 </span></p>\n\n<p><span class=\"long-line\">And yet, so insignificant a hearse?\u2014 </span><br /><span class=\"long-line\">who gave it the endurance so to brave</span><br /><span class=\"long-line\">such elements?\u2014shove winter down a grave?\u2014 </span><br /><span class=\"long-line\">and then lead on again the universe?</span></p>\n"}, {"title": "The Good Moolly Cow [excerpt]", "view_node": "/poem/good-moolly-cow-excerpt", "field_author": "<a href=\"/poet/eliza-lee-follen\" hreflang=\"und\">Eliza Lee Follen</a>", "field_date_published": "1832", "body": " <pre>\nCome! supper is ready;\n   Come! boys and girls, now,\nFor here is fresh milk\n   From the good moolly cow.\n\nHave done with your fife,\n   And your row de dow dow,\nAnd taste this sweet milk\n   From the good moolly cow.\n\nWhoever is fretting\n   Must clear up his brow,\nOr he'll have no milk\n   From the good moolly cow.\n\nWhen children are hungry,\n   O, who can tell how\nThey love the fresh milk\n   From the good moolly cow!\n\nSo, when you meet moolly,\n   Just say, with a bow,\n\"Thank you for your milk,\n   Mrs. Good Moolly Cow.\"</pre>\n "}, {"title": "Window", "view_node": "/poem/window-0", "field_author": "<a href=\"/poet/carl-sandburg\" hreflang=\"und\">Carl Sandburg</a>", "field_date_published": "1916", "body": "<p><span class=\"long-line\">Night from a railroad car window</span><br /><span class=\"long-line\">Is a great, dark, soft thing</span><br /><span class=\"long-line\">Broken across with slashes of light.</span></p>\n"}, {"title": "The Sun-Dial", "view_node": "/poem/sun-dial", "field_author": "<a href=\"/poet/adelaide-crapsey\" hreflang=\"und\">Adelaide Crapsey</a>", "field_date_published": "1915", "body": " <pre>\nEvery day, \nEvery day, \nTell the hours \nBy their shadows, \nBy their shadows.</pre>\n "}, {"title": "Blue Dementia", "view_node": "/poem/blue-dementia", "field_author": "<a href=\"/poet/yusef-komunyakaa\" hreflang=\"und\">Yusef Komunyakaa</a>", "field_date_published": "2011", "body": " <pre>\nIn the days when a man\nwould hold a swarm of words\ninside his belly, nestled\nagainst his spleen, singing.\n\nIn the days of night riders\nwhen life tongued a reed\ntill blues &amp; sorrow song\ncalled out of the deep night:\nAnother man done gone.\nAnother man done gone.\n\nIn the days when one could lose oneself\nall up inside love that way,\n&amp; then moan on the bone\ntill the gods cried out in someone's sleep.\n\nToday,\nalready I've seen three dark-skinned men\ndiscussing the weather with demons\n&amp; angels, gazing up at the clouds\n&amp; squinting down into iron grates\nalong the fast streets of luminous encounters.\n\nI double-check my reflection in plate glass\n&amp; wonder, Am I passing another\nLucky Thompson or Marion Brown\ncornered by a blue dementia,\nanother dark-skinned man\nwho woke up dreaming one morning\n&amp; then walked out of himself\ndreaming? Did this one dare\nto step on a crack in the sidewalk,\nto turn a midnight corner &amp; never come back\nwhole, or did he try to stare down a look\nthat shoved a blade into his heart?\nI mean, I also know something\nabout night riders &amp; catgut. Yeah,\nhoney, I know something about talking with ghosts.</pre>\n "}, {"title": "On Anti-Biography", "view_node": "/poem/anti-biography", "field_author": "<a href=\"/poet/will-alexander\" hreflang=\"und\">Will Alexander</a>", "field_date_published": "2011", "body": " <p>For me, biography is a lantern, burning in the midst of parenthetical opaqueness. In a sense, it is a ruse, a phantasmic meandering, brighter or dimmer, according to the ecletic happenstance of terror.</p><p>Me, I've been sired in anomaly, in an imagery of brewing grenadine riddles, a parallel poesis spawned from curious seismographic molten. I say curious, because the original stalking arc has disappeared into the wilderness of an a priori blizzard, which gives birth to a level, like a portal of fire conjoined with the lightning field of mystery. I call it the poetic guardian dove, the hieratic alien wing.</p><p>It is the non-local field, the non-particle acid, flowing into my cognitive iodine rays, into the vicious fires of my tarantella marshes. So I dance with vibration, with the solar arc spinning backward around the miraculous force of a double green horizon. Simultaneously, I escape the territorial, while remaining within the burning loops of my own momentary seizures, guarded by ferns, legs plowing land, the face and the mind guided by stars.</p><p>So, I am a martyr of drills, of spates of specific lingual flooding, casting at times, a mist or a mirage, like a caravan of yaks, transporting tungsten and water. Conversely, to give a graph of dates, to single out a bevy of personal social lesions, would invert me, would turn me around a diurnal bundle of glass, staggered, with a less than fiery temperature, partially nulling my sensitivity to falling phonemic peppers, to the inclination towards victory which burns in the dawn above heaven. For me, this is the green locale, the pleroma of eternal solar essence, glinting, full of fabulous maelstrom diamonds, an empowered hegira of drift, of claustrophobic rainbow spectrums which empty themselves, and return to themselves, like having an image go out and return to itself, so that its power transmutes by the very energy of its looping; and I think of myself, the poet sending signals into mystery, and having them return to me with oneiric wings and spirals, so much so, that I forget my prosaic locale with its stultifying anchors, with its familial dotage and image reports, with its dates inscribed in trapezoidal faces. I am only concerned with simultaneity and height, with rays of monomial kindling, guiding the neo-cortex through ravens, into the ecstasy of x-rays and blackness.</p> "}, {"title": "Night School", "view_node": "/poem/night-school", "field_author": "<a href=\"/poet/micah-ballard\" hreflang=\"und\">Micah  Ballard</a>", "field_date_published": "2011", "body": " <pre>\nOff hours\nI inhabit a roll top desk\n&amp; read in waves to let the voices war\ndead names ignited with a pilot\nthe brightest ones  \nare stars of the same order\nhard looks that fall apart on entrance\nI can never see their faces\nbut the music stays there\na wheezing organ\n&amp; my last debt to high society\npublic crypts that greet you with a smirk\none diamond one heart\nthe perfect setting for a silent movie\nI feel caught by the hours dragging\n&amp; bluff it out with a few notions of my own\nthe smell of tuberoses \nstarving for a shoulder\njust enough all these sheets &amp; ruffles\nthere aren't many sonnets like that anymore\nprecise arrangement, contrasts &amp; relief\na fugitive appreciation\nlearning to hold one's own\nyou practice for years &amp; make a pact on instinct\nto surrender it all\nentire constellations accomplished in nuance\nthen notice another typo\nthe consignment of the keys\nthe last monument to this living hand.</pre>\n "}, {"title": "Untitled", "view_node": "/poem/untitled-0", "field_author": "<a href=\"/poet/david-meltzer\" hreflang=\"und\">David Meltzer</a>", "field_date_published": "2011", "body": "<p><span class=\"long-line\">Art's desire to get it all said</span><br /><span class=\"long-line\">to all who thought him dead</span><br /><span class=\"long-line\">in the joint &amp; beside the point</span></p>\n\n<p><span class=\"long-line\">Art's struggle to sing it all</span><br /><span class=\"long-line\">through jazz warfare &amp; tell</span><br /><span class=\"long-line\">everything he knew in brass</span><br /><span class=\"long-line\">speed rap stir crazy utopia</span><br /><span class=\"long-line\">of muscle chops push it in your face</span><br /><span class=\"long-line\">rough unrelenting grace</span></p>\n\n<p><span class=\"long-line\">fierce Art pitbull clamps down</span><br /><span class=\"long-line\">pulls edges out in time to break through</span><br /><span class=\"long-line\">scream knotty beauty</span><br /><span class=\"long-line\">toe to toe w/ any joe</span><br /><span class=\"long-line\">who thinks they know better</span></p>\n\n<p><span class=\"long-line\">Art tattoos blue needles into moonlight skin</span><br /><span class=\"long-line\">junk light makes mirrors perfect</span></p>\n\n<p><span class=\"long-line\">Art's smoke aches out of wounds</span></p>\n\n<p><span class=\"long-line\">L.A. Art burritos &amp; bebop</span><br /><span class=\"long-line\">black guacamole serge zoots</span><br /><span class=\"long-line\">Central Avenue cat copping</span></p>\n\n<p><span class=\"long-line\">Pepper at Club Alabam</span><br /><span class=\"long-line\">in Lee Young's band</span><br /><span class=\"long-line\">all the chicks &amp; the hatcheck chick</span><br /><span class=\"long-line\">have big eyes for Art's horn</span></p>\n"}, {"title": "Speedway", "view_node": "/poem/speedway", "field_author": "<a href=\"/poet/cedar-sigo\" hreflang=\"und\">Cedar  Sigo</a>", "field_date_published": "2011", "body": " <pre>\nI cut out the \"Heart with Snowflake\"\nMyself but it is not mine, Forget\nThis bloody coat bloody shirt, I\nThink it is the writing that makes\nMe sick, The scores and scores of\nIncidental music, this nosebleed all\nSpring all wet, I'm positively angry\nwith the Impertinence of it! I'm\nSewing up the kinks in this film, I'm\nTrying to! I'm trying to burn a light\nBetween, There's a light and I cable\nmy voice on it but it rips when I trace\nAnything! WORKS ON PAPER, THE SHIP\nOF DEATH \"Oh build it!\" Sings the \nHeart, \"My coat would be so bloodied\nI could wiggle out of my coat!\"\n\n\n\u00a0\u00a0\u00a0\u00a0\u00a0\u00a0\u00a0\u00a0\u00a0\u00a0\u00a0\u00a0\u00a0\u00a0\u00a0\u00a0\u00a0\u00a0\u00a0\u00a0\u00a0\u00a0\u00a0\u00a0\u00a0\u2013 for John Wieners </pre>\n "}, {"title": "The Needle", "view_node": "/poem/needle", "field_author": "<a href=\"/poet/jennifer-grotz\" hreflang=\"und\">Jennifer  Grotz</a>", "field_date_published": "2011", "body": " <pre>\n\u00a0\u00a0\u00a0\u00a0\u00a0\u00a0\u00a0\u00a0\"When your eyes have done their part, \n\u00a0\u00a0\u00a0\u00a0\u00a0\u00a0\u00a0\u00a0Thought must length it in the heart.\"\n\u00a0\u00a0\u00a0\u00a0\u00a0\u00a0\u00a0\u00a0\u00a0\u00a0\u00a0\u2014Samuel Daniel\n\n \n. . . Thought lengths it, pulls \nan invisible world through \na needle's eye \none detail at a time,\n\nbeginning with \nthe glint of blond down \non his knuckle as he \n\u00a0\u00a0\u00a0\u00a0\u00a0\u00a0\u00a0\u00a0\u00a0\u00a0\u00a0\u00a0\u00a0\u00a0\u00a0\u00a0\u00a0\u00a0\u00a0\u00a0\u00a0\u00a0\u00a0\u00a0\u00a0\u00a0\u00a0\u00a0\u00a0\u00a0crushed a spent cigarette\u2014\n\nI can see that last strand of smoke \nescaping in a tiny gasp\u2014above the table where \t\na bee fed thoughtfully \n\u00a0\u00a0\u00a0\u00a0\u00a0\u00a0\u00a0\u00a0\u00a0\u00a0\u00a0\u00a0\u00a0\u00a0\u00a0\u00a0\u00a0\u00a0\u00a0\u00a0\u00a0\u00a0\u00a0\u00a0\u00a0\u00a0\u00a0\u00a0\u00a0\u00a0\u00a0from a bowl of sugar.\n\nWorld of shadows! where \nhis thumb lodged into \nthe belly of an apple, \n\u00a0\u00a0\u00a0\u00a0\u00a0\u00a0\u00a0\u00a0\u00a0\u00a0\u00a0\u00a0\u00a0\u00a0\u00a0\u00a0\u00a0\u00a0\u00a0\u00a0\u00a0\u00a0\u00a0\u00a0\u00a0\u00a0\u00a0\u00a0\u00a0\u00a0then split it in two, \n\nreleasing the scent that exists \nonly in late summer\u2019s apples\nas we bit into \n\u00a0\u00a0\u00a0\u00a0\u00a0\u00a0\u00a0\u00a0\u00a0\u00a0\u00a0\u00a0\u00a0\u00a0\u00a0\u00a0\u00a0\u00a0\u00a0rough halves flooded with juice.\n\nMemory meticulously stitches \nthe market square \nwhere stalls of fruit \n\u00a0\u00a0\u00a0\u00a0\u00a0\u00a0\u00a0\u00a0\u00a0\u00a0\u00a0\u00a0\u00a0\u00a0\u00a0\u00a0\u00a0\u00a0\u00a0\u00a0\u00a0\u00a0\u00a0\u00a0\u00a0\u00a0\u00a0ripened in the heat. \n\nStitches the shadows stretched and \npulled across the ground by \nthe crowds pigeons \n\u00a0\u00a0\u00a0\u00a0\u00a0\u00a0\u00a0\u00a0\u00a0\u00a0\u00a0\u00a0\u00a0\u00a0\u00a0\u00a0\u00a0\u00a0\u00a0\u00a0\u00a0\u00a0\u00a0\u00a0\u00a0\u00a0\u00a0seemed to mimic \n \nin their self-important \nbut not quite purposeful \nstrutting, \n\u00a0\u00a0\u00a0\u00a0\u00a0\u00a0\u00a0\u00a0\u00a0\u00a0\u00a0\u00a0singly and in droves. \n\nStitches the unraveling \nworld where \nonly vendors and policemen \n\u00a0\u00a0\u00a0\u00a0\u00a0\u00a0\u00a0\u00a0\u00a0\u00a0\u00a0\u00a0\u00a0\u00a0\u00a0\u00a0\u00a0\u00a0\u00a0\u00a0stood in place.</pre>\n "}, {"title": "The Things", "view_node": "/poem/things", "field_author": "<a href=\"/poet/donald-hall\" hreflang=\"und\">Donald Hall</a>", "field_date_published": "2011", "body": " <pre>\nWhen I walk in my house I see pictures,\nbought long ago, framed and hanging\n\u2014de Kooning, Arp, Laurencin, Henry Moore\u2014\nthat I've cherished and stared at for years,\nyet my eyes keep returning to the masters \nof the trivial\u2014a white stone perfectly round, \ntiny lead models of baseball players, a cowbell, \na broken great-grandmother's rocker,\na dead dog's toy\u2014valueless, unforgettable \ndetritus that my children will throw away\nas I did my mother's souvenirs of trips \nwith my dead father, Kodaks of kittens, \nand bundles of cards from her mother Kate.</pre>\n "}], "pager": {"current_page": 468, "total_items": "13248", "total_pages": 663, "items_per_page": 20}}