{"rows": [{"title": "One Child Has Brown Eyes", "view_node": "/poem/one-child-has-brown-eyes", "field_author": "<a href=\"/poet/marilyn-chin\" hreflang=\"und\">Marilyn Chin</a>", "field_date_published": "2010", "body": " <pre>\nOne child has brown eyes, one has blue\nOne slanted, another rounded\nOne so nearsighted he squints internal \nOne had her extra epicanthic folds removed\nOne downcast, one couldn't be bothered\nOne roams the heavens for a perfect answer\nOne transfixed like a dead doe, a convex mirror\nOne shines double-edged like a poisoned dagger\nUnderstand their vision, understand their blindness\nUnderstand their vacuity, understand their mirth</pre>\n "}, {"title": "The Ear is an Organ Made for Love", "view_node": "/poem/ear-organ-made-love", "field_author": "<a href=\"/poet/e-ethelbert-miller\" hreflang=\"und\">E. Ethelbert Miller</a>", "field_date_published": "2010", "body": " <p>\u00a0\u00a0\u00a0\u00a0\u00a0\u00a0\u00a0(for Me-K)</p>\n<pre>\nIt was the language that left us first.\nThe Great Migration of words. When people\nspoke they punched each other in the mouth.\nThere was no vocabulary for love. Women\nbecame masculine and could no longer give\nbirth to warmth or a simple caress with their\nlips. Tongues were overweight from profanity\nand the taste of nastiness. It settled over cities\nlike fog smothering everything in sight. My\nears begged for camouflage and the chance\nto go to war. Everywhere was the decay of\nhow we sound. Someone said it reminded\nthem of the time Sonny Rollins disappeared.\nPeople spread stories of how the air would\nnever be the same or forgive. It was the end\nof civilization and nowhere could one hear\nthe first notes of <i>A Love Supreme</i>. It was as\nif John Coltrane had never been born.</pre>\n "}, {"title": "Provisional", "view_node": "/poem/provisional", "field_author": "<a href=\"/poet/catherine-bowman\" hreflang=\"und\">Catherine Bowman</a>", "field_date_published": "2010", "body": " <pre>\nWhen he procured her, she purveyed\nhim. When he rationed her out, \nshe made him provisional. On being\n\nprovisional, he made her his trough.\nOn being a trough, she made him her silo. \nAt once a silo, he made her his cut. On being a cut,\n\nshe made him her utensil. On being\na utensil, he turned her downhill. So being\ndownhill, she made him her skis. \n\nWhen she was his stethoscope,\nhe was her steady beat. From beat\nshe was dog, from dog he was fetch,\n \nfrom fetch she was jab, from jab\nhe was fake. When he was her complex\nequation, she was his simple math. \n\nSo she turned him into strong evidence,\naccessory after the fact. So he turned \nher eyes private, made her his man\n\non the lam. So he became her psalm, \nso she became his scrubby tract. When he\nbecame an aesthete, she became his\n\nclaw-foot bath.  So she made him a rudimentary\nfault line; so he made her a volcanic rim.\nSo she made him her unruly quorum;\n\nso he made her his party whip.\nThat's when they both became\nmirror, and then both became lips.\n\nFrom lips she was trumpet, from trumpet\nhe was mute. Then he made her his margin\nof error. Then she made him stet.</pre>\n "}, {"title": "from The Dogs", "view_node": "/poem/dogs", "field_author": "<a href=\"/poet/joshua-marie-wilkinson\" hreflang=\"und\">Joshua Marie Wilkinson</a>", "field_date_published": "2010", "body": " <pre>\nBut the moths find you, phantom.\n\n\u00a0\u00a0\u00a0\u00a0\u00a0\u00a0\u00a0&amp; the crackle\n\u00a0\u00a0\u00a0\u00a0\u00a0\u00a0\u00a0of the javelinas\n\u00a0\u00a0\u00a0\u00a0\u00a0\u00a0\u00a0in the brush\n\n\u00a0\u00a0\u00a0\u00a0\u00a0\u00a0\u00a0old litany\n\u00a0\u00a0\u00a0\u00a0\u00a0\u00a0\u00a0defiled the doorling\n\u00a0\u00a0\u00a0\u00a0\u00a0\u00a0\u00a0stood canon toting\n\nSo, you know the ground here? Where else \nis new or to you called unknown:\n\n\u00a0\u00a0\u00a0\u00a0\u00a0\u00a0\u00a0gumtree tipping\n\u00a0\u00a0\u00a0\u00a0\u00a0\u00a0\u00a0onto the marsh \n\u00a0\u00a0\u00a0\u00a0\u00a0\u00a0\u00a0meadow's shoreline\n\nThe apology wends off as smoke ground to \ngravel. So you were here alright, coughing \non the live tape:\n\n\u00a0\u00a0\u00a0\u00a0\u00a0\u00a0\u00a0a canoe's \n\u00a0\u00a0\u00a0\u00a0\u00a0\u00a0\u00a0mystery \n\u00a0\u00a0\u00a0\u00a0\u00a0\u00a0\u00a0hurt by its name\n\nFall back with your hands before or behind \nyou just so.</pre>\n "}, {"title": "Boreal", "view_node": "/poem/boreal", "field_author": "<a href=\"/poet/andrew-joron\" hreflang=\"und\">Andrew Joron</a>", "field_date_published": "2010", "body": " <pre>\nAcross the stiffening pond, your steps\n\u00a0\u00a0\u00a0\u00a0\u00a0\u00a0\u00a0\u00a0send broken branching signals\nFaultless as some harp-tuning \n    \n\u00a0\u00a0\u00a0\u00a0\u00a0\u00a0\u00a0\u00a0dedicated to silence: each note\nCarries an interior candle of dissonance\n\u00a0\u00a0\u00a0\u00a0\u00a0\u00a0\u00a0\u00a0the dark calendar\nMarked by a sequence of frozen suns\n\nThere is a season deeper than winter\nPassing in these \n\u00a0\u00a0\u00a0\u00a0\u00a0\u00a0\u00a0\u00a0tree-diagrams, &amp; mechanisms \nOf common speech\n\nSleeping under the solstice, you may suffer\nRecurrent dreams \n\u00a0\u00a0\u00a0\u00a0\u00a0\u00a0\u00a0\u00a0as the wreckage returns its image\n\nUnburied \nThe harp\n\u00a0\u00a0\u00a0\u00a0\u00a0\u00a0\u00a0\u00a0a pelvic bone, turns in your hands\n\nBut failing (you\u2014the player\nOf a misshapen instrument) \n\u00a0\u00a0\u00a0\u00a0\u00a0\u00a0\u00a0\u00a0to complete the world's anatomy\n\n(That story was told in deafening peals) \n\u00a0\u00a0\u00a0\u00a0\u00a0\u00a0\u00a0\u00a0or even to mimic this\n\nWeather's argument-in-whispers, its subtle\n\u00a0\u00a0\u00a0\u00a0\u00a0\u00a0\u00a0\u00a0ashen-green \nStriations...\n\n\"Let waters once chaotic\n\u00a0\u00a0\u00a0\u00a0\u00a0\u00a0\u00a0\u00a0assume the form of a rigid plane\"\n\n\u00a0\u00a0\u00a0\u00a0\u00a0\u00a0\u00a0\u00a0understanding things\n\u00a0\u00a0\u00a0\u00a0\u00a0\u00a0\u00a0\u00a0are furious in their motionlessness\n\nIf the laws that govern <i>awakening</i>\nCome to resemble a city of blue spires\n\n\u00a0\u00a0\u00a0\u00a0\u00a0\u00a0\u00a0\u00a0you will not awaken soon</pre>\n "}, {"title": "A Peacock in Spring", "view_node": "/poem/peacock-spring", "field_author": "<a href=\"/poet/joyelle-mcsweeney\" hreflang=\"und\">Joyelle McSweeney</a>", "field_date_published": "2010", "body": " <pre>\nMakes derang\u00e9d love\nTo the muddy hill. Shoots of green knocked sideways\nOn a factory floor. Next to the stopflood\nRetaining wall, sprung rhythm.  Just as\nA center for Islamic banking\nFurls green writing like a blooming branch across the screen, visible \nPop-up ad of the market or \ngreen fuse. In a wiry flash,\nA living goddess with a threefoot eye\nBends o'er her spreadflat copybook, contemplating a career at maths.\nI've always been good at maths,\nAnd how they multiply, and how they multiply, and how they\nLock in a pop-fly, snag the interface, shatter the salary cap,\nThwack. Into the tanned glove, a second piece\nOf hide.  It's spring, tumors and mushroom caps pop-up, the avatar\nSalary man can't muster himself to grope the \nPixilated schoolgirl. Sad subways.\nBefore the Senate panel, the discredited chairman holds\nYou gotta keep on dancing\nKeep on dancing\nKeep on dancing til the music stops.  Amen, says the peacock,\nShifting his attentions now to the wall. He shrugs obscenely green,\nObscenely jewel-toned, obscenely neck-like,\nAn obscene grandeur and an obscene decadency,\nA screen, a mask, a dance,\nA thousand green-groping eyes. Lapse and bless\nWith your largesse, you antique\ncommode, you gossiping \nfairground\u2014\n(And now a common bird launches itself at my window\nA defunct grenade from Spring's blackmarket shouldermount\nBecause I do not know its name\nAnd do not wish to watch it stagger from air to glass\nI hear it re-enunciate\n&amp; grow increasingly garbled &amp; go\nOn outside the \npoem that would be increasingly\ninside, let me in.\nWhere my sleek unbidden brow breaks blood upon the panel, breaks\nbeads amid the streaks of let me \nin and let me in)</pre>\n "}, {"title": "Books", "view_node": "/poem/books", "field_author": "<a href=\"/poet/gerald-stern\" hreflang=\"und\">Gerald Stern</a>", "field_date_published": "2010", "body": " <pre>\nHow you loved to read in the snow and when your\nface turned to water from the internal heat\ncombined with the heavy crystals or maybe it was\nreversus you went half-blind and your eyelashes\nturned to ice the time you walked through swirls \nwith dirty tears not far from the rat-filled river\nor really a mile away\u2014or two\u2014in what \nyou came to call the Aristotle room\nin a small hole outside the Carnegie library.</pre>\n "}, {"title": "Visions of Never Being Heard from Again", "view_node": "/poem/visions-never-being-heard-again", "field_author": "<a href=\"/poet/rebecca-wolff\" hreflang=\"und\">Rebecca Wolff</a>", "field_date_published": "2010", "body": " <pre>\nI stopped by to see you but you were not home\n\nmarshland\n\nthe pure vision\n\nmy ancient lives all risen up and rising\n\n\n\nshudder in my bed to come up against\n\na living religion; they get offended so easily;\n\nblow up your hundred-foot Buddha\n\nno problem. Entire mountainside.\n\n\n\nPresumably it's an improvement\n\non whatever came before\n\non what was here before\n\nancestral crypt your daddy built; a grassy hill; a patchwork quilt;\n     inadequately warming.</pre>\n "}, {"title": "Continuities", "view_node": "/poem/continuities", "field_author": "<a href=\"/poet/walt-whitman\" hreflang=\"und\">Walt Whitman</a>", "field_date_published": "1891", "body": " <pre>\u00a0\u00a0\u00a0\u00a0\u00a0\u00a0\u00a0\u00a0\u00a0\u00a0(From a talk I had lately with a German spiritualist.)\n\nNothing is ever really lost, or can be lost,\nNo birth, identity, form\u2014no object of the world.\nNor life, nor force, nor any visible thing;\nAppearance must not foil, nor shifted sphere confuse thy brain.\nAmple are time and space\u2014ample the fields of Nature.\nThe body, sluggish, aged, cold\u2014the embers left from earlier fires,\nThe light in the eye grown dim, shall duly flame again;\n<span class=\"long-line\">The sun now low in the west rises for mornings and for noons continual;</span>\nTo frozen clods ever the spring's invisible law returns,\nWith grass and flowers and summer fruits and corn.</pre>\n "}, {"title": "Cherry Blossom Storm", "view_node": "/poem/cherry-blossom-storm", "field_author": "<a href=\"/poet/henri-cole\" hreflang=\"und\">Henri Cole</a>", "field_date_published": "2010", "body": " <p>\u00a0\u00a0\u00a0\u00a0\u00a0\u00a0\u00a0\u00a0\u00a0\u00a0\u00a0\u00a0\u00a0\u00a0\u00a0<i>A mother is a mother still,</i><br /><br />\u00a0\u00a0\u00a0\u00a0\u00a0\u00a0\u00a0\u00a0\u00a0\u00a0\u00a0\u00a0\u00a0\u00a0\u00a0\u00a0\u00a0<i>The holiest thing alive</i>.<br /><br />\u00a0\u00a0\u00a0\u00a0\u00a0\u00a0\u00a0\u00a0\u00a0\u00a0\u00a0\u00a0\u00a0\u00a0\u00a0\u00a0\u00a0\u00a0\u00a0\u00a0Coleridge, \"The Three Graves\"<br /><br />\u00a0</p>\n<pre>\n\"Draping my body in the usual sterile manner,\n\nthey placed me in a supine position and adequate\n\ngeneral anesthesia was obtained. Then a collar incision\n\nwas made at the base of my neck and the strap muscles \n\nincised, the dissection continuing sharply over\n\nboth my lobes as inferior vessels and veins \n\nwere isolated, ligated, and divided, the cut surfaces\n\nlike a cherry blossom storm, except for a small amount \n\nof beefy red identified at the pole. Awakening later, \n\nI heard a voice muttering: <i>Don't worry about adultery \n\n(he sleeps in a different room). Don't go down after \n\nmidnight. Don't take tranquillizers. Don't love. Don't hate</i>. \n\nSometimes, the paralysis of a soul awakens it. Sometimes, \n\nawful things have their own kind of beauty.\"</pre>\n "}, {"title": "from One Time", "view_node": "/poem/one-time", "field_author": "<a href=\"/poet/christian-wiman\" hreflang=\"und\">Christian Wiman</a>", "field_date_published": "2010", "body": " <pre>\n<b>2.</b> <i>2047 Grace Street</i>\n\nBut the world is more often refuge\nthan evidence, comfort and covert\nfor the flinching will, rather than the sharp\nparticulate instants through which God's being burns\ninto ours. I say God and mean more \nthan the bright abyss that opens in that word.\nI say world and mean less\nthan the abstract oblivion of atoms\nout of which every intact thing emerges,\ninto which every intact thing finally goes.\nI do not know how to come closer to God\nexcept by standing where a world is ending\nfor one man. It is still dark,\nand for an hour I have listened\nto the breathing of the woman I love beyond\nmy ability to love. Praise to the pain\nscalding us toward each other, the grief\nbeyond which, please God, she will live\nand thrive. And praise to the light that is not\nyet, the dawn in which one bird believes,\ncrying not as if there had been no night\nbut as if there were no night in which it had not been.</pre>\n "}, {"title": "The Emperor", "view_node": "/poem/emperor", "field_author": "<a href=\"/poet/matthew-rohrer\" hreflang=\"und\">Matthew Rohrer</a>", "field_date_published": "2010", "body": " <pre>\nShe sends me a text\n\nshe's coming home\n\nthe train emerges\n\nfrom underground\n\n\nI light the fire under\n\nthe pot, I pour her\n\na glass of wine\n\nI fold a napkin under\n\na little fork\n\n\nthe wind blows the rain\n\ninto the windows\n\nthe emperor himself\n\nis not this happy</pre>\n "}, {"title": "The more Alice reaches out, the more her dream-rushes", "view_node": "/poem/more-alice-reaches-out-more-her-dream-rushes", "field_author": "<a href=\"/poet/jenny-boully\" hreflang=\"und\">Jenny Boully</a>", "field_date_published": "2010", "body": " <p>disappear: one by one by one the darling scented rushes sink back into melt. In the dream stream, the boat glides past too quick, and there is no chance to gather the loveliest of the dream-rushes. No less satisfying was the old sheep: so many knitting needles, dozens and dozens all pierced into a ball of worsted, and there was never ever any telling of just what, even in dream, it might be that the old sheep was knitting.</p><br /><p>For years, I dreamt of the child who, when I reached out to her, turned into a sheet of paper, and so, in waking hours, I wrote and wrote and wrote and my friends consoled me: see, you have book babies; this, while I looked on at other women who knit bibs and booties, so many booties, such small socks.</p><br /><p>When Alice steals away and consoles the Duchess's baby, it metamorphoses into a pig and runs away from her, runs away. <i>That</i> is ever so much a better-known story than the one of dream-rushes or too many knitting needles. (How ever did Alice ever console herself? Did her friends say, Oh, just think now you'll have truffles!?)</p><br /><p>Odysseus's mother wonders how her son, a mere mortal, made it over Oceanus to the land where lives sink back into melt. She says that he must have had a good boat; he tries to embrace her, but like a soul she flits about and away. When Odysseus asks why Mother, why not stay still and let us embrace, she says, Son, it's because I no longer have sinew, no longer have bones.</p><br /><p>My little baby, who I will name a weaver of spools and not of dreams, with mortal limbs\u2014not quite sinew, not quite bone\u2014paddles a rowboat inside of me, and I stay, in those moments, ever-so-still so that she may reach out to me. The midwife says that what I'm feeling is called <i>quickening</i>. Scientists say that she is dreaming\u2014practicing for this life, I like to think, where, in her nursery, there will be a machine projecting fake moonbeams and fake stars and fake shadows and fake birds and fake clouds to storm over her.</p> "}, {"title": "Health", "view_node": "/poem/health", "field_author": "<a href=\"/poet/rafael-campo\" hreflang=\"und\">Rafael Campo</a>", "field_date_published": "2010", "body": " <pre>\nWhile jogging on the treadmill at the gym,\nthat exercise in getting nowhere fast,\nI realized we need a health pandemic.\nObesity writ large no more, Alzheimer's\nforgotten, we could live carefree again.\nWe'd chant the painted shaman's sweaty oaths,\nWe'd kiss the awful relics of the saints,\nwe'd sip the bitter tea from twisted roots,\nwe'd listen to our grandmothers' advice.\nWe'd understand the moonlight's whispering.\nWe'd exercise by making love outside, \nand afterwards, while thinking only of\nhow much we'd lived in just one moment's time,\nforgive ourselves for wanting something more:\nto praise the memory of long-lost need,\nor not to live forever in a world \nmade painless by our incurable joy.</pre>\n "}, {"title": "Zerogarden", "view_node": "/poem/zerogarden", "field_author": "<a href=\"/poet/andrew-zawacki\" hreflang=\"und\">Andrew Zawacki</a>", "field_date_published": "2010", "body": " <style type=\"text/css\">\n<!--/*--><![CDATA[/* ><!--*/\n\np { line-height: 1.5em; }\nblockquote p { line-height: 1.5em; }\n/*--><!]]>*/\n</style><p>Within the horizon of gabardine<br />hills, raku-<br />fired as if forged in the kiln<br />of georgic Georgia mid-<br />July, the trees halloo Tallulah<br />Gorge, velarium &amp; an event in<br />themselves, gouged by blunt per</p><table width=\"190\"><tbody><tr><td><p align=\"right\">-sephones of crimson &amp; of green<br />\u2014gren<br />-ache, wasabi, hen<br />-na, Fanta, ferric, gren<br />-adine\u2014</p></td></tr></tbody></table><p>&amp; a few miles south<br />off 328, in Tugaloo State Park,<br />a beach that shouldn't<br />be there\u00a0\u00a0\u00a0\u00a0\u00a0\u00a0\u00a0\u00a0\u00a0is, the lake now<br />8 feet low, &amp; fishing lures<br />&amp; sinkers &amp; bobbers are<br />snagged on roots of the<br />oak've eroded, &amp; mica<br />speckling reddish clay where<br />one can walk beneath an<br />orphaned dock<br />are a trillion mini<br />mirrors among the mullions<br />composing, composting the bank,<br />to show the singular, macular<br />sun what it looks like\u2014severally</p><p>\u00a0</p> "}, {"title": "Sonogram", "view_node": "/poem/sonogram", "field_author": "<a href=\"/poet/jennifer-chang\" hreflang=\"und\">Jennifer Chang</a>", "field_date_published": "2010", "body": " <pre>\nDark matter, are you \nsparkless \n\nfor lack of knowing\nbetter? The room \n\nyou've spun is distant\nand indivisible\u2014\n\na flickering lapsarian,\nyou satisfy no mute\n\nprogress but \ncollapse, spiral, winded\n\nby unwinding. Dear \nenigma kid, dear psychic\n\nsoft spot, I write you\nfrom under eight spastic \n\nlights, each falser than stars, \nto promise I'll will \n\nthe darkness out of you \nor I'll will myself \n\nto trying. Twisted \nmister, my incipient\n\nsir, you be in charge \nof the what-if, I'll master why.</pre>\n "}, {"title": "Enough", "view_node": "/poem/enough", "field_author": "<a href=\"/poet/jeffrey-harrison\" hreflang=\"und\">Jeffrey Harrison</a>", "field_date_published": "2010", "body": " <pre>\nIt's a gift, this cloudless November morning\nwarm enough to walk without a jacket\nalong your favorite path. The rhythmic shushing\nof your feet through fallen leaves should be \nenough to quiet the mind, so it surprises you \nwhen you catch yourself telling off your boss\nfor a decade of accumulated injustices,\nall the things you've never said circling inside you.\n\nThe rising wind pulls you out of it,\nand you look up to see a cloud of leaves\nwheeling in sunlight, flickering against the blue\nand lifting above the treetops, as if the whole day\nwere sighing, <i>Let it go, let it go,\nfor this moment at least, let it all go</i>.</pre>\n "}, {"title": "from Canti", "view_node": "/poem/canti", "field_author": "<a href=\"/poet/giacomo-leopardi\" hreflang=\"und\">Giacomo Leopardi</a>", "field_date_published": "2010", "body": " <pre>\n<b>XXXVII</b>\n\n</pre>\n<table width=\"235\"><tbody><tr><td><p align=\"center\">ALCETA</p></td></tr></tbody></table><p>Listen, Melisso: I want to tell you a dream I had last night, which comes to mind, seeing the moon again. I was standing at the window that looks out on the meadow staring up, when suddenly the moon unhooked herself. And it seemed to me that as she fell, the nearer she got the bigger she looked, until she hit the ground in the middle of the meadow, big as a bucket, and vomited a cloud of sparks that shrieked as loud as when you dunk a live coal in the water and drown it. So, as I said, the moon died in the middle of the meadow, little by little slowly darkening, and the grass was smoking all around. Then, looking up into the sky, I saw something still there, a glimmer or a shadow, or the niche that she'd been torn away from, which made me cold with fear. And I'm still anxious.</p><table width=\"235\"><tbody><tr><td><p align=\"center\">MELISSO</p></td></tr></tbody></table><p>You were right to be afraid, when the moon fell so easily into your field.</p><table width=\"235\"><tbody><tr><td><p align=\"center\">ALCETA</p></td></tr></tbody></table><p>Who knows? Don't we often see stars fall in summer?</p><table width=\"235\"><tbody><tr><td><p align=\"center\">MELISSO</p></td></tr></tbody></table><p>\u00a0\u00a0\u00a0\u00a0\u00a0\u00a0\u00a0\u00a0\u00a0\u00a0\u00a0\u00a0\u00a0\u00a0\u00a0\u00a0\u00a0\u00a0\u00a0\u00a0\u00a0\u00a0There are so many stars that if one or another of them falls it's no great loss, since there are thousands left. But there's just this one moon up in the sky, which no one saw fall ever\u2014except in dreams.</p> "}, {"title": "The Undertow", "view_node": "/poem/undertow", "field_author": "<a href=\"/poet/sasha-steensen\" hreflang=\"und\">Sasha Steensen</a>", "field_date_published": "2010", "body": " <pre>\nI am shown\na generosity\n\nso muddied\nat the muddy bottom\n\nof a question I forget to ask\nuntil it's fished out\n\nbut bloated but \nin the manner of a net \n\na web of causal connections\nattached to its corners\n\ngently moving over\nthe surface of the water\n\nhow come the road\ncouldn't have stayed followed\n\nby way of hollowed out\nlogs &amp; paddles\n\nmade of pawpaw wood\nrather than by the crows \n\nalone to the moment\nwhen the Monongahela\n\nthe Allegheny\nthe Ohio meet\n\nI hate the underside\nof an idea\n\nbut I like the underside\nof grass that grows\n\nunderwater\nand I've seen it from there\n\nblossom \nas if the water had suddenly\n\nstopped\nand then surged forth\n\nfrom there\nI can see a shoal\n\nof tadpoles\ndrowning themselves\n\nI hate the idea\nof the Ohio\n\nas a magic carpet\ninto the heart\n\nof the continent\na great gift\n\nof geography\na gleaming highway \n\ncarrying a tide\nof settlement \n\nand expansion but\nI despise\n\nthe idea of the three rivers\nas my family tree\n\ntheir canals\ntributaries &amp; branches\n\nmeeting \n&amp; later the Mississippi\n\nby its side \nfor miles\n\nuntil along comes my \nbaby floating \n\nin a basket down\nthe Colorado\n\nI despise all such \nundertows\n\nand the fact that I've never\nheard steamwhistles \n\nor boatmen's bugles \nI've never traveled\n\naboard <i>The Messenger \nThe Telegraph\n\nThe Gladiator \nThe Ohio Belle</i>\n\nor <i>The Great Republic</i>\nnor have I put my foot \n\nin the Ohio\nanymore than you\n\nand the Niagara\nI abhor the Niagara\n\nin winter the \ndifficult beauty\n\nof its frozen falls\nand all they've \n\ncome to represent.</pre>\n "}, {"title": "On the Platform", "view_node": "/poem/platform", "field_author": "<a href=\"/poet/tom-sleigh\" hreflang=\"und\">Tom Sleigh</a>", "field_date_published": "2010", "body": " <pre>\n1\nThe omen I didn't know I was waiting for\npulled into the station the same instant as the train.\nIt was just a teenage boy busking on the platform,\ncello cutting through garble, Bach's repetitions\n\nhard-edged as a scalpel probing an open wound. \nBut then I kept thinking how a sound wave \ntravels the path of least resistance, \nhow the notes rebound off steel and stone \n\nthe same as a blast wave shattering row on row\nof windows as it swerves through the city.\nAnd when the music stops, on the balcony\n\nabove the rubble, coffee and tea are served. \nAnd if there's sugar, is it one lump or two\nand did you hear what happened to Mrs. So and So?\n\n2\nI saw, out from under the grime, whiskers \ndipping into clear water that trickled between \nthe rails to get the feel of what was near\u2014\nthe same scene as on the church wall, the slimy brethren\n\ngathered at the river, one gnawing \nan ear of corn, the rest intently listening  \nto Francis teaching them their catechism\nabout the wild man John and his crucified cousin.\n\nExcept they were birds in the painting, not rats.\nBut let's go with that, let them stand \non hind legs and sniff incense and myrrh\n\nwafting down from high up in the air\nso that one day on miraculous, fly paper feet\nthey'll scale the golden walls and storm the high ground.\n\n3\nNothing moving on the platform, nothing for miles. \nAnd then a shovel clanging against paving stone\nlike an old man clearing rubble while a rat climbs a vine\nand looks into the broken window and smells the smells.\n\nRubble shoulder high after two weeks work,\na toilet with a sink and a light on a pull chain\nstand framed at the end of the gravel walk\nalready sprouting suckers leafing out more green\n\nfrom the fire that scorched the burned out bush.\nTen years, fifteen, and tree limbs shade the bedrooms\nand branch out window frames toward the sun.\n\nAnd where the electric pump pumped water for the town\nthe wellhead lies broken and two clear streams\nwear ruts in the floor of the wrecked house.</pre>\n "}], "pager": {"current_page": 480, "total_items": "13248", "total_pages": 663, "items_per_page": 20}}