{"rows": [{"title": "In a Boat", "view_node": "/poem/boat-0", "field_author": "<a href=\"/poet/d-h-lawrence\" hreflang=\"und\">D. H. Lawrence</a>", "field_date_published": "1916", "body": " <pre>\nSee the stars, love,  \nIn the water much clearer and brighter  \nThan those above us, and whiter,  \nLike nenuphars.  \n  \nStar-shadows shine, love, \nHow many stars in your bowl?  \nHow many shadows in your soul,  \nOnly mine, love, mine?  \n  \nWhen I move the oars, love,  \nSee how the stars are tossed, \nDistorted, the brightest lost.  \n\u2014So that bright one of yours, love.  \n  \nThe poor waters spill  \nThe stars, waters broken, forsaken.  \n\u2014The heavens are not shaken, you say, love, \nIts stars stand still.  \n  \nThere, did you see  \nThat spark fly up at us; even  \nStars are not safe in heaven.  \n\u2014What of yours, then, love, yours?\n  \nWhat then, love, if soon  \nYour light be tossed over a wave?  \nWill you count the darkness a grave,  \nAnd swoon, love, swoon?</pre>\n "}, {"title": "The Buried Life", "view_node": "/poem/buried-life", "field_author": "<a href=\"/poet/matthew-arnold\" hreflang=\"und\">Matthew Arnold</a>", "field_date_published": "1852", "body": " <pre>\n\u00a0\u00a0\u00a0Light flows our war of mocking words, and yet,  \nBehold, with tears mine eyes are wet!  \nI feel a nameless sadness o'er me roll.  \n\u00a0\u00a0\u00a0Yes, yes, we know that we can jest,  \nWe know, we know that we can smile;     \nBut there 's a something in this breast,  \nTo which thy light words bring no rest,  \nAnd thy gay smiles no anodyne;  \n\u00a0\u00a0\u00a0Give me thy hand, and hush awhile,  \nAnd turn those limpid eyes on mine,    \nAnd let me read there, love! thy inmost soul.  \n  \n\u00a0\u00a0\u00a0Alas! is even love too weak  \nTo unlock the heart, and let it speak?  \nAre even lovers powerless to reveal  \nTo one another what indeed they feel?       \nI knew the mass of men conceal'd  \nTheir thoughts, for fear that if reveal'd  \nThey would by other men be met  \nWith blank indifference, or with blame reprov'd;  \nI knew they liv'd and mov'd       \nTrick'd in disguises, alien to the rest  \nOf men, and alien to themselves\u2014and yet  \nThe same heart beats in every human breast.  \n  \n\u00a0\u00a0\u00a0But we, my love\u2014does a like spell benumb  \nOur hearts\u2014our voices?\u2014must we too be dumb?     \n  \n\u00a0\u00a0\u00a0Ah, well for us, if even we,  \nEven for a moment, can get free  \nOur heart, and have our lips unchain'd;  \nFor that which seals them hath been deep-ordain'd!  \n  \n\u00a0\u00a0\u00a0Fate, which foresaw  \nHow frivolous a baby man would be,\nBy what distractions he would be possess'd,  \nHow he would pour himself in every strife,  \nAnd well-nigh change his own identity; \nThat it might keep from his capricious play   \nHis genuine self, and force him to obey,  \nEven in his own despite his being's law,  \nBade through the deep recesses of our breast  \nThe unregarded River of our Life  \nPursue with indiscernible flow its way;   \nAnd that we should not see  \nThe buried stream, and seem to be  \nEddying at large in blind uncertainty,  \nThough driving on with it eternally.  \n  \n\u00a0\u00a0\u00a0But often, in the world's most crowded streets,    \nBut often, in the din of strife,  \nThere rises an unspeakable desire  \nAfter the knowledge of our buried life,  \nA thirst to spend our fire and restless force  \nIn tracking out our true, original course;     \nA longing to inquire  \nInto the mystery of this heart which beats  \nSo wild, so deep in us, to know  \nWhence our lives come and where they go.  \nAnd many a man in his own breast then delves,    \nBut deep enough, alas, none ever mines! \nAnd we have been on many thousand lines,  \nAnd we have shown, on each, spirit and power,  \nBut hardly have we, for one little hour,  \nBeen on our own line, have we been ourselves;      \nHardly had skill to utter one of all  \nThe nameless feelings that course through our breast,  \nBut they course on for ever unexpress'd.  \nAnd long we try in vain to speak and act  \nOur hidden self, and what we say and do       \nIs eloquent, is well\u2014but 'tis not true!  \n\u00a0\u00a0\u00a0And then we will no more be rack'd  \nWith inward striving, and demand  \nOf all the thousand nothings of the hour  \nTheir stupefying power;     \nAh yes, and they benumb us at our call!  \nYet still, from time to time, vague and forlorn,  \nFrom the soul's subterranean depth upborne  \nAs from an infinitely distant land,  \nCome airs, and floating echoes, and convey      \nA melancholy into all our day.  \n  \n\u00a0\u00a0\u00a0Only\u2014but this is rare\u2014  \nWhen a belov\u00e8d hand is laid in ours,  \nWhen, jaded with the rush and glare  \nOf the interminable hours,        \nOur eyes can in another's eyes read clear,  \nWhen our world-deafen'd ear  \nIs by the tones of a lov'd voice caress'd\u2014  \n\u00a0\u00a0\u00a0A bolt is shot back somewhere in our breast  \nAnd a lost pulse of feeling stirs again!       \nThe eye sinks inward, and the heart lies plain,  \nAnd what we mean, we say, and what we would, we know,  \nA man becomes aware of his life's flow,  \nAnd hears its winding murmur, and he sees  \nThe meadows where it glides, the sun, the breeze.\n  \n\u00a0\u00a0\u00a0And there arrives a lull in the hot race  \nWherein he doth for ever chase  \nThe flying and elusive shadow, Rest.  \nAn air of coolness plays upon his face,  \nAnd an unwonted calm pervades his breast. \n\u00a0\u00a0\u00a0And then he thinks he knows  \nThe hills where his life rose,  \nAnd the Sea where it goes.</pre>\n "}, {"title": "Isolation: To Marguerite", "view_node": "/poem/isolation-marguerite", "field_author": "<a href=\"/poet/matthew-arnold\" hreflang=\"und\">Matthew Arnold</a>", "field_date_published": "1857", "body": " <pre>\nWe were apart; yet, day by day,\nI bade my heart more constant be.\nI bade it keep the world away,\nAnd grow a home for only thee;\nNor fear'd but thy love likewise grew,\nLike mine, each day, more tried, more true.\n\nThe fault was grave! I might have known,\nWhat far too soon, alas! I learn'd\u2014\nThe heart can bind itself alone,\nAnd faith may oft be unreturn'd.\nSelf-sway'd our feelings ebb and swell\u2014\nThou lov'st no more;\u2014Farewell! Farewell!\n\nFarewell!\u2014and thou, thou lonely heart,\nWhich never yet without remorse\nEven for a moment didst depart\nFrom thy remote and spher\u00e8d course\nTo haunt the place where passions reign\u2014\nBack to thy solitude again!\n\nBack! with the conscious thrill of shame\nWhich Luna felt, that summer-night,\nFlash through her pure immortal frame,\nWhen she forsook the starry height\nTo hang over Endymion's sleep\nUpon the pine-grown Latmian steep.\n\nYet she, chaste queen, had never proved\nHow vain a thing is mortal love,\nWandering in Heaven, far removed.\nBut thou hast long had place to prove\nThis truth\u2014to prove, and make thine own:\n\"Thou hast been, shalt be, art, alone.\"\n\nOr, if not quite alone, yet they\nWhich touch thee are unmating things\u2014\nOcean and clouds and night and day;\nLorn autumns and triumphant springs;\nAnd life, and others' joy and pain,\nAnd love, if love, of happier men.\n\nOf happier men\u2014for they, at least,\nHave <i>dream'd</i> two human hearts might blend\nIn one, and were through faith released\nFrom isolation without end\nProlong'd; nor knew, although not less\nAlone than thou, their loneliness.</pre>\n "}, {"title": "Beloved, my Beloved... (Sonnet 20)", "view_node": "/poem/beloved-my-beloved-sonnet-20", "field_author": "<a href=\"/poet/elizabeth-barrett-browning\" hreflang=\"und\">Elizabeth Barrett Browning</a>", "field_date_published": "1850", "body": " <pre>\nBeloved, my Beloved, when I think \nThat thou wast in the world a year ago, \nWhat time I sate alone here in the snow \nAnd saw no footprint, heard the silence sink \nNo moment at thy voice ... but, link by link, \nWent counting all my chains, as if that so \nThey never could fall off at any blow \nStruck by thy possible hand ... why, thus I drink \nOf life's great cup of wonder! Wonderful, \nNever to feel thee thrill the day or night \nWith personal act or speech,\u2014nor ever cull \nSome prescience of thee with the blossoms white \nThou sawest growing! Atheists are as dull, \nWho cannot guess God's presence out of sight.</pre>\n "}, {"title": "Love", "view_node": "/poem/love", "field_author": "<a href=\"/poet/elizabeth-barrett-browning\" hreflang=\"und\">Elizabeth Barrett Browning</a>", "field_date_published": "1870", "body": "<p><span class=\"long-line\">We cannot live, except thus mutually</span><br /><span class=\"long-line\">We alternate, aware or unaware,</span><br /><span class=\"long-line\">The reflex act of life: and when we bear</span><br /><span class=\"long-line\">Our virtue onward most impulsively,</span><br /><span class=\"long-line\">Most full of invocation, and to be</span><br /><span class=\"long-line\">Most instantly compellant, certes, there</span><br /><span class=\"long-line\">We live most life, whoever breathes most air</span><br /><span class=\"long-line\">And counts his dying years by sun and sea.</span><br /><span class=\"long-line\">But when a soul, by choice and conscience, doth</span><br /><span class=\"long-line\">Throw out her full force on another soul,</span><br /><span class=\"long-line\">The conscience and the concentration both make</span><br /><span class=\"long-line\">mere life, Love. For Life in perfect whole</span><br /><span class=\"long-line\">And aim consummated, is Love in sooth,</span><br /><span class=\"long-line\">As nature's magnet-heat rounds pole with pole.</span></p>\n"}, {"title": "When our two souls... (Sonnet 22)", "view_node": "/poem/when-our-two-souls-sonnet-22", "field_author": "<a href=\"/poet/elizabeth-barrett-browning\" hreflang=\"und\">Elizabeth Barrett Browning</a>", "field_date_published": "1850", "body": " <pre>\nWhen our two souls stand up erect and strong,  \nFace to face, silent, drawing nigh and nigher,  \nUntil the lengthening wings break into fire  \nAt either curv\u00e8d point,\u2014what bitter wrong  \nCan the earth do to us, that we should not long \nBe here contented? Think. In mounting higher,  \nThe angels would press on us and aspire  \nTo drop some golden orb of perfect song  \nInto our deep, dear silence. Let us stay  \nRather on earth, Belov\u00e8d,\u2014where the unfit \nContrarious moods of men recoil away  \nAnd isolate pure spirits, and permit  \nA place to stand and love in for a day,  \nWith darkness and the death-hour rounding it.</pre>\n "}, {"title": "If thou must love me... (Sonnet 14)", "view_node": "/poem/if-thou-must-love-me-sonnet-14", "field_author": "<a href=\"/poet/elizabeth-barrett-browning\" hreflang=\"und\">Elizabeth Barrett Browning</a>", "field_date_published": "1850", "body": "<p><span class=\"long-line\">If thou must love me, let it be for nought</span><br /><span class=\"long-line\">Except for love's sake only. Do not say,</span><br /><span class=\"long-line\">\"I love her for her smile\u2014her look\u2014her way</span><br /><span class=\"long-line\">Of speaking gently,\u2014for a trick of thought</span><br /><span class=\"long-line\">That falls in well with mine, and certes brought</span><br /><span class=\"long-line\">A sense of pleasant ease on such a day\"\u2014 </span><br /><span class=\"long-line\">For these things in themselves, Belov\u00e8d, may</span><br /><span class=\"long-line\">Be changed, or change for thee\u2014and love, so wrought,</span><br /><span class=\"long-line\">May be unwrought so. Neither love me for</span><br /><span class=\"long-line\">Thine own dear pity's wiping my cheeks dry:</span><br /><span class=\"long-line\">A creature might forget to weep, who bore</span><br /><span class=\"long-line\">Thy comfort long, and lose thy love thereby!</span><br /><span class=\"long-line\">But love me for love's sake, that evermore</span><br /><span class=\"long-line\">Thou mayst love on, through love's eternity.</span></p>\n"}, {"title": "The Sleep", "view_node": "/poem/sleep", "field_author": "<a href=\"/poet/elizabeth-barrett-browning\" hreflang=\"und\">Elizabeth Barrett Browning</a>", "field_date_published": "1838", "body": " <pre>\nOf all the thoughts of God that are  \nBorne inward unto souls afar,  \nAlong the Psalmist's music deep,  \nNow tell me if that any is,  \nFor gift or grace, surpassing this\u2014 \n'He giveth His belov\u00e8d sleep'?  \n  \nWhat would we give to our beloved?  \nThe hero's heart to be unmoved,  \nThe poet's star-tuned harp, to sweep,  \nThe patriot's voice, to teach and rouse,\nThe monarch's crown, to light the brows?  \nHe giveth His belov\u00e8d, sleep.  \n  \nWhat do we give to our beloved?  \nA little faith all undisproved,  \nA little dust to overweep,  \nAnd bitter memories to make  \nThe whole earth blasted for our sake.  \nHe giveth His belov\u00e8d, sleep.  \n  \n'Sleep soft, beloved!' we sometimes say,  \nBut have no tune to charm away\nSad dreams that through the eye-lids creep.  \nBut never doleful dream again  \nShall break the happy slumber when  \nHe giveth His belov\u00e8d, sleep.  \n  \nO earth, so full of dreary noises!\nO men, with wailing in your voices!  \nO delv\u00e8d gold, the wailers heap!  \nO strife, O curse, that o'er it fall!  \nGod strikes a silence through you all,  \nHe giveth His belov\u00e8d, sleep.\n  \nHis dews drop mutely on the hill;  \nHis cloud above it saileth still,  \nThough on its slope men sow and reap.  \nMore softly than the dew is shed,  \nOr cloud is floated overhead,\nHe giveth His belov\u00e8d, sleep.  \n  \nAye, men may wonder while they scan  \nA living, thinking, feeling man  \nConfirmed in such a rest to keep;  \nBut angels say, and through the word \nI think their happy smile is heard\u2014  \n'He giveth His belov\u00e8d, sleep.'  \n  \nFor me, my heart that erst did go  \nMost like a tired child at a show,  \nThat sees through tears the mummers leap, \nWould now its wearied vision close,  \nWould child-like on His love repose,  \nWho giveth His belov\u00e8d, sleep.  \n  \nAnd, friends, dear friends,\u2014when it shall be  \nThat this low breath is gone from me,\nAnd round my bier ye come to weep,  \nLet One, most loving of you all,  \nSay, 'Not a tear must o'er her fall;  \nHe giveth His belov\u00e8d, sleep.' </pre>\n "}, {"title": "Say over again... (Sonnet 21)", "view_node": "/poem/say-over-again-sonnet-21", "field_author": "<a href=\"/poet/elizabeth-barrett-browning\" hreflang=\"und\">Elizabeth Barrett Browning</a>", "field_date_published": "1850", "body": " <pre>\nSay over again, and yet once over again,  \nThat thou dost love me. Though the word repeated  \nShould seem \"a cuckoo-song,\" as thou dost treat it,  \nRemember, never to the hill or plain,  \nValley and wood, without her cuckoo-strain\nComes the fresh Spring in all her green completed.  \nBelov\u00e8d, I, amid the darkness greeted  \nBy a doubtful spirit-voice, in that doubt\u2019s pain  \nCry, \"Speak once more\u2014thou lovest!\" Who can fear  \nToo many stars, though each in heaven shall roll, \nToo many flowers, though each shall crown the year?  \nSay thou dost love me, love me, love me\u2014toll  \nThe silver iterance!\u2014only minding, Dear,  \nTo love me also in silence with thy soul. \n</pre>\n "}, {"title": "Two in the Campagna", "view_node": "/poem/two-campagna", "field_author": "<a href=\"/poet/robert-browning\" hreflang=\"und\">Robert Browning</a>", "field_date_published": "1855", "body": " <pre>\nI\n\nI wonder do you feel to-day\n        As I have felt since, hand in hand,\nWe sat down on the grass, to stray\n        In spirit better through the land,\nThis morn of Rome and May? \n\n\nII\n\nFor me, I touched a thought, I know,\n        Has tantalized me many times,\n(Like turns of thread the spiders throw\n        Mocking across our path) for rhymes\nTo catch at and let go. \n\n\nIII\n\nHelp me to hold it! First it left\n        The yellowing fennel, run to seed\nThere, branching from the brickwork\u2019s cleft,\n        Some old tomb\u2019s ruin: yonder weed\nTook up the floating weft, \n\n\nIV\n\nWhere one small orange cup amassed\n        Five beetles,\u2014blind and green they grope\nAmong the honey-meal: and last,\n        Everywhere on the grassy slope\nI traced it. Hold it fast! \n\n\nV\n\nThe champaign with its endless fleece\n        Of feathery grasses everywhere!\nSilence and passion, joy and peace,\n        An everlasting wash of air\u2014\nRome\u2019s ghost since her decease. \n\n\nVI\n\nSuch life here, through such lengths of hours,\n        Such miracles performed in play,\nSuch primal naked forms of flowers,\n        Such letting nature have her way\nWhile heaven looks from its towers! \n\n\nVII\n\nHow say you? Let us, O my dove,\n        Let us be unashamed of soul,\nAs earth lies bare to heaven above!\n        How is it under our control\nTo love or not to love? \n\n\nVIII\n\nI would that you were all to me,\n        You that are just so much, no more.\nNor yours nor mine, nor slave nor free!\n        Where does the fault lie? What the core\nO\u2019 the wound, since wound must be? \n\n\nIX\n\nI would I could adopt your will,\n        See with your eyes, and set my heart\nBeating by yours, and drink my fill\n        At your soul\u2019s springs,\u2014your part my part\nIn life, for good and ill. \n\n\nX\n\nNo. I yearn upward, touch you close,\n        Then stand away. I kiss your cheek,\nCatch your soul\u2019s warmth,\u2014I pluck the rose\n        And love it more than tongue can speak\u2014\nThen the good minute goes. \n\n\nXI\n\nAlready how am I so far\n        Out of that minute? Must I go\nStill like the thistle-ball, no bar,\n        Onward, whenever light winds blow,\nFixed by no friendly star? \n\n\nXII\n\nJust when I seemed about to learn!\n        Where is the thread now? Off again!\nThe old trick! Only I discern\u2014\n        Infinite passion, and the pain\nOf finite hearts that yearn.</pre>\n "}, {"title": "My Star", "view_node": "/poem/my-star", "field_author": "<a href=\"/poet/robert-browning\" hreflang=\"und\">Robert Browning</a>", "field_date_published": "1855", "body": " <pre>\nAll, that I know\n   Of a certain star\nIs, it can throw\n   (Like the angled spar)\nNow a dart of red,\n   Now a dart of blue;\nTill my friends have said\n   They would fain see, too,\nMy star that dartles the red and the blue!\nThen it stops like a bird; like a flower, hangs furled:\n   They must solace themselves with the Saturn above it.\nWhat matter to me if their star is a world?\n   Mine has opened its soul to me; therefore I love it.</pre>\n "}, {"title": "Love in a Life", "view_node": "/poem/love-life", "field_author": "<a href=\"/poet/robert-browning\" hreflang=\"und\">Robert Browning</a>", "field_date_published": "1855", "body": " <pre>\nRoom after room,\nI hunt the house through\nWe inhabit together.\nHeart, fear nothing, for, heart, thou shalt find her,\nNext time, herself!\u2014not the trouble behind her\nLeft in the curtain, the couch's perfume!\nAs she brushed it, the cornice-wreath blossomed anew,\u2014 \nYon looking-glass gleamed at the wave of her feather.\n\nYet the day wears,\nAnd door succeeds door;\nI try the fresh fortune\u2014 \nRange the wide house from the wing to the centre.\nStill the same chance! she goes out as I enter.\nSpend my whole day in the quest,\u2014who cares?\nBut 'tis twilight, you see,\u2014with such suites to explore,\nSuch closets to search, such alcoves to importune!\n</pre>\n "}, {"title": "Life in a Love", "view_node": "/poem/life-love", "field_author": "<a href=\"/poet/robert-browning\" hreflang=\"und\">Robert Browning</a>", "field_date_published": "1855", "body": " <pre>\nEscape me?\nNever\u2014\nBeloved!\nWhile I am I, and you are you,\n\u00a0\u00a0\u00a0So long as the world contains us both,\n\u00a0\u00a0\u00a0Me the loving and you the loth,\nWhile the one eludes, must the other pursue.\nMy life is a fault at last, I fear:\n\u00a0\u00a0\u00a0It seems too much like a fate, indeed!\n\u00a0\u00a0\u00a0Though I do my best I shall scarce succeed.\nBut what if I fail of my purpose here? \nIt is but to keep the nerves at strain,\n\u00a0\u00a0\u00a0To dry one's eyes and laugh at a fall,\nAnd baffled, get up to begin again,\u2014\n\u00a0\u00a0\u00a0So the chase takes up one's life, that's all.\nWhile, look but once from your farthest bound,\n\u00a0\u00a0\u00a0At me so deep in the dust and dark,\nNo sooner the old hope drops to ground\n\u00a0\u00a0\u00a0Than a new one, straight to the selfsame mark,\nI shape me\u2014\nEver\nRemoved! \n</pre>\n "}, {"title": "Frederick Douglass", "view_node": "/poem/frederick-douglass", "field_author": "<a href=\"/poet/paul-laurence-dunbar\" hreflang=\"und\">Paul Laurence Dunbar</a>", "field_date_published": "1895", "body": " <pre>A hush is over all the teeming lists,\n   And there is pause, a breath-space in the strife;\nA spirit brave has passed beyond the mists\n   And vapors that obscure the sun of life.\nAnd Ethiopia, with bosom torn,\nLaments the passing of her noblest born.\n\nShe weeps for him a mother's burning tears\u2014\n   She loved him with a mother's deepest love.\nHe was her champion thro' direful years,\n   And held her weal all other ends above.\nWhen Bondage held her bleeding in the dust,\nHe raised her up and whispered, \"Hope and Trust.\"\n\nFor her his voice, a fearless clarion, rung\n   That broke in warning on the ears of men;\nFor her the strong bow of his power he strung,\n   And sent his arrows to the very den\nWhere grim Oppression held his bloody place\nAnd gloated o'er the mis'ries of a race.\n\nAnd he was no soft-tongued apologist;\n   He spoke straightforward, fearlessly uncowed;\nThe sunlight of his truth dispelled the mist,\n   And set in bold relief each dark hued cloud;\nTo sin and crime he gave their proper hue,\nAnd hurled at evil what was evil's due.\n\nThrough good and ill report he cleaved his way.\n   Right onward, with his face set toward the heights,\nNor feared to face the foeman's dread array,\u2014\n   The lash of scorn, the sting of petty spites.\nHe dared the lightning in the lightning's track,\nAnd answered thunder with his thunder back.\n\nWhen men maligned him, and their torrent wrath\n   In furious imprecations o'er him broke,\nHe kept his counsel as he kept his path;\n   'Twas for his race, not for himself he spoke.\nHe knew the import of his Master's call,\nAnd felt himself too mighty to be small.\n\nNo miser in the good he held was he,\u2014\n   His kindness followed his horizon's rim.\nHis heart, his talents, and his hands were free\n   To all who truly needed aught of him.\nWhere poverty and ignorance were rife,\nHe gave his bounty as he gave his life.\n\nThe place and cause that first aroused his might\n   Still proved its power until his latest day.\nIn Freedom's lists and for the aid of Right\n   Still in the foremost rank he waged the fray;\nWrong lived; his occupation was not gone.\nHe died in action with his armor on!\n\nWe weep for him, but we have touched his hand,\n   And felt the magic of his presence nigh,\nThe current that he sent throughout the land,\n   The kindling spirit of his battle-cry.\nO'er all that holds us we shall triumph yet,\nAnd place our banner where his hopes were set!\n\nOh, Douglass, thou hast passed beyond the shore,\n   But still thy voice is ringing o'er the gale!\nThou'st taught thy race how high her hopes may soar,\n   And bade her seek the heights, nor faint, nor fail.\nShe will not fail, she heeds thy stirring cry,\nShe knows thy guardian spirit will be nigh,\nAnd, rising from beneath the chast'ning rod,\nShe stretches out her bleeding hands to God!</pre>\n "}, {"title": "Among the Multitude", "view_node": "/poem/among-multitude", "field_author": "<a href=\"/poet/walt-whitman\" hreflang=\"und\">Walt Whitman</a>", "field_date_published": "1891", "body": " <pre>Among the men and women the multitude,   \nI perceive one picking me out by secret and divine signs,   \n<span class=\"long-line\">Acknowledging none else, not parent, wife, husband, brother, child, any nearer than I am, </span>  \nSome are baffled, but that one is not\u2014that one knows me.   \n   \nAh lover and perfect equal, \nI meant that you should discover me so by my faint indirections,   \nAnd I when I meet you mean to discover you by the like in you.</pre>\n "}, {"title": "The Look", "view_node": "/poem/look", "field_author": "<a href=\"/poet/sara-teasdale\" hreflang=\"und\">Sara Teasdale</a>", "field_date_published": "1918", "body": " <pre>\nStrephon kissed me in the spring,\n      Robin in the fall,\nBut Colin only looked at me\n      And never kissed at all.\n\nStrephon's kiss was lost in jest,\n      Robin's lost in play,\nBut the kiss in Colin's eyes\n      Haunts me night and day.</pre>\n "}, {"title": "The Gift", "view_node": "/poem/gift", "field_author": "<a href=\"/poet/sara-teasdale\" hreflang=\"und\">Sara Teasdale</a>", "field_date_published": "1907", "body": " <pre>\nWhat can I give you, my lord, my lover,\nYou who have given the world to me,\nShowed me the light and the joy that cover\nThe wild sweet earth and restless sea?\n\nAll that I have are gifts of your giving\u2014\nIf I gave them again, you would find them old,\nAnd your soul would weary of always living\nBefore the mirror my life would hold.\n\nWhat shall I give you, my lord, my lover?\nThe gift that breaks the heart in me:\nI bid you awake at dawn and discover\nI have gone my way and left you free.</pre>\n "}, {"title": "Faults", "view_node": "/poem/faults", "field_author": "<a href=\"/poet/sara-teasdale\" hreflang=\"und\">Sara Teasdale</a>", "field_date_published": "1917", "body": " <pre>They came to tell your faults to me,\nThey named them over one by one;\nI laughed aloud when they were done,\nI knew them all so well before,\u2014\nOh, they were blind, too blind to see\nYour faults had made me love you more.</pre>\n "}, {"title": "Four Winds", "view_node": "/poem/four-winds", "field_author": "<a href=\"/poet/sara-teasdale\" hreflang=\"und\">Sara Teasdale</a>", "field_date_published": "1917", "body": " <pre>\n\"Four winds blowing thro' the sky,\nYou have seen poor maidens die,\nTell me then what I shall do\nThat my lover may be true.\"\nSaid the wind from out the south,\n\"Lay no kiss upon his mouth,\"\nAnd the wind from out the west,\n\"Wound the heart within his breast,\"\nAnd the wind from out the east,\n\"Send him empty from the feast,\"\nAnd the wind from out the north,\n\"In the tempest thrust him forth,\nWhen thou art more cruel than he,\nThen will Love be kind to thee.\"</pre>\n "}, {"title": "After Love", "view_node": "/poem/after-love", "field_author": "<a href=\"/poet/sara-teasdale\" hreflang=\"und\">Sara Teasdale</a>", "field_date_published": "1917", "body": "<p><span class=\"long-line\">There is no magic any more,</span><br /><span class=\"long-line\">\u00a0\u00a0\u00a0\u00a0\u00a0 We meet as other people do,</span><br /><span class=\"long-line\">You work no miracle for me</span><br /><span class=\"long-line\">\u00a0\u00a0\u00a0\u00a0\u00a0 Nor I for you.</span></p>\n\n<p><span class=\"long-line\">You were the wind and I the sea\u2014</span><br /><span class=\"long-line\">\u00a0\u00a0\u00a0\u00a0\u00a0 There is no splendor any more,</span><br /><span class=\"long-line\">I have grown listless as the pool</span><br /><span class=\"long-line\">\u00a0\u00a0\u00a0\u00a0\u00a0 Beside the shore.</span></p>\n\n<p><span class=\"long-line\">But though the pool is safe from storm</span><br /><span class=\"long-line\">\u00a0\u00a0\u00a0\u00a0\u00a0 And from the tide has found surcease,</span><br /><span class=\"long-line\">It grows more bitter than the sea,</span><br /><span class=\"long-line\">\u00a0\u00a0\u00a0\u00a0\u00a0 For all its peace.</span></p>\n"}], "pager": {"current_page": 562, "total_items": "13248", "total_pages": 663, "items_per_page": 20}}