{"rows": [{"title": "Justice", "view_node": "/poem/justice", "field_author": "<a href=\"/poet/langston-hughes\" hreflang=\"und\">Langston Hughes</a>", "field_date_published": "1923", "body": "<p><span class=\"\u201clong-line\u201d\">That Justice is a blind goddess</span><br /><span class=\"\u201clong-line\u201d\">Is a thing to which we black are wise:</span><br /><span class=\"\u201clong-line\u201d\">Her bandage hides two festering sores</span><br /><span class=\"\u201clong-line\u201d\">That once perhaps were eyes</span></p>\n"}, {"title": "A Black Pierrot", "view_node": "/poem/black-pierrot", "field_author": "<a href=\"/poet/langston-hughes\" hreflang=\"und\">Langston Hughes</a>", "field_date_published": "1924", "body": "<p><span class=\"\u201clong-line\u201d\">I am a black pierrot:</span><br /><span class=\"\u201clong-line\u201d\">\u00a0 \u00a0 \u00a0 \u00a0 She did not love me,</span><br /><span class=\"\u201clong-line\u201d\">\u00a0 \u00a0 \u00a0 \u00a0 So I crept away into the night</span><br /><span class=\"\u201clong-line\u201d\">\u00a0 \u00a0 \u00a0 \u00a0 And the night was black, too.</span></p>\n\n<p><span class=\"\u201clong-line\u201d\">I am a black pierrot:</span><br /><span class=\"\u201clong-line\u201d\">\u00a0 \u00a0 \u00a0 \u00a0 She did not love me,</span><br /><span class=\"\u201clong-line\u201d\">\u00a0 \u00a0 \u00a0 \u00a0 So I wept until the red dawn</span><br /><span class=\"\u201clong-line\u201d\">\u00a0 \u00a0 \u00a0 \u00a0 Dripped blood over the eastern hills</span><br /><span class=\"\u201clong-line\u201d\">\u00a0 \u00a0 \u00a0 \u00a0 And my heart was bleeding, too.</span></p>\n\n<p><span class=\"\u201clong-line\u201d\">I am a black pierrot:</span><br /><span class=\"\u201clong-line\u201d\">\u00a0 \u00a0 \u00a0 \u00a0 She did not love me,</span><br /><span class=\"\u201clong-line\u201d\">\u00a0 \u00a0 \u00a0 \u00a0 So with my once gay colored soul</span><br /><span class=\"\u201clong-line\u201d\">\u00a0 \u00a0 \u00a0 \u00a0 shrunken like a balloon without air,</span><br /><span class=\"\u201clong-line\u201d\">\u00a0 \u00a0 \u00a0 \u00a0 I went forth in the morning</span><br /><span class=\"\u201clong-line\u201d\">\u00a0 \u00a0 \u00a0 \u00a0 To seek a new brown love.</span></p>\n"}, {"title": "When Sue Wears Red ", "view_node": "/poem/when-sue-wears-red", "field_author": "<a href=\"/poet/langston-hughes\" hreflang=\"und\">Langston Hughes</a>", "field_date_published": "1923", "body": "<p><span class=\"\u201clong-line\u201d\">When Susanna Jones wears red</span><br /><span class=\"\u201clong-line\u201d\">her face is like an ancient cameo</span><br /><span class=\"\u201clong-line\u201d\">Turned brown by the ages.</span></p>\n\n<p><span class=\"\u201clong-line\u201d\">Come with a blast of trumpets,</span><br /><span class=\"\u201clong-line\u201d\">\u00a0 \u00a0 \u00a0 \u00a0Jesus!</span></p>\n\n<p><span class=\"\u201clong-line\u201d\">When Susanna Jones wears red</span><br /><span class=\"\u201clong-line\u201d\">A queen from some time-dead Egyptian night</span><br /><span class=\"\u201clong-line\u201d\">Walks once again.</span></p>\n\n<p><span class=\"\u201clong-line\u201d\">Blow trumpets, Jesus!</span></p>\n\n<p><span class=\"\u201clong-line\u201d\">And the beauty of Susanna Jones in red</span><br /><span class=\"\u201clong-line\u201d\">Burns in my heart a love-fire sharp like a pain.</span></p>\n\n<p><span class=\"\u201clong-line\u201d\">Sweet silver trumpets,</span><br /><span class=\"\u201clong-line\u201d\">\u00a0 \u00a0 \u00a0 \u00a0Jesus!</span></p>\n"}, {"title": "Song for a Banjo Dance", "view_node": "/poem/song-banjo-dance", "field_author": "<a href=\"/poet/langston-hughes\" hreflang=\"und\">Langston Hughes</a>", "field_date_published": "1926", "body": "<p><span class=\"\u201clong-line\u201d\">Shake your brown feet, honey,</span><br /><span class=\"\u201clong-line\u201d\">Shake your brown feet, chile,</span><br /><span class=\"\u201clong-line\u201d\">Shake your brown feet, honey,</span><br /><span class=\"\u201clong-line\u201d\">Shake \u2019em swift and wil\u2019\u2013</span><br /><span class=\"\u201clong-line\u201d\">\u00a0 \u00a0 Get way back, honey,</span><br /><span class=\"\u201clong-line\u201d\">\u00a0 \u00a0 Do that low-down step.</span><br /><span class=\"\u201clong-line\u201d\">\u00a0 \u00a0 Walk on over, darling,</span><br /><span class=\"\u201clong-line\u201d\">\u00a0 \u00a0 \u00a0 \u00a0 Now! Come out</span><br /><span class=\"\u201clong-line\u201d\">\u00a0 \u00a0 \u00a0 \u00a0 With your left.</span><br /><span class=\"\u201clong-line\u201d\">Shake your brown feet, honey,</span><br /><span class=\"\u201clong-line\u201d\">Shake \u2019em, honey chile.</span></p>\n\n<p><span class=\"\u201clong-line\u201d\">Sun\u2019s going down this evening\u2013</span><br /><span class=\"\u201clong-line\u201d\">Might never rise no mo\u2019.</span><br /><span class=\"\u201clong-line\u201d\">The sun\u2019s going down this very night\u2013</span><br /><span class=\"\u201clong-line\u201d\">Might never rise no mo\u2019\u2013</span><br /><span class=\"\u201clong-line\u201d\">So dance with swift feet, honey,</span><br /><span class=\"\u201clong-line\u201d\">\u00a0 \u00a0 (The banjo\u2019s sobbing low)</span><br /><span class=\"\u201clong-line\u201d\">Dance with swift feet, honey\u2013</span><br /><span class=\"\u201clong-line\u201d\">\u00a0 \u00a0 Might never dance no mo\u2019.</span></p>\n\n<p><span class=\"\u201clong-line\u201d\">Shake your brown feet, Liza,</span><br /><span class=\"\u201clong-line\u201d\">Shake \u2019em, Liza, chile,</span><br /><span class=\"\u201clong-line\u201d\">Shake your brown feet, Liza,</span><br /><span class=\"\u201clong-line\u201d\">\u00a0 \u00a0 (The music\u2019s soft and wil\u2019)</span><br /><span class=\"\u201clong-line\u201d\">Shake your brown feet, Liza,</span><br /><span class=\"\u201clong-line\u201d\">\u00a0 \u00a0 (The banjo\u2019s sobbing low)</span><br /><span class=\"\u201clong-line\u201d\">The sun\u2019s going down this very night\u2013</span><br /><span class=\"\u201clong-line\u201d\">Might never rise no mo\u2019.</span></p>\n"}, {"title": "Beggar Boy", "view_node": "/poem/beggar-boy", "field_author": "<a href=\"/poet/langston-hughes\" hreflang=\"und\">Langston Hughes</a>", "field_date_published": "1926", "body": "<p><span class=\"\u201clong-line\u201d\">What is there within this beggar lad</span><br /><span class=\"\u201clong-line\u201d\">That I can neither hear nor feel nor see,</span><br /><span class=\"\u201clong-line\u201d\">That I can neither know nor understand</span><br /><span class=\"\u201clong-line\u201d\">And still it calls to me?</span></p>\n\n<p><span class=\"\u201clong-line\u201d\">Is not he but a shadow in the sun \u2014</span><br /><span class=\"\u201clong-line\u201d\">A bit of clay, brown, ugly, given life?</span><br /><span class=\"\u201clong-line\u201d\">And yet he plays upon his flute a wild free tune</span><br /><span class=\"\u201clong-line\u201d\">As if Fate had not bled him with her knife!</span></p>\n"}, {"title": "After Many Springs", "view_node": "/poem/after-many-springs", "field_author": "<a href=\"/poet/langston-hughes\" hreflang=\"und\">Langston Hughes</a>", "field_date_published": "1926", "body": "<p><span class=\"\u201clong-line\u201d\">Now,</span><br /><span class=\"\u201clong-line\u201d\">In June,</span><br /><span class=\"\u201clong-line\u201d\">When the night is a vast softness</span><br /><span class=\"\u201clong-line\u201d\">Filled with blue stars,</span><br /><span class=\"\u201clong-line\u201d\">And broken shafts of moon-glimmer</span><br /><span class=\"\u201clong-line\u201d\">Fall upon the earth,</span><br /><span class=\"\u201clong-line\u201d\">Am I too old to see the fairies dance?</span><br /><span class=\"\u201clong-line\u201d\">I cannot find them any more.</span></p>\n"}, {"title": "Danse Africaine ", "view_node": "/poem/danse-africaine", "field_author": "<a href=\"/poet/langston-hughes\" hreflang=\"und\">Langston Hughes</a>", "field_date_published": "1924", "body": "<p><span class=\"\u201clong-line\u201d\">The low beating of the tom-toms,</span><br /><span class=\"\u201clong-line\u201d\">The slow beating of the tom-toms,</span><br /><span class=\"\u201clong-line\u201d\">\u00a0 \u00a0 \u00a0 \u00a0Low . . . slow</span><br /><span class=\"\u201clong-line\u201d\">\u00a0 \u00a0 \u00a0 \u00a0Slow . . . low \u2014</span><br /><span class=\"\u201clong-line\u201d\">\u00a0 \u00a0 \u00a0 \u00a0Stirs your blood.</span><br /><span class=\"\u201clong-line\u201d\">\u00a0 \u00a0 \u00a0 \u00a0\u00a0 \u00a0 \u00a0 \u00a0 Dance!</span><br /><span class=\"\u201clong-line\u201d\">A night-veiled girl</span><br /><span class=\"\u201clong-line\u201d\">\u00a0 \u00a0 \u00a0 \u00a0Whirls softly into a</span><br /><span class=\"\u201clong-line\u201d\">\u00a0 \u00a0 \u00a0 \u00a0Circle of light.</span><br /><span class=\"\u201clong-line\u201d\">\u00a0 \u00a0 \u00a0 \u00a0Whirls softly . . . slowly,</span><br /><span class=\"\u201clong-line\u201d\">Like a wisp of smoke around the fire \u2014</span><br /><span class=\"\u201clong-line\u201d\">\u00a0 \u00a0 \u00a0 \u00a0And the tom-toms beat,</span><br /><span class=\"\u201clong-line\u201d\">\u00a0 \u00a0 \u00a0 \u00a0And the tom-toms beat,</span><br /><span class=\"\u201clong-line\u201d\">And the low beating of the tom-toms</span><br /><span class=\"\u201clong-line\u201d\">\u00a0 \u00a0 \u00a0 \u00a0Stirs your blood.</span></p>\n"}, {"title": "Home Thoughts", "view_node": "/poem/home-thoughts", "field_author": "<a href=\"/poet/claude-mckay\" hreflang=\"und\">Claude McKay</a>", "field_date_published": "1922", "body": "<p><span class=\"long-line\">Oh something just now must be happening there!</span><br /><span class=\"long-line\">That suddenly and quiveringly here,</span><br /><span class=\"long-line\">Amid the city's noises, I must think</span><br /><span class=\"long-line\">Of mangoes leaning o'er the river's brink,</span><br /><span class=\"long-line\">And dexterous Davie climbing high above,</span><br /><span class=\"long-line\">The gold fruits ebon-speckled to remove,</span><br /><span class=\"long-line\">And toss them quickly in the tangled mass</span><br /><span class=\"long-line\">Of wis-wis twisted round the guinea grass;</span><br /><span class=\"long-line\">And Cyril coming through the bramble-track</span><br /><span class=\"long-line\">A prize bunch of bananas on his back;</span><br /><span class=\"long-line\">And Georgie\u2014none could ever dive like him\u2014</span><br /><span class=\"long-line\">Throwing his scanty clothes off for a swim;</span><br /><span class=\"long-line\">And schoolboys, from Bridge-tunnel going home,</span><br /><span class=\"long-line\">Watching the waters downward dash and foam.</span><br /><span class=\"long-line\">This is no daytime dream, there's something in it,</span><br /><span class=\"long-line\">Oh something's happening there this very minute!</span></p>\n"}, {"title": "On Broadway", "view_node": "/poem/broadway-2", "field_author": "<a href=\"/poet/claude-mckay\" hreflang=\"und\">Claude McKay</a>", "field_date_published": "1922", "body": "<p><span class=\"long-line\">About me young and careless feet</span><br /><span class=\"long-line\">Linger along the garish street;</span><br /><span class=\"long-line\">\u00a0 \u00a0 \u00a0 \u00a0 \u00a0Above, a hundred shouting signs</span><br /><span class=\"long-line\">Shed down their bright fantastic glow</span><br /><span class=\"long-line\">\u00a0 \u00a0 \u00a0 \u00a0 \u00a0Upon the merry crowd and lines</span><br /><span class=\"long-line\">Of moving carriages below.</span><br /><span class=\"long-line\">Oh wonderful is Broadway\u2014only</span><br /><span class=\"long-line\">My heart, my heart is lonely.</span></p>\n<p><span class=\"long-line\">Desire naked, linked with Passion,</span><br /><span class=\"long-line\">Goes strutting by in brazen fashion;</span><br /><span class=\"long-line\">\u00a0 \u00a0 \u00a0 \u00a0 \u00a0From playhouse, cabaret and inn</span><br /><span class=\"long-line\">The rainbow lights of Broadway blaze</span><br /><span class=\"long-line\">\u00a0 \u00a0 \u00a0 \u00a0 \u00a0All gay without, all glad within;</span><br /><span class=\"long-line\">As in a dream I stand and gaze</span><br /><span class=\"long-line\">At Broadway, shining Broadway\u2014only</span><br /><span class=\"long-line\">My heart, my heart is lonely.</span></p>\n"}, {"title": "For John Keats, Apostle of Beauty", "view_node": "/poem/john-keats-apostle-beauty", "field_author": "<a href=\"/poet/countee-cullen\" hreflang=\"und\">Countee Cullen</a>", "field_date_published": "1925", "body": "<p><span class=\"long-line\">Not writ in water, nor in mist,</span><br /><span class=\"long-line\">\u00a0 \u00a0 Sweet lyric throat, thy name;</span><br /><span class=\"long-line\">Thy singing lips that cold death kissed</span><br /><span class=\"long-line\">\u00a0 \u00a0 Have seared his own with flame.</span></p>\n"}, {"title": "For One Who Died Singing of Death", "view_node": "/poem/one-who-died-singing-death", "field_author": "<a href=\"/poet/countee-cullen\" hreflang=\"und\">Countee Cullen</a>", "field_date_published": "1925", "body": "<p><span class=\"long-line\">He whose might you sang so well</span><br /><span class=\"long-line\">\u00a0 \u00a0 Living, will not let you rust:</span><br /><span class=\"long-line\">Death has set the golden bell</span><br /><span class=\"long-line\">\u00a0 \u00a0 Pealing in the courts of dust.</span></p>\n"}, {"title": "UPON Grief and Grievance: Art and Mourning in America, New Museum, New York, 2021. / DOUBLE SONNET after A.J., C.S.D., C.G., J.B., D.R., P.C., M.B., K.G.,  K.W., M.E., K.B., E.G., M.D. &amp; R.S. ", "view_node": "/poem/upon-grief-and-grievance-art-and-mourning-america-new-museum-new-york-2021-double-sonnet-after", "field_author": "<a href=\"/poet/ronaldo-v-wilson\" hreflang=\"und\">Ronaldo V. Wilson</a>", "field_date_published": "2021", "body": "<blockquote><sup><em>for Okwui Enwezor</em></sup></blockquote>\n\n<p><span class=\"long-line\">Firehose blast pummels. Torqued silhouettes.</span><br /><span class=\"long-line\"><em>Teach me how to Dougie\u2026</em>We don\u2019t succumb. </span><br /><span class=\"long-line\"><em>Everything that stood in their way\u2026ruthless</em> </span><br /><span class=\"long-line\"><em>destruction\u2026</em>for which tool brazen Diamond </span></p>\n\n<p><span class=\"long-line\">hammers back against murder. Article: </span><br /><span class=\"long-line\"><em>Philando\u2019s </em><em>fianc\u00e9 booked</em>. Our assault </span><br /><span class=\"long-line\">maps. Bradford\u2019s built paper, string tactical\u00a0 </span><br /><span class=\"long-line\">veins pulse in black crumples. Forearms\u2014Baller </span></p>\n\n<p><span class=\"long-line\">K.G. (Celtics) seizes, spits. Gouache, white ink, </span><br /><span class=\"long-line\">magenta mouth-stung light. Walker: <em>We tried\u2026\u00a0</em> </span><br /><span class=\"long-line\">Not venom, neurotoxins. Vomit pink\u2014 </span><br /><span class=\"long-line\">Is it? Our exhaustion translates: <em>We tried\u2026</em></span></p>\n\n<p><span class=\"long-line\">Bubble hoodie. Helmet-to-weave, <em>No Rem,</em> </span><br /><span class=\"long-line\">M.E., welded steel:<em> Lynch Fragments</em> for them.\u00a0\u00a0\u00a0 </span></p>\n\n<p><span class=\"long-line\">Art mines, solders, bleeds. Angles as expect </span><br /><span class=\"long-line\">orate to its hyphae. Roots\u2014in <em>Hyper\u00a0</em> </span><br /><span class=\"long-line\"><em>cardioid and contact</em>\u2014mics\u2014<em>Dew, Pigment.\u00a0\u00a0</em> </span><br /><span class=\"long-line\">Beasley and Gallagher sinew lines, curve\u00a0 </span></p>\n\n<p><span class=\"long-line\">sensorium as polyurethane\u00a0\u00a0 </span><br /><span class=\"long-line\">query: optic vertebrate, lexicon.\u00a0 </span><br /><span class=\"long-line\">Translucent human-gut spores. Body <em>planes</em> </span><br /><span class=\"long-line\"><em>used in the hi order for\u2026your drill\u2026Drum</em></span></p>\n\n<p><span class=\"long-line\"><em>Bits\u2026/ntial\u2026ad\u2026FREE WORKSHOP will\u2026i</em> </span><br /><span class=\"long-line\"><em>of America\u2026now\u2026PUT YOUR HANDS UP\u00a0</em> </span><br /><span class=\"long-line\"><em>AGAINST THE WALL!</em> <em>The building is on Fiiyy</em> </span><br /><span class=\"long-line\"><em>yAAHH\u2026got my 3 kids, and we bounced\u2026</em>Smoke rup </span></p>\n\n<p><span class=\"long-line\">tures <em>Alien\u2019s</em> proboscis\u2026<em>They don\u2019 know</em>\u2026<em>\u00a0</em> </span><br /><span class=\"long-line\"><em>They don\u2019 know\u2026</em>Pixels\u2014blues, violet shadows.</span></p>\n"}, {"title": "For a Preacher", "view_node": "/poem/preacher", "field_author": "<a href=\"/poet/countee-cullen\" hreflang=\"und\">Countee Cullen</a>", "field_date_published": "1925", "body": "<p><span class=\"long-line\">Vanity of vanities,</span><br /><span class=\"long-line\">\u00a0 \u00a0 All is vanity; yea,</span><br /><span class=\"long-line\">Even the rod He flayed you with</span><br /><span class=\"long-line\">\u00a0 \u00a0 Crumbled and turned to clay.</span></p>\n"}, {"title": "For a Wanton", "view_node": "/poem/wanton", "field_author": "<a href=\"/poet/countee-cullen\" hreflang=\"und\">Countee Cullen</a>", "field_date_published": "1925", "body": "<p><span class=\"long-line\">To men no more than so much cover</span><br /><span class=\"long-line\">\u00a0 \u00a0 For them to doff or try,</span><br /><span class=\"long-line\">I found in Death a constant lover:</span><br /><span class=\"long-line\">\u00a0 \u00a0 Here in his arms I lie.</span></p>\n"}, {"title": "I Was a Good Wife", "view_node": "/poem/i-was-good-wife", "field_author": "<a href=\"/poet/vanessa-angelica-villarreal\" hreflang=\"en\">Vanessa Ange\u0301lica Villarreal</a>", "field_date_published": "2021", "body": "<blockquote><sup><em>for helios, not yet a collapsed star</em></sup></blockquote>\n\n<p><span class=\"long-line\">and an even better</span><br /><span class=\"long-line\">wolf, jawed to a thicket of lonely</span><br /><span class=\"long-line\">lungs trees I mean breathing, comet</span><br /><span class=\"long-line\">come to me, come</span><br /><span class=\"long-line\">a lone light, like the fire</span><br /><span class=\"long-line\">that rips the mountainside\u2019s</span><br /><span class=\"long-line\">dress, I was a good</span><br /><span class=\"long-line\">ununderstood, a wrist</span><br /><span class=\"long-line\">of bent light, undressing</span><br /><span class=\"long-line\">alone an even quieter violence. I am</span><br /><span class=\"long-line\">remembering how to want</span><br /><span class=\"long-line\">my life, how to want to come</span><br /><span class=\"long-line\">even closer to the wolf I was</span><br /><span class=\"long-line\">you wanted this to be about borders</span></p>\n\n<p><span class=\"long-line\">it is</span></p>\n"}, {"title": "Give-Away Song", "view_node": "/poem/give-away-song", "field_author": "<a href=\"/poet/gwen-westerman\" hreflang=\"en\">Gwen Westerman</a>", "field_date_published": "2021", "body": "<p><span class=\"long-line\">This is my give-away\u2014 </span><br /><span class=\"long-line\">\u00a0\u00a0\u00a0\u00a0\u00a0\u00a0\u00a0\u00a0\u00a0\u00a0\u00a0 not because I don\u2019t want </span><br /><span class=\"long-line\">\u00a0\u00a0\u00a0\u00a0\u00a0\u00a0\u00a0\u00a0\u00a0\u00a0\u00a0 \u00a0 \u00a0 \u00a0 it anymore, </span><br /><span class=\"long-line\">\u00a0\u00a0\u00a0\u00a0\u00a0\u00a0\u00a0\u00a0\u00a0\u00a0\u00a0 not because it\u2019s out of </span><br /><span class=\"long-line\">\u00a0\u00a0\u00a0\u00a0\u00a0\u00a0\u00a0\u00a0\u00a0\u00a0\u00a0 \u00a0 \u00a0 \u00a0 style or </span><br /><span class=\"long-line\">\u00a0\u00a0\u00a0\u00a0\u00a0\u00a0\u00a0\u00a0\u00a0\u00a0\u00a0 \u00a0 \u00a0 broken or </span><br /><span class=\"long-line\">\u00a0\u00a0\u00a0\u00a0\u00a0\u00a0\u00a0\u00a0\u00a0\u00a0\u00a0 \u00a0 \u00a0 useless since it lost </span><br /><span class=\"long-line\">\u00a0\u00a0\u00a0\u00a0\u00a0\u00a0\u00a0\u00a0\u00a0\u00a0\u00a0 \u00a0 \u00a0 its lid or one of its buttons, </span><br /><span class=\"long-line\">\u00a0\u00a0\u00a0\u00a0\u00a0\u00a0\u00a0\u00a0\u00a0\u00a0\u00a0 not because I don\u2019t understand </span><br /><span class=\"long-line\">\u00a0\u00a0\u00a0\u00a0\u00a0\u00a0\u00a0\u00a0\u00a0\u00a0\u00a0 \u00a0 \u00a0 the \u201cvalue\u201d of things. </span><br /><span class=\"long-line\">This is my give-away\u2014 </span><br /><span class=\"long-line\">\u00a0\u00a0\u00a0\u00a0\u00a0\u00a0\u00a0\u00a0\u00a0\u00a0\u00a0 because I have enough </span><br /><span class=\"long-line\">\u00a0\u00a0\u00a0\u00a0\u00a0\u00a0\u00a0\u00a0\u00a0\u00a0\u00a0 \u00a0 \u00a0 \u00a0 to share with you </span><br /><span class=\"long-line\">\u00a0\u00a0\u00a0\u00a0\u00a0\u00a0\u00a0\u00a0\u00a0\u00a0\u00a0 because I have been given </span><br /><span class=\"long-line\">\u00a0\u00a0\u00a0\u00a0\u00a0\u00a0\u00a0\u00a0\u00a0\u00a0\u00a0 \u00a0 \u00a0 \u00a0 so much </span><br /><span class=\"long-line\">\u00a0\u00a0\u00a0\u00a0\u00a0\u00a0\u00a0\u00a0\u00a0\u00a0\u00a0 \u00a0 \u00a0 \u00a0 \u00a0 health love happiness </span><br /><span class=\"long-line\">\u00a0\u00a0\u00a0\u00a0\u00a0\u00a0\u00a0\u00a0\u00a0\u00a0\u00a0 \u00a0 \u00a0 \u00a0 \u00a0 pain sorrow fear </span><br /><span class=\"long-line\">\u00a0\u00a0\u00a0\u00a0\u00a0\u00a0\u00a0\u00a0\u00a0\u00a0\u00a0 to share from the heart </span><br /><span class=\"long-line\">\u00a0\u00a0\u00a0\u00a0\u00a0\u00a0\u00a0\u00a0\u00a0\u00a0\u00a0 in a world where words can be </span><br /><span class=\"long-line\">\u00a0\u00a0\u00a0\u00a0\u00a0\u00a0\u00a0\u00a0\u00a0\u00a0\u00a0 meaningless when they come </span><br /><span class=\"long-line\">\u00a0\u00a0\u00a0\u00a0\u00a0\u00a0\u00a0\u00a0\u00a0\u00a0\u00a0 only from the head. </span><br /><span class=\"long-line\">This is my give-way\u2014 </span><br /><span class=\"long-line\">\u00a0\u00a0\u00a0\u00a0\u00a0\u00a0\u00a0\u00a0\u00a0\u00a0\u00a0 to touch what is good in you </span><br /><span class=\"long-line\">\u00a0\u00a0\u00a0\u00a0\u00a0\u00a0\u00a0\u00a0\u00a0\u00a0\u00a0 with words your heart can hear </span><br /><span class=\"long-line\">\u00a0\u00a0\u00a0\u00a0\u00a0\u00a0\u00a0\u00a0\u00a0\u00a0\u00a0 like ripples from a pebble </span><br /><span class=\"long-line\">\u00a0\u00a0\u00a0\u00a0\u00a0\u00a0\u00a0\u00a0\u00a0\u00a0\u00a0 dropped in water </span><br /><span class=\"long-line\">\u00a0\u00a0\u00a0\u00a0\u00a0\u00a0\u00a0\u00a0\u00a0\u00a0\u00a0 moving outward growing </span><br /><span class=\"long-line\">\u00a0\u00a0\u00a0\u00a0\u00a0\u00a0\u00a0\u00a0\u00a0\u00a0\u00a0 wider touching others. </span><br /><span class=\"long-line\">\u00a0\u00a0\u00a0\u00a0\u00a0\u00a0\u00a0\u00a0\u00a0\u00a0\u00a0 You are strong. </span><br /><span class=\"long-line\">\u00a0\u00a0\u00a0\u00a0\u00a0\u00a0\u00a0\u00a0\u00a0\u00a0\u00a0 You are kind. </span><br /><span class=\"long-line\">\u00a0\u00a0\u00a0\u00a0\u00a0\u00a0\u00a0\u00a0\u00a0\u00a0\u00a0 You are beautiful. </span><br /><span class=\"long-line\">This is my give-away. </span><br /><span class=\"long-line\">\u00a0\u00a0\u00a0\u00a0\u00a0Wopida ye.\u00a0\u00a0\u00a0 </span><br /><span class=\"long-line\">\u00a0\u00a0\u00a0\u00a0\u00a0\u00a0\u00a0\u00a0\u00a0\u00a0Wopida ye. </span><br /><span class=\"long-line\">\u00a0\u00a0\u00a0\u00a0\u00a0\u00a0\u00a0\u00a0\u00a0\u00a0\u00a0 \u00a0 \u00a0 Wopida ye.</span></p>\n"}, {"title": "The Tropics in New York", "view_node": "/poem/tropics-new-york-0", "field_author": "<a href=\"/poet/claude-mckay\" hreflang=\"und\">Claude McKay</a>", "field_date_published": "1922", "body": "<p><span class=\"long-line\">Bananas ripe and green, and ginger-root,</span><br /><span class=\"long-line\">\u00a0 \u00a0 \u00a0 \u00a0 \u00a0Cocoa in pods and alligator pears,</span><br /><span class=\"long-line\">And tangerines and mangoes and grape fruit,</span><br /><span class=\"long-line\">\u00a0 \u00a0 \u00a0 \u00a0 \u00a0Fit for the highest prize at parish fairs,</span></p>\n<p><span class=\"long-line\">Set in the window, bringing memories</span><br /><span class=\"long-line\">\u00a0 \u00a0 \u00a0 \u00a0 \u00a0Of fruit-trees laden by low-singing rills,</span><br /><span class=\"long-line\">And dewy dawns, and mystical blue skies</span><br /><span class=\"long-line\">\u00a0 \u00a0 \u00a0 \u00a0 \u00a0In benediction over nun-like hills.</span></p>\n<p><span class=\"long-line\">My eyes grew dim, and I could no more gaze;</span><br /><span class=\"long-line\">\u00a0 \u00a0 \u00a0 \u00a0 \u00a0A wave of longing through my body swept,</span><br /><span class=\"long-line\">And, hungry for the old, familiar ways,</span><br /><span class=\"long-line\">\u00a0 \u00a0 \u00a0 \u00a0 \u00a0I turned aside and bowed my head and wept.</span></p>\n"}, {"title": "Alfonso, Dressing to Wait at Table", "view_node": "/poem/alfonso-dressing-wait-table", "field_author": "<a href=\"/poet/claude-mckay\" hreflang=\"und\">Claude McKay</a>", "field_date_published": "1922", "body": "<p><span class=\"long-line\">Alfonso is a handsome bronze-hued lad</span><br /><span class=\"long-line\">\u00a0 \u00a0 \u00a0 \u00a0 \u00a0Of subtly-changing and surprising parts;</span><br /><span class=\"long-line\">His moods are storms that frighten and make glad,</span><br /><span class=\"long-line\">\u00a0 \u00a0 \u00a0 \u00a0 \u00a0His eyes were made to capture women\u2019s hearts.</span></p>\n<p><span class=\"long-line\">Down in the glory-hole Alfonso sings</span><br /><span class=\"long-line\">\u00a0 \u00a0 \u00a0 \u00a0 \u00a0An olden song of wine and clinking glasses</span><br /><span class=\"long-line\">And riotous rakes; magnificently flings</span><br /><span class=\"long-line\">\u00a0 \u00a0 \u00a0 \u00a0 \u00a0Gay kisses to imaginary lasses.</span></p>\n<p><span class=\"long-line\">Alfonso\u2019s voice of mellow music thrills</span><br /><span class=\"long-line\">\u00a0 \u00a0 \u00a0 \u00a0 \u00a0Our swaying forms and steals our hearts with joy;</span><br /><span class=\"long-line\">And when he soars, his fine falsetto trills</span><br /><span class=\"long-line\">\u00a0 \u00a0 \u00a0 \u00a0 \u00a0Are rarest notes of gold without alloy.</span></p>\n<p><span class=\"long-line\">But, O Alfonso! wherefore do you sing</span><br /><span class=\"long-line\">\u00a0 \u00a0 \u00a0 \u00a0 \u00a0Dream-songs of carefree men and ancient places?</span><br /><span class=\"long-line\">Soon we shall be beset by clamouring</span><br /><span class=\"long-line\">\u00a0 \u00a0 \u00a0 \u00a0 \u00a0Of hungry and importunate palefaces.</span></p>\n"}, {"title": "Laughers", "view_node": "/poem/laughers", "field_author": "<a href=\"/poet/langston-hughes\" hreflang=\"und\">Langston Hughes</a>", "field_date_published": "1922", "body": "<p><span class=\"\u201clong-line\u201d\">Dream-singers,</span><br /><span class=\"\u201clong-line\u201d\">Story-tellers,</span><br /><span class=\"\u201clong-line\u201d\">Dancers,</span><br /><span class=\"\u201clong-line\u201d\">Loud laughers in the hands of Fate\u2014</span><br /><span class=\"\u201clong-line\u201d\">\u00a0 \u00a0My people.</span><br /><span class=\"\u201clong-line\u201d\">Dish-washers,</span><br /><span class=\"\u201clong-line\u201d\">Elevator-boys,</span><br /><span class=\"\u201clong-line\u201d\">Ladies' maids,</span><br /><span class=\"\u201clong-line\u201d\">Crap-shooters,</span><br /><span class=\"\u201clong-line\u201d\">Cooks,</span><br /><span class=\"\u201clong-line\u201d\">Waiters,</span><br /><span class=\"\u201clong-line\u201d\">Jazzers,</span><br /><span class=\"\u201clong-line\u201d\">Nurses of babies,</span><br /><span class=\"\u201clong-line\u201d\">Loaders of ships,</span><br /><span class=\"\u201clong-line\u201d\">Rounders,</span><br /><span class=\"\u201clong-line\u201d\">Number writers,</span><br /><span class=\"\u201clong-line\u201d\">Comedians in vaudeville</span><br /><span class=\"\u201clong-line\u201d\">And band-men in circuses\u2014</span><br /><span class=\"\u201clong-line\u201d\">Dream-singers all,\u2014</span><br /><span class=\"\u201clong-line\u201d\">\u00a0 \u00a0My people.</span><br /><span class=\"\u201clong-line\u201d\">Story-tellers all,\u2014</span><br /><span class=\"\u201clong-line\u201d\">My people.</span><br /><span class=\"\u201clong-line\u201d\">\u00a0 \u00a0Dancers\u2014</span><br /><span class=\"\u201clong-line\u201d\">God! What dancers!</span><br /><span class=\"\u201clong-line\u201d\">\u00a0 \u00a0Singers\u2014</span><br /><span class=\"\u201clong-line\u201d\">God! What singers!</span><br /><span class=\"\u201clong-line\u201d\">Singers and dancers</span><br /><span class=\"\u201clong-line\u201d\">Dancers and laughers.<br />\n\u00a0 \u00a0Laughers?</span><br /><span class=\"\u201clong-line\u201d\">Yes, laughers . . . laughers . . . laughers\u2014</span><br /><span class=\"\u201clong-line\u201d\">Loud-mouthed laughers in the hands</span><br />\n\u00a0 \u00a0Of Fate.</p>\n"}, {"title": "Mexican Market Woman", "view_node": "/poem/mexican-market-woman", "field_author": "", "field_date_published": "1922", "body": "<p><span class=\"\u201clong-line\u201d\">This ancient hag</span><br /><span class=\"\u201clong-line\u201d\">Who sits upon the ground</span><br /><span class=\"\u201clong-line\u201d\">Selling her scanty wares</span><br /><span class=\"\u201clong-line\u201d\">Day in, day round,</span><br /><span class=\"\u201clong-line\u201d\">Has known high wind-swept mountains,</span><br /><span class=\"\u201clong-line\u201d\">And the sun has made</span><br /><span class=\"\u201clong-line\u201d\">Her skin so brown.</span></p>\n"}], "pager": {"current_page": 66, "total_items": "13248", "total_pages": 663, "items_per_page": 20}}