{"rows": [{"title": "Don&#039;t Kill Yourself (audio only)", "view_node": "/poem/dont-kill-yourself-audio-only", "field_author": "<a href=\"/poet/paul-hoover\" hreflang=\"und\">Paul Hoover</a>", "field_date_published": "2008", "body": " <p>\u00a0</p><p>Click the icon above to listen to this audio poem.</p> "}, {"title": "Driver&#039;s Song (audio only)", "view_node": "/poem/drivers-song-audio-only", "field_author": "<a href=\"/poet/paul-hoover\" hreflang=\"und\">Paul Hoover</a>", "field_date_published": "2008", "body": " <p>\u00a0</p><p>Click the icon above to listen to this audio poem.</p> "}, {"title": "Edge and Fold, sections 15-49 (audio only)", "view_node": "/poem/edge-and-fold-sections-15-49-audio-only", "field_author": "<a href=\"/poet/paul-hoover\" hreflang=\"und\">Paul Hoover</a>", "field_date_published": "2008", "body": " <p>\u00a0</p><p>Click the icon above to listen to this audio poem.</p> "}, {"title": "Poems We Can Understand (audio only)", "view_node": "/poem/poems-we-can-understand-audio-only", "field_author": "<a href=\"/poet/paul-hoover\" hreflang=\"und\">Paul Hoover</a>", "field_date_published": "2008", "body": " <p>\u00a0</p><p>Click the icon above to listen to this audio poem.</p> "}, {"title": "Ash Ode", "view_node": "/poem/ash-ode", "field_author": "<a href=\"/poet/dean-young\" hreflang=\"und\">Dean Young</a>", "field_date_published": "2008", "body": " <pre>\nWhen I saw you ahead I ran two blocks\nshouting your name then realizing it wasn\u2019t\nyou but some alarmed pretender, I went on\nrunning, shouting now into the sky,\ncontinuing your fame and luster. Since I've\nbeen incinerated, I've oft returned to this thought,\nthat all things loved are pursued and never caught,\neven as you slept beside me you were flying off.\nAt least what's never had can\u2019t be lost, the sieve\nof self stuck with just some larger chunks, jawbone,\nwedding ring, a single repeated dream,\na lullaby in every elegy, descriptions\nof the sea written in the desert, your broken\numbrella, me claiming I could fix it.</pre>\n "}, {"title": "The Floating Bridge", "view_node": "/poem/floating-bridge", "field_author": "<a href=\"/poet/david-shumate\" hreflang=\"und\">David Shumate</a>", "field_date_published": "2008", "body": " <pre>\nBeyond the floating bridge another world awaits. There the master\ndances for the concubine. The fly watches the monk buzz around\nthe room. The emperor settles into the straw to sleep. I travel\nthere often. But I cannot honestly say I know the way. The bridge\nappears at unlikely times . . . When I'm walking down the street.\nWhen I'm eating breakfast with a child. Once in the middle of\na funeral I joined hands with the deceased and walked across.\nSometimes the bridge is small and inconspicuous. Like a poem.\nOr the flight of a bird. Often I don\u2019t realize I'm on it until I get\nto the other side. Once I made the mistake of closing my eyes\nhalfway across and letting my lover spin me around. Now I've lost\ntrack of which side I\u2019m standing on.</pre>\n "}, {"title": "Further Notice", "view_node": "/poem/further-notice", "field_author": "<a href=\"/poet/philip-whalen\" hreflang=\"und\">Philip Whalen</a>", "field_date_published": "2008", "body": " <pre>\nI can't live in this world \nAnd I refuse to kill myself \nOr let you kill me \n\nThe dill plant lives, the airplane \nMy alarm clock, this ink \nI won't go away \n\nI shall be myself\u2014\nFree, a genius, an embarrassment \nLike the Indian, the buffalo \n\nLike Yellowstone National Park. </pre>\n "}, {"title": "Still Life", "view_node": "/poem/still-life", "field_author": "<a href=\"/poet/marianne-boruch\" hreflang=\"und\">Marianne Boruch</a>", "field_date_published": "2008", "body": " <pre>\nSomeone arranged them in 1620.\nSomeone found the rare lemon and paid\na lot and neighbored it next \nto the plain pear, the plain\napple of the lost garden, the glass\nof wine, set down mid-sip\u2014\n<i>don\u2019t drink it</i>, someone said, <i>it\u2019s for\nthe painting</i>.  And the rabbit skull\u2014\nwhose idea was that?  There had been\na pistol but someone was told, no,\nput that away, into the box with a key\nthough the key had been\nmisplaced now for a year.  The artist\nwanted light too, for the shadows. \nSo the table had to be moved. Somewhere\nI dreamt the diary entry\non this, reading the impossible\nDutch quite well, thank you, and I can\ntranslate it here, someone writing\n<i>it is spring, after all, and Herr Muller\nwants a window of it in the painting</i>, almost\na line of poetry, I thought even then,\nin the dream, impressed \nwith that \"spring after all,\" that \n\"window of it\" especially, how sweet\nand to the point it came over\ninto English with no effort at all\nas I slept through the night. It was heavy,\nthat table. Two workers were called\nfrom the east meadow to lift\nand grunt and carry it\nacross the room, just those\nfew yards.  Of course one of them\nexaggerated the pain in his shoulder. \nNot the older, the younger man. \nNo good reason\nto cry out like that.  But this\nwas art. And he did, something\nsharp and in the air that \none time. All of them turning then,\nhowever slightly. And there he was, \neyes closed, not much \nmore than a boy, before \nthe talk of beauty\nstarted up again.\n</pre>\n "}, {"title": "What God Knew", "view_node": "/poem/what-god-knew", "field_author": "<a href=\"/poet/marianne-boruch\" hreflang=\"und\">Marianne Boruch</a>", "field_date_published": "2008", "body": " <pre>\nwhen he knew nothing.  <i>A leaf\nlooks like this, doesn\u2019t it</i>? No one\nto ask. So came the invention\nof the question too, the way all \nat heart are rhetorical, each leaf\nsuddenly wedded to its shade. When God \n\nknew nothing, it was better, wasn't it? \nNot the color blue yet, its deep \nunto black.  No color at all really, \nnot yet one thing leading to another, sperm \nto egg endlessly, thus cities, thus \nthe green countryside lying down \npiecemeal, the meticulous and the trash, \nbetween lake and woods \nthe dotted swiss of towns along \nany state road. Was God\n\nsleeping when he knew nothing?  As opposed \nto up all night (before there was night) \nor alert all day  (before day)?  As opposed to that,\nlittle engine starting up by itself, history, \na thing that keeps beginning\nand goes past its end. Will it end, this\nlooking back?  From here, it's one shiny \nravaged century after another, \nbut back there, in a house or two: a stillness, \na blue cup, a spoon, one silly flower raised up \nfrom seed.  I think so fondly of the day \nsomeone got lucky \nand dodged the tragedy meant for him. It spilled \nlike sound from a faulty speaker\nover an open field. He listened from\na distance. <i>God-like</i>, any one of us\ncould say.</pre>\n "}, {"title": "Snowfall in G Minor", "view_node": "/poem/snowfall-g-minor", "field_author": "<a href=\"/poet/marianne-boruch\" hreflang=\"und\">Marianne Boruch</a>", "field_date_published": "2008", "body": " <pre>\nOvernight, it\u2019s <i>pow</i>! The held note\nkeeps falling. And only seems\nslow. Because it\u2019s just \nfrozen rain, what\u2019s the big deal? the checker\nin Stop and Shop told me.\n                                           Save warmth\nlike stamps. The fade of their color\nin the 1920s.  Airmail.  The pilot with his \nskin-tight goggle helmet on his \nminiature head could be \nsnow-blind.\n                           All heads are small. Mine\u2019s\nlost as a thimble \nin this weather. Where \na finger should be and be \nsewing, every thought \nI ever thunk. \n                               Just this word\n<i>thunk</i>. Never used. \nIt lands, noisy\nmetal in a bucket. That\u2019s\nthe last of it.  No echo\nfor miles of this\n                              snowfall\u2014as in \ngrace, fallen from,\nas in a great height, released\nfrom its promise.</pre>\n "}, {"title": "La Chalupa, the Boat", "view_node": "/poem/la-chalupa-boat", "field_author": "<a href=\"/poet/jean-valentine\" hreflang=\"und\">Jean Valentine</a>", "field_date_published": "2008", "body": " <pre>\nI am twenty, \ndrifting in la chalupa, \nthe blue boat painted with roses,\nwhite lilies\u2014\n\nNo, not drifting, I am poling\nmy way into my life.         It seems\nlike another life:\n\nThere were the walls of the mind.\nThere were the cliffs of the mind,\nThere were the seven deaths,\nand the seven bread-offerings\u2014\n\nStill, there was still\nthe little boat, the chalupa\nyou built once, slowly, in the yard, after school\u2014</pre>\n "}, {"title": "Lying in a Hammock at William Duffy&#039;s Farm in Pine Island, Minnesota (audio only)", "view_node": "/poem/lying-hammock-william-duffys-farm-pine-island-minnesota-audio-only", "field_author": "<a href=\"/poet/james-wright\" hreflang=\"und\">James Wright</a>", "field_date_published": "1964", "body": " <p>\u00a0</p><p>Click the icon above to listen to this audio poem.</p> "}, {"title": "Hospital: strange lights", "view_node": "/poem/hospital-strange-lights", "field_author": "<a href=\"/poet/jean-valentine\" hreflang=\"und\">Jean Valentine</a>", "field_date_published": "2008", "body": "<p><span class=\"long-line\">I needed a friend but</span><br /><span class=\"long-line\">I was in the other room</span><br /><span class=\"long-line\">\u2014not just the other room,</span><br /><span class=\"long-line\">another frame</span><br /><span class=\"long-line\">dragging \u00a0 \u00a0 \u00a0 \u00a0 blue</span><br /><span class=\"long-line\">or brighter blue: \u00a0 \u00a0 \u00a0 \u00a0 \u00a0 strange lights:</span></p>\n<p>The doctor singing from <em>The Song of Songs</em><br /><span class=\"long-line\">\u2018in the secret places of the stairs\u2019</span></p>\n<p>Us standing there\u00a0\u00a0 \u00a0 \u00a0in the past<br /><span class=\"long-line\">as we were</span><br /><span class=\"long-line\">in life</span><br /><span class=\"long-line\">you turning and turning my coat buttons</span>;</p>\n"}, {"title": "May Day", "view_node": "/poem/may-day", "field_author": "<a href=\"/poet/phillis-levin\" hreflang=\"und\">Phillis Levin</a>", "field_date_published": "2008", "body": " <pre>\nI've decided to waste my life again,\nLike I used to: get drunk on\nThe light in the leaves, find a wall\nAgainst which something can happen,\n\nWhatever may have happened\nLong ago\u2014let a bullet hole echoing\nThe will of an executioner, a crevice\nIn which a love note was hidden,\n\nBe a cell where a struggling tendril\nUtters a few spare syllables at dawn.\nI've decided to waste my life\nIn a new way, to forget whoever\n\nTouched a hair on my head, because\nIt doesn't matter what came to pass,\nOnly that it passed, because we repeat\nOurselves, we repeat ourselves.\n\nI've decided to walk a long way\nOut of the way, to allow something\nDreaded to waken for no good reason,\nLet it go without saying,\n\nLet it go as it will to the place\t\nIt will go without saying: a wall\nAgainst which a body was pressed\nFor no good reason, other than this.</pre>\n<pre>\n</pre>\n "}, {"title": "There Is No Audience for Poetry", "view_node": "/poem/there-no-audience-poetry", "field_author": "<a href=\"/poet/kevin-prufer\" hreflang=\"und\">Kevin Prufer</a>", "field_date_published": "2008", "body": " <pre>\nThey wanted him to stop kicking like that\u2014\nit made their eyes corkscrew, drilled the sun in the sky\nso light dumped out like blood from a leak.\nThe boy in the trunk wouldn't die.\n\nThey drove and drove, and he dented the trunk's tight lid,\ncalled their names, then pounded the wheel wells\nwith a tire iron. The sun filled\ntheir skulls so they felt like hell\n\nand the boy in the trunk wouldn't listen. You'd think\nit was burning hot in there, you'd think he'd be gone,\npassive, but no. The boy in the trunk\nbanged on and on\n\nuntil the noise grew godalmighty unforgivable\nand they had no choice but to pull into the woods,\nleave the car, try to hitch a ride with someone\nquieter, someone who could\n\nlisten without interrupting. They'd had a hot day.\nThe road simmered to the overheated sky.\nBut from far away they still heard him, the boy\nin the trunk, his empty cry.</pre>\n "}, {"title": "The Poetry Life: Ten Stories [I rise before the sun does]", "view_node": "/poem/poetry-life-ten-stories-i-rise-sun-does", "field_author": "<a href=\"/poet/baron-wormser\" hreflang=\"und\">Baron Wormser</a>", "field_date_published": "2008", "body": " <p>I rise before the sun does. Each morning I sit on the edge of the bed with my feet planted on the unlovely linoleum floor and I say slowly but quite distinctly to the darkness, \"Sweet joy befall thee.\" I feel like an actor speaking the first words of a play except my life is no play nor does my soul need an audience. What I do need is confidence. I've built my life up from very shaky ground and William Blake, the man who wrote that line, has been a godsend to me. The human voice that speaks a poem rises from a powerful well; we take it for granted but a voice is an advent of spirit. I know from attending numerous churches during my haphazard childhood that the joy that preachers trumpet comes in a box with grievous dimensions. Their salvation is a machine of wrath; they break your back on hell so you can get to heaven. The joy I invoke can go where it chooses because it resides in our being alive. The joy I invoke is Blake's Jerusalem, the city we can build each day through kindness: \"The most sublime act is to set another before you.\" No one has ever called the place where I work \"sublime,\" so I need that word, too.</p> "}, {"title": "To My Mother Waiting on 10/01/54", "view_node": "/poem/my-mother-waiting-100154", "field_author": "<a href=\"/poet/teresa-carson\" hreflang=\"und\">Teresa Carson</a>", "field_date_published": "2008", "body": " <pre>\nThat October might have begun\npretty much like this one. Last night, \nfirst chilly night, we shut all the windows,\nthe cat curled between John's legs, I slept \nwith a blanket over my head. At six a.m., wrapped \nin a sweater, I checked the newly dug \nbeds of bulbs\u2014tulips, your favorite\u2014\nand wondered if they, and the ones I planted\non your grave, would survive the months\nof frozen ground.\n\nYou were three days from bearing your tenth; \nrather than risk a fall, going up and down\ntwo steep flights, you stayed inside.\nAt six a.m. you may've been in your rocking chair,\nhalf-listening for fights over blankets \nor Pop's return from the graveyard shift\nwhile you folded, again, a newly washed stack\nof secondhand diapers and tees.\nMaybe a draft made you shiver or a pain \nmade you think <i>it's beginning</i>.\n\nToo soon the cold will kill the last blooms\non asters, hydrangea, Autumn Joy sedum.\nToo soon another breakdown \nleft you in the depression that lasted \nthe rest of your life. Too soon Judge Grossi ruled \nyou were <i>dangerous to your child's welfare</i>. \nAt fifteen I was free to leave.\nBut this morning, I went back to when\nthe cold hadn't yet settled in,\nwhen you were waiting for me.</pre>\n "}, {"title": "Bodyweight", "view_node": "/poem/bodyweight", "field_author": "<a href=\"/poet/matthew-schwartz\" hreflang=\"und\">Matthew Schwartz</a>", "field_date_published": "2008", "body": " <pre>\nMy crutches felt heavier than I was.\nThey landed with a thick thud on the blacktop\neach time I took a step. I had to watch how I walked\n\nso I didn\u2019t fall, like the other kids expected.\nI liked to leave my crutches half-buried\nbehind the sandbox, where I couldn\u2019t see them,\n\nand creep up the uneven monkey bars\narced like the upper half of a globe.\nI wanted to see the whole playground.\n\nThe rungs crowded too close together,\nand none of them was shaped the same.\nI lifted my feet slowly to keep my braces quiet\n\nagainst the metal. At the top, I could still hear\nthe jump rope flying, my friend throwing\nhandfuls of sand. I slipped. I locked my arms\n\ntighter around whatever bars I could reach, and my leg\ntensed and shook and hit the rung too close to me\nwhen I tried going down, and my foot shot\n\nthrough the gap, and dangled there.\nI thought I could maybe slide out.\nI thought my body could fit like my foot did,\n\nbut I was stuck. Everyone could see me,\neveryone could hear me asking myself\n<i>What do I do with my body if it\u2019s\n\nnot a secret?</i></pre>\n "}, {"title": "i am witness to the threshing of the grain", "view_node": "/poem/i-am-witness-threshing-grain", "field_author": "<a href=\"/poet/john-hoffman\" hreflang=\"und\">John Hoffman</a>", "field_date_published": "2008", "body": " <pre>\ni am witness to the threshing of the grain\nthe man of corn\n\t\thanging\nfrom a dry oak bough\n\nbade us to be silent in our flailing \nhe bade us \n\t\tthe understanding that pervades \n\t\tthe silence that is veiled \nhis whisper is no louder than the locust\n\nbade us no louder\n\t\t\twhrr chk chk\n\t\t\twhrr whrr chk chk \nflailed man threshed and scythed \nhung man of the harvest \nwheat bearded one \nunfleshed\n\nnone the mistletoe on our\n\t\t\t     smoky \n\t\t\t     plain \nthus man sheared by the sun \nsterile fruit of the dry oak bough\n\nhanging\n\tturned gently to caress\n\ta wing of crows\n\tand turned\n\tand saw\n\tand bade us to be\n\t\t     silent</pre>\n "}, {"title": "All That&#039;s Left", "view_node": "/poem/all-thats-left", "field_author": "<a href=\"/poet/jack-hirschman\" hreflang=\"und\">Jack Hirschman</a>", "field_date_published": "2008", "body": " <pre>\nAll that's Left\n     in the world\n\u2014whether in Cuba, Venezuela, Bolivia\nas well as in China, Japan, the United States, \nEurope, the Middle East, Africa\u2014\nall of them cannot,\n   despite their resistance,\n   despite their refusal,\nstop this march of death\nbecause they, \nas well as all that's Right \nin the world,\n   despite their refusal,\n   despite their resistance,\nalready are counted among those\n   in this last parade.\nCommunists and progressives,\nnazis, fascists and reactionaries,\nzionists and anarchists of every stripe\u2014\nnone are excluded, none can evade the march.\n\nThis one's not coming \nwith hammer and sickles or swastikas\nor flags of any land.\n\nThis one's the march \nall wars surrender to.\n\nBut when?!   comes the unanimous cry.\nWhen will it really happen?\nIf death is peace,\nwhen can I truly die?\n\nYou will never know, and yet you do,\nbecause you may already have,\nand this life is your way\nof paying homage to the power\nthat loves you enough \nto have taken your life away\nand left you with the taste\nof immortality on your lips.\n\nNothing mystical: no Christ,\nAllah, Jahweh or Buddha in the wings.\nEven lying on your back you're marching.\n\nThis is not a cynical or pessimist\nor nihilist poem. Join death \nto your life and you will live\nas if there were no drum to march to.\n\nThere is no march at all.\n\nYou're done. All will be well for all.</pre>\n "}], "pager": {"current_page": 538, "total_items": "13248", "total_pages": 663, "items_per_page": 20}}