{"rows": [{"title": "The Libraries Didn&#039;t Burn", "view_node": "/poem/libraries-didnt-burn", "field_author": "<a href=\"/poet/elaine-equi\" hreflang=\"und\">Elaine Equi</a>", "field_date_published": "2011", "body": " <pre>\ndespite books kindled in electronic flames.\n\nThe locket of bookish love\nstill opens and shuts.\n\nBut its words have migrated\nto a luminous elsewhere.\n\nNeither completely oral nor written \u2014\na somewhere in between.\n\nThen will oak, willow,\nbirch, and olive poets return\nto their digital tribes \u2014\n\ntrees wander back to the forest?</pre>\n "}, {"title": "Eulogy", "view_node": "/poem/eulogy", "field_author": "<a href=\"/poet/kevin-young\" hreflang=\"und\">Kevin Young</a>", "field_date_published": "2011", "body": " <pre>\nTo allow silence\nTo admit it in us\n\nalways moving\nJust past\n\nsenses, the darkness\nWhat swallows us\n\nand we live amongst\nWhat lives amongst us\n\n*\n\nThese grim anchors\nThat brief sanctity\n\nthe sea\nCast quite far\n\nwhen you seek\n\u2014in your hats black\n\nand kerchiefs\u2014\nto bury me\n\n*\n\nDo not weep\nbut once, and a long\n\ntime then\nThereafter eat till\n\nyour stomach spills over\nNo more! you'll cry\n\ntoo full for your eyes\nto leak\n\n*\n\nThe words will wait\n\n*\n\nPlace me in a plain\npine box I have been\n\nfor years building\nIt is splinters\n\nnot silver\nIt is filled of hair\n\n*\n\nEven the tongues\nof bells shall still\n\n*\n\nYou who will bear\nmy body along\n\nSpirit me into the six\nDo not startle\n\nat its lack of weight\nHow light</pre>\n "}, {"title": "Burning of the Three Fires", "view_node": "/poem/burning-three-fires", "field_author": "<a href=\"/poet/jeanne-marie-beaumont\" hreflang=\"und\">Jeanne Marie Beaumont</a>", "field_date_published": "2011", "body": " <pre>\n\u00a0\u00a0\u00a0\u00a0\u00a0\u00a0\u00a0\u00a0\u00a0\t\t\t\t   <i>(June 30, France)</i>\n\ni\n\nI set the cookbook on fire \nby holding it close to the \nreading lamp\n\t\n\nii\n\nI began the reading lamp fire \nby holding it close\nto romance\n\n\niii\n\nI lit the romance by \nholding it\nclose to the cookbook\n</pre>\n "}, {"title": "America [Try saying wren]", "view_node": "/poem/america-try-saying-wren", "field_author": "<a href=\"/poet/joseph-lease\" hreflang=\"und\">Joseph Lease</a>", "field_date_published": "2011", "body": " <style type=\"text/css\">\n<!--/*--><![CDATA[/* ><!--*/\n\np { line-height: 1.5em; }\nblockquote p { line-height: 1.5em; }\n/*--><!]]>*/\n</style><p>\u00a0\u00a0\u00a0\u00a0\u00a0\u00a0\u00a0\u00a0\u00a0\u00a0\u00a0\u00a0\u00a0\u00a0\u00a0\u00a0\u00a0\u00a0Try saying <i>wren</i>.<br /><br />It's midnight</p><p>in my body, 4 a.m. in my body, breading and olives and<br />cherries. Wait, it's all rotten. How am I ever. Oh notebook.<br />A clown explains the war. What start or color or kind of<br />grace. I have to teach. I have to run, eat less junk. Oh CNN.<br />What start or color. There's a fist of meat in my solar plexus<br />and green light in my mouth and little chips of dream flake<br />off my skin. Try saying <i>wren</i>. Try saying<br /><i>mercy</i>.</p><p>\u00a0\u00a0\u00a0\u00a0\u00a0\u00a0\u00a0\u00a0\u00a0\u00a0\u00a0\u00a0\u00a0\u00a0\u00a0\u00a0\u00a0\u00a0\u00a0\u00a0\u00a0\u00a0\u00a0\u00a0\u00a0\u00a0Try anything.</p> "}, {"title": "Our Valley", "view_node": "/poem/our-valley", "field_author": "<a href=\"/poet/philip-levine\" hreflang=\"und\">Philip Levine</a>", "field_date_published": "2009", "body": " <pre>\nWe don't see the ocean, not ever, but in July and August \nwhen the worst heat seems to rise from the hard clay\nof this valley, you could be walking through a fig orchard\nwhen suddenly the wind cools and for a moment\nyou get a whiff of salt, and in that moment you can almost\nbelieve something is waiting beyond the Pacheco Pass,\nsomething massive, irrational, and so powerful even\nthe mountains that rise east of here have no word for it.\n\nYou probably think I'm nuts saying the mountains\nhave no word for ocean, but if you live here\nyou begin to believe they know everything.\nThey maintain that huge silence we think of as divine,\na silence that grows in autumn when snow falls\nslowly between the pines and the wind dies\nto less than a whisper and you can barely catch\nyour breath because you're thrilled and terrified.\n\nYou have to remember this isn't your land.\nIt belongs to no one, like the sea you once lived beside\nand thought was yours. Remember the small boats\nthat bobbed out as the waves rode in, and the men\nwho carved a living from it only to find themselves\ncarved down to nothing. Now you say this is home,\nso go ahead, worship the mountains as they dissolve in dust,\nwait on the wind, catch a scent of salt, call it our life.</pre>\n "}, {"title": "The Plain Sense of Things", "view_node": "/poem/plain-sense-things", "field_author": "<a href=\"/poet/wallace-stevens\" hreflang=\"und\">Wallace Stevens</a>", "field_date_published": "2011", "body": "<p><span class=\"long-line\">After the leaves have fallen, we return</span><br /><span class=\"long-line\">To a plain sense of things. It is as if</span><br /><span class=\"long-line\">We had come to an end of the imagination,</span><br /><span class=\"long-line\">Inanimate in an inert savoir.</span></p>\n\n<p><span class=\"long-line\">It is difficult even to choose the adjective</span><br /><span class=\"long-line\">For this blank cold, this sadness without cause.</span><br /><span class=\"long-line\">The great structure has become a minor house.</span><br /><span class=\"long-line\">No turban walks across the lessened floors.</span></p>\n\n<p><span class=\"long-line\">The greenhouse never so badly needed paint.</span><br /><span class=\"long-line\">The chimney is fifty years old and slants to one side.</span><br /><span class=\"long-line\">A fantastic effort has failed, a repetition</span><br /><span class=\"long-line\">In a repetitiousness of men and flies.</span></p>\n\n<p><span class=\"long-line\">Yet the absence of the imagination had</span><br /><span class=\"long-line\">Itself to be imagined. The great pond,</span><br /><span class=\"long-line\">The plain sense of it, without reflections, leaves,</span><br /><span class=\"long-line\">Mud, water like dirty glass, expressing silence</span></p>\n\n<p><span class=\"long-line\">Of a sort, silence of a rat come out to see,</span><br /><span class=\"long-line\">The great pond and its waste of the lilies, all this</span><br /><span class=\"long-line\">Had to be imagined as an inevitable knowledge,</span><br /><span class=\"long-line\">Required, as a necessity requires.</span></p>\n"}, {"title": "Reprise", "view_node": "/poem/reprise", "field_author": "<a href=\"/poet/deborah-brown\" hreflang=\"und\">Deborah  Brown</a>", "field_date_published": "2011", "body": " <pre>\nBetter than a lover's heart, the immortality of a name. \nLove versus Fama, the goddess, with her long purple nails,\nher sweeping cloak, her memories of Caesar, Alexander,\nthe wolves on seven hills.  \n\nEven better than love, fame, for as long as there is illness.  \nI see that if I had discovered Cushing's disease,\nI could have named it for myself.  \nIt's hard to maintain desire, that's part of it.  \n\nBut who first ate a grapefruit or tweezed a splinter\nor waved across the pampas at someone else,\ninitiating the habit of the raised hand?\n(If you don't wave two hands, there could still be a weapon.)\n\nThey're all forgotten, those heroes.  \nHow much do we know of Cushing, or care?\nWhat about Harvey, before whom our blood\ntraveled uncharted paths?  Or so I was told\nin seventh grade.  I never wanted fame,\nso back to love, the desire for love, the one\nthat costs everything, that shocks you\nwhen someone else casts a shadow on the map\nof the earth for the first time larger than your own. </pre>\n "}, {"title": "Birch", "view_node": "/poem/birch", "field_author": "<a href=\"/poet/cynthia-zarin\" hreflang=\"und\">Cynthia Zarin</a>", "field_date_published": "2011", "body": " <pre>\nBone-spur, stirrup of veins\u2014white colt\na tree, sapling bone again, worn to a splinter,\na steeple, the birch aground\n\nin its ravine of leaves. Abide with me, arrive\nat its skinned branches, its arms pulled\nfrom the sapling, your wrist taut,\n\neach ganglion a gash in the tree's rent\ntrunk, a child's hackwork, love plus love,\nmy palms in your fist, that\n\ntrio a trident splitting the birch, its bark\npapyrus, its scars calligraphy,\na ghost story written on\n\nwinding sheets, the trunk bowing, <i>dead is\nmy father</i>, the birch reading the news\nof the day aloud as if we hadn't\n\nheard it, the root moss lit gas,\nlike the veins on your ink-stained hand\u2014\nthe birch all elbows, taking us in.</pre>\n "}, {"title": "Becoming Weather, 21", "view_node": "/poem/becoming-weather-21", "field_author": "<a href=\"/poet/chris-martin\" hreflang=\"und\">Chris Martin</a>", "field_date_published": "2011", "body": " <pre>\n\u00a0\u00a0\u00a0\u00a0\u00a0\u00a0\u00a0\u00a0\u00a0\u00a0\u00a0\u00a0\u00a0\u00a0\u00a0\u00a0\u00a0\u00a0\u00a0\u00a0I was out interviewing clouds\u00a0\u00a0\u00a0\u00a0\u00a0\u00a0\u00a0\u00a0\u00a0amassing\n\u00a0\u00a0\u00a0\u00a0\u00a0\u00a0\u00a0\u00a0\u00a0\u00a0\u00a0\u00a0\u00a0\u00a0\u00a0\u00a0\u00a0\u00a0\u00a0\u00a0the notes of a sky pornographer\u00a0\u00a0\u00a0\u00a0while patches\n\n\n\u00a0\u00a0\u00a0\u00a0\u00a0\u00a0\u00a0\u00a0\u00a0\u00a0\u00a0\u00a0\u00a0\u00a0\u00a0\u00a0\u00a0\u00a0\u00a0\u00a0\u00a0\u00a0\u00a0\u00a0\u00a0\u00a0\u00a0\u00a0\u00a0\u00a0\u00a0\u00a0\u00a0\u00a0\u00a0\u00a0\u00a0\u00a0\u00a0\u00a0\u00a0\u00a0\u00a0\u00a0\u00a0of the city subnormalized\nby fear of fear\u00a0\u00a0\u00a0\u00a0\u00a0\u00a0\u00a0\u00a0\u00a0\u00a0\u00a0\u00a0like a reef bleaching closed\n\n\n\u00a0\u00a0\u00a0\u00a0\u00a0\u00a0\u00a0\u00a0\u00a0\u00a0\u00a0\u00a0\u00a0\u00a0\u00a0\u00a0\u00a0\u00a0\u00a0\u00a0I took to the streets\n\u00a0\u00a0\u00a0\u00a0\u00a0\u00a0\u00a0\u00a0\u00a0\u00a0\u00a0\u00a0\u00a0\u00a0\u00a0\u00a0\u00a0\u00a0\u00a0\u00a0\u00a0\u00a0\u00a0\u00a0\u00a0\u00a0\u00a0\u00a0\u00a0\u00a0looking for a human velocity\n\n\u00a0\u00a0\u00a0\u00a0\u00a0\u00a0\u00a0\u00a0\u00a0\u00a0\u00a0\u00a0\u00a0\u00a0feeling\u00a0\u00a0\u00a0\u00a0\u00a0\u00a0\u00a0\u00a0\u00a0\u00a0\u00a0\u00a0\u00a0\u00a0\u00a0\u00a0\u00a0disequilibrium\n\n\u00a0\u00a0\u00a0\u00a0\u00a0\u00a0\u00a0\u00a0\u00a0\u00a0\u00a0\u00a0\u00a0\u00a0\u00a0\u00a0\u00a0\u00a0\u00a0\u00a0\u00a0\u00a0\u00a0\u00a0\u00a0\u00a0\u00a0\u00a0\u00a0\u00a0\u00a0\u00a0\u00a0\u00a0\u00a0\u00a0\u00a0\u00a0\u00a0\u00a0\u00a0heavy in the abundance\n\u00a0\u00a0\u00a0\u00a0\u00a0\u00a0\u00a0\u00a0\u00a0\u00a0\u00a0\u00a0\u00a0\u00a0\u00a0\u00a0\u00a0\u00a0\u00a0\u00a0\u00a0\u00a0\u00a0\u00a0\u00a0\u00a0\u00a0\u00a0\u00a0of summer light\n\u00a0\u00a0\u00a0\u00a0\u00a0\u00a0\u00a0\u00a0\u00a0\u00a0\u00a0\u00a0\u00a0\u00a0\u00a0\u00a0\u00a0\u00a0\u00a0\u00a0\u00a0\u00a0\u00a0\u00a0\u00a0\u00a0\u00a0\u00a0\u00a0\u00a0\u00a0\u00a0\u00a0\u00a0\u00a0\u00a0\u00a0\u00a0\u00a0\u00a0\u00a0\u00a0\u00a0\u00a0\u00a0\u00a0\u00a0\u00a0\u00a0\u00a0\u00a0\u00a0\u00a0\u00a0\u00a0the silent apathy\n\u00a0\u00a0\u00a0\u00a0\u00a0\u00a0\u00a0\u00a0\u00a0\u00a0\u00a0\u00a0\u00a0\u00a0of stars\u00a0\u00a0\u00a0\u00a0\u00a0which is neither\n\u00a0\u00a0\u00a0\u00a0\u00a0\u00a0\u00a0\u00a0\u00a0\u00a0\u00a0\u00a0\u00a0\u00a0\u00a0\u00a0\u00a0\u00a0\u00a0\u00a0\u00a0\u00a0\u00a0\u00a0\u00a0\u00a0\u00a0\u00a0\u00a0\u00a0\u00a0\u00a0\u00a0\u00a0\u00a0\u00a0\u00a0\u00a0\u00a0\u00a0\u00a0\u00a0\u00a0\u00a0\u00a0\u00a0silent nor apathetic\nI\u00a0\u00a0\u00a0\u00a0\u00a0\u00a0\u00a0\u00a0\u00a0\u00a0\u00a0\u00a0\u00a0am\u00a0\u00a0\u00a0\u00a0\u00a0\u00a0\u00a0becoming\u00a0\u00a0\u00a0\u00a0\u00a0\u00a0\u00a0\u00a0\u00a0\u00a0\u00a0\u00a0\u00a0\u00a0\u00a0\u00a0\u00a0weather\n\u00a0\u00a0\u00a0\u00a0\u00a0\u00a0\u00a0\u00a0\u00a0\u00a0\u00a0\u00a0\u00a0\u00a0\u00a0\u00a0\u00a0\u00a0\u00a0\u00a0\u00a0\u00a0\u00a0\u00a0\u00a0\u00a0\u00a0\u00a0\u00a0\u00a0\u00a0\u00a0\u00a0\u00a0\u00a0\u00a0\u00a0\u00a0\u00a0\u00a0\u00a0\u00a0\u00a0\u00a0\u00a0\u00a0\u00a0\u00a0\u00a0\u00a0\u00a0\u00a0\u00a0\u00a0\u00a0\u00a0\u00a0\u00a0\u00a0\u00a0\u00a0\u00a0\u00a0\u00a0\u00a0\u00a0\u00a0\u00a0\u00a0\u00a0\u00a0\u00a0\u00a0\u00a0\u00a0\u00a0\u00a0\u00a0\u00a0\u00a0\u00a0and\n\u00a0\u00a0\u00a0\u00a0\u00a0\u00a0\u00a0\u00a0\u00a0\u00a0\u00a0\u00a0\u00a0\u00a0I don't\n\u00a0\u00a0\u00a0\u00a0\u00a0\u00a0\u00a0\u00a0\u00a0\u00a0\u00a0\u00a0\u00a0\u00a0\u00a0\u00a0\u00a0\u00a0\u00a0\u00a0\u00a0\u00a0\u00a0\u00a0\u00a0\u00a0\u00a0\u00a0\u00a0\u00a0\u00a0plan on doing\n\u00a0\u00a0\u00a0\u00a0\u00a0\u00a0\u00a0\u00a0\u00a0\u00a0\u00a0\u00a0\u00a0\u00a0\u00a0\u00a0\u00a0\u00a0\u00a0\u00a0\u00a0\u00a0\u00a0\u00a0\u00a0\u00a0\u00a0\u00a0\u00a0\u00a0\u00a0\u00a0\u00a0\u00a0\u00a0\u00a0\u00a0\u00a0\u00a0\u00a0\u00a0\u00a0\u00a0\u00a0\u00a0\u00a0\u00a0\u00a0\u00a0\u00a0\u00a0\u00a0\u00a0\u00a0\u00a0\u00a0\u00a0\u00a0\u00a0\u00a0\u00a0\u00a0\u00a0\u00a0\u00a0\u00a0\u00a0\u00a0\u00a0\u00a0it alone</pre>\n "}, {"title": "The Republic of Dreams", "view_node": "/poem/republic-dreams", "field_author": "<a href=\"/poet/michael-palmer\" hreflang=\"und\">Michael Palmer</a>", "field_date_published": "2011", "body": " <pre>\nShe lay so still that\nas she spoke\n\na spider spun a seamless web\nupon her body\n\nas we spoke\nand then her limbs came loose\n\none by one\nand so my own</pre>\n "}, {"title": "Dear Tiara", "view_node": "/poem/dear-tiara", "field_author": "<a href=\"/poet/sean-thomas-dougherty\" hreflang=\"und\">Sean Thomas Dougherty</a>", "field_date_published": "2011", "body": " <pre>\nI dreamed I was a mannequin in the pawnshop window \n      of your conjectures.\n\nI dreamed I was a chant in the mouth of a monk, saffron-robed\n      syllables in the religion of You.\n\nI dreamed I was a lament to hear the deep sorrow places\n      of your lungs.\n\nI dreamed I was your bad instincts.\n\nI dreamed I was a hummingbird sipping from the tulip of your ear. \n\nI dreamed I was your ex-boyfriend stored in the basement \n      with your old baggage. \n\nI dreamed I was a jukebox where every song sang your name.  \n\nI dreamed I was in an elevator, rising in the air shaft\n      of your misgivings.  \n\nI dreamed I was a library fine, I've checked you out\n      too long so many times.  \n\nI dreamed you were a lake and I was a little fish leaping\n      through the thin reeds of your throaty humming.\n\nI must've dreamed I was a nail, because I woke beside you still\n      hammered.  \n\nI dreamed I was a tooth to fill the absences of your old age.  \n\nI dreamed I was a Christmas cactus, blooming in the desert \n      of my stupidity.\n\nI dreamed I was a saint's hair-shirt, sewn with the thread\n      of your saliva.  \n\nI dreamed I was an All Night Movie Theater, showing the\n      flickering black reel of my nights before I met you.\n\nI must've dreamed I was gravity, I've fallen for you so damn hard.</pre>\n "}, {"title": "Ghost in the Land of Skeletons", "view_node": "/poem/ghost-land-skeletons", "field_author": "<a href=\"/poet/christopher-kennedy\" hreflang=\"und\">Christopher  Kennedy</a>", "field_date_published": "2011", "body": " <p>\u00a0 \u00a0 \u00a0 \u00a0 \u00a0 \u00a0 \u00a0 \u00a0 \u00a0 \u00a0 \u00a0 \u00a0 \u00a0 \u00a0 \u00a0\u00a0\u00a0<i>For Russell Edson</i></p><p>If not for flesh's pretty paint, we're just a bunch of skeletons, working hard to deny the fact of bones. Teeth remind me that we die. That's why I never smile, except when looking at a picture of a ghost, captured by a camera lens, in a book about the paranormal. When someone takes a picture of a spirit, it gives me hope. I admire the ones who refuse to go away. Lovers scorned and criminals burned. I love the dead little girl who plays in her yard, a spectral game of hide and seek. It's the fact they don't know they're dead that appeals to me most. Like a man once said to me, <i>Do you ever feel like you're a ghost</i>? <i>Sure</i>, I answered, <i>every day</i>. He laughed at that and disappeared. All I could think was he beat me to it.</p> "}, {"title": "Spring and All, XIV", "view_node": "/poem/spring-and-all-xiv", "field_author": "<a href=\"/poet/william-carlos-williams\" hreflang=\"und\">William Carlos Williams</a>", "field_date_published": "1962", "body": " <pre>\nOf death\nthe barber\nthe barber\ntalked to me\n\ncutting my\nlife with\nsleep to trim\nmy hair\u2014\n\nIt's just\na moment\nhe said, we die\nevery night\u2014\n\nAnd of \nthe newest\nways to grow\nhair on\n\nbald death\u2014\nI told him\nof the quartz\nlamp\n\nand of old men\nwith third\nsets of teeth\nto the cue\n\nof an old man\nwho said\nat the door\u2014\nSunshine today!\n\nfor which \ndeath shaves\nhim twice\na week</pre>\n "}, {"title": "Elegy in Joy [excerpt]", "view_node": "/poem/elegy-joy-excerpt", "field_author": "<a href=\"/poet/muriel-rukeyser\" hreflang=\"und\">Muriel Rukeyser</a>", "field_date_published": "2011", "body": "<p><span class=\"long-line\">We tell beginnings: for the flesh and the answer,</span><br /><span class=\"long-line\">or the look, the lake in the eye that knows,</span><br /><span class=\"long-line\">for the despair that flows down in widest rivers,</span><br /><span class=\"long-line\">cloud of home; and also the green tree of grace,</span><br /><span class=\"long-line\">all in the leaf, in the love that gives us ourselves.</span></p>\n<p><span class=\"long-line\">The word of nourishment passes through the women,</span><br /><span class=\"long-line\">soldiers and orchards rooted in constellations,</span><br /><span class=\"long-line\">white towers, eyes of children:\u00a0</span><br /><span class=\"long-line\">saying in time of war What shall we feed?</span><br /><span class=\"long-line\">I cannot say the end.</span></p>\n<p><span class=\"long-line\">Nourish beginnings, let us nourish beginnings.</span><br /><span class=\"long-line\">Not all things are blest, but the</span><br /><span class=\"long-line\">seeds of all things are blest.</span><br /><span class=\"long-line\">The blessing is in the seed.</span></p>\n<p><span class=\"long-line\">This moment, this seed, this wave of the sea, this look, this instant of love.</span><br /><span class=\"long-line\">Years over wars and an imagining of peace. Or the expiation journey</span><br /><span class=\"long-line\">toward peace which is many wishes flaming together,</span><br /><span class=\"long-line\">fierce pure life, the many-living home.</span><br /><span class=\"long-line\">Love that gives us ourselves, in the world known to all</span><br /><span class=\"long-line\">new techniques for the healing of the wound,</span><br /><span class=\"long-line\">and the unknown world. One life, or the faring stars.</span></p>\n"}, {"title": "Grasshopper", "view_node": "/poem/grasshopper", "field_author": "<a href=\"/poet/ron-padgett\" hreflang=\"und\">Ron Padgett</a>", "field_date_published": "2011", "body": " <pre>\nIt's funny when the mind thinks about the psyche,\nas if a grasshopper could ponder a helicopter.\n\nIt's a bad idea to fall asleep\nwhile flying a helicopter:\n\nwhen you wake up, the helicopter is gone\nand you are too, left behind in a dream,\n\nand there is no way to catch up,\nfor catching up doesn't figure\n\nin the scheme of things. You are\nwho you are, right now,\n\nand the mind is so scared it closes its eyes\nand then forgets it has eyes\n\nand the grasshopper, the one that thinks\nyou're a helicopter, leaps onto your back!\n\nHe is a brave little grasshopper\nand he never sleeps\n\nfor the poem he writes is the act\nof always being awake, better than anything\n\nyou could ever write or do.\nThen he springs away.</pre>\n "}, {"title": "Dark Matter", "view_node": "/poem/dark-matter", "field_author": "<a href=\"/poet/jack-myers\" hreflang=\"und\">Jack Myers</a>", "field_date_published": "2011", "body": " <pre>\nI've lived my life as if I were my wife\npacking for a trip\u2014<i>I'll need this and that\nand I can't possibly do without that!</i>\n\n\nBut now I'm about\nwhat can be done without.\nI just need a thin valise.\n\n\nThere's no place on earth\nwhere I can't unpack in a flash\ndown to a final spark of consciousness.\n\n\nNo place where I can't enter\nthe joyless rapture\nof almost remembering\n\n\n<i>I'll need this</i> and <i>I'll need that</i>,\nhoping to weigh less than silence,\nlighter than light.</pre>\n "}, {"title": "Last", "view_node": "/poem/last", "field_author": "<a href=\"/poet/maxine-scates\" hreflang=\"und\">Maxine Scates</a>", "field_date_published": "2011", "body": " <pre>\nAt dusk the streetlights\nstand like beacons to the underworld,\na girl runs toward me beaded with rain\nand sweat. I think <i>husk, wheels</i>\u2014\nseeds rattle, shake loose and a candle\nis held to the egg's red mass she is\ntoo young to see. In Pompeii those bodies\nare not bodies but plaster poured\ninto the cavity where a body once lay,\nno less a hand pushing back ash,\nno less a woman with her unborn child\ntwisting for a pocket of air,\nthe forge, the fire, the glimpsed blade,\na door we close quickly, just as my brother\nsaid <i>Now I know I will die</i>, and I thought\nof course and not me in the same second.\nWe kept driving, arrived at the airport\nand the next day our father did die\u2014\n<i>aria</i>, the birds rising at the sound\nof the explosion and <i>plums</i>, succulent\nashy, burnished. Walking down the Spanish\nSteps on a Sunday morning in October,\nno one there yet, Keats' window open,\nyou said <i>Ten or fifteen years from now\nwhen I am gone, come back</i>. You touched\nour absence from each other,\nthe fifteen years ahead you've always had\u2014\nwhen in dreams I am older and you\nremain as you were when we first met,\nbefore devotion was returned,\nor was it that I let it be\u2014our lives together\nsuddenly recognizable as if seared pages\nfallen from a larger book.</pre>\n "}, {"title": "After Us", "view_node": "/poem/after-us", "field_author": "<a href=\"/poet/nikola-madzirov\" hreflang=\"und\">Nikola  Madzirov</a>", "field_date_published": "2011", "body": " <pre>\nOne day someone will fold our blankets\nand send them to the cleaners\nto scrub the last grain of salt from them,\nwill open our letters and sort them out by date\ninstead of by how often they've been read.\n\nOne day someone will rearrange the room's furniture\nlike chessmen at the start of a new game,\nwill open the old shoebox \nwhere we hoard pyjama-buttons,\nnot-quite-dead batteries and hunger.\n\nOne day the ache will return to our backs\nfrom the weight of hotel room keys\nand the receptionist's suspicion\nas he hands over the TV remote control.\n\nOthers' pity will set out after us\nlike the moon after some wandering child.</pre>\n "}, {"title": "Matriot Acts, Act I [History of Mankind]", "view_node": "/poem/matriot-acts-act-i-history-mankind", "field_author": "<a href=\"/poet/anne-waldman\" hreflang=\"und\">Anne Waldman</a>", "field_date_published": "2011", "body": " <pre>\nyou no longer believe in anything\nmovement of train, mauve waves\ngrammar's anomie\ngets you down or\nwar at the back and crown of head\nPsyOps, o chicken little the sky! the sky!\no the fallen sky an edge of blue\nhanging but\nstill breathing those colors?\na garden broken &amp; restored many times\nhow often trying to leave it, bend away\nwords from that beautiful throat\nlisten or break or oscillate or\nclamor as opposed to \"read about\"\ncould you be my model human being\nup there on the dais?\no you, she...maybe he's the one\n&amp; we came back from the cinema\nglow behind our tears\nand you saying a woman, a woman!\nhow tragic to be such slender thread of a woman\nwhere was I being led?\nmore people thick in space\nin constant motion\ntwisted around a clock\nsolar wind, solar heat, sociable matrix\nit's an atavistic mixed-up dream\nand stirs the branches\nhigh in Freedom Park\nit was the voice of a desultory fragment\nof speech now, talking about \"state\" and \"union\"\nhow darkness turns at the wrist</pre>\n "}, {"title": "Iowa", "view_node": "/poem/iowa-0", "field_author": "<a href=\"/poet/kate-northrop\" hreflang=\"und\">Kate Northrop</a>", "field_date_published": "2011", "body": " <pre>\nYou imagined yourself\nThere on the overpass\nLeaning through snow\nFurther toward cars\n\nTheir outlines still dark\nTheir headlights\nLocked by distance\nThen opening as if\n\nCautiously the beams\nLengthening over the median\nOnto leaves the underside\nOf certain leaves\n\nAnd the drivers inside\nEach face described \nBy shadow each\nFinally simple the skin\n\nLit by the vehicle's instruments\nIn the glow of the dash\nThe faces you'd dreamed of\nThen gone beneath you\n\nLeaning over the highway\nFurther toward cars\nToward headlights\nOpening in the snow</pre>\n "}], "pager": {"current_page": 473, "total_items": "13248", "total_pages": 663, "items_per_page": 20}}