{"rows": [{"title": "Unnatural Selections: A Meditation upon Witnessing a Bullfrog Fucking a Rock", "view_node": "/poem/unnatural-selections-meditation-upon-witnessing-bullfrog-fucking-rock", "field_author": "<a href=\"/poet/jim-dodge\" hreflang=\"und\">Jim Dodge</a>", "field_date_published": "2002", "body": " <pre>\nAmalgam of electric jelly, \nconstellated neural knots \nin the briny binary soup, \nas surely as stimulus prods response \nbrains are made to choose. \nAnd through a major error in pattern recognition \nor a significant cognitive fault, \nthe bullfrogs brain has selected \na two-pound rock\nas the object of his rampant affection, \na rock (to my admittedly mammalian eye) \nthat neither resembles\nnor even vaguely suggests \nthe female of his species.\n\nHe does seem to be enjoying himself \nin a blunted sort of way, \nbut since the rock so obviously remains unmoved\none suspects it's not the blending of sweet oblivions \nthat fuels his persistence, \nbut a serious kink in a feedback loop-- \nor perhaps just kinkiness in general. \nThe less compassionate might even call him \nthe quintessentially insensitive male.\n\nAssuming a pan-species gender bond \nand a common fret, \nI advise my amphibious pal, \n\"Hey, I don't think she's <i>playing</i> hard to get.\nThat's the literal case you're up against, Jack--\ntrue story, buddy; stone fact.\nAnd I'd be fraternally remiss if I didn't share \nmy deep and eminently reasonable doubt \nthat she'll be worn down\nhowever long and spectacular the ardor.\"\n\nIgnoring my counsel\nas completely as he has my presence,\nthe bullfrog continues his fruitless assault \nwith that brain-locked commitment to folly\nwhich invariably accompanies \ndumb, bug-eyed lust.\n\nBut, in fairness, \nwhose brain hasn't shorted out in a slosh of hormones\nor, igniting like a shattered jug of gas,\nfireballed into a howling maelstrom \nwhere a rock indeed might seem a port? \nOne can only conclude\nthat such impelling concupiscence\nserves as a species' life-insurance, \nsort of a procreative override \nof any decision requiring thought, \nthought being notoriously prey to thinking, \nand the more one thinks about thinking \nthe thinkier it gets.\nTherefore, though the brain is made to choose, \nits very existence ultimately depends \non the generative supremacy of brainless desire--\nfor with all respect to Monsieur Descartes \nyou am before you can think you are. \nDirt-drive compulsions riding powerful desires\nrender any choice moot, along with \nreason, morality, taste, manners, \nand all those other jars of glitter \nwe pour on the sticky and raw.\n\nThe hard truth is we never chose to choose:\nnot the brains we use to pick\nbetween competing explanations for our sexual mess\nnor these hearts we've burdened with our blunders \nin the name of love.\nDo whatever we decide we will, \nthe choice isn't free;\nwe live at the mercy of more pressing needs.\n\nThus, urges urgently surging, \nwe mount a few rocks by mistake.\nA bit more embarrassing than most of our foolishness, true--\nbut so what?\nThe power of the imperative \ncoupled with the law of averages \nvirtually guarantees enough will get it right \nto make more brains to be made up \nabout exactly what steps to take \ntoward what we think we need to do \non this stony journey between delusion and mirage--\nwhen to move, where to hide our dreams-- \na journey where we finally learn \nfreedom is not a choice \na brain is free to choose.\n\nFortunately, my warty friend,\nthe soul is built to cruise.</pre>\n "}, {"title": "The Silence", "view_node": "/poem/silence-0", "field_author": "<a href=\"/poet/philip-schultz\" hreflang=\"und\">Philip Schultz</a>", "field_date_published": "2002", "body": " <p><i>for RJ</i></p>\n<pre>\nYou always called late and drunk, \nyour voice luxurious with pain,\nI, tightly wrapped in dreaming, \nlistening as if to a ghost.\n\nTonight a friend called to say your body \nwas found in your apartment, where \nit had lain for days. You'd lost your job, \nstopped writing, saw nobody for weeks. \nYour heart, he said. Drink had destroyed you.\n\nWe met in a college town, first teaching jobs, \npoems flowing from a grief we enshrined \nwith myth and alcohol. I envied the way \nwomen looked at you, a bear blunt with rage, \ntearing through an ever-darkening wood.\n\nOnce we traded poems like photos of women \nwhose beauty tested God's faith. 'Read this one \nabout how friendship among the young can't last, \nit will rip your heart out of your chest!'\n\nOnce you called to say J was leaving, \nthe pain stuck in your throat like a razor blade. \nA woman was calling me back to bed \nso I said I'd call back. But I never did.\n\nThe deep forlorn smell of moss and pine \nbehind your stone house, you strumming \nand singing Lorca, Vallejo, De Andrade, \nas if each syllable tasted of blood, \nas if you had all the time in the world. . .\n\nYou knew your angels loved you \nbut you also knew they would leave \nsomeone they could not save.</pre>\n "}, {"title": "Today I Went Down", "view_node": "/poem/today-i-went-down", "field_author": "<a href=\"/poet/breyten-breytenbach\" hreflang=\"und\">Breyten Breytenbach</a>", "field_date_published": "2002", "body": " <pre>\ntoday I went down on your body \nwhile windows were thick white eyes \nand hearkened the clogged cavities\nin the small darkroom of your chest, \nhedging an eternity over the aching voice \nfrom your gorgeous throat, \nagony and exaltation flow in one divide \nif I may make so bold, \nyour thighs are a loveword your hair \nnight's glittering lining of secret disport:\nI aimed for the innermost moon \nand rent, moved by the syntax and the slow \nof sadness and of joy, so\nI love you, love you so\n\nwhen the blinding comes, \nthe discomposure of silence, \nit must be high up the hills \nwhere hundreds of poor \nstamp their feet in the dust, and drums\nand woman voices like this ululating skyline \ngag the final ecstasy</pre>\n "}, {"title": "Sleet", "view_node": "/poem/sleet", "field_author": "<a href=\"/poet/alan-shapiro\" hreflang=\"und\">Alan Shapiro</a>", "field_date_published": "2002", "body": " <pre>\n<i>What was it like before the doctor got there?</i>\n\nTill then, we were in the back seat of the warm\ndark bubble of the old Buick. We were where \nwe'd never not been, no matter where we were.\n\n<i>And when the doctor got there?</i>\n\nEverything outside was in a rage of wind and sleet, \nwe were children, brothers, safe in the back seat, \nfor once not fighting, just listening, watching the storm.\n\n<i>Weren't you afraid that something bad might happen?</i>\n\nOur father held the wheel with just two fingers \neven though the car skidded and fishtailed \nand the chains clanged raggedly over ice and asphalt.\n\n<i>Weren't you afraid at all?</i>\n\nDad sang for someone to fly him to the moon, \nto let him play among the stars, while Mom \nheld up the lighter to another Marlboro.\n\n<i>But when the doctor started speaking. . .</i>\n\nThe tip of the Marlboro was a bright red star. \nHer lips pursed and she released a ring of Saturn, \nwhich dissolved as we caught at it, as my dad sang Mars.\n\n<i>When you realized what the doctor was saying. . .</i>\n\nThey were closer to the storm in the front seat.\nThe high beams, weak as steam against the walled swirling, \nonly illuminated what we couldn't see.\n\n<i>When he described it, the tumor in the brain and what it meant. . .</i>\n\nSee, we were children. Then we weren't. Or my brother wasn't. \nHe was driving now, he gripped the steering wheel\nwith both hands and stared hard at the panicked wipers.\n\n<i>What did you feel?</i>\n\nJust sleet, the slick road, the car going way too fast, \nno brother beside me in the back seat, no singing father, \nno mother, no ring of Saturn to catch at as it floats.</pre>\n "}, {"title": "Tenderness", "view_node": "/poem/tenderness", "field_author": "<a href=\"/poet/erica-funkhouser\" hreflang=\"und\">Erica Funkhouser</a>", "field_date_published": "2002", "body": " <pre>\nLast night the animals \nbeneath her window \ncrept out of hiding \nto comb the dirt \nfrom each other's fur.\n\nRising to watch, \nshe discovered the lilacs \nlit from below by ivory vinca. \nThe street on the other side \nof the trees continued \nto contain its passing cars; \ntenderly her teeth \nlet her tongue rest \nagainst their curving backs.\n\nTonight when she lies \nin bed again, \nshe will remember \nthe one kind thing \nher grown daughter said today \nafter weeks of scrutiny,\n\nand the moment at work \njust now, when a stack \nof Day-Glo folders \ncascaded over her desk, \nthrilling the white cubicle\nwith their descent.</pre>\n "}, {"title": "Steps", "view_node": "/poem/steps", "field_author": "<a href=\"/poet/grace-schulman\" hreflang=\"und\">Grace Schulman</a>", "field_date_published": "2002", "body": " <pre>\n\"And down and down and down,\"\nthe toddler's mother sings \nas he clears every ledge.\n\nMidway we cross their path.\nIn rain, the museum's steps \nloom like the Giant's Stairway\n\nto Guardi's Ducal Palace. \n\"And up and up and up\" \nis what I do not say\n\nas you stagger for balance. \nOnce I'd scaled that summit, \nhunted over the crowd,\n\nand saw you below, holding \ntwo hot dogs and white roses;\nyou vaulted, took the steps\n\ntwo at a time, then three, \nand leaped to where we met. \nYour smile is broader now.\n\nYou see more. On this day \nof wavering, we hear \na Triton blow the horn\n\nwhere Giotto's Magi open\nhands that rise in air:\nup, and up, and up.</pre>\n "}, {"title": "Narrow Flame", "view_node": "/poem/narrow-flame", "field_author": "<a href=\"/poet/linda-gregerson\" hreflang=\"und\">Linda Gregerson</a>", "field_date_published": "2002", "body": " <pre>\nDark still. Twelve degrees below freezing. \n            Tremor along\n      the elegant, injured right front\n\nleg of the gelding on the cross-ties. Kneeling \n            girl.\n      The undersong of waters as she bathes\n\nthe leg in yet more cold. [tongue is broken] \n            [god to me]\n      Her hair the color of winter wheat.</pre>\n "}, {"title": "Affirmation", "view_node": "/poem/affirmation", "field_author": "<a href=\"/poet/donald-hall\" hreflang=\"und\">Donald Hall</a>", "field_date_published": "2002", "body": " <pre>\nTo grow old is to lose everything. \nAging, everybody knows it. \nEven when we are young, \nwe glimpse it sometimes, and nod our heads \nwhen a grandfather dies.\nThen we row for years on the midsummer \npond, ignorant and content. But a marriage,\nthat began without harm, scatters \ninto debris on the shore, \nand a friend from school drops \ncold on a rocky strand.\nIf a new love carries us \npast middle age, our wife will die \nat her strongest and most beautiful. \nNew women come and go. All go. \nThe pretty lover who announces \nthat she is temporary\nis temporary. The bold woman,\nmiddle-aged against our old age,\nsinks under an anxiety she cannot withstand. \nAnother friend of decades estranges himself \nin words that pollute thirty years. \nLet us stifle under mud at the pond's edge \nand affirm that it is fitting\nand delicious to lose everything.</pre>\n "}, {"title": "Phases", "view_node": "/poem/phases", "field_author": "<a href=\"/poet/michael-redhill\" hreflang=\"und\">Michael Redhill</a>", "field_date_published": "1993", "body": " <p><i>Ich glaube an N\u00e4chte</i></p>\n<pre>\nWatching the garden winter under the moon, \nwe think of the brown animals\nunder the earth. Or the bulbs \nof the jonquils frozen there \nwith their orange eyes clenched in coils.\nWhite and silent night, the air cold as iron \nand the lake like an old woman under a blanket. \nWe gave your grandma marijuana tea \nto lull the cancer clenched in her like fists.\n\nOur legs are weak after making love \nbut we walk across the solid lake. \nWe're wrapped in the husk of a Bay blanket, \nthe air smells like wool and our heat \nbillows around us, animal. The lake \nclicks as we walk, a photograph \ncurling up at the edges. Far under\nhibernating fish drift in the current, \ntheir bodies curving back and forth, \nwhile above them the moon \nglows on the snowless patches--\na white heart expanding under the ice. \nAnd in our blanket, our bodies \nhold the shapes of the people \nwhose cells we slept in for generations.</pre>\n "}, {"title": "Gods", "view_node": "/poem/gods", "field_author": "<a href=\"/poet/michael-redhill\" hreflang=\"und\">Michael Redhill</a>", "field_date_published": "2001", "body": " <pre>\nThe gorse-edged trail, the path up through sheep laurel and sedge\nby the lake, and then up again through the meadow and remnants\nof orchard and mill. Nine-months pregnant, you leaned back \ninto shadow under a russet-thick apple tree, then on after that \nto the edge of the pine forest, the signs promising\na circle back to the parking lot. Still later, a steel bridge brought us \nover the river, the water bursting against the mesh-encased blocks \nbuttressing the tracks that once went to Waterford and Kitchener, \nand here there was another road and we were lost. We'd arrived this way \nin another summer, and gone down to water. I remembered that time--\nI didn't know if I loved, or was loved, but now that felt like the past.\n\nClimbing to the road, gleaming and ravenous, you fell into a caf\u00e9 chair,\nI went back for the car. Over the river, the bridge, ancestral memory\nof a train going past, a hint of doubt, then forest, then meadow, running\nbecause the baby could come at any time. Then orchard and mill, and why\ndid I stop to look at the old stones, the dead shapes close\nto the ground saying something about what they'd been used for? Why\ndid I lie down where you had, now the sky different, the light different? Although\nthe flowing reek of apples was the same, the flattened shape \nin the grass. It was as if that old other part of my life was over, \nand I was here to remember it, the way we'd been. Like that dead family \nwho ground grain here and fed carrots to the horses, and turned \nthat great wheel we thought probably fit into a groove in the side \nof one of the crushed walls, and baked, and made love, and there was \nno city below them, and nothing above them but the sky and its gods.</pre>\n<p>December 1998</p> "}, {"title": "O Little Root of a Dream", "view_node": "/poem/o-little-root-dream", "field_author": "<a href=\"/poet/paul-celan\" hreflang=\"und\">Paul Celan</a>", "field_date_published": "2000", "body": " <pre>O little root of a dream \nyou hold me here \nundermined by blood, \nno longer visible to anyone, \nproperty of death.\n\nCurve a face\nthat there may be speech, of earth, \nof ardor, of\nthings with eyes, even\nhere, where you read me blind,\n\neven \nhere, \nwhere you \nrefute me, \nto the letter.</pre>\n "}, {"title": "Voir Dire", "view_node": "/poem/voir-dire", "field_author": "<a href=\"/poet/denise-liddell-lawson\" hreflang=\"und\">Denise Liddell Lawson</a>", "field_date_published": "2002", "body": " <pre>\nTell me about yourself.\nInflection expresses pleasure.\n\nWhere are you from?\nA house with many drawers and in each one is a bird.\n\nYour race?\nMonarch orange and bristling.\n\nWhat do you do?\nThe wind picks up.\n\nHow do you do it?\nI dig out the seed with a nail.\n\nDo you believe in progress?\nEvolution is spelled erratically.\n\nPolitics?\nBark, split and patched with lichen.\n\nAnd your heroes?\nShadows trade places.\n\nWhat are your ambitions?\nOxygen flows through a window and I lose track of it.\n\nPursuits?\nAffection, direction.\n\nWhat do you value?\nAttention is currency.\n\nBest advice?\nIn the morning, the stimulation of water; later, of letters.\n\nIn a word?\nHammock. Or havoc.</pre>\n "}, {"title": "The Happiness", "view_node": "/poem/happiness", "field_author": "<a href=\"/poet/jack-hirschman\" hreflang=\"und\">Jack Hirschman</a>", "field_date_published": "2002", "body": " <pre>\nThere's a happiness, a joy \nin one soul, that's been \nburied alive in everyone \nand forgotten.\n\nIt isn't your barroom joke \nor tender, intimate humor \nor affections of friendliness \nor big, bright pun.\n\nThey're the surviving survivors \nof what happened when happiness \nwas buried alive, when \nit no longer looked out\n\nof today's eyes, and doesn't \neven manifest when one \nof us dies, we just walk away \nfrom everything, alone\n\nwith what's left of us, \ngoing on being human beings \nwithout being human, \nwithout that happiness.</pre>\n "}, {"title": "To the Oracle at Delphi", "view_node": "/poem/oracle-delphi", "field_author": "<a href=\"/poet/lawrence-ferlinghetti\" hreflang=\"und\">Lawrence Ferlinghetti</a>", "field_date_published": "2001", "body": " <pre>Great Oracle, why are you staring at me,\ndo I baffle you, do I make you despair?\nI, Americus, the American,\nwrought from the dark in my mother long ago,\nfrom the dark of ancient Europa\u2014\nWhy are you staring at me now\nin the dusk of our civilization\u2014\nWhy are you staring at me\nas if I were America itself\nthe new Empire\nvaster than any in ancient days\nwith its electronic highways\ncarrying its corporate monoculture\naround the world\nAnd English the Latin of our days\u2014\n\nGreat Oracle, sleeping through the centuries, \nAwaken now at last\nAnd tell us how to save us from ourselves\nand how to survive our own rulers \nwho would make a plutocracy of our democracy \nin the Great Divide\nbetween the rich and the poor\nin whom Walt Whitman heard America singing\n\nO long-silent Sybil, \nyou of the winged dreams, \nSpeak out from your temple of light \nas the serious constellations \nwith Greek names\nstill stare down on us \nas a lighthouse moves its megaphone \nover the sea\nSpeak out and shine upon us \nthe sea-light of Greece \nthe diamond light of Greece\n\nFar-seeing Sybil, forever hidden, \nCome out of your cave at last \nAnd speak to us in the poet's voice \nthe voice of the fourth person singular \nthe voice of the inscrutable future \nthe voice of the people mixed\nwith a wild soft laughter\u2014\nAnd give us new dreams to dream, \nGive us new myths to live by!</pre>\n<p class=\"XSMALL\"><i>Read at Delphi, Greece, on March 21, 2001 at the UNESCO World Poetry Day</i></p> "}, {"title": "For a Daughter Who Leaves", "view_node": "/poem/daughter-who-leaves", "field_author": "<a href=\"/poet/janice-mirikitani\" hreflang=\"en\">Janice Mirikitani</a>", "field_date_published": "2002", "body": "<p class=\"XSMALL\">\"More than gems in my comb box shaped by the<br />\nGod of the Sea, I prize you, my daughter. . .\"<br />\nLady Otomo, 8th century, Japan</p>\n\n<pre>\nA woman weaves \nher daughter's wedding \nslippers that will carry \nher steps into a new life. \nThe mother weeps alone\ninto her jeweled sewing box\t\nslips red thread\naround its spool, \nthe same she used to stitch \nher daughter's first silk jacket \nembroidered with turtles \nthat would bring luck, long life. \nShe remembers all the steps \ntaken by her daughter's \nunbound quick feet:\ndancing on the stones \nof the yard among yellow\nbutterflies and white breasted sparrows. \nAnd she grew, legs strong \nbody long, mind\nindependent.\nNow she captures all eyes \nwith her hair combed smooth \nand her hips gently \nswaying like bamboo. \nThe woman\nspins her thread \nfrom the spool of her heart, \nknotted to her daughter's \ndeparting\nwedding slippers.</pre>\n"}, {"title": "Fisherman", "view_node": "/poem/fisherman", "field_author": "<a href=\"/poet/kurt-brown\" hreflang=\"und\">Kurt Brown</a>", "field_date_published": "2002", "body": "<p><span class=\"long-line\">A man spends his whole life fishing in himself</span><br /><span class=\"long-line\">for something grand. It's like some lost lunker, big enough</span><br /><span class=\"long-line\">to break all records. But he's only heard rumors, myths,</span><br /><span class=\"long-line\">vague promises of wonder. He's only felt the shadow</span><br /><span class=\"long-line\">of something enormous darken his life. Or has he?</span><br /><span class=\"long-line\">Maybe it's the shadow of other fish, greater than his,</span><br /><span class=\"long-line\">the shadow of other men's souls passing over him.</span><br /><span class=\"long-line\">Each day he grabs his gear and makes his way</span><br /><span class=\"long-line\">to the ocean. At least he's sure of that: or is he? Is it the ocean</span><br /><span class=\"long-line\">or the little puddle of his tears? Is this his dinghy</span><br /><span class=\"long-line\">or the frayed boards of his ego, scoured by storm?</span><br /><span class=\"long-line\">He shoves off, feeling the land fall away under his boots.</span><br /><span class=\"long-line\">Soon he's drifting under clouds, wind whispering blandishments</span><br /><span class=\"long-line\">in his ears. It could be today: the water heaves</span><br /><span class=\"long-line\">and settles like a chest. . . He's not far out.</span><br /><span class=\"long-line\">It's all so pleasant, so comforting--the sunlight,</span><br /><span class=\"long-line\">the waves. He'll go back soon, thinking: \"Maybe tonight.\"</span><br /><span class=\"long-line\">Night with its concealments, its shadow masking all other shadows.</span><br /><span class=\"long-line\">Night with its privacies, its alluringly distant stars.</span></p>\n"}, {"title": "One Side of the World", "view_node": "/poem/one-side-world", "field_author": "<a href=\"/poet/gwen-ebert\" hreflang=\"und\">Gwen Ebert</a>", "field_date_published": "2002", "body": " <pre>\nThe creatures \nwho watch us \nwith amused love \nare dying.\n\nSometimes, we \nhave nothing \nto do with it.\n\nCicada, \nthe little Christ \nhummed the \ndrone note \nhigh in sooty towers.\n\nNow its body \nlies broken \non a step. \nLifted, \nthe wings \ndetach, \nthorax drops \nlike an airy plumb.\n\nWe live, \nit seems, \non a one-sided \nworld-- \n\none tired\n\nas a body \non the city bus \nat night,\nfalling into itself,\n\nhead bent \nin the wrong \ndirection.</pre>\n "}, {"title": "The Black Bass", "view_node": "/poem/black-bass", "field_author": "<a href=\"/poet/david-dodd-lee\" hreflang=\"und\">David Dodd Lee</a>", "field_date_published": "2002", "body": " <pre>\nMy hand became my father's hand \nthat day, \nfor a second or two, as I lifted the fish, and I could feel his loneliness, \nmy father's, like mine,\n\na horse in a stall spooked by guttering candles, \nthe popping and black smoke, the quivering flanks.\n\nAnd if a horse, in <i>its</i> loneliness, couldn't manage \nto speak, what difference did it make? \nWhat could he say? Tell a flickering candle <i>Burn true?</i>\n\nThen I thought of my mother, standing in a field with flames \nin her hair. She was surrounded by deer, statues\nin a circle around her.\n</pre>\n "}, {"title": "Far Edge", "view_node": "/poem/far-edge", "field_author": "<a href=\"/poet/nancy-mitchell\" hreflang=\"und\">Nancy Mitchell</a>", "field_date_published": "2002", "body": " <pre>\nWhere she had peed in the dirt, \nfive years later\n\nhe put his hands in the same dirt, \ntasted it and wept.\n\nWho is he who could do such? \nWho is she that he could do such?</pre>\n "}, {"title": "Cold Morning", "view_node": "/poem/cold-morning", "field_author": "<a href=\"/poet/eamon-grennan\" hreflang=\"und\">Eamon Grennan</a>", "field_date_published": "2002", "body": " <pre>\nThrough an accidental crack in the curtain \nI can see the eight o'clock light change from \ncharcoal to a faint gassy blue, inventing things\n\nin the morning that has a thick skin of ice on it \nas the water tank has, so nothing flows, all is bone, \ntelling its tale of how hard the night had to be\n\nfor any heart caught out in it, just flesh and blood \nno match for the mindless chill that's settled in, \na great stone bird, its wings stretched stiff\n\nfrom the tip of Letter Hill to the cobbled bay, its gaze \nglacial, its hook-and-scrabble claws fast clamped \non every window, its petrifying breath a cage\n\nin which all the warmth we were is shivering.</pre>\n "}], "pager": {"current_page": 636, "total_items": "13248", "total_pages": 663, "items_per_page": 20}}