{"rows": [{"title": "wind is... (audio only)", "view_node": "/poem/wind-audio-only", "field_author": "<a href=\"/poet/rusty-morrison\" hreflang=\"und\">Rusty Morrison</a>", "field_date_published": "2008", "body": " <p>\u00a0</p><p>Click the icon above to listen to this audio poem.</p> "}, {"title": "The Wild Iris (audio only)", "view_node": "/poem/wild-iris-audio-only", "field_author": "<a href=\"/poet/louise-gluck\" hreflang=\"und\">Louise Gl\u00fcck</a>", "field_date_published": "1992", "body": " <p>\u00a0</p><p>Click the icon above to listen to this audio poem.</p> "}, {"title": "Folly", "view_node": "/poem/folly", "field_author": "<a href=\"/poet/cecily-parks\" hreflang=\"und\">Cecily Parks</a>", "field_date_published": "2008", "body": " <p>\u00a0\u00a0\u00a0\u00a0\u00a0\u00a0\u00a0\u00a0\u00a0\u00a0\u00a0 <em>Fort Bonneville, Wyoming</em></p><p>Along the highway there\u2019s a place<br />where nothing\u2019s left: suggestive mounds of dirt,<br />a marker to commemorate abandon</p><p>inside this elbow of the Green. Bristly<br />cottonwoods abound in serpentine, bound<br />by water to the banks their roots uphold\u2014</p><p>this is a kind of love, a state of need<br />distilled and tough. The riffle makes<br />slim disks in the current, clicking. No,</p><p>it\u2019s not so pretty past the Divide, just shy<br />of Utah desert\u2014unless you rode across<br />the country to be defined</p><p>by mountains, rivers, and sage; to build<br />where snow comes early and lasts, where coupled<br />sandhill cranes wheel south to Mexico each fall.</p><p>And in Wyoming\u2019s thrall, perhaps you find<br />the heart is a poor fort, was never meant<br />for stockade. Then the weather comes like a train.\u00a0</p><p>Upon excavation, they found some ocher<br />and wood, one iron wrench, one file and part<br />of a key. One hand-wrought nail\u2014</p><p>all portent falters here, where every presence,<br />even yours, seems buffeted and slight.</p> "}, {"title": "I Lost My Horse", "view_node": "/poem/i-lost-my-horse", "field_author": "<a href=\"/poet/cecily-parks\" hreflang=\"und\">Cecily Parks</a>", "field_date_published": "2008", "body": " <p>I was looking for an animal, calf or lamb,<br />in the wire, metal and hair along the fence line.<br />Wire, metal and hair and there, in the gully, a man</p><p>I was pretending was dead. I pretended<br />to leave him where the woods met the meadow,<br />walking fast because I\u2019d left my horse lashed</p><p>to a fence I lost track of two valleys<br />ago. Like a horse, I shied from the dead.<br />Here, calf. Here, lamb. I listened, wanting</p><p>(without my horse, my calf or lamb) to be<br />whipsmart rather than wanted. I wore orange<br />on antelope season\u2019s first afternoon\u00a0</p><p>and waited for the click that means the safety is<br />off. When I spoke, my story was about picking<br />skulls clean. I wanted everything to be</p><p>afraid of me, the horseless girl who wanted<br />to kill a dead man again. The white bed<br />with a window behind its headboard became</p><p>ice on the meadow road and a tree to stop<br />a truck dead. I meant to trace my boot steps<br />back to the fence where things went wrong,</p><p>find my horse mouthing the bit, tied up by her<br />reins. I looked for the horse because she looked<br />safe enough to love. I looked for the calf</p><p>or lamb because there was no calf or lamb.<br />The man left before I could leave him, and I pretended<br />the world was afraid of me because I was alone.</p> "}, {"title": "How from Politeness to the Trees", "view_node": "/poem/how-politeness-trees", "field_author": "<a href=\"/poet/cecily-parks\" hreflang=\"und\">Cecily Parks</a>", "field_date_published": "2008", "body": " <p>Solstice dabbles behind the hills, whitefire at the horizon well into what should be evening, well into after, meting out to what should be the privacy of night illumination enough to fray the sky.\u00a0 \u00a0</p><p>Black wings snuff out the owlish air in the cottonwood\u2019s elephant silhouette, readying a backlit section of branches for the wind\u2019s beckoning, the shush of each restacking wing not an endearment exactly, but close.</p><p>The one track mind combs the mown meadow for the word bristling beneath cut tongues of grass, which is the word of the scavenging animal whose prayer is most like the light\u2019s gestures on the seventh longest day of the century\u2019s seventh year, which undo themselves expertly.</p><p>Lightning precedes thunder the way the river precedes stone through untrammeled channels of interface, visitors and visiteds and the rain, pricking.</p><p>To the voice that calls in the woods, <em>Come back, I\u2019ll throw the stone you whimpered for, </em>the animal demurs, is perfection, is diminishing, does not pause to look back.</p><p>This earth-in-paragraph recovers its fathomlessness subsequent to jackknifing grass.</p> "}, {"title": "Safe in their Alabaster Chambers (216)", "view_node": "/poem/safe-their-alabaster-chambers-216", "field_author": "<a href=\"/poet/emily-dickinson\" hreflang=\"und\">Emily Dickinson</a>", "field_date_published": "1890", "body": " <pre>\nSafe in their Alabaster Chambers\u2014\nUntouched by Morning\nAnd untouched by Noon\u2014\nSleep the meek members of the Resurrection\u2014\nRafter of satin,\nAnd Roof of stone.\n\nLight laughs the breeze\nIn her Castle above them\u2014\nBabbles the Bee in a stolid Ear,\nPipe the Sweet Birds in ignorant cadence\u2014\nAh, what sagacity perished here!\n\n                      <i>Version of 1859</i>\n\n*****\n\nSafe in their Alabaster Chambers\u2014\nUntouched by Morning\nAnd untouched by Noon\u2014\nLie the meek members of the Resurrection\u2014\nRafter of Satin\u2014and Roof of Stone!\n\nGrand go the Years\u2014in the Crescent\u2014above them\u2014\nWorlds scoop their Arcs\u2014\nAnd Firmaments\u2014row\u2014\nDiadems\u2014drop\u2014and Doges\u2014surrender\u2014\nSoundless as dots\u2014on a Disc of Snow\u2014\n\n                      <i>Version of 1861</i>\n</pre>\n "}, {"title": "Tender Buttons [A Light in the Moon]", "view_node": "/poem/tender-buttons-light-moon", "field_author": "<a href=\"/poet/gertrude-stein\" hreflang=\"und\">Gertrude Stein</a>", "field_date_published": "1914", "body": " <p>A LIGHT IN THE MOON</p><p>A light in the moon the only light is on Sunday. What was the sensible decision. The sensible decision was that notwithstanding many declarations and more music, not even notwithstanding the choice and a torch and a collection, notwithstanding the celebrating hat and a vacation and even more noise than cutting, notwithstanding Europe and Asia and being overbearing, not even notwithstanding an elephant and a strict occasion, not even withstanding more cultivation and some seasoning, not even with drowning and with the ocean being encircling, not even with more likeness and any cloud, not even with terrific sacrifice of pedestrianism and a special resolution, not even more likely to be pleasing. The care with which the rain is wrong and the green is wrong and the white is wrong, the care with which there is a chair and plenty of breathing. The care with which there is incredible justice and likeness, all this makes a magnificent asparagus, and also a fountain.</p> "}, {"title": "XXIX [Surprised by joy\u2014impatient as the Wind]", "view_node": "/poem/xxix-surprised-joy-impatient-wind", "field_author": "<a href=\"/poet/william-wordsworth\" hreflang=\"und\">William Wordsworth</a>", "field_date_published": "1815", "body": " <pre>Surprised by joy\u2014impatient as the Wind\nI turned to share the transport\u2014Oh! with whom\nBut Thee, deep buried in the silent Tomb,\nThat spot which no vicissitude can find?\nLove, faithful love, recalled thee to my mind\u2014\nBut how could I forget thee? Through what power,\nEven for the least division of an hour,\nHave I been so beguiled as to be blind\nTo my most grievous loss?\u2014That thought's return\nWas the worst pang that sorrow ever bore,\nSave one, one only, when I stood forlorn,\nKnowing my heart's best treasure was no more;\nThat neither present time, nor years unborn\nCould to my sight that heavenly face restore.\n</pre>\n "}, {"title": "The Question Answered", "view_node": "/poem/question-answered", "field_author": "<a href=\"/poet/william-blake\" hreflang=\"und\">William Blake</a>", "field_date_published": "1905", "body": " <pre>\nWhat is it men in women do require\nThe lineaments of Gratified Desire\nWhat is it women do in men require\nThe lineaments of Gratified Desire\n</pre>\n "}, {"title": "Matins (audio only)", "view_node": "/poem/matins-audio-only", "field_author": "<a href=\"/poet/carol-frost\" hreflang=\"und\">Carol Frost</a>", "field_date_published": "2003", "body": " <p>\u00a0</p><p>Click the icon above to listen to this audio poem.</p> "}, {"title": "Egon Schiele&#039;s Wife (audio only)", "view_node": "/poem/egon-schieles-wife-audio-only", "field_author": "<a href=\"/poet/carol-frost\" hreflang=\"und\">Carol Frost</a>", "field_date_published": "2003", "body": " <p>\u00a0</p><p>Click the icon above to listen to this audio poem.</p> "}, {"title": "Apiary IX (audio only)", "view_node": "/poem/apiary-ix-audio-only", "field_author": "<a href=\"/poet/carol-frost\" hreflang=\"und\">Carol Frost</a>", "field_date_published": "2003", "body": " <p>\u00a0</p><p>Click the icon above to listen to this audio poem.</p> "}, {"title": "Toro", "view_node": "/poem/toro", "field_author": "<a href=\"/poet/sarah-gambito\" hreflang=\"und\">Sarah Gambito</a>", "field_date_published": "2005", "body": " <pre>\nI'm looking for the good robin of everlasting sewing.\n\nEasy as a bed to bed.\n\nAnd his words are mints.\n\nMy shock in the ghost of the guest of my boyfriend.\n\nFirst there is the Father.\n\nHe would not like me to tell you about him.\n\nHe is punching holes right now.  Saying petit, petit, petit.\n\nGarbled\u2014he can seem like a balloon.  Such a skin. A kingfisher.\n\nWe are afraid to touch him.\n\nLike too many nights of touching ourselves.\n\nHe might plan to take us on a picnic.\n\nWe must be ready.  We must be hungry.\n\nI finished my blue necklace.\n\nShe tries to convince him because he was here on earth.\n\nDad quits his job for the umpteenth time.\n\nI'm wicked lonely.\n\nWe are in a department store.\n\nI buy him a blue bracelet because it is right there.\n\nAnd I would wear it.\n\nI buy it hoping he bought me something for Christmas.\n\nThis is never true of course.\n\nWe talk about religion.  Of jasper things in trees.\n\nHe wears an engagement ring.\n\nI am shivery, full of V-8.\n\nHe drinks too much and cheats all the time.\n\nAll of whom he left behind in the Bible belt are singing <i>Yes, yes yes</i>\n\nWe put our hands over our face, our neck.\n\nWe are overcome, saying, \"No, no. I can't. I can't.\"</pre>\n "}, {"title": "The Good Provider", "view_node": "/poem/good-provider", "field_author": "<a href=\"/poet/sarah-gambito\" hreflang=\"und\">Sarah Gambito</a>", "field_date_published": "2009", "body": " <pre>\nThe best thing of all is to take the enemy's country whole and intact.\nMy mother took my heart out.  She banked it on top of her stove.\nIt glowed white.  She put it back in my chest.\n\nTita knew that overseas workers often had affairs.\nHe licked me and I pretended it pinged through my body like a swift idea\nThat I wrote about and considered like a bell of good craftsmanship.\nShe also knew that their kids ate better\n\nHe said your belly is like a cat's.\nHe said with his bowl up to his chin\nMore please.\n\nAt night the fireflies come out.  They flock to my window.\nI put my hands up against the screen.\nI think how fragile it is to be inside a house.\nThey say I want permission\n\nI paint my face.  I say\u2014just take it.\nEasy.  If equally matched, we can offer battle.\nIf unequal in any way, we can flee from him.\n\nDeprived of their father while sustained by his wages.\nI thought a lot about walking around at night.\nBy myself.  Just to think.  But I never did.\nI thought I could just flick a switch.\n\nWhen I was born, my mother and father gave me a gardenia like personal star.\nDon't you hate it when someone apologizes all the time?\nIt's like they are not even sorry.</pre>\n "}, {"title": "Populating Heaven", "view_node": "/poem/populating-heaven", "field_author": "<a href=\"/poet/maureen-n-mclane\" hreflang=\"und\">Maureen N. McLane</a>", "field_date_published": "2008", "body": " <pre>&#13;\n         If we belonged &#13;\nto the dead, if we had our own&#13;\nEgyptian culture of care\u2014&#13;\nthe amulets of home entombed&#13;\nfor solace everywhere\u2014&#13;\nwould we then have found&#13;\na better way to cast beyond&#13;\nthe merely given earth?&#13;\n         If you want to follow me&#13;\nyou'd better leave your plaid&#13;\nsuitcase and makeup kit&#13;\nbehind.  I hope you won't&#13;\nmind the narrow corridor;&#13;\nthe air in the chamber's&#13;\nthinned out.  In this dark&#13;\nI think my life's an old hinge&#13;\ncreaking in silence.&#13;\n         Open the door&#13;\nand you'll see the creatures&#13;\nI imagined while you were waiting:&#13;\nthe green-eyed dog upright&#13;\non his throne, the winged lion,&#13;\nthe woman whose third eye&#13;\nbrightens the room.&#13;\nShe's the grinding lapis to paint&#13;\nthe veins of her breast.&#13;\nHer nipples are coated with gold.&#13;\n         It's true they rarely speak&#13;\nbut you're welcome&#13;\nto ask their names.&#13;\nMost days they lie&#13;\nand dream among the harps.&#13;\n&#13;\nThey suffice&#13;\nfor themselves, neither&#13;\ngiving nor receiving.&#13;\n&#13;\nSee how they wither&#13;\nin the momentary glance, &#13;\nturn to dust on the&#13;\nsteps we climbed&#13;\nto get here.  </pre>&#13;\n "}, {"title": "syntax", "view_node": "/poem/syntax-0", "field_author": "<a href=\"/poet/maureen-n-mclane\" hreflang=\"und\">Maureen N. McLane</a>", "field_date_published": "2008", "body": "<p><span class=\"long-line\">and if</span><br /><span class=\"long-line\">\n  I were to say</span></p><p>\n<span class=\"long-line\">I love you and</span><br /><span class=\"long-line\">\n  I do love you</span></p><p>\n<span class=\"long-line\">and I say it</span><br /><span class=\"long-line\">\n  now and again</span></p><p>\n<span class=\"long-line\">and again</span><br /><span class=\"long-line\">\n  would you say</span></p><p>\n<span class=\"long-line\">parataxis</span><br /><span class=\"long-line\">\n  would you see</span></p><p>\n<span class=\"long-line\">the world revolves</span><br /><span class=\"long-line\">\n  anew</span></p><p>\n<span class=\"long-line\">its axis</span><br /><span class=\"long-line\">\n  you</span></p>"}, {"title": "Man Carrying Thing", "view_node": "/poem/man-carrying-thing", "field_author": "<a href=\"/poet/wallace-stevens\" hreflang=\"und\">Wallace Stevens</a>", "field_date_published": "1980", "body": " <pre>\nThe poem must resist the intelligence \nAlmost successfully. Illustration: \n\nA brune figure in winter evening resists \nIdentity. The thing he carries resists \n\nThe most necessitous sense. Accept them, then,\nAs secondary (parts not quite perceived \n\nOf the obvious whole, uncertain particles \nOf the certain solid, the primary free from doubt,\n \nThings floating like the first hundred flakes of snow \nOut of a storm we must endure all night, \n\nOut of a storm of secondary things), \nA horror of thoughts that suddenly are real. \n\nWe must endure our thoughts all night, until \nThe bright obvious stands motionless in cold. </pre>\n "}, {"title": "Poetry Is a Destructive Force", "view_node": "/poem/poetry-destructive-force", "field_author": "<a href=\"/poet/wallace-stevens\" hreflang=\"und\">Wallace Stevens</a>", "field_date_published": "1980", "body": " <pre>\nThat's what misery is,\nNothing to have at heart. \nIt is to have or nothing. \n\nIt is a thing to have, \nA lion, an ox in his breast, \nTo feel it breathing there.\n \nCorazon, stout dog, \nYoung ox, bow-legged bear, \nHe tastes its blood, not spit. \n\nHe is like a man \nIn the body of a violent beast. \nIts muscles are his own . . .\n\nThe lion sleeps in the sun. \nIts nose is on its paws. \nIt can kill a man. </pre>\n "}, {"title": "Not Ideas About the Thing But the Thing Itself", "view_node": "/poem/not-ideas-about-thing-thing-itself", "field_author": "<a href=\"/poet/wallace-stevens\" hreflang=\"und\">Wallace Stevens</a>", "field_date_published": "1980", "body": "<p><span class=\"long-line\">At the earliest ending of winter, </span><br /><span class=\"long-line\">In March, a scrawny cry from outside </span><br /><span class=\"long-line\">Seemed like a sound in his mind. </span></p>\n\n<p><span class=\"long-line\">He knew that he heard it, </span><br /><span class=\"long-line\">A bird's cry at daylight or before,</span><br /><span class=\"long-line\">In the early March wind.</span></p>\n\n<p><span class=\"long-line\">The sun was rising at six, </span><br /><span class=\"long-line\">No longer a battered panache above snow . . . </span><br /><span class=\"long-line\">It would have been outside. </span></p>\n\n<p><span class=\"long-line\">It was not from the vast ventriloquism </span><br /><span class=\"long-line\">Of sleep's faded papier m\u00e2ch\u00e9 . . .</span><br /><span class=\"long-line\">The sun was coming from outside. </span></p>\n\n<p><span class=\"long-line\">That scrawny cry\u2014it was </span><br /><span class=\"long-line\">A chorister whose c preceded the choir. </span><br /><span class=\"long-line\">It was part of the colossal sun, </span></p>\n\n<p><span class=\"long-line\">Surrounded by its choral rings, </span><br /><span class=\"long-line\">Still far away. It was like </span><br /><span class=\"long-line\">A new knowledge of reality.</span></p>\n"}, {"title": "Eating Poetry", "view_node": "/poem/eating-poetry", "field_author": "<a href=\"/poet/mark-strand\" hreflang=\"und\">Mark Strand</a>", "field_date_published": "1980", "body": "<p><span class=\"long-line\">Ink runs from the corners of my mouth.</span><br /><span class=\"long-line\">There is no happiness like mine.</span><br /><span class=\"long-line\">I have been eating poetry.</span></p>\n\n<p><span class=\"long-line\">The librarian does not believe what she sees.</span><br /><span class=\"long-line\">Her eyes are sad</span><br /><span class=\"long-line\">and she walks with her hands in her dress.</span></p>\n\n<p><span class=\"long-line\">The poems are gone.</span><br /><span class=\"long-line\">The light is dim.</span><br /><span class=\"long-line\">The dogs are on the basement stairs and coming up.</span></p>\n\n<p><span class=\"long-line\">Their eyeballs roll,</span><br /><span class=\"long-line\">their blond legs burn like brush.</span><br /><span class=\"long-line\">The poor librarian begins to stamp her feet and weep.</span></p>\n\n<p><span class=\"long-line\">She does not understand.</span><br /><span class=\"long-line\">When I get on my knees and lick her hand,</span><br /><span class=\"long-line\">she screams.</span></p>\n\n<p><span class=\"long-line\">I am a new man.</span><br /><span class=\"long-line\">I snarl at her and bark.</span><br /><span class=\"long-line\">I romp with joy in the bookish dark.</span></p>\n"}], "pager": {"current_page": 525, "total_items": "13248", "total_pages": 663, "items_per_page": 20}}