{"rows": [{"title": "Epithalamium", "view_node": "/poem/epithalamium-1", "field_author": "<a href=\"/poet/carl-adamshick\" hreflang=\"und\">Carl Adamshick</a>", "field_date_published": "2017", "body": " <p>Here you go<br />light low and long<br />in the fields<br />at sunset and sunrise<br />Everything twice<br />a doubled existence<br />two nows<br />two thens<br />two names<br />yours and the other one<br />also yours<br />folded into a paper boat<br />the points of which<br />constellate stars</p> "}, {"title": "Late Summer", "view_node": "/poem/late-summer-0", "field_author": "<a href=\"/poet/james-brasfield\" hreflang=\"und\">James Brasfield</a>", "field_date_published": "2017", "body": " <p>Now cosmos in bloom and snow-in-summer<br />opening along the garden\u2019s stone borders,</p><p>a moment toward a little good fortune,<br />water from the watering can,</p><p>to blossom, so natural, it seems, and still<br />the oldest blooms outside my door are flourishing</p><p>according to their seedtime.\u00a0<br />They have lived as in trust</p><p>of tended ground, not of many seasons<br />as the lingering bud in late summer,</p><p>when leaves have reached their greenest,<br />when a chill enters the nights,</p><p>when a star I\u2019ve turned to, night after night,<br />vanished in the shift of constellations.\u00a0</p><p>But when on a bare branch,<br />even in August, a sprig starts,</p><p>sprig to stem\u2014as if to say, See,<br />there\u2019s kinship with the perennials</p><p>you think so hardy\u2014voice<br />the moment among the oaks, toast</p><p>the spring in summer, as once each May<br />a shot of vodka is poured on bare dirt</p><p>among gravestones to quench the dead,<br />among the first stars of this new evening.</p><p>\u00a0</p> "}, {"title": "Ancient Sunlight", "view_node": "/poem/ancient-sunlight", "field_author": "<a href=\"/poet/amy-king\" hreflang=\"und\">Amy King</a>", "field_date_published": "2017", "body": " <p>Shame on you for dating a museum:<br />Everything is dead there and nothing is alive.<br />Not everyone who lives to be old embraces<br />the publicity of it all. I mean, you get up and folks<br />want to know, <em>How did you get here? What makes you<br />go? What is the secret?</em> And there is no secret except<br />there are many things that build the years out.<br />They are not vegetables every day and working out<br />but a faith that all of these things add up<br />and lead us to some sum total happiness<br />we can cash in for forever love in the face<br />of never lasting. That people along the way<br />keep disappearing in a variety show of deathbed ways<br />is also the sheer terror that it may not hold for us too.<br />That we may outlast everything and be left<br />alone to keep going, never Icarus with wax melting,<br />never the one whose smoke &amp; drink undid<br />the lungs that pull our wings in then out and the liver<br />that keeps chugging the heft of Elizabeth Cotten\u2019s<br />\u201cFreight Train\u201d with her upside down left hand guitar still<br /><span class=\"long-line\">playing in videos past her presence. I have become a person since</span><br /><span class=\"long-line\">I reorganized my face in the mirror and the world is my inflation.</span><br />But this testament offers no sound or silence since<br />nothing is proven yet and you are still here,<br />the dead stars\u2019 light landing on your rods and cones<br />in a vitrine of cameos building\u2014blink.</p> "}, {"title": "Afterlife", "view_node": "/poem/afterlife-1", "field_author": "<a href=\"/poet/natalie-eilbert\" hreflang=\"en\">Natalie Eilbert</a>", "field_date_published": "2017", "body": " <p>There is no life after death. Why<br />\u00a0 \u00a0 \u00a0 \u00a0 \u00a0 \u00a0 \u00a0 should there be. What on</p><p>earth would have us believe this.<br />\u00a0 \u00a0 \u00a0 \u00a0 \u00a0 \u00a0 \u00a0 Heaven is not the American</p><p>highway, blackened chicken alfredo<br />\u00a0 \u00a0 \u00a0 \u00a0 \u00a0 \u00a0 \u00a0 from Applebee\u2019s nor the</p><p>clown sundae from Friendly\u2019s. Our<br />\u00a0 \u00a0 \u00a0 \u00a0 \u00a0 \u00a0 \u00a0 life, this is the afterdeath,</p><p>when we blink open, peeled and<br />\u00a0 \u00a0 \u00a0 \u00a0 \u00a0 \u00a0 \u00a0 ready to ache. Years ago</p><p>my aunt banged on the steering, she<br />\u00a0 \u00a0 \u00a0 \u00a0 \u00a0 \u00a0 \u00a0 insisted there <em>had</em> to be a</p><p>God, a heaven. We were on our<br />\u00a0 \u00a0 \u00a0 \u00a0 \u00a0 \u00a0 \u00a0 way to a wedding. I would</p><p>have to sit at the same table as the<br />\u00a0 \u00a0 \u00a0 \u00a0 \u00a0 \u00a0 \u00a0 man who saw no heaven</p><p>in me. Today I am thinking about<br />\u00a0 \u00a0 \u00a0 \u00a0 \u00a0 \u00a0 \u00a0 Mozart, of all people, who</p><p>died at 35 mysteriously, perhaps of<br />\u00a0 \u00a0 \u00a0 \u00a0 \u00a0 \u00a0 \u00a0 strep. What a strange cloth</p><p>it is to live. But that we came from<br />\u00a0 \u00a0 \u00a0 \u00a0 \u00a0 \u00a0 \u00a0 death and return to it, made</p><p>different by form, shaped again back<br />\u00a0 \u00a0 \u00a0 \u00a0 \u00a0 \u00a0 \u00a0 into anti\u2013, anti\u2013. On my run,</p><p>I think of Jack Gilbert, who said we<br />\u00a0 \u00a0 \u00a0 \u00a0 \u00a0 \u00a0 \u00a0 must insist while there is still</p><p>time, but insist toward what. Why we<br />\u00a0 \u00a0 \u00a0 \u00a0 \u00a0 \u00a0 \u00a0 must fill the void with light\u2014</p><p>isn\u2019t that our human insistence? But<br />\u00a0 \u00a0 \u00a0 \u00a0 \u00a0 \u00a0 \u00a0 we drift into a distance of</p><p>distance until proximity fails, our<br />\u00a0 \u00a0 \u00a0 \u00a0 \u00a0 \u00a0 \u00a0 name lifts away with any</p><p>future concerns, the past a flattened<br />\u00a0 \u00a0 \u00a0 \u00a0 \u00a0 \u00a0 \u00a0 coin that cannot spin. I am</p><p>matter spun from death\u2019s wool\u2014and<br />\u00a0 \u00a0 \u00a0 \u00a0 \u00a0 \u00a0 \u00a0 I bewilder the itch, I who am</p><p>I am just so happy to go.</p> "}, {"title": "In Defense of \u201cCandelabra with Heads\u201d", "view_node": "/poem/defense-candelabra-heads", "field_author": "<a href=\"/poet/nicole-sealey\" hreflang=\"en\">Nicole Sealey</a>", "field_date_published": "2017", "body": "<p style=\"text-align: right;\">If you\u2019ve read the \u201cCandelabra with Heads\u201d<br />\nthat appears in this collection and the one<br />\nin <em>The Animal</em>, thank you. The original,<br />\nthe one included here, is an example, I\u2019m told,<br />\nof a poem that can speak for itself, but loses<br />\nfaith in its ability to do so by ending with a thesis<br />\nquestion. Yeats said a poem should click shut<br />\nlike a well-made box. I don\u2019t disagree.<br />\nI ask, \u201cWho can see this and not see lynchings?\u201d<br />\nnot because I don\u2019t trust you, dear reader,<br />\nor my own abilities. I ask because the imagination<br />\nwould have us believe, much like faith, faith<br />\nthe original \u201cCandelabra\u201d lacks, in things unseen.<br />\nYou should know that human limbs burn<br />\nlike branches and branches like human limbs.<br />\nOnly after man began hanging man from trees<br />\nthen setting him on fire, which would jump<br />\nfrom limb to branch like a bastard species<br />\nof bird, did we come to know such things.<br />\nA hundred years from now, October 9, 2116,<br />\n8:18 p.m., when all but the lucky are good<br />\nand dead, may someone happen upon the question<br />\nin question. May that lucky someone be black<br />\nand so far removed from the verb <em>lynch</em> that she be<br />\ndumbfounded by its meaning. May she then<br />\ncall up Hirschhorn\u2019s <em>Candelabra with Heads</em>.<br />\nMay her imagination, not her memory, run wild.</p>\n"}, {"title": "Brooding Grief", "view_node": "/poem/brooding-grief-0", "field_author": "<a href=\"/poet/d-h-lawrence\" hreflang=\"und\">D. H. Lawrence</a>", "field_date_published": "2017", "body": " <p>A yellow leaf from the darkness<br />Hops like a frog before me.<br />Why should I start and stand still?</p><p>I was watching the woman that bore me<br />Stretched in the brindled darkness<br />Of the sick-room, rigid with will<br />To die: and the quick leaf tore me<br />Back to this rainy swill<br />Of leaves and lamps and traffic mingled before me.</p> "}, {"title": "The Bride", "view_node": "/poem/bride", "field_author": "<a href=\"/poet/d-h-lawrence\" hreflang=\"und\">D. H. Lawrence</a>", "field_date_published": "2017", "body": " <p>My love looks like a girl to-night,<br />\u00a0\u00a0\u00a0\u00a0\u00a0\u00a0\u00a0\u00a0\u00a0\u00a0\u00a0 But she is old.<br />The plaits that lie along her pillow<br />\u00a0\u00a0\u00a0\u00a0\u00a0\u00a0\u00a0\u00a0\u00a0\u00a0\u00a0 Are not gold,<br />But threaded with filigree silver,<br />\u00a0\u00a0\u00a0\u00a0\u00a0\u00a0\u00a0\u00a0\u00a0\u00a0\u00a0 And uncanny cold.</p><p>She looks like a youth maiden, since her brow<br />\u00a0\u00a0\u00a0\u00a0\u00a0\u00a0\u00a0\u00a0\u00a0\u00a0\u00a0 Is smooth and fair,<br />Her cheeks are very smooth, her eyes are closed.<br />\u00a0\u00a0\u00a0\u00a0\u00a0\u00a0\u00a0\u00a0\u00a0\u00a0\u00a0 She sleeps a rare<br />Still winsome sleep, so still, and so composed.</p><p>Nay, but she sleeps like a bride, and dreams her dreams<br />\u00a0\u00a0\u00a0\u00a0\u00a0\u00a0\u00a0\u00a0\u00a0\u00a0\u00a0 Of perfect things.<br />She lies at last, the darling, in the shape of her dream,<br />\u00a0\u00a0\u00a0\u00a0\u00a0\u00a0\u00a0\u00a0\u00a0\u00a0\u00a0 And her dead mouth sings<br />By its shape, like the thrushes in clear evenings.</p> "}, {"title": "The End", "view_node": "/poem/end-1", "field_author": "<a href=\"/poet/d-h-lawrence\" hreflang=\"und\">D. H. Lawrence</a>", "field_date_published": "2017", "body": " <p>If I could have put you in my heart,<br />If but I could have wrapped you in myself,<br />How glad I should have been!<br />And now the chart<br />Of memory unrolls again to me<br />The course of our journey here, here where we part.</p><p>And of, that you had never, never been<br />Some of your selves, my love, that some<br />Of your several faces I had never seen!<br />And still they come before me, and they go,<br />And I cry aloud in the moments that intervene.</p><p>And oh, my love, as I rock for you to-night,<br />And have not any longer and hope<br />To heal the suffering, or to make requite<br />For all your life of asking and despair,<br />I own that some of me is dead to-night.</p> "}, {"title": "Anxiety", "view_node": "/poem/anxiety-0", "field_author": "<a href=\"/poet/d-h-lawrence\" hreflang=\"und\">D. H. Lawrence</a>", "field_date_published": "2017", "body": " <p>The hoar-frost crumbles in the sun,<br />\u00a0\u00a0 The crisping steam of a train<br />Melts in the air, while two black birds<br />\u00a0\u00a0 Sweep past the window again.</p><p>Along the vacant road, a red<br />\u00a0\u00a0 Bicycle approaches; I wait<br />In a thaw of anxiety, for the boy<br />\u00a0\u00a0 To leap down at our gate.</p><p>He has passed us by; but is it<br />\u00a0\u00a0 Relief that starts in my breast?<br />Or a deeper bruise of knowing that still<br />\u00a0\u00a0 She has no rest.</p> "}, {"title": "A Baby Asleep After Pain", "view_node": "/poem/baby-asleep-after-pain", "field_author": "<a href=\"/poet/d-h-lawrence\" hreflang=\"und\">D. H. Lawrence</a>", "field_date_published": "2017", "body": " <p>\u00a0\u00a0 As a drenched, drowned bee<br />Hangs numb and heavy from a bending flower,<br />\u00a0\u00a0 So clings to me<br />My baby, her brown hair brushed with wet tears<br />\u00a0\u00a0 And laid against her cheek;<br />Her soft white legs hanging heavily over my arm,<br />Swinging heavily to my movement as I walk.<br />\u00a0\u00a0 My sleeping baby hangs upon my life,<br />Like a burden she hangs on me.<br />\u00a0\u00a0 She has always seemed so light,<br />But now she is wet with tears and numb with pain<br />Even her floating hair sinks heavily,<br />\u00a0\u00a0 Reaching downwards;<br />As the wings of a drenched, drowned bee<br />\u00a0\u00a0 Are a heaviness, and a weariness.</p> "}, {"title": "Elegy", "view_node": "/poem/elegy-2", "field_author": "<a href=\"/poet/d-h-lawrence\" hreflang=\"und\">D. H. Lawrence</a>", "field_date_published": "2017", "body": " <p>The sun immense and rosy<br />Must have sunk and become extinct<br />The night you closed your eyes for ever against me.</p><p>Grey days, and wan, dree dawnings<br />Since then, with fritter of flowers \u2013<br />Day wearies me with its ostentation and fawnings.</p><p>Still, you left me the nights,<br />The great dark glittery window,<br />The bubble hemming this empty existence with lights.</p><p>Still in the vast hollow<br />Like a breath in a bubble spinning<br />Brushing the stars, goes my soul, that skims the bounds like a swallow?</p><p>I can look through<br />The film of the bubble night, to where you are.<br />Through the film I can almost touch you.</p> "}, {"title": "Patience", "view_node": "/poem/patience-1", "field_author": "<a href=\"/poet/d-h-lawrence\" hreflang=\"und\">D. H. Lawrence</a>", "field_date_published": "2017", "body": " <p>A wind comes from the north<br />Blowing little flocks of birds<br />Like spray across the town,<br />And a train, roaring forth,<br />Rushes stampeding down<br />With cries and flying curds<br />Of steam, out of the darkening north.</p><p>Whither I turn and set<br />Like a needle steadfastly,<br />Waiting ever to get<br />The news that she is free;<br />But ever fixed, as yet,<br />To the lode of her agony.</p> "}, {"title": "Mystery", "view_node": "/poem/mystery-0", "field_author": "<a href=\"/poet/d-h-lawrence\" hreflang=\"und\">D. H. Lawrence</a>", "field_date_published": "2017", "body": " <p>Now I am all<br />One bowl of kisses,<br />Such as the tall<br />Slim votaresses<br />Of Egypt filled<br />For a God\u2019s excesses.</p><p>I lift to you<br />My bowl of kisses,<br />And through the temple\u2019s<br />Blue recesses<br />Cry out to you<br />In wild caresses.</p><p>And to my lips\u2019<br />Bright crimson rim<br />The passion slips,<br />And down my slim<br />White body drips<br />The shining hymn.</p><p>And still before<br />The altar I<br />Exult the bowl<br />Brimful, and cry<br />To you to stoop<br />And drink, Most High.</p><p>Oh drink me up<br />That I may be<br />Within your cup<br />Like a mystery,<br />Like wine that is still<br />In ecstasy.</p><p>Glimmering still<br />In ecstasy,<br />Commingled wines<br />Of you and me<br />In one fulfill<br />The mystery.</p> "}, {"title": "The Prophet", "view_node": "/poem/prophet-0", "field_author": "<a href=\"/poet/d-h-lawrence\" hreflang=\"und\">D. H. Lawrence</a>", "field_date_published": "2017", "body": " <p>Ah, my darling, when over the purple horizon shall loom<br />The shrouded mother of a new idea, men hide their faces,<br />Cry out and fend her off, as she seeks her procreant groom,<br />Wounding themselves against her, denying her fecund embraces.</p> "}, {"title": "A Lazy Day", "view_node": "/poem/lazy-day", "field_author": "<a href=\"/poet/paul-laurence-dunbar\" hreflang=\"und\">Paul Laurence Dunbar</a>", "field_date_published": "1905", "body": "<p>The trees bend down along the stream,<br />\n\u00a0\u00a0 Where anchored swings my tiny boat.<br />\nThe day is one to drowse and dream<br />\n\u00a0\u00a0 And list the thrush\u2019s throttling note.<br />\nWhen music from his bosom bleeds<br />\nAmong the river\u2019s rustling reeds.</p>\n\n<p>No ripple stirs the placid pool,<br />\n\u00a0\u00a0 When my adventurous line is cast,<br />\nA truce to sport, while clear and cool,<br />\n\u00a0\u00a0 The mirrored clouds slide softly past.<br />\nThe sky gives back a blue divine,<br />\nAnd all the world\u2019s wide wealth is mine.</p>\n\n<p>A pickerel leaps, a bow of light,<br />\nThe minnows shine from side to side.<br />\nThe first faint breeze comes up the tide\u2014<br />\nI pause with half uplifted oar,<br />\nWhile night drifts down to claim the shore.</p>\n"}, {"title": "A Baby Running Barefoot", "view_node": "/poem/baby-running-barefoot", "field_author": "<a href=\"/poet/d-h-lawrence\" hreflang=\"und\">D. H. Lawrence</a>", "field_date_published": "2017", "body": " <p>When the bare feet of the baby beat across the grass<br />The little white feet nod like white flowers in the wind,<br />They poise and run like ripples lapping across the water;<br />And the sight of their white play among the grass<br />Is like a little robin\u2019s song, winsome,<br />Or as two white butterflies settle in the cup of one flower<br />For a moment, then away with a flutter of wings.</p><p>I long for the baby to wander hither to me<br />Like a wind-shadow wandering over the water,<br />So that she can stand on my knee<br />With her little bare feet in my hands,<br />Cool like syringa buds,<br />Firm and silken like pink young peony flowers.</p> "}, {"title": "A Winter\u2019s Tale", "view_node": "/poem/winters-tale", "field_author": "<a href=\"/poet/d-h-lawrence\" hreflang=\"und\">D. H. Lawrence</a>", "field_date_published": "2017", "body": "<p><span class=\"long-line\">Yesterday the fields were only grey with scattered snow,</span><br /><span class=\"long-line\">And now the longest grass-leaves hardly emerge;</span><br /><span class=\"long-line\">Yet her deep footsteps mark the snow, and go</span><br /><span class=\"long-line\">On towards the pines at the hills\u2019 white verge.</span></p>\n\n<p><span class=\"long-line\">I cannot see her, since the mist\u2019s white scarf</span><br /><span class=\"long-line\">Obscures the dark wood and the dull orange sky;</span><br /><span class=\"long-line\">But she\u2019s waiting, I know, impatient and cold, half</span><br /><span class=\"long-line\">Sobs struggling into her frosty sigh.</span></p>\n\n<p><span class=\"long-line\">Why does she come so promptly, when she must know</span><br /><span class=\"long-line\">That she\u2019s only the nearer to the inevitable farewell;</span><br /><span class=\"long-line\">The hill is steep, on the snow my steps are slow \u2013</span><br /><span class=\"long-line\">Why does she come, when she knows what I have to tell?</span></p>\n"}, {"title": "Star Field", "view_node": "/poem/star-field", "field_author": "<a href=\"/poet/jill-osier\" hreflang=\"en\">Jill  Osier</a>", "field_date_published": "2017", "body": " <pre>\nFolks would talk about it,\nand even after I lived\nin that mountain town\nmonths, a year, even after\ngetting close with the girl\nfrom the pharmacy,\nguys from the woods, I did\nnot know.\n\nI waited to somehow divine\nwhat it was. Be invited. Still\nI imagine a great expanse,\na meadow, high above the town,\nof tiny flowers, like lovers\non their backs, looking up.</pre>\n "}, {"title": "Siberian", "view_node": "/poem/siberian", "field_author": "<a href=\"/poet/jill-osier\" hreflang=\"en\">Jill  Osier</a>", "field_date_published": "2017", "body": " <pre>\nOn the day they killed the last caribou,\nI was in love\u2014and I did not know\ncaribou or cities or the needs of either.\n\nI did not know scilla, and did not know a new love\nwould be hired to trim the grass around it. The blue flowers\ncame up through the grass like the grass remembering.\n\nThis new love and I, we drove once between cities of snow,\nand through the trees I could see a herd moving,\nmatching us, pulling away.</pre>\n "}, {"title": "Elegy", "view_node": "/poem/elegy-1", "field_author": "<a href=\"/poet/jill-osier\" hreflang=\"en\">Jill  Osier</a>", "field_date_published": "2017", "body": " <pre>\nNot every day but most days that summer\n\nI went calmly and quietly and climbed\n\nto the sixth floor of the library and walked\n\nnot fast and not slow but with purpose\n\ndown the last row and reached\n\nalmost without looking to the same\n\nplace on the shelf and pulled out\n\nthe large book and carried it to a chair\n\nthat looks out toward the ridge, to a mountain\n\nthat is there, whether it is or it isn\u2019t,\n\nthe mountain people love, maybe for this,\n\nlove and die with all their love,\n\ntrying, and I opened to the page\n\nwhere I left off before, and sometimes the library\n\nannounced it was closing, sometimes I got hungry,\n\nsometimes it looked like rain, and I\u2019d close the book\n\nand carry it again, with purpose, back to its exact\n\nplace on the shelf, and I\u2019d walk down the stairs\n\nand out of the building, and it was like\n\nI\u2019d left it ticking.</pre>\n "}], "pager": {"current_page": 297, "total_items": "13248", "total_pages": 663, "items_per_page": 20}}