{"rows": [{"title": "The Scarlet Ibis, Section VII", "view_node": "/poem/scarlet-ibis-section-vii", "field_author": "<a href=\"/poet/susan-hahn\" hreflang=\"und\">Susan Hahn</a>", "field_date_published": "2007", "body": " <pre>\n<i>Bird</i>\n \nOnce, I got lost, \nflew over that place,\nsaw the tourists in their wrinkled  pastels.\nThe memorial between the barracks B \nThe bronze barbed-wire figures twisted\nto torment, the wedged-shaped\nbuilding, its barred entrance,\nthe strip of marble extending\nthrough a hole in the roof,\nthe menorah resting at the top.\nI felt weak\nand landed on it.\nNo one could believe what they saw B \nme resting there B \nso they pretended not to see.\n(pause)\nI stood for much more than a moment,\nwatched all those bare legs \nmove from spot to spot,\nthought how much I needed\nto find a way back\nto my flock.\n\n\n<i>Lady</i>\n \nAnd you expect me to believe this?\n\n \n<i>Bird</i>\n \nAs I do you  \n(pause)\nand do not.</pre>\n "}, {"title": "And water lies plainly", "view_node": "/poem/and-water-lies-plainly", "field_author": "<a href=\"/poet/laurie-sheck\" hreflang=\"und\">Laurie Sheck</a>", "field_date_published": "2007", "body": " <pre>\nThen I came to an edge of very calm\nBut couldn\u2019t stay there. It was the washed greenblue mapmakers use to indicate\nInlets and coves, softbroken contours where the land leaves off\nAnd water lies plainly, as if lamped by its own justice. I hardly know how to say how it was\nThough it spoke to me most kindly,\nUnlike a hard afterwards or the motions of forestalling.\n\nNow in evening light the far-off ridge carries marks of burning.\nThe hills turn thundercolored, and my thoughts move toward them, rough skins\nWithout their bodies. What is the part of us that feels it isn\u2019t named, that doesn\u2019t know\nHow to respond to any name? That scarcely or not at all can lift its head\nInto the blue and so unfold there?</pre>\n "}, {"title": "For the Confederate Dead", "view_node": "/poem/confederate-dead", "field_author": "<a href=\"/poet/kevin-young\" hreflang=\"und\">Kevin Young</a>", "field_date_published": "2007", "body": " <pre>\n<i>I go with the team also.</i>\n                       \u2014Whitman\n\nThese are the last days\nmy television says. Tornadoes, more\nrain, overcast, a chance\n\nof sun but I do not\ntrust weathermen,\nnever have. In my fridge only\n\nthe milk makes sense\u2014\nexpires. No one, much less\nmy parents, can tell me why\n\nmy middle name is Lowell,\nand from my table\nacross from the Confederate\n\nMonument to the dead (that pale\nfinger bone) a plaque\ndeclares war\u2014not Civil,\n\nor Between\nthe States, but for Southern\nIndependence. In this caf\u00e9, below sea-\n\nand eye-level a mural runs\nthe wall, flaking, a plantation\nscene most do not see\u2014\n\nit's too much\naround the knees, height\nof a child. In its fields Negroes bend\n\nto pick the endless white.\nIn livery a few drive carriages\nlike slaves, whipping the horses, faces\n\nblank and peeling. The old hotel\nlobby this once was no longer\nwelcomes guests\u2014maroon ledger,\n\nbellboys gone but\nfor this. Like an inheritance\nthe owner found it\n\nstripping hundred years\n(at least) of paint\nand plaster. More leaves each day.\n\nIn my movie there are no\nhorses, no heroes,\nonly draftees fleeing\n\ninto the pines, some few\nwho survive, gravely\nwounded, lying\n\nburrowed beneath the dead\u2014\nsilent until the enemy\nbayonets what is believed\n\nto be the last\nof the breathing. It is getting later.\nWe prepare\n\nfor wars no longer\nthere. The weather\ninevitable, unusual\u2014\n\nmore this time of year\nthan anyone ever seed. The earth\nshudders, the air\u2014\n\nif I did not know\nbetter, I would think\nwe were living all along\n\na fault. How late\nit has gotten . . .\nForget the weatherman\n\nwhose maps move, blink,\nbut stay crossed\nwith lines none has seen. Race\n\ninstead against the almost\nrain, digging beside the monument\n(that giant anchor)\n\ntill we strike\nwater, sweat\nfighting the sleepwalking air.</pre>\n "}, {"title": "Smoke", "view_node": "/poem/smoke", "field_author": "<a href=\"/poet/w-s-di-piero\" hreflang=\"und\">W. S. Di Piero</a>", "field_date_published": "2007", "body": " <pre>\nWe loiter in the cobblestone alley,\nBeans, Clams, Yom-Yom and me,\nsmoking punk. Snip the wiry stem,\ntrim the nubby end, scratch fire\nfrom a zipper then pass the stink around.\nWilliam Penn designed these blocks\nsquared off, brick, crosshatched by alleys\nto prevent the spread of fire. So fire\nruns down my throat, reed\nturning to iron inside my lungs.\n\nYom-Yom has an uncle in Bucks County.\nCountry boys sneak behind barns and puff\non cedar bark. Smoke\u2019s the only thing\nwe have in common. Smoke when our breath\nmeets cold moist air, though no smoke rings\nin winter, while sullen cars drag gray on gray\ndown city streets or country roads.\nSomeday I\u2019ll smoke Camels, my father\u2019s brand,\nthen Gauloises to prove I\u2019m stronger than him\nin burning whatever\u2019s inside that won\u2019t sleep.</pre>\n "}, {"title": "Man and Camel", "view_node": "/poem/man-and-camel", "field_author": "<a href=\"/poet/mark-strand\" hreflang=\"und\">Mark Strand</a>", "field_date_published": "2006", "body": " <pre>\nOn the eve of my fortieth birthday\nI sat on the porch having a smoke\nwhen out of the blue a man and a camel\nhappened by. Neither uttered a sound\nat first, but as they drifted up the street\nand out of town the two of them began to sing.\nYet what they sang is still a mystery to me\u2014\nthe words were indistinct and the tune\ntoo ornamental to recall. Into the desert\nthey went and as they went their voices\nrose as one above the sifting sound\nof windblown sand. The wonder of their singing,\nits elusive blend of man and camel, seemed\nan ideal image for all uncommon couples.\nWas this the night that I had waited for\nso long? I wanted to believe it was,\nbut just as they were vanishing, the man\nand camel ceased to sing, and galloped\nback to town. They stood before my porch,\nstaring up at me with beady eyes, and said:\n\"You ruined it. You ruined it forever.\"</pre>\n "}, {"title": "North-Looking Room", "view_node": "/poem/north-looking-room", "field_author": "<a href=\"/poet/brad-leithauser\" hreflang=\"und\">Brad Leithauser</a>", "field_date_published": "2006", "body": " <pre>\nIn a seldom-entered attic\nyou force a balky door,\ndisclosing a room made brilliant\nby an orange tree whose branches bear\n\n\nno fruit but maple leaves;\nWe\u2019re in New England, after all.\nThough rippling foliage fills\nthe pane, the flush that tints the wall\n\n\nwill last a week or two, no more.\n\n\n*\n\nAnd this conception, if consoling,\nof a high, untenanted room\nlit solely by a tree\nhouses as well\u2013at least for those\n\n\nwho\u2019d sidestep round the fear\nthat in the give-and-take of calls\nto answer, calls to make,\nwe lose the light most dim, most clear\u2014\n\n\na reprimand no breeze can shake.</pre>\n "}, {"title": "Littlefoot, 19, [This is the bird hour]", "view_node": "/poem/littlefoot-19-bird-hour", "field_author": "<a href=\"/poet/charles-wright\" hreflang=\"und\">Charles Wright</a>", "field_date_published": "2007", "body": " <pre>19\n\nThis is the bird hour, peony blossoms falling bigger than wren hearts\nOn the cutting border's railroad ties,\nSparrows and other feathery things\nHoming from one hedge to the next,\n                                                    late May, gnat-floating evening.\n\nIs love stronger than unlove?\n                                         Only the unloved know.\nAnd the mockingbird, whose heart is cloned and colorless.\n\nAnd who's this tiny chirper,\n                         lost in the loose leaves of the weeping cherry tree?\nHis song is not more than three feet off the ground, and singular,\nAnd going nowhere.\nListen. It sounds a lot like you, hermano.\n                                                           It sounds like me.</pre>\n "}, {"title": "from &quot;Overview is a Place&quot;", "view_node": "/poem/overview-place", "field_author": "<a href=\"/poet/claudia-rankine\" hreflang=\"und\">Claudia Rankine</a>", "field_date_published": "2001", "body": " <p>Difficult to pinpoint</p><p>fear of self, uncoiled.</p><p>specter unstrung, staggering stampede. Which<br />sung? left the body open for the moon to break into,<br />unspooling disadvantage.</p><p>Give a thought, Jane: Did filth<br />begin in conversation? drag<br />the mood through before escaping the ugliness. Not to</p><p>dwell on but overhear footsteps again<br />approaching: immured,<br />not immune, then dumdum</p><p>bullet templed. rip the mind out. go ahead.</p> "}, {"title": "Maybe He&#039;s Grateful but Get Out of His Way", "view_node": "/poem/maybe-hes-grateful-get-out-his-way", "field_author": "<a href=\"/poet/deborah-keenan\" hreflang=\"und\">Deborah Keenan</a>", "field_date_published": "2007", "body": " <pre>\nThe Siberian tiger leaps from the back of the truck:\nHe\u2019d been caught in a snare, rescued by Russian students\nDeep in the forest, tranquilized, observed, fitted with a radio\nCollar, woken up as if from a human dream for tigers,\nDriven back to the forest, the cage opened, the leap,\nAnd gone.\n\nFour hundred left. Poachers demented with greed\nWant every part of the Siberian tiger but never\nThe whole tiger.</pre>\n "}, {"title": "Apples", "view_node": "/poem/apples", "field_author": "<a href=\"/poet/grace-schulman\" hreflang=\"und\">Grace Schulman</a>", "field_date_published": "2007", "body": " <pre>\nRain hazes a street cart's green umbrella\nbut not its apples, heaped in paper cartons,\ndry under cling film. The apple man,\n\nwho shirrs his mouth as though eating tart fruit,\nexhibits four like racehorses at auction:\nBlacktwig, Holland, Crimson King, Salome.\n\nI tried one and its cold grain jolted memory:\na hill where meager apples fell so bruised\nthat locals wondered why we scooped them up,\n\nmy friend and I, in matching navy blazers.\nOne bite and I heard her laughter toll,\nfree as school's out, her face flushed in late sun.\n\nI asked the apple merchant for another,\njaunty as Cezanne's still-life reds and yellows,\nhaving more life than stillness, telling us,\n\nuncut, unpeeled, they are not for the feast\nbut for themselves, and building strength to fly\nat any moment, leap from a skewed bowl,\n\nwhirl in the air, and roll off a tilted table.\nFruit-stand vendor, master of Northern Spies,\nlet a loose apple teach me how to spin\n\nat random, burn in light and rave in shadows.\nBring me a Winesap like the one Eve tasted,\nsavored and shared, and asked for more.\n\nNo fool, she knew that beauty strikes just once,\nhard, never in comfort. For that bitter fruit,\ntasting of earth and song, I'd risk exile.\n\nThe air is bland here. I would forfeit mist\nfor hail, put on a robe of dandelions,\nand run out, broken, to weep and curse \u2014 for joy.</pre>\n "}, {"title": "Shawl", "view_node": "/poem/shawl", "field_author": "<a href=\"/poet/albert-goldbarth\" hreflang=\"und\">Albert Goldbarth</a>", "field_date_published": "2007", "body": " <pre>\nEight hours by bus, and night\nwas on them. He could see himself now\nin the window, see his head there with the country\nrunning through it like a long thought made of steel and wheat.\nDarkness outside; darkness in the bus\u2014as if the sea\nwere dark and the belly of the whale were dark to match it.\nHe was twenty: of course his eyes returned, repeatedly,\nto the knee of the woman two rows up: positioned so\noccasional headlights struck it into life.\nBut more reliable was the book; he was discovering himself\nto be among the tribe that reads. Now his, the only\noverhead turned on. Now nothing else existed:\nonly him, and the book, and the light thrown over his shoulders\nas luxuriously as a cashmere shawl.</pre>\n "}, {"title": "The Wishing Tree", "view_node": "/poem/wishing-tree", "field_author": "<a href=\"/poet/kathleen-jamie\" hreflang=\"und\">Kathleen Jamie</a>", "field_date_published": "2007", "body": " <pre>\nI stand neither in the wilderness\nnor fairyland\n\nbut in the fold\nof a green hill\n\nthe tilt from one parish\ninto another.\n\nTo look at me\nthrough a smirr of rain\n\nis to taste the iron\nin your own blood\n\nbecause I hoard\nthe common currency\n\nof longing: each wish\neach secret assignation.\n\nMy limbs lift, scabbed\nwith greenish coins\n\nI draw into my slow wood\nfleur-de-lys, the enthroned Brittania.\n\nBehind me, the land\nreaches toward the Atlantic.\n\nAnd though I\u2019m poisoned\nchoking on the small change\n\nof human hope,\ndaily beaten into me\n\nlook: I am still alive\u2014\nin fact, in bud.</pre>\n "}, {"title": "May", "view_node": "/poem/may", "field_author": "<a href=\"/poet/kirmen-uribe\" hreflang=\"und\">Kirmen Uribe</a>", "field_date_published": "2007", "body": " <pre>\n                      Let me look at those eyes.\n                      I want to know how you are.\n\t\t\t\t\u2014Rainer W. Fassbinder\n\n\nLook. May has come in.\nIt\u2019s strewn those blue eyes all over the harbor.\nCome, I haven\u2019t had word of you in ages.\nYou\u2019re constantly terrified,\nLike the kittens we drowned when we were little.\nCome and we\u2019ll talk over all of the old same things,\nThe value of being pleasant,\nThe need to adjust to the doubts,\nHow to fill the holes we\u2019ve got inside us.\nCome, feel the morning reaching your face,\nWhenever we\u2019re saddened everything looks dark,\nWhen we\u2019re heartened, again, the world crumbles.\nEvery one of us keeps forever someone else\u2019s hidden side,\nIf it\u2019s a secret, if a mistake, if a gesture.\nCome and we\u2019ll flay the winners,\nLaughing at our self leapt off the bridgeway.\nWe\u2019ll watch the cranes at work in the port in silence,\nThe gift for being together in silence being\nThe principal proof of friendship.\nCome with me, I want to change nations,\nChange towns. Leave this body aside\nAnd go into a shell with you,\nWith our smallness, like sea snails.\nCome, I\u2019m waiting for you,\nWe\u2019ll continue the story that ended a year ago,\nAs if inside the white birches next to the river\nNot a single additional ring had grown.</pre>\n "}, {"title": "Outliving the Lyric Moment", "view_node": "/poem/outliving-lyric-moment", "field_author": "<a href=\"/poet/leslie-adrienne-miller\" hreflang=\"und\">Leslie Adrienne Miller</a>", "field_date_published": "2007", "body": " <pre>\n<i>Angel and muse escape with violin and compass; the duende wounds.</i>\n                                         \u2014Federico Garc\u00eda Lorca\n\t\t\t\t\n\nI didn't expect to escape.  I've stepped out of planes\ninto Madrid and Bangkok, Prague and Seoul,\neach time a solo in a world that was, if not cruel,\nsupremely indifferent to the fact of my breath. \n\nI loved where I could, did not imagine my mouth\nwithout light, fish at home in my bluest wells.\nI went in a stalk of pure wanting that knows\nthere's no getting, and collected tiny lemons\n\nof joy when they ripened in reach of a window\nin Vence where I happened also on tangles\nof grapes fallen and trodden on the road to the sea.\nI plucked green stones from Spanish sand, wore\n\nthe white hibiscus for a day behind my ear\nwhere it softened with rot in a pattern of etch.\nIn Andalusia the wine is new and ruby, breath\nand aroma the tools of being in places where days\n\nare paid out like so many queens on obsolete\ncoins.  Now, not suddenly, but after long balance\nof what there is against what might or might never be,\nthe never-was has dared to love me back.\n\nSo it was death all along who stood in the ferry\nwith his dirty blonde hair and bright nylon pack,\nbut I never imagined he'd be so young\nas he slung the pack, leapt to the shore\n\nand never looked back for me.  That's why\nmy flesh loves me today.  There are salt and heat\nand a body of bread, new if not endless, and a rumor\nif not news of the future.  It dies as it lived, the idea\n\nof duende, a proximity, a song we don't necessarily\nneed in a land of snow and icy green lakes where\nthe weather's a tomb and the lover's strong thigh\nis white and marvelous as marble, a throne\n\non which I suppose I could sit and grow handsomely old.</pre>\n "}, {"title": "Far and Away [excerpt]", "view_node": "/poem/far-and-away-excerpt", "field_author": "<a href=\"/poet/fanny-howe\" hreflang=\"und\">Fanny Howe</a>", "field_date_published": "2007", "body": " <pre>\nThe rain falls on.\nAcres of violets unfold.\nDandelion, mayflower\nMyrtle and forsythia follow.\n\nThe cardinals call to each other.\nEchoes of delicate\nBreath-broken whistles.\n\nI know something now\nAbout subject, object, verb\nAnd about one word that fails\nFor lack of substance.\n\nNow people say, <i>He passed on</i>\nInstead of that.  Unit\nOf space subtracted by one.\nIt almost rhymes with earth.\n\nWhat is a poet but a person\nWho lives on the ground\nWho laughs and listens\n\nWithout pretension of knowing\nAnything, driven by the lyric's\nQuest for rest that never\n(God willing) will be found?\n\nConcord, kitchen table, 1966.\nCorbetts, Creeley, a grandmother\nAnd me.  Sweater, glasses,\nOne wet eye.\n\nLots of laughter\nBefore and after. Every meeting\nRhymed and fluttered into meter.\nThe beat was the message. . . .\n\n\t\t\t(<i>for Robert Creeley</i>)</pre>\n "}, {"title": "Heron", "view_node": "/poem/heron", "field_author": "<a href=\"/poet/michael-longley\" hreflang=\"und\">Michael Longley</a>", "field_date_published": "2007", "body": " <pre>\n               (<i>In memory of Kenneth Koch</i>)\n\nYou died the day I was driving to Carrigskeewaun\n(A remote townland in County Mayo, I explain,\nMeaning, so far as I know, The Rock of the Wall Fern)\nAnd although it was the wettest Irish year I got the car\nAcross the river and through the tide with groceries\nAnd laundry for my fortnight among the waterbirds. \nIf I'd known you were dying, Kenneth, I'd have packed\nInto cardboard boxes all your plays and poems as well\nAnd added to curlew and lapwing anxiety-calls\nThe lyric intensity of your New York Jewish laughter.\nYou would have loved the sandy drive over the duach\n(\"The what?\"), over the machair (\"the what?\"), the drive\nThrough the white gateposts and the galvanised gate\nTied with red string, the starlings' sleeping quarters,\nThe drive towards turf-fired hilarity and disbelief,\n\"Where are all those otters, Longley, and all those hares?\nI see only sparrows here and house sparrows at that!\"\nYou are so tall and skinny I shall conscript a heron\nTo watch over you on hang-glider wings, old soldier,\nAn ashy heron, ardea cinerea, I remind you\n(A pedant neither smallminded nor halfhearted):\n\"And cinerarius?\": a slave who heats the iron tongs\nIn hot ashes for the hair-dresser, a hair-curler\nWho will look after every hair on your curly head.\nThat afternoon was your night-season. I didn't know.\nI didn't know that you were \"poured out like water\nAnd all your bones were out of joint\". I didn't know.\nTuck your head in like a heron and trail behind you\nYour long legs, take to the air above a townland\nThat encloses Carrigskeewaun and Central Park.</pre>\n "}, {"title": "Flood", "view_node": "/poem/flood", "field_author": "<a href=\"/poet/eliza-griswold\" hreflang=\"und\">Eliza Griswold</a>", "field_date_published": "2007", "body": " <pre>\nI woke to a voice within the room. perhaps.\nThe room itself: \"You're wasting this life\nexpecting disappointment.\"\nI packed my bag in the night\nand peered in its leather belly\nto count the essentials.\nNothing is essential.\nTo the east, the flood has begun.\nMen call to each other on the water\nfor the comfort of voices.\nLove surprises us.\nIt ends.</pre>\n "}, {"title": "Bent Orbit", "view_node": "/poem/bent-orbit", "field_author": "<a href=\"/poet/elaine-equi\" hreflang=\"und\">Elaine Equi</a>", "field_date_published": "2007", "body": " <pre>\nI wind my way across a black donut hole\nand space that clunks.\nOnce I saw on a stage,\nas if at the bottom of a mineshaft,\nthe precise footwork\nof some mechanical ballet.\nIt was like looking into the brain\nof a cuckoo clock and it carried\nsome part of me away forever.\nNo one knows when they first see a thing,\nhow long its after image will last. \nProust could stare at the symptom of a face\nfor years, while Frank O'Hara, like anyone with a job,\nwas always looking at his watch.\nMy favorite way of remembering is to forget.\nPlease start the record of the sea over again.\nCall up a shadow below the pendulum of a gull's wing.\nIn a city of eight million sundials, nobody has any idea\nhow long a minute really is.</pre>\n "}, {"title": "Oil &amp; Steel", "view_node": "/poem/oil-steel", "field_author": "<a href=\"/poet/henri-cole\" hreflang=\"und\">Henri Cole</a>", "field_date_published": "2007", "body": " <pre>\nMy father lived in a dirty dish mausoleum,\nwatching a portable black-and-white television,\nreading the Encyclopedia Britannica,\nwhich he preferred to Modern Fiction.\nOne by one, his schnauzers died of liver disease,\nexcept the one that guarded his corpse\nfound holding a tumbler of Bushmills.\n\"Dead is dead,\" he would say, an anti-preacher.\nI took a plaid shirt from the bedroom closet\nand some motor oil\u2014my inheritance.\nOnce, I saw him weep in a courtroom\u2014\nneglected, needing nursing\u2014this man who never showed\nme much affection but gave me a knack\nfor solitude, which has been mostly useful.</pre>\n "}, {"title": "Etiquette", "view_node": "/poem/etiquette", "field_author": "<a href=\"/poet/judson-mitcham\" hreflang=\"und\">Judson Mitcham</a>", "field_date_published": "2007", "body": " <pre>\nJune goes gaudy with bad boutonnieres\u2014\nflamingo mimosas, the giant\nmagnolia's bowl of petals. Let us consider\n\nthe man not welcome at the wedding.\nWhat's the etiquette for the bad father?\nWhat's the right flower for the ignored-\n\nwith-good-reason, the uninvited? A hydrangea,\nhead wide as a cabbage; or the bull thistle\nwild along the roads; or a dandelion,\n\nonly a stalk stuck to his lapel by the time\nhe insists on their dance? He is a sad weed\nhimself, this man who has no daughter\n\nbut tries to hold her.</pre>\n "}], "pager": {"current_page": 556, "total_items": "13248", "total_pages": 663, "items_per_page": 20}}