{"rows": [{"title": "The Black Bite", "view_node": "/poem/black-bite", "field_author": "<a href=\"/poet/becky-gould-gibson\" hreflang=\"und\">Becky Gould Gibson</a>", "field_date_published": "2007", "body": " <pre>\n\u2014Barking, 675. Edith, a nun dying of the plague, speaks from her bed.\n\nTake your salves     candles\nshriving basins     I\u2019ll not linger\namong buckets     bedsheets\nfoul boasters     of the living\nMy bridegroom     waits\nI\u2019ll meet him hoodless     snood\nunfastened.     He\u2019ll feed me figs\nfrom a golden dish     rub my feet\nwith henna     blossoms\nDark spins     on its axle\npinches     my throat\nHags of death     do not come\nnear me with     your stinking rags\nyour sighs     your psalters\nBury them     in the southwest\ngarden     freshly dug\nfor our brothers     and sisters\n\nFlea     rat-rider\nbog-lively     guest\nunbidden     in your tight black coat\npin-prick     so quick\nthey barely     feel it\nlovely leaps     kiss in the night\nSo small     so small\nyou\u2019re hardly     there at all\nO flea     one chosen\nflea     on her bolster\nshe\u2019s your host     your savior\nYou snack     on those\nleast-looking     Soon\nshe\u2019ll leave     you and your ilk\nbreath-robber     death-jobber\nHer sickness     her salve\nOne bite takes her out of this world \n\nIs that you     Mother\ncome from     ten other beds?\nTake this bone needle    best\nin my thread-box     I\u2019ll not\nneed it     where I\u2019m going\nno flax fields    no meadows\nno limbs brazen     with apples\nno teaching     Aesica his alphabet\nThree times     he called out\nin his dying    Edith! Edith!\nEdith!     I knew I\u2019d be next\nWax-light    tallow\nnothing to     day\u2019s dawning\nWill He     want me\nwant me    frankly?\nWill He     take me\nblotched     and swollen?\nLet me shine     not with fever\nbut with     womanliness\nYes     water\nsweet swallow     yes</pre>\n "}, {"title": "a woman had placed", "view_node": "/poem/woman-had-placed", "field_author": "<a href=\"/poet/anne-blonstein\" hreflang=\"und\">Anne Blonstein</a>", "field_date_published": "2007", "body": " <pre>\n<i>after jorge luis borges</i>\n\na yellow rose\nin a hotel glass\nthe man had kissed her\non the neck\nhad kissed her\non the mouth\n\nbut these kisses belonged to yesterday\nthere would be no moment\nof revernalization\n\nyellow roses came from china\nopen in may before our hybrids\nunfold pink rugosities and baroque scent\nexpose dusty fissured yellow pearls</pre>\n "}, {"title": "Restoration", "view_node": "/poem/restoration", "field_author": "<a href=\"/poet/mary-cornish\" hreflang=\"und\">Mary Cornish</a>", "field_date_published": "2007", "body": "<p><span class=\"long-line\">Everyone knew the water would rise,</span><br /><span class=\"long-line\">but nobody knew how much.</span><br /><span class=\"long-line\">The priest at Santa Croce said, <em>God</em></span><br /><span class=\"long-line\"><em>will not flood the church.</em></span><br /><span class=\"long-line\">When the Arno broke its banks, </span><br /><span class=\"long-line\">God entered as a river, let His mark high</span><br /><span class=\"long-line\">above the altar.</span><br /><span class=\"long-line\">He left nothing untouched:</span><br /><span class=\"long-line\">stones, plaster, wood. </span><br /><span class=\"long-line\"><em>You are all my children.</em></span><br /><span class=\"long-line\">The hem of His garment, which was</span><br /><span class=\"long-line\">the river\u2019s bottom sludge,</span><br /><span class=\"long-line\">swept through Florence, filling cars and cradles,</span><br /><span class=\"long-line\">the eyes of marble statues,</span><br /><span class=\"long-line\">even the Doors of Paradise. And the likeness</span><br /><span class=\"long-line\">of His son\u2019s hands, those pierced palms soaked</span><br /><span class=\"long-line\">with water, began to peel like skin.</span><br /><span class=\"long-line\">The Holy Ghost appeared</span><br /><span class=\"long-line\">as clouds of salted crystals</span><br /><span class=\"long-line\">on the faces of saints, until the intonaco</span><br /><span class=\"long-line\">of their painted bodies stood out from the wall as if</span><br /><span class=\"long-line\">they had been resurrected. </span></p>\n\n<p><span class=\"long-line\">This is what I know of restoration:</span><br /><span class=\"long-line\">in a small room near San Marco,</span><br /><span class=\"long-line\">alone on a wooden stool</span><br /><span class=\"long-line\">nearly every day for a year,</span><br /><span class=\"long-line\">I painted squares of blue on gessoed boards\u2014</span><br /><span class=\"long-line\">cobalt blue with madder rose, viridian,</span><br /><span class=\"long-line\">lamp black\u2014pure pigments and the strained yolk</span><br /><span class=\"long-line\">of an egg, then penciled notes about the powders,</span></p>\n\n<p><span class=\"long-line\">the percentages of each. I never asked</span><br /><span class=\"long-line\">to what end I was doing what I did, and now</span><br /><span class=\"long-line\">I\u2019ll never know. Perhaps there was one square</span><br /><span class=\"long-line\">that matched the mantle of a penitent, the stiff</span><br /><span class=\"long-line\">hair of a donkey\u2019s tail, a river calm beneath a bridge.</span><br /><span class=\"long-line\">I don\u2019t even know what I learned,</span><br /><span class=\"long-line\">except the possibilities of blue, and how God enters.</span></p>\n"}, {"title": "Mother", "view_node": "/poem/mother-0", "field_author": "<a href=\"/poet/herman-de-coninck\" hreflang=\"und\">Herman de Coninck</a>", "field_date_published": "2006", "body": " <pre>\nWhat you do with time\nis what a grandmother clock\ndoes with it: strike twelve\nand take its time doing it.\nYou\u2019re the clock: time passes,\nyou remain. And wait.\n\nWaiting is what happens to\na snow-covered garden, \na trunk under moss,\nhope for better times\nin the nineteenth century,\nor words in a poem.\n\nFor poetry is about letting things\ngrow moldy together, like grapes\nturning into wine, reality into preserves,\nand hoarding words\nin the cellar of yourself. </pre>\n "}, {"title": "Bolshevescent", "view_node": "/poem/bolshevescent", "field_author": "<a href=\"/poet/peter-gizzi\" hreflang=\"und\">Peter Gizzi</a>", "field_date_published": "2007", "body": " <pre>\nYou stand far from the crowd, adjacent to power.\nYou consider the edge as well as the frame.\nYou consider beauty, depth of field, lighting\nto understand the field, the crowd.\nLate into the day, the atmosphere explodes\nand revolution, well, revolution is everything.\nYou begin to see for the first time\neverything is just like the last thing\nonly its opposite and only for a moment.\nWhen a revolution completes its orbit\nthe objects return only different\nfor having stayed the same throughout.\nTo continue is not what you imagined.\nBut what you imagined was to change\nand so you have and so has the crowd.</pre>\n "}, {"title": "Thing", "view_node": "/poem/thing", "field_author": "<a href=\"/poet/rae-armantrout\" hreflang=\"und\">Rae Armantrout</a>", "field_date_published": "2007", "body": " <pre>\nWe love our cat\nfor her self\nregard is assiduous\nand bland,\n\nfor she sits in the small\npatch of sun on our rug\nand licks her claws\nfrom all angles\n\nand it is far\nsuperior\nto \"balanced reporting\"\n\nthough, of course,\nit is also\nthe very same thing.</pre>\n "}, {"title": "No world is intact", "view_node": "/poem/no-world-intact", "field_author": "<a href=\"/poet/alice-notley\" hreflang=\"und\">Alice Notley</a>", "field_date_published": "2006", "body": " <pre>\nNo world is intact\nand no one cares about you.\n\nI leaned down over\ndon\u2019t care about, I care about\n\tyou\nI leaned down over the \n\nworld in portrayal\nof carefulness, answering\n\nsomething you couldn\u2019t say.\nwalking or fallen and you\n\twere supposed\nto give therapy to me\u2014\n\nme leaning down\nbrushing with painted feathers\nto the left chance your operatic,\n\tbroken\n\nbook.</pre>\n "}, {"title": "Joseph Cornell, with Box", "view_node": "/poem/joseph-cornell-box", "field_author": "<a href=\"/poet/michael-dumanis\" hreflang=\"und\">Michael Dumanis</a>", "field_date_published": "2007", "body": " <pre>\nWorld harbors much I'd like to fit inside\nthat the parameters preclude me from.\n\nI'm the desire to have had a say.\nI'm the desire to be left alone\n\namid brochures for Europe's best hotels\nbehind a locked door on Utopia Parkway,\n\nwhere Brother, crippled, rides his chariot,\nwhere Mother's all dressed up and going nowhere.\n\nTogether, <i>sotto voce</i>, we count hours,\nfuss over newsprint, water down the wine.\n\nWhen I was shorter, we were all divine.\nWhen I was shorter, I was infinite\n\nand felt less fear of being understood.\nI am the fear of being understood.\n\nI am the modest Joe who hems and haws\nat blond cashiers ensconced in ticket booths.\n\nLacking the words to offer her the flowers\nI'd spent a fortnight locating the words\n\nto offer her, I threw the flowers at her.\nAs penance, I entrenched you, Doll, in wood.\n\nThrough your shaved bark and twigs, you stared at me.\nBeing a woman was out of the question.\n\nBeing a question caused women to wonder.\nHow unrestrained you must feel, Wind and Water.\n\nYou are the obligation, Box, to harbor\neach disarray and ghost. I am the author,\n\nthe authored by. I am a plaything of.\nWho makes who Spectacle. Who gives whom Order.\n\nMy father was a man who lived and died.\nHe would commute from Nyack to New York.\n\nThe woolen business had its ups and downs.\nHow unrestrained you've become, Cage and Coffin.\n\nThere is an order to each spectacle.\nYou are the obligation, Wind, to sunder\n\nthis relic of. Am reliquary for\nthe off-white light of January morning.\n\nHave seen you, Fairies, in your apricot\nand chestnut negligees invade the mirror,\n\ntiptoe on marbles, vanish from the scene.\nAm reliquary for what World has seen.\n\nI'm the ballet of wingspan, the cracked mirror.\nCanary's coffin. Sunshine breaking through.</pre>\n "}, {"title": "In Michael Robins&#039;s class minus one", "view_node": "/poem/michael-robinss-class-minus-one", "field_author": "<a href=\"/poet/bob-hicok\" hreflang=\"und\">Bob Hicok</a>", "field_date_published": "2007", "body": " <pre>\nAt the desk where the boy sat, he sees the Chicago River.\nIt raises its hand.\nIt asks if metaphor should burn.\nHe says fire is the basis for all forms of the mouth.\nHe asks, why did you fill the boy with your going?\nI didn't know a boy had been added to me, the river says.\nWould you have given him back if you knew?\nI think so, the river says, I have so many boys in me,\n\tI'm worn out stroking eyes looking up at the day.\nHave you written a poem for us? he asks the river,\n\tand the river reads its poem,\n\tand the other students tell the river\n\tit sounds like a poem the boy would have written,\n\tthat they smell the boy's cigarettes\nin the poem, they feel his teeth\nbiting the page.\nAnd the river asks, did this boy dream of horses?\n\tbecause I suddenly dream of horses, I suddenly dream.\nThey're in a circle and the river says, I've never understood\n\tround things, why would leaving come back\n\tto itself?\nAnd a girl makes a kiss with her mouth and leans it\n\tagainst the river, and the kiss flows away\n\tbut the river wants it back, the river makes sounds\n\tto go after the kiss.\nAnd they all make sounds for the river to carry to the boy.\nAnd the river promises to never surrender the boy's shape\n\tto the ocean.</pre>\n "}, {"title": "Politics Last Summer", "view_node": "/poem/politics-last-summer", "field_author": "<a href=\"/poet/richard-shelton\" hreflang=\"und\">Richard Shelton</a>", "field_date_published": "2007", "body": " <pre>\nThe pederasts were pederasting,\nThe sycophants were sycophanting\nand Washington was awash in the slime of politics\n\nwhen suddenly the three wise monkeys\nburst into the committee room\nbeating on drums and demanding\n\nan end to the teaching of Darwinism or any\ntheory that related them, even distantly,\nto such a debauched creature as man.\n\nMeanwhile, the homeless were trying\nto form a union so each of them\ncould have a pot and a window.\nCan you imagine the gall? A pot and a window!</pre>\n "}, {"title": "Flying at Night", "view_node": "/poem/flying-night", "field_author": "<a href=\"/poet/ted-kooser\" hreflang=\"und\">Ted Kooser</a>", "field_date_published": "1980", "body": " <pre>\nAbove us, stars. Beneath us, constellations.\nFive billion miles away, a galaxy dies\nlike a snowflake falling on water. Below us,\nsome farmer, feeling the chill of that distant death,\nsnaps on his yard light, drawing his sheds and barn\nback into the little system of his care.\nAll night, the cities, like shimmering novas,\ntug with bright streets at lonely lights like\nhis.</pre>\n "}, {"title": "Bats", "view_node": "/poem/bats", "field_author": "<a href=\"/poet/paisley-rekdal\" hreflang=\"und\">Paisley Rekdal</a>", "field_date_published": "2007", "body": " <pre>\nunveil themselves in dark.\nThey hang, each a jagged,\n\nsilken sleeve, from moonlit rafters bright\nas polished knives. They swim\n\nthe muddled air and keen\nlike supersonic babies, the sound\n\nwe imagine empty wombs might make\nin women who can\u2019t fill them up.\n\nA clasp, a scratch, a sigh.\nThey drink fruit dry.\n\nAnd wheel, against feverish light flung hard\nupon their faces,\n\nin circles that nauseate.\nImagine one at breast or neck,\n\nPatterning a name in driblets of iodine\nthat spatter your skin stars.\n\nThey flutter, shake like mystics.\nThey materialize. Revelatory\n\nas a stranger\u2019s underthings found tossed\nupon the marital bed, you tremble\n\neven at the thought. Asleep,\nyou tear your fingers\n\nand search the sheets all night.</pre>\n "}, {"title": "I Would Like to Describe", "view_node": "/poem/i-would-describe", "field_author": "<a href=\"/poet/zbigniew-herbert\" hreflang=\"und\">Zbigniew Herbert</a>", "field_date_published": "2007", "body": " <pre>\nI would like to describe the simplest emotion\njoy or sadness\nbut not as others do\nreaching for shafts of rain or sun\n\nI would like to describe a light\nwhich is being born in me\nbut I know it does not resemble\nany star\nfor it is not so bright\nnot so pure\nand is uncertain\n\nI would like to describe courage\nwithout dragging behind me a dusty lion\nand also anxiety\nwithout shaking a glass full of water\n\nto put it another way\nI would give all metaphors\nin return for one word\ndrawn out of my breast like a rib\nfor one word\ncontained within the boundaries\nof my skin\n\nbut apparently this is not possible\n\nand just to say - I love\nI run around like mad\npicking up handfuls of birds\nand my tenderness\nwhich after all is not made of water\nasks the water for a face\nand anger\ndifferent from fire\nborrows from it\na loquacious tongue\n\nso is blurred\nso is blurred\nin me\nwhat white-haired gentlemen\nseparated once and for all\nand said \nthis is the subject\nand this is the object\n\nwe fall asleep\nwith one hand under our head\nand with the other in a mound of planets\n\nour feet abandon us\nand taste the earth\nwith their tiny roots\nwhich next morning\nwe tear out painfully</pre>\n "}, {"title": "1990 special", "view_node": "/poem/1990-special", "field_author": "<a href=\"/poet/charles-bukowski\" hreflang=\"und\">Charles Bukowski</a>", "field_date_published": "2007", "body": " <pre>\nyear-worn\nweary to the bone,\ndancing in the dark with the\ndark,\nthe Suicide Kid gone\ngray.\n\nah, the swift summers\nover and gone\nforever!\n\nis that death\nstalking me\nnow?\n\nno, it\u2019s only my cat,\nthis\ntime.</pre>\n "}, {"title": "Mottled Tuesday", "view_node": "/poem/mottled-tuesday", "field_author": "<a href=\"/poet/john-ashbery\" hreflang=\"und\">John Ashbery</a>", "field_date_published": "2007", "body": " <pre>\nSomething was about to go laughably wrong,\nwhether directly at home or here,\non this random shoal pleading with its eyes\ntill it too breaks loose, caught in a hail of references.\nI\u2019ll add one more scoop\nto the pile of retail.\n\nHey, you\u2019re doing it, like I didn\u2019t tell you\nto, my sinking laundry boat, point of departure,\nmy white pomegranate, my swizzle stick.\nWe\u2019re leaving again of our own volition\nfor bogus patterned plains streaked by canals,\nmaybe. Amorous ghosts will pursue us\nfor a time, but sometimes they get, you know, confused and\nforget to stop when we do, as they continue to populate this\nfertile land with their own bizarre self-imaginings.\nHere\u2019s hoping the referral goes tidily, O brother.\nChime authoritatively with the pop-ups and extras.\nKeep your units pliable and folded,\nthe recourse a mere specter, like you have it coming to you,\nawash with the new day and its abominable antithesis,\nOK? Don\u2019t be able to make that distinction.</pre>\n "}, {"title": "My First Memory (of Librarians)", "view_node": "/poem/my-first-memory-librarians", "field_author": "<a href=\"/poet/nikki-giovanni\" hreflang=\"und\">Nikki Giovanni</a>", "field_date_published": "2007", "body": " <pre>\nThis is my first memory:\nA big room with heavy wooden tables that sat on a creaky\n\u00a0\u00a0\u00a0\u00a0\u00a0\u00a0\u00a0wood floor\nA line of green shades\u2014bankers\u2019 lights\u2014down the center\nHeavy oak chairs that were too low or maybe I was simply\n\u00a0\u00a0\u00a0\u00a0\u00a0\u00a0\u00a0too short\n\u00a0\u00a0\u00a0\u00a0\u00a0\u00a0\u00a0\u00a0\u00a0\u00a0\u00a0\u00a0\u00a0\u00a0For me to sit in and read\nSo my first book was always big\n\nIn the foyer up four steps a semi-circle desk presided\nTo the left side the card catalogue\nOn the right newspapers draped over what looked like\n\u00a0\u00a0\u00a0\u00a0\u00a0\u00a0\u00a0a quilt rack\nMagazines face out from the wall\n\nThe welcoming smile of my librarian\nThe anticipation in my heart\nAll those books\u2014another world\u2014just waiting\nAt my fingertips.</pre>\n "}, {"title": "Sampling", "view_node": "/poem/sampling", "field_author": "<a href=\"/poet/ralph-angel\" hreflang=\"und\">Ralph Angel</a>", "field_date_published": "2006", "body": " <pre>\nI\u2019m standing on 10th Street. I\u2019m not the only one. Buildings rise like\n              foliage and human touch.\n\nAnd so shall dig this cigarette as my last, and rattle trains, and rot the fences\n              of the gardens of my body\u2014\n\nor without the harmony of speaking here the many sounds and rhythms that\n              sound a lot like anger\n\nwhen anger\u2019s silent, like a painting, though in the stillness of the paint itself\n              the painter nods or waves or asks for help.\n\nI\u2019m not the only one. The pharmacy\u2019s untitled. The stars are there at night.\n              In this Humidity\n\nthe forlorn singing of the insects clings to anything nailed down. A whole bag of\n              things I\u2019m working\n\nthrough, some set things that I know, like words I know that mean \"from\n              one place to another,\" the word that means\n\n\"to carry.\" I\u2019m standing still on 10th Street. I\u2019m not the only one.\n              The dark tastes of salt and oranges. Its eyes\n\nwander round and round. I am its thousand windows. I think about the future\n              and the sea. And stay.</pre>\n "}, {"title": "Surf Buddha", "view_node": "/poem/surf-buddha", "field_author": "<a href=\"/poet/matthew-lippman\" hreflang=\"und\">Matthew Lippman</a>", "field_date_published": "2007", "body": " <pre>\nThere is a sandalwood Buddha on the desk that has my stomach\nand I don't suppose to call myself a Buddha\nor even pretend to know much about Buddhist whirlings\nbut Rachel gave me the thing and it's got my belly\nthe one my father has got\nand the one his father had\nand I know this bulge the way I know my name,\nand can't believe I've become the language of fat\nthat the boys in my family have kept quiet.\n\nSo I encourage my stomach out into the world,\nrub it on a daily basis and think\nthat if I ever become a religious man\nthere would be god and glory to find there,\nmy rib cage distended,\nmy love of ice cream as sweet as my love of Rachel\n\nwho put the Buddha in my palm a month after we met and said, have this,\nand I said, <i>I already have this</i>,\nmy hands in motion around my belly button and then today\nnoticed for the first time that the little bastard has got some serious nipples on him,\nthank god, and breasts too,\nhe's the perfect kind of godlike statuette\neven if I am a Jew\n\nbut the days have been glorious and people die in truck crashes\nand men beat their wives and flowers bloom purple\nand the cardinal I've named Jack always comes around my way at this time,\n4:40 in Baldwin on the Island,\nWes Montgomery on the Sony\nand I don't know if it's his song <i>Cariba</i> or the wind on my swollen toes\nthat makes me pick up the little guy, stick him in my mouth,\nswirl him around between teeth and cheek,\nplace him on the edge of my tongue and let him surf there,\nthrough the neighborhood of my white heat,\non the curl of my pink waves.</pre>\n "}, {"title": "Grief Calls Us to the Things of This World", "view_node": "/poem/grief-calls-us-things-world", "field_author": "<a href=\"/poet/sherman-alexie\" hreflang=\"und\">Sherman Alexie</a>", "field_date_published": "2009", "body": " <pre>\n<i>The morning air is all awash with angels . . .</i>\n                                            - Richard Wilbur\n\n\nThe eyes open to a blue telephone\nIn the bathroom of this five-star hotel.\n\t\nI wonder whom I should call? A plumber, \nProctologist, urologist, or priest?\n\nWho is most among us and most deserves\nThe first call? I choose my father because\n\nHe's astounded by bathroom telephones.\nI dial home. My mother answers. \"Hey, Ma, \n\nI say, \"Can I talk to Poppa?\" She gasps,  \nAnd then I remember that my father \n\nHas been dead for nearly a year. \"Shit, Mom,\" \nI say. \"I forgot he\u2019s dead. I\u2019m sorry\u2014\n\nHow did I forget?\" \"It\u2019s okay,\" she says.\n\"I made him a cup of instant coffee \n\nThis morning and left it on the table\u2014\nLike I have for, what, twenty-seven years\u2014\n\nAnd I didn't realize my mistake \nUntil this afternoon.\" My mother laughs\n\nAt the angels who wait for us to pause\nDuring the most ordinary of days\n\nAnd sing our praise to forgetfulness\nBefore they slap our souls with their cold wings.\n\nThose angels burden and unbalance us.\nThose fucking angels ride us piggyback.\n\nThose angels, forever falling, snare us\nAnd haul us, prey and praying, into dust.</pre>\n "}, {"title": "Grace", "view_node": "/poem/grace", "field_author": "<a href=\"/poet/terence-winch\" hreflang=\"und\">Terence Winch</a>", "field_date_published": "2007", "body": " <pre>\nDidn\u2019t know if he was a retard or a drunk. \nHe would lurch around Gaelic Park \nduring game days, grinning like an idiot,\ndribbling onto his filthy cassock.  First time\nI saw him it was a shock.   And then his\nname, which had a funny sound to it:\nFather McMenamin.  The drunk priest,\nthe embarrassment to the whole community.\nHappily staggering onto the field, being gently\nushered off again, scolded as one would a\nchild: now, now, father, mustn\u2019t go there.\n\nThe shame of it all.  An affliction from God.\nThe shepherd, the authority, the man of the cloth\nas moron, bum, joke.  The meaner ones\nwould buy him drinks and make fun of him.\nGive us your blessing, Father.  Forgive me\nmy sins, Father, and I\u2019ll give you a glass.\nMcMenamin forgave them all,\nwondering where he was. Somewhere\nfar from home it seemed, searching \nfor grace in the darkness of the Bronx.</pre>\n "}], "pager": {"current_page": 559, "total_items": "13248", "total_pages": 663, "items_per_page": 20}}