{"rows": [{"title": "Elegy for a Hanged Boy (audio only)", "view_node": "/poem/elegy-hanged-boy-audio-only", "field_author": "<a href=\"/poet/mark-wunderlich\" hreflang=\"und\">Mark Wunderlich</a>", "field_date_published": "2013", "body": " <p>\u00a0</p><p>Click the icon above to listen to this audio poem.</p> "}, {"title": "Prayer in a Time of Sickness (audio only)", "view_node": "/poem/prayer-time-sickness-audio-only", "field_author": "<a href=\"/poet/mark-wunderlich\" hreflang=\"und\">Mark Wunderlich</a>", "field_date_published": "2013", "body": " <p>\u00a0</p><p>Click the icon above to listen to this audio poem.</p> "}, {"title": "Zwijgen (audio only)", "view_node": "/poem/zwijgen-audio-only", "field_author": "<a href=\"/poet/saskia-hamilton\" hreflang=\"und\">Saskia Hamilton</a>", "field_date_published": "2014", "body": " <p>\u00a0</p><p>Click the icon above to listen to this audio poem.</p> "}, {"title": "Spiral (audio only)", "view_node": "/poem/spiral-audio-only", "field_author": "<a href=\"/poet/saskia-hamilton\" hreflang=\"und\">Saskia Hamilton</a>", "field_date_published": "2014", "body": " <p>\u00a0</p><p>Click the icon above to listen to this audio poem.</p> "}, {"title": "On the Ground (audio only)", "view_node": "/poem/ground-audio-only", "field_author": "<a href=\"/poet/saskia-hamilton\" hreflang=\"und\">Saskia Hamilton</a>", "field_date_published": "2014", "body": " <p>\u00a0</p><p>Click the icon above to listen to this audio poem.</p> "}, {"title": "Once (audio only)", "view_node": "/poem/once-audio-only", "field_author": "<a href=\"/poet/saskia-hamilton\" hreflang=\"und\">Saskia Hamilton</a>", "field_date_published": "2014", "body": " <p>\u00a0</p><p>Click the icon above to listen to this audio poem.</p> "}, {"title": "Fairing (audio only)", "view_node": "/poem/fairing-audio-only", "field_author": "<a href=\"/poet/saskia-hamilton\" hreflang=\"und\">Saskia Hamilton</a>", "field_date_published": "2014", "body": " <p>\u00a0</p><p>Click the icon above to listen to this audio poem.</p> "}, {"title": "En Face (audio only)", "view_node": "/poem/en-face-audio-only", "field_author": "<a href=\"/poet/saskia-hamilton\" hreflang=\"und\">Saskia Hamilton</a>", "field_date_published": "2014", "body": " <p>\u00a0</p><p>Click the icon above to listen to this audio poem.</p> "}, {"title": "After Gewritu secgad (audio only)", "view_node": "/poem/after-gewritu-secgad-audio-only", "field_author": "<a href=\"/poet/saskia-hamilton\" hreflang=\"und\">Saskia Hamilton</a>", "field_date_published": "2014", "body": " <p>\u00a0</p><p>Click the icon above to listen to this audio poem.</p> "}, {"title": "Star Catcher (audio only)", "view_node": "/poem/star-catcher-audio-only", "field_author": "<a href=\"/poet/dan-chiasson\" hreflang=\"und\">Dan Chiasson</a>", "field_date_published": "2014", "body": " <p>\u00a0</p><p>Click the icon above to listen to this audio poem.</p> "}, {"title": "One on One (audio only)", "view_node": "/poem/one-one-audio-only", "field_author": "<a href=\"/poet/dan-chiasson\" hreflang=\"und\">Dan Chiasson</a>", "field_date_published": "2014", "body": " <p>\u00a0</p><p>Click the icon above to listen to this audio poem.</p> "}, {"title": "Away We Go (audio only)", "view_node": "/poem/away-we-go-audio-only", "field_author": "<a href=\"/poet/dan-chiasson\" hreflang=\"und\">Dan Chiasson</a>", "field_date_published": "2014", "body": " <p>\u00a0</p><p>Click the icon above to listen to this audio poem.</p> "}, {"title": "Bicentennial (audio only)", "view_node": "/poem/bicentennial-audio-only", "field_author": "<a href=\"/poet/dan-chiasson\" hreflang=\"und\">Dan Chiasson</a>", "field_date_published": "2014", "body": " <p>\u00a0</p><p>Click the icon above to listen to this audio poem.</p> "}, {"title": "Pomegranate (audio only)", "view_node": "/poem/pomegranate-audio-only", "field_author": "<a href=\"/poet/cathy-linh-che\" hreflang=\"en\">Cathy Linh Che</a>", "field_date_published": "2014", "body": " <p>\u00a0</p><p>Click the icon above to listen to this audio poem.</p> "}, {"title": "[My mother still dreams of the war] (audio only)", "view_node": "/poem/my-mother-still-dreams-war-audio-only", "field_author": "<a href=\"/poet/cathy-linh-che\" hreflang=\"en\">Cathy Linh Che</a>", "field_date_published": "2014", "body": " <p>\u00a0</p><p>Click the icon above to listen to this audio poem.</p> "}, {"title": "from In What Way Does the Room Map Out Violence? (audio only)", "view_node": "/poem/what-way-does-room-map-out-violence-audio-only", "field_author": "<a href=\"/poet/cathy-linh-che\" hreflang=\"en\">Cathy Linh Che</a>", "field_date_published": "2014", "body": " <p>\u00a0</p><p>Click the icon above to listen to this audio poem.</p> "}, {"title": "[Doc, there was a hand] (audio only)", "view_node": "/poem/doc-there-was-hand-audio-only", "field_author": "<a href=\"/poet/cathy-linh-che\" hreflang=\"en\">Cathy Linh Che</a>", "field_date_published": "2014", "body": " <p>\u00a0</p><p>Click the icon above to listen to this audio poem.</p> "}, {"title": "If You Should Tire of Loving Me", "view_node": "/poem/if-you-should-tire-loving-me", "field_author": "<a href=\"/poet/margaret-widdemer\" hreflang=\"und\">Margaret Widdemer</a>", "field_date_published": "2014", "body": " <p>If you should tire of loving me<br />Some one of our far days,<br />Oh, never start to hide your heart<br />Or cover thought with praise.</p><p>For every word you would not say<br />Be sure my heart has heard,<br />So go from me all silently<br />Without a kiss or word;</p><p>For God must give you happiness\u2026<br />And oh, it may befall<br />In listening long to Heaven-song<br />I may not care at all!</p> "}, {"title": "The Dead Will Lead You (audio only)", "view_node": "/poem/dead-will-lead-you-audio-only", "field_author": "<a href=\"/poet/rachel-eliza-griffiths\" hreflang=\"und\">Rachel Eliza Griffiths</a>", "field_date_published": "2014", "body": " <p>\u00a0</p><p>Click the icon above to listen to this audio poem.</p> "}, {"title": "Small Prayer to the God of Epiphany (audio only)", "view_node": "/poem/small-prayer-god-epiphany-audio-only", "field_author": "<a href=\"/poet/rachel-eliza-griffiths\" hreflang=\"und\">Rachel Eliza Griffiths</a>", "field_date_published": "2014", "body": " <p>\u00a0</p><p>Click the icon above to listen to this audio poem.</p> "}], "pager": {"current_page": 397, "total_items": "13248", "total_pages": 663, "items_per_page": 20}}