{"rows": [{"title": "Brief Lives [excerpt]", "view_node": "/poem/brief-lives-excerpt", "field_author": "<a href=\"/poet/ken-chen\" hreflang=\"und\">Ken Chen</a>", "field_date_published": "2011", "body": " <p><b>Descartes in Love</b></p><p>Love, accepting that we are not pure and lucent hearts, ricocheting towards each other like unlatched stars\u2014no, we are tainted with self. We sometimes believe the self is an invisible glass, just as we believe the body is a suit made of meat. Doubt all things invisible. Doubt all things visible.<br />\u00a0</p><p><b>Colin Powell</b></p><p>Not to be a tragic person. What is a tragic person? The victim of a crime who does not realize the criminal is himself.<br />\u00a0</p>\n<pre>\n<b>Adonis Prettyboy in Hell</b>\n\nAnd then her son with love-gun and a quiver\nsnatched a love-shaft and delivered\u2014a twiggy arrow \nin her nipple like a nasty sliver...\nA big pig stuck me with his tusk, but it's life that's the bore, silly!\nI never got desire, I always got what I wanted\nAnd in this hallway incredulous of lights, I want wild pears, firm booblike fruit\u2014Daffodils! \nClovers! And the trill of starlings why not! We could grow \napples here... <i>Apples</i>? So, I suppose I do miss her\n\n\u00a0\u00a0\u00a0\u00a0\u00a0\u00a0\u00a0\u00a0\u00a0\u00a0\u2014You know when I fell out of life\nI grabbed her heart like a rope;</pre>\n<br /><p><b>Virginia Woolf</b></p><p>\u00a0</p><p>The target audience of my secrets is not my friends, but my journals and the strangers who will read them in the future.<br />\u00a0</p><p><b>Child of Immigrants</b></p><p>I used to pretend I was American.<br />This was until I realized I was American.<br />\u00a0</p><p><b>Richard Rorty</b></p><p>What is forgiveness? When someone else's sin becomes merely an action we ourselves might plausibly commit. The virtue of hypocrisy\u2014we temporarily become people other than ourselves and can notice our actions from the other side, as saintly as no one.<br />\u00a0</p>\n<pre>\n<b>Io</b>\n\nSymbol is \nabridgement. I am not a cow and Argus not omniscience. \nWe are clockfraught beings. \nThe man I love stopped my heart when he froze the world to night. \nMy heart being part of the world.</pre>\n "}, {"title": "Sculptures of Virginia Woolf", "view_node": "/poem/sculptures-virginia-woolf", "field_author": "<a href=\"/poet/michael-robins\" hreflang=\"und\">Michael Robins</a>", "field_date_published": "2011", "body": " <pre>\nThey're sentences in waiting, diagrams\ndrained. Tuesday raises her hand &amp; asks\n\ndirections to the bathroom. She misses\ncigarettes, lessons how kissing the boy\n\nshe drags into the Sadie Hawkins dance\nkeeps her homeliest gal in all them hills.\n\nTuesdays fenced in, clad like tea cozies\nas though for a parade. A crossing guard\n\n&amp; spinster, spent tissues saved &amp; saying\nhow I'm with stupid is a saying for life.\n\nSundown thereafter kicking &amp; kicking.\nBoys waving from the backseat of a car.</pre>\n "}, {"title": "Sundown", "view_node": "/poem/sundown", "field_author": "<a href=\"/poet/jorie-graham\" hreflang=\"und\">Jorie Graham</a>", "field_date_published": "2011", "body": " <pre>\n\u00a0\u00a0\u00a0\u00a0\u00a0\u00a0\u00a0\u00a0\u00a0\u00a0\u00a0\u00a0\u00a0\u00a0\u00a0\u00a0(St. Laurent Sur Mer, June 5, 2009)\n\n\nSometimes the day\n\u00a0\u00a0\u00a0\u00a0\u00a0\u00a0\u00a0\u00a0\u00a0\u00a0\u00a0\u00a0\u00a0\u00a0\u00a0\u00a0\u00a0\u00a0\u00a0\u00a0\u00a0\u00a0\u00a0\u00a0\u00a0\u00a0\u00a0\u00a0\u00a0\u00a0light winces \n\u00a0\u00a0\u00a0\u00a0\u00a0\u00a0\u00a0\u00a0\u00a0\u00a0\u00a0\u00a0\u00a0\u00a0\u00a0\u00a0\u00a0\u00a0\u00a0\u00a0\u00a0\u00a0\u00a0\u00a0\u00a0\u00a0\u00a0\u00a0\u00a0\u00a0behind you and it is\na great treasure in this case today a man on\n\u00a0\u00a0\u00a0\u00a0\u00a0\u00a0\u00a0\u00a0\u00a0\u00a0\u00a0\u00a0\u00a0\u00a0\u00a0\u00a0\u00a0\u00a0\u00a0\u00a0\u00a0\u00a0\u00a0\u00a0\u00a0\u00a0\u00a0\u00a0\u00a0\u00a0a horse in calm full\n\u00a0\u00a0\u00a0\u00a0\u00a0\u00a0\u00a0\u00a0\u00a0\u00a0\u00a0\u00a0\u00a0\u00a0\u00a0\u00a0\u00a0\u00a0\u00a0\u00a0\u00a0\u00a0\u00a0\u00a0\u00a0\u00a0\u00a0\u00a0\u00a0\u00a0gallop on Omaha over my\n\u00a0\u00a0\u00a0\u00a0\u00a0\u00a0\u00a0\u00a0\u00a0\u00a0\u00a0\u00a0\u00a0\u00a0\u00a0\u00a0\u00a0\u00a0\u00a0\u00a0\u00a0\u00a0\u00a0\u00a0\u00a0\u00a0\u00a0\u00a0\u00a0\u00a0left shoulder coming on\n\u00a0\u00a0\u00a0\u00a0\u00a0\u00a0\u00a0\u00a0\u00a0\u00a0\u00a0\u00a0\u00a0\u00a0\u00a0\u00a0\u00a0\u00a0\u00a0\u00a0\u00a0\u00a0\u00a0\u00a0\u00a0\u00a0\u00a0\u00a0\u00a0\u00a0fast but\ncalm not audible to me at all until I turned back my\n\u00a0\u00a0\u00a0\u00a0\u00a0\u00a0\u00a0\u00a0\u00a0\u00a0\u00a0\u00a0\u00a0\u00a0\u00a0\u00a0\u00a0\u00a0\u00a0\u00a0\u00a0\u00a0\u00a0\u00a0\u00a0\u00a0\u00a0\u00a0\u00a0\u00a0head for no\n\u00a0\u00a0\u00a0\u00a0\u00a0\u00a0\u00a0\u00a0\u00a0\u00a0\u00a0\u00a0\u00a0\u00a0\u00a0\u00a0\u00a0\u00a0\u00a0\u00a0\u00a0\u00a0\u00a0\u00a0\u00a0\u00a0\u00a0\u00a0\u00a0\u00a0reason as if what lies behind\n\u00a0\u00a0\u00a0\u00a0\u00a0\u00a0\u00a0\u00a0\u00a0\u00a0\u00a0\u00a0\u00a0\u00a0\u00a0\u00a0\u00a0\u00a0\u00a0\u00a0\u00a0\u00a0\u00a0\u00a0\u00a0\u00a0\u00a0\u00a0\u00a0\u00a0one had whispered\n<i>what can I do for you today</i> and I had just\n\u00a0\u00a0\u00a0\u00a0\u00a0\u00a0\u00a0\u00a0\u00a0\u00a0\u00a0\u00a0\u00a0\u00a0\u00a0\u00a0\u00a0\u00a0\u00a0\u00a0\u00a0\u00a0\u00a0\u00a0\u00a0\u00a0\u00a0\u00a0\u00a0\u00a0turned to\n\u00a0\u00a0\u00a0\u00a0\u00a0\u00a0\u00a0\u00a0\u00a0\u00a0\u00a0\u00a0\u00a0\u00a0\u00a0\u00a0\u00a0\u00a0\u00a0\u00a0\u00a0\u00a0\u00a0\u00a0\u00a0\u00a0\u00a0\u00a0\u00a0\u00a0answer and the answer to my\nanswer flooded from the front with the late sun he/they\n\u00a0\u00a0\u00a0\u00a0\u00a0\u00a0\u00a0\u00a0\u00a0\u00a0\u00a0\u00a0\u00a0\u00a0\u00a0\u00a0\u00a0\u00a0\u00a0\u00a0\u00a0\u00a0\u00a0\u00a0\u00a0\u00a0\u00a0\u00a0\u00a0\u00a0were driving into\u2014gleaming\u2014\n\u00a0\u00a0\u00a0\u00a0\u00a0\u00a0\u00a0\u00a0\u00a0\u00a0\u00a0\u00a0\u00a0\u00a0\u00a0\u00a0\u00a0\u00a0\u00a0\u00a0\u00a0\u00a0\u00a0\u00a0\u00a0\u00a0\u00a0\u00a0\u00a0\u00a0wet chest and upraised knees and\nlight-struck hooves and thrust-out even breathing of the great\n\u00a0\u00a0\u00a0\u00a0\u00a0\u00a0\u00a0\u00a0\u00a0\u00a0\u00a0\u00a0\u00a0\u00a0\u00a0\u00a0\u00a0\u00a0\u00a0\u00a0\u00a0\u00a0\u00a0\u00a0\u00a0\u00a0\u00a0\u00a0\u00a0\u00a0beast\u2014from just behind me,\n\u00a0\u00a0\u00a0\u00a0\u00a0\u00a0\u00a0\u00a0\u00a0\u00a0\u00a0\u00a0\u00a0\u00a0\u00a0\u00a0\u00a0\u00a0\u00a0\u00a0\u00a0\u00a0\u00a0\u00a0\u00a0\u00a0\u00a0\u00a0\u00a0\u00a0passing me\u2014the rider looking straight\n\u00a0\u00a0\u00a0\u00a0\u00a0\u00a0\u00a0\u00a0\u00a0\u00a0\u00a0\u00a0\u00a0\u00a0\u00a0\u00a0\u00a0\u00a0\u00a0\u00a0\u00a0\u00a0\u00a0\u00a0\u00a0\u00a0\u00a0\u00a0\u00a0\u00a0ahead and yet\nsmiling without looking at me as I smiled as we\n\u00a0\u00a0\u00a0\u00a0\u00a0\u00a0\u00a0\u00a0\u00a0\u00a0\u00a0\u00a0\u00a0\u00a0\u00a0\u00a0\u00a0\u00a0\u00a0\u00a0\u00a0\u00a0\u00a0\u00a0\u00a0\u00a0\u00a0\u00a0\u00a0\u00a0both smiled for the young\n\u00a0\u00a0\u00a0\u00a0\u00a0\u00a0\u00a0\u00a0\u00a0\u00a0\u00a0\u00a0\u00a0\u00a0\u00a0\u00a0\u00a0\u00a0\u00a0\u00a0\u00a0\u00a0\u00a0\u00a0\u00a0\u00a0\u00a0\u00a0\u00a0\u00a0animal, my feet in the\nbreaking wave-edge, his hooves returning, as they begin to pass\n\u00a0\u00a0\u00a0\u00a0\u00a0\u00a0\u00a0\u00a0\u00a0\u00a0\u00a0\u00a0\u00a0\u00a0\u00a0\u00a0\u00a0\u00a0\u00a0\u00a0\u00a0\u00a0\u00a0\u00a0\u00a0\u00a0\u00a0\u00a0\u00a0\u00a0by,\n\u00a0\u00a0\u00a0\u00a0\u00a0\u00a0\u00a0\u00a0\u00a0\u00a0\u00a0\u00a0\u00a0\u00a0\u00a0\u00a0\u00a0\u00a0\u00a0\u00a0\u00a0\u00a0\u00a0\u00a0\u00a0\u00a0\u00a0\u00a0\u00a0\u00a0to the edge of the furling\n\u00a0\u00a0\u00a0\u00a0\u00a0\u00a0\u00a0\u00a0\u00a0\u00a0\u00a0\u00a0\u00a0\u00a0\u00a0\u00a0\u00a0\u00a0\u00a0\u00a0\u00a0\u00a0\u00a0\u00a0\u00a0\u00a0\u00a0\u00a0\u00a0\u00a0break, each tossed-up flake of\n\u00a0\u00a0\u00a0\u00a0\u00a0\u00a0\u00a0\u00a0\u00a0\u00a0\u00a0\u00a0\u00a0\u00a0\u00a0\u00a0\u00a0\u00a0\u00a0\u00a0\u00a0\u00a0\u00a0\u00a0\u00a0\u00a0\u00a0\u00a0\u00a0\u00a0ocean offered into the reddish\nluminosity\u2014sparks\u2014as they made their way,\n\u00a0\u00a0\u00a0\u00a0\u00a0\u00a0\u00a0\u00a0\u00a0\u00a0\u00a0\u00a0\u00a0\u00a0\u00a0\u00a0\u00a0\u00a0\u00a0\u00a0\u00a0\u00a0\u00a0\u00a0\u00a0\u00a0\u00a0\u00a0\u00a0\u00a0boring through to clear out\n\u00a0\u00a0\u00a0\u00a0\u00a0\u00a0\u00a0\u00a0\u00a0\u00a0\u00a0\u00a0\u00a0\u00a0\u00a0\u00a0\u00a0\u00a0\u00a0\u00a0\u00a0\u00a0\u00a0\u00a0\u00a0\u00a0\u00a0\u00a0\u00a0\u00a0life, a place where no one\n\u00a0\u00a0\u00a0\u00a0\u00a0\u00a0\u00a0\u00a0\u00a0\u00a0\u00a0\u00a0\u00a0\u00a0\u00a0\u00a0\u00a0\u00a0\u00a0\u00a0\u00a0\u00a0\u00a0\u00a0\u00a0\u00a0\u00a0\u00a0\u00a0\u00a0again is suddenly \nkilled\u2014regardless of the \"cause\"\u2014no one\u2014just this\n\u00a0\u00a0\u00a0\u00a0\u00a0\u00a0\u00a0\u00a0\u00a0\u00a0\u00a0\u00a0\u00a0\u00a0\u00a0\u00a0\u00a0\u00a0\u00a0\u00a0\u00a0\u00a0\u00a0\u00a0\u00a0\u00a0\u00a0\u00a0\u00a0\u00a0galloping forward with\n\u00a0\u00a0\u00a0\u00a0\u00a0\u00a0\u00a0\u00a0\u00a0\u00a0\u00a0\u00a0\u00a0\u00a0\u00a0\u00a0\u00a0\u00a0\u00a0\u00a0\u00a0\u00a0\u00a0\u00a0\u00a0\u00a0\u00a0\u00a0\u00a0\u00a0force through the low waves, seagulls\n\u00a0\u00a0\u00a0\u00a0\u00a0\u00a0\u00a0\u00a0\u00a0\u00a0\u00a0\u00a0\u00a0\u00a0\u00a0\u00a0\u00a0\u00a0\u00a0\u00a0\u00a0\u00a0\u00a0\u00a0\u00a0\u00a0\u00a0\u00a0\u00a0\u00a0scattering all round, their\nscreeching and mewing rising like more bits of red foam, the\n\u00a0\u00a0\u00a0\u00a0\u00a0\u00a0\u00a0\u00a0\u00a0\u00a0\u00a0\u00a0\u00a0\u00a0\u00a0\u00a0\u00a0\u00a0\u00a0\u00a0\u00a0\u00a0\u00a0\u00a0\u00a0\u00a0\u00a0\u00a0\u00a0\u00a0horse's hooves now suddenly\n\u00a0\u00a0\u00a0\u00a0\u00a0\u00a0\u00a0\u00a0\u00a0\u00a0\u00a0\u00a0\u00a0\u00a0\u00a0\u00a0\u00a0\u00a0\u00a0\u00a0\u00a0\u00a0\u00a0\u00a0\u00a0\u00a0\u00a0\u00a0\u00a0\u00a0louder as it goes\n\u00a0\u00a0\u00a0\u00a0\u00a0\u00a0\u00a0\u00a0\u00a0\u00a0\u00a0\u00a0\u00a0\u00a0\u00a0\u00a0\u00a0\u00a0\u00a0\u00a0\u00a0\u00a0\u00a0\u00a0\u00a0\u00a0\u00a0\u00a0\u00a0\u00a0by and its prints on\nwet sand deep and immediately filled by thousands of\n\u00a0\u00a0\u00a0\u00a0\u00a0\u00a0\u00a0\u00a0\u00a0\u00a0\u00a0\u00a0\u00a0\u00a0\u00a0\u00a0\u00a0\u00a0\u00a0\u00a0\u00a0\u00a0\u00a0\u00a0\u00a0\u00a0\u00a0\u00a0\u00a0\u00a0sandfleas thrilled to the\ndeclivities in succession in the newly\n\u00a0\u00a0\u00a0\u00a0\u00a0\u00a0\u00a0\u00a0\u00a0\u00a0\u00a0\u00a0\u00a0\u00a0\u00a0\u00a0\u00a0\u00a0\u00a0\u00a0\u00a0\u00a0\u00a0\u00a0\u00a0\u00a0\u00a0\u00a0\u00a0\u00a0released beach\u2014just\n\u00a0\u00a0\u00a0\u00a0\u00a0\u00a0\u00a0\u00a0\u00a0\u00a0\u00a0\u00a0\u00a0\u00a0\u00a0\u00a0\u00a0\u00a0\u00a0\u00a0\u00a0\u00a0\u00a0\u00a0\u00a0\u00a0\u00a0\u00a0\u00a0\u00a0at the right\n\u00a0\u00a0\u00a0\u00a0\u00a0\u00a0\u00a0\u00a0\u00a0\u00a0\u00a0\u00a0\u00a0\u00a0\u00a0\u00a0\u00a0\u00a0\u00a0\u00a0\u00a0\u00a0\u00a0\u00a0\u00a0\u00a0\u00a0\u00a0\u00a0\u00a0moment for some\nmicroscopic life to rise up through these\n\u00a0\u00a0\u00a0\u00a0\u00a0\u00a0\u00a0\u00a0\u00a0\u00a0\u00a0\u00a0\u00a0\u00a0\u00a0\u00a0\u00a0\u00a0\u00a0\u00a0\u00a0\u00a0\u00a0\u00a0\u00a0\u00a0\u00a0\u00a0\u00a0\u00a0cups in the hard upslant\n\u00a0\u00a0\u00a0\u00a0\u00a0\u00a0\u00a0\u00a0\u00a0\u00a0\u00a0\u00a0\u00a0\u00a0\u00a0\u00a0\u00a0\u00a0\u00a0\u00a0\u00a0\u00a0\u00a0\u00a0\u00a0\u00a0\u00a0\u00a0\u00a0\u00a0retreating ocean is\nrevealing, sandfleas finding them just as light does,\n\u00a0\u00a0\u00a0\u00a0\u00a0\u00a0\u00a0\u00a0\u00a0\u00a0\u00a0\u00a0\u00a0\u00a0\u00a0\u00a0\u00a0\u00a0\u00a0\u00a0\u00a0\u00a0\u00a0\u00a0\u00a0\u00a0\u00a0\u00a0\u00a0\u00a0carving them out with\n\u00a0\u00a0\u00a0\u00a0\u00a0\u00a0\u00a0\u00a0\u00a0\u00a0\u00a0\u00a0\u00a0\u00a0\u00a0\u00a0\u00a0\u00a0\u00a0\u00a0\u00a0\u00a0\u00a0\u00a0\u00a0\u00a0\u00a0\u00a0\u00a0\u00a0shadow, and glow on each\n\u00a0\u00a0\u00a0\u00a0\u00a0\u00a0\u00a0\u00a0\u00a0\u00a0\u00a0\u00a0\u00a0\u00a0\u00a0\u00a0\u00a0\u00a0\u00a0\u00a0\u00a0\u00a0\u00a0\u00a0\u00a0\u00a0\u00a0\u00a0\u00a0\u00a0ridge, and\nwater oozing up through the innermost cut of the\n\u00a0\u00a0\u00a0\u00a0\u00a0\u00a0\u00a0\u00a0\u00a0\u00a0\u00a0\u00a0\u00a0\u00a0\u00a0\u00a0\u00a0\u00a0\u00a0\u00a0\u00a0\u00a0\u00a0\u00a0\u00a0\u00a0\u00a0\u00a0\u00a0\u00a0hoofsteps,\nand when I shut my eyes now I am not like a blind person\n\u00a0\u00a0\u00a0\u00a0\u00a0\u00a0\u00a0\u00a0\u00a0\u00a0\u00a0\u00a0\u00a0\u00a0\u00a0\u00a0\u00a0\u00a0\u00a0\u00a0\u00a0\u00a0\u00a0\u00a0\u00a0\u00a0\u00a0\u00a0\u00a0\u00a0walking towards the lowering sun,\nthe water loud at my right,\n\u00a0\u00a0\u00a0\u00a0\u00a0\u00a0\u00a0\u00a0\u00a0\u00a0\u00a0\u00a0\u00a0\u00a0\u00a0\u00a0\u00a0\u00a0\u00a0\u00a0\u00a0\u00a0\u00a0\u00a0\u00a0\u00a0\u00a0\u00a0\u00a0\u00a0but like a seeing person\nwith her eyes shut\n\u00a0\u00a0\u00a0\u00a0\u00a0\u00a0\u00a0\u00a0\u00a0\u00a0\u00a0\u00a0\u00a0\u00a0\u00a0\u00a0\u00a0\u00a0\u00a0\u00a0\u00a0\u00a0\u00a0\u00a0\u00a0\u00a0\u00a0\u00a0\u00a0\u00a0putting her feet down\n\u00a0\u00a0\u00a0\u00a0\u00a0\u00a0\u00a0\u00a0\u00a0\u00a0\u00a0\u00a0\u00a0\u00a0\u00a0\u00a0\u00a0\u00a0\u00a0\u00a0\u00a0\u00a0\u00a0\u00a0\u00a0\u00a0\u00a0\u00a0\u00a0\u00a0one at a time\n\u00a0\u00a0\u00a0\u00a0\u00a0\u00a0\u00a0\u00a0\u00a0\u00a0\u00a0\u00a0\u00a0\u00a0\u00a0\u00a0\u00a0\u00a0\u00a0\u00a0\u00a0\u00a0\u00a0\u00a0\u00a0\u00a0\u00a0\u00a0\u00a0\u00a0on the earth.</pre>\n "}, {"title": "April frigging 6", "view_node": "/poem/april-frigging-6", "field_author": "<a href=\"/poet/anselm-berrigan\" hreflang=\"und\">Anselm Berrigan</a>", "field_date_published": "2011", "body": " <pre>\nMeat pies delivered daily from\ntuck shop the chalkboard\nimprovisionally utters to a\nchump's eye. Somewhere in\nthe thick of the grip of the\nshit that must be said to be\ngotten out of the way. Can I\nsit in your lap and watch\nkitty videos? No, I have to\ngo to work. Can I go to\nwork with you? We can\nwalk outside together. \nEarlier I felt \u2014 how's that\nradiation going \u2014 like \na \u2014 I misheard that,\nnow they are saying \nthings like \"she's a \nnew girl\" \u2014 bartender\n&amp; medical worker of\nother type \u2014 I felt\nlike an old creep making\nyounger wobbly guys\ngive me their opinions\non things: \"he had all\nthese great lines! &amp; then\nthey just kept coming one\nafter the other &amp; it started\nto make me crazy.\" Look\nof indignation on early\nmorning L train face.\nInside that recreation\na phone rang. I did\nnot ignore the phone\nbut I did ignore the call.\nThis afuturistic handling\nof little pads, first aid\nfor choking, and yet the\ncompany came with dog\n&amp; I moved, no, was. \n\n\nDon't be coming over to join me\nthis bird says, you hover and\ntake up shade, you simplify\ninto unwinged liftoff, you\nbear scars of an individually\nunremarkable nature, you stop\nnothing. I'll stay here without\njoining you, I say, and create\nas little energy in your vicinity\nas I can disimagine. Fuck you\nand your disimagination, this\nbird, now beginning to resemble\nAllen Ginsberg, yells at me.</pre>\n "}, {"title": "I Sit and Sew", "view_node": "/poem/i-sit-and-sew", "field_author": "<a href=\"/poet/alice-dunbar-nelson\" hreflang=\"und\">Alice Dunbar-Nelson</a>", "field_date_published": "1927", "body": "<p><span class=\"long-line\">I sit and sew\u2014a useless task it seems,</span><br /><span class=\"long-line\">My hands grown tired, my head weighed down with dreams\u2014</span><br /><span class=\"long-line\">The panoply of war, the martial tred of men,</span><br /><span class=\"long-line\">Grim-faced, stern-eyed, gazing beyond the ken</span><br /><span class=\"long-line\">Of lesser souls, whose eyes have not seen Death</span><br /><span class=\"long-line\">Nor learned to hold their lives but as a breath\u2014</span><br /><span class=\"long-line\">But\u2014I must sit and sew.</span></p>\n\n<p><span class=\"long-line\">I sit and sew\u2014my heart aches with desire\u2014</span><br /><span class=\"long-line\">That pageant terrible, that fiercely pouring fire</span><br /><span class=\"long-line\">On wasted fields, and writhing grotesque things</span><br /><span class=\"long-line\">Once men. My soul in pity flings</span><br /><span class=\"long-line\">Appealing cries, yearning only to go</span><br /><span class=\"long-line\">There in that holocaust of hell, those fields of woe\u2014</span><br /><span class=\"long-line\">But\u2014I must sit and sew.</span></p>\n\n<p><span class=\"long-line\">The little useless seam, the idle patch;</span><br /><span class=\"long-line\">Why dream I here beneath my homely thatch,</span><br /><span class=\"long-line\">When there they lie in sodden mud and rain,</span><br /><span class=\"long-line\">Pitifully calling me, the quick ones and the slain?</span><br /><span class=\"long-line\">You need, me, Christ! It is no roseate seam</span><br /><span class=\"long-line\">That beckons me\u2014this pretty futile seam,</span><br /><span class=\"long-line\">It stifles me\u2014God, must I sit and sew?</span></p>\n"}, {"title": "Moonlight", "view_node": "/poem/moonlight", "field_author": "<a href=\"/poet/sara-teasdale\" hreflang=\"und\">Sara Teasdale</a>", "field_date_published": "1920", "body": " <pre>\nIt will not hurt me when I am old,\n\u00a0\u00a0\u00a0\u00a0\u00a0A running tide where moonlight burned\n\u00a0\u00a0\u00a0\u00a0\u00a0\u00a0\u00a0\u00a0\u00a0\u00a0Will not sting me like silver snakes;\nThe years will make me sad and cold,\n\u00a0\u00a0\u00a0\u00a0\u00a0\u00a0\u00a0\u00a0\u00a0\u00a0It is the happy heart that breaks.\n\nThe heart asks more than life can give,\n\u00a0\u00a0\u00a0\u00a0\u00a0When that is learned, then all is learned;\n\u00a0\u00a0\u00a0\u00a0\u00a0\u00a0\u00a0\u00a0\u00a0\u00a0The waves break fold on jewelled fold,\nBut beauty itself is fugitive,\n\u00a0\u00a0\u00a0\u00a0\u00a0\u00a0\u00a0\u00a0\u00a0\u00a0It will not hurt me when I am old.</pre>\n "}, {"title": "Matters About Which Unfortunately I Have No Brilliant Opinion to Offer Readers", "view_node": "/poem/matters-about-which-unfortunately-i-have-no-brilliant-opinion-offer-readers", "field_author": "<a href=\"/poet/sandra-santana\" hreflang=\"und\">Sandra Santana</a>", "field_date_published": "2011", "body": " <pre>\nWith the arrival of the night\nsome of his words, like the intermittent\nflare [Here, I detected a point\nof inflection provoked by the peculiar\nnature of desire.\n\nWhich came to me\neven faster than imagination\nsince it needs not move at all,\nwaiting hidden always\neverywhere] of a cigarette,\ncalled my attention to a luminous\nmoment before it faded away.</pre>\n "}, {"title": "To a Steam Roller", "view_node": "/poem/steam-roller", "field_author": "<a href=\"/poet/marianne-moore\" hreflang=\"und\">Marianne Moore</a>", "field_date_published": "1921", "body": " <pre>\nThe illustration\nis nothing to you without the application.\n\u00a0\u00a0\u00a0You lack half wit. You crush all the particles down\n\u00a0\u00a0\u00a0\u00a0\u00a0\u00a0into close conformity, and then walk back and forth \n\u00a0\u00a0\u00a0\u00a0\u00a0\u00a0\u00a0\u00a0\u00a0on them.\n\nSparkling chips of rock\nare crushed down to the level of the parent block.\n\u00a0\u00a0\u00a0Were not 'impersonal judgment in aesthetic\n\u00a0\u00a0\u00a0\u00a0\u00a0\u00a0matters, a metaphysical impossibility,' you\n\nmight fairly achieve\nIt. As for butterflies, I can hardly conceive\n\u00a0\u00a0\u00a0of one's attending upon you, but to question\n\u00a0\u00a0\u00a0\u00a0\u00a0\u00a0the congruence of the complement is vain, if it exists.</pre>\n "}, {"title": "The Spring Cricket Considers the Question of Negritude (audio only)", "view_node": "/poem/spring-cricket-considers-question-negritude-audio-only", "field_author": "<a href=\"/poet/rita-dove\" hreflang=\"und\">Rita Dove</a>", "field_date_published": "2011", "body": " <p>\u00a0</p><p>Click the icon above to listen to this audio poem.</p> "}, {"title": "Syria Renga (audio only)", "view_node": "/poem/syria-renga-audio-only", "field_author": "<a href=\"/poet/marilyn-hacker\" hreflang=\"und\">Marilyn Hacker</a>", "field_date_published": "2011", "body": " <p>\u00a0</p><p>Click the icon above to listen to this audio poem.</p> "}, {"title": "The Book of a Thousand Eyes [To achieve reality]", "view_node": "/poem/book-thousand-eyes-achieve-reality", "field_author": "<a href=\"/poet/lyn-hejinian\" hreflang=\"und\">Lyn Hejinian</a>", "field_date_published": "2012", "body": " <pre>\nTo achieve reality (where objects thrive on people's passions), enormous effort\nand continuous social interactions are required, and I can't get started\nwithout you. Not here\u2014over there's a better place to begin a funny story.\nHistory with its dead all shot through with regularities in the woods\nand following what looks like a cow-path\nis part of a creature's sexual magic. Its recorded words\nnow are just a small memento meant to trigger memories\nwhich will give us energy when the right time comes.\nEvery afternoon high in a tree\nthe forest vagabond naps while time hangs\nlike a swarm of midges, trembling on. It might be female\nbut it has a phallus's tendency to jump up. How lonely it is\nto think that I can only think what I think even while he is thinking\u2014our\n\u00a0\u00a0\u00a0\u00a0\u00a0\u00a0\u00a0\u00a0\u00a0\u00a0thinking\njust our respective working body's hum. And while the warlords of Mycenae\n\u00a0\u00a0\u00a0\u00a0\u00a0\u00a0\u00a0\u00a0\u00a0\u00a0were storming\nTroy the foundations of their own societies were crumbling, too.</pre>\n "}, {"title": "Everyday We Get More Illegal", "view_node": "/poem/everyday-we-get-more-illegal", "field_author": "<a href=\"/poet/juan-felipe-herrera\" hreflang=\"und\">Juan Felipe Herrera</a>", "field_date_published": "2011", "body": "<p><span class=\"long-line\">Yet the peach tree\u00a0</span><br /><span class=\"long-line\">still rises</span><br /><span class=\"long-line\">&amp; falls with fruit &amp; without</span><br /><span class=\"long-line\">birds eat it the sparrows fight</span><br /><span class=\"long-line\">our desert\u00a0 \u00a0 \u00a0 \u00a0</span></p>\n\n<p><span class=\"long-line\">\u00a0\u00a0\u00a0\u00a0\u00a0\u00a0\u00a0\u00a0\u00a0\u00a0\u00a0 burns with trash &amp; drug</span><br /><span class=\"long-line\">it also breathes &amp; sprouts</span><br /><span class=\"long-line\">vines &amp; maguey</span></p>\n\n<p><span class=\"long-line\">laws pass laws with scientific walls</span><br /><span class=\"long-line\">detention cells \u00a0 husband</span><br /><span class=\"long-line\">\u00a0\u00a0\u00a0\u00a0\u00a0\u00a0\u00a0\u00a0\u00a0\u00a0\u00a0\u00a0\u00a0\u00a0\u00a0\u00a0\u00a0\u00a0\u00a0\u00a0\u00a0\u00a0\u00a0\u00a0\u00a0\u00a0 with the son</span><br /><span class=\"long-line\">\u00a0\u00a0\u00a0\u00a0\u00a0\u00a0\u00a0\u00a0\u00a0\u00a0\u00a0\u00a0\u00a0\u00a0\u00a0\u00a0\u00a0\u00a0\u00a0\u00a0\u00a0\u00a0\u00a0 the wife &amp;</span><br /><span class=\"long-line\">the daughter who</span><br /><span class=\"long-line\">married a citizen\u00a0 \u00a0</span><br /><span class=\"long-line\">they stay behind broken slashed</span></p>\n\n<p><span class=\"long-line\">un-powdered in the apartment to</span><br /><span class=\"long-line\">deal out the day</span><br /><span class=\"long-line\">\u00a0\u00a0\u00a0\u00a0\u00a0\u00a0\u00a0\u00a0\u00a0\u00a0\u00a0\u00a0 &amp; the puzzles</span><br /><span class=\"long-line\">another law then \u00a0 another</span><br /><span class=\"long-line\">Mexican</span><br /><span class=\"long-line\">\u00a0\u00a0\u00a0\u00a0\u00a0\u00a0\u00a0\u00a0\u00a0 Indian</span><br /><span class=\"long-line\">\u00a0\u00a0\u00a0\u00a0\u00a0\u00a0\u00a0\u00a0\u00a0\u00a0\u00a0\u00a0\u00a0\u00a0\u00a0\u00a0\u00a0\u00a0\u00a0\u00a0\u00a0 spirit exile</span></p>\n\n<p>\u00a0</p>\n\n<p><span class=\"long-line\">migration\u00a0\u00a0\u00a0\u00a0\u00a0\u00a0\u00a0\u00a0\u00a0\u00a0\u00a0\u00a0\u00a0\u00a0\u00a0\u00a0\u00a0\u00a0\u00a0\u00a0 sky</span><br /><span class=\"long-line\">the grass is mowed then blown</span><br /><span class=\"long-line\">by a machine\u00a0 sidewalks are empty</span><br /><span class=\"long-line\">clean &amp; the Red Shouldered Hawk</span><br /><span class=\"long-line\">peers</span><br /><span class=\"long-line\">down\u00a0 \u2014 from</span><br /><span class=\"long-line\">an abandoned wooden dome</span><br /><span class=\"long-line\">\u00a0\u00a0\u00a0\u00a0\u00a0\u00a0\u00a0\u00a0\u00a0\u00a0\u00a0\u00a0\u00a0\u00a0\u00a0\u00a0\u00a0\u00a0\u00a0\u00a0\u00a0\u00a0 an empty field</span></p>\n\n<p><span class=\"long-line\">it is all in-between the light</span><br /><span class=\"long-line\">every day this \u00a0 \u00a0 changes a little</span></p>\n\n<p><span class=\"long-line\">yesterday homeless &amp;</span><br /><span class=\"long-line\">w/o papers\u00a0\u00a0\u00a0\u00a0\u00a0\u00a0\u00a0\u00a0\u00a0\u00a0\u00a0\u00a0\u00a0\u00a0\u00a0\u00a0\u00a0 Alberto</span><br /><span class=\"long-line\">left for Denver a Greyhound bus he said</span><br /><span class=\"long-line\">where they don\u2019t check you</span></p>\n\n<p><span class=\"long-line\">walking working</span><br /><span class=\"long-line\">under the silver darkness</span><br /><span class=\"long-line\">\u00a0\u00a0\u00a0\u00a0\u00a0\u00a0\u00a0\u00a0\u00a0\u00a0\u00a0 walking \u00a0 working</span><br /><span class=\"long-line\">with our mind</span><br /><span class=\"long-line\">our life</span></p>\n"}, {"title": "Many Asked Me Not to Forget Them", "view_node": "/poem/many-asked-me-not-forget-them", "field_author": "<a href=\"/poet/naomi-shihab-nye\" hreflang=\"und\">Naomi Shihab Nye</a>", "field_date_published": "2011", "body": " <p>Where do you keep all these people?<br />The shoemaker with his rumpled cough.<br />The man who twisted straws into brooms.<br />My teacher, oh my teacher. I will always cry<br />when I think of my teacher.<br />The olive farmer who lost every inch of ground,<br />every tree,<br />who sat with head in his hands<br />in his son's living room for years after.<br />I tucked them into my drawer with cuff links and bow ties.<br />Touched them each evening before I slept.<br />Wished them happiness and peace.<br />Peace in the heart. No wonder we all got heart trouble.<br />But justice never smiled on us. Why didn't it?<br />I tried to get Americans to think of them.<br />But they were too involved with their own affairs<br />to imagine ours. And you can't blame them, really.<br />How much do I think of Africa? I always did feel sad<br />in the back of my mind for places I didn't<br />have enough energy to worry about.</p> "}, {"title": "Lying While Birding", "view_node": "/poem/lying-while-birding", "field_author": "<a href=\"/poet/naomi-shihab-nye\" hreflang=\"und\">Naomi Shihab Nye</a>", "field_date_published": "2011", "body": " <p>\u00a0\u00a0\u00a0\u00a0 Yes\u00a0\u00a0\u00a0 \u00a0\u00a0 Yes</p><p>\u00a0\u00a0\u00a0\u00a0\u00a0\u00a0\u00a0 I see it</p><p>so they won't keep telling you</p><p>\u00a0\u00a0\u00a0\u00a0\u00a0\u00a0\u00a0\u00a0\u00a0\u00a0 where it is</p> "}, {"title": "Blowjob (Vulgar Slang) (audio only)", "view_node": "/poem/blowjob-vulgar-slang-audio-only", "field_author": "<a href=\"/poet/sharon-olds\" hreflang=\"und\">Sharon Olds</a>", "field_date_published": "2011", "body": " <p>\u00a0</p><p>Click the icon above to listen to this audio poem.</p> "}, {"title": "It Turns Out (audio only)", "view_node": "/poem/it-turns-out-audio-only", "field_author": "<a href=\"/poet/ron-padgett\" hreflang=\"und\">Ron Padgett</a>", "field_date_published": "2011", "body": " <p>\u00a0</p><p>Click the icon above to listen to this audio poem.</p> "}, {"title": "Animals and Art (audio only)", "view_node": "/poem/animals-and-art-audio-only", "field_author": "<a href=\"/poet/ron-padgett\" hreflang=\"und\">Ron Padgett</a>", "field_date_published": "2011", "body": " <p>\u00a0</p><p>Click the icon above to listen to this audio poem.</p> "}, {"title": "Testing Gardening (audio only)", "view_node": "/poem/testing-gardening-audio-only", "field_author": "<a href=\"/poet/marie-ponsot\" hreflang=\"und\">Marie Ponsot</a>", "field_date_published": "2011", "body": " <p>\u00a0</p><p><span style=\"line-height: 1.538em;\">Click the icon above to listen to this audio poem.</span></p> "}, {"title": "Putting Things In Proportion (audio only)", "view_node": "/poem/putting-things-proportion-audio-only", "field_author": "<a href=\"/poet/kay-ryan\" hreflang=\"und\">Kay Ryan</a>", "field_date_published": "2011", "body": " <p>\u00a0</p><p>Click the icon above to listen to this audio poem.</p> "}, {"title": "Counting (audio only)", "view_node": "/poem/counting-audio-only", "field_author": "<a href=\"/poet/gerald-stern\" hreflang=\"und\">Gerald Stern</a>", "field_date_published": "2011", "body": " <p>\u00a0</p><p>Click the icon above to listen to this audio poem.</p> "}], "pager": {"current_page": 455, "total_items": "13248", "total_pages": 663, "items_per_page": 20}}