{"rows": [{"title": "XXIII [Places among the stars]", "view_node": "/poem/xxiii-places-among-stars", "field_author": "<a href=\"/poet/stephen-crane\" hreflang=\"und\">Stephen Crane</a>", "field_date_published": "1905", "body": "<p><span class=\"long-line\">Places among the stars,</span><br /><span class=\"long-line\">Soft gardens near the sun,</span><br /><span class=\"long-line\">Keep your distant beauty;</span><br /><span class=\"long-line\">Shed no beams upon my weak heart.</span><br /><span class=\"long-line\">Since she is here</span><br /><span class=\"long-line\">In a place of blackness,</span><br /><span class=\"long-line\">Not your golden days</span><br /><span class=\"long-line\">Not your silver nights</span><br /><span class=\"long-line\">Can call me to you.</span><br /><span class=\"long-line\">Since she is here</span><br /><span class=\"long-line\">In a place of blackness,</span><br /><span class=\"long-line\">Here I stay and wait.</span></p>\n"}, {"title": "XXI [There was, before me]", "view_node": "/poem/xxi-there-was-me", "field_author": "<a href=\"/poet/stephen-crane\" hreflang=\"und\">Stephen Crane</a>", "field_date_published": "1905", "body": "<p><span class=\"long-line\">There was, before me,</span><br /><span class=\"long-line\">Mile upon mile</span><br /><span class=\"long-line\">Of snow, ice, burning sand.</span><br /><span class=\"long-line\">And yet I could look beyond all this,</span><br /><span class=\"long-line\">To a place of infinite beauty;</span><br /><span class=\"long-line\">And I could see the loveliness of her</span><br /><span class=\"long-line\">Who walked in the shade of the trees.</span><br /><span class=\"long-line\">When I gazed,</span><br /><span class=\"long-line\">All was lost</span><br /><span class=\"long-line\">But this place of beauty and her.</span><br /><span class=\"long-line\">When I gazed,</span><br /><span class=\"long-line\">And in my gazing, desired,</span><br /><span class=\"long-line\">Then came again</span><br /><span class=\"long-line\">Mile upon mile,</span><br /><span class=\"long-line\">Of snow, ice, burning sand.</span></p>\n"}, {"title": "Emily Bront\u00eb", "view_node": "/poem/emily-bronte", "field_author": "<a href=\"/poet/louise-imogen-guiney\" hreflang=\"en\">Louise Imogen Guiney</a>", "field_date_published": "1909", "body": " <pre>What sacramental hurt that brings\nThe terror of the truth of things\nHad changed thee? Secret be it yet.\n\u2019T was thine, upon a headland set,\nTo view no isles of man\u2019s delight,\nWith lyric foam in rainbow flight,\nBut all a-swing, a-gleam, mid slow uproar,\nBlack sea, and curved uncouth sea-bitten shore.\n</pre>\n "}, {"title": "The Wild Ride", "view_node": "/poem/wild-ride", "field_author": "<a href=\"/poet/louise-imogen-guiney\" hreflang=\"en\">Louise Imogen Guiney</a>", "field_date_published": "1909", "body": " <pre>I hear in my heart, I hear in its ominous pulses\nAll day, on the road, the hoofs of invisible horses,\n<span class=\"long-line\">All night, from their stalls, the importunate pawing and neighing.</span>\n\nLet cowards and laggards fall back! but alert to the saddle\nWeather-worn and abreast, go men of our galloping legion,\nWith a stirrup-cup each to the lily of women that loves him.\n\nThe trail is through dolour and dread, over crags and morasses;\n<span class=\"long-line\">There are shapes by the way, there are things that appal or entice us:</span>\n<span class=\"long-line\">What odds? We are Knights of the Grail, we are vowed to the riding.</span>\n\nThought\u2019s self is a vanishing wing, and joy is a cobweb,\nAnd friendship a flower in the dust, and glory a sunbeam:\nNot here is our prize, nor, alas! after these our pursuing.\n\nA dipping of plumes, a tear, a shake of the bridle,\nA passing salute to this world and her pitiful beauty:\nWe hurry with never a word in the track of our fathers.\n\n(I hear in my heart, I hear in its ominous pulses\nAll day, on the road, the hoofs of invisible horses,\n<span class=\"long-line\">All night, from their stalls, the importunate pawing and neighing.)</span>\n\nWe spur to a land of no name, out-racing the storm-wind;\nWe leap to the infinite dark like sparks from the anvil.\nThou leadest, O God! All\u2019s well with Thy troopers that follow.\n</pre>\n "}, {"title": "[My Desire is round]", "view_node": "/poem/my-desire-round", "field_author": "<a href=\"/poet/sidney-lanier\" hreflang=\"und\">Sidney Lanier</a>", "field_date_published": "1908", "body": " <pre>My Desire is round,\nIt is a great globe.\nIf my desire were no bigger than this world\nIt were no bigger than a pin\u2019s head.\nBut this world is to the world I want\nAs a cinder to Sirius.\n</pre>\n "}, {"title": "[The feverish heaven]", "view_node": "/poem/feverish-heaven", "field_author": "<a href=\"/poet/sidney-lanier\" hreflang=\"und\">Sidney Lanier</a>", "field_date_published": "1908", "body": " <pre>The feverish heaven with a stitch in the side,\n     Of lightning.\n</pre>\n "}, {"title": "[I am but a small-winged bird]", "view_node": "/poem/i-am-small-winged-bird", "field_author": "<a href=\"/poet/sidney-lanier\" hreflang=\"und\">Sidney Lanier</a>", "field_date_published": "1908", "body": " <pre>     I am but a small-winged bird:\nBut I will conquer the big world\n     As the bee-martin beats the crow,\nBy attacking it always from Above.\n</pre>\n "}, {"title": "How Like the Sea", "view_node": "/poem/how-sea", "field_author": "<a href=\"/poet/ella-wheeler-wilcox\" hreflang=\"und\">Ella Wheeler Wilcox</a>", "field_date_published": "1902", "body": " <pre>How like the sea, the myriad-minded sea,\nIs this large love of ours: so vast, so deep,\nSo full of myseries! it, too, can keep\nIts secrets, like the ocean; and is free,\nFree, as the boundless main. Now it may be\nCalm like the brow of some sweet child asleep;\nAgain its seething billows surge and leap\nAnd break in fulness of their ecstasy.\n\nEach wave so like the wave which came before,\nYet never two the same! Imperative\nAnd then persuasive as the cooing dove,\nEncroaching ever on the yielding shore\u2014\nReady to take; yet readier still to give\u2014\nHow like the myriad-minded sea, is love.\n</pre>\n "}, {"title": "Vision", "view_node": "/poem/vision-1", "field_author": "<a href=\"/poet/joyce-kilmer\" hreflang=\"und\">Joyce Kilmer</a>", "field_date_published": "1914", "body": " <pre>          <em>(for Aline)</em>\n\n<span class=\"long-line\">Homer, they tell us, was blind and could not see the beautiful faces</span>\nLooking up into his own and reflecting the joy of his dream,\n   Yet did he seem\n<span class=\"long-line\">Gifted with eyes that could follow the gods to their holiest places.</span>\n\nI have no vision of gods, not of Eros with love-arrows laden,\nJupiter thundering death or of Juno his white-breasted queen,\n   Yet I have seen\nAll of the joy of the world in the innocent heart of a maiden.\n</pre>\n "}, {"title": "Love&#039;s Lantern", "view_node": "/poem/loves-lantern", "field_author": "<a href=\"/poet/joyce-kilmer\" hreflang=\"und\">Joyce Kilmer</a>", "field_date_published": "1914", "body": " <pre>\t<em>(for Aline)</em>\n\nBecause the road was steep and long\n   And through a dark and lonely land,\nGod set upon my lips a song\n   And put a lantern in my hand.\n\nThrough miles on weary miles of night\n   That stretch relentless in my way\nMy lantern burns serene and white,\n   An unexhausted cup of day.\n\nO golden lights and lights like wine,\n   How dim your boasted splendors are.\nBehold this little lamp of mind:\n   It is more starlike than a star!\n</pre>\n "}, {"title": "Aftermath", "view_node": "/poem/aftermath-0", "field_author": "<a href=\"/poet/willa-cather\" hreflang=\"und\">Willa Cather</a>", "field_date_published": "2018", "body": " <pre>Can'st thou conjure a vanished morn of spring,\n     Or bid the ashes of the sunset glow\nAgain to redness? Are we strong to wring\n<span style=\"font-size: 1em; font-family: &quot;Lucida Grande&quot;, &quot;Lucida Sans Unicode&quot;, sans-serif;\">     </span>From trodden grapes the juice drunk long ago?\nCan leafy longings stir in Autumn's blood,\n<span style=\"font-size: 1em; font-family: &quot;Lucida Grande&quot;, &quot;Lucida Sans Unicode&quot;, sans-serif;\">     </span>Or can I wear a pearl dissolved in wine,\nOr go a-Maying in a winter wood,\n<span style=\"font-size: 1em; font-family: &quot;Lucida Grande&quot;, &quot;Lucida Sans Unicode&quot;, sans-serif;\">     </span>Or paint with youth thy wasted cheek, or mine?\nWhat bloom, then, shall abide, since ours hath sped?\n<span style=\"font-size: 1em; font-family: &quot;Lucida Grande&quot;, &quot;Lucida Sans Unicode&quot;, sans-serif;\">     </span>Thou art more lost to me than they who dwell\nIn Egypt's sepulchres, long ages fled;\n<span style=\"font-size: 1em; font-family: &quot;Lucida Grande&quot;, &quot;Lucida Sans Unicode&quot;, sans-serif;\">     </span>And would I touch\u2014Ah me! I might as well\nCovet the gold of Helen's vanished head,\n<span style=\"font-size: 1em; font-family: &quot;Lucida Grande&quot;, &quot;Lucida Sans Unicode&quot;, sans-serif;\">     </span>Or kiss back Cleopatra from the dead!\n</pre>\n "}, {"title": "Bombardment", "view_node": "/poem/bombardment", "field_author": "<a href=\"/poet/d-h-lawrence\" hreflang=\"und\">D. H. Lawrence</a>", "field_date_published": "1919", "body": " <pre>The town has opened to the sun.\nLike a flat red lily with a million petals\nShe unfolds, she comes undone.\n\nA sharp sky brushes upon\nThe myriad glittering chimney-tips\nAs she gently exhales to the sun.\n\nHurrying creatures run\nDown the labyrinth of the sinister flower.\nWhat is it they shun?\n\nA dark bird falls from the sun.\nIt curves in a rush to the heart of the vast\nFlower: the day has begun.\n</pre>\n "}, {"title": "Bread Upon the Waters", "view_node": "/poem/bread-upon-waters", "field_author": "<a href=\"/poet/d-h-lawrence\" hreflang=\"und\">D. H. Lawrence</a>", "field_date_published": "1919", "body": " <pre>So you are lost to me!\nAh you, you ear of corn straight lying,\nWhat food is this for the darkly flying\nFowls of the Afterwards!\n\nWhite bread afloat on the waters,\nCast out by the hand that scatters\nFood untowards,\n\nWill you come back when the tide turns?\nAfter many days? My heart yearns\nTo know.\n\nWill you return after many days\nTo say your say as a traveller says,\nMore marvel than woe?\n\nDrift then, for the sightless birds\nAnd the fish in shadow-waved herds\nTo approach you.\n\nDrift then, bread cast out;\nDrift, lest I fall in doubt,\nAnd reproach you.\n\nFor you are lost to me!\n</pre>\n "}, {"title": "September", "view_node": "/poem/september-1", "field_author": "<a href=\"/poet/helen-hunt-jackson\" hreflang=\"und\">Helen Hunt Jackson</a>", "field_date_published": "1886", "body": "<p><span class=\"long-line\">O golden month! How high thy gold is heaped!</span><br /><span class=\"long-line\">The yellow birch-leaves shine like bright coins strung</span><br /><span class=\"long-line\">On wands; the chestnut's yellow pennons tongue</span><br /><span class=\"long-line\">To every wind its harvest challenge. Steeped</span><br /><span class=\"long-line\">In yellow, still lie fields where wheat was reaped;</span><br /><span class=\"long-line\">And yellow still the corn sheaves, stacked among</span><br /><span class=\"long-line\">The yellow gourds, which from the earth have wrung</span><br /><span class=\"long-line\">Her utmost gold. To highest boughs have leaped</span><br /><span class=\"long-line\">The purple grape,\u2014last thing to ripen, late</span><br /><span class=\"long-line\">By very reason of its precious cost.</span><br /><span class=\"long-line\">O Heart, remember, vintages are lost</span><br /><span class=\"long-line\">If grapes do not for freezing night-dews wait.</span><br /><span class=\"long-line\">Think, while thou sunnest thyself in Joy's estate,</span><br /><span class=\"long-line\">Mayhap thou canst not ripen without frost!</span></p>\n"}, {"title": "The World&#039;s Wanderers", "view_node": "/poem/worlds-wanderers", "field_author": "<a href=\"/poet/percy-bysshe-shelley\" hreflang=\"und\">Percy Bysshe Shelley</a>", "field_date_published": "1824", "body": " <pre><span style=\"font-family: &quot;Lucida Grande&quot;, &quot;Lucida Sans Unicode&quot;, sans-serif; font-size: 1em;\">                      </span>I\nTell me, thou star, whose wings of light\nSpeed thee in thy fiery flight,\nIn what cavern of the night\n\tWill thy pinions close now?\n\n<span style=\"font-size: 1em; font-family: &quot;Lucida Grande&quot;, &quot;Lucida Sans Unicode&quot;, sans-serif;\">                      </span>II\nTell me, moon, thou pale and grey\nPilgrim of heaven\u2019s homeless way,\nIn what depth of night or day\n\tSeekest thou repose now?\n\n<span style=\"font-size: 1em; font-family: &quot;Lucida Grande&quot;, &quot;Lucida Sans Unicode&quot;, sans-serif;\">                     </span>III\nWeary wind, who wanderest\nLike the world\u2019s rejected guest,\nHast thou still some secret nest\n\tOn the tree or billow?\n</pre>\n<pre></pre>\n "}, {"title": "Ways to Harm a Thing", "view_node": "/poem/ways-harm-thing", "field_author": "<a href=\"/poet/kaveh-akbar\" hreflang=\"en\">Kaveh Akbar</a>", "field_date_published": "2017", "body": " <pre>Throw scissors at it. \nFill it with straw \nand set it on fire, or set it \noff for the colonies with only \nsome books and dinner-\nplates and a stuffed bear \nnamed Friend Bear for me \nto lose in New Jersey. \nDid I say <em>me</em>? Things \nhave been getting\nless and less hypothetical \nsince I unhitched myself \nfrom your bedpost. Everyone \nI love is too modern \nto be caught\ngrieving. In order \nto be consumed \nfirst you need to be consumable, \nbut there is not a single \npart of you I could fit \nin my mouth. In a dream\nI pull back your foreskin\nand reveal a fat vase \nstuffed with crow \nfeathers. This seems a faithful\ntranslation of the real thing. Another \nway to harm something is to \nmelt its fusebox, \nmake it learn to live\nin the dark. I still want\nto suck the bones out \nfrom your hands,\nplant them like the seeds\nwe found in an antique \ntextbook, though those \nnever sprouted and may not \nhave even been seeds. \nWhen I was a sailor I found \na sunken ziggurat, spent \nweeks diving through room \nafter room discovering\nthis or that sacred \nshroud. One way to bury\nsomething is to bury it \nforever. When I was water\nyou poured me out\nover the dirt.  \n</pre>\n "}, {"title": "Orchids Are Sprouting From the Floorboards", "view_node": "/poem/orchids-are-sprouting-floorboards", "field_author": "<a href=\"/poet/kaveh-akbar\" hreflang=\"en\">Kaveh Akbar</a>", "field_date_published": "2017", "body": " <pre>Orchids are sprouting from the floorboards. \nOrchids are gushing out from the faucets. \nThe cat mews orchids from his mouth. \nHis whiskers are also orchids.\nThe grass is sprouting orchids. \nIt is becoming mostly orchids. \nThe trees are filled with orchids. \nThe tire swing is twirling with orchids. \nThe sunlight on the wet cement is a white orchid.\nThe car\u2019s tires leave a trail of orchids. \nA bouquet of orchids lifts from its tailpipe.\nTeenagers are texting each other pictures \nof orchids on their phones, which are also orchids. \nOld men in orchid penny loafers \nfuriously trade orchids. \nMothers fill bottles with warm orchids \nto feed their infants, who are orchids themselves. \nTheir coos are a kind of orchid. \nThe clouds are all orchids. \nThey are raining orchids. \nThe walls are all orchids, \nthe teapot is an orchid, \nthe blank easel is an orchid, \nand this cold is an orchid. Oh,\nLydia, we miss you terribly.     \n</pre>\n "}, {"title": "What Seems Like Joy", "view_node": "/poem/what-seems-joy", "field_author": "<a href=\"/poet/kaveh-akbar\" hreflang=\"en\">Kaveh Akbar</a>", "field_date_published": "2017", "body": " <p>how much history is enough history\u00a0\u00a0\u00a0\u00a0 before we can agree<br />to flee our daycares\u00a0\u00a0\u00a0\u00a0\u00a0 to wash everything away and start over<br /><span class=\"long-line\">leaving laptops to be lost in the wet along with housecats and Christ\u2019s</span><br />own mother\u00a0\u00a0\u00a0\u00a0\u00a0 even a lobster climbs away from its shell a few<br />times a life\u00a0\u00a0\u00a0\u00a0\u00a0 but every time I open my eyes I find<br />I am still inside myself\u00a0\u00a0\u00a0\u00a0 each epiphany dull and familiar<br /><span class=\"long-line\">oh now I am barefoot\u00a0\u00a0\u00a0\u00a0\u00a0\u00a0 oh now I am lighting the wrong end</span><br /><span class=\"long-line\">of a cigarette\u00a0\u00a0\u00a0\u00a0 I just want to be shaken new like a flag whipping</span><br />away its dust\u00a0\u00a0\u00a0\u00a0 want to pull out each of my teeth<br />and replace them with jewels\u00a0\u00a0\u00a0\u00a0 I\u2019m told what seems like joy<br />is often joy\u00a0\u00a0\u00a0\u00a0 that the soul lives in the throat plinking<br />like a copper bell\u00a0\u00a0\u00a0\u00a0\u00a0\u00a0 I\u2019ve been so young for so many years<br />it\u2019s all starting to jumble together\u00a0\u00a0\u00a0\u00a0 joy jeweling copper\u00a0\u00a0\u00a0<br />its plink\u00a0\u00a0\u00a0\u00a0\u00a0 a throat\u00a0\u00a0\u00a0 sometimes I feel beautiful and near dying<br />like a feather on an arrow shot through a neck\u00a0\u00a0\u00a0\u00a0 other times<br /><span class=\"long-line\">I feel tasked only with my own soreness\u00a0\u00a0\u00a0\u00a0\u00a0 like a scab on the roof</span><br />of a mouth\u00a0\u00a0\u00a0\u00a0\u00a0 my father believed in gardens\u00a0\u00a0\u00a0\u00a0\u00a0 delighting<br />at burying each thing in its potential for growth\u00a0\u00a0\u00a0\u00a0 some years<br /><span class=\"long-line\">the soil was so hard the water seeped down slower than the green</span><br />seeped up\u00a0\u00a0\u00a0\u00a0 still he\u2019d say <em>if you\u2019re not happy in your own yard</em><br /><span class=\"long-line\"><em>you won\u2019t be happy anywhere\u00a0\u00a0\u00a0\u00a0\u00a0 </em>I\u2019ve never had a yard but I\u2019ve had apartments</span><br />where water pipes burst above my head\u00a0\u00a0\u00a0\u00a0\u00a0 where I\u2019ve scrubbed<br />a lover\u2019s blood from the kitchen tile\u00a0\u00a0\u00a0\u00a0\u00a0\u00a0 such cleaning<br />takes so much time you expect there to be confetti at the end\u00a0\u00a0\u00a0\u00a0<br />what we\u2019ll need in the next life\u00a0\u00a0\u00a0\u00a0\u00a0 toothpaste\u00a0\u00a0\u00a0\u00a0\u00a0 party hats<br />and animal bones\u00a0\u00a0\u00a0\u00a0\u00a0 every day people charge out of this world\u00a0\u00a0\u00a0\u00a0<br />squealing\u00a0\u00a0\u00a0\u00a0\u00a0\u00a0 good-bye human behavior!\u00a0\u00a0\u00a0\u00a0\u00a0 so long acres<br />of germless chrome!\u00a0\u00a0\u00a0\u00a0\u00a0 it seems gaudy for them to be so cavalier<br />with their bliss\u00a0\u00a0\u00a0\u00a0\u00a0 while I\u2019m still here lurching into my labor<br /><span class=\"long-line\">hanging by my hair from the roof of a chapel\u00a0\u00a0\u00a0\u00a0\u00a0 churchlight thickening</span><br /><span class=\"long-line\">around me\u00a0\u00a0\u00a0\u00a0 or wandering into the woods to pull apart eggshells\u00a0\u00a0\u00a0\u00a0 emptying</span><br /><span class=\"long-line\">them in the dirt\u00a0\u00a0\u00a0\u00a0\u00a0 then sewing them back together to dry in the sun</span></p> "}, {"title": "Against Dying", "view_node": "/poem/against-dying", "field_author": "<a href=\"/poet/kaveh-akbar\" hreflang=\"en\">Kaveh Akbar</a>", "field_date_published": "2017", "body": "<p><span class=\"long-line\">if the body is just a parable </span><br /><span class=\"long-line\">about the body if breath </span><br /><span class=\"long-line\">is a leash to hold the mind </span><br /><span class=\"long-line\">then staying alive should be </span><br /><span class=\"long-line\">easier than it is most sick </span><br /><span class=\"long-line\">things become dead things </span><br /><span class=\"long-line\">at twenty-four my liver was</span><br /><span class=\"long-line\">already covered in fatty</span><br /><span class=\"long-line\">rot my mother filled a tiny</span><br /><span class=\"long-line\">coffin with picture frames </span><br /><span class=\"long-line\">I spent the year drinking </span><br /><span class=\"long-line\">from test tubes weeping</span><br /><span class=\"long-line\">wherever I went somehow</span><br /><span class=\"long-line\">it happened wellness crept </span><br /><span class=\"long-line\">into me like a roach nibbling </span><br /><span class=\"long-line\">through an eardrum for </span><br /><span class=\"long-line\">a time the half minutes </span><br /><span class=\"long-line\">of fire in my brainstem </span><br /><span class=\"long-line\">made me want to pull out </span><br /><span class=\"long-line\">my spine but even those</span><br /><span class=\"long-line\">have become bearable so </span><br /><span class=\"long-line\">how shall I live now</span><br /><span class=\"long-line\">in the unexpected present</span><br /><span class=\"long-line\">I spent so long in a lover\u2019s</span><br /><span class=\"long-line\">quarrel with my flesh</span><br /><span class=\"long-line\">the peace seems over-</span><br /><span class=\"long-line\">cautious too-polite I say</span><br /><span class=\"long-line\"><em>stop being cold</em> or <em>make</em></span><br /><span class=\"long-line\"><em>that blue bluer</em> and it does</span><br /><span class=\"long-line\">we speak to each other</span><br /><span class=\"long-line\">in this code where every word</span><br /><span class=\"long-line\">means <em>obey</em> I sit under </span><br /><span class=\"long-line\">a poplar tree with a thermos </span><br /><span class=\"long-line\">of chamomile feeling </span><br /><span class=\"long-line\">useless as an oath against </span><br /><span class=\"long-line\">dying I put a sugar cube </span><br /><span class=\"long-line\">on my tongue and </span><br /><span class=\"long-line\">swallow it like a pill</span></p>\n"}, {"title": "Four-Leaf Clover", "view_node": "/poem/four-leaf-clover", "field_author": "<a href=\"/poet/ella-higginson\" hreflang=\"en\">Ella Higginson</a>", "field_date_published": "2017", "body": " <p>I know a place where the sun is like gold,<br />\u00a0\u00a0\u00a0\u00a0 And the cherry blooms burst with snow,<br />And down underneath is the loveliest nook,<br />\u00a0\u00a0\u00a0\u00a0 Where the four-leaf clovers grow.<br /><br />One leaf is for hope, and one is for faith,<br />\u00a0\u00a0\u00a0\u00a0 And one is for love, you know,<br />And God put another in for luck\u2014<br />\u00a0\u00a0\u00a0\u00a0 If you search, you will find where they grow.<br /><br />But you must have hope, and you must have faith,<br />\u00a0\u00a0\u00a0\u00a0\u00a0 You must love and be strong\u2014and so\u2014<br />If you work, if you wait, you will find the place<br />\u00a0\u00a0\u00a0\u00a0 Where the four-leaf clovers grow.</p> "}], "pager": {"current_page": 266, "total_items": "13248", "total_pages": 663, "items_per_page": 20}}