{"rows": [{"title": "Conjecture", "view_node": "/poem/conjecture", "field_author": "<a href=\"/poet/james-tolan\" hreflang=\"und\">James Tolan</a>", "field_date_published": "2017", "body": " <pre>More than the execution\nof what we owe \nto whom and for how long,\n\nmore than attention \nswallowed and returned,\n\nlove might be the kindness \nthat bathes the crust from life\n\nlike scalding milk \nand a wire brush\nto thick and brutish hides.\n</pre>\n "}, {"title": "Poem Beginning with a Line by My Son Junuh", "view_node": "/poem/poem-beginning-line-my-son-junuh", "field_author": "<a href=\"/poet/james-tolan\" hreflang=\"und\">James Tolan</a>", "field_date_published": "2017", "body": " <pre><em>Every head should have a body.</em>\n\nEvery body\n            a soul the size\n                        of a jukebox loaded\n\nwith tunes our bodies know without us.\n\nMy hips begin\n            to remember\n                        the pleasure I was born to\n\nmy mouth to hum the songs I never knew\n\nI didn\u2019t know.\n            My body\n                        moving alone among others moving\n\nand singing until I am one with the other\n\nbodies \n            my soul sings to.\n                        Each honkytonk hymn making holy\n\nwhat my head forgot to love.\n</pre>\n "}, {"title": "Filched", "view_node": "/poem/filched", "field_author": "<a href=\"/poet/james-tolan\" hreflang=\"und\">James Tolan</a>", "field_date_published": "2017", "body": " <pre><em>Is that vintage?</em> they ask.  \n\n<em>It was my father\u2019s</em>, I say and think of a man for whom \nthat word meant only a crack about drink\u2014\n\n            <em>Gimme a tall one of your finest vintage!</em>\n\nI found it among tie pins and cufflinks in his top drawer, \nfilched it years before I knew the word, \n\n            knew only that I wanted something I could take from him\n            who knew work and the bar better than home, \n\n            something I would have never called \n            <em>beautiful and ruined</em>. \n\nCrystal scratched, leather dry and stitching frayed. \nHe never noticed it was gone, \n\n            or else he never said. \n\nFrom his dresser to the carved wooden box I buried \ninside my hand-me-down chest, \n\n            until the no more of him sent me rooting \n            for some relic I could hold. \n\nGlass polished and gears set right, new band strapped around my wrist.\n\n<em>Vintage?</em> \n\n<em>It\u2019s beautiful</em>, they say.  \n\n<em>It was my father\u2019s</em>, and I let them assume, \n\n            inheritance or gift, \n\nthat he was a man of taste, who shared it with his son.  \n</pre>\n "}, {"title": "Perfect, Wet with Poison", "view_node": "/poem/perfect-wet-poison", "field_author": "<a href=\"/poet/james-tolan\" hreflang=\"und\">James Tolan</a>", "field_date_published": "2017", "body": " <pre>At Edwards\u2019 Field, near the marsh, ours was the blood \nthe mosquitoes in their gangly stealth sought. At dusk \nthe city sent a truck, its sprinkler spraying \na cascade of malathion, foul line to foul line, \nfrom out past the chain-link fence. Time called, \n\nwe spread our arms and turned like we\u2019d been told, \nspinning slow circles, left field to right \nand across the infield dirt, the chemical mist  \nwafting over us, its sting \nlike sharp dew settling into the corners of our eyes. \n\nThe umpire tossed a dry ball to the tall boy on the hill, \nwho rubbed it slowly between bare hands \nas he peered up at the crowd. The drumming in his ears \ndulling to a drone, he stepped to the rubber \nand leaned in. No runners to check, hadn\u2019t been all game. \n\nWhere but here was perfect even possible \nfor a gawky boy with elbows thicker than his arms?  \nGlove to chest, fingers to four seams, blow out. \nFielders pounding their mitts, chanting and swaying. \nThe gloam falling across the mound. And in the stands \n\nhis mother done with her cursing of the city and its truck. \nChapped hands over her stung eyes, she didn\u2019t see \nher boy kick high and hurl one \nsharp-eyed home. Only heard the hush before \nthe leather popped and those around her rose. \n\nHer husband roared with all the rest \nbefore he dropped a hand \nto her bent back and with the other waved. \nCaught his long son\u2019s gaze, clenched a fist \nand beamed before their boy was swarmed.\n\nThen sat down, leaned in, angled for her ear. \nHis right hand at her elbow, she lifted \nher eyes at last to gather in \nthe ruckus their son\u2019s left arm had wrought. \n<em>Worry later, Mary Lou. Stand up and let him see you proud</em>.\n</pre>\n "}, {"title": " Night at the Roller Palace", "view_node": "/poem/night-roller-palace", "field_author": "<a href=\"/poet/january-gill-oneil\" hreflang=\"und\">January Gill O\u2019Neil</a>", "field_date_published": "2018", "body": " <pre>After the birthday crowds thin out,\nafter the \u201cHokey Pokey\u201d and \u201cChicken Dance,\u201d\nafter the parents have towed their shaky kids   \nlike cabooses ready to decouple\t\nand the pint-sized skaters have circled the rink \nlike a gang of meerkats spun into a 10-car pileup, \nyou turn sideways and angle by as \u201cAnother One Bites the Dust\u201d \nthumps overhead. You give a finger point to the DJ stand \n<span class=\"long-line\">because, in your mind, we are soldiers in the march against time,</span>\ngrooving to the retro beat while the disco ball shines overhead\ncut crystal against rainbow walls. \nYou glide like Mercury or Apollo Ono \nwithout wings or skin suit, in low-rider jeans \nthat hug your body like you hug corners, \npass them all on the smoothed-out parquet floor,\nworn down by time and rhythm. The trick is \nto make it look effortless, remind them that\nyour quickness is a kind of love. You are the spark \nbetween wood and wheel. And when your cranky kids \nhang out by the wall ready to go,\nholding those eight wheels by their brown leather tongues, \nyou give them a wave and keep circling, \n<em>Just one more song</em>, you say.   \nThis is your \u201cme\u201d time. It\u2019s all-skate. \nYou\u2019ve got your whole self in\u2014\n<em>That\u2019s what it\u2019s all about</em>.\n</pre>\n "}, {"title": "Hoodie", "view_node": "/poem/hoodie", "field_author": "<a href=\"/poet/january-gill-oneil\" hreflang=\"und\">January Gill O\u2019Neil</a>", "field_date_published": "2015", "body": "<p><span class=\"long-line\">A gray hoodie will not protect my son </span><br /><span class=\"long-line\">from rain, from the New England cold.</span></p>\n\n<p><span class=\"long-line\">I see the partial eclipse of his face</span><br /><span class=\"long-line\">as his head sinks into the half-dark</span></p>\n\n<p><span class=\"long-line\">and shades his eyes. Even in our </span><br /><span class=\"long-line\">quiet suburb with its unlocked doors, </span></p>\n\n<p><span class=\"long-line\">I fear for his safety\u2014the darkest child</span><br /><span class=\"long-line\">on our street in the empire of blocks.</span></p>\n\n<p><span class=\"long-line\">Sometimes I don\u2019t know who he is anymore </span><br /><span class=\"long-line\">traveling the back roads between boy and man.</span></p>\n\n<p><span class=\"long-line\">He strides a deep stride, pounds a basketball </span><br /><span class=\"long-line\">into wet pavement. Will he take his shot </span></p>\n\n<p><span class=\"long-line\">or is he waiting for the open-mouthed </span><br /><span class=\"long-line\">orange rim to take a chance on him? I sing </span></p>\n\n<p><span class=\"long-line\">his name to the night, ask for safe passage </span><br /><span class=\"long-line\">from this borrowed body into the next\u00a0\u00a0 </span></p>\n\n<p><span class=\"long-line\">and wonder who could mistake him </span><br /><span class=\"long-line\">for anything but good.</span></p>\n"}, {"title": " In the Company of Women", "view_node": "/poem/company-women", "field_author": "<a href=\"/poet/january-gill-oneil\" hreflang=\"und\">January Gill O\u2019Neil</a>", "field_date_published": "2014", "body": " <pre>Make me laugh over coffee,\nmake it a double, make it frothy\nso it seethes in our delight.\nMake my cup overflow\nwith your small happiness.\nI want to hoot and snort and cackle and chuckle.\nLet your laughter fill me like a bell.\nLet me listen to your ringing and singing\nas Billie Holiday croons above our heads.\nSorry, the blues are nowhere to be found.\nNot tonight. Not here.\nNo makeup. No tears.\nOnly contours. Only curves.\nEach sip takes back a pound,\neach dry-roasted swirl takes our soul.\nCan I have a refill, just one more?\nLet the bitterness sink to the bottom of our lives.\nLet us take this joy to go.\n</pre>\n "}, {"title": "The Blower of Leaves", "view_node": "/poem/blower-leaves", "field_author": "<a href=\"/poet/january-gill-oneil\" hreflang=\"und\">January Gill O\u2019Neil</a>", "field_date_published": "2014", "body": " <pre>Always there is sky after sky waiting to fall. \nA million brilliant ambers twisting into \n\nthe thinning October sun, flooding my eyes\nin a curtain of color. My yard is their landing strip. \n\nToday I bow to the power of negative space, \nthe beauty of what\u2019s missing\u2014the hard work \n\nof yard work made harder without you, \nwhile the stiff kiss of acorns puckers the ground.  \n\nI am a fool. Even as the red impatiens wither and brown, \nthey are still lovely. I feed the gaping mouths of lawn bags \n\nwith their remains. All this time I was waiting \nfor a heavy bough high above to crush us, \n\nbut really I was waiting for you to say <em>enough</em>. \nIt was a feeling that swirled inside me, \n\na dark congruence, a tempest of the blood pulsing <em>enough</em>, \n enough. How I had mistaken it for ordinary happiness. \n\nI can forgive the wind rustling the aging oaks, \nthe clusters of leaf mush trapped along the fence line, \n\nbut with you there is no forgiveness. \nOnly refuse. Only the lawn\u2019s dying clover\n\nand weeds masquerading as grass. \nNothing is ever easy or true,\n\nexcept the leaves. They all fall.\nDependable as a season. \n</pre>\n "}, {"title": "In Praise of Okra", "view_node": "/poem/praise-okra", "field_author": "<a href=\"/poet/january-gill-oneil\" hreflang=\"und\">January Gill O\u2019Neil</a>", "field_date_published": "2009", "body": "<p><span class=\"long-line\">No one believes in you</span><br /><span class=\"long-line\">like I do. I sit you down on the table</span><br /><span class=\"long-line\">&amp; they overlook you for</span><br /><span class=\"long-line\">fried chicken &amp; grits, </span><br /><span class=\"long-line\">crab cakes &amp; hush puppies, </span><br /><span class=\"long-line\">black-eyed peas &amp; succotash </span><br /><span class=\"long-line\">&amp; sweet potatoes &amp; watermelon.</span></p>\n\n<p><span class=\"long-line\">Your stringy, slippery texture</span><br /><span class=\"long-line\">reminds them of the creature</span><br /><span class=\"long-line\">from the movie <em>Aliens</em>.</span></p>\n\n<p><span class=\"long-line\">But I tell my friends if they don\u2019t like you</span><br /><span class=\"long-line\">they are cheating themselves; </span><br /><span class=\"long-line\">you were brought from Africa</span><br /><span class=\"long-line\">as seeds, hidden in the ears and hair</span><br /><span class=\"long-line\">of slaves.</span></p>\n\n<p><span class=\"long-line\">Nothing was wasted in our kitchens.</span><br /><span class=\"long-line\">We took the unused &amp; the throwaways</span><br /><span class=\"long-line\">&amp; made feasts; </span><br /><span class=\"long-line\">we taught our children</span><br /><span class=\"long-line\">how to survive, </span><br /><span class=\"long-line\">adapt.</span></p>\n\n<p><span class=\"long-line\">So I write this poem</span><br /><span class=\"long-line\">in praise of okra</span><br /><span class=\"long-line\">&amp; the cooks who understood</span><br /><span class=\"long-line\">how to make something out of nothing.</span><br /><span class=\"long-line\">Your fibrous skin</span><br /><span class=\"long-line\">melts in my mouth\u2014</span><br /><span class=\"long-line\">green flecks of flavor, </span><br /><span class=\"long-line\">still tough, unbruised, </span><br /><span class=\"long-line\">part of the fabric of earth.</span><br /><span class=\"long-line\">Soul food.</span></p>\n"}, {"title": "How to Make a Crab Cake", "view_node": "/poem/how-make-crab-cake", "field_author": "<a href=\"/poet/january-gill-oneil\" hreflang=\"und\">January Gill O\u2019Neil</a>", "field_date_published": "2009", "body": " <pre>Start with your own body,\nthe small bones of the hands\nmoving toward the inlets of the fingers.\n\nWanting it too much invites haste.\nYou must love what is raw\nand hungered for.\n\nThink of the crab cake as the ending,\nas you till away at the meat, digging for\nerrant shells and jagged edges.\n\nAlways, it\u2019s a matter of guesswork\nbut you hold it together\nby the simplest of ingredients,\n\nfor this is how the body learns to be generous,\nto forgive the flaws inherited\nand enjoy what lies ahead.\n\nYet you never quite know\nwhen it happens,\nthe moment when the lumps\n\ntranscend egg and breadcrumbs,\nthe quiver of oil in a hot pan,\nto become unworldly:\n\nthe manifold of pleasure\nwith the sweet ache of crab\nstill bright on your tongue.\n</pre>\n "}, {"title": "Tiananmen: The Aftermath", "view_node": "/poem/tiananmen-aftermath", "field_author": "<a href=\"/poet/marilyn-chin\" hreflang=\"und\">Marilyn Chin</a>", "field_date_published": "1994", "body": " <pre>There was blood and guts all over the road.\nI said I\u2019m sorry, darling, and rolled over,\nexpecting the slate to be clean; but she came,\nshe who was never alive became resurrected.\nI saw her in a dream\u2026a young girl in a <em>qipao</em>,\nBespectacled, forever lingering, thriving\non the other side of the world, walking in my soles\nas I walked, crying in my voice as I cried. When\nshe arrived, I felt my knuckles in her knock,\nher light looming over the city\u2019s great hollows.\n\nHope lies within another country\u2019s semaphores.\nThe Goddess of Liberty, the Statue of Mercy\u2014\nwe have it all wrong\u2014big boy, how we choose to love,\nhow we choose to destroy, says Zhuangzi, is written\nin heaven\u2014but leave the innocent ones alone,\nthose alive, yet stillborn, undead, yet waiting\nin a fitful sleep undeserved of an awakening.\n</pre>\n "}, {"title": "Autumn Leaves", "view_node": "/poem/autumn-leaves", "field_author": "<a href=\"/poet/marilyn-chin\" hreflang=\"und\">Marilyn Chin</a>", "field_date_published": "1994", "body": " <pre>The dead piled up, thick, fragrant, on the fire escape.\nMy mother ordered me again, and again, to sweep it clean.\n<em>All that blooms must fall</em>. I learned this not from the Dao,\n   but from high school biology.\n\nOh, the contradictions of having a broom and not a dustpan!\nI swept the leaves down, down through the iron grille\nand let the dead rain over the Wong family\u2019s patio.\n\nAnd it was Achilles Wong who completed the task.\n   We called her:\n<em>The one-who-cleared-away-another-family\u2019s-autumn</em>.\nShe blossomed, tall, benevolent, notwithstanding.\n</pre>\n "}, {"title": "The Barbarians Are Coming", "view_node": "/poem/barbarians-are-coming", "field_author": "<a href=\"/poet/marilyn-chin\" hreflang=\"und\">Marilyn Chin</a>", "field_date_published": "1994", "body": " <pre>War chariots thunder, horses neigh, <em>the barbarians are coming</em>.\n<span class=\"long-line\">What are we waiting for, young nubile women pointing at the wall,</span>\n   the barbarians are coming.\n<span class=\"long-line\">They have heard about a weakened link in the wall. </span><em><span class=\"long-line\">So, the barbarians</span>\n   have ears among us</em>.\n<span class=\"long-line\">So deceive yourself with illusions: you are only one woman, holding one</span>\n   broken brick in the wall.\n<span class=\"long-line\">So deceive yourself with illusions: as if you matter, that brick and that wall.</span>\n<span class=\"long-line\"><em>The barbarians are coming</em>: they have red beards or beardless with a top knot.</span>\n<span class=\"long-line\"><em>The barbarians are coming</em>: they are your fathers, brothers, teachers, lovers;</span>\n   and they are clearly an other.\n<em>The barbarians are coming</em>:\n            If you call me a horse, I must be a horse.\n            If you call me a bison, I am equally guilty.\n<span class=\"long-line\">\nWhen a thing is true and is correctly described, one doubles the blame by</span>\n   not admitting it: so, Zhuangzi, himself, was a barbarian king!\nHorse, horse, bison, bison, <em>the barbarians are coming</em>\u2014\nand how they love to come.\nThe smells of the great frontier exult in them.\n</pre>\n "}, {"title": "Turtle Soup", "view_node": "/poem/turtle-soup", "field_author": "<a href=\"/poet/marilyn-chin\" hreflang=\"und\">Marilyn Chin</a>", "field_date_published": "1994", "body": "<p><span class=\"long-line\">You go home one evening tired from work,</span><br /><span class=\"long-line\">and your mother boils you turtle soup.</span><br /><span class=\"long-line\">Twelve hours hunched over the hearth</span><br /><span class=\"long-line\">(who knows what else is in that cauldron.)</span></p>\n\n<p><span class=\"long-line\">You say, \u201cMa, you\u2019ve poached the symbol of long life;</span><br /><span class=\"long-line\">that turtle lived four thousand years, swam</span><br /><span class=\"long-line\">the Wei, up the Yellow, over the Yangtze.</span><br /><span class=\"long-line\">Witnessed the Bronze Age, the High Tang,</span><br /><span class=\"long-line\">grazed on splendid sericulture.\u201d</span><br /><span class=\"long-line\">(So, she boils the life out of him.)</span></p>\n\n<p><span class=\"long-line\">\u201cAll our ancestors have been fools.</span><br /><span class=\"long-line\">Remember Uncle Wu who rode ten thousand miles</span><br /><span class=\"long-line\">to kill a famous Manchu and ended up</span><br /><span class=\"long-line\">with his head on a pole? Eat, child,</span><br /><span class=\"long-line\">its liver will make you strong.\u201d</span></p>\n\n<p><span class=\"long-line\">\u201cSometimes you\u2019re the life, sometimes the sacrifice.\u201d</span><br /><span class=\"long-line\">Her sobbing is inconsolable.</span><br /><span class=\"long-line\">So, you spread the gentle napkin</span><br /><span class=\"long-line\">over your lap in decorous Pasadena.</span></p>\n\n<p><span class=\"long-line\">Baby, some high priestess got it wrong.</span><br /><span class=\"long-line\">The golden decal on the green underbelly</span><br /><span class=\"long-line\">says \u201cMade in Hong Kong.\u201d</span></p>\n\n<p><span class=\"long-line\">Is there nothing left but the shell</span><br /><span class=\"long-line\">and humanity\u2019s strange inscriptions,</span><br /><span class=\"long-line\">the songs, the rites, the oracles?</span></p>\n"}, {"title": "October Song", "view_node": "/poem/october-song", "field_author": "<a href=\"/poet/marilyn-chin\" hreflang=\"und\">Marilyn Chin</a>", "field_date_published": "2015", "body": " <pre>            <em>The prince speaks\n</em>\nLet me lower the curtains, my love\n   Our last night together is brief\nLet me straighten our wedding quilt\n   And warm it for you, my love\n\nLet me fold your nightgown, my love\n   Let me unfasten your hair\nLet me lift the veil from your face\n   To see my bride\u2019s last cry\n\nHeaven is our starry canopy, my love\n    Earth is our eternal bed\nLet us drift in our cold black railroad car\n   And wake to empire again\n</pre>\n "}, {"title": "Identity Poem (#99)", "view_node": "/poem/identity-poem-99", "field_author": "<a href=\"/poet/marilyn-chin\" hreflang=\"und\">Marilyn Chin</a>", "field_date_published": "2003", "body": " <pre>Are you the sky\u2014or the allegory for loneliness?\nAre you the only Chinese restaurant in Roseburg, Oregon?\nA half-breed war orphan\u2014adopted by proper Christians?\n\nA heathen poidog, a creamy half-and-half?\nAre you a dingy vinyl address book? A wrist\nWithout a corsage? Are you baby\u2019s breath\n\nFaced down on a teenage road in America?\nAre you earphones\u2014detached\nLeft dangling on an airplane jack to diaspora?\n\nAre you doomed to a childhood without music?\nWeary of your granny\u2019s one-string, woe-be-gone erhu\nMewling about the past\n\nAre you hate speech or are you a lullaby?\nAnecdotes requiring footnotes\nAn ethnic joke rehashed\n\nHow many Chinamen does it take\u2014to screw\nHow many Chinamen does it take\u2014to screw\nA lightbulb?\n\nAre you so poor that you cannot call your mother?\nYou have less than two dollars on your phone-card\nAnd it\u2019s a long cable to Nirvana\n\nAre you a skylight through which the busgirl sees heaven?\nA chopping block stained by the blood of ten thousand innocents\nWhich daily, the same busgirl must wipe off\n\nDoes existence preempt essence?\nI \u201cbeing\u201d what my ancestors were not\nSuddenly, you\u2019re a vegan vegetarian!\n\nRestaurant is a facticity and\nGetting the hell out\u2014is transcendence\nWas the punch line \u201cincandescent\u201d?\n\nWas a nosebleed your last tender memory of her?\nDid he say no dogs and Chinawomen?\nAre you a rose\u2014or a tattoo of fire?\n</pre>\n "}, {"title": "We Are Americans Now, We Live in the Tundra", "view_node": "/poem/we-are-americans-now-we-live-tundra", "field_author": "<a href=\"/poet/marilyn-chin\" hreflang=\"und\">Marilyn Chin</a>", "field_date_published": "1987", "body": " <pre>Today in hazy San Francisco, I face seaward\nToward China, a giant begonia\u2014\n\nPink, fragrant, bitten\nBy verdigris and insects. I sing her\n\nA blues song; even a Chinese girl gets the blues,\nHer reticence is black and blue.\n\nLet\u2019s sing about the extinct\nBengal tigers, about giant Pandas\u2014\n\n\u201cLing Ling loves Xing Xing\u2026yet,\nWe will not mate. We are\n\nNot impotent, we are important.\nWe blame the environment, we blame the zoo!\u201d\n\nWhat shall we plant for the future?\nBamboo, sassafras, coconut palms? No!\n\nLegumes, wheat, maize, old swine\nTo milk the new.\n\nWe are Americans now, we live in the tundra\nOf the logical, a sea of cities, a wood of cars.\n\nFarewell my ancestors:\nHirsute Taoists, failed scholars, farewell\n\nMy wetnurse who feared and loathed the Catholics,\nWho called out\n\n\u00a0 \u00a0 \u00a0 \u00a0 \u00a0 \u00a0\u00a0Now that half-men have occupied Canton\n\u00a0 \u00a0 \u00a0 \u00a0 \u00a0 \u00a0\u00a0Hide your daughters, lock your doors!\n</pre>\n "}, {"title": "Ode to Anger", "view_node": "/poem/ode-anger", "field_author": "<a href=\"/poet/marilyn-chin\" hreflang=\"und\">Marilyn Chin</a>", "field_date_published": "1987", "body": " <pre>Soak in a hot bath;\narrange my futuristic hair,\nthen, the futon &amp; the cushioned tatami.\nCut orchids, cut fruit.\nSet the table for plenty,\n(but there is only one of me).\nAnd here you come\u2014\na cricket\u2019s dance in the woods\u2014\nin a fog-colored zoot suit.\nYour eyes are red &amp; bleary.\nI am practicing <em>good purity</em>.\nI do not get angry.\n\nBut here comes my father with the tiger\u2019s claw.\nHe paces and frets; I get no rest.\nThe caged animal must be released.\n\nHere comes my mother with the serpent\u2019s touch.\nI know the <em>dim mak</em>: the touch of death,\nI know the softness of the temples,\nthe groin, the heart.\n\nHere come my sisters with the lizard\u2019s tongue\nto expel the secret in a moment\u2019s hiss.\nBut they are slow on their haunches.\nI shall strike first.\n\nThe weir-basket was a snare;\nthe fish within were dying.\nYou promised me fresh fish.\nYou promised unconditional love and providence.\n\nHere comes my brother with the ox\u2019s heart\nto explain the world in a plum\u2019s pit.\n<em>He is not your kind.\nYou don\u2019t understand his plight;\nnor does he your fomenting silence.\n</em>\nTiger\u2019s claw, serpent\u2019s touch, lizard\u2019s tongue, ox\u2019s heart.\nThe caged animal is released.\nI believe in the touch of life.\nI shall keep my secret always.\nAlthough you have lost your way,\nyou have never forsaken me.\nyou have been whole.\nyou have been good.\n</pre>\n "}, {"title": "The End of a Beginning", "view_node": "/poem/end-beginning", "field_author": "<a href=\"/poet/marilyn-chin\" hreflang=\"und\">Marilyn Chin</a>", "field_date_published": "1987", "body": " <pre>The beginning is always difficult.\nThe immigrant worked his knuckles to the bone\nonly to die under the wheels of the railroad.\nOne thousand years before him, his ancestor fell\nbuilding yet another annex to the Great Wall\u2014\nand was entombed within his work. And I,\nthe beginning of an end, the end of a beginning,\nsit here, drink unfermented green tea,\nscrawl these paltry lines for you. Grandfather,\non your one-hundredth birthday, I have\nthe answers to your last riddles:\n\nThis is why the baboon\u2019s ass is red.\nWhy horses lie down only in moments of disaster.\nWhy the hyena\u2019s back is forever scarred.\nWhy, that one hare who was saved, splits his upper lip,\nin a fit of hysterical laughter.\n</pre>\n "}, {"title": "Nondisabled Demands", "view_node": "/poem/nondisabled-demands", "field_author": "<a href=\"/poet/jillian-weise\" hreflang=\"und\">Jillian Weise</a>", "field_date_published": "2018", "body": "<p><span class=\"long-line\">It\u2019s not fair. You owe it to the reader.</span><br /><span class=\"long-line\">We\u2019re trying to help. We have an uncle</span><br /><span class=\"long-line\">with a disability and he always says</span></p>\n<p><span class=\"long-line\">exactly what it is. Take it from him.</span><br /><span class=\"long-line\">Take it from us. Take it from them.</span><br /><span class=\"long-line\">You can\u2019t expect people to read you</span></p>\n<p><span class=\"long-line\">if you don\u2019t come out and say it.</span><br /><span class=\"long-line\">Everyone knows the default mode</span><br /><span class=\"long-line\">of a poem is ten fingers, ten toes</span></p>\n<p><span class=\"long-line\">with sight and hearing and balance.</span><br /><span class=\"long-line\">When this is not true, it is incumbent</span><br /><span class=\"long-line\">on you to come out and say it.</span></p>\n<p><span class=\"long-line\">Here\u2019s what. We\u2019ll rope you</span><br /><span class=\"long-line\">to the podium and ask</span><br /><span class=\"long-line\">What do you have? What is it?</span></p>\n"}], "pager": {"current_page": 256, "total_items": "13248", "total_pages": 663, "items_per_page": 20}}