{"rows": [{"title": "The Descent of Alette [&quot;A car&quot; &quot;awash with blood&quot;] (audio only)", "view_node": "/poem/descent-alette-car-awash-blood-audio-only", "field_author": "<a href=\"/poet/alice-notley\" hreflang=\"und\">Alice Notley</a>", "field_date_published": "2007", "body": " <p>\u00a0</p><p>Click the icon above to listen to this audio poem.</p> "}, {"title": "The Bear", "view_node": "/poem/bear", "field_author": "<a href=\"/poet/galway-kinnell\" hreflang=\"und\">Galway Kinnell</a>", "field_date_published": "2000", "body": " <pre>\n1\n\nIn late winter\nI sometimes glimpse bits of steam\ncoming up from\nsome fault in the old snow\nand bend close and see it is lung-colored\nand put down my nose\nand know\nthe chilly, enduring odor of bear.\n\n\n2\n\nI take a wolf's rib and whittle\nit sharp at both ends\nand coil it up\nand freeze it in blubber and place it out\non the fairway of the bears.\n\nAnd when it has vanished\nI move out on the bear tracks,\nroaming in circles\nuntil I come to the first, tentative, dark\nsplash on the earth.\n\nAnd I set out\nrunning, following the splashes\nof blood wandering over the world.\nAt the cut, gashed resting places\nI stop and rest,\nat the crawl-marks\nwhere he lay out on his belly\nto overpass some stretch of bauchy ice\nI lie out\ndragging myself forward with bear-knives in my fists.\n\n\n3\n\nOn the third day I begin to starve,\nat nightfall I bend down as I knew I would\nat a turd sopped in blood,\nand hesitate, and pick it up,\nand thrust it in my mouth, and gnash it down,\nand rise\nand go on running.\n\n\n4\n\nOn the seventh day,\nliving by now on bear blood alone,\nI can see his upturned carcass far out ahead, a scraggled,\nsteamy hulk,\nthe heavy fur riffling in the wind.\n\nI come up to him\nand stare at the narrow-spaced, petty eyes,\nthe dismayed\nface laid back on the shoulder, the nostrils\nflared, catching\nperhaps the first taint of me as he\ndied.\n\nI hack\na ravine in his thigh, and eat and drink,\nand tear him down his whole length\nand open him and climb in\nand close him up after me, against the wind,\nand sleep.\n\n\n5\n\nAnd dream\nof lumbering flatfooted\nover the tundra,\nstabbed twice from within,\nsplattering a trail behind me,\nsplattering it out no matter which way I lurch,\nno matter which parabola of bear-transcendence,\nwhich dance of solitude I attempt,\nwhich gravity-clutched leap,\nwhich trudge, which groan.\n\n\n6\n\nUntil one day I totter and fall\u2014\nfall on this\nstomach that has tried so hard to keep up,\nto digest the blood as it leaked in,\nto break up\nand digest the bone itself: and now the breeze\nblows over me, blows off\nthe hideous belches of ill-digested bear blood\nand rotted stomach\nand the ordinary, wretched odor of bear,\n\nblows across\nmy sore, lolled tongue a song\nor screech, until I think I must rise up\nand dance. And I lie still.\n\n\n7\n\nI awaken I think. Marshlights\nreappear, geese\ncome trailing again up the flyway.\nIn her ravine under old snow the dam-bear\nlies, licking\nlumps of smeared fur\nand drizzly eyes into shapes\nwith her tongue. And one\nhairy-soled trudge stuck out before me,\nthe next groaned out,\nthe next,\nthe next,\nthe rest of my days I spend\nwandering: wondering\nwhat, anyway,\nwas that sticky infusion, that rank flavor of blood, that poetry, by which I lived?</pre>\n "}, {"title": "Saint Francis and the Sow", "view_node": "/poem/saint-francis-and-sow", "field_author": "<a href=\"/poet/galway-kinnell\" hreflang=\"und\">Galway Kinnell</a>", "field_date_published": "2000", "body": "<p><span class=\"long-line\">The bud</span><br /><span class=\"long-line\">stands for all things,</span><br /><span class=\"long-line\">even for those things that don't flower,</span><br /><span class=\"long-line\">for everything flowers, from within, of self-blessing;</span><br /><span class=\"long-line\">though sometimes it is necessary</span><br /><span class=\"long-line\">to reteach a thing its loveliness,</span><br /><span class=\"long-line\">to put a hand on its brow</span><br /><span class=\"long-line\">of the flower</span><br /><span class=\"long-line\">and retell it in words and in touch</span><br /><span class=\"long-line\">it is lovely</span><br /><span class=\"long-line\">until it flowers again from within, of self-blessing;</span><br /><span class=\"long-line\">as Saint Francis</span><br /><span class=\"long-line\">put his hand on the creased forehead</span><br /><span class=\"long-line\">of the sow, and told her in words and in touch</span><br /><span class=\"long-line\">blessings of earth on the sow, and the sow</span><br /><span class=\"long-line\">began remembering all down her thick length,</span><br /><span class=\"long-line\">from the earthen snout all the way</span><br /><span class=\"long-line\">through the fodder and slops to the spiritual curl of the tail,</span><br /><span class=\"long-line\">from the hard spininess spiked out from the spine</span><br /><span class=\"long-line\">down through the great broken heart</span><br /><span class=\"long-line\">to the sheer blue milken dreaminess spurting and shuddering</span><br /><span class=\"long-line\">from the fourteen teats into the fourteen mouths sucking and blowing beneath them:</span><br /><span class=\"long-line\">the long, perfect loveliness of sow.</span></p>\n"}, {"title": "Hematite Heirloom Lives On (Maybe December 1980) (audio only)", "view_node": "/poem/hematite-heirloom-lives-maybe-december-1980-audio-only", "field_author": "<a href=\"/poet/alice-notley\" hreflang=\"und\">Alice Notley</a>", "field_date_published": "2007", "body": " <p>\u00a0</p><p>Click the icon above to listen to this audio poem.</p> "}, {"title": "A Season in Hell", "view_node": "/poem/season-hell", "field_author": "<a href=\"/poet/arthur-rimbaud\" hreflang=\"und\">Arthur Rimbaud</a>", "field_date_published": "1991", "body": " <p>A while back, if I remember right, my life was one long party where all hearts were open wide, where all wines kept flowing.</p><p>One night, I sat Beauty down on my lap.\u2014And I found her galling.\u2014And I roughed her up.</p><p>I armed myself against justice.</p><p>I ran away. O witches, O misery, O hatred, my treasure's been turned over to you!</p><p>I managed to make every trace of human hope vanish from my mind. I pounced on every joy like a ferocious animal eager to strangle it.</p><p>I called for executioners so that, while dying, I could bite the butts of their rifles. I called for plagues to choke me with sand, with blood. Bad luck was my god. I stretched out in the muck. I dried myself in the air of crime. And I played tricks on insanity.</p><p>And Spring brought me the frightening laugh of the idiot.</p><p>So, just recently, when I found myself on the brink of the final <i>squawk!</i> it dawned on me to look again for the key to that ancient party where I might find my appetite once more.</p><p>Charity is that key.\u2014This inspiration proves I was dreaming!</p><p>\"You'll always be a hyena etc. . . ,\" yells the devil, who'd crowned me with such pretty poppies. \"Deserve death with all your appetites, your selfishness, and all the capital sins!\"</p><p>Ah! I've been through too much:-But, sweet Satan, I beg of you, a less blazing eye! and while waiting for the new little cowardly gestures yet to come, since you like an absence of descriptive or didactic skills in a writer, let me rip out these few ghastly pages from my notebook of the damned.</p> "}, {"title": "Hellish Night", "view_node": "/poem/hellish-night", "field_author": "<a href=\"/poet/arthur-rimbaud\" hreflang=\"und\">Arthur Rimbaud</a>", "field_date_published": "1991", "body": " <p>I've swallowed a terrific mouthful of poison.\u2014Blessings three times over on the impulse that came to me!\u2014My guts are on fire. The poison's violence twists my limbs, deforms me, knocks me down. I'm dying of thirst, I'm choking, I can't scream. It's hell, endless pain! Look how the fire flashes up! I'm burning nicely. Go on, demon!</p><p>I'd caught a glimpse of conversion to goodness and happiness, salvation. Can I describe the vision? Hell's atmosphere won't suffer hymns! There were millions of charming people, a sweet spiritual concert, strength and peace, noble ambitions, who knows?</p><p>Noble ambitions!</p><p>And this is still life!\u2014 What if damnation's everlasting! A man who wants to mutilate himself is pretty well damned, right? I think I'm in hell, therefore I am. It's the catechism come true. I'm the slave of my baptism. Parents, you've created my tortures and yours.\u2014Poor nitwit! Hell can't wield power over pagans.\u2014 This is still life! Later on, the delights of damnation will be much deeper. A crime, quick, so I can plunge into nothingness in accordance with human law.</p><p>Shut up, will you shut up. .. ! There's disgrace and reproaches here\u2014Satan who says the fire's contemptible, who says my temper's desperately silly.\u2014 Enough. .. ! Errors they're whispering to me, magic, misleading perfumes, childish music.\u2014And to think I'm dealing in truth, I'm looking at justice: my reasoning powers are sane and sound, I'm ready for perfection. .. Pride.\u2014My scalp is drying up. Help! Lord, I'm scared. I'm thirsty, so thirsty! O childhood, the grass, the rain, the lake water on stones, <i>the moonlight when the hell struck twelve</i>. . . . The devil's in the tower right now. Mary! Holy Virgin. . . !\u2014 Loathing for my blunder.</p><p>Out there, aren't those virtuous souls who are wishing me well. . . ? Come.. .. I've got a pillow over my mouth, they won't hear me, they're ghosts. Besides, no one ever thinks of others. Don't come near me. I smell of heresy, that's for sure.</p><p>No end to these hallucinations. It's exactly what I've always known: no more faith in history, principles forgotten. I'll keep quiet: poets and visionaries would be jealous. I'm a thousand times richer, let's be miserly like the sea.</p><p>Well now! the clock of life stopped a few minutes ago. I'm not in the world any more.\u2014 Theology's a serious thing, hell is certainly <i>way down</i>\u2014and heaven's above.\u2014Ecstasy, nightmare, sleep in a nest of flames.</p><p>How malicious one's outlook in the country. . . Satan\u2014Old Scratch\u2014\u2014goes running around with the wild grain. . . Jesus is walking on the blackberry bushes without bending them. .. Jesus used to walk on troubled waters. The lantern revealed him to us, standing, pale with long brownish hair, on the crest of an emerald wave. . . .</p><p>I'm going to unveil all the mysteries: religious mysteries or natural, death, birth, future, past, cosmogony, nothingness. I'm a master of hal\u2014 lucinations.</p><p>Listen...!</p><p>I've got all the talents!\u2014 There's no one here and there's someone: I wouldn't want to waste my treasure.\u2014Do you want nigger songs, houri dances? Do you want me to disappear, to dive down for the <i>ring</i>? Do you want that? I'm going to make gold. . . remedies.</p><p>Then have faith in me, faith is soothing, it guides, it cures. Come, all of you\u2014even the little children\u2014and I'll comfort you, I'll spill out my heart for you,\u2014the marvelous heart!\u2014Poor men, workers! I don't ask for your prayers. With your trust alone, I'll be happy.</p><p>\u2014And what about me? All of this doesn't make me miss the world much. I'm lucky not to suffer more. My life was nothing but lovely mistakes, it's too bad.</p><p>Bah! let's make every possible ugly face.</p><p>We're out of the world, for sure. Not even a sound. My touch has disappeared. Ah, my castle, my Saxony, my willow woods. Evenings, mornings, nights, days. . . I'm worn out!</p><p>I should have my hell for anger, my hell for conceit\u2014and the hell of caresses: a concert of hells.</p><p>I'm dying of tiredness. It's the grave, horror of horrors, I'm going to the worms! Satan, you joker, you want to melt me down with your charms. I demand it, I demand it! a poke of the pitchfork, a drop of fire. Ah, to come back to life again! To feast my eyes on our deformities.</p><p>And that poison, that kiss a thousand times damned! My weakness, the world's cruelty! My God, mercy, hide me, I always misbehave!\u2014I'm hidden and then again I'm not.</p><p>It's the fire flaring up again with its damned!</p> "}, {"title": "Letter [Persephone to Demeter]", "view_node": "/poem/letter-persephone-demeter", "field_author": "<a href=\"/poet/rachel-zucker\" hreflang=\"und\">Rachel Zucker</a>", "field_date_published": "2003", "body": " <pre>\nAt home, the bells were a high light-yellow\nwith no silver or gray just buttercup or sugar-and-lemon.\n\nHere bodies are lined in blue against the sea.\nAnd where red is red there is only red.\n\nI have to be blue to bathe in the sea.\nRed, to live in the red room with red air\n\nto rest my head, red cheek down, on the red table.\n\nAbove, it was so green: brown, yellow, white, green.\nMy longing for red furious, sexual.\n\nThere things were alive but nothing moved.\nNow I live near the sea in a place which has no blue and is not the sea.\n\nGulls flock, leeward then tangent\nand pigeons bully them off the ground.\n\nHardly alive, almost blind-a hot geometry casts off\nevery color of the world. Everything moves, nothing alive.\n\nIn the red room there is a sky which is painted over in red\nbut is not red and was, once, the sky.\n\nThis is how I live.\n\nA red table in a red room filled with air.\nA woman, edged in blue, bathing in the blue sea.\n\nThe surface like the pale, scaled skin of fish\nfar below or above or away\u2014</pre>\n<p>\u00a0</p> "}, {"title": "Canto XIV", "view_node": "/poem/canto-xiv", "field_author": "<a href=\"/poet/ezra-pound\" hreflang=\"und\">Ezra Pound</a>", "field_date_published": "1934", "body": " <pre>\nIo venni in luogo d'ogni luce muto;\nThe stench of wet coal, politicians\n. . . . . . . . . . e and. . . . . n, their wrists bound to\n    their ankles,\nStanding bare bum,\nFaces smeared on their rumps,\n    wide eye on flat buttock,\nBush hanging for beard,\n    Addressing crowds through their arse-holes,\nAddressing the multitudes in the ooze,\n    newts, water-slugs, water-maggots,\nAnd with them. . . . . . . r,\n    a scrupulously clean table-napkin\nTucked under his penis,\n    and. . . . . . . . . . . m\nWho disliked colioquial language,\nstiff-starched, but soiled, collars\n    circumscribing his legs,\nThe pimply and hairy skin\n    pushing over the collar's edge,\nProfiteers drinking blood sweetened with sh-t,\nAnd behind them. . . . . . f and the financiers\n    lashing them with steel wires.\n\nAnd the betrayers of language\n    . . . . . . n and the press gang\nAnd those who had lied for hire;\nthe perverts, the perverters of language,\n    the perverts, who have set money-lust\nBefore the pleasures of the senses;\n\nhowling, as of a hen-yard in a printing-house,\n    the clatter of presses,\nthe blowing of dry dust and stray paper,\nfretor, sweat, the stench of stale oranges,\ndung, last cess-pool of the universe,\nmysterium, acid of sulphur,\nthe pusillanimous, raging;\nplunging jewels in mud,\n    and howling to find them unstained;\nsadic mothers driving their daughters to bed with decrepitude,\nsows eating their litters,\nand here the placard \u0395\u0399\u039a\u03a9\u039d \u0393\u0397\u03a3,\n    and here: THE PERSONNEL CHANGES,\n\nmelting like dirty wax,\n    decayed candles, the bums sinking lower,\nfaces submerged under hams,\nAnd in the ooze under them,\nreversed, foot-palm to foot-palm,\n    hand-palm to hand-palm, the agents provocateurs\nThe murderers of Pearse and MacDonagh,\n    Captain H. the chief torturer;\nThe petrified turd that was Verres,\n    bigots, Calvin and St. Clement of Alexandria!\nblack-beetles, burrowing into the sh-t,\nThe soil a decrepitude, the ooze full of morsels,\nlost contours, erosions.\n\n    Above the hell-rot\nthe great arse-hole,\n    broken with piles,\nhanging stalactites,\n    greasy as sky over Westminster,\nthe invisible, many English,\n    the place lacking in interest,\nlast squalor, utter decrepitude,\nthe vice-crusaders, fahrting through silk,\n    waving the Christian symbols,\n. . . . . . . . frigging a tin penny whistle,\nFlies carrying news, harpies dripping sh-t through the air.\n\nThe slough of unamiable liars,\n    bog of stupidities,\nmalevolent stupidities, and stupidities,\nthe soil living pus, full of vermin,\ndead maggots begetting live maggots,\n    slum owners,\nusurers squeezing crab-lice, pandars to authori\npets-de-loup, sitting on piles of stone books,\nobscuring the texts with philology,\n    hiding them under their persons,\nthe air without refuge of silence,\n    the drift of lice, teething,\nand above it the mouthing of orators,\n    the arse-belching of preachers.\n    And Invidia,\nthe corruptio, fretor, fungus,\nliquid animals, melted ossifications,\nslow rot, fretid combustion,\n    chewed cigar-butts, without dignity, without tragedy\n. . . . .m Episcopus, waving a condom full of black-beetles,\nmonopolists, obstructors of knowledge.\n    obstructors of distribution.</pre>\n "}, {"title": "The Old Man at the Wheel (audio only)", "view_node": "/poem/old-man-wheel-audio-only", "field_author": "<a href=\"/poet/frank-bidart\" hreflang=\"und\">Frank Bidart</a>", "field_date_published": "2007", "body": " <p>\u00a0</p><p>Click the icon above to listen to this audio poem.</p> "}, {"title": "Reunion 2005 (audio only)", "view_node": "/poem/reunion-2005-audio-only", "field_author": "<a href=\"/poet/rita-dove\" hreflang=\"und\">Rita Dove</a>", "field_date_published": "2007", "body": " <p>\u00a0</p><p>Click the icon above to listen to this audio poem.</p> "}, {"title": "First Things at the Last Minute (audio only)", "view_node": "/poem/first-things-last-minute-audio-only", "field_author": "<a href=\"/poet/robert-hass\" hreflang=\"und\">Robert Hass</a>", "field_date_published": "2007", "body": " <p>\u00a0</p><p>Click the icon above to listen to this audio poem.</p> "}, {"title": "The Future (audio only)", "view_node": "/poem/future-audio-only", "field_author": "<a href=\"/poet/lyn-hejinian\" hreflang=\"und\">Lyn Hejinian</a>", "field_date_published": "2007", "body": " <p>\u00a0</p><p>Click the icon above to listen to this audio poem.</p> "}, {"title": "Neverland (audio only)", "view_node": "/poem/neverland-audio-only", "field_author": "<a href=\"/poet/galway-kinnell\" hreflang=\"und\">Galway Kinnell</a>", "field_date_published": "2007", "body": " <p>\u00a0</p><p>Click the icon above to listen to this audio poem.</p> "}, {"title": "Mairsy and Dosey (audio only)", "view_node": "/poem/mairsy-and-dosey-audio-only", "field_author": "<a href=\"/poet/sharon-olds\" hreflang=\"und\">Sharon Olds</a>", "field_date_published": "2007", "body": " <p>\u00a0</p><p>Click the icon above to listen to this audio poem.</p> "}, {"title": "Cloud Country (audio only)", "view_node": "/poem/cloud-country-audio-only", "field_author": "<a href=\"/poet/carl-phillips\" hreflang=\"und\">Carl Phillips</a>", "field_date_published": "2007", "body": " <p>\u00a0</p><p>Click the icon above to listen to this audio poem.</p> "}, {"title": "Poem in Disconnected Parts (audio only)", "view_node": "/poem/poem-disconnected-parts-audio-only", "field_author": "<a href=\"/poet/robert-pinsky\" hreflang=\"und\">Robert Pinsky</a>", "field_date_published": "2007", "body": " <p>\u00a0</p><p>Click the icon above to listen to this audio poem.</p> "}, {"title": "The Edges of Time (audio only)", "view_node": "/poem/edges-time-audio-only", "field_author": "<a href=\"/poet/kay-ryan\" hreflang=\"und\">Kay Ryan</a>", "field_date_published": "2007", "body": " <p>\u00a0</p><p>Click the icon above to listen to this audio poem.</p> "}, {"title": "Death by Wind (audio only)", "view_node": "/poem/death-wind-audio-only", "field_author": "<a href=\"/poet/gerald-stern\" hreflang=\"und\">Gerald Stern</a>", "field_date_published": "2007", "body": " <p>\u00a0</p><p>Click the icon above to listen to this audio poem.</p> "}, {"title": "The Lost Colony (audio only)", "view_node": "/poem/lost-colony-audio-only", "field_author": "<a href=\"/poet/susan-stewart\" hreflang=\"und\">Susan Stewart</a>", "field_date_published": "2007", "body": " <p>\u00a0</p><p>Click the icon above to listen to this audio poem.</p> "}, {"title": "Father&#039;s Day", "view_node": "/poem/fathers-day", "field_author": "<a href=\"/poet/james-tate\" hreflang=\"und\">James Tate</a>", "field_date_published": "2008", "body": " <pre>\n     My daughter has lived overseas for a number\nof years now. She married into royalty, and they\nwon't let her communicate with any of her family or\nfriends. She lives on birdseed and a few sips\nof water. She dreams of me constantly. Her husband,\nthe Prince, whips her when he catches her dreaming.\nFierce guard dogs won't let her out of their sight.\nI hired a detective, but he was killed trying to\nrescue her. I have written hundreds of letters\nto the State Department. They have written back\nsaying that they are aware of the situation. I\nnever saw her dance. I was always at some\nconvention. I never saw her sing. I was always\nworking late. I called her My Princess, to make\nup for my shortcomings, and she never forgave me.\nBirdseed was her middle name.</pre>\n "}], "pager": {"current_page": 548, "total_items": "13248", "total_pages": 663, "items_per_page": 20}}