{"rows": [{"title": "understory (week 35)", "view_node": "/poem/understory-week-35", "field_author": "<a href=\"/poet/craig-santos-perez\" hreflang=\"und\">Craig Santos Perez</a>", "field_date_published": "2014", "body": " <div>\u201cshe\u2019s kicking\u201d</div><div><span style=\"line-height: 1.538em;\">n\u0101lani says\u00a0</span></div><div>\u00a0</div><div>holds my</div><div><span style=\"line-height: 1.538em;\">hands against</span></div><div>\u00a0</div><div>her belly\u00a0</div><div><span style=\"line-height: 1.538em;\">so warm!\u00a0</span></div><div>\u00a0</div><div>chicken broth</div><div><span style=\"line-height: 1.538em;\">boils in</span></div><div>\u00a0</div><div>the crockpot</div><div><span style=\"line-height: 1.538em;\">bones turn</span></div><div>\u00a0</div><div>in briny\u00a0</div><div><span style=\"line-height: 1.538em;\">liquid\u2014baby</span></div><div>\u00a0</div><div>kicks again</div><div><span style=\"line-height: 1.538em;\">can she</span></div><div>\u00a0</div><div>feel my</div><div><span style=\"line-height: 1.538em;\">body heat?\u00a0</span></div><div>\u00a0</div><div>magma rises</div><div><span style=\"line-height: 1.538em;\">water into</span></div><div>\u00a0</div><div>steam\u2014K\u012blauea\u00a0</div><div><span style=\"line-height: 1.538em;\">drill, turbine</span></div><div>\u00a0</div><div>Mauna Loa</div><div><span style=\"line-height: 1.538em;\">grid, undersea</span></div><div>\u00a0</div><div>cables\u2014is</div><div><span style=\"line-height: 1.538em;\">geothermal safe?\u00a0</span></div><div>\u00a0</div><div>baby\u2019s so\u00a0</div><div><span style=\"line-height: 1.538em;\">active tonight\u00a0</span></div><div>\u00a0</div><div>n\u0101lani presses</div><div><span style=\"line-height: 1.538em;\">my palms</span></div><div>\u00a0</div><div>deeper into</div><div><span style=\"line-height: 1.538em;\">this skin</span></div><div>\u00a0</div><div>drum e</div><div><span style=\"line-height: 1.538em;\">Pele e</span></div> "}, {"title": "Epiphenomenon", "view_node": "/poem/epiphenomenon", "field_author": "<a href=\"/poet/karen-skolfield\" hreflang=\"en\">Karen Skolfield</a>", "field_date_published": "2014", "body": " <div>I spend a long time considering pillowcases.</div><div><span style=\"line-height: 1.538em;\">Which pillowcase does my head want for rest?\u00a0</span></div><div><span style=\"line-height: 1.538em;\">A lace edge so that the cheek does not grow bored?\u00a0</span></div><div>\u00a0</div><div><span style=\"line-height: 1.538em;\">All night the face turns on its pillow,\u00a0</span></div><div><span style=\"line-height: 1.538em;\">bridging the day gone with its divination of tomorrow.\u00a0</span></div><div><span style=\"line-height: 1.538em;\">The brain sleeps but the body twitches and kicks,\u00a0</span></div><div>\u00a0</div><div><span style=\"line-height: 1.538em;\">lashes out, steals the sheets, twists the blankets\u00a0</span></div><div><span style=\"line-height: 1.538em;\">into thick, furred knots. Thomas Huxley believed\u00a0</span></div><div><span style=\"line-height: 1.538em;\">the mind\u2019s shrill whistle contributed nothing\u00a0</span></div><div>\u00a0</div><div><span style=\"line-height: 1.538em;\">to the locomotive body; Plato, that the mind\u00a0</span></div><div><span style=\"line-height: 1.538em;\">knows great truths while the body lives in shadows.</span></div><div><span style=\"line-height: 1.538em;\">What I know is how sleep releases the body\u00a0</span></div><div>\u00a0</div><div><span style=\"line-height: 1.538em;\">from me telling it where to put its feet, its fingers,\u00a0</span></div><div><span style=\"line-height: 1.538em;\">how the tongue should roll its Rs, when the teeth\u00a0</span></div><div><span style=\"line-height: 1.538em;\">may bite or gnash. I give it my consideration\u00a0</span></div><div>\u00a0</div><div><span style=\"line-height: 1.538em;\">of pillowcases, of lotions and textures it may like,\u00a0</span></div><div><span style=\"line-height: 1.538em;\">or farther afield\u2014an actual field\u2014clover against\u00a0</span></div><div><span style=\"line-height: 1.538em;\">the skin. The sound of insects rising as the sun sets,\u00a0</span></div><div>\u00a0</div><div><span style=\"line-height: 1.538em;\">the head leaned back into a cradle of hands,\u00a0</span></div><div><span style=\"line-height: 1.538em;\">how the head adores the hands though they\u00a0</span></div><div><span style=\"line-height: 1.538em;\">are separated by so much and the jealousy of arms.\u00a0</span></div><div>\u00a0</div><div><span style=\"line-height: 1.538em;\">Body, I will lay you down beside\u00a0</span></div><div><span style=\"line-height: 1.538em;\">another body you have grown to love.\u00a0</span></div><div><span style=\"line-height: 1.538em;\">I will bid you still in the moments before sleep\u00a0</span></div><div>\u00a0</div><div><span style=\"line-height: 1.538em;\">and then I will hand you the keys to the house\u00a0</span></div><div><span style=\"line-height: 1.538em;\">and let you spend the night plying all the locks.\u00a0</span></div><div><span style=\"line-height: 1.538em;\">In the morning I will wash you with care\u00a0</span></div><div>\u00a0</div><div><span style=\"line-height: 1.538em;\">and lead you around and treat you kindly\u00a0</span></div><div><span style=\"line-height: 1.538em;\">and if there is sobbing it is not my sobbing\u00a0</span></div><div><span style=\"line-height: 1.538em;\">and we will both pretend not to hear it.</span></div> "}, {"title": "Compensation", "view_node": "/poem/compensation", "field_author": "<a href=\"/poet/paul-laurence-dunbar\" hreflang=\"und\">Paul Laurence Dunbar</a>", "field_date_published": "1905", "body": "<p>Because I had loved so deeply,<br /><span style=\"line-height: 1.538em;\">Because I had loved so long,</span><br /><span style=\"line-height: 1.538em;\">God in His great compassion</span><br /><span style=\"line-height: 1.538em;\">Gave me the gift of song.</span></p>\n\n<p>Because I have loved so vainly,<br /><span style=\"line-height: 1.538em;\">And sung with such faltering breath,</span><br /><span style=\"line-height: 1.538em;\">The Master in infinite mercy</span><br /><span style=\"line-height: 1.538em;\">Offers the boon of Death.</span></p>\n"}, {"title": "The Answer", "view_node": "/poem/answer", "field_author": "<a href=\"/poet/sara-teasdale\" hreflang=\"und\">Sara Teasdale</a>", "field_date_published": "1915", "body": " <p>When I go back to earth<br /><span style=\"line-height: 1.538em;\">And all my joyous body</span><br /><span style=\"line-height: 1.538em;\">Puts off the red and white</span><br /><span style=\"line-height: 1.538em;\">That once had been so proud,</span><br /><br /><span style=\"line-height: 1.538em;\">If men should pass above</span><br /><span style=\"line-height: 1.538em;\">With false and feeble pity,</span><br /><span style=\"line-height: 1.538em;\">My dust will find a voice</span><br /><span style=\"line-height: 1.538em;\">To answer them aloud:</span><br /><span style=\"line-height: 1.538em;\">\u201cBe still, I am content,</span><br /><br /><span style=\"line-height: 1.538em;\">Take back your poor compassion,</span><br /><span style=\"line-height: 1.538em;\">Joy was a flame in me</span><br /><span style=\"line-height: 1.538em;\">Too steady to destroy;</span><br /><span style=\"line-height: 1.538em;\">Lithe as a bending reed</span><br /><span style=\"line-height: 1.538em;\">Loving the storm that sways her\u2014</span><br /><br /><span style=\"line-height: 1.538em;\">I found more joy in sorrow</span><br /><span style=\"line-height: 1.538em;\">Than you could find in joy.\u201d</span></p> "}, {"title": "Appellate Jurisdiction", "view_node": "/poem/appellate-jurisdiction", "field_author": "<a href=\"/poet/marianne-moore\" hreflang=\"und\">Marianne Moore</a>", "field_date_published": "1915", "body": " <p>Fragments of sin are a part of me.<br />New brooms shall sweep clean the heart of me.<br />\u00a0 \u00a0 \u00a0 Shall they? Shall they?<br /><br />When this light life shall have passed away,<br />God shall redeem me, a castaway.<br />\u00a0 \u00a0 \u00a0 Shall He? Shall He?</p> "}, {"title": "Juan Higera Creek", "view_node": "/poem/juan-higera-creek", "field_author": "<a href=\"/poet/robinson-jeffers\" hreflang=\"und\">Robinson Jeffers</a>", "field_date_published": "1916", "body": " <p>Neither your face, Higera, nor your deeds<br />Are known to me; and death these many years<br />Retains you, under grass or forest-mould.<br />Only a rivulet bears your name: it runs<br />Deep-hidden in undeciduous redwood shade<br />And trunks by age made holy, streaming down<br />A valley of the Santa Lucian hills.<br />There have I stopped, and though the unclouded sun<br />Flew high in loftiest heaven, no dapple of light<br />Flecked the large trunks below the leaves intense,<br />Nor flickered on your creek: murmuring it sought<br />The River of the South, which oceanward<br />Would sweep it down. I drank sweet water there,<br />And blessed your immortality. Not bronze,<br />Higera, nor yet marble cool the thirst;<br />Let bronze and marble of the rich and proud<br />Secure the names; your monument will last<br />Longer, of living water forest-pure.</p> "}, {"title": "The Wall Hanging I Never Noticed", "view_node": "/poem/wall-hanging-i-never-noticed", "field_author": "<a href=\"/poet/dorothea-lasky\" hreflang=\"und\">Dorothea Lasky</a>", "field_date_published": "2014", "body": " <p>I never noticed before<br />How the red flowers hang from the blue branches<br />I never noticed before the light in this room<br />I never noticed the way the air is cool again<br />I never noticed anything but you<br />But you but you<br />So that I couldn\u2019t sleep<br />I never noticed what was anything but you<br />Until I noticed you<br />And could not help it<br />Until I noticed you I could not help it<br />Until you made the red flowers alive again<br />Until the blue branches<br />The lemons you loved, but also the way you loved me, too<br />Until all of this I never noticed you<br />But once I did<br />I never minded noticing<br />I never stopped noticing<br />Until I noticed you<br />I never stopped noticing<br />Until you, I never stopped</p> "}, {"title": "remembering; and with the aid of; ventilation; and production; the poem", "view_node": "/poem/remembering-and-aid-ventilation-and-production-poem", "field_author": "<a href=\"/poet/christian-hawkey\" hreflang=\"und\">Christian Hawkey</a>", "field_date_published": "2014", "body": " <p>must balance; this risk; a tablet; peak plasma; the first alphabet;<br />with the clinical need; finger-sized; it makes sense; the fingers;<br />were the first; to make sense; this risk; 31 letters; the flower-visiting species;<br />as opposed to; dung-feeding; the terminal phase; and the;<br />distribution phase; never; in my life; the relationship; logarithmic;<br />propriate or; propion; to make sense; this risk; and the;<br />as opposed to; had i imagined; that\u2019s business; he was as soft as;<br />bill nodded; his neck trembling; a tablet; peak plasma; 31 letters;<br />throwing my body; the flower-visiting species; with the clinical need;<br />in front of; and with the aid of; that's business; the distribution phase;<br />and the; on-coming; volunteers; reflected; in the moment of; the fingers<br />the first alphabet; peak plasma; bill nodded; pooled analyses; in my life;<br />this risk; the fingers; reappropriated; his neck trembling; numb</p><p><img alt=\"\" src=\"/sites/default/files/images/poems/Screen%20Shot%202014-07-20%20at%202.54.46%20AM.png\" style=\"float: right;\" /></p> "}, {"title": "Suffering the Unattainable", "view_node": "/poem/suffering-unattainable", "field_author": "<a href=\"/poet/david-dodd-lee\" hreflang=\"und\">David Dodd Lee</a>", "field_date_published": "2014", "body": " <p>Large sea turtles and some whales<br />will outlive us, water a manifestation of wind in<br /><br />\u00a0 \u00a0another dimension.<br />I had to use the shovel to hack at the wood, had to grab<br /><br />a hatchet, down deep in the hole. The oak pitched around<br />like a ship\u2019s mast, or I was no longer alive; perhaps I was yet<br /><br />\u00a0 \u00a0 to be<br />all over again, though I kept recalling your name. The verdurous roots.</p> "}, {"title": "from \u201cThe Tatters\u201d", "view_node": "/poem/tatters", "field_author": "<a href=\"/poet/brenda-coultas\" hreflang=\"und\">Brenda Coultas</a>", "field_date_published": "2014", "body": " <p>I can get at the drawings or language of making things: instruction manuals for building fires or cookbooks for explosives or poisons. I have found out why we stand tall and who the commanders of the great ships are. I have learned the story of the microscope and of birds which dress in blue and purple, of how to read a sea shell. I have read of Monsters of the Land and Sky, from the crumbles of a 19th century text. I commit to memory views from penny postcards of sights I\u2019ve never seen and actions I never witnessed; like the great swans of Long Island in the wild, or the skyline of Manhattan as seen from the deck of a paddlewheel steamer. I am impressed by cancelled postcards from the plains of a sod house or from a museum of corn.</p> "}, {"title": "Ithaca", "view_node": "/poem/ithaca", "field_author": "<a href=\"/poet/ira-sadoff\" hreflang=\"und\">Ira Sadoff</a>", "field_date_published": "2014", "body": " <p>I\u2019ve been blessed<br />with a few gusts of wind,<br />a few loves<br />to wave goodbye to.<br />I still think of mother\u2019s kitchen,<br />sorry for tantrums<br />of way back when. No frost<br />lodged in me then. In those days<br />snow spread through town<br />like an epidemic: how archival<br />the blankness seemed.<br />If you flew above<br />the shell of the old house<br />it was nothing really:<br />there was no story<br />to our little ranch house,<br />so you couldn\u2019t hear a thing.</p> "}, {"title": "To D. B. (audio only)", "view_node": "/poem/d-b-audio-only", "field_author": "<a href=\"/poet/edward-hirsch\" hreflang=\"und\">Edward Hirsch</a>", "field_date_published": "2014", "body": " <p>\u00a0</p><p>Click the icon above to listen to this audio poem.</p> "}, {"title": "Slowly in Prayer", "view_node": "/poem/slowly-prayer", "field_author": "<a href=\"/poet/matthew-lippman\" hreflang=\"und\">Matthew Lippman</a>", "field_date_published": "2014", "body": "<p>To be thankful for the Starbucks lady, Lucy,<br />\nwho is pissed at me for asking too many questions<br />\nabout my damn phone app<br />\nis one thing.<br />\nTo be thankful for my wife plastering my face to the bathroom floor<br />\nwith pancake batter<br />\nfor missing the bus<br />\nis another thing.<br />\nI tried to be thankful for my eyes this morning<br />\neven though one of them is filled with pus<br />\nand the other with marigold juice.<br />\nMarigold juice is the stuff that comes from the flower<br />\nwhen you put it between your palms and rub, slowly in prayer,<br />\neven though nothing comes out.<br />\nIt\u2019s the imagined juice of God,<br />\nthe thing you can\u2019t see when you are not being thankful.<br />\nI try to be thankful for the lack of energy that is my laziness<br />\nand my lonely best friend with no wife and children<br />\nknowing I am as lonely as he<br />\nwith one wife and two daughters.<br />\nSometimes we travel five minutes to the pier in Red Hook<br />\nand it takes hours in our loneliness to know, in our thankfulness,<br />\nthat if we held hands it\u2019d be a quiet romance for the ages.<br />\nI\u2019ll admit, I\u2019m thankful for Justin Timberlake<br />\nbecause he\u2019s better than Beethoven<br />\nand my friend Aaron<br />\nwho lived in the woods with an axe and never used it once.<br />\nI try hard to forget love,<br />\nto abandon love,<br />\nso that one day I will actually be able to love.<br />\nUntil then, I am thankful that Lucy wanted to spit in my coffee,<br />\nor imagined that she did,<br />\nand thanked her profusely<br />\nfor showing me which buttons to push<br />\nand how to do it, with just the right amount of pressure,<br />\nthe whole tips of all my fingers dancing like stars<br />\nthrough the blackness<br />\nof a mocha latte, black.</p>\n"}, {"title": "Waiting Again for Biopsy Results from the Second Floor Exercise Room", "view_node": "/poem/waiting-again-biopsy-results-second-floor-exercise-room", "field_author": "<a href=\"/poet/jennifer-franklin\" hreflang=\"en\">Jennifer Franklin</a>", "field_date_published": "2014", "body": " <p>I glimpse the tulips every two seconds.<br />They arrived late this year. Those who planted<br /><br />The bulbs must not have considered how they<br />Would look from here\u2014red, paired with pink dogwood.<br /><br />Seven umbrellas float by; only one<br />Inverts. Ammonia swathed on the machines<br /><br />Makes this walk to nowhere less appealing.<br />A police car patrols the next window<br /><br />Where a dingy white van remains parked. It<br />Is difficult to discern if it\u2019s still<br /><br />Raining. Two bridges (I have crossed neither)<br />And the asylum for the criminally<br /><br />Insane loom across the estuary.<br />An old woman obscured by a plum cloche<br /><br />Appears to hail a taxi but after<br />One stops, it\u2019s clear that she is waving to<br /><br />Children who laugh as they glide past. She turns<br />And exits my view. I will try to eat<br /><br />Six green things today and nothing white. A<br />Flash dance mob and you are as likely to<br /><br />Appear. My tiny bottle of perfume<br />Is almost empty. It sits alone, a<br /><br />Deluxe sample, on the pink tray I bought<br />Last century in Florence. I don\u2019t know<br /><br />If I\u2019ll buy a bottle\u2014still unable<br />To find, at forty, my signature scent.<br /><br />The postman slumps against the fountain, his<br />Body the heaviest load that he has<br /><br />To carry. How much rain would it take for<br />The fountain to overflow? I wish I<br /><br />Hadn\u2019t been too self-conscious to learn the<br />Basics of the Argentine tango in<br /><br />The three lessons before the wedding in<br />Thessaloniki. Ever since I read<br /><br />Bronte, I refuse to use an umbrella<br />And pretend I\u2019m walking the moors even<br /><br />In the city. I am never where I<br />Am. If I told you what I look forward<br /><br />To, I couldn\u2019t bear your pity. I would<br />Not do any of this without music.<br /><br />This room is a drenched rag of desire,<br />Even when it\u2019s empty. It is not too<br /><br />Late to learn something new, even with this<br />Trach scar and three letters in my desk drawer.<br /><br />Nine dogs saunter past, smelling the sidewalk.<br />The weather does not seem to bother them.<br /><br />It is too early to be this dark out.<br />I don\u2019t want to leave the building today.</p> "}, {"title": "Our Daily Becoming", "view_node": "/poem/our-daily-becoming", "field_author": "<a href=\"/poet/adam-clay\" hreflang=\"und\">Adam Clay</a>", "field_date_published": "2014", "body": " <p>Like animals moving daily<br />through the same open field,<br />it should be easier to distinguish<br />light from dark, fabrications<br /><br />from memory, rain on a sliver<br />of grass from dew appearing<br />overnight. In these moments<br />of desperation, a sentence<br /><br />serves as a halo, the moon<br />hidden so the stars eclipse<br />our daily becoming. You think<br />it should be easier to define<br /><br />one\u2019s path, but with the clouds<br />gathering around our feet,<br />there\u2019s no sense in retracing<br />where we\u2019ve been or where<br /><br />your tired body will carry you.<br />Eventually the birds become<br />confused and inevitable. Even our<br />infinite knowledge of the forecast<br /><br />might make us more vulnerable<br />than we would be in drawn-out<br />ignorance. To the sun<br />all weeds eventually rise up.</p> "}, {"title": "A Bedtime Story", "view_node": "/poem/bedtime-story-0", "field_author": "<a href=\"/poet/clay-matthews\" hreflang=\"en\">Clay Matthews</a>", "field_date_published": "2014", "body": " <p>Pipe tobacco and the passing of clouds.<br />The small promises of collarbones<br />and cedar shingles. Has it been so long<br />since I\u2019ve really said anything? My days are filled<br />with meaningless words and the child\u2019s<br />laughter. Little of what I do<br />is important, but maybe the ways<br />are. The crows outside bathing<br />in the gutters, the strange necessity<br />of holding up an appearance<br />and nodding our heads at dinner parties.<br />If I misspoke, if I misunderstood\u2026<br />A litany of the stains that show<br />through on white T-shirts and hands.<br />What comes out in the wash are afternoons<br />and sand from the sandbox, a migration<br />of beaches to backyards, backyards<br />to the bottoms of sewer lines and imaginations:<br />what shore do the waves in my dreams<br />arrive from? Sometimes I hear you<br />sing there. You bade me speak,<br />and I howled. You bade me roll over,<br />and I played dead. I show up beside you<br />in bed with a dozen bad similes about love.<br />Don\u2019t ask me what they mean, or if<br />I am ever \u00a0 \u00a0 \u00a0 \u00a0 \u2014I don\u2019t know. Only the streetlight<br />coming in and out behind the curtains,<br />our shadows making shadows<br />on the wall. Your eyes gone heavy<br />at the sound of my voice, reading you<br />these things others have written.</p> "}, {"title": "The Dream of a Common Language", "view_node": "/poem/dream-common-language", "field_author": "<a href=\"/poet/leigh-stein\" hreflang=\"en\">Leigh Stein</a>", "field_date_published": "2014", "body": " <p><em>after Adrienne Rich</em><br /><br />On Wednesdays I take the train past Yankee Stadium,<br />to a place where it is never a given that I speak the language,<br />to a place where graffiti covers the mural they painted to hide<br />the graffiti, to a place where the children call me <em>Miss Miss<br />Miss Miss Miss</em> and I find in one of their poems, a self-portrait,<br />the line <em>I wish I was rish.</em> The dream of a common language<br /><br />is the language of one million dollars, of basketball, of pl\u00e1tanos.<br /><em>Are the kids black? </em>my boyfriend wants to know. Dominican.<br />It\u2019s different. When asked to write down a question<br />they wish they could ask their mom or dad, one boy writes,<br /><em>Paper or plastic?</em> A girl in the back of the class wants to know<br /><em>Why don't I have lycene</em>, translating the sound of the color<br /><br />of my skin into her own language. The best poet<br />in sixth grade is the girl who is this year repeating<br />sixth grade. When I tell her teacher of her talent<br />she says, <em>At least now we know she\u2019s good<br />at something.</em> To speak their language, I study<br />the attendance list, practice the cadence of their names.<br /><br />Yesterday I presented a black and white portrait of a black man,<br />his bald head turned away from us, a spotted moth resting<br />on one shoulder. I told them this is a man serving a life<br />sentence in Louisiana. Is this art? Without hesitation,<br />one girl said no, why would anybody<br />want to take a picture<br />of that.</p> "}, {"title": "To Shakespeare", "view_node": "/poem/shakespeare-0", "field_author": "<a href=\"/poet/frances-anne-kemble\" hreflang=\"en\">Frances Anne Kemble</a>", "field_date_published": "1867", "body": " <p>Oft, when my lips I open to rehearse<br />Thy wondrous spell of wisdom, and of power,<br />And that my voice, and thy immortal verse,<br />On listening ears, and hearts, I mingled pour,<br />I shrink dismayed \u2013 and awful doth appear<br />The vain presumption of my own weak deed;<br />Thy glorious spirit seems to mine so near,<br />That suddenly I tremble as I read \u2013<br />Thee an invisible auditor I fear:<br />Oh, if it might be so, my master dear!<br />With what beseeching would I pray to thee,<br />To make me equal to my noble task,<br />Succor from thee, how humbly would I ask,<br />Thy worthiest works to utter worthily.</p> "}, {"title": "After Mandelshtam", "view_node": "/poem/after-mandelshtam", "field_author": "<a href=\"/poet/reginald-gibbons\" hreflang=\"und\">Reginald Gibbons</a>", "field_date_published": "2014", "body": " <p>To the futile sound<br />of midnight church bells,<br />out back someone is<br />rinsing her thoughts in<br />unfathomable<br />universal sky\u2014<br />a cold faint glowing.<br />As always stars are<br />white as salt on the<br />blade of an old axe.<br />The rain-barrel's full,<br />there's ice in its mouth.<br />Smash the ice\u2014comets<br />and stars melt away<br />like salt, the water<br />darkens and the earth<br />on which the barrel<br />stands is transparent<br />underfoot, and there<br />too are galaxies,<br />ghost-pale and roaring<br />silently in the<br />seven-hundred-odd<br />chambers of the mind.</p> "}, {"title": "from &quot;Thoreau&quot;", "view_node": "/poem/thoreau", "field_author": "<a href=\"/poet/cole-swensen\" hreflang=\"und\">Cole Swensen</a>", "field_date_published": "2014", "body": "<p><span class=\"long-line\">In the essay \u201cA Winter Walk,\u201d which predated the more famous essay \u201cWalking\u201d</span><br /><span class=\"long-line\">by a few years, Thoreau paid particular attention to the astonishing array of whites</span><br /><br /><span class=\"long-line\">from fog to snow to frost to the crystals growing outward on threads of light. The</span><br /><span class=\"long-line\">fact that white is separately known. That it is its own wildness, entirely exterior,</span><br /><br /><span class=\"long-line\">like all weather you notice is a version of an open room coming through</span><br /><span class=\"long-line\">the wind in prisms. White holds light in a suspended state, unleashing it later</span><br /><br /><span class=\"long-line\">across a field of snow or a sheet of water at just the right angle to make the surface</span><br /><span class=\"long-line\">a solid, and on we go walking. Goethe\u2019s <em>Theory of Colors</em> depicted each one</span><br /><br /><span class=\"long-line\">as an intense zone of human activity overflowing its object into feeling there is</span><br /><span class=\"long-line\">a forest through which something white is flying through a wash of white, which is</span><br /><br /><span class=\"long-line\">the presence of all colors until red, for instance, is needed for a bird or green</span><br /><span class=\"long-line\">for a world.</span></p>\n"}], "pager": {"current_page": 403, "total_items": "13248", "total_pages": 663, "items_per_page": 20}}