{"rows": [{"title": "The Things", "view_node": "/poem/things", "field_author": "<a href=\"/poet/donald-hall\" hreflang=\"und\">Donald Hall</a>", "field_date_published": "2011", "body": " <pre>\nWhen I walk in my house I see pictures,\nbought long ago, framed and hanging\n\u2014de Kooning, Arp, Laurencin, Henry Moore\u2014\nthat I've cherished and stared at for years,\nyet my eyes keep returning to the masters \nof the trivial\u2014a white stone perfectly round, \ntiny lead models of baseball players, a cowbell, \na broken great-grandmother's rocker,\na dead dog's toy\u2014valueless, unforgettable \ndetritus that my children will throw away\nas I did my mother's souvenirs of trips \nwith my dead father, Kodaks of kittens, \nand bundles of cards from her mother Kate.</pre>\n "}, {"title": "Albatross in Co. Antrim", "view_node": "/poem/albatross-co-antrim", "field_author": "<a href=\"/poet/robin-robertson\" hreflang=\"und\">Robin Robertson</a>", "field_date_published": "2011", "body": " <blockquote><i>after Baudelaire</i></blockquote>\n<pre>\nThe men would sometimes try to catch one,\nthrowing a looped wire at the great white cross\nthat tracked their every turn, gliding over their deep\ngulfs and bitter waves: the bright pacific albatross.\n\nNow, with a cardboard sign around his neck, the king\nof the winds stands there, hobbled: head shorn,\nashamed; his broken limbs hang down by his side,\nthose huge white wings like dragging oars.\n\nOnce beautiful and brave, now tarred, unfeathered,\nthis lost traveller is a bad joke; a lord cut down to size.\nOne pokes a muzzle in his mouth; another limps past,\nmimicking the <i>skliff, sclaff</i> of a bird that cannot fly.\n\nThe poet is like this prince of the clouds\nwho rides the storm of war and scorns the archer;\nexiled on the ground, in all this derision,\nhis giant wings prevent his marching.</pre>\n "}, {"title": "Civilization", "view_node": "/poem/civilization", "field_author": "<a href=\"/poet/carl-phillips\" hreflang=\"und\">Carl Phillips</a>", "field_date_published": "2011", "body": " <pre>\nThere's an art\n\u00a0\u00a0\u00a0to everything. How\nthe rain means\n\u00a0\u00a0\u00a0April and an ongoingness like\n\u00a0\u00a0\u00a0that of song until at last\n\nit ends. A centuries-old\n\u00a0\u00a0\u00a0set of silver handbells that\nonce an altar boy swung,\n\u00a0\u00a0\u00a0processing...<i>You're the same\n\u00a0\u00a0\u00a0wilderness you've always\n\nbeen, slashing through briars,\n\u00a0\u00a0\u00a0the bracken\nof your invasive\n\u00a0\u00a0\u00a0self</i>. So he said,\n\u00a0\u00a0\u00a0in a dream. But\n\nthe rest of it\u2014all the rest\u2014\n\u00a0\u00a0\u00a0was waking: more often\nthan not, to the next\n\u00a0\u00a0\u00a0extravagance. Two blackamoor\n\u00a0\u00a0\u00a0statues, each mirroring\n\nthe other, each hoisting\n\u00a0\u00a0\u00a0forever upward his burden of\nhand-painted, carved-by-hand\n\u00a0\u00a0\u00a0peacock feathers. <i>Don't\n\u00a0\u00a0\u00a0you know it, don't you know\n\nI love you</i>, he said. He was\n\u00a0\u00a0\u00a0shaking. He said:\n<i>I love you</i>. There's an art\n\u00a0\u00a0\u00a0to everything. What I've\n\u00a0\u00a0\u00a0done with this life,\n\nwhat I'd meant not to do,\n\u00a0or would have meant, maybe, had I\nunderstood, though I have\n\u00a0no regrets. Not the broken but\n\u00a0still-flowering dogwood. Not\n\nthe honey locust, either. Not even\n\u00a0\u00a0\u00a0the ghost walnut with its\nnon-branches whose\n\u00a0\u00a0\u00a0every shadow is memory,\n\u00a0\u00a0\u00a0memory...As he said to me\n\nonce, <i>That's all garbage\n\u00a0\u00a0\u00a0down the river, now</i>. Turning,\nbut as the utterly lost\u2014\n\u00a0\u00a0\u00a0because addicted\u2014do:\n\u00a0\u00a0\u00a0resigned all over again. It\n\nonly looked, it\u2014\n\u00a0\u00a0\u00a0It must only look\nlike leaving. There's an art\n\u00a0\u00a0\u00a0to everything. Even\n\u00a0\u00a0\u00a0turning away. How\n\neventually even hunger\n\u00a0\u00a0\u00a0can become a space\nto live in. How they made\n\u00a0\u00a0\u00a0out of shamelessness something\n\u00a0\u00a0\u00a0beautiful, for as long as they could.</pre>\n "}, {"title": "Samurai Song", "view_node": "/poem/samurai-song", "field_author": "<a href=\"/poet/robert-pinsky\" hreflang=\"und\">Robert Pinsky</a>", "field_date_published": "2011", "body": " <pre>\nWhen I had no roof I made\nAudacity my roof. When I had\nNo supper my eyes dined.\n\nWhen I had no eyes I listened.\nWhen I had no ears I thought.\nWhen I had no thought I waited.\n\nWhen I had no father I made\nCare my father. When I had\nNo mother I embraced order.\n\nWhen I had no friend I made\nQuiet my friend. When I had no\nEnemy I opposed my body.\n\nWhen I had no temple I made\nMy voice my temple. I have\nNo priest, my tongue is my choir.\n\nWhen I have no means fortune\nIs my means. When I have\nNothing, death will be my fortune.\n\nNeed is my tactic, detachment\nIs my strategy. When I had\nNo lover I courted my sleep.</pre>\n "}, {"title": "The Dance", "view_node": "/poem/dance", "field_author": "<a href=\"/poet/humberto-akabal\" hreflang=\"und\">Humberto Ak&#039;Abal</a>", "field_date_published": "2011", "body": "<p><span class=\"long-line\">All of us dance</span><br /><span class=\"long-line\">on a cent's edge.</span></p>\n\n<p><span class=\"long-line\">The poor\u2014because they are poor\u2014</span><br /><span class=\"long-line\">lose their step,</span><br /><span class=\"long-line\">and fall</span></p>\n\n<p><span class=\"long-line\">and everyone else</span><br /><span class=\"long-line\">falls on top.</span></p>\n"}, {"title": "Blood", "view_node": "/poem/blood-0", "field_author": "<a href=\"/poet/c-dale-young\" hreflang=\"und\">C. Dale Young</a>", "field_date_published": "2011", "body": " <pre>\nSomeone has already pulled a knife\nacross my chest, and the rope has already\ngripped our wrists drawing blood.\n\nI am naked, and I cannot be sure\nif you are as well. In the room, the men\ncome and go, yelling <i>blood bath, half-blood,\n\nblood-bitch</i>. We never hear the word <i>trueblood</i>.\nIn my dreams I am dying all the time.\nWe are bound and gagged, blindfolded,\n\nbut still I know you must be the one\nlying there, the cool anodized steel table\nbeneath us, the two of us side by side.\n\nLying there, my shoulder blades ache,\nand there is blood collecting in\nthe corners of my mouth. But then it happens,\n\njust as it always happens: your fingers\nsuddenly twist into tiny shoots, your arms\nbreak free as you accept the shape\n\nof a tree, the leaves sprouting, the delicate\nbark rising up from your skin's surface.\nTry as I might, I never seem able.\n\nOn the telephone this morning, I again\nkeep the dream to myself. Half-blood\nbecomes half-breed. Blood-bitch\n\nbecomes blood-sister. But blood never lies,\ndoes it? Blood carries so many secrets\none can only hear its murmurs in our arteries,\n\nits incessant monologue, in the quiet\nnight's bed just before sleep. Blood says\n<i>You are more</i> and, sometimes, <i>You are less</i>.</pre>\n "}, {"title": "The Cold War [excerpt]", "view_node": "/poem/cold-war-excerpt", "field_author": "<a href=\"/poet/kathleen-ossip\" hreflang=\"und\">Kathleen Ossip</a>", "field_date_published": "2011", "body": " <pre>\n\u00a0\u00a0\u00a0\u00a0\u00a0\u00a0\u00a0\u00a0\u00a0\u00a0\u00a0\u00a0\u00a0\u00a0\u00a0\u00a0\u00a0\u00a0\u00a0\u00a0\u00a0\u00a0\u00a0\u00a0\u00a0\u00a0\u00a0\u00a0\u00a0\u00a0\u00a0\u00a0\u00a0\u00a0\u00a0\u00a0\u00a0\u00a0\u00a0\u00a0\u00a0\u00a0\u00a0\u00a0\u00a0Craft is a synthesis: thought in the service of\n\u00a0\u00a0\u00a0\u00a0\u00a0\u00a0\u00a0\u00a0\u00a0\u00a0\u00a0\u00a0\u00a0\u00a0\u00a0\u00a0\u00a0\u00a0\u00a0\u00a0\u00a0\u00a0\u00a0\u00a0\u00a0\u00a0\u00a0\u00a0\u00a0\u00a0\u00a0\u00a0\u00a0\u00a0\u00a0\u00a0\u00a0\u00a0\u00a0\u00a0\u00a0\u00a0\u00a0\u00a0\u00a0understanding. Think hard in order to open to\n\u00a0\u00a0\u00a0\u00a0\u00a0\u00a0\u00a0\u00a0\u00a0\u00a0\u00a0\u00a0\u00a0\u00a0\u00a0\u00a0\u00a0\u00a0\u00a0\u00a0\u00a0\u00a0\u00a0\u00a0\u00a0\u00a0\u00a0\u00a0\u00a0\u00a0\u00a0\u00a0\u00a0\u00a0\u00a0\u00a0\u00a0\u00a0\u00a0\u00a0\u00a0\u00a0\u00a0\u00a0\u00a0understanding: that is craft\n\n\nK. was hungrily made.\n\nK. is an American creation.\n\nK. cannot recommend realism.\n\nK. cannot recommend surrealism.\n\nK. cannot recommend plain speech.\n\nK. cannot recommend free association.\n\nK. can recommend song:\n\n\u00a0\u00a0\u00a0\u00a0\u00a0\u00a0<i>The tug of the past.\n\u00a0\u00a0\u00a0\u00a0\u00a0\u00a0Don't let go so fast\n\u00a0\u00a0\u00a0\u00a0\u00a0\u00a0of what you're haunted by\u2014\n\u00a0\u00a0\u00a0\u00a0\u00a0\u00a0It'll last till it lasts.</i>\n\n\n\n\n\n\u00a0\u00a0\u00a0\u00a0\u00a0\u00a0\u00a0\u00a0\u00a0\u00a0\u00a0\u00a0\u00a0\u00a0\u00a0\u00a0\u00a0\u00a0\u00a0\u00a0\u00a0\u00a0\u00a0\u00a0\u00a0\u00a0\u00a0\u00a0\u00a0\u00a0\u00a0\u00a0\u00a0The former things\u00a0\u00a0\u00a0\u00a0\u00a0\u00a0\u00a0\u00a0\u00a0\u00a0\u00a0\u00a0\u00a0\u00a0\u00a0\u00a0\u00a0\u00a0\u00a0\u00a0\u00a0\u00a0pass away\n\n\n\n\n\n\nCraft will take us through this wood.</pre>\n "}, {"title": "How the mind works still to be sure", "view_node": "/poem/how-mind-works-still-be-sure", "field_author": "<a href=\"/poet/jennifer-denrow\" hreflang=\"und\">Jennifer Denrow</a>", "field_date_published": "2011", "body": " <pre>\nYou were the white field when you handed me a blank\nsheet of paper and said you'd worked so hard\nall day and this was the best field you could manage.\nAnd when I didn't understand, you turned it over\nand showed me how the field had bled through,\nand then you took out your notebook and said how each\ntime you attempted to make something else, it turned out\nto be the same field. You worried that everyone\nyou knew was becoming the field and you couldn't help\nthem because you were the one making them into fields\nin the first place. It's not what you meant to happen.\nYou handed me a box of notebooks and left. I hung the field\nall over the house. Now, when people come over, they think\nthey're lost and when I tell them they're not, they say they're\nbeginning to feel like the field and it's hard because they know\nthey shouldn't but they do and then they start to grow whiter\nand whiter and then they disappear. With everyone turning\ninto fields, it's hard to know anything. With everyone turning\ninto fields, it's hard to be abstract. And since I'm mostly alone,\nI just keep running my hand over the field, waiting.</pre>\n "}, {"title": "Recession", "view_node": "/poem/recession", "field_author": "<a href=\"/poet/sydney-lea\" hreflang=\"und\">Sydney Lea</a>", "field_date_published": "2011", "body": " <pre>\nA grotesquerie for so long we all ignored it:\nThe mammoth plastic Santa lighting up\nOn the Quik-Stop's roof, presiding over pumps\nThat gleamed and gushed in the tarmac lot below it.\n \nOut back, with pumps of their own, the muttering diesels.\nAnd we, for the most part ordinary folks,\nTook all for granted: the idling semis' smoke,\nThe fuel that streamed into our tanks, above all\n\nOur livelihoods. We stepped indoors to talk\nWith friends, shared coffee, read the local paper,\nHeavy with news of hard times now. We shiver.\nOur afternoons are gone. At five o'clock\n\n\u2014Once we gave the matter little thought\u2014\nOur Santa Claus no longer flares with light.</pre>\n "}, {"title": "She Leaves Me Again, Six Months Later", "view_node": "/poem/she-leaves-me-again-six-months-later", "field_author": "<a href=\"/poet/collier-nogues\" hreflang=\"und\">Collier Nogues</a>", "field_date_published": "2011", "body": " <pre>\nThe hillside was blocked \nwith pens, horses of other colors \n\nfive or six to a pen, \nand one long fenced strip\n\nfrom the base of the hill up, \nwith dark brown horses flank to flank \n\nnot moving, \nbut their necks craning over\n\neach other's backs. \nThey were looking towards \n\nthe dip at the top of the hill,\nand the stream running through it.\n\nThey were looking at what \nwas on the other side, \n\nwhich was my mother, \nwhom I had just walked over the bridge.</pre>\n "}, {"title": "In a Beautiful Country", "view_node": "/poem/beautiful-country", "field_author": "<a href=\"/poet/kevin-prufer\" hreflang=\"und\">Kevin Prufer</a>", "field_date_published": "2011", "body": " <pre>\nA good way to fall in love\nis to turn off the headlights\nand drive very fast down dark roads.\n\nAnother way to fall in love\nis to say they are only mints\nand swallow them with a strong drink.\n\nThen it is autumn in the body.\nYour hands are cold.\nThen it is winter and we are still at war.\n\nThe gold-haired girl is singing into your ear\nabout how we live in a beautiful country.\nSnow sifts from the clouds\n\ninto your drink. It doesn't matter about the war.\nA good way to fall in love\nis to close up the garage and turn the engine on,\n\nthen down you'll fall through lovely mists\nas a body might fall early one morning\nfrom a high window into love. Love,\n\nthe broken glass. Love, the scissors\nand the water basin. A good way to fall\nis with a rope to catch you.\n\nA good way is with something to drink\nto help you march forward.\nThe gold-haired girl says, <i>Don't worry\n\nabout the armies, says, We live in a time\nfull of love</i>. You're thinking about this too much.\nSlow down. Nothing bad will happen.</pre>\n "}, {"title": "Red and Blue Planets", "view_node": "/poem/red-and-blue-planets", "field_author": "<a href=\"/poet/joni-wallace\" hreflang=\"und\">Joni Wallace</a>", "field_date_published": "2011", "body": " <pre>\nWhat we're drawn to is proof enough:\nthese pills, other acts of disappearance.\nI've written a song about a girl who swallowed the blue planets:\nKevlar, Caroline, O Beautiful Bomb.\nSo perfectly haplessly cruel the world we've made.\n<i>Let's meet back here in 5 minutes</i>, you say, you always say.\nI'll bring the Lite-Brite.\nI'll bring the hole in my heart, a white star burning.\nMore and more, the rock show.\nVenus rising is a glass wrecking ball,\ninside red harbors, red sails.</pre>\n "}, {"title": "forgetting something", "view_node": "/poem/forgetting-something", "field_author": "<a href=\"/poet/nick-flynn\" hreflang=\"und\">Nick Flynn</a>", "field_date_published": "2011", "body": " <p>Try this\u2014close / your eyes. No, wait, when\u2014if\u2014we see each other / again the first thing we should do is close our eyes\u2014no, / first we should tie our hands to something / solid\u2014bedpost, doorknob\u2014 otherwise they (wild birds) / might startle us / awake. Are we forgetting something? What about that / warehouse, the one beside the airport, that room / of black boxes, a man in each box? I hear / if you bring this one into the light he will not stop / crying, if you show this one a photo of his son / his eyes go dead. Turn up / the heat, turn up the song. First thing we should do / if we see each other again is to make / a cage of our bodies\u2014inside we can place / whatever still shines.</p><p>\u00a0</p> "}, {"title": "Almost Sixty", "view_node": "/poem/almost-sixty", "field_author": "<a href=\"/poet/jim-moore\" hreflang=\"und\">Jim Moore</a>", "field_date_published": "2011", "body": " <pre>\n<b>1</b>\n\n\u00a0\u00a0\u00a0\u00a0No, I don't know\n\nthe way to get there.\n\u00a0\u00a0\u00a0\u00a0Two empty suitcases sit in the corner,\nif that's any kind of clue.\n\n<b>2</b>\n\n\u00a0\u00a0\u00a0\u00a0This spring night,\n\neveryone at the party\n\u00a0\u00a0\u00a0\u00a0younger than me\nexcept for one man.\n\u00a0\u00a0\u00a0\u00a0We give each other the secret password.\n\n<b>3</b>\n\n\u00a0\u00a0\u00a0\u00a0Tears? Of course, but also the marsh grass\n\nnear the Mississippi:\n\u00a0\u00a0\u00a0\u00a0your whispers and mine,\nand the dog's long contented sighs.</pre>\n "}, {"title": "Plural Happiness", "view_node": "/poem/plural-happiness", "field_author": "<a href=\"/poet/david-rivard\" hreflang=\"und\">David Rivard</a>", "field_date_published": "2011", "body": " <pre>\nA curtain bellying like a pregnant cloud, warm white\nlight refracted through a tumbler of peat-smoked scotch\u2014\na scorcher of a day at cooling end, with stupendous berries\nto eat in lieu of supper, the scoffed pint box of blueberries\nchased by a half of cantaloupe &amp; Maytag blue cheese\nspread across the remains of last night's baguette\u2014\na plural happiness\u2014I feel encouraged for all\nwithin range\u2014even the hang-gliding error that sent\nJesus spiraling down to earth seems a commitment.\nTomorrow we'll go to Alison's wedding, who\nat age 2 &amp; 3/4 attended our wedding 26 years ago,\nher blond curls a mystery to be held up &amp; photographed\nbetween her mother &amp; father dark-haired Diane &amp; Larry\u2014\nin the riddle of our recessive genes once in a while\nsomething surprising waits for anybody out &amp; about.\nLike hearing for the first time a blind preacher or waking\nin a Gros Vent campground south of Jenny Lake,\nthe best happiness is always accidental,\u2014&amp; why not?\nI was going to say something about boundlessness\nback there (or was it getting gassed I meant?), but that\nisn't it exactly either. Tho it is pretty close. Close\nenough. And real. Real enough, &amp; sure. God it felt good\nto heat water on a primus stove while yawning\nand to wash my face in cold Gros Vent &amp; love Michaela.</pre>\n "}, {"title": "A Wedding at Cana, Lebanon, 2007", "view_node": "/poem/wedding-cana-lebanon-2007", "field_author": "<a href=\"/poet/tom-sleigh\" hreflang=\"und\">Tom Sleigh</a>", "field_date_published": "2011", "body": " <pre>\nHe said, \"It is terrible what happens.\"\n\u00a0\u00a0\u00a0\u00a0\u00a0\u00a0\u00a0\u00a0\u00a0\u00a0\u00a0And \"So, Mr. Tom,\ndo not forget me\"\u2014an old-fashioned ring, pop tunes,\nsalsa! salsa! the techno-version of Beethoven's\nFifth, Fairouz singing how love has arrived,\nthat's what he heard after they dropped the bombs,\nhis ambulance crawling through smoke while cellphones\ngoing off here here here kept ringing\u2014\nhow the rubble-buried bodies' still living\nrelatives kept calling to see who survived.\n\nAnd when he dug through concrete scree scorched black\n\u00a0\u00a0\u00a0\u00a0\u00a0\u00a0\u00a0\u00a0\u00a0\u00a0\u00a0still smoking\nfrom the explosion, squadrons of jets droning overhead,\nhouses blown to rebar, he saw cellphones'\ndisplay lights flashing from incoming calls\nand when he flipped the covers, saw phone camera pics,\npics of kids, wives, dads, single, grouped, some wearing\nsilly party hats, scenes of hilarity\ncompacted on the screen: it was \"not good\"\nhe said, to have to take the phone out of the body\n\npart pocket: <i>Hello\u2014no, no, he's here,\n\u00a0\u00a0\u00a0\u00a0\u00a0\u00a0\u00a0\u00a0\u00a0\u00a0\u00a0right here, but not</i>\u2014\nand then he'd have to explain...and so he stopped\nanswering. A soft-spoken young man\nstudying engineering, only moonlighting\nas an ambulance driver, he stood at\nthe crossroads where Jesus turned water\ninto wine and where, rising out of rubble, floating down\nthe cratered street, bride and bridegroom came walking\nin the heat and as they came the wedding guests held up\ncell cameras clicking when the couple climbed, waving,\n\u00a0\u00a0\u00a0\u00a0\u00a0\u00a0\u00a0\u00a0\u00a0\u00a0\u00a0into TRUST TAXI\nblazoned on the car's rear windscreen. The muezzin's\nnasal wail began to blare all over town, and the pair\ndrove off to ululating shouts and cries, firecrackers\nkicking up dust in the square. The show over, we\ngot back into our car, our tires crunching\nover rubble. As I sat there rubbernecking\nat a burned-out tank, he shrugged: \"All this\u2014how embarrassing.\"\nAnd \"I hope this is the story you are after.\"</pre>\n "}, {"title": "Sci-Fi", "view_node": "/poem/sci-fi", "field_author": "<a href=\"/poet/tracy-k-smith\" hreflang=\"und\">Tracy K. Smith</a>", "field_date_published": "2011", "body": "<p><span class=\"long-line\">There will be no edges, but curves.</span><br /><span class=\"long-line\">Clean lines pointing only forward.</span></p>\n<p><span class=\"long-line\">History, with its hard spine &amp;\u00a0dog-eared</span><br /><span class=\"long-line\">Corners, will be replaced with nuance,</span></p>\n<p><span class=\"long-line\">Just like the dinosaurs gave way</span><br /><span class=\"long-line\">To mounds and mounds of ice.</span></p>\n<p><span class=\"long-line\">Women will still be women, but</span><br /><span class=\"long-line\">The distinction will be empty. Sex,</span></p>\n<p><span class=\"long-line\">Having outlived every threat, will gratify</span><br /><span class=\"long-line\">Only the mind, which is where it will exist.</span></p>\n<p><span class=\"long-line\">For kicks, we'll dance for ourselves</span><br /><span class=\"long-line\">Before mirrors studded with golden bulbs.</span></p>\n<p><span class=\"long-line\">The oldest among us will recognize that glow\u2014</span><br /><span class=\"long-line\">But the word <em>sun</em>\u00a0will have been re-assigned</span></p>\n<p><span class=\"long-line\">To a Standard Uranium-Neutralizing device</span><br /><span class=\"long-line\">Found in households and nursing homes.</span></p>\n<p><span class=\"long-line\">And yes, we'll live to be much older, thanks</span><br /><span class=\"long-line\">To popular consensus. Weightless, unhinged,</span></p>\n<p><span class=\"long-line\">Eons from even our own moon, we'll drift</span><br /><span class=\"long-line\">In the haze of space, which will be, once</span></p>\n<p><span class=\"long-line\">And for all, scrutable and safe.</span></p>\n"}, {"title": "At the Blue Note", "view_node": "/poem/blue-note", "field_author": "<a href=\"/poet/pablo-medina\" hreflang=\"und\">Pablo Medina</a>", "field_date_published": "2011", "body": " <blockquote><i>for Karen Bentivenga</i></blockquote>\n<pre>\nSometimes in the heat of the snow\nyou want to cry out\n\nfor pleasure or pain like a bell.\nAnd you wind up holding each other,\n\nlistening to the in-between \ndespite the abyss at the edge of the table. \n\nHell. Mulgrew Miller plays like a big \nbad spider, hands on fire, the piano\n\ntrembling like crystal,\nthe taste and smell of a forest under water.\n\nThe bartender made us a drink\nwith butterfly wings and electric wire. \n\nBitter cold outside, big silence, \na whale growing inside us.</pre>\n "}, {"title": "Bone &amp; Silence", "view_node": "/poem/bone-silence", "field_author": "<a href=\"/poet/gerald-fleming\" hreflang=\"und\">Gerald Fleming</a>", "field_date_published": "2011", "body": " <p>\u00a0\u00a0\u00a0A long time passes\u2014long even in the understanding of stone\u2014and at last Bone feels entitled to speak to Silence. There are prerequisites: proper depth, aridity, desiccation, ph balance, density, and a kind of confidence. No loam: say salt, say dust, say southwest Utah. And when the conversation occurs it is understood on Bone's part what to expect from Silence, so one could say that expectations were low, but such is a pattern of our thinking, and in this case the entire dry dialectic is different, and in fact expectations were high. There is a moon shining, unknown to Bone, intimate with Silence. There are mammals overhead, the noise of whose small feet are perceived or unperceived.<br />\u00a0\u00a0\u00a0And after all this discursive talk, what at last does Bone say to Silence? What would <i>you</i> have Bone say to Silence? We could try <i>Is there anywhere we can go for a beer?</i> and that might get a little laugh, might qualify as ineffably human, almost religious. But we know better about Bone &amp; Silence\u2014need only look inside us, have the bravery to cease this chatter, this scrape of pencil on paper, to leave the rest of the book blank, get out of the way, let the conversation begin.</p> "}, {"title": "Q &amp; A", "view_node": "/poem/q", "field_author": "<a href=\"/poet/terence-winch\" hreflang=\"und\">Terence Winch</a>", "field_date_published": "2011", "body": " <p><b>Q.</b> How important is theory in this poem? It seems as though<br />it just starts, goes nowhere, tells us nothing we need to know.<br /><br /><b>A.</b> The concern here is with necessity, not fact. The poem could tell<br />you everything you wanted to know, but doesn't.<br />Some poems begin in the rinse cycle. This one goes right to spin.<br /><br /><b>Q.</b> We noticed how marvelous the upper strata of the poem is. It suggests<br />the appeal of authoritarian faith in the old-fashioned<br />middle class. Did you write it on a train?<br /><br /><b>A.</b> One day I heard laughter coming from some mysterious source. First I thought<br />it came from several people who were stuck at the bottom of a well.<br />Then I speculated it could be a group of teenagers on the level right above me.<br />After a while, however, I wondered if it might actually be weeping.<br />I got out my address book and started calling around. In fact, people<br /><i>were</i> crying when I managed to get in touch with them. Where are<br />your social contracts now, I snarled, your precious theses on the absolute?<br />I averted my gaze as their beliefs unraveled.</p><p><b>Q.</b> We can't help but notice how you seem to be suppressing what you<br />really mean. Are you naked in this poem?<br /><br /><b>A.</b> I have these pastes and mud packs that I smear all over me, so I'm<br />never really naked, even when I have no clothes on.<br />The same thing goes for this poem.<br />It's beautiful, stark, totally blank, yet colorful, like a sin<br />you're considering but haven't yet committed.</p><p>\u00a0</p> "}], "pager": {"current_page": 469, "total_items": "13248", "total_pages": 663, "items_per_page": 20}}