{"rows": [{"title": "This Much and More", "view_node": "/poem/much-and-more", "field_author": "<a href=\"/poet/djuna-barnes\" hreflang=\"en\">Djuna Barnes</a>", "field_date_published": "2019", "body": "<p><span class=\"long-line\">If my lover were a comet</span><br /><span class=\"long-line\">\u00a0 \u00a0 \u00a0 \u00a0 \u00a0 Hung in air,</span><br /><span class=\"long-line\">I would braid my leaping body</span><br /><span class=\"long-line\">\u00a0 \u00a0 \u00a0 \u00a0 \u00a0 In his hair.</span></p>\n\n<p><span class=\"long-line\">Yea, if they buried him ten leagues</span><br /><span class=\"long-line\">\u00a0 \u00a0 \u00a0 \u00a0 \u00a0 Beneath the loam,</span><br /><span class=\"long-line\">My fingers they would learn to dig</span><br /><span class=\"long-line\">\u00a0 \u00a0 \u00a0 \u00a0 \u00a0 And I\u2019d plunge home!</span></p>\n"}, {"title": "Rooms Remembered", "view_node": "/poem/rooms-remembered", "field_author": "<a href=\"/poet/laure-anne-bosselaar\" hreflang=\"und\">Laure-Anne Bosselaar</a>", "field_date_published": "2015", "body": "<p><span class=\"long-line\">I needed, for months after he died, to remember our rooms\u2014</span><br /><span class=\"long-line\">\u00a0 \u00a0 \u00a0 \u00a0 \u00a0 \u00a0 some lit by the trivial, others ample</span></p>\n\n<p><span class=\"long-line\">with an obscurity that comforted us: it hid our own darkness.</span><br /><span class=\"long-line\">\u00a0 \u00a0 \u00a0 \u00a0 \u00a0 \u00a0 So for months, duteous, I remembered:</span></p>\n\n<p><span class=\"long-line\">rooms where friends lingered, rooms with our beds,</span><br /><span class=\"long-line\">\u00a0 \u00a0 \u00a0 \u00a0 \u00a0 \u00a0 with our books, rooms with curtains I sewed</span></p>\n\n<p><span class=\"long-line\">from bright cottons. I remembered tables of laughter,</span><br /><span class=\"long-line\">\u00a0 \u00a0 \u00a0 \u00a0 \u00a0 \u00a0 a chipped bowl in early light, black</span></p>\n\n<p><span class=\"long-line\">branches by a window, bowing toward night, &amp; those rooms,</span><br /><span class=\"long-line\">\u00a0 \u00a0 \u00a0 \u00a0 \u00a0 \u00a0 too, in which we came together</span></p>\n\n<p><span class=\"long-line\">to be away from all. And sometimes from ourselves:<br /><span class=\"long-line\">\u00a0 \u00a0 \u00a0 \u00a0 \u00a0 \u00a0 I remembered that, also.</span> </span></p>\n\n<p><span class=\"long-line\">But tonight\u2014as I stand in the doorway to his room</span><br /><span class=\"long-line\">\u00a0 \u00a0 \u00a0 \u00a0 \u00a0 \u00a0 &amp; stare at dusk settled there\u2014</span></p>\n\n<p><span class=\"long-line\">what I remember best is how, to throw my arms around his neck,</span><br /><span class=\"long-line\">\u00a0 \u00a0 \u00a0 \u00a0 \u00a0 \u00a0 I needed to stand on the tip of my toes.</span></p>\n"}, {"title": "Postal", "view_node": "/poem/postal", "field_author": "<a href=\"/poet/b-c-edwards\" hreflang=\"en\">B. C.  Edwards</a>", "field_date_published": "2015", "body": " <p>Amy, I was almost run down by a car<br />after buying my lunch today.<br />It was the postal police.<br />I was almost hit by the postal police.<br />This is not a joke.<br />There is a police force dedicated to the postal service<br />(the US Postal Service, mind you).<br />They race around in cars,<br />they chase down postal villains,<br />investigate postal crimes<br />unearth hidden postal agendas.<br />Conspiracies that they bring to their postal lieutenants<br />who summarily tell them to let it go, to stop obsessing,<br />take a vacation, some time off, you're too close to it,<br />it happens to the best postal policeman, that's what the<br />\u00a0 \u00a0 \u00a0lieutenants say.<br />(Potato soup and a chicken sandwich, if you're curious).<br />I think you should apply, Amy.<br />I think you would do well.<br />I think they would give you a hat.<br />Something jaunty that can handle your hair expertly.<br />You'd cover the hat with stamps from every country in the world<br />They would give you a pea coat, I think.<br />Like the one that you've already got, but more policey.<br />You would look fucking great in that coat.<br />Not every country, mind you.<br />Just the ones that sound like they have decent views<br />of the country side<br />and a healthy attitude towards outgoing, independent women.</p> "}, {"title": "Human Habitat", "view_node": "/poem/human-habitat", "field_author": "<a href=\"/poet/alison-hawthorne-deming\" hreflang=\"und\">Alison Hawthorne Deming</a>", "field_date_published": "2015", "body": "<p><span class=\"long-line\">Some did not want to alter the design</span><br /><span class=\"long-line\">when the failure message</span><br /><span class=\"long-line\">said massive problem with oxygen.</span><br /><span class=\"long-line\">Some wanted to live full tilt with risk.</span></p>\n\n<p><span class=\"long-line\">By then we were too weak for daily chores:</span><br /><span class=\"long-line\">feeding chickens, hoeing yams,</span><br /><span class=\"long-line\">calibrating pH this and N2 that . . .</span><br /><span class=\"long-line\">felt like halfway summiting Everest.</span></p>\n\n<p><span class=\"long-line\">We didn\u2019t expect the honeybees</span><br /><span class=\"long-line\">to die. Glass blocked the long-wave</span><br /><span class=\"long-line\">light that guides them.</span><br /><span class=\"long-line\">Farm soil too rich in microbes</span></p>\n\n<p><span class=\"long-line\">concrete too fresh ate the oxygen.</span><br /><span class=\"long-line\">We had pressure problems,</span><br /><span class=\"long-line\">recalibrating the sniffer.\u00a0 Bone tired</span><br /><span class=\"long-line\">I reread Aristotle by waning light.</span></p>\n\n<p><span class=\"long-line\">Being is either actual or potential.\u00a0</span><br /><span class=\"long-line\">The actual is prior to substance.\u00a0</span><br /><span class=\"long-line\">Man prior to boy, human prior to seed,</span><br /><span class=\"long-line\">Hermes prior to chisel hitting wood.\u00a0</span></p>\n\n<p><span class=\"long-line\">I leafed through <em>Turner\u2019s England</em>,</span><br /><span class=\"long-line\">left the book open at Stonehenge.\u00a0</span><br /><span class=\"long-line\">A shepherd struck by lightning lies dead,</span><br /><span class=\"long-line\">dog howling, several sheep down too.</span></p>\n\n<p><span class=\"long-line\">The painter gave gigantic proportion</span><br /><span class=\"long-line\">to sulphurous god rimmed clouds</span><br /><span class=\"long-line\">lightning slashing indigo sky</span><br /><span class=\"long-line\">while close at hand lie fallen stones</span></p>\n\n<p><span class=\"long-line\">dead religion, pages dusty</span><br /><span class=\"long-line\">brown leaf shards gathering</span><br /><span class=\"long-line\">in the gutter yet I cannot turn the page</span><br /><span class=\"long-line\">wondering what I am and when</span></p>\n\n<p><span class=\"long-line\">in the story of life my life is taking place.\u00a0\u00a0\u00a0</span><br /><span class=\"long-line\">Now what.\u00a0 No shepherd. No cathedral.</span><br /><span class=\"long-line\">How is it then that I read love</span><br /><span class=\"long-line\">in pages that lie open before me?</span></p>\n"}, {"title": "Ever", "view_node": "/poem/ever", "field_author": "<a href=\"/poet/meghan-orourke\" hreflang=\"und\">Meghan O&#039;Rourke</a>", "field_date_published": "2015", "body": " <p><em>Never, never, never, never, never.</em><br />\u2014King Lear</p><p>Even now I can\u2019t grasp \u201cnothing\u201d or \u201cnever.\u201d<br />They\u2019re unholdable, unglobable, no map to nothing.<br />Never? Never ever again to see you?<br />An error, I aver. You\u2019re never nothing,<br />because nothing\u2019s not a thing.<br />I know death is absolute, forever,<br />the guillotine<span style=\"font-size: 13.0080003738403px; line-height: 20.0063037872314px;\">\u2014</span>gutting<span style=\"font-size: 13.0080003738403px; line-height: 20.0063037872314px;\">\u2014</span>never to which we never say goodbye.<br />But even as I think \u201cforever\u201d it goes \u201cever\u201d<br />and \u201cever\u201d and \u201cever.\u201d <em>Ever after.</em><br />I\u2019m a thing that keeps on thinking. So <em>I never see you</em><br />is not a thing or think my mouth can ever. Aver:<br />You\u2019re not \u201cnothing.\u201d But neither are you something.<br />Will I ever really <em>get</em> never?<br />You\u2019re gone. Nothing, never\u2014ever.</p> "}, {"title": "Solstice", "view_node": "/poem/solstice-0", "field_author": "<a href=\"/poet/tess-taylor\" hreflang=\"und\">Tess Taylor</a>", "field_date_published": "2015", "body": " <p>How again today our patron star<br />whose ancient vista is the long view</p><p>turns its wide brightness now and here:<br />Below, we loll outdoors, sing &amp; make fire.</p><p>We build no henge<br />but after our swim, linger</p><p>by the pond. Dapples flicker<br />pine trunks by the water.</p><p>Buzz &amp; hum &amp; wing &amp; song combine.<br />Light builds a monument to its passing.</p><p>Frogs content themselves in bullish chirps,<br />hoopskirt blossoms</p><p>on thimbleberries fall, peeper toads<br />hop, lazy\u2014</p><p>\u00a0 \u00a0 \u00a0 \u00a0 \u00a0 \u00a0 Apex. The throaty world sings <em>ripen</em>.<br />Our grove slips past the sun\u2019s long kiss.</p><p>We dress.<br />We head home in other starlight.\u00a0</p><p>Our earthly time is sweetening from this.<br />\u00a0</p> "}, {"title": "Leisure", "view_node": "/poem/leisure", "field_author": "<a href=\"/poet/amy-lowell\" hreflang=\"und\">Amy Lowell</a>", "field_date_published": "2015", "body": " <p>Leisure, thou goddess of a bygone age,<br />\u00a0\u00a0 When hours were long and days sufficed to hold<br />\u00a0\u00a0\u00a0 Wide-eyed delights and pleasures uncontrolled<br />By shortening moments, when no gaunt presage<br />Of undone duties, modern heritage,<br />\u00a0\u00a0\u00a0 Haunted our happy minds; must thou withhold<br />\u00a0\u00a0\u00a0 Thy presence from this over-busy world,<br />And bearing silence with thee disengage<br />\u00a0\u00a0\u00a0 Our twined fortunes? Deeps of unhewn woods<br />\u00a0\u00a0\u00a0 Alone can cherish thee, alone possess<br />Thy quiet, teeming vigor. This our crime:<br />\u00a0\u00a0\u00a0 Not to have worshipped, marred by alien moods<br />\u00a0\u00a0\u00a0 That sole condition of all loveliness,<br />The dreaming lapse of slow, unmeasured time.</p> "}, {"title": "Still Life with Invisible Canoe", "view_node": "/poem/still-life-invisible-canoe", "field_author": "<a href=\"/poet/idra-novey\" hreflang=\"und\">Idra Novey</a>", "field_date_published": "2015", "body": " <p>Levinas asked if we have the right<br />To be\u00a0\u00a0\u00a0\u00a0\u00a0\u00a0\u00a0 the way I ask my sons<br />If they\u2019d like to be trees\u00a0\u00a0\u00a0\u00a0\u00a0\u00a0\u00a0</p><p>The way the word tree<br />Makes them a little animal<br />Dancing up and down<br />Like bears in movies<br />\u00a0\u00a0\u00a0\u00a0\u00a0\u00a0\u00a0\u00a0\u00a0\u00a0\u00a0\u00a0\u00a0\u00a0\u00a0\u00a0\u00a0<br /><em>Bears</em> I have to say<br /><em>Pretend we are children\u00a0\u00a0\u00a0\u00a0\u00a0</em></p><p>At a river one of them says<br />So we sip it\u00a0\u00a0\u00a0 pivot in the hallway\u00a0\u00a0\u00a0<br />Call it a canoe</p><p>It is noon in the living room<br />We are rowing through a blue<br />That is a feeling mostly\u00a0</p><p>The way drifting greenly<br />Under real trees\u00a0<br />Is a feeling near holy</p> "}, {"title": "Oystercatchers in Flight", "view_node": "/poem/oystercatchers-flight", "field_author": "<a href=\"/poet/eamon-grennan\" hreflang=\"und\">Eamon Grennan</a>", "field_date_published": "2015", "body": " <p>Sea\u2019s stony greenblue shatters to white<br />\u00a0 \u00a0 \u00a0 \u00a0 \u00a0 in a running swell under noonsky of cloudlight<br />where on a foamed-over cropping of rock<br />\u00a0 \u00a0 \u00a0 \u00a0 \u00a0 a band of oystercatchers faces all one way<br />into a nor\u2019wester so shafts of windlight<br />\u00a0 \u00a0 \u00a0 \u00a0 \u00a0 ignite each orange beak in this abiding<br />tribe of black till you clap and their risen black<br />\u00a0 \u00a0 \u00a0 \u00a0 \u00a0 turns white as they veronica on wind and<br />then away with them (shrill-pitched as frighted<br />\u00a0 \u00a0 \u00a0 \u00a0 \u00a0 plovers only harsher more excited)<br />and riding the stiff wind like eager lovers straining<br />\u00a0 \u00a0 \u00a0 \u00a0 \u00a0 into its every last whim: its pulsing steady<br />heart-push in every flesh-startling open-eyed<br />\u00a0 \u00a0 \u00a0 \u00a0 \u00a0 long-extended deepening sea-breath.</p> "}, {"title": "Stammering translated sonnet in which the poet sends the rains of Havana to her love in New York", "view_node": "/poem/stammering-translated-sonnet-which-poet-sends-rains-havana-her-love-new-york", "field_author": "<a href=\"/poet/suzanne-gardinier\" hreflang=\"und\">Suzanne Gardinier</a>", "field_date_published": "2015", "body": " <p>Got your message, here<br />in the letter you didn\u2019t write:<br />burned, with a forbidden seal,<br />marking the burial site<br />of what has neither voice nor definition,<br />what has no face, no peace, no place to sleep,<br />a whisper in which I can\u2019t [inaudible]<br />\u2014what the sea doesn\u2019t say, whispering, every night,<br />and when the rain comes to erase the streets<br />tomorrow, &amp; all the dusks that follow that,<br />and runs around making up street dances<br />from what you once said, I\u2019ll have this map,<br />without details, made of what I\u2019ve missed,<br />telling me that that which isn\u2019t is.</p><p><strong>Spanish:</strong></p><p><em>Soneto Balbuciendo En Que La Poeta Manda A Su Amor En Nueva York La Lluvia de La Habana</em></p><p>He le\u00eddo el mensaje que mandaste,<br />aqu\u00ed, en la carta no me has escrito:<br />quemada, y con sello prohibido,<br />dici\u00e9ndome d\u00f3nde enterraste<br />lo que no tiene voz ni luz ni cara,<br />ni paz, ni un lugar para dormir,<br />susurro donde yo puedo o\u00edr<br />cada noche lo que no dice el mar,<br />y cuando la lluvia borrar\u00e1 las calles<br />ma\u00f1ana, y los crep\u00fasculos despu\u00e9s,<br />y correr\u00e1 haciendo bailes<br />de lo que me dijiste una vez,<br />yo tendr\u00e9 este mapa, sin detalles,<br />que me dice que lo que no es, es.<br />\u00a0</p> "}, {"title": "Let Muddy Water Sit and It Grows Clear", "view_node": "/poem/let-muddy-water-sit-and-it-grows-clear", "field_author": "<a href=\"/poet/ted-mathys\" hreflang=\"und\">Ted Mathys</a>", "field_date_published": "2015", "body": " <p>It\u2019s clear when, in membranous<br />\u00a0 \u00a0 \u00a0 \u00a0 \u00a0 \u00a0 \u00a0 predawn blue<br />I enter pines, mind on<br />\u00a0 \u00a0 \u00a0 \u00a0 \u00a0 \u00a0 \u00a0 embryo in amnion,</p><p>my tracks preceded<br />\u00a0 \u00a0 \u00a0 \u00a0 \u00a0 \u00a0 \u00a0 by those of the dog,<br />his by a doe\u2019s, hers by six<br />\u00a0 \u00a0 \u00a0 \u00a0 \u00a0 \u00a0 \u00a0 hours of snow, it\u2019s clear then</p><p>the distance between<br />\u00a0 \u00a0 \u00a0 \u00a0 \u00a0 \u00a0 \u00a0 my affections and ability<br />to touch their sinuosity\u00a0<br />\u00a0 \u00a0 \u00a0 \u00a0 \u00a0 \u00a0 \u00a0 is itself a felt silence\u00a0</p><p>called sun. Sun rises<br />\u00a0 \u00a0 \u00a0 \u00a0 \u00a0 \u00a0 \u00a0 without provocation<br />over a frozen stream that frustrates<br />\u00a0 \u00a0 \u00a0 \u00a0 \u00a0 \u00a0 \u00a0 reflection, but will</p><p>by the time a pulse is palpable,<br />\u00a0 \u00a0 \u00a0 \u00a0 \u00a0 \u00a0 \u00a0 have thawed and grown\u00a0<br />clear again, permitting me to see<br />\u00a0 \u00a0 \u00a0 \u00a0 \u00a0 \u00a0 \u00a0 a tree surface, distort, flow.</p> "}, {"title": "Imagery", "view_node": "/poem/imagery", "field_author": "<a href=\"/poet/archibald-macleish\" hreflang=\"und\">Archibald MacLeish</a>", "field_date_published": "2015", "body": " <p>The tremulously mirrored clouds lie deep,<br />Enchanted towers bosomed in the stream,<br />And blossomed coronals of white-thorn gleam<br />Within the water where the willows sleep\u2014<br />Still-imaged willow-leaves whose shadows steep<br />The far-reflected sky in dark of dream;<br />And glimpsed therein the sun-winged swallows seem<br />As fleeting memories to those who weep.</p><p>So mirrored in thy heart are all desires,<br />Eternal longings, Youth\u2019s inheritance,<br />All hopes that token immortality,<br />All griefs whereto immortal grief aspires.<br />Aweary of the world\u2019s reality,<br />I dream above the imaged pool, Romance.<br />\u00a0</p> "}, {"title": "Achingly Beautiful How the Sky Blooms Umber at the End of the Day, Through the Canopy ", "view_node": "/poem/achingly-beautiful-how-sky-blooms-umber-end-day-through-canopy", "field_author": "<a href=\"/poet/gabrielle-calvocoressi\" hreflang=\"und\">Gabrielle Calvocoressi</a>", "field_date_published": "2015", "body": " <p>Summers spent practicing in the apartment<br />stairwell: hand on the bannister, one foot after<br />another. Did I ever tell you I couldn\u2019t walk</p><p>until I was three and then sort of dragged<br />myself up and downstairs until I was seven<br />or eight? That burgundy carpet.</p><p>I\u2019d stop to breathe and look out the window,<br />over brick tenements, toward the Capitol<br />building. Oak leaves so full of late summer</p><p>sun even I thought, \u201cObscene\u201d and stood stunned<br />for a moment. My God. The urge to rest like the birds<br />on the phone wires, chatting like barristers</p><p>at the end of the day. Myself the useless<br />Ambassador from the third floor. I was the last one<br />up so the door was left open. I can still see it gaping</p><p>from two stories down. Sometimes music played.<br />Sometimes I\u2019d smell supper. Neighbors stopped<br />to say hello. Achingly beautiful how the sky</p><p>looked as I stood after they left. Nicer somehow<br />in the middle. All the trees tucking blackbirds<br />into their darkness. It really did take this long.</p> "}, {"title": "Moonrise", "view_node": "/poem/moonrise-1", "field_author": "<a href=\"/poet/gerard-manley-hopkins\" hreflang=\"und\">Gerard Manley Hopkins</a>", "field_date_published": "2015", "body": " <p><span class=\"long-line\">I awoke in the Midsummer not to call night, in the white and the walk of the morning:</span><br /><span class=\"long-line\">The moon, dwindled and thinned to the fringe of a finger-nail held to the candle,</span><br /><span class=\"long-line\">Or paring of paradisa\u00efcal fruit, lovely in waning but lustreless,</span><br /><span class=\"long-line\">Stepped from the stool, drew back from the barrow, of dark Maenefa the mountain;</span><br /><span class=\"long-line\">A cusp still clasped him, a fluke yet fanged him, entangled him, not quit utterly.</span><br /><span class=\"long-line\">This was the prized, the desirable sight, unsought, presented so easily,</span><br /><span class=\"long-line\">Parted me leaf and leaf, divided me, eyelid and eyelid of slumber.</span></p> "}, {"title": "Summer Triptych", "view_node": "/poem/summer-triptych", "field_author": "<a href=\"/poet/linda-pastan\" hreflang=\"und\">Linda Pastan</a>", "field_date_published": "2015", "body": " <p>1.<br />The world is water<br />to these bronzed boys<br />on their surfboards,<br />riding the sexual waves<br />of Maui<br />like so many fearless<br />cowboys, challenging<br />death on bucking<br />broncos of foam.</p><p>2.<br />On the beach at Santorini<br />we ate those tiny silverfish<br />grilled straight from the sea,<br />and when the sun went down<br />in the flaming west<br />there was applause<br />from all the sated diners,<br />as if it had done its acrobatic plunge<br />just for them.</p><p>3.<br />Swathed from head to toe<br />in seeming veils of muslin,<br />the figure in the Nantucket fog<br />poles along the shoreline on a flat barge.<br />It could be Charon transporting souls<br />across the River Styx, or just<br />another fisherman in a hoodie,<br />trolling for bluefish<br />on the outgoing tide.</p> "}, {"title": "Realtor", "view_node": "/poem/realtor", "field_author": "<a href=\"/poet/randall-mann\" hreflang=\"und\">Randall Mann</a>", "field_date_published": "2015", "body": "<p><span class=\"long-line\">Please</span><br /><span class=\"long-line\">consider Ocean Beach</span><br /><span class=\"long-line\">out of reach.</span><br /><span class=\"long-line\">Try not to gulp</span><br /><span class=\"long-line\">the green water</span><br /><span class=\"long-line\">we porpoise</span><br /><span class=\"long-line\">like employees.</span><br /><span class=\"long-line\">My purpose:</span><br /><span class=\"long-line\">your thought-partner.</span></p>\n\n<p><span class=\"long-line\">There is a feeling</span><br /><span class=\"long-line\">just shy of feeling,</span><br /><span class=\"long-line\">like tongue on teeth.</span><br /><span class=\"long-line\">Disbelief</span><br /><span class=\"long-line\">hangs there,</span><br /><span class=\"long-line\">an ill-chosen comma,</span><br /><span class=\"long-line\">a lanyard with a pass.</span><br /><span class=\"long-line\">I swear the train is coming.</span><br /><span class=\"long-line\">I\u2019m only here to help.</span></p>\n\n<p><span class=\"long-line\">A client bought,</span><br /><span class=\"long-line\">on second thought,</span><br /><span class=\"long-line\">that <em>House in Vermont</em>.</span><br /><span class=\"long-line\">Night is flirty words</span><br /><span class=\"long-line\">with fiends,</span><br /><span class=\"long-line\">the phlebotomists</span><br /><span class=\"long-line\">from Quest</span><br /><span class=\"long-line\">boning up on Thoreau.</span><br /><span class=\"long-line\">It\u2019s too soon to throw</span></p>\n\n<p><span class=\"long-line\">in the cards.</span><br /><span class=\"long-line\">Live and let give?</span><br /><span class=\"long-line\">Here. Let me give</span><br /><span class=\"long-line\">you the <em>high-five</em>.</span><br /><span class=\"long-line\">I searched;</span><br /><span class=\"long-line\">my activism,</span><br /><span class=\"long-line\">lightly starched.</span><br /><span class=\"long-line\">I never meant</span><br /><span class=\"long-line\">to live in euphemism.</span></p>\n"}, {"title": "Vicarious Melancholia", "view_node": "/poem/vicarious-melancholia", "field_author": "<a href=\"/poet/john-koethe\" hreflang=\"und\">John Koethe</a>", "field_date_published": "2015", "body": "<p><span class=\"\u201clong-line\u201d\">It fills up the space where poems used to be,</span><br /><span class=\"long-line\">Until there\u2019s no space left. It\u2019s incessant</span><br /><span class=\"long-line\">Phone calls, figuring out money and flights to</span><br /><span class=\"long-line\">Somewhere, nowhere, not knowing what comes next:</span><br /><span class=\"long-line\">There\u2019s nowhere to go, which is the problem</span><br /><span class=\"long-line\">(I think everything\u2019s the problem) taking its toll.</span><br /><span class=\"long-line\">Diane looked at me cross-eyed at lunch and I sunk</span><br /><span class=\"long-line\">Into a depression I recalled from forty years ago:</span><br /><span class=\"long-line\">The constant consciousness of helplessness;</span><br /><span class=\"long-line\">The constant feeling of inevitability, of the anger</span><br /><span class=\"long-line\">At that feeling; of the separateness of persons.</span><br /><span class=\"long-line\">Talk is like drugs, repeating what I said each night</span><br /><span class=\"long-line\">In the morning, and on the phone each afternoon:</span><br /><span class=\"long-line\">A different hospital each time, then the same hospital.</span><br /><span class=\"long-line\">A fear of selfishness, an imperative of self-defense:</span><br /><span class=\"long-line\">These are the boundaries of my life now,</span><br /><span class=\"long-line\">The borderlines of my existence for a while.</span></p>\n\n<p><span class=\"\u201clong-line\u201d\">\u201cIn the midst of life we are in death.\u201d Any</span><br /><span class=\"long-line\">Person\u2019s death diminishes me, and yet the fear of</span><br /><span class=\"long-line\">Death is something one can only face alone.</span><br /><span class=\"long-line\">Poetry is stylized indifference, a drawing back</span><br /><span class=\"long-line\">From the divide between my life and its negation\u2014</span><br /><span class=\"long-line\">Not because it\u2019s empty, but because it\u2019s full, too full,</span><br /><span class=\"long-line\">Full of someone else\u2019s.\u00a0 Coming home each day</span><br /><span class=\"long-line\">To the message light blinking on the phone,</span><br /><span class=\"long-line\">My heart sinks as I press the button, and the dial tone</span><br /><span class=\"long-line\">Comes as a relief, since I don\u2019t know what to do.</span><br /><span class=\"long-line\">It\u2019s easier in miniature, within the limits of the page,</span><br /><span class=\"long-line\">The confines of a single consciousness, with the drama</span><br /><span class=\"long-line\">All offstage until the phone rings, and it starts again.</span></p>\n"}, {"title": "First Love", "view_node": "/poem/first-love", "field_author": "<a href=\"/poet/jennifer-franklin\" hreflang=\"en\">Jennifer Franklin</a>", "field_date_published": "2015", "body": " <p>The boy beside me<br />is not you but he<br />is familiar in all</p><p>the important ways.<br />I pass through life<br />finding you over</p><p>and over again\u2014<br />oppress you<br />with love. And every</p><p>surrogate?<br />Afflicted by my<br />kindness, they leave</p><p>me with my music.<br />I loved you before<br />I ever loved you.</p> "}, {"title": "[Sometimes I don&#039;t know if I&#039;m having a feeling]", "view_node": "/poem/sometimes-i-dont-know-if-im-having-feeling", "field_author": "<a href=\"/poet/matthew-siegel\" hreflang=\"en\">Matthew Siegel </a>", "field_date_published": "2015", "body": "<p><span class=\"long-line\">Sometimes I don\u2019t know if I\u2019m having a feeling</span><br /><span class=\"long-line\">so I check my phone or squint at the window</span><br /><span class=\"long-line\">with a serious look, like someone in a movie</span><br /><span class=\"long-line\">or a mother thinking about how time passes.</span><br /><span class=\"long-line\">Sometimes I\u2019m not sure how to feel so I think</span><br /><span class=\"long-line\">about a lot of things until I get an allergy attack.</span><br /><span class=\"long-line\">I take my antihistamine with beer, thank you very much,</span><br /><span class=\"long-line\">sleep like a cut under a band aid, wake up</span><br /><span class=\"long-line\">on the stairs having missed the entire party.</span><br /><span class=\"long-line\">It was a real blast, I can tell, for all the vases</span><br /><span class=\"long-line\">are broken, the flowers twisted into crowns</span><br /><span class=\"long-line\">for the young, drunk, and beautiful. I put one on</span><br /><span class=\"long-line\">and salute the moon, the lone face over me</span><br /><span class=\"long-line\">shining through the grates on the front door window.</span><br /><span class=\"long-line\">You have seen me like this before, such a strange</span><br /><span class=\"long-line\">version of the person you thought you knew.</span><br /><span class=\"long-line\">Guess what, I\u2019m strange to us both. It\u2019s like</span><br /><span class=\"long-line\">I\u2019m not even me sometimes. Who am I? A question</span><br /><span class=\"long-line\">for the Lord only to decide as She looks over</span><br /><span class=\"long-line\">my r\u00e9sum\u00e9. Everything is different sometimes.</span><br /><span class=\"long-line\">Sometimes there is no hand on my shoulder</span><br /><span class=\"long-line\">but my room, my apartment, my body are containers</span><br /><span class=\"long-line\">and I am thusly contained. How easy to forget</span><br /><span class=\"long-line\">the obvious. The walls, blankets, sunlight, your love.</span></p>\n"}, {"title": "To Summer", "view_node": "/poem/summer-2", "field_author": "<a href=\"/poet/william-blake\" hreflang=\"und\">William Blake</a>", "field_date_published": "2015", "body": " <p>O Thou who passest thro\u2019 our vallies in<br />Thy strength, curb thy fierce steeds, allay the heat<br />That flames from their large nostrils! thou, O Summer,<br />Oft pitched\u2019st here thy golden tent, and oft<br />Beneath our oaks hast slept, while we beheld<br />With joy, thy ruddy limbs and flourishing hair.</p><p>Beneath our thickest shades we oft have heard<br />Thy voice, when noon upon his fervid car<br />Rode o\u2019er the deep of heaven; beside our springs<br />Sit down, and in our mossy vallies, on<br />Some bank beside a river clear, throw thy<br />Silk draperies off, and rush into the stream:<br />Our vallies love the Summer in his pride.</p><p>Our bards are fam\u2019d who strike the silver wire:<br />Our youth are bolder than the southern swains:<br />Our maidens fairer in the sprightly dance:<br />We lack not songs, nor instruments of joy,<br />Nor echoes sweet, nor waters clear as heaven,<br />Nor laurel wreaths against the sultry heat.</p> "}], "pager": {"current_page": 372, "total_items": "13248", "total_pages": 663, "items_per_page": 20}}