{"rows": [{"title": "Troubadour", "view_node": "/poem/troubadour", "field_author": "<a href=\"/poet/mark-yakich\" hreflang=\"und\">Mark Yakich</a>", "field_date_published": "2014", "body": " <p>When I was a boy and my fist<br />Would land into my father\u2019s arm,<br /><br />I\u2019d cry out, and he\u2019d say<br /><em>Didn\u2019t hurt me none.</em><br /><br />He\u2019s been dead six years now,<br />And my work is still to try<br /><br />To beat myself up<br />And make the pain last.</p> "}, {"title": "Station 40, Chiriu: the Poet Ariwara no Narihira at Eight Bridges", "view_node": "/poem/station-40-chiriu-poet-ariwara-no-narihira-eight-bridges", "field_author": "<a href=\"/poet/debora-greger\" hreflang=\"und\">Debora Greger</a>", "field_date_published": "2014", "body": " <p>What is sky but water, more water,<br />crossed by eight bridges?<br />Is the ancient poet in a rush to reach land?<br /><br />No, he\u2019s already one of the Six Immortals.<br />How long before the papery iris-petals<br />he admires wrinkle? They barely grow beards.<br /><br />In a thousand years, pilgrims will come.<br />They will stand where he stood. Where, they will ask,<br />are the flowers that empurpled his poem?</p> "}, {"title": "The Prairie Town", "view_node": "/poem/prairie-town", "field_author": "<a href=\"/poet/helen-santmyer\" hreflang=\"en\">Helen Santmyer</a>", "field_date_published": "1921", "body": " <p>Lovers of beauty laugh at this grey town,<br />\u00a0 \u00a0 \u00a0Where dust lies thick on ragged curb-side trees,<br />And compass-needle streets lead up and down<br />\u00a0 \u00a0 \u00a0And lose themselves in empty prairie seas.<br /><br />Here is no winding scented lane, no hill<br />\u00a0 \u00a0 \u00a0Crowned with a steepled church, no garden wall<br />Of old grey stone where lilacs bloom, and fill<br />\u00a0 \u00a0 \u00a0The air with fragrance when the May rains fall.<br /><br />But here is the unsoftened majesty<br />\u00a0 \u00a0 \u00a0Of the wide earth where all the wide streets end,<br />And from the dusty corner one may see<br />\u00a0 \u00a0 \u00a0The full moon rise, and flaming sun descend.<br /><br />The long main street, whence farmers\u2019 teams go forth,<br />Lies like an old sea road, star-pointed north.</p> "}, {"title": "The Snow Leopard Mother", "view_node": "/poem/snow-leopard-mother", "field_author": "<a href=\"/poet/jennifer-k-sweeney\" hreflang=\"und\">Jennifer K. Sweeney</a>", "field_date_published": "2014", "body": " <p>The snow leopard mother runs straight<br />down the mountain.<br />Elk cliff. Blizzard.<br />Hammers keening<br />into the night.<br />Her silence and wild<br />falling is a compass<br />of hunger and memory. Breath<br />prints on the carried-away body.<br />This is how it goes so far away<br />from our ripening grapes and lime,<br />coyote eyes rimming the canyon.<br />Yet<br />we paddle out in our ice boat<br />headed toward no future at last.<br />O tired song of what we thought,<br />stillness crouches like a prow.<br />We break the ice gently forward.<br />If I want to cling to anything<br />then this quiet of being the last<br />to know about our lives.</p> "}, {"title": "Dear Michael (25)", "view_node": "/poem/dear-michael-25", "field_author": "<a href=\"/poet/mark-mcmorris\" hreflang=\"und\">Mark McMorris</a>", "field_date_published": "2014", "body": " <p>If poetry is not bread<br /><br />to fortify the righteous<br /><br />is it because we miss<br /><br />in it the savor of contest<br /><br />the whisper of blessing<br /><br />over a martyr's name<br /><br />the light of sacral plans<br /><br />to take the citadel once<br /><br />and for all, or give it up?<br /><br />On the original streets<br /><br />lit by the sun of nineteenth-<br /><br />century novels the workers<br /><br />are gathering to march<br /><br />for their dignity and bread.<br /><br />The planters did not die<br /><br />of happiness. Other exhibits<br /><br />show their meadows<br /><br />their horses and women<br /><br />the English sunset in lands never more than a sigh<br /><br />like a vowel far from home.<br /><br />We ask too much when of<br /><br />the little that we have.<br /><br />In good health fondly yours.<br />\u00a0</p> "}, {"title": "After Lighght", "view_node": "/poem/after-lighght", "field_author": "<a href=\"/poet/tom-thompson\" hreflang=\"und\">Tom Thompson</a>", "field_date_published": "2014", "body": " <p>Look, I\u2019ve already ruined it<br />or it\u2019s ruined me.<br />The dawn I see by doesn\u2019t need me<br />like I need it<br />and any extra letters it brings.<br /><br />What we call mountains<br />is a deep violet strip<br />narrowly rising and falling over the green.<br />You might call them clouds<br />and be right<br /><br />or hand me something crisp<br />call it money or flowers<br />and set it alight.</p> "}, {"title": "Our Many Never Endings", "view_node": "/poem/our-many-never-endings", "field_author": "<a href=\"/poet/courtney-queeney\" hreflang=\"en\">Courtney Queeney</a>", "field_date_published": "2014", "body": "<p><span class=\"long-line\">You entered the bedroom and fell to your knees.</span><br /><span class=\"long-line\">I wait the rest of my life to hear you say, I made a mistake.</span><br /><br /><span class=\"long-line\">Inside my chest, a mangle.</span><br /><span class=\"long-line\">Inside yours, a deflating balloon.</span><br /><br /><span class=\"long-line\">You took the vacuum cleaner, the ironing board, the dish rack</span><br /><span class=\"long-line\">and left me some lint, an iron to scorch shirts, one chipped plate.</span><br /><br /><span class=\"long-line\">I would like to say at least we perfected</span><br /><span class=\"long-line\">entrances and exits, like professional stage actors</span><br /><br /><span class=\"long-line\">honing their craft, but even that\u2019s a fantasy.</span><br /><span class=\"long-line\">Mostly on TV the lions ate the hyenas</span><br /><br /><span class=\"long-line\">but sometimes the hyenas</span><br /><span class=\"long-line\">formed a posse, and tore a lion up.</span><br /><br /><span class=\"long-line\">Occasionally you came in out of the rain</span><br /><span class=\"long-line\">and I was glad to have you.</span></p>\n"}, {"title": "A Sense of Proportion", "view_node": "/poem/sense-proportion", "field_author": "", "field_date_published": "2014", "body": " <p>On 20th between Madison and Ferry<br />a line of municipal maples binds the community<br />to an orderly, serviceable beauty. Platforms<br />from which our sparrows and starlings<br />might decorate our domestic sedans,<br />perhaps these trees serve most to stimulate<br />the car wash economy. Today, they remind me:<br /><br />unsatisfied with workaday species, my parents<br />nailed oranges to a post to attract the exotic Oriole.<br />When the birds arrived, I wondered if they\u2019d flown<br />all the way from Baltimore, which in turn<br />evoked a hotel, gables lined<br />with black and tangerine, posh clientele<br />spackled by the vagaries of Maryland living.<br /><br />By nine I could sigh, climb our single<br />red maple, which I imagined a national landmark.<br />Child of movies, I could see the tree even at night<br />as a kind of beacon, a singularity. White<br />sheen on the leaves\u2019 pitchy gloss, bodily.<br />And I too would learn to feel glazed<br />as any creature accumulating light<br /><br />cast from stars, hidden in a federation<br />of equivalent times, distant trains<br />carrying sugar, coal, whole families beyond<br />deserts, imposing ranges, shimmering coastlines<br />said to define the spirit of a people.<br />Far from the station, the pinpoint aurora,<br />a line of municipal maples bears its charge.</p> "}, {"title": "Lunch at a City Club", "view_node": "/poem/lunch-city-club", "field_author": "<a href=\"/poet/stephen-vincent-benet\" hreflang=\"und\">Stephen Vincent Ben\u00e9t</a>", "field_date_published": "1920", "body": " <p><em>(For, though not to, D. M. C.)</em><br /><br />The member with the face like a pale ham<br />Settles his stomachs in the leather chair.<br />The member with the mustard-color hair<br />Chats with the member like a curly ram,<br />Then silence like the shutting of a clam,<br />Gulps, and slow eating, and the waiters\u2019 stare\u2014<br />Like prosperous leeches settling to their fare<br />The members gorge, distending as they cram.<br /><br />And I am fiery ice\u2014and a hand knocks<br />Inside my heart. Three hours till God comes true,<br />When there\u2019s no earth or sky or time in clocks<br />But only hell and paradise and you.<br />Life bows his strings! I shout the amazing tune!<br />\u2026The dullest member drops his coffee spoon.</p> "}, {"title": "To America", "view_node": "/poem/america-5", "field_author": "<a href=\"/poet/james-weldon-johnson\" hreflang=\"und\">James Weldon Johnson</a>", "field_date_published": "1917", "body": "<p>How would you have us, as we are?<br />\nOr sinking 'neath the load we bear?<br />\nOur eyes fixed forward on a star?<br />\nOr gazing empty at despair?<br /><br />\nRising or falling? Men or things?<br />\nWith dragging pace or footsteps fleet?<br />\nStrong, willing sinews in your wings?<br />\nOr tightening chains about your feet?</p>\n"}, {"title": "Love in the Morning", "view_node": "/poem/love-morning", "field_author": "<a href=\"/poet/annie-finch\" hreflang=\"und\">Annie Finch</a>", "field_date_published": "2014", "body": "<p><span class=\"long-line\">Morning\u2019s a new bird</span><br /><span class=\"long-line\">stirring against me</span><br /><span class=\"long-line\">out of a quiet nest,</span><br /><span class=\"long-line\">coming to flight\u2014</span></p>\n\n<p><span class=\"long-line\">quick-changing,</span><br /><span class=\"long-line\">slow-nodding,</span><br /><span class=\"long-line\">breath-filling body,</span></p>\n\n<p><span class=\"long-line\">life-holding,</span><br /><span class=\"long-line\">waiting,</span><br /><span class=\"long-line\">clean as clear water,</span></p>\n\n<p><span class=\"long-line\">warmth-given,</span><br /><span class=\"long-line\">fire-driven</span><br /><span class=\"long-line\">kindling companion,</span></p>\n\n<p><span class=\"long-line\">mystery and mountain,</span><br /><span class=\"long-line\">dark-rooted,</span><br /><span class=\"long-line\">earth-anchored.</span></p>\n"}, {"title": "valentine for Sally Hemings", "view_node": "/poem/valentine-sally-hemings", "field_author": "<a href=\"/poet/sojourner-ahebee\" hreflang=\"en\">Sojourner Ahebee</a>", "field_date_published": "2014", "body": " <p>there\u2019s a dead jefferson in every black girl\u2019s belly,<br />an unknown hunger for something stolen.<br />i found a poem in these parts, in the belly of a black girl.<br /><br />i was told to look in the garage,<br />into the person i almost liked,<br />at the bottom of an odd blue sock buried<br />in my dresser drawer:<br />the hiding places of my life.<br /><br />oh, but if you only knew<br />the way I wanted to love the dead president,<br />rescue him from the depths of a stomach,<br />feed him the warm soil from a Virginia plantation,<br />feed him pages from my history books,<br />heavy with lies.<br /><br />but then i heard Sally scream,<br />and wondered what she\u2019d think of me,<br />i heard Sally scream<br />and wondered what all the black girls<br />with bloated bellies would think of me<br />in my confusion:<br />the way i mistaked his breath, smelling of lavender and france,<br />for liberty,<br />when this scent was made of more potent stuff,<br />of silence,<br />of a black girl\u2019s blood against white sheets.<br /><br />i went looking for a poem<br />in the darkness,<br />a love poem for Sally,<br />an apology,<br />a revelation,<br />a dead man haunting the hallways<br />of a breaking girl.</p> "}, {"title": "With Passing Wonder I Notice the Tracks of an Animal", "view_node": "/poem/passing-wonder-i-notice-tracks-animal", "field_author": "<a href=\"/poet/david-biespiel\" hreflang=\"en\">David Biespiel</a>", "field_date_published": "2014", "body": " <p>It comes out of the language of nothing I recognize<br />Though it is something in you, at least as I keep<br />\u00a0 \u00a0 \u00a0 \u00a0 \u00a0 \u00a0 \u00a0 \u00a0 \u00a0 \u00a0 \u00a0 \u00a0 \u00a0 \u00a0 \u00a0 \u00a0 \u00a0 \u00a0 \u00a0 \u00a0 \u00a0 \u00a0 \u00a0 \u00a0 \u00a0 \u00a0 \u00a0looking at you<br />And you turn back to me. I ought to have guessed<br />From the simple order of the tracks that you knew<br />Without looking what place in the wild night<br />The animal came from,<br />\u00a0 \u00a0 \u00a0 \u00a0 \u00a0 \u00a0 \u00a0 \u00a0 \u00a0 \u00a0 \u00a0and through which of our windows<br />It has looked into, sometimes with an eye<br />On our waking, other times on our sleeping<br />\u00a0 \u00a0 \u00a0 \u00a0 \u00a0 \u00a0 \u00a0 \u00a0 \u00a0 \u00a0 \u00a0 \u00a0 \u00a0 \u00a0 \u00a0 \u00a0 \u00a0 \u00a0 \u00a0 \u00a0 \u00a0 with the doorways open<br />Where, I suppose, the spirits of the defeated<br />Appear, white as lakes, carrying maps to someplace<br />Ahead of us, running now, and now you running,<br />And the animals guiding your footsteps,<br />Like a flake of snow,<br />You, without a single acquaintance among the spirits,<br />Or understanding, you so solitary in your running.<br />\u00a0 \u00a0 \u00a0 \u00a0 \u00a0 \u00a0 \u00a0 \u00a0 \u00a0 \u00a0 \u00a0 \u00a0 \u00a0 \u00a0 \u00a0 \u00a0 \u00a0 \u00a0 \u00a0 \u00a0 \u00a0 \u00a0 \u00a0And then the return\u2014<br />And I assume you have nothing to say<br />And that if I wait there'll be only the waiting<br />Then nothing but a moment of darkness<br />And a surprising order stirring in the head<br />Shaking off the early morning cold.<br />Then all at once a door closing,<br />\u00a0 \u00a0 \u00a0 \u00a0 \u00a0 \u00a0 \u00a0 \u00a0 \u00a0 \u00a0 \u00a0an hour of answerless letting go<br />Like a last hammer of blue sky<br />Cracking the light.</p> "}, {"title": "Life\u2019s Ironies", "view_node": "/poem/lifes-ironies", "field_author": "<a href=\"/poet/jane-miller\" hreflang=\"und\">Jane Miller</a>", "field_date_published": "2014", "body": " <p>Life\u2019s ironies irritate my afternoon hours like wool. One, I\u2019m in a foreign country in my own head; two, I\u2019m sometimes lonely living with two women; three, people are having sex in shop windows but we haven\u2019t made love in weeks; four, the more Alexis smokes, the better her singing voice; the more I clean up, the more I feel like Alexis\u2019 ashtray; the more I read, the more I lose my place. Unsettled, I get hungry, and remember pears and young Gouda in the refrigerator. I throw down my books. Ironically, given their status as objects, the red pear and the pale cheese are breathing furiously, inhabiting the world I left. All told, the pear is a great relief, luxuriating on a plate as blue as the Dutch flag, with the pungent Gouda such a pure moment of pale yellow!</p> "}, {"title": "What Are They Doing in the Next Room", "view_node": "/poem/what-are-they-doing-next-room", "field_author": "<a href=\"/poet/bruce-smith\" hreflang=\"und\">Bruce Smith</a>", "field_date_published": "2014", "body": " <p>Are they unmaking everything?<br />Are they tuning the world sitar?<br />Are they taking an ice pick to being?<br />Are they enduring freedom in Kandahar?<br /><br />Sounds, at this distance, like field hollers,<br />sounds like they\u2019ll be needing CPR.<br />Sounds like the old complaint of love and dollars.<br />Sounds like when Coltrane met Ravi Shankar<br /><br />and the raga met the rag and hearing<br />became different and you needed CPR<br />after listening and tearing was tearing<br />and love was a binary star\u2014<br /><br />distant bodies eclipsing each other<br />with versions of gravity and light.<br />Sounds like someone\u2019s trying to smother<br />the other\u2014a homicide or a wedding night.<br /><br />The television derives the half-full hours.<br />Time exists as mostly what\u2019s to come.<br /><em>Losing also is ours\u2026</em><br />I meant that as a question.<br /><br />Is <em>I</em> the insomniac\u2019s question?<br />Are <em>you</em> a dendrite or a dream?<br />Between oblivion and affection,<br />which one is fear and which protection?<br /><br />Are they transitive or in?<br />Are they process or product?<br />Are they peeling off the skin?<br />Are they Paris or the abducted?<br /><br />They\u2019re reading something after Joyce,<br />post modern stuff that can be read<br />but not understood except as voices<br />rising and falling from the dead.<br /><br />Do they invent me<br />as I invent their faces?<br />I see surveillance gray wasted<br />with bliss at having thieved identities.<br /><br />In the AM, when <em>t\u00fa</em> turns to <em>usted</em>,<br />the sun clocks in to overwrite the night<br />with hues and saturations and the red<br />hesitates for a second to be incarnate.</p> "}, {"title": "Rite de Passage and the Irony of the Sharpshooter", "view_node": "/poem/rite-de-passage-and-irony-sharpshooter", "field_author": "<a href=\"/poet/john-kinsella\" hreflang=\"und\">John Kinsella</a>", "field_date_published": "2014", "body": " <p>Mum sent me a photo<br />of a sign near Jam Tree Gully<br />that\u2019s been peppered by<br />shotgun pellets. It\u2019s become<br />a recurring image in poems<br />written in separation,<br />but tuned to <em>zeitgeist</em>.<br />But what I\u2019ve not drawn<br />out of sublingual and tangled<br />syntax of observation<br />is that I have been with shooters<br />who\u2019ve pierced, decorated,<br />illustrated or condemned<br />signs to damnation,<br />and that I have myself,<br />as a teenager, shot at one.<br />I am not sure if this<br />is confession, nor am<br />I sure it was a <em>rite de passage</em>,<br />being on my own at the time,<br />drunk and lonely and curious<br />to see if a twenty-two would<br />more than dent the heavy-gauge steel.<br />A single shot into the centre<br />of a crossroads sign\u2014a desire<br />to bullseye, to mark ambiguity<br />where there was no ambiguity.<br />There are rules for traffic,<br />even where traffic is rare,<br />where braking on gravel<br />could have you slide<br />concurrently to a dead centre.<br />I listen for that pinging<br />of symbols and emblems,<br />\u2018instruction\u2019 and \u2018information,\u2019<br />and it sounds less like a bell<br />than a warning shot.</p> "}, {"title": "Before and Every After", "view_node": "/poem/and-every-after", "field_author": "<a href=\"/poet/marianne-boruch\" hreflang=\"und\">Marianne Boruch</a>", "field_date_published": "2014", "body": " <p>\u00a0 \u00a0 \u00a0 \u00a0 \u00a0 \u00a0 \u00a0 \u00a0 \u00a0 \u00a0 \u00a0 \u00a0 \u00a0 \u00a0 \u00a0 \u00a0 \u00a0 \u00a0\u2014<em>in memory</em><br /><br /><br />Eventually one dreams the real thing.<br /><br />The cave as it was, what we paid to straddle<br />one skinny box-turned-seat down the middle, narrow boat<br />made special for the state park, the wet, the tricky<br /><br />passing into rock and underground river.<br /><br />A single row of strangers faced front, each of us<br />behind another close<br />as dominoes to fall or we were angels lined up<br />politely, pre-flight, like that was<br />a coffin we rode, the go-to, take-out end of it,<br /><br />a shipping container for a giant.<br /><br />Now every after\u2014<br />Not to embellish, but I count the ice age in this story<br />since its grinding <em>made</em> that cave.<br /><br />I count us too, as mourners.<br /><br />A smart, full-of-fun-facts park ranger poled us<br />past summer. A cool which meant dark, meaning<br />I pictured the giant in life before<br />he lay down in that boat<br /><br />under the blood in us, under our breathing.<br /><br />Upright, his long bones<br />and knobby joints. He slouched in a doorway<br />smoking cigarettes, talking What-Would-Bertram-Russell-Do<br />kindly and funny to the dumb<br />all of us who adored him, not dream and then dream.<br /><br />Repeatedly, that thing about us adoring him.<br /><br />The ranger pointed out the obvious<br />spare mob scene of caves: the endless drip to make<br />a stalactite, tiny crawfish and frogs transparent, hearts<br />by flashlight, visibly beating away.<br /><br />We got quiet drifting deeper.<br /><br />What does it mean, something over and over<br />with your eyes shut?<br /><br />I remember us from before too,<br />from museums. I love us there still, the same<br />us, the way the ancient Egyptians kept their dead<br />safe crossing over, smallish<br />intricate models\u2014who they were and even<br />their sorrow to scale\u2014those<br />rowing tireless to the other side.<br /><br />A boat the length of my forearm, faces<br />to freeze like that<br />forward, released, the blankest wonder though I think<br />we came back. Of course he did not<br /><br />and could not, the giant I made up<br /><br />for the passage. But all night, how the whole dream<br />grateful I was to others<br />patient, more steely practical with<br />things sacred, who took the real one across<br /><br />hours before we got there.</p> "}, {"title": "The Affair", "view_node": "/poem/affair", "field_author": "<a href=\"/poet/wayne-miller\" hreflang=\"und\">Wayne Miller</a>", "field_date_published": "2014", "body": " <p>1<br /><br />It was a desire to jump narratives\u2014<br /><br />to find himself suddenly<br />encircled by different lights<br /><br />in the distant hills. To find<br />the hum of the engine<br /><br />conveying him forward<br /><br />had altered its tone. The self<br /><em>had</em> to be asserted<br /><br />against that which seemed<br /><br />merely given: the body\u2019s<br />untranscendable location\u2014<br /><br />to step outside it, outside<br />what was visible<br /><br />in the mirror in the room.<br /><br />2<br /><br />He found himself threaded<br />through the mouth<br /><br />by his only narrative,<br />the body that held it<br /><br />propelling him forward<br /><br />through the dark, the light<br />of that narrative<br /><br />reaching out to strike<br />the ground before him<br /><br />in his only voice.</p> "}, {"title": "Labor as a Tulip", "view_node": "/poem/labor-tulip", "field_author": "<a href=\"/poet/karen-volkman\" hreflang=\"und\">Karen Volkman</a>", "field_date_published": "2014", "body": " <p>Labor as a tulip<br />arrays its flame, <em>nu</em><br />form, as the bulb-star,<br />interred, divines its ore<br /><br />surging the gulf<br />rooting it into<br />appalled memento<br />pulsing will.<br /><br />Leaf-blades score the heap.<br />Other wounds\u2014penetralia\u2014<br />other worlds, cries, <em>far</em>.<br />Filaments, simples<br /><br />emblazoning the rei,<br />rebus of grief.<br />Unslumbering terra<br />premising her kill.</p> "}, {"title": "Old Folks&#039; Jokes", "view_node": "/poem/old-folks-jokes", "field_author": "<a href=\"/poet/ravi-shankar\" hreflang=\"und\">Ravi Shankar</a>", "field_date_published": "2014", "body": " <p>Porous the punchline<br />spoken through wads<br />of lettuce at lunchtime<br />by the septuagenarian<br />vegetarian who has never<br />flashed a peace sign,<br />nor could distinguish it<br />from a Vulcan salute.<br />He\u2019s not the font<br />of the jokes he paces<br />in front of the mirror\u2014<br />even the one liners<br />are anonymous, traffic<br />conversation like air<br />or money. Not to him.<br />No sooner he hears one<br />he likes, he owns it.<br />Spins the extended bits<br />out with panache,<br />skips an extra extra<br /><em>extra</em> beat from the end,<br />bringing out in the eyes<br />and bellies of his morning<br />shuffleboard or pill-<br />buddies, laughter in rising<br />cascades that mistaking<br />each pause as ultimate<br />begins to agitate the rows<br />of green jello in the thunder<br />of many dentures exploding<br />into pure guffawing.</p> "}], "pager": {"current_page": 404, "total_items": "13248", "total_pages": 663, "items_per_page": 20}}