{"rows": [{"title": "In a Beautiful Country", "view_node": "/poem/beautiful-country", "field_author": "<a href=\"/poet/kevin-prufer\" hreflang=\"und\">Kevin Prufer</a>", "field_date_published": "2011", "body": " <pre>\nA good way to fall in love\nis to turn off the headlights\nand drive very fast down dark roads.\n\nAnother way to fall in love\nis to say they are only mints\nand swallow them with a strong drink.\n\nThen it is autumn in the body.\nYour hands are cold.\nThen it is winter and we are still at war.\n\nThe gold-haired girl is singing into your ear\nabout how we live in a beautiful country.\nSnow sifts from the clouds\n\ninto your drink. It doesn't matter about the war.\nA good way to fall in love\nis to close up the garage and turn the engine on,\n\nthen down you'll fall through lovely mists\nas a body might fall early one morning\nfrom a high window into love. Love,\n\nthe broken glass. Love, the scissors\nand the water basin. A good way to fall\nis with a rope to catch you.\n\nA good way is with something to drink\nto help you march forward.\nThe gold-haired girl says, <i>Don't worry\n\nabout the armies, says, We live in a time\nfull of love</i>. You're thinking about this too much.\nSlow down. Nothing bad will happen.</pre>\n "}, {"title": "Red and Blue Planets", "view_node": "/poem/red-and-blue-planets", "field_author": "<a href=\"/poet/joni-wallace\" hreflang=\"und\">Joni Wallace</a>", "field_date_published": "2011", "body": " <pre>\nWhat we're drawn to is proof enough:\nthese pills, other acts of disappearance.\nI've written a song about a girl who swallowed the blue planets:\nKevlar, Caroline, O Beautiful Bomb.\nSo perfectly haplessly cruel the world we've made.\n<i>Let's meet back here in 5 minutes</i>, you say, you always say.\nI'll bring the Lite-Brite.\nI'll bring the hole in my heart, a white star burning.\nMore and more, the rock show.\nVenus rising is a glass wrecking ball,\ninside red harbors, red sails.</pre>\n "}, {"title": "forgetting something", "view_node": "/poem/forgetting-something", "field_author": "<a href=\"/poet/nick-flynn\" hreflang=\"und\">Nick Flynn</a>", "field_date_published": "2011", "body": " <p>Try this\u2014close / your eyes. No, wait, when\u2014if\u2014we see each other / again the first thing we should do is close our eyes\u2014no, / first we should tie our hands to something / solid\u2014bedpost, doorknob\u2014 otherwise they (wild birds) / might startle us / awake. Are we forgetting something? What about that / warehouse, the one beside the airport, that room / of black boxes, a man in each box? I hear / if you bring this one into the light he will not stop / crying, if you show this one a photo of his son / his eyes go dead. Turn up / the heat, turn up the song. First thing we should do / if we see each other again is to make / a cage of our bodies\u2014inside we can place / whatever still shines.</p><p>\u00a0</p> "}, {"title": "Almost Sixty", "view_node": "/poem/almost-sixty", "field_author": "<a href=\"/poet/jim-moore\" hreflang=\"und\">Jim Moore</a>", "field_date_published": "2011", "body": " <pre>\n<b>1</b>\n\n\u00a0\u00a0\u00a0\u00a0No, I don't know\n\nthe way to get there.\n\u00a0\u00a0\u00a0\u00a0Two empty suitcases sit in the corner,\nif that's any kind of clue.\n\n<b>2</b>\n\n\u00a0\u00a0\u00a0\u00a0This spring night,\n\neveryone at the party\n\u00a0\u00a0\u00a0\u00a0younger than me\nexcept for one man.\n\u00a0\u00a0\u00a0\u00a0We give each other the secret password.\n\n<b>3</b>\n\n\u00a0\u00a0\u00a0\u00a0Tears? Of course, but also the marsh grass\n\nnear the Mississippi:\n\u00a0\u00a0\u00a0\u00a0your whispers and mine,\nand the dog's long contented sighs.</pre>\n "}, {"title": "Plural Happiness", "view_node": "/poem/plural-happiness", "field_author": "<a href=\"/poet/david-rivard\" hreflang=\"und\">David Rivard</a>", "field_date_published": "2011", "body": " <pre>\nA curtain bellying like a pregnant cloud, warm white\nlight refracted through a tumbler of peat-smoked scotch\u2014\na scorcher of a day at cooling end, with stupendous berries\nto eat in lieu of supper, the scoffed pint box of blueberries\nchased by a half of cantaloupe &amp; Maytag blue cheese\nspread across the remains of last night's baguette\u2014\na plural happiness\u2014I feel encouraged for all\nwithin range\u2014even the hang-gliding error that sent\nJesus spiraling down to earth seems a commitment.\nTomorrow we'll go to Alison's wedding, who\nat age 2 &amp; 3/4 attended our wedding 26 years ago,\nher blond curls a mystery to be held up &amp; photographed\nbetween her mother &amp; father dark-haired Diane &amp; Larry\u2014\nin the riddle of our recessive genes once in a while\nsomething surprising waits for anybody out &amp; about.\nLike hearing for the first time a blind preacher or waking\nin a Gros Vent campground south of Jenny Lake,\nthe best happiness is always accidental,\u2014&amp; why not?\nI was going to say something about boundlessness\nback there (or was it getting gassed I meant?), but that\nisn't it exactly either. Tho it is pretty close. Close\nenough. And real. Real enough, &amp; sure. God it felt good\nto heat water on a primus stove while yawning\nand to wash my face in cold Gros Vent &amp; love Michaela.</pre>\n "}, {"title": "A Wedding at Cana, Lebanon, 2007", "view_node": "/poem/wedding-cana-lebanon-2007", "field_author": "<a href=\"/poet/tom-sleigh\" hreflang=\"und\">Tom Sleigh</a>", "field_date_published": "2011", "body": " <pre>\nHe said, \"It is terrible what happens.\"\n\u00a0\u00a0\u00a0\u00a0\u00a0\u00a0\u00a0\u00a0\u00a0\u00a0\u00a0And \"So, Mr. Tom,\ndo not forget me\"\u2014an old-fashioned ring, pop tunes,\nsalsa! salsa! the techno-version of Beethoven's\nFifth, Fairouz singing how love has arrived,\nthat's what he heard after they dropped the bombs,\nhis ambulance crawling through smoke while cellphones\ngoing off here here here kept ringing\u2014\nhow the rubble-buried bodies' still living\nrelatives kept calling to see who survived.\n\nAnd when he dug through concrete scree scorched black\n\u00a0\u00a0\u00a0\u00a0\u00a0\u00a0\u00a0\u00a0\u00a0\u00a0\u00a0still smoking\nfrom the explosion, squadrons of jets droning overhead,\nhouses blown to rebar, he saw cellphones'\ndisplay lights flashing from incoming calls\nand when he flipped the covers, saw phone camera pics,\npics of kids, wives, dads, single, grouped, some wearing\nsilly party hats, scenes of hilarity\ncompacted on the screen: it was \"not good\"\nhe said, to have to take the phone out of the body\n\npart pocket: <i>Hello\u2014no, no, he's here,\n\u00a0\u00a0\u00a0\u00a0\u00a0\u00a0\u00a0\u00a0\u00a0\u00a0\u00a0right here, but not</i>\u2014\nand then he'd have to explain...and so he stopped\nanswering. A soft-spoken young man\nstudying engineering, only moonlighting\nas an ambulance driver, he stood at\nthe crossroads where Jesus turned water\ninto wine and where, rising out of rubble, floating down\nthe cratered street, bride and bridegroom came walking\nin the heat and as they came the wedding guests held up\ncell cameras clicking when the couple climbed, waving,\n\u00a0\u00a0\u00a0\u00a0\u00a0\u00a0\u00a0\u00a0\u00a0\u00a0\u00a0into TRUST TAXI\nblazoned on the car's rear windscreen. The muezzin's\nnasal wail began to blare all over town, and the pair\ndrove off to ululating shouts and cries, firecrackers\nkicking up dust in the square. The show over, we\ngot back into our car, our tires crunching\nover rubble. As I sat there rubbernecking\nat a burned-out tank, he shrugged: \"All this\u2014how embarrassing.\"\nAnd \"I hope this is the story you are after.\"</pre>\n "}, {"title": "Sci-Fi", "view_node": "/poem/sci-fi", "field_author": "<a href=\"/poet/tracy-k-smith\" hreflang=\"und\">Tracy K. Smith</a>", "field_date_published": "2011", "body": "<p><span class=\"long-line\">There will be no edges, but curves.</span><br /><span class=\"long-line\">Clean lines pointing only forward.</span></p>\n<p><span class=\"long-line\">History, with its hard spine &amp;\u00a0dog-eared</span><br /><span class=\"long-line\">Corners, will be replaced with nuance,</span></p>\n<p><span class=\"long-line\">Just like the dinosaurs gave way</span><br /><span class=\"long-line\">To mounds and mounds of ice.</span></p>\n<p><span class=\"long-line\">Women will still be women, but</span><br /><span class=\"long-line\">The distinction will be empty. Sex,</span></p>\n<p><span class=\"long-line\">Having outlived every threat, will gratify</span><br /><span class=\"long-line\">Only the mind, which is where it will exist.</span></p>\n<p><span class=\"long-line\">For kicks, we'll dance for ourselves</span><br /><span class=\"long-line\">Before mirrors studded with golden bulbs.</span></p>\n<p><span class=\"long-line\">The oldest among us will recognize that glow\u2014</span><br /><span class=\"long-line\">But the word <em>sun</em>\u00a0will have been re-assigned</span></p>\n<p><span class=\"long-line\">To a Standard Uranium-Neutralizing device</span><br /><span class=\"long-line\">Found in households and nursing homes.</span></p>\n<p><span class=\"long-line\">And yes, we'll live to be much older, thanks</span><br /><span class=\"long-line\">To popular consensus. Weightless, unhinged,</span></p>\n<p><span class=\"long-line\">Eons from even our own moon, we'll drift</span><br /><span class=\"long-line\">In the haze of space, which will be, once</span></p>\n<p><span class=\"long-line\">And for all, scrutable and safe.</span></p>\n"}, {"title": "At the Blue Note", "view_node": "/poem/blue-note", "field_author": "<a href=\"/poet/pablo-medina\" hreflang=\"und\">Pablo Medina</a>", "field_date_published": "2011", "body": " <blockquote><i>for Karen Bentivenga</i></blockquote>\n<pre>\nSometimes in the heat of the snow\nyou want to cry out\n\nfor pleasure or pain like a bell.\nAnd you wind up holding each other,\n\nlistening to the in-between \ndespite the abyss at the edge of the table. \n\nHell. Mulgrew Miller plays like a big \nbad spider, hands on fire, the piano\n\ntrembling like crystal,\nthe taste and smell of a forest under water.\n\nThe bartender made us a drink\nwith butterfly wings and electric wire. \n\nBitter cold outside, big silence, \na whale growing inside us.</pre>\n "}, {"title": "Bone &amp; Silence", "view_node": "/poem/bone-silence", "field_author": "<a href=\"/poet/gerald-fleming\" hreflang=\"und\">Gerald Fleming</a>", "field_date_published": "2011", "body": " <p>\u00a0\u00a0\u00a0A long time passes\u2014long even in the understanding of stone\u2014and at last Bone feels entitled to speak to Silence. There are prerequisites: proper depth, aridity, desiccation, ph balance, density, and a kind of confidence. No loam: say salt, say dust, say southwest Utah. And when the conversation occurs it is understood on Bone's part what to expect from Silence, so one could say that expectations were low, but such is a pattern of our thinking, and in this case the entire dry dialectic is different, and in fact expectations were high. There is a moon shining, unknown to Bone, intimate with Silence. There are mammals overhead, the noise of whose small feet are perceived or unperceived.<br />\u00a0\u00a0\u00a0And after all this discursive talk, what at last does Bone say to Silence? What would <i>you</i> have Bone say to Silence? We could try <i>Is there anywhere we can go for a beer?</i> and that might get a little laugh, might qualify as ineffably human, almost religious. But we know better about Bone &amp; Silence\u2014need only look inside us, have the bravery to cease this chatter, this scrape of pencil on paper, to leave the rest of the book blank, get out of the way, let the conversation begin.</p> "}, {"title": "Q &amp; A", "view_node": "/poem/q", "field_author": "<a href=\"/poet/terence-winch\" hreflang=\"und\">Terence Winch</a>", "field_date_published": "2011", "body": " <p><b>Q.</b> How important is theory in this poem? It seems as though<br />it just starts, goes nowhere, tells us nothing we need to know.<br /><br /><b>A.</b> The concern here is with necessity, not fact. The poem could tell<br />you everything you wanted to know, but doesn't.<br />Some poems begin in the rinse cycle. This one goes right to spin.<br /><br /><b>Q.</b> We noticed how marvelous the upper strata of the poem is. It suggests<br />the appeal of authoritarian faith in the old-fashioned<br />middle class. Did you write it on a train?<br /><br /><b>A.</b> One day I heard laughter coming from some mysterious source. First I thought<br />it came from several people who were stuck at the bottom of a well.<br />Then I speculated it could be a group of teenagers on the level right above me.<br />After a while, however, I wondered if it might actually be weeping.<br />I got out my address book and started calling around. In fact, people<br /><i>were</i> crying when I managed to get in touch with them. Where are<br />your social contracts now, I snarled, your precious theses on the absolute?<br />I averted my gaze as their beliefs unraveled.</p><p><b>Q.</b> We can't help but notice how you seem to be suppressing what you<br />really mean. Are you naked in this poem?<br /><br /><b>A.</b> I have these pastes and mud packs that I smear all over me, so I'm<br />never really naked, even when I have no clothes on.<br />The same thing goes for this poem.<br />It's beautiful, stark, totally blank, yet colorful, like a sin<br />you're considering but haven't yet committed.</p><p>\u00a0</p> "}, {"title": "Thumping", "view_node": "/poem/thumping", "field_author": "<a href=\"/poet/william-corbett\" hreflang=\"und\">William Corbett</a>", "field_date_published": "2011", "body": " <pre>\nFisherman's arm\nUp and down\nLike a pump handle\nThe old-fashioned way\nFlashing a large silver\nSpangle off the bottom\nWhere lakers lurk in August.\nBarefoot Thelonious and Bruno\nRun in the grass of memory.</pre>\n "}, {"title": "Ghost in the Land of Skeletons", "view_node": "/poem/ghost-land-skeletons", "field_author": "<a href=\"/poet/christopher-kennedy\" hreflang=\"und\">Christopher  Kennedy</a>", "field_date_published": "2011", "body": " <p>\u00a0 \u00a0 \u00a0 \u00a0 \u00a0 \u00a0 \u00a0 \u00a0 \u00a0 \u00a0 \u00a0 \u00a0 \u00a0 \u00a0 \u00a0\u00a0\u00a0<i>For Russell Edson</i></p><p>If not for flesh's pretty paint, we're just a bunch of skeletons, working hard to deny the fact of bones. Teeth remind me that we die. That's why I never smile, except when looking at a picture of a ghost, captured by a camera lens, in a book about the paranormal. When someone takes a picture of a spirit, it gives me hope. I admire the ones who refuse to go away. Lovers scorned and criminals burned. I love the dead little girl who plays in her yard, a spectral game of hide and seek. It's the fact they don't know they're dead that appeals to me most. Like a man once said to me, <i>Do you ever feel like you're a ghost</i>? <i>Sure</i>, I answered, <i>every day</i>. He laughed at that and disappeared. All I could think was he beat me to it.</p> "}, {"title": "Spring and All, XIV", "view_node": "/poem/spring-and-all-xiv", "field_author": "<a href=\"/poet/william-carlos-williams\" hreflang=\"und\">William Carlos Williams</a>", "field_date_published": "1962", "body": " <pre>\nOf death\nthe barber\nthe barber\ntalked to me\n\ncutting my\nlife with\nsleep to trim\nmy hair\u2014\n\nIt's just\na moment\nhe said, we die\nevery night\u2014\n\nAnd of \nthe newest\nways to grow\nhair on\n\nbald death\u2014\nI told him\nof the quartz\nlamp\n\nand of old men\nwith third\nsets of teeth\nto the cue\n\nof an old man\nwho said\nat the door\u2014\nSunshine today!\n\nfor which \ndeath shaves\nhim twice\na week</pre>\n "}, {"title": "Elegy in Joy [excerpt]", "view_node": "/poem/elegy-joy-excerpt", "field_author": "<a href=\"/poet/muriel-rukeyser\" hreflang=\"und\">Muriel Rukeyser</a>", "field_date_published": "2011", "body": "<p><span class=\"long-line\">We tell beginnings: for the flesh and the answer,</span><br /><span class=\"long-line\">or the look, the lake in the eye that knows,</span><br /><span class=\"long-line\">for the despair that flows down in widest rivers,</span><br /><span class=\"long-line\">cloud of home; and also the green tree of grace,</span><br /><span class=\"long-line\">all in the leaf, in the love that gives us ourselves.</span></p>\n<p><span class=\"long-line\">The word of nourishment passes through the women,</span><br /><span class=\"long-line\">soldiers and orchards rooted in constellations,</span><br /><span class=\"long-line\">white towers, eyes of children:\u00a0</span><br /><span class=\"long-line\">saying in time of war What shall we feed?</span><br /><span class=\"long-line\">I cannot say the end.</span></p>\n<p><span class=\"long-line\">Nourish beginnings, let us nourish beginnings.</span><br /><span class=\"long-line\">Not all things are blest, but the</span><br /><span class=\"long-line\">seeds of all things are blest.</span><br /><span class=\"long-line\">The blessing is in the seed.</span></p>\n<p><span class=\"long-line\">This moment, this seed, this wave of the sea, this look, this instant of love.</span><br /><span class=\"long-line\">Years over wars and an imagining of peace. Or the expiation journey</span><br /><span class=\"long-line\">toward peace which is many wishes flaming together,</span><br /><span class=\"long-line\">fierce pure life, the many-living home.</span><br /><span class=\"long-line\">Love that gives us ourselves, in the world known to all</span><br /><span class=\"long-line\">new techniques for the healing of the wound,</span><br /><span class=\"long-line\">and the unknown world. One life, or the faring stars.</span></p>\n"}, {"title": "Grasshopper", "view_node": "/poem/grasshopper", "field_author": "<a href=\"/poet/ron-padgett\" hreflang=\"und\">Ron Padgett</a>", "field_date_published": "2011", "body": " <pre>\nIt's funny when the mind thinks about the psyche,\nas if a grasshopper could ponder a helicopter.\n\nIt's a bad idea to fall asleep\nwhile flying a helicopter:\n\nwhen you wake up, the helicopter is gone\nand you are too, left behind in a dream,\n\nand there is no way to catch up,\nfor catching up doesn't figure\n\nin the scheme of things. You are\nwho you are, right now,\n\nand the mind is so scared it closes its eyes\nand then forgets it has eyes\n\nand the grasshopper, the one that thinks\nyou're a helicopter, leaps onto your back!\n\nHe is a brave little grasshopper\nand he never sleeps\n\nfor the poem he writes is the act\nof always being awake, better than anything\n\nyou could ever write or do.\nThen he springs away.</pre>\n "}, {"title": "Dark Matter", "view_node": "/poem/dark-matter", "field_author": "<a href=\"/poet/jack-myers\" hreflang=\"und\">Jack Myers</a>", "field_date_published": "2011", "body": " <pre>\nI've lived my life as if I were my wife\npacking for a trip\u2014<i>I'll need this and that\nand I can't possibly do without that!</i>\n\n\nBut now I'm about\nwhat can be done without.\nI just need a thin valise.\n\n\nThere's no place on earth\nwhere I can't unpack in a flash\ndown to a final spark of consciousness.\n\n\nNo place where I can't enter\nthe joyless rapture\nof almost remembering\n\n\n<i>I'll need this</i> and <i>I'll need that</i>,\nhoping to weigh less than silence,\nlighter than light.</pre>\n "}, {"title": "Last", "view_node": "/poem/last", "field_author": "<a href=\"/poet/maxine-scates\" hreflang=\"und\">Maxine Scates</a>", "field_date_published": "2011", "body": " <pre>\nAt dusk the streetlights\nstand like beacons to the underworld,\na girl runs toward me beaded with rain\nand sweat. I think <i>husk, wheels</i>\u2014\nseeds rattle, shake loose and a candle\nis held to the egg's red mass she is\ntoo young to see. In Pompeii those bodies\nare not bodies but plaster poured\ninto the cavity where a body once lay,\nno less a hand pushing back ash,\nno less a woman with her unborn child\ntwisting for a pocket of air,\nthe forge, the fire, the glimpsed blade,\na door we close quickly, just as my brother\nsaid <i>Now I know I will die</i>, and I thought\nof course and not me in the same second.\nWe kept driving, arrived at the airport\nand the next day our father did die\u2014\n<i>aria</i>, the birds rising at the sound\nof the explosion and <i>plums</i>, succulent\nashy, burnished. Walking down the Spanish\nSteps on a Sunday morning in October,\nno one there yet, Keats' window open,\nyou said <i>Ten or fifteen years from now\nwhen I am gone, come back</i>. You touched\nour absence from each other,\nthe fifteen years ahead you've always had\u2014\nwhen in dreams I am older and you\nremain as you were when we first met,\nbefore devotion was returned,\nor was it that I let it be\u2014our lives together\nsuddenly recognizable as if seared pages\nfallen from a larger book.</pre>\n "}, {"title": "After Us", "view_node": "/poem/after-us", "field_author": "<a href=\"/poet/nikola-madzirov\" hreflang=\"und\">Nikola  Madzirov</a>", "field_date_published": "2011", "body": " <pre>\nOne day someone will fold our blankets\nand send them to the cleaners\nto scrub the last grain of salt from them,\nwill open our letters and sort them out by date\ninstead of by how often they've been read.\n\nOne day someone will rearrange the room's furniture\nlike chessmen at the start of a new game,\nwill open the old shoebox \nwhere we hoard pyjama-buttons,\nnot-quite-dead batteries and hunger.\n\nOne day the ache will return to our backs\nfrom the weight of hotel room keys\nand the receptionist's suspicion\nas he hands over the TV remote control.\n\nOthers' pity will set out after us\nlike the moon after some wandering child.</pre>\n "}, {"title": "Matriot Acts, Act I [History of Mankind]", "view_node": "/poem/matriot-acts-act-i-history-mankind", "field_author": "<a href=\"/poet/anne-waldman\" hreflang=\"und\">Anne Waldman</a>", "field_date_published": "2011", "body": " <pre>\nyou no longer believe in anything\nmovement of train, mauve waves\ngrammar's anomie\ngets you down or\nwar at the back and crown of head\nPsyOps, o chicken little the sky! the sky!\no the fallen sky an edge of blue\nhanging but\nstill breathing those colors?\na garden broken &amp; restored many times\nhow often trying to leave it, bend away\nwords from that beautiful throat\nlisten or break or oscillate or\nclamor as opposed to \"read about\"\ncould you be my model human being\nup there on the dais?\no you, she...maybe he's the one\n&amp; we came back from the cinema\nglow behind our tears\nand you saying a woman, a woman!\nhow tragic to be such slender thread of a woman\nwhere was I being led?\nmore people thick in space\nin constant motion\ntwisted around a clock\nsolar wind, solar heat, sociable matrix\nit's an atavistic mixed-up dream\nand stirs the branches\nhigh in Freedom Park\nit was the voice of a desultory fragment\nof speech now, talking about \"state\" and \"union\"\nhow darkness turns at the wrist</pre>\n "}, {"title": "Iowa", "view_node": "/poem/iowa-0", "field_author": "<a href=\"/poet/kate-northrop\" hreflang=\"und\">Kate Northrop</a>", "field_date_published": "2011", "body": " <pre>\nYou imagined yourself\nThere on the overpass\nLeaning through snow\nFurther toward cars\n\nTheir outlines still dark\nTheir headlights\nLocked by distance\nThen opening as if\n\nCautiously the beams\nLengthening over the median\nOnto leaves the underside\nOf certain leaves\n\nAnd the drivers inside\nEach face described \nBy shadow each\nFinally simple the skin\n\nLit by the vehicle's instruments\nIn the glow of the dash\nThe faces you'd dreamed of\nThen gone beneath you\n\nLeaning over the highway\nFurther toward cars\nToward headlights\nOpening in the snow</pre>\n "}], "pager": {"current_page": 472, "total_items": "13248", "total_pages": 663, "items_per_page": 20}}