{"rows": [{"title": "The Shark", "view_node": "/poem/shark-0", "field_author": "<a href=\"/poet/william-henry-venable\" hreflang=\"und\">William Henry Venable</a>", "field_date_published": "1909", "body": " <pre>\nCaptured! Along the beach those shouts reveal \n   The fisherman exultant victor! Hark! \n   The Karcharos, from out his crystalline, dark \nBlue lair by rud of flesh and lurking steel \nBewrayed, hath ravined down with his last meal \n   Death as a gobbet. On the hot sand, stark, \n   He gasps and shudders agonizing. Mark! \nWith horrible grin those bloody jaws appeal \nUnto his gloating murderers.\u2014No more \n   Those serried ranks sextuple of fanged white \nShall scare the shallows and appall the shore, \n   Never again wreak havoc and affright, \nRanging the Gulf Stream, weltering in gore;\u2014 \n   Poor Shark! Man-eater! learn of Man, to fight.</pre>\n "}, {"title": "The Sirens", "view_node": "/poem/sirens", "field_author": "<a href=\"/poet/james-russell-lowell\" hreflang=\"und\">James Russell Lowell</a>", "field_date_published": "1840", "body": " <pre>\n   The sea is lonely, the sea is dreary, \nThe sea is restless and uneasy; \nThou seekest quiet, thou art weary, \nWandering thou knowest not whither;\u2014 \nOur little isle is green and breezy, \nCome and rest thee! Oh come hither, \nCome to this peaceful home of ours, \n      Where evermore \nThe low west-wind creeps panting up the shore \nTo be at rest among the flowers; \nFull of rest, the green moss lifts, \n   As the dark waves of the sea \nDraw in and out of rocky rifts, \n   Calling solemnly to thee \nWith voices deep and hollow,\u2014 \n      \"To the shore \n   Follow! Oh, follow! \n   To be at rest forevermore! \n         Forevermore!\" \n\nLook how the gray old Ocean \nFrom the depth of his heart rejoices, \nHeaving with a gentle motion, \nWhen he hears our restful voices; \nList how he sings in an undertone, \nChiming with our melody; \nAnd all sweet sounds of earth and air \nMelt into one low voice alone, \nThat murmurs over the weary sea, \nAnd seems to sing from everywhere,\u2014 \n\"Here mayst thou harbor peacefully, \nHere mayst thou rest from the aching oar; \n   Turn thy curv\u00ebd prow ashore, \nAnd in our green isle rest forevermore! \n         Forevermore!\" \nAnd Echo half wakes in the wooded hill, \n   And, to her heart so calm and deep, \n   Murmurs over in her sleep, \nDoubtfully pausing and murmuring still, \n         \"Evermore!\" \n      Thus, on Life's weary sea, \n      Heareth the marinere \n      Voices sweet, from far and near, \n      Ever singing low and clear, \n      Ever singing longingly. \n\n   It is not better here to be, \nThan to be toiling late and soon? \nIn the dreary night to see \nNothing but the blood-red moon \nGo up and down into the sea; \nOr, in the loneliness of day, \n   To see the still seals only \nSolemnly lift their faces gray, \n   Making it yet more lonely? \nIs it not better than to hear \nOnly the sliding of the wave \nBeneath the plank, and feel so near \nA cold and lonely grave, \nA restless grave, where thou shalt lie \nEven in death unquietly? \nLook down beneath thy wave-worn bark, \n   Lean over the side and see \nThe leaden eye of the sidelong shark\n      Upturn\u00ebd patiently, \n   Ever waiting there for thee: \nLook down and see those shapeless forms, \n   Which ever keep their dreamless sleep \n   Far down within the gloomy deep, \nAnd only stir themselves in storms, \nRising like islands from beneath, \nAnd snorting through the angry spray, \nAs the frail vessel perisheth \nIn the whirls of their unwieldy play; \n   Look down! Look down! \nUpon the seaweed, slimy and dark, \nThat waves its arms so lank and brown, \n      Beckoning for thee! \nLook down beneath thy wave-worn bark \n      Into the cold depth of the sea! \n   Look down! Look down! \n      Thus, on Life's lonely sea, \n      Heareth the marinere \n      Voices sad, from far and near, \n      Ever singing full of fear, \n      Ever singing dreadfully. \n\n   Here all is pleasant as a dream; \nThe wind scarce shaketh down the dew, \nThe green grass floweth like a stream \n         Into the ocean's blue; \n            Listen! Oh, listen! \nHere is a gush of many streams, \n   A song of many birds, \nAnd every wish and longing seems \nLulled to a numbered flow of words,\u2014 \n            Listen! Oh, listen! \nHere ever hum the golden bees \nUnderneath full-blossomed trees, \nAt once with glowing fruit and flowers crowned;\u2014 \nSo smooth the sand, the yellow sand, \nThat thy keel will not grate as it touches the land; \nAll around with a slumberous sound, \nThe singing waves slide up the strand, \nAnd there, where the smooth, wet pebbles be \nThe waters gurgle longingly, \nAs if they fain would seek the shore, \nTo be at rest from the ceaseless roar, \nTo be at rest forevermore,\u2014 \n         Forevermore. \n      Thus, on Life's gloomy sea, \n      Heareth the marinere \n      Voices sweet, from far and near, \n      Ever singing in his ear, \n      \"Here is rest and peace for thee!\"</pre>\n "}, {"title": "The Ripple Effect", "view_node": "/poem/ripple-effect", "field_author": "<a href=\"/poet/jamey-dunham\" hreflang=\"und\">Jamey Dunham</a>", "field_date_published": "2009", "body": " <p>The sleepy shark rolls from bed at the sound of the bell: the fisherman's foot ringing in the water. On the pier a young girl purchases a dried apricot from a vendor and rolls its wrinkled skin over her tongue before biting down. Behind tightly drawn curtains, the boy who might have grown up to be her great love (or grocer) succumbs to his illness and orphans his parents, as the shark draws behind a curtain of foam. The girl, grown tired of waiting for her father, disappears into the crowded streets of the village as a bell ringing from the marketplace wakes the sleeping fisherman just in time to reel in his apricot. The young boy watching from the pier bites his tongue at the sight of the wrinkled skin. Succumbing to his illness, he runs off to the grocer as if to his lover. The young girl, running late for dinner, stops off at the marketplace on her way home. She purchases a shark from the vendor and leads it home through the crowded streets of the village to meet her parents. The girl is an orphan but it doesn't matter. There are wedding bells ringing in her ears. They're in love.</p> "}, {"title": "Seal Lullaby", "view_node": "/poem/seal-lullaby", "field_author": "<a href=\"/poet/rudyard-kipling\" hreflang=\"und\">Rudyard Kipling</a>", "field_date_published": "1894", "body": " <pre>\nOh! hush thee, my baby, the night is behind us, \n   And black are the waters that sparkled so green. \nThe moon, o'er the combers, looks downward to find us \n   At rest in the hollows that rustle between. \nWhere billow meets billow, there soft be thy pillow; \n   Ah, weary wee flipperling, curl at thy ease! \nThe storm shall not wake thee, nor shark overtake thee, \n   Asleep in the arms of the slow-swinging seas. \n</pre>\n "}, {"title": "Untitled [You mustn&#039;t swim till you&#039;re six weeks old]", "view_node": "/poem/untitled-you-mustnt-swim-till-youre-six-weeks-old", "field_author": "<a href=\"/poet/rudyard-kipling\" hreflang=\"und\">Rudyard Kipling</a>", "field_date_published": "1901", "body": " <pre>\nYou mustn't swim till you're six weeks old, \nOr your head will be sunk by your heels; \nAnd summer gales and Killer Whales \n   Are bad for baby seals. \nAre bad for baby seals, dear rat, \n   As bad as bad can be. \nBut splash and grow strong, \nAnd you can't be wrong, \n   Child of the Open Sea!</pre>\n "}, {"title": "Haunted Seas", "view_node": "/poem/haunted-seas", "field_author": "<a href=\"/poet/cale-young-rice\" hreflang=\"und\">Cale Young Rice</a>", "field_date_published": "1921", "body": "<p><span class=\"long-line\">A gleaming glassy ocean </span><br /><span class=\"long-line\">\u00a0 Under a sky of grey; </span><br /><span class=\"long-line\">A tide that dreams of motion, </span><br /><span class=\"long-line\">\u00a0 Or moves, as the dead may; </span><br /><span class=\"long-line\">A bird that dips and wavers </span><br /><span class=\"long-line\">\u00a0 Over lone waters round, </span><br /><span class=\"long-line\">Then with a cry that quavers </span><br /><span class=\"long-line\">\u00a0 Is gone\u2014a spectral sound.</span></p>\n\n<p><span class=\"long-line\">The brown sad sea-weed drifting </span><br /><span class=\"long-line\">\u00a0 Far from the land, and lost; </span><br /><span class=\"long-line\">The faint warm fog unlifting, </span><br /><span class=\"long-line\">\u00a0 The derelict long tossed, </span><br /><span class=\"long-line\">But now at rest\u2014though haunted </span><br /><span class=\"long-line\">\u00a0 By the death-scenting shark, </span><br /><span class=\"long-line\">Whose prey no more undaunted </span><br /><span class=\"long-line\">\u00a0 Slips from it, spent and stark.</span></p>\n"}, {"title": "Submarine Mountains", "view_node": "/poem/submarine-mountains", "field_author": "<a href=\"/poet/cale-young-rice\" hreflang=\"und\">Cale Young Rice</a>", "field_date_published": "1921", "body": "<p><span class=\"long-line\">Under the sea, which is their sky, they rise</span><br /><span class=\"long-line\">\u00a0 \u00a0To watery altitudes as vast as those </span><br /><span class=\"long-line\">\u00a0 \u00a0Of far Himalayan peaks impent in snows </span><br /><span class=\"long-line\">\u00a0 \u00a0And veils of cloud and sacred deep repose. </span><br /><span class=\"long-line\">Under the sea, their flowing firmament, </span><br /><span class=\"long-line\">\u00a0 \u00a0More dark than any ray of sun can pierce, </span><br /><span class=\"long-line\">\u00a0 \u00a0The earthquake thrust them up with mighty tierce </span><br /><span class=\"long-line\">And left them to be seen but by the eyes </span><br /><span class=\"long-line\">Of awed imagination inward bent. </span></p>\n\n<p><span class=\"long-line\">Their vegetation is the viscid ooze, </span><br /><span class=\"long-line\">\u00a0 \u00a0Whose mysteries are past belief or thought. </span><br /><span class=\"long-line\">\u00a0 \u00a0Creation seems around them devil-wrought, </span><br /><span class=\"long-line\">\u00a0 \u00a0Or by some cosmic urgence gone distraught. </span><br /><span class=\"long-line\">Adown their precipices chill and dense </span><br /><span class=\"long-line\">\u00a0 \u00a0With the dank midnight creep or crawl or climb </span><br /><span class=\"long-line\">\u00a0 \u00a0Such tentacled and eyeless things of slime, </span><br /><span class=\"long-line\">Such monster shapes as tempt us to accuse </span><br /><span class=\"long-line\">Life of a miscreative impotence. </span></p>\n\n<p><span class=\"long-line\">About their peaks the shark, their eagle, floats, </span><br /><span class=\"long-line\">\u00a0 \u00a0In the thick azure far beneath the air, </span><br /><span class=\"long-line\">\u00a0 Or downward sweeps upon what prey may dare </span><br /><span class=\"long-line\">\u00a0 \u00a0Set forth from any silent weedy lair. </span><br /><span class=\"long-line\">But one desire on all their slopes is found, </span><br /><span class=\"long-line\">\u00a0 \u00a0Desire of food, the awful hunger strife, </span><br /><span class=\"long-line\">\u00a0 \u00a0Yet here, it may be, was begun our life, </span><br /><span class=\"long-line\">Here all the dreams on which our vision dotes </span><br /><span class=\"long-line\">In unevolved obscurity were bound. </span></p>\n\n<p><span class=\"long-line\">Too strange it is, too terrible! And yet </span><br /><span class=\"long-line\">\u00a0 \u00a0It matters not how we were wrought or whence </span><br /><span class=\"long-line\">\u00a0 \u00a0Life came to us with all its throb intense, </span><br /><span class=\"long-line\">\u00a0 \u00a0If in it is a Godly Immanence. </span><br /><span class=\"long-line\">It matters not,\u2014if haply we are more </span><br /><span class=\"long-line\">\u00a0 \u00a0Than creatures half-conceived by a blind force </span><br /><span class=\"long-line\">\u00a0 \u00a0That sweeps the universe in a chance course: </span><br /><span class=\"long-line\">For only in Unmeaning Might is met </span><br /><span class=\"long-line\">The intolerable thought none can ignore.</span></p>\n"}, {"title": "The Bluefish", "view_node": "/poem/bluefish", "field_author": "<a href=\"/poet/isaac-mclellan\" hreflang=\"und\">Isaac McLellan</a>", "field_date_published": "1886", "body": " <pre>\n<i>(Pomatomus Saltatrix.)</i>\n\nIt is a brave, a royal sport, \n   Trolling for bluefish o'er the seas; \nFair skies and soaring gulls above, \n   A steady blowing breeze; \nA shapely yacht whose foaming prow \n   The billowy plain divides, \nThat like a gallant courser speeds \n   Far, free o'er ocean tides. \n\nFirst from West India seas they came, \n   Haunting the Cuban coast, \nCruel as Spanish buccaneers, \n   A fierce, rapacious host. \nBut now by Northern seaboard shores \n   Their murderous way they take, \nFrom Mexic Gulf to Labrador, \n   Wherever billows break. \nThe weaker tenants of the main \nFlee from their rage in vain, \nThe vast menhaden multitudes \n   They massacre o'er the flood; \nWith lashing tail, with snapping teeth \n   They stain the tides with blood. \n\nRakish are they, like pirate craft, \n   All matchless to assail, \nWith graceful, shapely, rounded sides \n   And the sharp, forked tail; \nAnd when the angler's hook is fixed \n   They fight, they struggling bleed, \nNow leaping high, now plunging deep, \n   Darting with lightning speed. \n\nAnd yet these sea marauders, \n   These tyrants of the main, \nBy fiercer, mightier ruffians \n   Are hunted, conquered, slain; \nThe tumbling porpoise hunts them, \n   Dorado fierce pursues, \nAnd when the shark assaileth, \n   Blood-stains the waves suffuse.</pre>\n "}, {"title": "The Immanent God", "view_node": "/poem/immanent-god", "field_author": "<a href=\"/poet/cale-young-rice\" hreflang=\"und\">Cale Young Rice</a>", "field_date_published": "1916", "body": " <pre>\nSee your God in the jelly-fish, \nSucking salty food. \nSee Him drift in the gulf-weed, \nIn shark-bellies brood. \nSee Him feed with the gull there, \nIn a grey ship's wake. \nFeel Him afresh \nIn your own hot flesh \nWhen into lust you break. \n\nHear His wrath in the hurricane, \nHushing a hundred lives. \nHist His heave in the earthquake, \nIn volcano hives. \nHark His stride in the plague-wind, \nOver a sterile shore: \nDown in a mine \nBehold what wine \nOf coal-damp He will pour. \n\nAye, and there in the ribaldry \nOf a night-wench's song \nHear Him\u2014or on a child's lips \nCursing a slum-mate's wrong. \nStark He starves in the street there, \nOr, full-fed, will go: \nHe, your God, \nIn every clod \nOr clot of human woe. \n\nAnd\u2014in every infamy \nLoathed by you with shame. \nClear of the saddest soul-stench \nNone can keep His name. \nMan's, you may say, all crime is, \nBut Who gave man birth? \nSpawn of the years \nIs he\u2014with tears \nAnd strife to give him worth. \n\nSpawn of the Universes, \nGod's great flesh and bone. \nStars are the cells that float there, \nThrough lymph-ether strown. \nDying, living, and dead there, \nComing again to birth \nOut of a Womb \nThat was their Tomb \nAre they\u2014and is our earth. \n\nSuch is your Immanent God\u2014yea, \nEvil as well as good, \nVileness even as beauty \nHolds His strange Godhood. \nGreat He seems in the sea's surge, \nFair in a woman's face, \nYet with the worm \nHe feeds a term \nOn every goodly grace. \n\nSpirit, then, you may hold Him, \nHigh of plan and hope. \nBut world-flesh does He strive with, \nYearn like us\u2014and grope; \nSo must ever and oft seem \nAvid to escape \nFrom the hid yeast \nThat moulds the least \nOf all things to His shape. \n\nSpirit, may be\u2014or haply \nWe had known no growth, \nBut in a slime primeval \nStill would dwell in sloth. \nYet if such is His Being, \nFinite is His need. \nTo the same ends \nAs earth He wends \nAnd journeying must bleed.</pre>\n "}, {"title": "Song of the Paddlers [excerpt]", "view_node": "/poem/song-paddlers-excerpt", "field_author": "<a href=\"/poet/herman-melville\" hreflang=\"und\">Herman Melville</a>", "field_date_published": "1849", "body": " <pre>\nDip, dip, in the brine our paddles dip, \nDip, dip, the fins of our swimming ship! \nHow the waters part, \nAs on we dart; \n   Our sharp prows fly, \n   And curl on high, \nAs the upright fin of the rushing shark, \nRushing fast and far on his flying mark! \nLike him we prey; \nLike him we slay; \n   Swim on the foe, \n   Our prow a blow!</pre>\n "}, {"title": "After Reading &quot;Antony and Cleopatra&quot;", "view_node": "/poem/after-reading-antony-and-cleopatra", "field_author": "<a href=\"/poet/robert-louis-stevenson\" hreflang=\"und\">Robert Louis Stevenson</a>", "field_date_published": "1890", "body": " <pre>\nAs when the hunt by holt and field\n   Drives on with horn and strife,\nHunger of hopeless things pursues\n   Our spirits throughout life.\n\nThe sea's roar fills us aching full\n   Of objectless desire\u2014\nThe sea's roar, and the white moon-shine,\n   And the reddening of the fire.\n\nWho talks to me of reason now?\n   It would be more delight\nTo have died in Cleopatra's arms\n   Than be alive to-night.</pre>\n "}, {"title": "Summer [excerpt]", "view_node": "/poem/summer-excerpt", "field_author": "<a href=\"/poet/james-thomson\" hreflang=\"und\">James Thomson</a>", "field_date_published": "1727", "body": " <pre>\n   Increasing still the terrors of these storms, \nHis jaws horrific arm'd with threefold fate, \nHere dwells the direful Shark. Lured by the scent \nOf steaming crowds, of rank disease, and death, \nBehold, he, rushing, cuts the briny flood, \nSwift as the Gale can bear the ship along; \nAnd, from the partners of that cruel trade, \nWhich spoils unhappy Guinea of her sons, \nDemands his share of prey\u2014demands themselves. \nThe stormy Fates descend: one death involves \nTyrants and slaves; when straight, their mangled limbs \nCrashing at once, he dyes the purple seas \nWith gore, and riots in the vengeful meal. </pre>\n "}, {"title": "The Shark", "view_node": "/poem/shark-1", "field_author": "<a href=\"/poet/lord-alfred-douglas\" hreflang=\"und\">Lord Alfred Douglas</a>", "field_date_published": "1897", "body": " <pre>\nA treacherous monster is the Shark \nHe never makes the least remark.\n\nAnd when he sees you on the sand, \nHe doesn't seem to want to land.\n\nHe watches you take off your clothes, \nAnd not the least excitement shows.\n\nHis eyes do not grow bright or roll, \nHe has astonishing self-control.\n\nHe waits till you are quite undressed, \nAnd seems to take no interest.\n\nAnd when towards the sea you leap, \nHe looks as if he were asleep.\n\nBut when you once get in his range, \nHis whole demeanour seems to change.\n\nHe throws his body right about, \nAnd his true character comes out.\n\nIt's no use crying or appealing, \nHe seems to lose all decent feeling.\n\nAfter this warning you will wish \nTo keep clear of this treacherous fish.\n\nHis back is black, his stomach white, \nHe has a very dangerous bite.</pre>\n "}, {"title": "The Shark", "view_node": "/poem/shark-2", "field_author": "<a href=\"/poet/isaac-mclellan\" hreflang=\"und\">Isaac McLellan</a>", "field_date_published": "1891", "body": "<blockquote><sup><em>(Carcharias glaucus.)</em></sup></blockquote>\n\n<p><span class=\"long-line\">The seaboy sailing o'er the main, </span><br /><span class=\"long-line\">\u00a0 \u00a0Far-gazing o'er the watery plain, </span><br /><span class=\"long-line\">Sees oft the black fin of the shark </span><br /><span class=\"long-line\">\u00a0 \u00a0Pursuing his careering bark, </span><br /><span class=\"long-line\">Quick thro' the ship the joyful news </span><br /><span class=\"long-line\">\u00a0\u00a0 Like wildfire runs from stem to stern; </span><br /><span class=\"long-line\">From bulwark high, from sloping mast, </span><br /><span class=\"long-line\">\u00a0\u00a0 Leeward all eager glances turn. </span><br /><span class=\"long-line\">The master seeks the massive hook </span><br /><span class=\"long-line\">\u00a0 \u00a0With iron chain and hempen line, </span><br /><span class=\"long-line\">And soon the baited snare is out </span><br /><span class=\"long-line\">\u00a0 \u00a0Far trailing o'er the seething brine. </span></p>\n\n<p><span class=\"long-line\">The greedy monster with a plunge </span><br /><span class=\"long-line\">\u00a0 \u00a0Rushes to seize the tempting bait, </span><br /><span class=\"long-line\">And, rolling on his dusky back, </span><br /><span class=\"long-line\">\u00a0 \u00a0Gorges the hook and finds his fate. </span><br /><span class=\"long-line\">Away in madden'd haste he flies, </span><br /><span class=\"long-line\">\u00a0 \u00a0Lashing the wave with forked tail, </span><br /><span class=\"long-line\">But 'gainst a score of tugging hands </span><br /><span class=\"long-line\">\u00a0 \u00a0His desperate strength may naught avail. </span><br /><span class=\"long-line\">Soon bleeding on the deck, a prize, </span><br /><span class=\"long-line\">\u00a0 \u00a0The ruthless ocean tyrant dies. </span><br /><span class=\"long-line\">'Tis said in Indian seas remote, </span><br /><span class=\"long-line\">\u00a0 \u00a0Off the white reef of Bengal Bay, </span><br /><span class=\"long-line\">Cruises the great man-eater shark, </span><br /><span class=\"long-line\">\u00a0 \u00a0Hungry and keen for human prey. </span><br /><span class=\"long-line\">There Indian damsels dread to plunge </span><br /><span class=\"long-line\">\u00a0 \u00a0In combing surf and curling wave, </span><br /><span class=\"long-line\">Fearing that terror of sharp teeth, </span><br /><span class=\"long-line\">\u00a0\u00a0 That jaw remorseless as the grave. </span><br /><span class=\"long-line\">But brave the manly diver dares </span><br /><span class=\"long-line\">\u00a0\u00a0 With sharpen'd creese to meet his foe, </span><br /><span class=\"long-line\">And, plung'd beneath the lurking fiend, </span><br /><span class=\"long-line\">\u00a0\u00a0 Stabs till the tides with slaughter flow. </span><br /><span class=\"long-line\">So the swart diver for the pearl, </span><br /><span class=\"long-line\">\u00a0 \u00a0Taught from his youth to search the deeps, </span><br /><span class=\"long-line\">With keen blade meets him in the surf, </span><br /><span class=\"long-line\">\u00a0 \u00a0And slays him wheresoe'er he sweeps.</span></p>\n"}, {"title": "In a Breath", "view_node": "/poem/breath", "field_author": "<a href=\"/poet/carl-sandburg\" hreflang=\"und\">Carl Sandburg</a>", "field_date_published": "1916", "body": " <p>\u00a0\u00a0\u00a0\u00a0\u00a0<i>To the Williamson Brothers</i></p><p>High noon. White sun flashes on the Michigan Avenue asphalt. Drum of hoofs and whirr of motors. Women trapsing along in flimsy clothes catching play of sun-fire to their skin and eyes.</p><p>Inside the playhouse are movies from under the sea. From the heat of pavements and the dust of sidewalks, passers-by go in a breath to be witnesses of large cool sponges, large cool fishes, large cool valleys and ridges of coral spread silent in the soak of the ocean floor thousands of years.</p><p>A naked swimmer dives. A knife in his right hand shoots a streak at the throat of a shark. The tail of the shark lashes. One swing would kill the swimmer\u2026 Soon the knife goes into the soft underneck of the veering fish\u2026 Its mouthful of teeth, each tooth a dagger itself, set row on row, glistens when the shuddering, yawning cadaver is hauled up by the brothers of the swimmer.</p><p>Outside in the street is the murmur and singing of life in the sun\u2014horses, motors, women trapsing along in flimsy clothes, play of sun-fire in their blood.</p> "}, {"title": "World Below the Brine", "view_node": "/poem/world-below-brine", "field_author": "<a href=\"/poet/walt-whitman\" hreflang=\"und\">Walt Whitman</a>", "field_date_published": "1891", "body": " <pre>The world below the brine,   \nForests at the bottom of the sea, the branches and leaves,   \n<span class=\"long-line\">Sea-lettuce, vast lichens, strange flowers and seeds, the thick tangle, openings, and pink turf,   </span>\n<span class=\"long-line\">Different colors, pale gray and green, purple, white, and gold, the play of light through the water,   </span>\n<span class=\"long-line\">Dumb swimmers there among the rocks,coral, gluten, grass, rushes, and the aliment of the swimmers,</span>\n<span class=\"long-line\">Sluggish existences grazing there suspended, or slowly crawling close to the bottom,  </span> \n<span class=\"long-line\">The sperm-whale at the surface blowing air and spray, or disporting with his flukes,  </span> \n<span class=\"long-line\">The leaden-eyed shark, the walrus, the turtle, the hairy sea-leopard, and the sting-ray,  </span> \n<span class=\"long-line\">Passions there, wars, pursuits, tribes, sight in those ocean-depths, breathing that thick-breathing air, as so many do,</span>\n<span class=\"long-line\">The change thence to the sight here, and to the subtle air breathed by beings like us who walk this sphere,</span>\n<span class=\"long-line\">The change onward from ours to that of beings who walk other spheres.</span></pre>\n "}, {"title": "I Wonder What It Feels Like to be Drowned?", "view_node": "/poem/i-wonder-what-it-feels-be-drowned", "field_author": "<a href=\"/poet/robert-graves\" hreflang=\"und\">Robert Graves</a>", "field_date_published": "1918", "body": " <pre>\nLook at my knees,   \nThat island rising from the steamy seas!   \nThe candle's a tall lightship; my two hands   \nAre boats and barges anchored to the sands,   \nWith mighty cliffs all round; \nThey're full of wine and riches from far lands....   \n<i>I wonder what it feels like to be drowned?</i>\n   \nI can make caves,   \nBy lifting up the island and huge waves   \nAnd storms, and then with head and ears well under\nBlow bubbles with a monstrous roar like thunder,   \nA bull-of-Bashan sound.   \nThe seas run high and the boats split asunder....   \n<i>I wonder what it feels like to be drowned?</i>  \n   \nThe thin soap slips\nAnd slithers like a shark under the ships.   \nMy toes are on the soap-dish\u2014that's the effect   \nOf my huge storms; an iron steamer's wrecked.   \nThe soap slides round and round;   \nHe's biting the old sailors, I expect....\n<i>I wonder what it feels like to be drowned?</i></pre>\n "}, {"title": "The Maldive Shark", "view_node": "/poem/maldive-shark", "field_author": "<a href=\"/poet/herman-melville\" hreflang=\"und\">Herman Melville</a>", "field_date_published": "1888", "body": " <pre>About the Shark, phlegmatical one, \nPale sot of the Maldive sea, \nThe sleek little pilot-fish, azure and slim, \nHow alert in attendance be. \nFrom his saw-pit of mouth, from his charnel of maw \nThey have nothing of harm to dread, \nBut liquidly glide on his ghastly flank \nOr before his Gorgonian head; \nOr lurk in the port of serrated teeth \nIn white triple tiers of glittering gates, \nAnd there find a haven when peril\u2019s abroad, \nAn asylum in jaws of the Fates! \nThey are friends; and friendly they guide him to prey, \nYet never partake of the treat\u2014 \nEyes and brains to the dotard lethargic and dull, \nPale ravener of horrible meat.</pre>\n "}, {"title": "The Drum Room", "view_node": "/poem/drum-room", "field_author": "<a href=\"/poet/fred-marchant\" hreflang=\"und\">Fred Marchant</a>", "field_date_published": "2009", "body": " <pre>\nThe door you come through slams shut before the door you go to opens.\nA last stopping place, a once-over from the guard behind his tinted glass.\nYour pockets are empty, wristwatch in the locker, with wallet and change. \nTwo pens, a notebook, a wish to act normal, and show you threaten no one. \nIt is completely true that you threaten no one. \nNonetheless you feel either you are <i>in</i> danger, or that you <i>are</i> the danger. \nIt is a retort designed not to contain, but open and shut like a valve. \nA space between entrance and egress, pressure and release. \nA moment of pure supplication, a revelation of true marrow and meaning: \n<i>hiatus: opening, rupture, fissure, gap.</i>\nA room close to nothing, the reinforced shell of its nothing.\nWho here cannot help but think of a plump fly bumping against a window?\t\nA fly who believes something will give. Something does.  \nA buzzer, then juice through the wire, and the latches slide in, slide out.</pre>\n "}, {"title": "Bulb Planting Time", "view_node": "/poem/bulb-planting-time", "field_author": "<a href=\"/poet/edgar-guest\" hreflang=\"und\">Edgar Guest</a>", "field_date_published": "1922", "body": " <pre>\nLast night he said the dead were dead\n  And scoffed my faith to scorn;\nI found him at a tulip bed\n  When I passed by at morn.\n\n\"O ho!\" said I, \"the frost is near\n  And mist is on the hills,\nAnd yet I find you planting here\n  Tulips and daffodils.\"\n\n\"'Tis time to plant them now,\" he said,\n  \"If they shall bloom in Spring\";\n\"But every bulb,\" said I, \"seems dead,\n  And such an ugly thing.\"\n\n\"The pulse of life I cannot feel,\n  The skin is dried and brown.\nNow look!\" a bulb beneath my heel\n  I crushed and trampled down.\n\nIn anger then he said to me:\n  \"You've killed a lovely thing;\nA scarlet blossom that would be\n  Some morning in the Spring.\"\n\n\"Last night a greater sin was thine,\"\n  To him I slowly said;\n\"You trampled on the dead of mine\n  And told me they are dead.\"\n</pre>\n "}], "pager": {"current_page": 514, "total_items": "13248", "total_pages": 663, "items_per_page": 20}}