{"rows": [{"title": "Lion and Gin", "view_node": "/poem/lion-and-gin", "field_author": "<a href=\"/poet/dennis-hinrichsen\" hreflang=\"und\">Dennis Hinrichsen</a>", "field_date_published": "2009", "body": " <pre>\nI pet my father like some big cat a hunter has set on the ground,\nthough I am in Iowa now and not the Great Rift Valley\nand what I sense as tent canvas flapping, thick with waterproofing,\nis cheap cotton\nchoked with starch.\nStill, he is a lion on the gurney.\nI talk a little to make sure he's dead.\nI have some memory of riding his shoulders\nthrough the fragrant night. Three fish coiled in a creel. So many\nbutterflies\nand gnats, it was two-thirds Kenya,\none-third Illinois.\nAnd then home: the clink\nof ice and gin.\nAnd so I rub his hair, which is unwashed, and will\nremain unwashed, for we will burn him.\nI touch the blade of his chest.\nThink of all those years I spent hovering beneath the scent of\nMarlboros,\nthe mouthwash trace of booze; all that ice\ncracking, going stale: crowned molars and mimic glaciers\nfading to bled-out amber among the cuticles of lime.\nMaybe that's why when he so blindly flies\non that exaltation of velocity and gas,\nhe doesn't linger in this world awhile as word or song,\na density we might gather round\u2014\nan aquifer, or gushing spring, as pure as gin.\nInstead, he departs\nas vapor.\nFragments of tooth and bone in the swept-out mass I can\nthrow back to dirt, or spread\u2014a child's sugared, grainy drink\u2014\nto water.\nAnd now I wonder, where's the soul in this? \nThe agent of it?\nIf it un-tags, re-tags itself\u2014a flexible, moveable,\ngraffiti\u2014indelible for the time we have it,\nor if it sputters on some inward cycle toward a Rubbermaid\nwaste bucket, sink trap ringed with cocktail residue.\nAs on my returning, the trays of ice were reduced to spit.\nI had a drink in my hand,\nthat memory of riding; the fragrant night.\nHow can I open the freezer now and not see the milky irises\nof his passage;\nthe array of paw and pelt;\njaw wrenched so far open in that rictus of longing, gasping,\nhis living eyes could not help but tip and follow?</pre>\n "}, {"title": "Letters", "view_node": "/poem/letters", "field_author": "<a href=\"/poet/frances-richey\" hreflang=\"und\">Frances Richey</a>", "field_date_published": "2008", "body": " <pre>\n1\n\nBefore he left for combat,\nhe took care of everything:\nsomeone to plow the driveway,\ncut the grass.\nAnd the letter he wrote me,\n<i>just in case</i>, sealed,\nsomewhere, in a drawer;\ncan't be opened,\nmust be opened\nif he doesn't return.\nI feel for my keys, \nhear his voice:\n<i>Less is better</i>. Late\nfor work, still,\nI linger\nat the window of the Century\nFlorist, a bowl of peonies,\nmy face among the tulips.\n\n2\n\nLast Mother's Day, when\nhe was incommunicado,\nnothing came.\nThree days later, a message\nin my box; a package,\nthe mail room closed.\nI went out into the lobby,\nbanged my fist against \nthe desk. When they \ngave it to me, I clutched it\nto my chest, sobbing \nlike an animal.\nI spoke to no one,\ndid not apologize.\nI didn't care about the gift.\nIt was the note I wanted,\nthe salt from his hand,\nthe words.</pre>\n "}, {"title": "Elegy for Sol LeWitt", "view_node": "/poem/elegy-sol-lewitt", "field_author": "<a href=\"/poet/ann-lauterbach\" hreflang=\"und\">Ann Lauterbach</a>", "field_date_published": "2009", "body": " <pre>\nThe weather map today is pale. The lines on the map\nare like the casts of fishing lines\nlooping and curved briefly across air.\nThe sky now, also, toward evening, is pale.\nOn Sunday, in Beacon, there were lines\ndrawn on walls and also lines\ndrawn across the canvases of the last paintings\nof Agnes Martin. One of them has two pale squares\non a blackened field.\n\n\t\tThe lines on your walls\nfollows directions\nas if\n\nas if there were a kind of logic\ncharged with motion\nat the end of winter: the pale blue northern cold\nalmost merged with the pale green\nat Hartford, and then the blank newsprint of the sea.</pre>\n "}, {"title": "Hunger", "view_node": "/poem/hunger", "field_author": "", "field_date_published": "", "body": ""}, {"title": "Ode on My Episiotomy", "view_node": "/poem/ode-my-episiotomy", "field_author": "<a href=\"/poet/kimberly-johnson\" hreflang=\"und\">Kimberly Johnson</a>", "field_date_published": "2009", "body": " <pre>\nForget pearls, lace-edged kerchiefs, roomy pleats\u2014\nthis is my most matronly adornment:\nstitches purling up the middle of me\nto shut my seam, the one that jagged gaped\nupon my fecund, unspeakable dark,\nmy indecorum needled together\nwith torquemadan efficiency.  \nBut O!  the dream of the dropped stitch!  the loophole\nthrough which that unruly within might thread,\ncatch with a small snag, pull the fray, unknit \nthe knots unnoticed, and undoily me.\n\nDon't lock up the parlor yet; such pleasure \nin unraveling, I may take up the sharps\nand darn myself to ladylike again.</pre>\n "}, {"title": "The Luxury of Hesitation [excerpt from The Proof from Motion]", "view_node": "/poem/luxury-hesitation-excerpt-proof-motion", "field_author": "<a href=\"/poet/keith-waldrop\" hreflang=\"und\">Keith Waldrop</a>", "field_date_published": "2009", "body": " <pre>\nthings \nforgotten\nI could\n\n\nburn in hell forever\n\n\nset the glass\ndown, our\nemotion's moment\n\n\neyes vs sunlight\n\n\nhow removed\nhere, from\nhere\n\n\ntowards the unfamiliar <i>and</i>\n\n\nfrankincense forests\nagainst the discerning light\n\n\neverybody\nsudden\n\n\nfrightful indeed, the sound of\ntraffic and\nno appetite\n\n\nthe crowd\n\n\nI would like to be\nbeautiful when\nwritten</pre>\n<br /><br /><p><a href=\"/sites/default/files/images/waldrop_siglio_300dpi.gif\"><img alt=\"\" border=\"0\" src=\"/sites/default/files/images/waldrop_siglio_collage.gif\" /></a><br /><font class=\"COPY\">\"Horse and Rider\" by Keith Waldrop \u00a0 | \u00a0 Click to enlarge</font></p> "}, {"title": "deer &amp; salt block", "view_node": "/poem/deer-salt-block", "field_author": "<a href=\"/poet/joshua-marie-wilkinson\" hreflang=\"und\">Joshua Marie Wilkinson</a>", "field_date_published": "2009", "body": " <p>One boy is a liar &amp; says there's a block of salt under his bed to draw deer in from the orchard. One boy says the pantry wall will open if you say an untold anagram of his name. One boy is already dressed when he wakes up for his young father's wedding. One boy hides a turtle from his brothers in a dresser drawer. One boy is mute &amp; sluggish from the hurricane sirens. One boy took a long time in the bathtub reading the comics. One boy loops a tractor chain to the ceiling fan &amp; tears the whole roof down. One boy speaks through a keyhole to the others about a shortstop's hex. One boy can't stand the scent of elevators. One boy gives different spellings for his name each week at school. That same boy stole his teacher's shoe. Another boy listens to a radio inside his pillowcase. One boy drinks coffee alone in the zookeeper's shed. The last boy casts a purple stone to the bottom of a pond &amp; follows it down with his church clothes on.</p> "}, {"title": "What Is a Soprano", "view_node": "/poem/what-soprano", "field_author": "<a href=\"/poet/g-c-waldrep\" hreflang=\"und\">G. C. Waldrep</a>", "field_date_published": "2009", "body": " <p>I call to you as a prism to its oracle denies any prescriptive allure. What is a high sound when a sparrow takes it. When breath snatches. A latch catches. <i>Dear diary</i>. I am home now and affect a suitable disregard.</p><p>On a screen everyone is very particular. Does this explain.</p><p>It is this bird we want, not that one. This one not that one. Myth is the difference between birds.</p><p>Is this a letter for us to open. It is. Red yellow blue green and violet. Pressed between as petals in a bound volume for their proper keeping. Repeat, as necessary. A gift expresses the meek constituency of a recollected pleasure.</p><p>Who is happier when blind or blinded. Who says happy now.</p> "}, {"title": "Children in a Field", "view_node": "/poem/children-field", "field_author": "<a href=\"/poet/angela-shaw\" hreflang=\"und\">Angela Shaw</a>", "field_date_published": "2009", "body": " <pre>\nThey don't wade in so much as they are taken.\nDeep in the day, in the deep of the field,\nevery current in the grasses whispers <i>hurry\nhurry</i>, every yellow spreads its perfume\nlike a rumor, impelling them further on.\nIt is the way of girls.  It is the sway\nof their dresses in the summer trance-\nlight, their bare calves already far-gone\nin green.  What songs will they follow?\nWhatever the wood warbles, whatever storm\nor harm the border promises, whatever\ncalm.  Let them go.  Let them go traceless \nthrough the high grass and into the willow-\nblur, traceless across the lean blue glint\nof the river, to the long dark bodies\nof the conifers, and over the welcoming\nthreshold of nightfall.</pre>\n "}, {"title": "Woman at the Window", "view_node": "/poem/woman-window", "field_author": "<a href=\"/poet/theodore-deppe\" hreflang=\"und\">Theodore Deppe</a>", "field_date_published": "2009", "body": " <pre>\nLike a woman in Vermeer, she ironed \nby the kitchen window, blue towel turbaned \nabout wet hair, three-quarters of her face \nsuffused in sun. From the cellar doorway \nI called to her, unwilling to descend \nthose nightmare stairs alone, unable to compel her \n\nto join me. Mother gazed out at the sky.\nIgnored the televised warnings.\nWith terrifying calm, flapped a shirt \nand spread it flat. Strange about beauty, \nhow it lives on the best of terms \nnext door to nothingness: if a twister came \n\nshe wanted to see it. \nIf I could paint that 1950s scene where \nnothing finally happened, I'd have to crush \nher best pearl and blend the powder in my palette\u2014\nhow else catch that kitchen's luster? \nA tiny wisp of vapor to suggest the hiss \n\nas the white shirt's pressed \nand the silvery iron becomes a curved mirror \nin which a boy is captured and diminished as he calls. \nOr perhaps I'd leave myself out, let that glossy surface\nreflect only the blue plume spiraling up \n(she sometimes smoked while Father traveled). \n\nAs in a waking dream, the iron glides down a sleeve \nand there's no tornado, only warnings and warm sun \non a young woman's cheek and shoulder, \nonly the way the ordinary light of morning \nravishes her as she stares off \nat something beyond the frame.</pre>\n "}, {"title": "This Nest, Swift Passerine [excerpt]", "view_node": "/poem/nest-swift-passerine-excerpt", "field_author": "<a href=\"/poet/dan-beachy-quick\" hreflang=\"und\">Dan Beachy-Quick</a>", "field_date_published": "2009", "body": " <pre>\nBut how find <i>how as it flew onward\n&amp; the mountains gave back the sound\nto say what I mean the call of the bird\n&amp; the echoe after</i> to say I've seen?\n\nRaven hungers and calls and the mountain\nHungers back and calls\nThe whole range of peaks in the bird's beak.\nRaven lonely and the mountain rings\nLoneliness &amp; <i>the echoe after we could see\nhim no longer </i>\n\nThe echo after we could see \tLight in echo the eye sees\nalso through the ear \t\ta double infinity</pre>\n "}, {"title": "Below the Earth", "view_node": "/poem/below-earth", "field_author": "<a href=\"/poet/keith-waldrop\" hreflang=\"und\">Keith Waldrop</a>", "field_date_published": "2009", "body": "<p><span class=\"long-line\">My \ufb01rst glance takes in</span><br /><span class=\"long-line\">an army, tens of thousands ready</span><br /><span class=\"long-line\">armed. As a mirror re\ufb02ects</span><br /><span class=\"long-line\">indistinctly and with a feeble</span><br /><span class=\"long-line\">light, so it cracks and</span><br /><span class=\"long-line\">soon fades. From its surface a clear</span><br /><span class=\"long-line\">image of the beholder.</span><br /><span class=\"long-line\">In these paintings: harbors, promontories,</span><br /><span class=\"long-line\">shores, rivers, fountains,</span><br /><span class=\"long-line\">fanes, groves, mountains, \ufb02ocks, and of</span><br /><span class=\"long-line\">course shepherds. Sometimes mythological</span><br /><span class=\"long-line\">episodes, \ufb01gures of the gods, the</span><br /><span class=\"long-line\">battles at Troy, wanderings of Ulysses.</span><br /><span class=\"long-line\">Scorned in these days of bad taste.</span><br /><span class=\"long-line\">Now we have frescos of mon-</span><br /><span class=\"long-line\">strosities, candelabra supporting</span><br /><span class=\"long-line\">shrines, stalks with human heads.</span><br /><span class=\"long-line\">Malachite green, Armenian</span><br /><span class=\"long-line\">blue, red earths in</span><br /><span class=\"long-line\">abundance, vermilion like a drug.</span></p>\n"}, {"title": "Jellyfish", "view_node": "/poem/jellyfish", "field_author": "<a href=\"/poet/david-lau\" hreflang=\"und\">David Lau</a>", "field_date_published": "2009", "body": " <pre>\nDear XXth century \nno one can darken skies like, \n\nhave you even been in meaning? \n\nthe forest on fire grows and glows \nwith sediment gorges hauled by \n\nthe clinking antiquated chain gaff: \nwords are worms more than what it's not: \n\n\"The Unnamable\"  \"The H Age\" \n\na fucking sick hello, hymeneal subjoinder \nfrom the whole fire and the sick \n\nwick   halted   vertical   locks \n\nby the riceless riverside \n\nthis who'll (if the smokes come) \ncarry the wind \n\nyou're hair in, there \nbeing something you left.</pre>\n "}, {"title": "Long after Hopkins", "view_node": "/poem/long-after-hopkins", "field_author": "<a href=\"/poet/brian-teare\" hreflang=\"und\">Brian Teare</a>", "field_date_published": "2009", "body": " <pre>\nNothing at dusk, lord, but dust \n\n                              and road to keep it. The \ufb01eld kneels \n\nunder white pines, umbra the edge \n\n                              to whom this is addressed : \n\na mind part fern, part birch : \n\n                              two turkeys slowly S-ing their necks \n\nthrough in\ufb02orescence, arrangement \n\n                              more precise than what light leaves \n\n\ufb01elds : painterly \ufb02owers more color \n\n                              than picture, more words for color \n\nthan tint : <i>alizarin</i> or <i>violet</i>, you could \n\n                              write <i>goldenrod</i>, write <i>corn\ufb02ower</i>, \n\nbut Queen Anne's lace still hems \n\n                              the low horizon. Faith, what is it \n\nabides, what's left of pastoral \n\n                              but unreality. Ask arti\ufb01ce. Ask ornament. \n\nGo ahead and ask : what principle \n\n                              animates the natural : owl pink Lady's Slipper \n\norchid white-tailed deer woodchuck : \n\n                              is it only what's visible that's knowable. \n\nTwenty dandelions gone to seed; \n\n                              tent worms slung in the articulated \n\ntree; what's tiresome : mind \n\n                              unanswered, writing to supply \n\nscaffolds to hold up scenery, nothing \n\n                              but queries and plywood, string \n\nstrung to a high struck bell auguring : \n\n                              it's too late to see a third turkey \n\nleft headless, wreck of feathers \n\n                              the owl scared, scattered in grass\u2014</pre>\n "}, {"title": "Ode on Dictionaries", "view_node": "/poem/ode-dictionaries", "field_author": "<a href=\"/poet/barbara-hamby\" hreflang=\"und\">Barbara Hamby</a>", "field_date_published": "2009", "body": " <pre>\n<i>A-bomb</i> is how it begins with a big bang on page\none, a calculator of sorts whose centrifuge\nbegets <i>bedouin, bamboozle, breakdance</i>, and <i>berserk</i>,\none of my mother's favorite words, hard knock\nclerk of clich\u00e9s that she is, at the moment <i>going ape</i>\nthe current rave in the fundamentalist landscape\ndisguised as her brain, a rococo lexicon\nof Deuteronomy, Job, gossip, spritz, and neocon\nephemera all wrapped up in a pop burrito\nof movie star shenanigans, like a stray Cheeto\nfound in your pocket the day after you finish the bag,\ntastier than any oyster and champagne fueled <i>fugue\ngastronomique</i> you have been pursuing in France\nfor the past four months. This 82-year-old's rants\nhave taken their place with the dictionary I bought\nin the fourth grade, with so many gorgeous words I thought\nI'd never plumb its depths. Right the first time, little girl,\nyet here I am still at it, trolling for pearls,\nJapanese words vying with Bantu in a goulash\nI eat daily, sometimes gagging, sometimes with relish,\nkleptomaniac in the candy store of language,\nslipping words in my pockets like a non-smudge\nlipstick that smears with the first kiss. I'm the demented\nlady with sixteen cats. Sure, the house stinks, but those damned\nmice have skedaddled, though I kind of miss them, their cute\nlittle faces, the whiskers, those adorable gray suits.\nNo, all beasts are welcome in my menagerie, ark\nof inconsolable barks and meows, sharp-toothed shark,\n<i>OED</i> of the deep ocean, sweet compendium\nof candy bars\u2014Butterfingers, Mounds, and M&amp;Ms\u2014\npacked next to the tripe and gizzards, trim and tackle\nof butchers and bakers, the painter's brush and spackle,\nquarks and black holes of physicists' theory. I'm building\nmy own book as a mason makes a wall or a gelding\nruns round the track\u2014brick by brick, step by step, word by word,\n<i>jonquil</i> by <i>gerrymander, syllabub</i> by <i>greensward</i>,\n<i>swordplay</i> by <i>snapdragon</i>, a never-ending parade\nwith clowns and funambulists in my own mouth, homemade\ntreasure chest of tongue and teeth, the brain's roustabout, rough\nunfurler of tents and trapezes, off-the-cuff\nunruly troublemaker in the high church museum\nof the world. O mouth\u2014boondoggle, auditorium,\nviper, gulag, gumbo pot on a steamy August\nafternoon\u2014what have you not given me? How I must\nwear on you, my Samuel Johnson in a frock coat,\nlexicographer of silly thoughts, billy goat,\nX-rated pornographic smut factory, scarfer\nof snacks, prissy smirker, late-night barfly,\nyou are the megaphone by which I bewitch the world\nor don't as the case may be. O chittering squirrel,\nziplock sandwich bag, sound off, shut up, gather your words\ninto bouquets, folios, flocks of black and flaming birds.</pre>\n "}, {"title": "Transit of Venus", "view_node": "/poem/transit-venus", "field_author": "<a href=\"/poet/lyrae-van-clief-stefanon\" hreflang=\"und\">Lyrae Van Clief-Stefanon</a>", "field_date_published": "2009", "body": " <pre>\nThe actors mill about the party saying rhubarb\nbecause other words do not sound like conversation.\nIn the kitchen, always, one who's just discovered\nbeauty, his mouth full of whiskey and strawberries.\nHe practices the texture of her hair with his tongue;\nin her, five billion electrons pop their atoms. Rhubarb\nin electromagnetic loops, rhubarb, rhubarb, the din increases.</pre>\n "}, {"title": "The Life of Man", "view_node": "/poem/life-man", "field_author": "<a href=\"/poet/russell-edson\" hreflang=\"und\">Russell Edson</a>", "field_date_published": "2009", "body": " <p>For breakfast a man must break an egg. Then not all the king's horses and all the king's men can do very much about it.</p><p>Past perfect the broken egg no longer breaks, a dead man no longer dies...</p><p>And as he spills the broken egg into a frying pan he murmurs, Ah, well, too bad about Humpty Dumpty...</p> "}, {"title": "Exile", "view_node": "/poem/exile", "field_author": "<a href=\"/poet/alicia-ostriker\" hreflang=\"und\">Alicia Ostriker</a>", "field_date_published": "2009", "body": " <pre>\nThe downward turning touch\nthe cry of time\nfire falling without sound\nplunge my hand in the wound\n\nchildren marching and dying\nall that I do is a crime\nbecause I do not reach\ntheir mouths silently crying\n\nmy boychild reaches with his mouth\nit is easy, being a mother\nhis skin is tender and soft\nkisses stitch us together\n\nwe love as long as we may\nthen come years without kisses\nwhen he will turn away\nnot to waste breath\n\nwhen I too will fall\nembracing a pillow at night\ntouching the stone of exile\nreaching my hand to death</pre>\n "}, {"title": "Delta Flight 659", "view_node": "/poem/delta-flight-659", "field_author": "<a href=\"/poet/denise-duhamel\" hreflang=\"und\">Denise Duhamel</a>", "field_date_published": "2009", "body": " <pre><i>\u2014to Sean Penn</i>\n\nI'm writing this on a plane, Sean Penn,\nwith my black Pilot Razor ballpoint pen.\nEver since 9/11, I'm a nervous flyer. I leave my Pentium\nProcessor in Florida so TSA can't x-ray my stanzas, penetrate\nmy persona. Maybe this should be in iambic pentameter,\nrather than this mock sestina, each line ending in a Penn\n\nvariant. I convinced myself the ticket to Baghdad was too expensive.\nI contemplated going as a human shield. I read, in open-\nmouthed shock, that your trip there was a $56,000 expenditure.\nIs that true? I watched you on Larry King Live\u2014his suspenders\nand tie, your open collar. You saw the war's impending\nmess. My husband gambled on my penumbra\n\nof doubt. <i>So you station yourself at a food silo in Iraq. What happens\nto me if you get blown up?</i> He begged me to stay home, be his Penelope.\nI sit alone in coach, but last night I sat with four poets, depending\non one another as readers, in a Pittsburgh caf\u00e9. I tried to be your pen\npal in 1987, not because of your pensive\nbad boy looks, but because of a poem you'd penned\n\nthat appeared in an issue of <i>Frank</i>. I still see the poet in you, Sean Penn.\nYou probably think fans like me are your penance\nfor your popularity, your star bulging into a pentagon\nfilled with witchy wanna-bes and penniless\npoets who waddle toward your icy peninsula\nof glamour like so many menacing penguins.\n\nBut honest, I come in peace, Sean Penn,\nwriting on my plane ride home. I want no part of your penthouse\nor the snowy slopes of your Aspen.\nI won't stalk you like the swirling grime cloud over Pig Pen.\nI have no script or stupendous\nnovel I want you to option. I even like your wife, Robin Wright Penn.\n\nI only want to keep myself busy on this flight, to tell you of four penny-\nloafered poets in Pennsylvania\nwho, last night, chomping on primavera penne\npasta, pondered poetry, celebrity, Iraq, the penitentiary\nof free speech. And how I reminded everyone that Sean Penn\nonce wrote a poem. I peer out the window, caress my lucky pendant:\n\nLook, Sean Penn, the clouds are drawn with charcoal pencils.\nThe sky is opening like a child's first stab at penmanship.\nThe sun begins to ripen orange, then deepen. </pre>\n "}, {"title": "The Peace That So Lovingly Descends", "view_node": "/poem/peace-so-lovingly-descends", "field_author": "<a href=\"/poet/noelle-kocot\" hreflang=\"und\">Noelle Kocot</a>", "field_date_published": "2009", "body": " <pre>\n\"You\" have transformed into \"my loss.\"\nThe nettles in your vanished hair\nRestore the absolute truth\nOf warring animals without a haven.\nI know, I'm as pathetic as a railroad\nWithout tracks.  In June, I eat\nThe lonesome berries from the branches.\nWhat can I say, except the forecast\nNever changes.  I sleep without you,\nAnd the letters that you sent\nAre now faded into failed lessons\nOf an animal that's found a home.  This.</pre>\n "}], "pager": {"current_page": 519, "total_items": "13248", "total_pages": 663, "items_per_page": 20}}