{"rows": [{"title": "Untitled [So what is it then] (audio only)", "view_node": "/poem/untitled-so-what-it-then-audio-only", "field_author": "<a href=\"/poet/elizabeth-arnold\" hreflang=\"und\">Elizabeth Arnold</a>", "field_date_published": "2009", "body": " <p>\u00a0</p><p>Click the icon above to listen to this audio poem.</p> "}, {"title": "Google Me Soon (audio only)", "view_node": "/poem/google-me-soon-audio-only", "field_author": "<a href=\"/poet/mark-halliday\" hreflang=\"und\">Mark Halliday</a>", "field_date_published": "2009", "body": " <p>\u00a0</p><p>Click the icon above to listen to this audio poem.</p> "}, {"title": "It Was Not Him (audio only)", "view_node": "/poem/it-was-not-him-audio-only", "field_author": "<a href=\"/poet/mark-halliday\" hreflang=\"und\">Mark Halliday</a>", "field_date_published": "2009", "body": " <p>\u00a0</p><p>Click the icon above to listen to this audio poem.</p> "}, {"title": "Joan (audio only)", "view_node": "/poem/joan-audio-only", "field_author": "<a href=\"/poet/eileen-myles\" hreflang=\"und\">Eileen Myles</a>", "field_date_published": "2009", "body": " <p>\u00a0</p><p>Click the icon above to listen to this audio poem.</p> "}, {"title": "Lady Tactics (audio only)", "view_node": "/poem/lady-tactics-audio-only", "field_author": "<a href=\"/poet/anne-waldman\" hreflang=\"und\">Anne Waldman</a>", "field_date_published": "2009", "body": " <p>\u00a0</p><p>Click the icon above to listen to this audio poem.</p> "}, {"title": "Rhyme of My Inheritance (audio only)", "view_node": "/poem/rhyme-my-inheritance-audio-only", "field_author": "<a href=\"/poet/joan-larkin\" hreflang=\"und\">Joan Larkin</a>", "field_date_published": "2009", "body": " <p>\u00a0</p><p>Click the icon above to listen to this audio poem.</p> "}, {"title": "Susan&#039;s Photograph (audio only)", "view_node": "/poem/susans-photograph-audio-only", "field_author": "<a href=\"/poet/jean-valentine\" hreflang=\"und\">Jean Valentine</a>", "field_date_published": "2009", "body": " <p>\u00a0</p><p>Click the icon above to listen to this audio poem.</p> "}, {"title": "Los Dos Rancheros (audio only)", "view_node": "/poem/los-dos-rancheros-audio-only", "field_author": "<a href=\"/poet/charlie-smith\" hreflang=\"und\">Charlie Smith</a>", "field_date_published": "2009", "body": " <p>\u00a0</p><p>Click the icon above to listen to this audio poem.</p> "}, {"title": "Real Time (audio only)", "view_node": "/poem/real-time-audio-only", "field_author": "<a href=\"/poet/charlie-smith\" hreflang=\"und\">Charlie Smith</a>", "field_date_published": "2009", "body": " <p>\u00a0</p><p>Click the icon above to listen to this audio poem.</p> "}, {"title": "[Time (Outside the Quincunx)] (audio only)", "view_node": "/poem/time-outside-quincunx-audio-only", "field_author": "<a href=\"/poet/jeffrey-yang\" hreflang=\"und\">Jeffrey Yang</a>", "field_date_published": "2009", "body": " <p>\u00a0</p><p>Click the icon above to listen to this audio poem.</p> "}, {"title": "Disillusionment of Ten O&#039;Clock", "view_node": "/poem/disillusionment-ten-oclock", "field_author": "<a href=\"/poet/wallace-stevens\" hreflang=\"und\">Wallace Stevens</a>", "field_date_published": "1915", "body": "<p><span class=\"long-line\">The houses are haunted</span><br /><span class=\"long-line\">By white night-gowns.</span><br /><span class=\"long-line\">None are green,</span><br /><span class=\"long-line\">Or purple with green rings,</span><br /><span class=\"long-line\">Or green with yellow rings,</span><br /><span class=\"long-line\">Or yellow with blue rings.</span><br /><span class=\"long-line\">None of them are strange,</span><br /><span class=\"long-line\">With socks of lace</span><br /><span class=\"long-line\">And beaded ceintures.</span><br /><span class=\"long-line\">People are not going</span><br /><span class=\"long-line\">To dream of baboons and periwinkles.</span><br /><span class=\"long-line\">Only, here and there, an old sailor,</span><br /><span class=\"long-line\">Drunk and asleep in his boots,</span><br /><span class=\"long-line\">Catches tigers</span><br /><span class=\"long-line\">In red weather.</span></p>\n"}, {"title": "Forced Bloom", "view_node": "/poem/forced-bloom", "field_author": "<a href=\"/poet/david-baker\" hreflang=\"und\">David Baker</a>", "field_date_published": "2001", "body": " <pre>\n<b>1.</b>\n\nSuch pleasure one needs to make for oneself. \nShe has snipped the paltry forsythia \nto force the bloom, has cut each stem on \nthe slant and sprinkled brown sugar in a vase, \nso the wintered reeds will take their water. \nIt hurts her to do this but she does it. \nWhen are we most ourselves, and when the least? \nLast night, the man in the recessed doorway, \nhomeless or searching for something, or sought\u2014\nall he needed was one hand and quiet. \nThe city around him was one small room. \nHe leaned into the dark portal, gray \nshade in a door, a shadow of himself. \nHis eyes were closed. His rhythm became him. \nSo we have shut our eyes, as dead or as \nother, and held the thought of another \nwhose pleasure is need, face over a face ... \n\n<b>2. </b>\n\nIt hurts her to use her hands, to hold \na cup or bud or touch a thing. The doctors \nhave turned her burning hands in their hands. \nThe tests have shown a problem, but no cause, \na neuropathology of mere touch. \nWe have all made love in the dark, small room \nof such need, without shame, to our comfort, \nour compulsion. I know I have. She has. \nWe have held or helped each other, sometimes \nwatching from the doorway of a warm house \nwhere candletips of new growth light the walls, \nthe city in likeness beyond, our hands \non the swollen damp branch or bud or cup. \nSometimes we are most ourselves when we are \nleast, or hurt, or lost, face over a face\u2014. \nYou have, too. It's your secret, your delight. \nYou smell the wild scent all day on your hand. </pre>\n "}, {"title": "The City of God", "view_node": "/poem/city-god", "field_author": "<a href=\"/poet/david-baker\" hreflang=\"und\">David Baker</a>", "field_date_published": "2001", "body": " <pre>\nNow we knelt beside \nthe ruined waters \nas our first blood, \nour bulb-before-bloom, \nunfurled too early \n\nin slender petals. \nNow we were empty. \nNow we walked for months \non softer shoes and \nspoke, not quite with grief. \n\nThis morning four deer \ncome up to the yard \nto stand, to be stunned, \nat the woods' edge \non their hoof-tips. Their \n\nears twist like tuners, \nbut they stay for minutes,\nminutes more, while \nwe are shadows behind \nwindows watching them \n\nnip at the pine bark, \nnibble some brown tips \nof hydrangea. It's \nbeen a mean, dry winter. \nThe last time I prayed\u2014\n \nprayed with any thought \nof reply, any \nhope of audience\u2014 \nI sat in a church \nand the city smell \n\nof lilac, fumes from \nthe bus line, filled me. \nThe joys of the body \nare not the sins \nof the soul. \n\n\u00a0\u00a0\u00a0\u00a0\u00a0Who knows \nhow many have come \nto be with us? We\nknelt, not as in prayer, \nbeside the toilet \n\nand watched the first one \nleave us utterly\u2014.\nThey were deer. Now they \nare fog. \n\u00a0\u00a0\u00a0\u00a0\u00a0Now the wind \n\npulls back though the trees.\nWe know it will \nbe this way always \n\u2014whatever fades\u2014\nand the dreadful wake. </pre>\n "}, {"title": "As kingfishers catch fire, dragonflies draw flame", "view_node": "/poem/kingfishers-catch-fire-dragonflies-draw-flame", "field_author": "<a href=\"/poet/gerard-manley-hopkins\" hreflang=\"und\">Gerard Manley Hopkins</a>", "field_date_published": "1880", "body": " <pre>\nAs kingfishers catch fire, dragonflies dr\u00e1w fl\u00e1me;\t\nAs tumbled over rim in roundy wells\t\nStones ring; like each tucked string tells, each hung bell's\t\nBow swung finds tongue to fling out broad its name;\t\nEach mortal thing does one thing and the same:\t        \nDeals out that being indoors each one dwells;\t\nSelves\u2014goes itself; myself it speaks and spells,\t\nCrying <i>Wh\u00e1t I do is me: for that I came</i>.\t\n \n\u00cd say m\u00f3re: the just man justices;\t\nK\u00e9eps gr\u00e1ce: th\u00e1t keeps all his goings graces;\t        \nActs in God's eye what in God\u2019s eye he is\u2014\t\nChr\u00edst\u2014for Christ plays in ten thousand places,\t\nLovely in limbs, and lovely in eyes not his\t\nTo the Father through the features of men\u2019s faces.\n</pre>\n "}, {"title": "Tender Buttons [Apple]", "view_node": "/poem/tender-buttons-apple", "field_author": "<a href=\"/poet/gertrude-stein\" hreflang=\"und\">Gertrude Stein</a>", "field_date_published": "1914", "body": " <p>APPLE</p><p>Apple plum, carpet steak, seed clam, colored wine, calm seen, cold cream, best shake, potato, potato and no no gold work with pet, a green seen is called bake and change sweet is bready, a little piece a little piece please.</p><p>A little piece please. Cane again to the presupposed and ready eucalyptus tree, count out sherry and ripe plates and little corners of a kind of ham. This is use.</p> "}, {"title": "Four Preludes on Playthings of the Wind", "view_node": "/poem/four-preludes-playthings-wind", "field_author": "<a href=\"/poet/carl-sandburg\" hreflang=\"und\">Carl Sandburg</a>", "field_date_published": "1922", "body": " <pre>\n<i>The past is a bucket of ashes.</i>\n\n1\n\nThe woman named Tomorrow  \nsits with a hairpin in her teeth  \nand takes her time  \nand does her hair the way she wants it  \nand fastens at last the last braid and coil \nand puts the hairpin where it belongs  \nand turns and drawls: Well, what of it?  \nMy grandmother, Yesterday, is gone.  \nWhat of it? Let the dead be dead.  \n  \n \n2\n\nThe doors were cedar\nand the panels strips of gold  \nand the girls were golden girls  \nand the panels read and the girls chanted:  \n  We are the greatest city,  \n  the greatest nation:\n  nothing like us ever was.  \n   \nThe doors are twisted on broken hinges.  \nSheets of rain swish through on the wind  \n  where the golden girls ran and the panels read:  \n  We are the greatest city,\n  the greatest nation,  \n  nothing like us ever was.  \n   \n\n3\n\nIt has happened before.  \nStrong men put up a city and got  \n  a nation together,\nAnd paid singers to sing and women  \n  to warble: We are the greatest city,  \n    the greatest nation,  \n    nothing like us ever was.  \n   \nAnd while the singers sang\nand the strong men listened  \nand paid the singers well  \nand felt good about it all,  \n  there were rats and lizards who listened  \n  \u2026 and the only listeners left now\n  \u2026 are \u2026 the rats \u2026 and the lizards.  \n   \nAnd there are black crows  \ncrying, \"Caw, caw,\"  \nbringing mud and sticks  \nbuilding a nest\nover the words carved  \non the doors where the panels were cedar  \nand the strips on the panels were gold  \nand the golden girls came singing:  \n  We are the greatest city,\n  the greatest nation:  \n  nothing like us ever was.  \n   \nThe only singers now are crows crying, \"Caw, caw,\"  \nAnd the sheets of rain whine in the wind and doorways.  \nAnd the only listeners now are \u2026 the rats \u2026 and the lizards.\n   \n\n4\n\nThe feet of the rats  \nscribble on the door sills;  \nthe hieroglyphs of the rat footprints  \nchatter the pedigrees of the rats  \nand babble of the blood\nand gabble of the breed  \nof the grandfathers and the great-grandfathers  \nof the rats.  \n   \nAnd the wind shifts  \nand the dust on a door sill shifts\nand even the writing of the rat footprints  \ntells us nothing, nothing at all  \nabout the greatest city, the greatest nation  \nwhere the strong men listened  \nand the women warbled: Nothing like us ever was. \n</pre>\n "}, {"title": "Caboose Thoughts", "view_node": "/poem/caboose-thoughts", "field_author": "<a href=\"/poet/carl-sandburg\" hreflang=\"und\">Carl Sandburg</a>", "field_date_published": "1918", "body": " <pre>\nIt's going to come out all right\u2014do you know?\nThe sun, the birds, the grass\u2014they know.\nThey get along\u2014and we\u2019ll get along.\n\nSome days will be rainy and you will sit waiting\nAnd the letter you wait for won\u2019t come,\nAnd I will sit watching the sky tear off gray and gray\nAnd the letter I wait for won\u2019t come.\n\nThere will be ac-ci-dents.\nI know ac-ci-dents are coming.\nSmash-ups, signals wrong, washouts, trestles rotten,\nRed and yellow ac-ci-dents.\nBut somehow and somewhere the end of the run\nThe train gets put together again\nAnd the caboose and the green tail lights\nFade down the right of way like a new white hope.\n\nI never heard a mockingbird in Kentucky\nSpilling its heart in the morning.\n\nI never saw the snow on Chimborazo.\nIt\u2019s a high white Mexican hat, I hear.\n\nI never had supper with Abe Lincoln.\nNor a dish of soup with Jim Hill.\n\nBut I\u2019ve been around.\nI know some of the boys here who can go a little.\nI know girls good for a burst of speed any time.\n\nI heard Williams and Walker\nBefore Walker died in the bughouse.\n\nI knew a mandolin player\nWorking in a barber shop in an Indiana town,\nAnd he thought he had a million dollars.\n\nI knew a hotel girl in Des Moines.\nShe had eyes; I saw her and said to myself\nThe sun rises and the sun sets in her eyes.\nI was her steady and her heart went pit-a-pat.\nWe took away the money for a prize waltz at a\n          Brotherhood dance.\nShe had eyes; she was safe as the bridge over the\n          Mississippi at Burlington; I married her.\n\nLast summer we took the cushions going west.\nPike\u2019s Peak is a big old stone, believe me.\nIt\u2019s fastened down; something you can count on.\n\nIt\u2019s going to come out all right\u2014do you know?\nThe sun, the birds, the grass\u2014they know.\nThey get along\u2014and we\u2019ll get along.</pre>\n "}, {"title": "Prayers of Steel", "view_node": "/poem/prayers-steel", "field_author": "<a href=\"/poet/carl-sandburg\" hreflang=\"und\">Carl Sandburg</a>", "field_date_published": "1918", "body": " <pre>Lay me on an anvil, O God.  \nBeat me and hammer me into a crowbar.  \nLet me pry loose old walls.  \nLet me lift and loosen old foundations.  \n  \nLay me on an anvil, O God.\nBeat me and hammer me into a steel spike.  \nDrive me into the girders that hold a skyscraper together.  \nTake red-hot rivets and fasten me into the central girders.  \n<span class=\"long-line\">Let me be the great nail holding a skyscraper through blue nights into white stars.</span></pre>\n "}, {"title": "Loam", "view_node": "/poem/loam", "field_author": "<a href=\"/poet/carl-sandburg\" hreflang=\"und\">Carl Sandburg</a>", "field_date_published": "1918", "body": " <pre>\nIn the loam we sleep,\nIn the cool moist loam,\nTo the lull of years that pass\nAnd the break of stars,\n\nFrom the loam, then,\nThe soft warm loam,\n          We rise:\nTo shape of rose leaf,\nOf face and shoulder.\n\n          We stand, then,\n          To a whiff of life,\nLifted to the silver of the sun\nOver and out of the loam\n          A day. </pre>\n "}, {"title": "Testament", "view_node": "/poem/testament", "field_author": "<a href=\"/poet/carl-sandburg\" hreflang=\"und\">Carl Sandburg</a>", "field_date_published": "1918", "body": " <pre>I give the undertakers permission to haul my body  \nto the graveyard and to lay away all, the head, the  \nfeet, the hands, all: I know there is something left  \nover they can not put away.  \n  \nLet the nanny goats and the billy goats of the shanty\npeople eat the clover over my grave  and if any yellow  \nhair or any blue smoke of flowers is good enough to grow  \nover me  let the dirty-fisted children of the shanty  \npeople pick these flowers.  \n  \nI have had my chance to live with the people who have\ntoo much and the people who have too little and I chose  \none of the two and I have told no man why.</pre>\n "}], "pager": {"current_page": 516, "total_items": "13248", "total_pages": 663, "items_per_page": 20}}