{"rows": [{"title": "O, how thy worth with manners may I sing (Sonnet 39)", "view_node": "/poem/o-how-thy-worth-manners-may-i-sing-sonnet-39", "field_author": "<a href=\"/poet/william-shakespeare\" hreflang=\"und\">William Shakespeare</a>", "field_date_published": "1904", "body": "<p><span class=\"long-line\">O, how thy worth with manners may I sing,</span><br /><span class=\"long-line\">When thou art all the better part of me?</span><br /><span class=\"long-line\">What can mine own praise to mine own self bring?</span><br /><span class=\"long-line\">And what is \u2019t but mine own when I praise thee?</span><br /><span class=\"long-line\">Even for this let us divided live,</span><br /><span class=\"long-line\">And our dear love lose name of single one,</span><br /><span class=\"long-line\">That by this separation I may give</span><br /><span class=\"long-line\">That due to thee which thou deserves alone.</span><br /><span class=\"long-line\">O absence, what a torment wouldst thou prove,</span><br /><span class=\"long-line\">To entertain the time with thoughts of love,</span><br /><span class=\"long-line\">Which time and thoughts so sweetly doth deceive,</span><br /><span class=\"long-line\">\u00a0\u00a0\u00a0\u00a0And that thou teachest how to make one twain,</span><br /><span class=\"long-line\">\u00a0\u00a0\u00a0\u00a0By praising him here who doth hence remain!</span></p>\n"}, {"title": "How can my Muse want subject to invent (Sonnet 38)", "view_node": "/poem/how-can-my-muse-want-subject-invent-sonnet-38", "field_author": "<a href=\"/poet/william-shakespeare\" hreflang=\"und\">William Shakespeare</a>", "field_date_published": "1904", "body": "<p><span class=\"long-line\">How can my Muse want subject to invent,</span><br /><span class=\"long-line\">While thou dost breathe, that pour\u2019st into my verse</span><br /><span class=\"long-line\">Thine own sweet argument, too excellent</span><br /><span class=\"long-line\">For ever vulgar paper to rehearse?</span><br /><span class=\"long-line\">O, give thyself the thanks, if aught in me</span><br /><span class=\"long-line\">Worthy perusal stand against thy sight;</span><br /><span class=\"long-line\">For who\u2019s so dumb that cannot write to thee,</span><br /><span class=\"long-line\">When thou thyself dost give invention light?</span><br /><span class=\"long-line\">Be thou the tenth Muse, then times more in worth</span><br /><span class=\"long-line\">Than those old nine which rhymers invocate;</span><br /><span class=\"long-line\">And he that calls on thee, let him bring forth</span><br /><span class=\"long-line\">Eternal numbers to outlive long date.</span><br /><span class=\"long-line\">\u00a0\u00a0\u00a0\u00a0If my slight Muse do please these curious days,</span><br /><span class=\"long-line\">\u00a0\u00a0\u00a0\u00a0The pain be mine, but thine shall be the praise.</span></p>\n"}, {"title": "As a decrepit father takes delight (Sonnet 37)", "view_node": "/poem/decrepit-father-takes-delight-sonnet-37", "field_author": "<a href=\"/poet/william-shakespeare\" hreflang=\"und\">William Shakespeare</a>", "field_date_published": "1904", "body": "<p><span class=\"long-line\">As a decrepit father takes delight</span><br /><span class=\"long-line\">To see his active child do deeds of youth,</span><br /><span class=\"long-line\">So I, made lame by fortune\u2019s dearest spite,</span><br /><span class=\"long-line\">Take all my comfort of thy worth and truth.</span><br /><span class=\"long-line\">For whether beauty, birth, or wealth, or wit,</span><br /><span class=\"long-line\">Or any of these all, or all, or more,</span><br /><span class=\"long-line\">Entitled in thy parts do crowned sit,</span><br /><span class=\"long-line\">I make my love engrafted to this store:</span><br /><span class=\"long-line\">So then I am not lame, poor, nor despised,</span><br /><span class=\"long-line\">Whilst that this shadows doth such substance give</span><br /><span class=\"long-line\">That I in thy abundance am sufficed</span><br /><span class=\"long-line\">And by a part of all thy glory live.</span><br /><span class=\"long-line\">\u00a0\u00a0\u00a0\u00a0Look, what is best, that best I wish in thee:</span><br /><span class=\"long-line\">\u00a0\u00a0\u00a0\u00a0This wish I have; then ten times happy me!</span></p>\n"}, {"title": "Let me confess that we two must be twain. (Sonnet 36)", "view_node": "/poem/let-me-confess-we-two-must-be-twain-sonnet-36", "field_author": "<a href=\"/poet/william-shakespeare\" hreflang=\"und\">William Shakespeare</a>", "field_date_published": "1904", "body": "<p><span class=\"long-line\">Let me confess that we two must be twain.</span><br /><span class=\"long-line\">Although our undivided loves are one:</span><br /><span class=\"long-line\">So shall those blots that do with me remain</span><br /><span class=\"long-line\">Without thy help by me be borne alone.</span><br /><span class=\"long-line\">In our two loves there is but one respect,</span><br /><span class=\"long-line\">Though in our lives a separable spite,</span><br /><span class=\"long-line\">Which though it alter not love\u2019s sole effect,</span><br /><span class=\"long-line\">Yet doth it steal sweet hours from love\u2019s delight.</span><br /><span class=\"long-line\">I may not evermore acknowledge thee,</span><br /><span class=\"long-line\">Lest my bewailed guilt should do thee shame,</span><br /><span class=\"long-line\">Not thou with public kindness honour me,</span><br /><span class=\"long-line\">Unless thou take that honour from thy name:</span><br /><span class=\"long-line\">\u00a0\u00a0\u00a0\u00a0But do not so; I love thee in such sort</span><br /><span class=\"long-line\">\u00a0\u00a0\u00a0\u00a0As, thou being mine, mine is thy good report.</span></p>\n"}, {"title": "No more be grieved at that which thou hast done: (Sonnet 35)", "view_node": "/poem/no-more-be-grieved-which-thou-hast-done-sonnet-35", "field_author": "<a href=\"/poet/william-shakespeare\" hreflang=\"und\">William Shakespeare</a>", "field_date_published": "1904", "body": "<p><span class=\"long-line\">No more be grieved at that which thou hast done:</span><br /><span class=\"long-line\">Roses have thorns, and silver fountains mud;</span><br /><span class=\"long-line\">Clouds and eclipses stain both moon and sun,</span><br /><span class=\"long-line\">And loathsome canker lives in sweetest bud.</span><br /><span class=\"long-line\">All men make faults, and even I in this,</span><br /><span class=\"long-line\">Authorizing thy trespass with compare,</span><br /><span class=\"long-line\">Myself corrupting, salving thy amiss,</span><br /><span class=\"long-line\">Excusing thy sins more than thy sins are;</span><br /><span class=\"long-line\">For to thy sensual fault I bring in sense\u2014</span><br /><span class=\"long-line\">Thy adverse party is thy advocate\u2014</span><br /><span class=\"long-line\">And \u2019gainst myself a lawful plea commence:</span><br /><span class=\"long-line\">Such civil war is in my love and hate</span><br /><span class=\"long-line\">\u00a0\u00a0\u00a0\u00a0That I an accessary needs must be</span><br /><span class=\"long-line\">\u00a0\u00a0\u00a0\u00a0To that sweet thief which sourly robs from me.</span></p>\n"}, {"title": "Why didst thou promise such a beauteous day (Sonnet 34)", "view_node": "/poem/why-didst-thou-promise-such-beauteous-day-sonnet-34", "field_author": "<a href=\"/poet/william-shakespeare\" hreflang=\"und\">William Shakespeare</a>", "field_date_published": "1904", "body": "<p><span class=\"long-line\">Why didst thou promise such a beauteous day</span><br /><span class=\"long-line\">And make me travel forth without my cloak,</span><br /><span class=\"long-line\">To let base clouds o\u2019ertake me in my way,</span><br /><span class=\"long-line\">Hiding thy bravery in their rotten smoke?</span><br /><span class=\"long-line\">\u2019Tis not enough that through the cloud thou break,</span><br /><span class=\"long-line\">To dry the rain on my storm-beaten face,</span><br /><span class=\"long-line\">For no man well of such a salve can speak</span><br /><span class=\"long-line\">That heals the wound and cures not the disgrace:</span><br /><span class=\"long-line\">Nor can thy shame give physic to my grief;</span><br /><span class=\"long-line\">Though thou repent, yet I have still the loss:</span><br /><span class=\"long-line\">The offender\u2019s sorrow lends by weak relief</span><br /><span class=\"long-line\">To him that bears the strong offence\u2019s cross.</span><br /><span class=\"long-line\">\u00a0\u00a0\u00a0\u00a0Ah! but those tears are pearl which thy love sheds,</span><br /><span class=\"long-line\">\u00a0\u00a0\u00a0\u00a0And they are rich and ransom all ill deeds.</span></p>\n"}, {"title": "If thou survive my well-contended day (Sonnet 32)", "view_node": "/poem/if-thou-survive-my-well-contended-day-sonnet-32", "field_author": "<a href=\"/poet/william-shakespeare\" hreflang=\"und\">William Shakespeare</a>", "field_date_published": "1904", "body": "<p><span class=\"long-line\">If thou survive my well-contended day,</span><br /><span class=\"long-line\">When that churl Death my bones with dust shall cover,</span><br /><span class=\"long-line\">And shalt by fortune once more re-survey</span><br /><span class=\"long-line\">These poor rude lines of thy deceased lover,</span><br /><span class=\"long-line\">Compare them with the bettering of the time,</span><br /><span class=\"long-line\">And though they be outstipp\u2019d by every pen,</span><br /><span class=\"long-line\">Reserve them for my love, not for their rhyme,</span><br /><span class=\"long-line\">Exceeded by the height of happier men.</span><br /><span class=\"long-line\">O, then vouchsafe me but this loving thought:</span><br /><span class=\"long-line\">\u2018Had my friend\u2019s Muse grown with this growing age,</span><br /><span class=\"\u201clong-line\">A dearer birth than this his love had brought,</span><br /><span class=\"long-line\">To march in ranks of better equipage:</span><br /><span class=\"long-line\">\u00a0\u00a0\u00a0\u00a0But since he died and poets better prove,</span><br /><span class=\"long-line\u201d\">\u00a0\u00a0\u00a0\u00a0Theirs for their style I\u2019ll read, his for his love.\u2019</span></p>\n"}, {"title": "Thy bosom is endeared with all hearts (Sonnet 31)", "view_node": "/poem/thy-bosom-endeared-all-hearts-sonnet-31", "field_author": "<a href=\"/poet/william-shakespeare\" hreflang=\"und\">William Shakespeare</a>", "field_date_published": "1904", "body": "<p><span class=\"long-line\">Thy bosom is endeared with all hearts,</span><br /><span class=\"long-line\">Which I by lacking have supposed dead,</span><br /><span class=\"long-line\">And there reigns love and all love\u2019s loving parts,</span><br /><span class=\"long-line\">And all those friends which I thought buried.</span><br /><span class=\"long-line\">How many a holy and obsequious tear</span><br /><span class=\"long-line\">Hath dear religious love stol\u2019n from mine eye</span><br /><span class=\"long-line\">As interest of the dead, which now appear</span><br /><span class=\"long-line\">But things removed that hidden in thee lie!</span><br /><span class=\"long-line\">Thou art the grave where buried love doth live,</span><br /><span class=\"long-line\">Hung with the trophies of my lovers gone,</span><br /><span class=\"long-line\">Who all their parts of me to thee did give;</span><br /><span class=\"long-line\">That due of many now is thine alone:</span><br /><span class=\"long-line\">\u00a0\u00a0\u00a0\u00a0Their images I loved I view in thee,</span><br /><span class=\"long-line\">\u00a0\u00a0\u00a0\u00a0And thou, all they, has all the all of me.</span></p>\n"}, {"title": "How can I then return in happy plight (Sonnet 28)", "view_node": "/poem/how-can-i-then-return-happy-plight-sonnet-28", "field_author": "<a href=\"/poet/william-shakespeare\" hreflang=\"und\">William Shakespeare</a>", "field_date_published": "1904", "body": "<p><span class=\"long-line\">How can I then return in happy plight,</span><br /><span class=\"long-line\">That am debarr\u2019d the benefit of rest?</span><br /><span class=\"long-line\">When day\u2019s oppression is not eased by night,</span><br /><span class=\"long-line\">But day by night, and night by day, oppress\u2019d?</span><br /><span class=\"long-line\">And each, though enemies to either\u2019s reign,</span><br /><span class=\"long-line\">Do in consent shake hands to torture me;</span><br /><span class=\"long-line\">The one by toil, the other to complain</span><br /><span class=\"long-line\">How far I toil, still farther off from thee.</span><br /><span class=\"long-line\">I tell the day, to please him thou art bright</span><br /><span class=\"long-line\">And dost him grace when clouds do blot the heaven:</span><br /><span class=\"long-line\">So flatter I the swart-complexion\u2019d night,</span><br /><span class=\"long-line\">When sparkling stars twire not thou gild\u2019st the even</span><br /><span class=\"long-line\">\u00a0 \u00a0\u00a0\u00a0But day doth daily draw my sorrows longer</span><br /><span class=\"long-line\">\u00a0 \u00a0\u00a0\u00a0And night doth nightly make grief\u2019s strength seem stronger.</span></p>\n"}, {"title": "Weary with toil, I haste me to my bed (Sonnet 27)", "view_node": "/poem/weary-toil-i-haste-me-my-bed-sonnet-27", "field_author": "<a href=\"/poet/william-shakespeare\" hreflang=\"und\">William Shakespeare</a>", "field_date_published": "1904", "body": "<p><span class=\"long-line\">Weary with toil, I haste me to my bed,</span><br /><span class=\"long-line\">The dear repose for limbs with travel tired;</span><br /><span class=\"long-line\">But then begins a journey in my head,</span><br /><span class=\"long-line\">To work my mind, when body\u2019s work\u2019s expired:</span><br /><span class=\"long-line\">For then my thoughts, from far where I abide,</span><br /><span class=\"long-line\">Intend a zealous pilgrimage to thee,</span><br /><span class=\"long-line\">And keep my drooping eyelids open wide,</span><br /><span class=\"long-line\">Looking on darkness which the blind do see:</span><br /><span class=\"long-line\">Save that my soul\u2019s imaginary sight</span><br /><span class=\"long-line\">Presents thy shadow to my sightless view,</span><br /><span class=\"long-line\">Which, like a jewel hung in ghastly night,</span><br /><span class=\"long-line\">Makes black night beauteous and her old face new.</span><br /><span class=\"long-line\">\u00a0\u00a0\u00a0\u00a0Lo! Thus, by day my limbs, by night my mind,</span><br /><span class=\"long-line\">\u00a0\u00a0\u00a0\u00a0For thee and for myself no quiet find.</span></p>\n"}, {"title": "Lord of my love, to whom in vassalage (Sonnet 26)", "view_node": "/poem/lord-my-love-whom-vassalage-sonnet-26", "field_author": "<a href=\"/poet/william-shakespeare\" hreflang=\"und\">William Shakespeare</a>", "field_date_published": "1904", "body": "<p><span class=\"long-line\">Lord of my love, to whom in vassalage</span><br /><span class=\"long-line\">Thy merit hath my duty strongly knot,</span><br /><span class=\"long-line\">To thee I send this written embassage,</span><br /><span class=\"long-line\">To witness duty, not to show my wit:</span><br /><span class=\"long-line\">Duty so great, which wit so poor as mine</span><br /><span class=\"long-line\">May make seem bare, in wanting words to show it,</span><br /><span class=\"long-line\">But that I hope some good conceit of thine</span><br /><span class=\"long-line\">In thy soul\u2019s thought, all naked, will bestow it;</span><br /><span class=\"long-line\">Till whatsoever star that guides my moving </span><br /><span class=\"long-line\">Points on me graciously with fair aspect</span><br /><span class=\"long-line\">And puts apparel on my tatter\u2019d loving,</span><br /><span class=\"long-line\">To show me worthy of thy sweet respect:</span><br /><span class=\"long-line\">\u00a0\u00a0\u00a0\u00a0Then may I dare to boast how I do love thee;</span><br /><span class=\"long-line\">\u00a0\u00a0\u00a0\u00a0Till then not show my head where thou mayst prove me.</span></p>\n"}, {"title": "Let those who are in favour with their stars (Sonnet 25)", "view_node": "/poem/let-those-who-are-favour-their-stars-sonnet-25", "field_author": "<a href=\"/poet/william-shakespeare\" hreflang=\"und\">William Shakespeare</a>", "field_date_published": "1904", "body": "<p><span class=\"long-line\">Let those who are in favour with their stars</span><br /><span class=\"long-line\">Of public honour and proud titles boast</span><br /><span class=\"long-line\">Whilst I, whom fortune of such triumph bars,</span><br /><span class=\"long-line\">Unlook\u2019d for joy in that I honour most.</span><br /><span class=\"long-line\">Great princes\u2019 favourites their fair leaves spread</span><br /><span class=\"long-line\">But as the marigold at the sun\u2019s eye,</span><br /><span class=\"long-line\">And in themselves their pride lies buried,</span><br /><span class=\"long-line\">For at a frown they in their glory die.</span><br /><span class=\"long-line\">The painful warrior famoused for fight,</span><br /><span class=\"long-line\">After a thousand victories once foil\u2019d,</span><br /><span class=\"long-line\">Is from the book of honour razed quite,</span><br /><span class=\"long-line\">And all therest forgot for which he toil\u2019d;</span><br /><span class=\"long-line\">\u00a0\u00a0\u00a0\u00a0Then happy I, that love and am beloved</span><br /><span class=\"long-line\">\u00a0\u00a0\u00a0\u00a0Where I may not remove nor be removed.</span></p>\n"}, {"title": "Mine eye hath play&#039;d the painter and hath stell&#039;d (Sonnet 24)", "view_node": "/poem/mine-eye-hath-playd-painter-and-hath-stelld-sonnet-24", "field_author": "<a href=\"/poet/william-shakespeare\" hreflang=\"und\">William Shakespeare</a>", "field_date_published": "1904", "body": "<p><span class=\"long-line\">Mine eye hath play\u2019d the painter and hath stell\u2019d</span><br /><span class=\"long-line\">Thy beauty\u2019s form in table of my heart;</span><br /><span class=\"long-line\">My body is the frame wherein \u2019tis held,</span><br /><span class=\"long-line\">And perspective it is best painter\u2019s art.</span><br /><span class=\"long-line\">For through the painter must you see his skill,</span><br /><span class=\"long-line\">To find where your true image pictured lies;</span><br /><span class=\"long-line\">Which in my bosom\u2019s shop is hanging still,</span><br /><span class=\"long-line\">That hath his windows glazed with thine eyes.</span><br /><span class=\"long-line\">Now see what good turns eyes for eyes have done:</span><br /><span class=\"long-line\">Mine eyes have drawn thy shape, and thing for me</span><br /><span class=\"long-line\">Are windows to my breast where-through the sun</span><br /><span class=\"long-line\">Delights to peep, to gaze therein on thee;</span><br /><span class=\"long-line\">\u00a0\u00a0\u00a0\u00a0Yet eyes this cunning want to grace their art;</span><br /><span class=\"long-line\">\u00a0\u00a0\u00a0\u00a0They draw but what they see, know not the heart.</span></p>\n"}, {"title": "As an unperfect actor on the stage (Sonnet 23)", "view_node": "/poem/unperfect-actor-stage-sonnet-23", "field_author": "<a href=\"/poet/william-shakespeare\" hreflang=\"und\">William Shakespeare</a>", "field_date_published": "1904", "body": "<p><span class=\"long-line\">As an unperfect actor on the stage</span><br /><span class=\"long-line\">Who with his fear is put besides his part,</span><br /><span class=\"long-line\">Or some fierce thing replete with too much rage,</span><br /><span class=\"long-line\">Whose strength\u2019s abundance weakens his own heart,</span><br /><span class=\"long-line\">So I, for fear of trust, forget to say</span><br /><span class=\"long-line\">The perfect ceremony of love\u2019s rite,</span><br /><span class=\"long-line\">And in mine own loves\u2019s strength seem to decay,</span><br /><span class=\"long-line\">O\u2019ercharged with burden of mine one love\u2019s might.</span><br /><span class=\"long-line\">O, let my books be then the eloquence</span><br /><span class=\"long-line\">And dumb presagers of my speaking breast,</span><br /><span class=\"long-line\">Who plead for love and look for recompense</span><br /><span class=\"long-line\">More than that tongue that more hath more express\u2019d.</span><br /><span class=\"long-line\">\u00a0\u00a0\u00a0\u00a0O, learn to read what silent love hath writ:</span><br /><span class=\"long-line\">\u00a0\u00a0\u00a0\u00a0To hear with eyes belongs to love\u2019s fine writ.</span></p>\n"}, {"title": "My glass shall not persuade me I am old (Sonnet 22)", "view_node": "/poem/my-glass-shall-not-persuade-me-i-am-old-sonnet-22", "field_author": "<a href=\"/poet/william-shakespeare\" hreflang=\"und\">William Shakespeare</a>", "field_date_published": "1904", "body": "<p><span class=\"long-line\">My glass shall not persuade me I am old,</span><br /><span class=\"long-line\">So long as youth and thou are of one date;</span><br /><span class=\"long-line\">But when in thee time\u2019s furrows I behold,</span><br /><span class=\"long-line\">Then look I death my days should expiate.</span><br /><span class=\"long-line\">For all that beauty that doth cover thee</span><br /><span class=\"long-line\">Is but the seemly raiment of my heart,</span><br /><span class=\"long-line\">Which in thy breast doth live, as thine in me:</span><br /><span class=\"long-line\">How can I then be elder than thou art?</span><br /><span class=\"long-line\">O, therefore, love, be of thyself so wary</span><br /><span class=\"long-line\">As I, not for myself, but for thee will;</span><br /><span class=\"long-line\">Bearing thy heart, which I will keep so chary</span><br /><span class=\"long-line\">As tender nurse her babe from faring ill.</span><br /><span class=\"long-line\">\u00a0\u00a0\u00a0\u00a0Presume not on thy heart when mine is slain;</span><br /><span class=\"long-line\">\u00a0\u00a0\u00a0\u00a0Thou gavest me thine, not to give back again.</span></p>\n"}, {"title": "So is it not with me as with that Muse (Sonnet 21)", "view_node": "/poem/so-it-not-me-muse-sonnet-21", "field_author": "<a href=\"/poet/william-shakespeare\" hreflang=\"und\">William Shakespeare</a>", "field_date_published": "1904", "body": "<p><span class=\"long-line\">So is it not with me as with that Muse</span><br /><span class=\"long-line\">Stirr\u2019d by a painted beauty to his verse,</span><br /><span class=\"long-line\">Who heaven itself for ornament doth use</span><br /><span class=\"long-line\">And every fair with his fair doth rehearse;</span><br /><span class=\"long-line\">Making a couplement of proud compare,</span><br /><span class=\"long-line\">With sun and moon, with earth and sea\u2019s rich gems,</span><br /><span class=\"long-line\">With April\u2019s first-born flowers, and all things rare</span><br /><span class=\"long-line\">That heaven\u2019s air in this huge rondure hems.</span><br /><span class=\"long-line\">O, let me, true in love, but truly write,</span><br /><span class=\"long-line\">And then believe me, my love is as fair</span><br /><span class=\"long-line\">As any mother\u2019s child, though not so bright</span><br /><span class=\"long-line\">As those golden candles fix\u2019d in heaven\u2019s air:</span><br /><span class=\"long-line\">\u00a0\u00a0\u00a0\u00a0Let them say more that like of hearsay well;</span><br /><span class=\"long-line\">\u00a0\u00a0\u00a0\u00a0I will not praise that purpose not to sell.</span></p>\n"}, {"title": "Devouring Time, blunt thou the lion&#039;s paws (Sonnet 19)", "view_node": "/poem/devouring-time-blunt-thou-lions-paws-sonnet-19", "field_author": "<a href=\"/poet/william-shakespeare\" hreflang=\"und\">William Shakespeare</a>", "field_date_published": "1904", "body": "<p><span class=\"long-line\">Devouring Time, blunt thou the lion\u2019s paws,</span><br /><span class=\"long-line\">And make the earth devour her own sweet brood;</span><br /><span class=\"long-line\">Pluck\u00a0the keen teeth from the fierce tiger\u2019s jaws,</span><br /><span class=\"long-line\">And burn the long-lived ph\u0153nix in her blood;</span><br /><span class=\"long-line\">Make glad and sorry seasons as thou fleets,</span><br /><span class=\"long-line\">And do whate\u2019er thou wilt, swift-footed Time,</span><br /><span class=\"long-line\">To the wide world and all her fading sweets;</span><br /><span class=\"long-line\">But I forbid thee one most heinous crime:</span><br /><span class=\"long-line\">O, carve not with thy hours my love\u2019s fair brow,</span><br /><span class=\"long-line\">Nor draw no lines there with thine antique pen;</span><br /><span class=\"long-line\">Him in thy course untainted do allow</span><br /><span class=\"long-line\">For beauty\u2019s pattern to succeeding men.</span><br /><span class=\"long-line\">\u00a0\u00a0\u00a0\u00a0Yet, do thy worst, old Time: despite thy wrong,</span><br /><span class=\"long-line\">\u00a0\u00a0\u00a0\u00a0My love shall in my verse ever live young.</span></p>\n"}, {"title": "Who will believe my verse in time to come (Sonnet 17)", "view_node": "/poem/who-will-believe-my-verse-time-come-sonnet-17", "field_author": "<a href=\"/poet/william-shakespeare\" hreflang=\"und\">William Shakespeare</a>", "field_date_published": "1904", "body": "<p><span class=\"long-line\">Who will believe my verse in time to come,</span><br /><span class=\"long-line\">If it were fill\u2019d with your most high deserts?</span><br /><span class=\"long-line\">Though yet, heaven knows, it is but as a tomb</span><br /><span class=\"long-line\">Which hides your life and shows not half your parts.</span><br /><span class=\"long-line\">If I could write the beauty of your eyes </span><br /><span class=\"long-line\">And in fresh numbers number all your graces</span><br /><span class=\"long-line\">The age to come would say \u2018This poet lies;</span><br /><span class=\"long-line\">Such heavenly touches ne\u2019er touch\u2019d earthly faces.\u2019</span><br /><span class=\"long-line\">So should my papers yellow\u2019d with their age</span><br /><span class=\"long-line\">Be scorn\u2019d like old men of less truth than tongue,</span><br /><span class=\"long-line\">And your true rights be term\u2019d a poet\u2019s rage</span><br /><span class=\"long-line\">And stretched metre of an antique song:</span><br /><span class=\"long-line\">\u00a0\u00a0\u00a0\u00a0But were some child of yours alive that time,</span><br /><span class=\"long-line\">\u00a0\u00a0\u00a0\u00a0You should live twice; in it and in my rhyme.</span></p>\n"}, {"title": "But wherefore do not you a mightier way (Sonnet 16)", "view_node": "/poem/wherefore-do-not-you-mightier-way-sonnet-16", "field_author": "<a href=\"/poet/william-shakespeare\" hreflang=\"und\">William Shakespeare</a>", "field_date_published": "1904", "body": "<p><span class=\"long-line\">But wherefore do not you a mightier way</span><br /><span class=\"long-line\">Make war upon this bloody tyrant, Time?</span><br /><span class=\"long-line\">And fortify yourself in your decay</span><br /><span class=\"long-line\">With means more blessed than my barren rhyme?</span><br /><span class=\"long-line\">Now stand you on the top of happy hours,</span><br /><span class=\"long-line\">And many maiden gardens yet unset</span><br /><span class=\"long-line\">With virtuous wish would bear your living flowers,</span><br /><span class=\"long-line\">Much liker than your painted counterfeit:</span><br /><span class=\"long-line\">So should the lines of life that life repair,</span><br /><span class=\"long-line\">Which this, Time\u2019s pencil, or my pupil pen,</span><br /><span class=\"long-line\">Neither in inward worth nor outward fair,</span><br /><span class=\"long-line\">Can make you live yourself in eyes of men.</span><br /><span class=\"long-line\">\u00a0\u00a0\u00a0\u00a0To give away yourself keeps yourself still,</span><br /><span class=\"long-line\">\u00a0\u00a0\u00a0\u00a0And you must live, drawn by your own sweet skill.</span></p>\n"}, {"title": "O, that you were yourself! But, love, you are (Sonnet 13)", "view_node": "/poem/o-you-were-yourself-love-you-are-sonnet-13", "field_author": "<a href=\"/poet/william-shakespeare\" hreflang=\"und\">William Shakespeare</a>", "field_date_published": "1904", "body": "<p><span class=\"long-line\">O, that you were yourself! But, love, you are</span><br /><span class=\"long-line\">No longer yours than you yourself here live:</span><br /><span class=\"long-line\">Against this coming end you should prepare,</span><br /><span class=\"long-line\">And your sweet semblance to some other give.</span><br /><span class=\"long-line\">So should that beauty which you hold in lease</span><br /><span class=\"long-line\">Find no determination; then you were</span><br /><span class=\"long-line\">Yourself again after yourself\u2019s decrease,</span><br /><span class=\"long-line\">When your sweet issue your sweet form should bear.</span><br /><span class=\"long-line\">Who lets so fair a house fall to decay,</span><br /><span class=\"long-line\">Which husbandry in honour might uphold </span><br /><span class=\"long-line\">Against the stormy gusts of winter\u2019s day</span><br /><span class=\"long-line\">And barren rage of death\u2019s eternal cold?</span><br /><span class=\"long-line\">\u00a0\u00a0\u00a0\u00a0O, none but unthrifts! Dear m love, you know</span><br /><span class=\"long-line\">\u00a0\u00a0\u00a0\u00a0You had a father: let your son say so.</span></p>\n"}], "pager": {"current_page": 196, "total_items": "13248", "total_pages": 663, "items_per_page": 20}}