{"rows": [{"title": "Mr. Mustard&#039;s Dance Club: Ladies&#039; Night (audio only)", "view_node": "/poem/mr-mustards-dance-club-ladies-night-audio-only", "field_author": "<a href=\"/poet/aimee-nezhukumatathil\" hreflang=\"und\">Aimee Nezhukumatathil</a>", "field_date_published": "2011", "body": " <p>\u00a0</p><p>Click the icon above to listen to this audio poem.</p> "}, {"title": "Love in the Orangery (audio only)", "view_node": "/poem/love-orangery-audio-only", "field_author": "<a href=\"/poet/aimee-nezhukumatathil\" hreflang=\"und\">Aimee Nezhukumatathil</a>", "field_date_published": "2011", "body": " <p>\u00a0</p><p>Click the icon above to listen to this audio poem.</p> "}, {"title": "Song of the City at Night", "view_node": "/poem/song-city-night", "field_author": "<a href=\"/poet/carol-frost\" hreflang=\"und\">Carol Frost</a>", "field_date_published": "2015", "body": " <p>Whatever hid the sun and moon inside a mountain<br />brought people there to found the night<br />where a city swans on river water<br />laving with light each passing wake,<br />mesmerizing a couple on the riverbrink.<br />They seem unaware what is myth<br />or real, taken up, as it were, by a swan\u2019s bill<br />and flown to a milkwater world<br />where it\u2019s possible to drink only the milk<br />and eat pearls. A gunshot, a siren<br />interrupts the quiet. Something is thrown<br />into the river, then the swan is mute.<br />To sing of this the swan would have to out-swan<br />itself, Sibelius out-Sibelius Sibelius.</p> "}, {"title": "On Seeing a Tuft of Snowdrops in a Storm", "view_node": "/poem/seeing-tuft-snowdrops-storm", "field_author": "<a href=\"/poet/william-wordsworth\" hreflang=\"und\">William Wordsworth</a>", "field_date_published": "1820", "body": "<p><span class=\"long-line\">When haughty expectations prostrate lie,</span><br /><span class=\"long-line\">And grandeur crouches like a guilty thing,</span><br /><span class=\"long-line\">Oft shall the lowly weak, till nature bring</span><br /><span class=\"long-line\">Mature release, in fair society</span><br /><span class=\"long-line\">Survive, and Fortune\u2019s utmost anger try;</span><br /><span class=\"long-line\">Like these frail snow-drops that together cling,</span><br /><span class=\"long-line\">And nod their helmets smitten by the wing</span><br /><span class=\"long-line\">Of many a furious whirlblast sweeping by.</span><br /><span class=\"long-line\">Observe the faithful flowers! if small to great</span><br /><span class=\"long-line\">May lead the thoughts, thus struggling used to stand</span><br /><span class=\"long-line\">The Emathian phalanx, nobly obstinate;</span><br /><span class=\"long-line\">And so the bright immortal Theban band,</span><br /><span class=\"long-line\">Whom onset, fiercely urged at Jove\u2019s command,</span><br /><span class=\"long-line\">Might overwhelm, but could not separate!</span></p>\n"}, {"title": "At the Center for Retired Great Apes (audio only)", "view_node": "/poem/center-retired-great-apes-audio-only", "field_author": "<a href=\"/poet/aimee-nezhukumatathil\" hreflang=\"und\">Aimee Nezhukumatathil</a>", "field_date_published": "2011", "body": " <p>\u00a0</p><p>Click the icon above to listen to this audio poem.</p> "}, {"title": "Corpse Flower (audio only)", "view_node": "/poem/corpse-flower-audio-only", "field_author": "<a href=\"/poet/aimee-nezhukumatathil\" hreflang=\"und\">Aimee Nezhukumatathil</a>", "field_date_published": "2011", "body": " <p>\u00a0</p><p>Click the icon above to listen to this audio poem.</p> "}, {"title": "Dream of a Poetry of Defense (audio only)", "view_node": "/poem/dream-poetry-defense-audio-only", "field_author": "<a href=\"/poet/timothy-donnelly\" hreflang=\"und\">Timothy Donnelly</a>", "field_date_published": "2011", "body": " <p>\u00a0</p><p>Click the icon above to listen to this audio poem.</p> "}, {"title": "Lycopodium Obscurum (audio only)", "view_node": "/poem/lycopodium-obscurum-audio-only", "field_author": "<a href=\"/poet/timothy-donnelly\" hreflang=\"und\">Timothy Donnelly</a>", "field_date_published": "2011", "body": " <p>\u00a0</p><p>Click the icon above to listen to this audio poem.</p> "}, {"title": "The Cloud Corporation (audio only)", "view_node": "/poem/cloud-corporation-audio-only", "field_author": "<a href=\"/poet/timothy-donnelly\" hreflang=\"und\">Timothy Donnelly</a>", "field_date_published": "2011", "body": " <p>\u00a0</p><p>Click the icon above to listen to this audio poem.</p> "}, {"title": "Passers-by", "view_node": "/poem/passers", "field_author": "<a href=\"/poet/carl-sandburg\" hreflang=\"und\">Carl Sandburg</a>", "field_date_published": "2015", "body": " <p>Passers-by,<br />Out of your many faces<br />Flash memories to me<br />Now at the day end<br />Away from the sidewalks<br />Where your shoe soles traveled<br />And your voices rose and blent<br />To form the city\u2019s afternoon roar<br />Hindering an old silence.</p><p>Passers-by,<br />I remember lean ones among you,<br />Throats in the clutch of a hope,<br />Lips written over with strivings,<br />Mouths that kiss only for love,<br />Records of great wishes slept with,<br />\u00a0 \u00a0 \u00a0 Held long<br />And prayed and toiled for:</p><p>\u00a0 \u00a0 \u00a0 Yes,<br />Written on<br />Your mouths<br />And your throats<br />I read them<br />When you passed by.</p> "}, {"title": "Your Ardor ", "view_node": "/poem/your-ardor", "field_author": "<a href=\"/poet/kathleen-ossip\" hreflang=\"und\">Kathleen Ossip</a>", "field_date_published": "2015", "body": " <p>To dream of your ardor<br />is much joy and much happiness.<br />Your ardor tells me that<br />I am making a mistake<br />by not taking hold of what<br />is offered to me.</p><p>What I mean when I say<br />\u201cyour ardor\u201d is stenciled on<br />the air that surrounds<br />your big face. The force<br />of your ardor pushes strangely.</p><p>All that matters now<br />is your ardor. It solves<br />a most formidable equation.<br />How old is your ardor?<br />I think it was born when<br />it met me.</p><p>You should heed your ardor.<br />It will scoop you out, little melon:</p><p>\u00a0 \u00a0 \u00a0 \u00a0Your ardor as good as its master<br />\u00a0 \u00a0 \u00a0 \u00a0Your ardor tomorrow and your ardor yesterday<br />\u00a0 \u00a0 \u00a0 \u00a0Your ardor in January<br />\u00a0 \u00a0 \u00a0 \u00a0Your ardor dripping sharp as vinegar<br />\u00a0 \u00a0 \u00a0 \u00a0Your ardor dripping pale as ashes<br />\u00a0 \u00a0 \u00a0 \u00a0Your ardor with its quick reply<br />\u00a0 \u00a0 \u00a0 \u00a0Your ardor and your hot hard argument<br />\u00a0 \u00a0 \u00a0 \u00a0Your ardor with a hatchet<br />\u00a0 \u00a0 \u00a0 \u00a0Your ardor<br />\u00a0 \u00a0 \u00a0 \u00a0Your ardor drinking and talking<br />\u00a0 \u00a0 \u00a0 \u00a0Your ardor local and authentic<br />\u00a0 \u00a0 \u00a0 \u00a0Your ardor of lost fame<br />\u00a0 \u00a0 \u00a0 \u00a0Your ardor that hits the button and initiates<br />\u00a0 \u00a0 \u00a0 \u00a0Your ardor stronger than your pride<br />\u00a0 \u00a0 \u00a0 \u00a0Your ardor in squalor<br />\u00a0 \u00a0 \u00a0 \u00a0Your ardor that squeaks<br />\u00a0 \u00a0 \u00a0 \u00a0Your ardor that spends and spends</p><p>Your pen is my lure.<br />Your ardor my wire.</p><p>The night your ardor first beset me I cried<br />\u201cZyer! Oh, zyer!\u201d<br />Who cares what I meant.<br />I don\u2019t retain facts.<br />We hate facts, don\u2019t we, they never did a thing for us.</p><p>Behind the screen of your ardor<br />lies the globe of the Earth<br />above which the eagle can be seen<br />soaring up toward the sun, which<br />has my face. It grins high in the purple sky.<br />On either side stand two allegorical figures,<br />the Way of Virtue and the Way of Vice.</p><p>Your ardor comes on like a pun,<br />making the most of<br />all possible significances.</p><p>Your ardor so close now to my ardor.<br />Our ardors twitch, so sensitive to control.<br />I just want your ardor to have fun in there!<br />What next, what next, oh ardors?</p><p>Here it is.<br />Here\u2019s what we call the <em>Red Spot</em>.</p> "}, {"title": "Never Ever", "view_node": "/poem/never-ever", "field_author": "<a href=\"/poet/brenda-shaughnessy\" hreflang=\"und\">Brenda Shaughnessy</a>", "field_date_published": "2015", "body": " <p>Alarmed, today is a new dawn,<br />and that affair recurs daily like clockwork,</p><p>undone at dusk, when a new restaurant<br />emerges in the malnourished night.</p><p>We said it would be this way, once this became<br />the way it was. So in a way we were</p><p>waiting for it. I still haven\u2019t eaten, says the cook<br />in the kitchen. A compliant complaint.</p><p>I never eat, says the slender diner. It\u2019s slander,<br />and she\u2019s scared, like a bully pushing</p><p>lettuce around. The cook can\u2019t look, blind with hunger<br />and anger. I told a waiter to wait</p><p>for me and I haven\u2019t seen him since. O it has been forty<br />minutes it has been forty years.</p><p>Late is a synonym for dead which is a euphemism<br />for ever. Ever is a double-edged word,</p><p>at once itself and its own opposite: always<br />and always some other time.</p><p>In the category of cleave, then. To cut and to cling to,<br />somewhat mournfully.</p><p>That C won\u2019t let leave alone. Even so, forever\u2019s<br />now\u2019s never, and remember is just</p><p>the future occluded or dreaming. The day has come:<br />a dusty gust of disgusting August,</p><p>functioning as a people-mover. Maybe we\u2019re going<br />nowhere, but wherever I go</p><p>I see us everywhere. On occasions of fancyness,<br />or out to eat. As if people, stark, now-ish</p><p>people themselves were the forever of nothing,<br />the everything of nobody,</p><p>the very same self of us all, after all, at long<br />last the first.<br />\u00a0</p> "}, {"title": "Accomplishments ", "view_node": "/poem/accomplishments", "field_author": "<a href=\"/poet/michael-chitwood\" hreflang=\"und\">Michael Chitwood</a>", "field_date_published": "2014", "body": " <p>What you have not done<br />is without error. What you<br />have not said is beyond contradiction.</p><p>What you understand of God<br />was yesterday. Today a bicycle<br />waits, chained to a bench.</p><p>The success of this afternoon\u2019s nap<br />is the dream of lifting seven boxes,<br />your week, sealed with clear tape.</p><p>They stack, three to a column,<br />with the seventh like a capstone.<br />What you do not know they contain.<br />\u00a0</p> "}, {"title": "I Could Let You Go", "view_node": "/poem/i-could-let-you-go", "field_author": "<a href=\"/poet/thomas-dooley\" hreflang=\"en\">Thomas  Dooley</a>", "field_date_published": "2014", "body": " <p>as if opening a crepe sail<br />on a raft of linden<br />downriver with no<br />glacial cut swerve down<br />soft like bourbon if I could<br />ask the waters then<br />to chop to shake<br />an apology when you cry<br />I feel a wet bank in me<br />ring dry here I\u2019ll wrap you<br />in the piano shawl from the upright<br />to your fists a spray<br />of dandelion and comb my last<br />compassion to grasp.<br />Goodbye, friend. Willows<br />dip to your lips<br />dew from their leafed<br />digits feast now<br />on the cold blue soup<br />of sky the iron from bankwater<br />gilts your blood I\u2019ll break<br />a bottle on your gunwale<br />and read broken<br />poems from the shore<br />as the dark river<br />curls back white from the cheap timber<br />as if letting what\u2019s made to drift<br />drift.</p> "}, {"title": "Poem from the Russian", "view_node": "/poem/poem-russian", "field_author": "<a href=\"/poet/jean-valentine\" hreflang=\"und\">Jean Valentine</a>", "field_date_published": "2014", "body": " <p>In a circle of 12 winter trees<br />I\u2019m hunched<br />Remembering being fled from</p><p>\u2014Who gave me this wool sweater?<br />So it please you life, we won\u2019t go alone\u2014<br />Next year will be better.<br />Remember that white tree?</p><p>The white underpaint of the government.<br />The country of bone.</p><p><em>In memory of Michael Brown</em><br />\u00a0</p> "}, {"title": "Within the Circuit of this Plodding Life", "view_node": "/poem/within-circuit-plodding-life", "field_author": "<a href=\"/poet/henry-david-thoreau\" hreflang=\"und\">Henry David Thoreau</a>", "field_date_published": "2014", "body": " <p>Within the circuit of this plodding life,<br />There enter moments of an azure hue,<br />Untarnished fair as is the violet<br />Or anemone, when the spring strews them<br />By some meandering rivulet, which make<br />The best philosophy untrue that aims<br />But to console man for his grievances.<br />I have remembered when the winter came,<br />High in my chamber in the frosty nights,<br />When in the still light of the cheerful moon,<br />On every twig and rail and jutting spout,<br />The icy spears were adding to their length<br />Against the arrows of the coming sun,<br />How in the shimmering noon of summer past<br />Some unrecorded beam slanted across<br />The upland pastures where the Johnswort grew;<br />Or heard, amid the verdure of my mind,<br />The bee\u2019s long smothered hum, on the blue flag<br />Loitering amidst the mead; or busy rill,<br />Which now through all its course stands still and dumb<br />Its own memorial,\u2014purling at its play<br />Along the slopes, and through the meadows next,<br />Until its youthful sound was hushed at last<br />In the staid current of the lowland stream;<br />Or seen the furrows shine but late upturned,<br />And where the fieldfare followed in the rear,<br />When all the fields around lay bound and hoar<br />Beneath a thick integument of snow.<br />So by God\u2019s cheap economy made rich<br />To go upon my winter\u2019s task again.</p> "}, {"title": "Sylvia Plath Is in Paris with a Balloon on a Long String", "view_node": "/poem/sylvia-plath-paris-balloon-long-string", "field_author": "<a href=\"/poet/amy-newman\" hreflang=\"und\">Amy Newman</a>", "field_date_published": "2014", "body": " <p>its tricolor streamers floating and trailing.<br />It takes up the air like a determined child.<br />Plath was riding her horses of need,<br />and then breaking them, one by one.<br />The horse of loneliness, the horse of panic.<br />The horse of the Sacre Coeur's calcite-and-rainwater white<br />piped on Montmartre like a wedding cake.<br />The horse of the wallpaper powdered with rosebuds.<br />The horse of weeping in the charming vestibule.<br />The horse of the park\u2019s green geometry,<br />of the mushroom\u2019s black underpleats.<br />The horse of the lily-of-the-valley\u2019s chaste bell.<br />The horse of the prickly thin storm about to be,<br />of the cool cottons of the hotel bed<br />and his beautiful body, golden, lean,<br />and the horse of having been so close,<br />and then changing his mind.<br />The horse of her will like a planet, irrefutable,<br />distantly tethered to the bestial earth, and Paris<br />splayed and blazing around them, as if illustrated.</p> "}, {"title": "A Touch", "view_node": "/poem/touch", "field_author": "<a href=\"/poet/rose-mclarney\" hreflang=\"und\">Rose McLarney</a>", "field_date_published": "2014", "body": " <p>We rinse the glasses<br />from which we will drink</p><p>affordable whiskey<br />with scotch or absinthe,</p><p>my love and I, the less than<br />a swallow left of good</p><p>liquor scenting the whole<br />cocktail. What intoxication</p><p>we afford each other<br />cannot be excess or impure.</p><p>*</p><p>A dried-out, overused river<br />runs through, or rather,</p><p>idles in, our small city<br />where we never intended to settle.</p><p>Birds alight on odorous pools stranded<br />between mudflats, a baptism</p><p>in reverse\u2014the body that enters<br />proclaiming the water clean.</p><p>They dip down plumed heads<br />to say this is enough.</p><p>*</p><p>The pigeons, so adaptable, delight<br />in dropped scraps. While we\u2014</p><p>however many lovers late in life<br />\u2014rub the rims of Sazeracs</p><p>with an orange\u2019s remaining peel,<br />arousing a perfume.</p> "}, {"title": "from \u201cDaughter of a Tree Farm\u201d", "view_node": "/poem/daughter-tree-farm", "field_author": "<a href=\"/poet/carrie-olivia-adams\" hreflang=\"en\">Carrie Olivia  Adams</a>", "field_date_published": "2014", "body": " <p>When children can no longer devote sympathy, owing to growing up. One mind always\u00a0<span style=\"line-height: 1.538em;\">engaged or found with labor in order to be. Later on the trees acquired winter.\u00a0Sent and took and did not go out. The weight of never shedding. We anticipated a cure if come\u00a0willingly. We were unable to carry out nature. These impressions, fresh, often made me\u00a0to see his life previous, the principal sadness I had to recognize.</span></p><p>We planted trees. We cleared the pond. Gathered different, undisturbed faith. Gradually\u00a0the steps further and further withdrawing over the hills, beyond the fencerow. I was too<br />weak. I was often driven, but saw no way. I would never go back.</p><p>The difference, between us, not because I remained the same, unable to unalter, but taken\u00a0from the midst, rarely clouded, and the broken. It was this, which woke me open, opened<br />to an outsider, a stranger.</p> "}, {"title": "Archipelagic", "view_node": "/poem/archipelagic", "field_author": "<a href=\"/poet/r-villanueva\" hreflang=\"en\">R. A.  Villanueva</a>", "field_date_published": "2014", "body": " <p>Not vinegar. Not acid. Not<br />sugarcane pressed to mortar by<br />fist, but salt: salt, the home taste; salt,<br />the tide; salt, the blood. Not Holy</p><p>Ghost, but a saint of coral come<br />to life in the night crossing a<br />field of brambles and thorns, the camps<br />of pirates beat back to the bay</p><p>with hornets. Not Santo Ni\u00f1o.<br />And not a belt of storms, but this:<br />girls singing, an avocado<br />in each open palm, courting doves;</p><p>a moth drawn to the light of our<br />room you take to be your father.<br />\u00a0</p> "}], "pager": {"current_page": 386, "total_items": "13248", "total_pages": 663, "items_per_page": 20}}