{"rows": [{"title": "Souvenir from Anywhere (audio only)", "view_node": "/poem/souvenir-anywhere-audio-only", "field_author": "<a href=\"/poet/harryette-mullen\" hreflang=\"und\">Harryette Mullen</a>", "field_date_published": "2001", "body": " <p>\u00a0</p><p>Click the icon above to listen to this audio poem.</p> "}, {"title": "And the Trains Go On (audio only)", "view_node": "/poem/and-trains-go-audio-only", "field_author": "<a href=\"/poet/philip-levine\" hreflang=\"und\">Philip Levine</a>", "field_date_published": "1978", "body": " <p>\u00a0</p><p>Click the icon above to listen to this audio poem.</p> "}, {"title": "In Portraits in Seasons", "view_node": "/poem/portraits-seasons", "field_author": "<a href=\"/poet/danielle-pafunda\" hreflang=\"und\">Danielle Pafunda</a>", "field_date_published": "2013", "body": " <p>As a feral thing would. As a dead leaf<br />whose crunch she herself hears, whose<br /><br />buggy interior floods the sidewalk. <i>Beamy<br />the world, yet a blank all the same.</i><br /><br />Where you\u2019ve tucked your pen into your notes,<br />I tuck my fingernail, burned and cursed and<br /><br />shut tight my eyes. I tuck my feet up like a girl.<br />In this corner, warm milk fall of light something<br /><br />far from revealing its bone-blank eyes, that is,<br />the eyes downcast in every portrait, shaded<br /><br />the ribbon a bright blue furl across the gaze,<br />the peculiar mother, her arm around a naked toddler<br /><br />the fall of light. Betrays nothing. The book in<br />hand, betrays. As a feral thing would,<br /><br />I shred its binding and burn through it for warmth.</p> "}, {"title": "Muffin of Sunsets", "view_node": "/poem/muffin-sunsets", "field_author": "<a href=\"/poet/elaine-equi\" hreflang=\"und\">Elaine Equi</a>", "field_date_published": "2013", "body": " <p>The sky is melting. Me too.<br />Who hasn\u2019t seen it this way?<br /><br />Pink between the castlework<br />of buildings.<br /><br />Pensive syrup<br />drizzled over clouds.<br /><br />It is almost catastrophic how heavenly.<br /><br />A million poets, at least,<br />have stood in this very spot,<br />groceries in hand, wondering:<br /><br />\"Can I witness the Rapture<br />and still make it home in time for dinner?\"</p> "}, {"title": "Song", "view_node": "/poem/song-3", "field_author": "<a href=\"/poet/james-joyce\" hreflang=\"und\">James Joyce</a>", "field_date_published": "1907", "body": " <p>My love is in a light attire<br />\u00a0\u00a0\u00a0\u00a0\u00a0Among the apple trees,<br />Where the gay winds do most desire<br />\u00a0\u00a0\u00a0\u00a0\u00a0To run in companies.<br /><br />There, where the gay winds stay to woo<br />\u00a0\u00a0\u00a0\u00a0\u00a0The young leaves as they pass,<br />My love goes slowly, bending to<br />\u00a0\u00a0\u00a0\u00a0\u00a0Her shadow on the grass.<br /><br />And where the sky\u2019s a pale blue cup<br />\u00a0\u00a0\u00a0\u00a0\u00a0Over the laughing land,<br />My love goes lightly, holding up<br />\u00a0\u00a0\u00a0\u00a0\u00a0Her dress with dainty hand.</p> "}, {"title": "Indian Stream Republic", "view_node": "/poem/indian-stream-republic", "field_author": "<a href=\"/poet/stephanie-burt\" hreflang=\"und\">Stephanie Burt</a>", "field_date_published": "2013", "body": " <p>No one should be this alone\u2014<br />none of the pines<br />in their prepotent verticals,<br /><br />none of the unseen<br />hunters or blundering moose<br />who might stop by the empty lodge or the lake<br /><br />as blue as if there had never been people<br />although there are people: a few<br />at the general store, and evidence of more<br /><br />in clean vinyl siding, and down the extended street<br />a ruddy steel pole the height of a child, its plaque<br />remembering a place called <i>Liberty<br /><br />at Indian Stream</i>, 1832-35,<br />between the disputed boundaries<br />of Canada and New Hampshire, meant<br /><br />as temporary, almost<br />content to remain its own.<br />Each household, their constitution said, could possess<br /><br />one cow, one hog, one gun,<br />books, bedding and hay, seven sheep and their wool, secure<br />from attachment for debt no matter the cause.<br /><br />The state militia came to set them right.<br />The legerdemain of the noon sun through needles and leaves,<br />revealing almost nothing, falls across<br /><br />thin shadows, thin trace of American wheels and hands<br />for such high soil and such short reward:<br /><i>the people... do hereby mutually agree<br /><br />to form themselves into a body politic<br />by the name of Indian Stream, and in that capacity<br />to exercise all the powers of a sovereign<br /><br />till such time as we can ascertain to what<br />government we properly belong.</i></p> "}, {"title": "sugar is smoking", "view_node": "/poem/sugar-smoking", "field_author": "<a href=\"/poet/jason-schneiderman\" hreflang=\"und\">Jason Schneiderman</a>", "field_date_published": "2013", "body": " <p>it\u2019s amazing how death<br />is always around the corner,<br />or not even so far away<br />as that, hiding in the little pleasures<br />that some of us would go<br />so far as to say<br />are the only things<br />keeping us alive</p> "}, {"title": "L&#039;Avenir est Quelque Chose", "view_node": "/poem/lavenir-est-quelque-chose", "field_author": "<a href=\"/poet/dobby-gibson\" hreflang=\"und\">Dobby Gibson</a>", "field_date_published": "2013", "body": " <p>All day for too long<br />everything I\u2019ve thought to say<br />has been about umbrellas,<br />how I can\u2019t remember how<br />I came to possess whatever weird one<br />I find in my hand, like now,<br />how they hang there on brass hooks<br />in the closet like failed actors,<br />each one tiny or too huge,<br />like ideas, always needing<br />to be shaken off and folded up<br />before we can properly forget them on the train.<br />Most of my predictions are honestly<br />just hopes: a sudden sundress in March,<br />regime change in the North, the one where Amanda<br />wins the big book award from the baby boomers.<br />There\u2019s that green and white umbrella<br />the cereal company interns handed us<br />outside the doomed ball game,<br />the one just for sun,<br />the one with the wooden handle<br />as crooked as the future<br />that terrifies me whenever one of us uses it<br />as a stand-in for a dance partner.<br />You once opened it in the living room<br />so Scarlett could have a picnic<br />beneath something that felt to her like a tent<br />as it felt to me like my prediction<br />we would live forever was already true.<br />When I want to try to understand now<br />I tend to look up and how<br />truth be untold, I might see nothing<br />more than a few thousand pinholes in black nylon,<br />it\u2019s enough to get you to Greece and back,<br />or something to kiss beneath,<br />who knows how this is going to play out?<br />I know you won\u2019t ever be able to say<br />exactly what you\u2019re feeling either,<br />the way worry might pop open overhead<br />like fireworks oozing pure midnight \u2014<br />will we ever see the sun? \u2014<br />the way we\u2019re sure to pull closer<br />to whatever\u2019s between us, the rain playing<br />the drum that\u2019s suddenly us.</p> "}, {"title": "After Skate", "view_node": "/poem/after-skate", "field_author": "<a href=\"/poet/carol-muske-dukes\" hreflang=\"und\">Carol Muske-Dukes</a>", "field_date_published": "2013", "body": " <p>He glides in on his single wing, after the signs go up. After<br />the truck leaves with the bunkbeds, grill, broken hall mirror.<br />After Scout is dropped off at the shelter. After the last look,<br /><br />on the dying lawn. In the backyard, where the empty pool<br />stands open; he pops an ollie over the cracked patterns of tile:<br />tidal waves in neat squares. He kneels, checking angle against<br /><br />depth. He lifts off where the board once leapt and leapt: cannon-<br />balls, swans: endless summer. He hurtles downward, kickturning,<br />sparks grinding hard on gunnite. Round the bend: the kidney,<br /><br />the heart. The stone path where once glowed tiki torches at<br />the kingdom\u2019s ukelele gate. He rockets out of the dead lots each<br />day, past swingsets and shut-off sprinklers, his board struck up<br /><br />from whirlwind. Nobody\u2019s home to the ownerless: he turns<br />inside their names, never minds ghosts, nothing in his wake.</p> "}, {"title": "Field", "view_node": "/poem/field", "field_author": "<a href=\"/poet/erin-belieu\" hreflang=\"und\">Erin Belieu</a>", "field_date_published": "2013", "body": " <p>Field is pause\u00a0\u00a0\u00a0field is plot\u00a0\u00a0\u00a0field is red chigger bump where<br /><br />the larvae feed\u00a0\u00a0\u00a0corn wig curled in your ear. Field cares not<br /><br />a fig for your resistance\u00a0\u00a0\u00a0though kindly\u00a0\u00a0\u00a0gently\u00a0\u00a0\u00a0<i>lay your<br /><br />head down\u00a0\u00a0\u00a0girl\u00a0\u00a0\u00a0lay it down.</i>\u00a0\u00a0\u00a0When ready\u00a0\u00a0\u00a0storm\u00a0\u00a0\u00a0when<br /><br />summer\u00a0\u00a0\u00a0kilned smoothly as a cake. Awake! Awake and<br /><br />wide is field. And viral. Biotic. Field of patience\u00a0\u00a0\u00a0of percolation<br /><br />and policy. Your human energy. Come again? What for? In<br /><br />field\u00a0\u00a0\u00a0there is no time at all\u00a0\u00a0\u00a0no use\u00a0\u00a0\u00a0a relief\u00a0\u00a0\u00a0the effort done<br /><br />which is\u00a0\u00a0\u00a0thank you\u00a0\u00a0\u00a0finally\u00a0\u00a0\u00a0the very lack of you.\u00a0\u00a0\u00a0<i>Lay your<br /><br />head down\u00a0\u00a0\u00a0girl\u00a0\u00a0\u00a0lay it down.</i>\u00a0\u00a0\u00a0In field\u00a0\u00a0\u00a0which has waited since<br /><br />you first ascended to the raw end of your squared off world and<br /><br />gazed upon your subjects:\u00a0\u00a0\u00a0congery of rat snake\u00a0\u00a0\u00a0corn snake<br /><br />of all the low ribbons bandaging the stalks. Progress in field<br /><br />foot sliding in matter\u00a0\u00a0\u00a0slick chaff in fall.\u00a0\u00a0\u00a0And always\u00a0\u00a0\u00a0field\u2019s oboe<br /><br />this sawing\u00a0\u00a0\u00a0a wind\u00a0\u00a0\u00a0that is drawing its nocturne through the 23rd<br /><br />mansion of the moon. Field\u00a0\u00a0\u00a0is Requiel\u2019s music and the Wild Hunt<br /><br />of offer. In field\u00a0\u00a0\u00a0they are waiting\u00a0\u00a0\u00a0you are sounding. Go home.<br />\u00a0</p> "}, {"title": "The Best Thing Anyone Ever Said About Paul Celan", "view_node": "/poem/best-thing-anyone-ever-said-about-paul-celan", "field_author": "<a href=\"/poet/shane-mccrae\" hreflang=\"und\">Shane McCrae</a>", "field_date_published": "2013", "body": " <p>Today you will the\u00a0\u00a0\u00a0\u00a0\u00a0say the any ever<br /><br />best thing any ever anyone<br /><br />Said about Paul Celan<br /><br />The world is if it isn\u2019t\u00a0\u00a0\u00a0\u00a0\u00a0does it matter isn\u2019t<br /><br /><br /><br />waiting\u00a0\u00a0\u00a0\u00a0\u00a0or it might be might as well<br /><br />Be if it knew\u00a0\u00a0\u00a0\u00a0\u00a0and some<br /><br />People for some\u00a0\u00a0\u00a0\u00a0\u00a0people the wait is mostly it\u2019s<br /><br />a world in which the fact of Paul Celan<br /><br /><br /><br />was and is always will have been and be<br /><br />A fact and necessary\u00a0\u00a0\u00a0\u00a0\u00a0living in such a world<br /><br />is the far greater agony the wait is no<br /><br />agony\u00a0\u00a0\u00a0\u00a0\u00a0not compared to living in that world it is<br /><br /><br /><br />Absurd to say he wouldn\u2019t Paul Celan would recognize it still<br /><br />No person ever is naive<br /><br />but populations are naive and always will be<br /><br />even innocent<br /><br /><br /><br />is the far greater agony<br /><br />It is\u00a0\u00a0\u00a0\u00a0\u00a0/ More like a toothache<br /><br />the pain of the wait for some<br /><br />More like a pain in the hole from which<br /><br /><br /><br />You even now prepare yourself to speak</p> "}, {"title": "Blue Hanuman", "view_node": "/poem/blue-hanuman", "field_author": "<a href=\"/poet/joan-larkin\" hreflang=\"und\">Joan Larkin</a>", "field_date_published": "2013", "body": " <p>A four-armed flutist took me<br />to the blue avatar: stone-blue<br />monkey, whiskers silver,<br />broken beads silver\u2013<br />paint dashed by the artist on cheap paper.<br />Bought for a few annas, God<br />kneels, looks left. Intense concentration.<br />His ink hands rip open his chest,<br />pull skin aside like a velvet curtain\u2013<br />Rama and Sita alive<br />at his core. And what devotion shall<br />my flesh show, and my broken-open breast.<br />His blueblack tail flicks upward, its dark<br />tip a paintbrush loaded blue.</p> "}, {"title": "Not", "view_node": "/poem/not", "field_author": "<a href=\"/poet/sophie-cabot-black\" hreflang=\"und\">Sophie Cabot Black</a>", "field_date_published": "2013", "body": " <p>that you are unloved<br />but that you love<br />and must decide which<br /><br />to remember; tracks left<br />in the field, a language<br />of going away or coming back\u2014<br /><br />and to look up<br />from the single mind,<br />to let untangle<br /><br />the far-off snow<br />from sky<br />until no longer<br /><br />held as proof<br />is also where birds<br />find agreement<br /><br />strung along branches<br />each with their own song<br />for the other,<br /><br />every note used<br />to sing anyway\u2014<br />how to hold the already<br /><br />as the not yet</p> "}, {"title": "No Ticket", "view_node": "/poem/no-ticket", "field_author": "<a href=\"/poet/jonathan-wells\" hreflang=\"und\">Jonathan Wells</a>", "field_date_published": "2013", "body": " <p>His clothes were filled with tickets to past events<br />so he could hear the orchestra tuning up again<br />and the airplane landing near the diving cliffs<br /><br />in Acapulco where the boys leapt into the known<br />unknown in Speedo suits. All travel was continuous.<br />Time was ceaseless in his pockets. The piano recital<br /><br />played forever in its aftermath, its tides of notes<br />surging and retreating according to a lunar mood<br />for which the children had no table. The matinee<br /><br />was screened over and over in the balcony of<br />his thought, specifically the part where the hero<br />realized he\u2019d been pursuing her and was being<br /><br />pursued in turn as they reached the precipice<br />of no regret. And then the fiery night called out<br />to them and said no ticket would be needed.</p> "}, {"title": "Time", "view_node": "/poem/time-0", "field_author": "<a href=\"/poet/chris-martin\" hreflang=\"und\">Chris Martin</a>", "field_date_published": "2013", "body": " <p>All that happens happens<br /><br />in the hollow<br /><br />mouth<br /><br />open mid-vow<br /><br />knowing<br /><br />only song will do<br /><br />what an empty cave needs<br /><br />done, drone<br /><br />that seeds to fill<br /><br />one space and then that<br /><br />space\u2019s space, what<br /><br />are we made<br /><br />of if<br /><br />not chants.<br /><br />Sun slumping up<br /><br />the stucco, cat chewing<br /><br />her tail clean, nimbi<br /><br />darkening the fallen<br /><br />leaves leatherlike, I make<br /><br />voice, voice, voice, voices<br /><br />like a fist<br /><br />on thinking\u2019s door<br /><br />a fistula<br /><br />wrapping abstraction<br /><br />and binding it to what, morning<br /><br />sickness, the lathed light<br /><br />now flying through branches<br /><br />made sinister<br /><br />by season, a crook<br /><br />in the amygdala\u2019s grey<br /><br />ministry and all<br /><br />I see is a circling murder<br /><br />above the antenna<br /><br />that replaced the weathervane.<br /><br />All I see is one<br /><br />millionth<br /><br />percent of the earth<br /><br />at once. Chance.<br /><br />I give you the fingers<br /><br />of my hand<br /><br />like I was giving you broken<br /><br />beige rulers.<br />\u00a0</p> "}, {"title": "Remorse", "view_node": "/poem/remorse", "field_author": "<a href=\"/poet/carl-sandburg\" hreflang=\"und\">Carl Sandburg</a>", "field_date_published": "1922", "body": " <p>The horse's name was Remorse.<br />There were people said, \"Gee, what a nag!\"<br />And they were Edgar Allan Poe bugs and so<br />They called him Remorse.<br />\u00a0\u00a0\u00a0\u00a0\u00a0\u00a0\u00a0\u00a0\u00a0\u00a0\u00a0\u00a0\u00a0\u00a0\u00a0\u00a0\u00a0\u00a0\u00a0\u00a0\u00a0\u00a0\u00a0\u00a0\u00a0\u00a0\u00a0\u00a0\u00a0\u00a0\u00a0\u00a0\u00a0\u00a0\u00a0\u00a0When he was a gelding<br />He flashed his heels to other ponies<br />And threw dust in the noses of other ponies<br />And won his first race and his second<br />And another and another and hardly ever<br />Came under the wire behind the other runners.<br /><br />And so, Remorse, who is gone, was the hero of a play<br />By Henry Blossom, who is now gone.<br />What is there to a monicker? Call me anything.<br />A nut, a cheese, something that the cat brought in. Nick me with any old name.<br />Class me up for a fish, a gorilla, a slant head, an egg, a ham.<br />Only ... slam me across the ears sometimes ... and hunt for a white star<br />In my forehead and twist the bang of my forelock around it.<br />Make a wish for me. Maybe I will light out like a streak of wind.</p> "}, {"title": "The Paltry Nude Starts on a Spring Voyage", "view_node": "/poem/paltry-nude-starts-spring-voyage", "field_author": "<a href=\"/poet/wallace-stevens\" hreflang=\"und\">Wallace Stevens</a>", "field_date_published": "1919", "body": " <p>But not on a shell, she starts,<br />Archaic, for the sea.<br />But on the first-found weed<br />She scuds the glitters,<br />Noiselessly, like one more wave.<br /><br />She too is discontent<br />And would have purple stuff upon her arms,<br />Tired of the salty harbors,<br />Eager for the brine and bellowing<br />Of the high interiors of the sea.<br /><br />The wind speeds her on,<br />Blowing upon her hands<br />And watery back.<br />She touches the clouds, where she goes,<br />In the circle of her traverse of the sea.<br /><br />Yet this is meagre play<br />In the scrurry and water-shine,<br />As her heels foam\u2014<br />Not as when the goldener nude<br />Of a later day<br /><br />Will go, like the centre of sea-green pomp,<br />In an intenser calm,<br />Scullion of fate,<br />Across the spick torrent, ceaselessly,<br />Upon her irretrievable way.</p> "}, {"title": "Spring Song", "view_node": "/poem/spring-song", "field_author": "<a href=\"/poet/sherwood-anderson\" hreflang=\"und\">Sherwood Anderson</a>", "field_date_published": "1918", "body": " <p>In the forest, amid old trees and wet dead leaves, a shrine.<br />Men on the wet leaves kneeling.<br />The spirit of God in the air above a shrine.<br /><br />Now, America, you press your lips to mine,<br />Feel on your lips the throbbing of my blood.<br />Christ, come to life and life calling,<br />Sweet and strong.<br /><br />Spring. God in the air above old fields.<br />Farmers marking fields for the planting of the corn.<br />Fields marked for corn to stand in long straight aisles.<br /><br />In the spring I press your body down on wet cold new-plowed ground.<br />Men, give your souls to me.<br />I would have my sacred way with you.<br /><br />In the forest, amid old trees and wet dead leaves, a shrine.<br />Men rising from the kneeling place to sing.<br />Everywhere in the fields now the orderly planting of corn.</p> "}, {"title": "&quot;I&#039;m afraid of death&quot;", "view_node": "/poem/im-afraid-death", "field_author": "<a href=\"/poet/kathleen-ossip\" hreflang=\"und\">Kathleen Ossip</a>", "field_date_published": "2013", "body": " <p>I\u2019m afraid of death<br />because it inflates<br />the definition<br />of what a person<br />is, or love, until<br />they become the same,<br />love, the beloved,<br />immaterial.<br /><br />I\u2019m afraid of death<br />because it invents<br />a different kind of<br />time, a stopped clock<br />that can\u2019t be reset,<br />only repurchased,<br />an antiquity.<br /><br />I\u2019m afraid of death,<br />the magician who<br />makes vanish and who<br />makes odd things appear<br />in odd places\u2014your<br />name engraves itself<br />on a stranger\u2019s chest<br />in letters of char.</p> "}, {"title": "Mimosa", "view_node": "/poem/mimosa", "field_author": "<a href=\"/poet/mary-ruefle\" hreflang=\"und\">Mary Ruefle</a>", "field_date_published": "2013", "body": " <p><i>for James Schuyler</i><br /><br />Pink dandruff of some tree<br />afloat on the swimming pool.<br />What\u2019s that bird?<br />I\u2019m not from around here.<br />My mail will probably be forwarded<br />as quietly as this pink fluff<br />or a question or morphine<br />or impatience or a mistake<br />or the infinite method<br />established by experience<br />but never in this world.<br />I\u2019ve always wanted to use<br /><i>malarkey</i> and <i>henna</i> in a poem<br />and now I have.<br />Oh Jimmy, all you ever wanted<br />was to see the new century<br />but no such luck.<br />You never saw a century plant<br />either, or you would have<br />taken another drink.<br />They grow for one hundred years,<br />bloom in their centenary spring<br />then die forevermore.<br />The stalk is ten feet tall<br />(you\u2019d be jealous) rising<br />out of a clump of cactus leaves<br />(think yucca) then busting into<br />creamy ovoids flaming<br />on the candelabrum.<br />I was in an air-conditioned car<br />when I saw it but still felt<br />the heat of its beauty,<br />I wanted to stop and talk to it<br />but we sped on, so tonight<br />I\u2019ll xanax myself to sleep<br />with the sweet thought that<br />today and every day is a<br />century plant of its own<br />seeded awful long beginning<br />blooming in drive-by yelps<br />of love and helplessness<br />and you saw plenty of them,<br />spectacular and sad as<br />a head of hennaed hair,<br />a lot of malarkey<br />if you ask anybody<br />other than us.</p> "}], "pager": {"current_page": 424, "total_items": "13248", "total_pages": 663, "items_per_page": 20}}