{"rows": [{"title": "To My Oldest Friend, Whose Silence Is Like a Death", "view_node": "/poem/my-oldest-friend-whose-silence-death", "field_author": "<a href=\"/poet/lloyd-schwartz\" hreflang=\"und\">Lloyd Schwartz</a>", "field_date_published": "2014", "body": " <pre>\nIn today\u2019s paper, a story about our high school drama\nteacher evicted from his Carnegie Hall rooftop apartment \n\nmade me ache to call you\u2014the only person I know \nwho\u2019d still remember his talent, his good looks, his self-\n\nabsorption. We\u2019d laugh (at what haven\u2019t we laughed?), then \nnot laugh, wondering what became of him. But I can\u2019t call, \n\nbecause I don\u2019t know what became of you.\n\n\u2014After sixty years, with no explanation, you\u2019re suddenly\nnot there. Gone. Phone disconnected. I was afraid\n\nyou might be dead. But you\u2019re not dead. \n\nYou\u2019ve left, your landlord says. He has your new unlisted \nnumber but insists on \u201crespecting your privacy.\u201d I located \n\nyour oldest son, who refuses to tell me anything except that \nyou\u2019re alive and not ill. Your ex-wife ignores my letters.\n\nWhat\u2019s happened? Are you in trouble? Something \nyou\u2019ve done? Something <i>I\u2019ve</i> done? \n\nWe used to tell each other everything: our automatic \nreference points to childhood pranks, secret codes, \n\nand sexual experiments. How many decades since we started \nsinging each other \u201cHappy Birthday\u201d every birthday? \n\n(Your last uninhibited rendition is still on my voice mail.)\n\nHow often have we exchanged our mutual gratitude\u2014the easy\nunthinking kindnesses of long friendship. \n\nThis mysterious silence isn\u2019t kind. It keeps me \nup at night, bewildered, at some \u201cstage \u201cof grief. \n\nWould your actual death be easier to bear? \n\nI crave your laugh, your quirky takes, your latest\ncomedy of errors. \u201cWhen one\u2019s friends hate each other,\u201d\n\nPound wrote near the end of his life, \u201chow can there be\npeace in the world?\u201d We loved each other. Why why why \n\nam I dead to you? \n\nOur birthdays are looming. The older I get, the less and less \nI understand this world, \n\nand the people in it. </pre>\n "}, {"title": "Costumes Exchanging Glances", "view_node": "/poem/costumes-exchanging-glances", "field_author": "<a href=\"/poet/mary-jo-bang\" hreflang=\"und\">Mary Jo Bang</a>", "field_date_published": "2014", "body": " <pre>\n             The rhinestone lights blink off and on.\nPretend stars. \nI\u2019m sick of explanations. A life is like Russell said \nof electricity, not a thing but the way things behave. \nA science of motion toward some flat surface, \nsome heat, some cold. Some light\ncan leave some after-image but it doesn\u2019t last. \nIsn\u2019t that what they say? That and that\nhistorical events exchange glances with nothingness. </pre>\n "}, {"title": "In the Happo-En Garden, Tokyo", "view_node": "/poem/happo-en-garden-tokyo", "field_author": "<a href=\"/poet/linda-pastan\" hreflang=\"und\">Linda Pastan</a>", "field_date_published": "2014", "body": " <pre>\nThe way a birthmark  \non a woman\u2019s face defines \nrather than mars\nher beauty, \n\nso the skyscrapers\u2014\nthose flowers of technology\u2014 \nreveal the perfection \nof the garden they surround.        \n\nPerhaps Eden is buried \nhere in Japan,\nwhere an incandescent \nkoi slithers snakelike \n\nto the edge of the  pond; \nwhere a black-haired\nEve-san in the petalled\nfolds of a kimono \n\nonce showed her silken body\nto the sun, then picked a persimmon\nand with a small bow\nbit into it.\n</pre>\n "}, {"title": "Postcards", "view_node": "/poem/postcards", "field_author": "<a href=\"/poet/e-ethelbert-miller\" hreflang=\"und\">E. Ethelbert Miller</a>", "field_date_published": "2014", "body": " <pre>\nWhen was the last time you mailed a postcard?\n\nMy mother kept the ones I sent her. My sister mailed them back\n\nto me after my mother died. I had forgotten I had written\n\nso many small notes to my mother. The price of stamps\n\nkept changing. I was always mentioning on the back of cards\n\nI was having a good time. I can remember the first time\n\nI lied to my mother. It was something small maybe the size\n\nof a postcard. I went somewhere I was not supposed to go.\n\nI told my mother I was at the library but I was with Judy\n\nthat afternoon. Her small hand inside my hand. \n\nI was beginning to feel something I knew I would never write\n\nhome about.\n</pre>\n "}, {"title": "On Arranging a Bowl of Violets", "view_node": "/poem/arranging-bowl-violets", "field_author": "<a href=\"/poet/grace-hazard-conkling\" hreflang=\"en\">Grace Hazard Conkling</a>", "field_date_published": "1907", "body": " <pre>\nI dip my hands in April among your faces tender,\nO woven of blue air and ecstasies of light! \nBreathed words of the Earth-Mother, although it is November, \nYou wing my soul with memories adorable and white. \n\n                               I hear you call each other: \n\"Ah, Sweet, do you remember \nThe garden that we haunted\u2014its spaces of delight?\nThe sound of running water\u2014the day's long lapse of splendor, \nThe winds that begged our fragrance and loved us in the night?\"</pre>\n "}, {"title": "At the Touch of You", "view_node": "/poem/touch-you", "field_author": "<a href=\"/poet/witter-bynner\" hreflang=\"und\">Witter Bynner</a>", "field_date_published": "2014", "body": " <pre>\n \nAt the touch of you,\t\nAs if you were an archer with your swift hand at the bow,\t\nThe arrows of delight shot through my body.\t\n \nYou were spring,\t\nAnd I the edge of a cliff,\nAnd a shining waterfall rushed over me. </pre>\n "}, {"title": "Song for Future Books", "view_node": "/poem/song-future-books", "field_author": "<a href=\"/poet/joanna-fuhrman\" hreflang=\"und\">Joanna Fuhrman</a>", "field_date_published": "2014", "body": " <pre>\nThe book is made of glass and I look \nthrough it and see more books. \n\nMany glass books.\n\nIs someone speaking?\n\n\u00a0\u00a0\u00a0\u00a0\u00a0A muffled voice is telling me \nto make soup which I think \nmeans I am loved. \n\nWhat other kind of cup \nfills itself? \n\nCan there be a cup of cup?\n\nA cup of itself?\n\nOutside a black squirrel has wiggled \nto the end \nof a very skinny branch. \n\nWhen the squirrel breathes\nthe whole tree shakes,\n\nas if the squirrel were the soul\nof the tree.\n\nHave you ever felt like \nsuch a tree?\n\nNot sayin\u2019 \nI have.\n</pre>\n "}, {"title": "On the Gallows Once", "view_node": "/poem/gallows-once", "field_author": "<a href=\"/poet/kofi-awoonor\" hreflang=\"en\">Kofi Awoonor</a>", "field_date_published": "2014", "body": "<p><span class=\"long-line\">I crossed quite a few</span><br /><span class=\"long-line\">of your rivers, my gods,</span><br /><span class=\"long-line\">into this plain where thirst reigns</span><br /><span class=\"long-line\">I heard the cry of mourners</span><br /><span class=\"long-line\">the long cooing of the African wren at dusk</span><br /><span class=\"long-line\">the laughter of the children at dawn</span><br /><span class=\"long-line\">had long ceased</span></p>\n\n<p><span class=\"long-line\">night comes fast in our land</span></p>\n\n<p><span class=\"long-line\">where indeed are the promised vistas</span><br /><span class=\"long-line\">the open fields, blue skies, the singing birds</span><br /><span class=\"long-line\">and abiding love?</span></p>\n\n<p><span class=\"long-line\">History records acts</span><br /><span class=\"long-line\">of heroism, barbarism</span><br /><span class=\"long-line\">of some who had power</span><br /><span class=\"long-line\">and abused it massively</span><br /><span class=\"long-line\">of some whose progenitors</span><br /><span class=\"long-line\">planned for them</span><br /><span class=\"long-line\">the secure state of madness</span><br /><span class=\"long-line\">from which no storm can shake them;</span><br /><span class=\"long-line\">of some who took the last ships</span><br /><span class=\"long-line\">disembarked on some far-off shores and forgot</span><br /><span class=\"long-line\">of some who simply laid down the load</span><br /><span class=\"long-line\">and went home to the ancestors</span></p>\n"}, {"title": "Holding Pattern", "view_node": "/poem/holding-pattern", "field_author": "<a href=\"/poet/timothy-liu\" hreflang=\"und\">Timothy Liu</a>", "field_date_published": "2014", "body": " <pre>&#13;\nIntermittent wet under&#13;\ncloud cover, dry&#13;\nwhere you are. All day&#13;\nthis rain without&#13;\n&#13;\nyou\u2014so many planes&#13;\nabove the cloud line&#13;\ncarrying strangers&#13;\neither closer or&#13;\n&#13;\nfarther away from&#13;\none another while&#13;\nyou and I remain&#13;\ngrounded. Are we&#13;\n&#13;\nmoving anyway&#13;\ntowards something&#13;\nfiner than what the day&#13;\nmight bring or is this&#13;\n&#13;\nan illusion, a stay &#13;\nagainst everything&#13;\nunforeseen\u2014tiny bottles&#13;\nclinking as the carts&#13;\n&#13;\nmake their way down&#13;\nthe narrow aisle&#13;\nno matter what&#13;\nclass we find ourselves&#13;\n&#13;\nseated in, your voice&#13;\nthe captain's voice&#13;\neven if the masks&#13;\ndo not inflate&#13;\n&#13;\nand there's no one&#13;\nhere to help me&#13;\nput mine on first\u2014&#13;\nmy head cradled&#13;\n&#13;\nbetween your knees.&#13;\n</pre>&#13;\n "}, {"title": "Mozart", "view_node": "/poem/mozart", "field_author": "<a href=\"/poet/caroline-knox\" hreflang=\"und\">Caroline Knox</a>", "field_date_published": "2014", "body": " <pre>\nCan you imagine\nwhat is true, that \nsmack in the middle\nof making <i>The Magic\nFlute</i> he interrupted\nhimself to make\n<i>\u201cAve Verum Corpus,\u201d</i>\nworld\u2019s most truth-telling\nmotet (Who made its\ntext?  Maybe a pope),\nthen got himself on\ntrack, back to <i>TMF</i>\n(all the while dealing\nwith money worry and\nsickness of wife).  When \nyou get to the <i>esto nobis</i>\ncadence in <i>\u201cAVC,\u201d</i>  you\nscale the spine of the\nEuropean Enlightenment;\nwhen you get to the\nidiotic \u201cThree Faithful \nYouths\u201d chorus in <i>TMF:</i>\n\n\t\u201cThree faithful youths we now will lend you\n\tUpon your journey they\u2019ll attend you;\n\tThough young in years, these youths so fair\n\tHeed the words of wisdom rare!\u201d\n\nyou\u2019re dealing with \nBertie Wooster\u2019s\nthree best friends.\nBecause he was Mozart,\nnot a problem.\n</pre>\n "}, {"title": "The Owl", "view_node": "/poem/owl", "field_author": "<a href=\"/poet/arthur-sze\" hreflang=\"und\">Arthur Sze</a>", "field_date_published": "1998", "body": " <div>The path was purple in the dusk.</div><div>I saw an owl, perched,</div><div>on a branch.</div><div>\u00a0</div><div>And when the owl stirred, a fine dust</div><div>fell from its wings. I was</div><div>silent then. And felt</div><div>\u00a0</div><div>the owl quaver. And at dawn, waking,</div><div>the path was green in the\u00a0</div><div>May light.\u00a0</div> "}, {"title": "Here", "view_node": "/poem/here-0", "field_author": "<a href=\"/poet/arthur-sze\" hreflang=\"und\">Arthur Sze</a>", "field_date_published": "1998", "body": " <div>Here a snail on a wet leaf shivers and dreams of spring.</div><div>Here a green iris in December.</div><div>Here the topaz light of the sky.</div><div>Here one stops hearing a twig break and listens for deer.</div><div>Here the art of the ventriloquist.</div><div>Here the obsession of a kleptomaniac to steal red pushpins.</div><div>Here the art of the alibi.</div><div>Here one walks into an abandoned farmhouse and hears a\u00a0</div><div>\u00a0 \u00a0 \u00a0tarantella.</div><div>Here one dreamed a bear claw and died.</div><div>Here a humpback whale leaped out of the ocean.</div><div>Here the outboard motor stopped but a man made it to this\u00a0</div><div>\u00a0 \u00a0 \u00a0island with one oar.</div><div>Here the actor forgot his lines and wept.</div><div>Here the art of prayer.</div><div>Here marbles, buttons, thimbles, dice, pins, stamps, beads.</div><div>Here one becomes terrified.</div><div>Here one wants to see as a god sees and becomes clear amber.</div><div>Here one is clear pine.\u00a0</div> "}, {"title": "Valentine for Ernest Mann", "view_node": "/poem/valentine-ernest-mann", "field_author": "<a href=\"/poet/naomi-shihab-nye\" hreflang=\"und\">Naomi Shihab Nye</a>", "field_date_published": "1994", "body": "<p><span class=\"long-line\">You can\u2019t order a poem like you order a taco.</span><br /><span class=\"long-line\">Walk up to the counter, say, \u201cI\u2019ll take two\u201d</span><br /><span class=\"long-line\">and expect it to be handed back to you</span><br /><span class=\"long-line\">on a shiny plate.</span></p>\n\n<p><span class=\"long-line\">Still, I like your spirit.</span><br /><span class=\"long-line\">Anyone who says, \u201cHere\u2019s my address,</span><br /><span class=\"long-line\">write me a poem,\u201d deserves something in reply.</span><br /><span class=\"long-line\">So I\u2019ll tell a secret instead:</span><br /><span class=\"long-line\">poems hide. In the bottoms of our shoes,</span><br /><span class=\"long-line\">they are sleeping. They are the shadows</span><br /><span class=\"long-line\">drifting across our ceilings the moment\u00a0</span><br /><span class=\"long-line\">before we wake up. What we have to do</span><br /><span class=\"long-line\">is live in a way that lets us find them.</span></p>\n\n<p><span class=\"long-line\">Once I knew a man who gave his wife</span><br /><span class=\"long-line\">two skunks for a valentine.</span><br /><span class=\"long-line\">He couldn\u2019t understand why she was crying.</span><br /><span class=\"long-line\">\u201cI thought they had such beautiful eyes.\u201d</span><br /><span class=\"long-line\">And he was serious. He was a serious man</span><br /><span class=\"long-line\">who lived in a serious way. Nothing was ugly</span><br /><span class=\"long-line\">just because the world said so. He really</span><br /><span class=\"long-line\">liked those skunks. So, he re-invented them</span><br /><span class=\"long-line\">as valentines and they became beautiful.</span><br /><span class=\"long-line\">At least, to him. And the poems that had been hiding</span><br /><span class=\"long-line\">in the eyes of skunks for centuries\u00a0</span><br /><span class=\"long-line\">crawled out and curled up at his feet.</span></p>\n\n<p><span class=\"long-line\">Maybe if we re-invent whatever our lives give us</span><br /><span class=\"long-line\">we find poems. Check your garage, the odd sock</span><br /><span class=\"long-line\">in your drawer, the person you almost like, but not quite.</span><br /><span class=\"long-line\">And let me know.</span></p>\n"}, {"title": "Five Directions to My House", "view_node": "/poem/five-directions-my-house", "field_author": "<a href=\"/poet/juan-felipe-herrera\" hreflang=\"und\">Juan Felipe Herrera</a>", "field_date_published": "2008", "body": " <div>1.<span class=\"Apple-tab-span\" style=\"white-space:pre\"> </span>Go back to the grain yellow hills where the broken speak of elegance</div><div>2.<span class=\"Apple-tab-span\" style=\"white-space:pre\"> </span>Walk up to the canvas door, the short bed stretched against the clouds</div><div>3.<span class=\"Apple-tab-span\" style=\"white-space:pre\"> </span>Beneath the earth, an ant writes with the grace of a governor</div><div>4.<span class=\"Apple-tab-span\" style=\"white-space:pre\"> </span>Blow, blow Red Tail Hawk, your hidden sleeve\u2014your desert secrets</div><div>5.<span class=\"Apple-tab-span\" style=\"white-space:pre\"> </span>You are there, almost, without a name, without a body, go now</div><div>6.<span class=\"Apple-tab-span\" style=\"white-space:pre\"> </span>I said five, said five like a guitar says six.\u00a0</div> "}, {"title": "Fast Break", "view_node": "/poem/fast-break", "field_author": "<a href=\"/poet/edward-hirsch\" hreflang=\"und\">Edward Hirsch</a>", "field_date_published": "1986", "body": "<p><span class=\"long-line\">In Memory of Dennis Turner, 1946-1984</span></p>\n\n<p><span class=\"long-line\">A hook shot kisses the rim and</span><br /><span class=\"long-line\">hangs there, helplessly, but doesn\u2019t drop,</span></p>\n\n<p><span class=\"long-line\">and for once our gangly starting center</span><br /><span class=\"long-line\">boxes out his man and times his jump</span></p>\n\n<p><span class=\"long-line\">perfectly, gathering the orange leather</span><br /><span class=\"long-line\">from the air like a cherished possession </span></p>\n\n<p><span class=\"long-line\">and spinning around to throw a strike</span><br /><span class=\"long-line\">to the outlet who is already shoveling</span></p>\n\n<p><span class=\"long-line\">an underhand pass toward the other guard</span><br /><span class=\"long-line\">scissoring past a flat-footed defender</span></p>\n\n<p><span class=\"long-line\">who looks stunned and nailed to the floor</span><br /><span class=\"long-line\">in the wrong direction, trying to catch sight</span></p>\n\n<p><span class=\"long-line\">of a high, gliding dribble and a man </span><br /><span class=\"long-line\">letting the play develop in front of him</span></p>\n\n<p><span class=\"long-line\">in slow motion, almost exactly</span><br /><span class=\"long-line\">like a coach\u2019s drawing on the blackboard,</span></p>\n\n<p><span class=\"long-line\">both forwards racing down the court</span><br /><span class=\"long-line\">the way that forwards should, fanning out</span></p>\n\n<p><span class=\"long-line\">and filling the lanes in tandem, moving</span><br /><span class=\"long-line\">together as brothers passing the ball</span></p>\n\n<p><span class=\"long-line\">between them without a dribble, without</span><br /><span class=\"long-line\">a single bounce hitting the hardwood</span></p>\n\n<p><span class=\"long-line\">until the guard finally lunges out</span><br /><span class=\"long-line\">and commits to the wrong man</span></p>\n\n<p><span class=\"long-line\">while the power-forward explodes past them</span><br /><span class=\"long-line\">in a fury, taking the ball into the air</span></p>\n\n<p><span class=\"long-line\">by himself now and laying it gently</span><br /><span class=\"long-line\">against the glass for a lay-up,</span></p>\n\n<p><span class=\"long-line\">but losing his balance in the process,</span><br /><span class=\"long-line\">inexplicably falling, hitting the floor</span></p>\n\n<p><span class=\"long-line\">with a wild, headlong motion</span><br /><span class=\"long-line\">for the game he loved like a country</span></p>\n\n<p><span class=\"long-line\">and swiveling back to see an orange blur</span><br /><span class=\"long-line\">floating perfectly through the net. </span></p>\n"}, {"title": "Multiple Man: Guest-starring me &amp; you", "view_node": "/poem/multiple-man-guest-starring-me-you", "field_author": "<a href=\"/poet/gary-jackson\" hreflang=\"en\">Gary Jackson</a>", "field_date_published": "2014", "body": " <p>Every night I sleep on alternate</p><p>sides of the bed, as if to duplicate<br />sleeping with you. If</p><p>I'm fast enough, I'm the warmth<br />of my own body beside me, reach</p><p>out and touch myself. Breach<br />the blue of my bones, breathe in my own ear.</p><p><em>You left me. </em>Lying here,<br />I left you to be with me.</p><p>Someone asks if your body<br />was worth trading for mine.</p><p>My sin was always pride.<br />Did you want a man that sleeps</p><p>with himself to keep<br />the bed warm? I need you like the earth</p><p>needed the flood after dearth</p> "}, {"title": "Why is Quiet &quot;Kept&quot;?", "view_node": "/poem/why-quiet-kept", "field_author": "<a href=\"/poet/paul-hoover\" hreflang=\"und\">Paul Hoover</a>", "field_date_published": "2014", "body": " <pre>\nThey are crying out in restaurants,\nso delighted to be speaking,\nthey appear to be insane.\n\nBut we are the silent types, \nwho hold speech within \nlike the rustle of gold foil.\n\nWe eat our words and swallow hard.\nThere\u2019s nothing much to say.\nThe knot\u2019s in its nest, breathing.\nA hand thinks it\u2019s a bird.\n\nThe world \u201cnows\u201d; it doesn\u2019t know.\nThe world \u201cwows.\u201d Then it snows.\n\nA word arrives, silent and upright.\nIt stands in profile against a white wall.\nIt\u2019s here for safekeeping only.\n\nKeep quiet, mice.\nA cat\u2019s patrolling the area, \nwith drones and more drones.\n\nThe keys we carry unlock us every day\nand lock us up again.  Hushed is the ward.\nNow conjugate, please, <i>to werd</i> and <i>to werld.</i>\n\nOne of us has just conceived \nthe sum for infinity:  plus one, plus one, plus one.\nIn the cosmological phone booth,\nthere\u2019s always one more.\n\nThe fishing report\u2019s too thick to read, \nbut its cadence is that of a god.\nWaves and ships are passing.\nWe can barely discern the semaphores\nflashing through the fog.\n\nAnd here are the ones who walk the walk and talk the talk,  \nblackening the day with news, with news.</pre>\n "}, {"title": "a woman peeling apples, with a small child", "view_node": "/poem/woman-peeling-apples-small-child", "field_author": "<a href=\"/poet/pattie-mccarthy\" hreflang=\"en\">Pattie McCarthy </a>", "field_date_published": "2014", "body": " <pre>\nstraight off the blade she hands \n\u2028it over her small hand the long peel for divination\u2028 \nthe long peel hissing like a boa constrictor         how long \nit must take to dress the daughter in all of her\u2028 \ngathers &amp; kirtles &amp; caps \n\u2028her pinafore pockets full of oyster shells yes\n\n\nwhat she can't see     what hurts her eyes          &amp; like a genre painting I'll include\n\nthe image of another             painting or         a mirror\nor a dog           \u2028                  how Vermeer preferred women working alone\u2028 \n                                        how this also      uses natural light in an otherwise unlit interior\n\nwhen the old woman peels apples she's surrounded \n\u2028by circles &amp; keeps         her book in good light             &amp; when \nshe is young it's a rich   brocade              steady hands \n\u2028a hairband &amp; a little jut of thought in her jaw                           (see also <i>dutch        quiet</i>   )</pre>\n "}, {"title": "Auld Lang Syne", "view_node": "/poem/auld-lang-syne-0", "field_author": "<a href=\"/poet/jennifer-l-knox\" hreflang=\"und\">Jennifer L. Knox</a>", "field_date_published": "2014", "body": " <pre>\nDad couldn\u2019t stop crying after Kathy moved him into the facility. \nWhen she came to visit, he\u2019d cry and say he wanted to die. He said \nthe same thing to the nurses. This went on for about a month until \nthe doctor put him on an antidepressant especially for Parkinson\u2019s \npatients. The next time Kathy came to visit, she found him in the \ncafeteria, talking to some of the other residents and not crying at \nall\u2014just enjoying his lunch. When it was time for her to go, he \ndidn\u2019t cry, but rather calmly escorted her to the car. \u201cDo you like \nthis car? My wife and I were thinking about getting one,\u201d he told \nher. \u201cThat\u2019s very interesting,\u201d Kathy smiled, \u201cbecause I am your \nwife.\u201d Dad chuckled, \u201cIs that right?\u201d He squinted over the palm trees \ntowards the freeway. So many cars. Busy busy busy. \u201cWell, we\u2019ll see \nyou later, then,\u201d he said, and shook her hand firmly, the way he\u2019d \nlearned to do at Rotary. What funny new friends he was making. </pre>\n "}, {"title": "Chorus of the Mothers-Griot", "view_node": "/poem/chorus-mothers-griot", "field_author": "<a href=\"/poet/honoree-fanonne-jeffers\" hreflang=\"und\">Honor\u00e9e Fanonne Jeffers</a>", "field_date_published": "2014", "body": " <p><i>for Phillis Wheatley (c.1753-1784)</i></p><br /><br /><br /><pre>\n                                [amnesiac wood]\n\n[nostrils of girls]\t        [who was bought]\t        [uncle\u2019s hand]\n[guts on the air]\t        [who was sold]\t\t[defeated man]\n[history\u2019s charnel]\t        [<i>i say</i>] \t                [trader\u2019s silver]\n\n                                [sailing knot to knot]\n\n[naked in the corner]\t[door of no return]\t[sing the mutiny]\n[in the slave house]\t[sniff bougainvillea]\t[who stands ashamed]\n[<i>i say</i>]\t\t \t[ready dawn\u2019s kill]\t        [naked in the corner]\n\n                                [jealous sharks]\n\n[i shall]\t\t\t[who did]\t\t        [<i>i say</i>]\n[they did]\t\t        [i\u2019m here]\t\t        [my name]\n[who shall]\t\t        [<i>i say</i>]\t\t        [yes here]\n\n                                [on the battlefield] \n\n[call woman]\t\t[call america]\t\t[call revolution]\n[call the brother]\t        [call myth]                  [<i>i say</i>] \n[call the auction]\t        [call africa]\t\t        [call revolution]\n\n                                [in God\u2019s name]\n\n[is this called]\t\t[is my mother]\t\t[is my kin]\n[<i>i say</i>]\t\t\t[is this called]\t\t[is some land]\n[is my mother]\t\t[and what] \t\t        [is this called]\n\n\n\n\n\n\t<i>after Lucille Clifton</i>\n</pre>\n "}], "pager": {"current_page": 410, "total_items": "13248", "total_pages": 663, "items_per_page": 20}}