{"rows": [{"title": "In a Baby (audio only)", "view_node": "/poem/baby-audio-only", "field_author": "<a href=\"/poet/kimiko-hahn\" hreflang=\"und\">Kimiko Hahn</a>", "field_date_published": "2014", "body": " <p>\u00a0</p><p>Click the icon above to listen to this audio poem.</p> "}, {"title": "Frank? (audio only)", "view_node": "/poem/frank-audio-only", "field_author": "<a href=\"/poet/kimiko-hahn\" hreflang=\"und\">Kimiko Hahn</a>", "field_date_published": "2014", "body": " <p>\u00a0</p><p>Click the icon above to listen to this audio poem.</p> "}, {"title": "Figure (audio only)", "view_node": "/poem/figure-audio-only", "field_author": "<a href=\"/poet/kimiko-hahn\" hreflang=\"und\">Kimiko Hahn</a>", "field_date_published": "2014", "body": " <p>\u00a0</p><p>Click the icon above to listen to this audio poem.</p> "}, {"title": "Erasing Host Manipulation (audio only)", "view_node": "/poem/erasing-host-manipulation-audio-only", "field_author": "<a href=\"/poet/kimiko-hahn\" hreflang=\"und\">Kimiko Hahn</a>", "field_date_published": "2014", "body": " <p>\u00a0</p><p>Click the icon above to listen to this audio poem.</p> "}, {"title": "Dopamine (audio only)", "view_node": "/poem/dopamine-audio-only", "field_author": "<a href=\"/poet/kimiko-hahn\" hreflang=\"und\">Kimiko Hahn</a>", "field_date_published": "2014", "body": " <p>\u00a0</p><p>Click the icon above to listen to this audio poem.</p> "}, {"title": "Cherry Stems (audio only)", "view_node": "/poem/cherry-stems-audio-only", "field_author": "<a href=\"/poet/kimiko-hahn\" hreflang=\"und\">Kimiko Hahn</a>", "field_date_published": "2014", "body": " <p>\u00a0</p><p>Click the icon above to listen to this audio poem.</p> "}, {"title": "Alarm", "view_node": "/poem/alarm", "field_author": "<a href=\"/poet/kimiko-hahn\" hreflang=\"und\">Kimiko Hahn</a>", "field_date_published": "2014", "body": " <p style=\"text-align: right;\"><span class=\"long-line\"><em>Before doctors learn how it is that the brain</em><em>\u2019</em><em>s lights\u00a0turn on, they may have to\u00a0know a lot more about\u00a0what</em><em>\u2019</em><em>s happening when the lights are off.\u00a0</em></span><br /><em>\u00a0 \u00a0 \u00a0 \u00a0 \u00a0 \u00a0 \u00a0 \u00a0 \u00a0 \u00a0 \u00a0 \u00a0 \u2014</em>Benedict Carey<br />\u00a0</p><p>In her dark she surveys empty: the vanity<br />from the in-law's Bronx apartment,</p><p>the brooch from a lover,<br />loafers by a coat tree, trench coat,</p><p>the husband's profile, an alarm</p><p>for news and forecast. Here<br />\u00a0 \u00a0 \u00a0 \u00a0 \u00a0 \u00a0 \u00a0 \u00a0 \u00a0 \u00a0 \u00a0 \u00a0 \u00a0 \u00a0 \u00a0 \u00a0 \u00a0 \u00a0 \u00a0 \u00a0 \u00a0 \u00a0 \u00a0 she appraises fidelity<br />before the light violates.</p> "}, {"title": "A Bowl of Spaghetti (audio only)", "view_node": "/poem/bowl-spaghetti-audio-only", "field_author": "<a href=\"/poet/kimiko-hahn\" hreflang=\"und\">Kimiko Hahn</a>", "field_date_published": "2014", "body": " <p>\u00a0</p><p>Click the icon above to listen to this audio poem.</p> "}, {"title": "Labor (audio only)", "view_node": "/poem/labor-audio-only", "field_author": "<a href=\"/poet/jericho-brown\" hreflang=\"und\">Jericho Brown</a>", "field_date_published": "2014", "body": " <p>\u00a0</p><p>Click the icon above to listen to this audio poem.</p> "}, {"title": "At the End of Hell (audio only)", "view_node": "/poem/end-hell-audio-only", "field_author": "<a href=\"/poet/jericho-brown\" hreflang=\"und\">Jericho Brown</a>", "field_date_published": "2014", "body": "<p>\u00a0</p>\n\n<p>Click the icon above to listen to this audio poem.</p>\n"}, {"title": "&#039;N&#039;em", "view_node": "/poem/nem", "field_author": "<a href=\"/poet/jericho-brown\" hreflang=\"und\">Jericho Brown</a>", "field_date_published": "2014", "body": " <p>They said to say goodnight<br />And not goodbye, unplugged<br />The TV when it rained. They hid<br />Money in mattresses<br />So to sleep on decisions.<br />Some of their children<br />Were not their children. Some<br />Of their parents had no birthdates.<br />They could sweat a cold out<br />Of you. They'd wake without<br />An alarm telling them to.<br />Even the short ones reached<br />Certain shelves. Even the skinny<br />Cooked animals too quick<br />To get caught. And I don't care<br />How ugly one of them arrived,<br />That one got married<br />To somebody fine. They fed<br />Families with change and wiped<br />Their kitchens clean.<br />Then another century came.<br />People like me forgot their names.</p> "}, {"title": "The Night Is Still", "view_node": "/poem/night-still", "field_author": "<a href=\"/poet/edith-matilda-thomas\" hreflang=\"und\">Edith Matilda Thomas</a>", "field_date_published": "1887", "body": " <p>The night is still, the moon looks kind,<br />\u00a0\u00a0\u00a0 The dew hangs jewels in the heath,<br />An ivy climbs across thy blind,<br />\u00a0\u00a0\u00a0 And throws a light and misty wreath.</p><p>The dew hangs jewels in the heath,<br />\u00a0\u00a0\u00a0 Buds bloom for which the bee has pined;<br />I haste along, I quicker breathe,<br />\u00a0\u00a0\u00a0 The night is still, the moon looks kind.</p><p>Buds bloom for which the bee has pined,<br />\u00a0\u00a0\u00a0 The primrose slips its jealous sheath,<br />As up the flower-watched path I wind<br />\u00a0\u00a0\u00a0 And come thy window-ledge beneath.</p><p>The primrose slips its jealous sheath,\u2014<br />\u00a0\u00a0\u00a0 Then open wide that churlish blind,<br />And kiss me through the ivy wreath!<br />\u00a0\u00a0\u00a0 The night is still, the moon looks kind.<br />\u00a0</p> "}, {"title": "Love\u2019s Body", "view_node": "/poem/loves-body", "field_author": "<a href=\"/poet/jonathan-wells\" hreflang=\"und\">Jonathan Wells</a>", "field_date_published": "2015", "body": "<p><span class=\"long-line\">Love gives all its reasons</span><br /><span class=\"long-line\">as if they were terms for peace.</span><br /><span class=\"long-line\">Love is this but not that</span><br /><span class=\"long-line\">that but not this.</span><br /><span class=\"long-line\">Love as it always was.</span></p>\n\n<p><span class=\"long-line\">But there is no peace in the mountain</span><br /><span class=\"long-line\">cleft where the fruit bats scatter</span><br /><span class=\"long-line\">from the light.</span><br /><span class=\"long-line\">There is no peace in the hollow when</span><br /><span class=\"long-line\">the heat snuffs night\u2019s blue candle.</span></p>\n\n<p><span class=\"long-line\">The outline of brown leaves on</span><br /><span class=\"long-line\">the beach is the wind\u2019s body.</span></p>\n\n<p><span class=\"long-line\">A crow is squawking at the sun</span><br /><span class=\"long-line\">as if the screech itself is dawn.</span><br /><span class=\"long-line\">Let me hear every perfect note.</span><br /><span class=\"long-line\">How I loved that jasper morning.</span></p>\n"}, {"title": "Succession", "view_node": "/poem/succession", "field_author": "<a href=\"/poet/jeffrey-brown\" hreflang=\"en\">Jeffrey  Brown</a>", "field_date_published": "2015", "body": " <p>One morning state police<br />escort us to your grave<br />the next my flight is canceled.</p><p>Maintenance issues breaking<br />out all over. You would speak<br />of a \u201cgrand theory,\u201d something</p><p>tying all this together, but<br />you had none yourself, none<br />that reached me then or now</p><p>as I drive your car slowly<br />into the tranquil streets<br />of my youth. Here is where</p><p>I learned to ride a bike, on<br />this high hill that is no<br />hill at all. And still I fell.</p><p>And now you descend and<br />still I fall. And here is where<br />I learned to doubt, in the chapel</p><p>where we donned black skullcaps<br />that meant nothing, I tell you.<br />If god speaks it is elsewhere.</p><p>And here are my own children<br />rooted and uncertain<br />watching me speak to you.</p><p>You watched the news every night<br />worried if I did not make \u201cair\u201d\u2014<br />traveling, sick, useless, lost.</p><p>Now that you are gone\u2014<br />traffic parted by the state police\u2014<br />can I, too, disappear?<br />\u00a0</p> "}, {"title": "The Kindness", "view_node": "/poem/kindness-0", "field_author": "<a href=\"/poet/jan-beatty\" hreflang=\"und\">Jan Beatty</a>", "field_date_published": "2015", "body": " <p><em>\u00a0 \u00a0 \u00a0 \u00a0 \u00a0 \u00a0 \u00a0 \u00a0 \u00a0 \u00a0 \u00a0 \u00a0Banff, Alberta</em></p><p>The mother elk and 2 babies are sniffing<br />the metal handle of the bear-proof trash bin.<br />I remember the instructions for city people:<br /><em>3 football fields of space between you &amp;<br />the elk if their babies are with them.</em><br />I\u2019m backing up slowly,<br />watching the calves run into each other<br />as they bend to eat grass/look up<br />at the mother at the same time.<br />The caramel color of their coat,<br />the sloping line of their small snouts &amp;<br />I want to hold that beauty,<br />steal it for me,<br />but I\u2019m only on football field # 2 &amp; walking<br />into the woods past the lodge pole pines.<br />Their fragility, their awkward bumping<br />opens me to a long ago time\u2014<br />\u00a0 \u00a0 \u00a0 \u00a0 \u00a0 \u00a0 a hand on the door,<br />\u00a0 \u00a0 \u00a0 \u00a0 \u00a0 \u00a0 I was walking in<br />to the psych hospital in Pittsburgh,<br />feeling broken and stripped down\u2014<br />\u00a0 \u00a0 \u00a0 \u00a0 \u00a0 \u00a0 a hand on the door<br />\u00a0 \u00a0 \u00a0 \u00a0 \u00a0 \u00a0 from around my body<br />&amp; I looked up to see the body<br />of a man, who said:<br /><em>Let me get that for you</em>\u2014<br />\u00a0 \u00a0 \u00a0 \u00a0 \u00a0 \u00a0 a hand on the door<br />\u00a0 \u00a0 \u00a0 \u00a0 \u00a0 \u00a0 &amp; the bottom of me<br />\u00a0 \u00a0 \u00a0 \u00a0 \u00a0 \u00a0 dropped/<br />I couldn\u2019t breathe for the kindness.<br />I couldn\u2019t say how deep that went<br />for me.<br />I had been backing up, awkward/<br />I had been blind to my own beauty.<br />\u00a0</p> "}, {"title": "Birthday", "view_node": "/poem/birthday-0", "field_author": "<a href=\"/poet/richie-hofmann\" hreflang=\"en\">Richie  Hofmann</a>", "field_date_published": "2015", "body": " <p>I look for words in the dark,<br />silently describing to myself<br />the particular conditions of the weather<br />on the morning I saw you most recently\u2014<br />the wind, its patterned disarray\u2014<br />my mind elsewhere, distracted, lyrical,<br />while the pianist plays an encore.<br />Mozart was born on this day<br />257 years ago. All day<br />I have been ungenerous, resentful,<br />impatient. In between<br />movements, no applause<br />but the old ladies cough loudly, violently.<br />We cannot last forever.<br />I loved music before I loved books.<br />I loved Mozart before I loved you.</p> "}, {"title": "Yar\u2019s Revenge", "view_node": "/poem/yars-revenge", "field_author": "<a href=\"/poet/noah-eli-gordon\" hreflang=\"und\">Noah Eli Gordon</a>", "field_date_published": "2015", "body": " <p><em>for Graham Foust</em></p><p>What is technology if not<br /><br />a kind of built-in nostalgia<br /><br />for the frantic past\u2019s long slide<br /><br />into a slower present<br /><br />Put another way: a decade<br /><br />bends 8-bit bells &amp; whistles<br /><br />into an oxymoron it nearly<br /><br />hurts remembering<br /><br />tight lump on your thigh<br /><br />of quarters in those short<br /><br />short shorts. It was amazing<br /><br />when we could bring it home<br /><br />Now, it\u2019s amazing when we can\u2019t<br />\u00a0</p> "}, {"title": "Francesca", "view_node": "/poem/francesca", "field_author": "<a href=\"/poet/ezra-pound\" hreflang=\"und\">Ezra Pound</a>", "field_date_published": "1909", "body": " <p>You came in out of the night<br />And there were flowers in your hands,<br />Now you will come out of a confusion of people,<br />Out of a turmoil of speech about you.</p><p>I who have seen you amid the primal things<br />Was angry when they spoke your name<br />In ordinary places.<br />I would that the cool waves might flow over my mind,<br />And that the world should dry as a dead leaf,<br />Or as a dandelion seed-pod and be swept away,<br />So that I might find you again,<br />Alone.<br />\u00a0</p> "}, {"title": "Sonnet to Winter", "view_node": "/poem/sonnet-winter", "field_author": "<a href=\"/poet/emily-chubbuck-judson\" hreflang=\"en\">Emily  Chubbuck Judson</a>", "field_date_published": "1847", "body": "<p><span class=\"long-line\">Thy brow is girt, thy robe with gems inwove;</span><br /><span class=\"long-line\">\u00a0\u00a0\u00a0 And palaces of frost-work, on the eye,</span><br /><span class=\"long-line\">\u00a0\u00a0\u00a0 Flash out, and gleam in every gorgeous dye,</span><br /><span class=\"long-line\">The pencil, dipped in glorious things above,</span><br /><span class=\"long-line\">\u00a0\u00a0\u00a0 Can bring to earth. Oh, thou art passing fair!</span><br /><span class=\"long-line\">But cold and cheerless as the heart of death,</span><br /><span class=\"long-line\">Without one warm, free pulse, one softening breath,</span><br /><span class=\"long-line\">\u00a0\u00a0\u00a0 One soothing whisper for the ear of Care.</span><br /><span class=\"long-line\">Fortune too has her Winter. In the Spring,</span><br /><span class=\"long-line\">\u00a0\u00a0\u00a0 We watch the bud of promise; and the flower</span><br /><span class=\"long-line\">\u00a0\u00a0\u00a0 Looks out upon us at the Summer hour;</span><br /><span class=\"long-line\">And Autumn days the blessed harvest bring;</span><br /><span class=\"long-line\">\u00a0\u00a0\u00a0 Then comes the reign of jewels rare, and gold,</span><br /><span class=\"long-line\">\u00a0\u00a0\u00a0 When brows flash light, but hearts grow strangely cold.</span></p>\n"}, {"title": "What Is ", "view_node": "/poem/what", "field_author": "<a href=\"/poet/jeffrey-yang\" hreflang=\"und\">Jeffrey Yang</a>", "field_date_published": "2015", "body": " <p><em style=\"line-height: 1.538em;\">or is true as</em><br /><em style=\"line-height: 1.538em;\">Happiness</em></p><p>Birth<br />A pure river</p><p>Conditions for the equal good<br />to be as wise and fortunate</p><p>at the start</p><p>Lost in the pursuit</p><p>Under a white oak<br />two children sitting back<br />to back on a plank swing, calling</p><p>The hand<br />that touches the earth\u00a0<br />to witness</p><p>Presses the metal latch, opens<br />the screen door out from home</p><p>sunlight, pond water silence<br />damselfly at rest on a frond<br /><br />Having come with you<br />this far into the drafty air<br />\u00a0</p> "}], "pager": {"current_page": 384, "total_items": "13248", "total_pages": 663, "items_per_page": 20}}