{"rows": [{"title": "Speaking Is", "view_node": "/poem/speaking", "field_author": "<a href=\"/poet/cara-benson\" hreflang=\"en\">Cara Benson</a>", "field_date_published": "2014", "body": " <p>A trapezoid. Piano keys fill soup bowls.<br /><span style=\"line-height: 1.538em;\">The moon wreaks havoc on the dandy</span><br /><span style=\"line-height: 1.538em;\">in a field of proclamations.</span><br /><br /><span style=\"line-height: 1.538em;\">A chamber pot. Walk-in closet rife</span><br /><span style=\"line-height: 1.538em;\">with used jackhammers. I find a helmet</span><br /><span style=\"line-height: 1.538em;\">by the washer-dryer for my free</span></p><p><span style=\"line-height: 1.538em;\">free-speech call. The power dips</span><br /><span style=\"line-height: 1.538em;\">during dinner, sends every clock protesting.</span><br /><span style=\"line-height: 1.538em;\">I am reminded I do not declare</span></p><p><span style=\"line-height: 1.538em;\">enough. Not customs</span>\u2014<span style=\"line-height: 1.538em;\">accounting.</span></p> "}, {"title": "Survivor Guilt", "view_node": "/poem/survivor-guilt", "field_author": "<a href=\"/poet/ron-padgett\" hreflang=\"und\">Ron Padgett</a>", "field_date_published": "2014", "body": " <p>It\u2019s very easy to get.<br /><span style=\"line-height: 1.538em;\">Just keep living and you\u2019ll find yourself</span><br /><span style=\"line-height: 1.538em;\">getting more and more of it.</span><br /><span style=\"line-height: 1.538em;\">You can keep it or pass it on,</span><br /><span style=\"line-height: 1.538em;\">but it\u2019s a good idea to keep a small portion</span><br /><span style=\"line-height: 1.538em;\">for those nights when you\u2019re feeling so good</span><br /><span style=\"line-height: 1.538em;\">you forget you\u2019re human. Then drudge it up</span><br /><span style=\"line-height: 1.538em;\">and float down from the ceiling</span><br /><span style=\"line-height: 1.538em;\">that is covered with stars that glow in the dark</span><br /><span style=\"line-height: 1.538em;\">for the sole purpose of being beautiful for you,</span><br /><span style=\"line-height: 1.538em;\">and as you sink their beauty dims and goes out\u2014</span><br /><span style=\"line-height: 1.538em;\">I mean it flies out the nearest door or window,</span><br /><span style=\"line-height: 1.538em;\">its whoosh raising the hair on your forearms.</span><br /><span style=\"line-height: 1.538em;\">If only your arms were green, you could have two small lawns!</span><br /><span style=\"line-height: 1.538em;\">But your arms are just there and you are kaput.</span><br /><span style=\"line-height: 1.538em;\">It\u2019s all your fault, anyway, and it always has been\u2014</span><br /><span style=\"line-height: 1.538em;\">the kind word you thought of saying but didn\u2019t,</span><br /><span style=\"line-height: 1.538em;\">the appalling decline of human decency, global warming,</span><br /><span style=\"line-height: 1.538em;\">thermonuclear nightmares, your own small cowardice,</span><br /><span style=\"line-height: 1.538em;\">your stupid idea that you would live forever\u2014</span><br /><span style=\"line-height: 1.538em;\">all tua culpa. John Phillip Sousa</span><br /><span style=\"line-height: 1.538em;\">invented the sousaphone, which is also your fault.</span><br /><span style=\"line-height: 1.538em;\">Its notes resound like monstrous ricochets.</span></p><p><span style=\"line-height: 1.538em;\">But when you wake up your body</span><br /><span style=\"line-height: 1.538em;\">seems to fit fairly well, like a tailored suit,</span><br /><span style=\"line-height: 1.538em;\">and you don\u2019t look too bad in the mirror.</span><br /><span style=\"line-height: 1.538em;\">Hi there, feller! Old feller, young feller, who cares?</span><br /><span style=\"line-height: 1.538em;\">Whoever it was who felt guilty last night,</span><br /><span style=\"line-height: 1.538em;\">to hell with him. That was then.</span></p> "}, {"title": "Aspiration", "view_node": "/poem/aspiration", "field_author": "<a href=\"/poet/henrietta-cordelia-ray\" hreflang=\"en\">Henrietta Cordelia Ray</a>", "field_date_published": "1910", "body": "<p><span class=\"long-line\">We climb the slopes of life with throbbing heart,</span><br /><span class=\"long-line\">And eager pulse, like children toward a star.</span><br /><span class=\"long-line\">Sweet siren music cometh from afar,</span><br /><span class=\"long-line\">To lure us on meanwhile. Responsive start</span><br /><span class=\"long-line\">The nightingales to richer song than Art</span><br /><span class=\"long-line\">Can ever teach. No passing shadows mar</span><br /><span class=\"long-line\">Awhile the dewy skies; no inner jar</span><br /><span class=\"long-line\">Of conflict bids us with our quest to part.</span><br /><span class=\"long-line\">We see adown the distance, rainbow-arched,</span><br /><span class=\"long-line\">What melting aisles of liquid light and bloom!</span><br /><span class=\"long-line\">We hasten, tremulous, with lips all parched,</span><br /><span class=\"long-line\">And eyes wide-stretched, nor dream of coming gloom.</span><br /><span class=\"long-line\">Enough that something held almost divine</span><br /><span class=\"long-line\">Within us ever stirs. Can we repine?</span></p>\n"}, {"title": "Song Book", "view_node": "/poem/song-book", "field_author": "<a href=\"/poet/naomi-shihab-nye\" hreflang=\"und\">Naomi Shihab Nye</a>", "field_date_published": "2014", "body": "<p><span class=\"long-line\">Tiny keyboard bearing the massive reverie of the past\u2014</span><br /><span class=\"long-line\">press one button, we\u2019re carried away on a country road,</span><br /><span class=\"long-line\">marching with saints, leaving the Red River Valley...</span><br /><span class=\"long-line\">here is every holiday you hated, every hard time,</span><br /><span class=\"long-line\">each steamy summer wish. You closed your eyes</span><br /><span class=\"long-line\">in the wooden stairwell, leaning your head against the wall,</span><br /><span class=\"long-line\">knowing a bigger world loomed. It\u2019s still out there,</span><br /><span class=\"long-line\">and it\u2019s tucked in this keyboard too,</span><br /><span class=\"long-line\">now we are an organ, now we are an oboe,</span><br /><span class=\"long-line\">now we are young or ancient,</span><br /><span class=\"long-line\">now we are smelling wallpaper in the house</span><br /><span class=\"long-line\">our grandfather sold with every cabinet,</span><br /><span class=\"long-line\">table and doily included,</span><br /><span class=\"long-line\">but we are still adrift, floating,</span><br /><span class=\"long-line\">thrum-full of longing layers of sound.</span></p>\n"}, {"title": "Room Tone", "view_node": "/poem/room-tone", "field_author": "<a href=\"/poet/bill-berkson\" hreflang=\"und\">Bill Berkson</a>", "field_date_published": "2014", "body": " <p>Wrestling that old beauty<br /><span style=\"line-height: 1.538em;\">\u201cBody and Soul\u201d</span><br /><span style=\"line-height: 1.538em;\">To the ground</span><br /><br /><span style=\"line-height: 1.538em;\">The genus award for epochal comes besotted</span><br /><span style=\"line-height: 1.538em;\">Complicity follows like caramel on a sponge mop</span><br /><span style=\"line-height: 1.538em;\">Child-bearing babies on stilts</span><br /><br /><span style=\"line-height: 1.538em;\">I dreamed you were felled by an unspecified illness</span><br /><span style=\"line-height: 1.538em;\">In yours I was rowing a leaky boat, even though</span><br /><span style=\"line-height: 1.538em;\">The motor was foolproof and bore hairs</span><br /><br /><span style=\"line-height: 1.538em;\">Taken up with travel and foreign visitors</span><br /><span style=\"line-height: 1.538em;\">An intimacy implied in big block letters leans</span><br /><span style=\"line-height: 1.538em;\">Beside its planar incandescent surrogate</span><br /><br /><span style=\"line-height: 1.538em;\">I tend backward haughtily through froth</span><br /><span style=\"line-height: 1.538em;\">Abandoned sweetness meaning torpor</span><br /><span style=\"line-height: 1.538em;\">Behind gorgeous intervals of removal and need</span><br /><br /><span style=\"line-height: 1.538em;\">An alligator in every pot</span><br /><span style=\"line-height: 1.538em;\">Keeping company doesn\u2019t count</span><br /><span style=\"line-height: 1.538em;\">Dame Kind adjusts her ribbon frills</span><br /><br /><span style=\"line-height: 1.538em;\">Give life a shot</span><br /><span style=\"line-height: 1.538em;\">Circular breath redemption</span><br /><span style=\"line-height: 1.538em;\">At the Door of the Wolf</span><br /><br /><span style=\"line-height: 1.538em;\">You heard me</span></p> "}, {"title": "Testimony", "view_node": "/poem/testimony", "field_author": "<a href=\"/poet/joseph-fasano\" hreflang=\"und\">Joseph Fasano</a>", "field_date_published": "2014", "body": "<p><span class=\"long-line\">If tonight the moon should arrive like a lost guide</span><br /><span class=\"long-line\">crossing the fields with a bitter lantern in her hand,</span></p>\n\n<p><span class=\"long-line\">her irides blind, her dresses wild, lie down and listen to her</span><br /><span class=\"long-line\">find you; lie down and listen to the body become</span></p>\n\n<p><span class=\"long-line\">the promise of no other, the sleeper in the garden</span><br /><span class=\"long-line\">in its own arms, the exile in its own autumnal house.</span></p>\n\n<p><span class=\"long-line\">You have woken. But no one has woken. You are changed,</span><br /><span class=\"long-line\">but the light of change is bitter, the changing</span></p>\n\n<p><span class=\"long-line\">is the threshold into winter. Traveler, rememberer, sleeper,</span><br /><span class=\"long-line\">tonight, as you slumber where the dead are, if the moon\u2019s hands</span></p>\n\n<p><span class=\"long-line\">should discover you through fire, lie down</span><br /><span class=\"long-line\">and listen to her hold you, the moon who has been away</span></p>\n\n<p><span class=\"long-line\">so long now, the lost moon with her silver lips</span><br /><span class=\"long-line\">and whisper, her body half in winter,</span></p>\n\n<p><span class=\"long-line\">half in wool. Look at her, look at her, that drifter.\u00a0</span><br /><span class=\"long-line\">And if no one, if nothing comes to know you, if no song</span></p>\n\n<p><span class=\"long-line\">comes to prove it isn\u2019t over, tell yourself, in the moon\u2019s</span><br /><span class=\"long-line\">arms, she is no one; tell yourself, as you lose</span></p>\n\n<p><span class=\"long-line\">love, it is after, that you alone are the bearer</span><br /><span class=\"long-line\">in that changed place, you alone who have woken, and have</span></p>\n\n<p><span class=\"long-line\">opened, you alone who can so love</span><br /><span class=\"long-line\">what you are now and the vanishing that carries it away.</span></p>\n"}, {"title": "The Forest Formed Gills", "view_node": "/poem/forest-formed-gills", "field_author": "<a href=\"/poet/eric-baus\" hreflang=\"und\">Eric Baus</a>", "field_date_published": "2014", "body": " <p>The ventriloquist\u2019s vines fled to an address on the floor of a cumulus pond. The forest formed gills. The tentacles muttered. <em>Eat a bee. Try to project the tiniest star deep beneath this fence.</em> The ravaged shadows repaired in the shade. The numb panorama rewound.</p> "}, {"title": "Prairie Dawn", "view_node": "/poem/prairie-dawn", "field_author": "<a href=\"/poet/willa-cather\" hreflang=\"und\">Willa Cather</a>", "field_date_published": "1903", "body": " <p>A crimson fire that vanquishes the stars;<br />A pungent odor from the dusty sage;<br />A sudden stirring of the huddled herds;<br />A breaking of the distant table-lands<br />Through purple mists ascending, and the flare<br />Of water ditches silver in the light;<br />A swift, bright lance hurled low across the world;<br />A sudden sickness for the hills of home.</p> "}, {"title": "Hours", "view_node": "/poem/hours", "field_author": "<a href=\"/poet/hazel-hall\" hreflang=\"und\">Hazel Hall</a>", "field_date_published": "2014", "body": " <p>I have known hours built like cities,<br />House on grey house, with streets between<br />That lead to straggling roads and trail off,<br />Forgotten in a field of green;</p><p>Hours made like mountains lifting<br />White crests out of the fog and rain,<br />And woven of forbidden music\u2014<br />Hours eternal in their pain.</p><p>Life is a tapestry of hours<br /><span style=\"line-height: 1.538em;\">Forever mellowing in tone,</span><br /><span style=\"line-height: 1.538em;\">Where all things blend, even the longing</span><br /><span style=\"line-height: 1.538em;\">For hours I have never kno</span><span style=\"line-height: 1.538em;\">wn.</span></p> "}, {"title": "American Boys, Hello!", "view_node": "/poem/american-boys-hello", "field_author": "<a href=\"/poet/ella-wheeler-wilcox\" hreflang=\"und\">Ella Wheeler Wilcox</a>", "field_date_published": "2014", "body": " <p>Oh! we love all the French, and we speak in French<br />As along through France we go.<br />But the moments to us that are keen and sweet<br />Are the ones when our khaki boys we meet,<br />Stalwart and handsome and trim and neat;<br />And we call to them\u2014\u2018Boys, hello!\u2019<br />\u2018Hello, American boys,<br />Luck to you, and life\u2019s best joys!<br />American boys, hello!\u2019</p><p>We couldn\u2019t do that if we were at home\u2014<br />It never would do, you know!<br />For there you must wait till you\u2019re told who\u2019s who,<br />And to meet in the way that nice folks do.<br />Though you knew his name, and your name he knew\u2014<br />You never would say \u2018Hello, hello, American boy!\u2019<br />But here it\u2019s just a joy,<br />As we pass along in the stranger throng,<br />To call out, \u2018Boys, hello!\u2019</p><p>For each is a brother away from home;<br />And this we are sure is so,<br />There\u2019s a lonesome spot in his heart somewhere,<br />And we want him to feel there are friends<br />right there</p><p>In this foreign land, and so we dare<br />To call out \u2018Boys, hello!\u2019<br />\u2018Hello, American boys,<br />Luck to you, and life\u2019s best joys!<br />American boys, hello!\u2019<br />\u00a0</p> "}, {"title": "The Rose of Battle", "view_node": "/poem/rose-battle", "field_author": "<a href=\"/poet/w-b-yeats\" hreflang=\"und\">W. B. Yeats</a>", "field_date_published": "1892", "body": " <p>Rose of all Roses, Rose of all the World!<br />The tall thought-woven sails, that flap unfurled<br />Above the tide of hours, trouble the air,<br />And God's bell buoyed to be the water's care;<br />While hushed from fear, or loud with hope, a band<br />With blown, spray-dabbled hair gather at hand,<br /><em>Turn if you may from battles never done,</em><br />I call, as they go by me one by one,<br /><em>Danger no refuge holds, and war no peace,<br />For him who hears love sing and never cease,<br />Beside her clean-swept hearth, her quiet shade:<br />But gather all for whom no love hath made<br />A woven silence, or but came to cast<br />A song into the air, and singing passed<br />To smile on the pale dawn; and gather you<br />Who have sought more than is in rain or dew,<br />Or in the sun and moon, or on the earth,<br />Or sighs amid the wandering, starry mirth,<br />Or comes in laughter from the sea's sad lips,<br />And wage God's battles in the long grey ships.<br />The sad, the lonely, the insatiable,<br />To these Old Night shall all her mystery tell;<br />God's bell has claimed them by the little cry<br />Of their sad hearts, that may not live nor die.</em><br />Rose of all Roses, Rose of all the World!<br />You, too, have come where the dim tides are hurled<br />Upon the wharves of sorrow, and heard ring<br />The bell that calls us on; the sweet far thing.<br />Beauty grown sad with its eternity<br />Made you of us, and of the dim grey sea.<br />Our long ships loose thought-woven sails and wait,<br />For God has bid them share an equal fate;<br />And when at last, defeated in His wars,<br />They have gone down under the same white stars,<br />We shall no longer hear the little cry<br />Of our sad hearts, that may not live nor die.</p> "}, {"title": "Borderlands", "view_node": "/poem/borderlands", "field_author": "<a href=\"/poet/louise-imogen-guiney\" hreflang=\"en\">Louise Imogen Guiney</a>", "field_date_published": "2014", "body": " <p>Through all the evening,<br />All the virginal long evening,<br />Down the blossomed aisle of April it is dread to walk alone;<br />For there the intangible is nigh, the lost is ever-during;<br />And who would suffer again beneath a too divine alluring,<br />Keen as the ancient drift of sleep on dying faces blown?</p><p>Yet in the valley,<br />At a turn of the orchard alley,<br />When a wild aroma touched me in the moist and moveless air,<br />Like breath indeed from out Thee, or as airy vesture round<br />\u00a0\u00a0 Thee,<br />Then was it I went faintly, for fear I had nearly found Thee,<br />O Hidden, O Perfect, O Desired! O first and final Fair!</p> "}, {"title": "Green Rainbow Song", "view_node": "/poem/green-rainbow-song", "field_author": "<a href=\"/poet/cedar-sigo\" hreflang=\"und\">Cedar  Sigo</a>", "field_date_published": "2014", "body": " <p>Hung up on<br />my hearing<br />and deep in whose<br />playbook<br />one too many<br />nights and never<br />a black-out<br />Doing the best<br />I can, only a man<br />It hurts me too<br />Blues in the night<br />Verlaine Blues<br />sitting here thinking<br />a blues for Anne<br />(all nerves)<br />and mine<br />the most dirty<br />unhurried<br />afternoon jags<br />A freshly penned<br />lyric for sinking<br />to autumnal<br />atlantean shade<br />I wish us more luck<br />I wish my little<br />tiger lily sheltered<br />in a clear crystal<br />box (being carried)<br />Green pearl-handled<br />mallets edging<br />the annunciation<br />toward a new burn<br />The chamber of maiden<br />thought is metered<br />Big fields<br />villagers, stars<br />on the back-lot blues<br />it\u2019s the smoke spot<br />I shade softest<br />a curve so tight<br />its really blind<br />the chamber gives<br />way to the word<br />in this case (mine)</p> "}, {"title": "Landscape with a Blur of Conquerors", "view_node": "/poem/landscape-blur-conquerors", "field_author": "<a href=\"/poet/richard-siken\" hreflang=\"und\">Richard Siken</a>", "field_date_published": "2014", "body": "<p><span class=\"long-line\">To have a thought, there must be an object\u2014</span><br /><span class=\"long-line\">the field is empty, sloshed with gold, a hayfield thick</span><br /><span class=\"long-line\">with sunshine. There must be an object so land</span><br /><span class=\"long-line\">a man there, solid on his feet, on solid ground, in</span><br /><span class=\"long-line\">a field fully flooded, enough light to see him clearly,</span></p>\n\n<p><span class=\"long-line\">the light on his skin and bouncing off his skin.</span><br /><span class=\"long-line\">He\u2019s easy to desire since there\u2019s not much to him,</span><br /><span class=\"long-line\">vague and smeary in his ochers, in his umbers,</span><br /><span class=\"long-line\">burning in the open field. Forget about his insides,</span><br /><span class=\"long-line\">his plumbing and his furnaces, put a thing in his hand</span></p>\n\n<p><span class=\"long-line\">and be done with it. No one wants to know what\u2019s</span><br /><span class=\"long-line\">in his head. It should be enough. To make something</span><br /><span class=\"long-line\">beautiful should be enough. It isn\u2019t. It should be.</span><br /><span class=\"long-line\">The smear of his head\u2014I paint it out, I paint it in</span><br /><span class=\"long-line\">again. I ask it what it wants. <em>I want to be a cornerstone</em>,</span></p>\n\n<p><span class=\"long-line\">says the head. <em>Let\u2019s kill something</em>. Land a man in a</span><br /><span class=\"long-line\">landscape and he\u2019ll try to conquer it. Make him</span><br /><span class=\"long-line\">handsome and you\u2019re a fascist, make him ugly and</span><br /><span class=\"long-line\">you\u2019re saying nothing new. The conqueror suits up</span><br /><span class=\"long-line\">and takes the field, his horse already painted in</span></p>\n\n<p><span class=\"long-line\">beneath him. What do you do with a man like that?</span><br /><span class=\"long-line\">While you are deciding, more men ride in. The hand</span><br /><span class=\"long-line\">sings <em>weapon</em>. The mind says <em>tool</em>. The body swerves</span><br /><span class=\"long-line\">in the service of the mind, which is evidence of</span><br /><span class=\"long-line\">the mind but not actual proof. More conquerors.</span></p>\n\n<p><span class=\"long-line\">They swarm the field and their painted flags unfurl.</span><br /><span class=\"long-line\">Crown yourself with leaves and stake your claim</span><br /><span class=\"long-line\">before something smears up the paint. I turned away</span><br /><span class=\"long-line\">from darkness to see daylight, to see what would</span><br /><span class=\"long-line\">happen. What happened? What does a man want?</span></p>\n\n<p><span class=\"long-line\">Power. The men spread, the thought extends. I paint</span><br /><span class=\"long-line\">them out, I paint them in again. A blur of forces.</span><br /><span class=\"long-line\">Why take more than we need? Because we can.</span><br /><span class=\"long-line\">Deep footprint, it leaves a hole. You\u2019d break your</span><br /><span class=\"long-line\">heart to make it bigger, so why not crack your skull</span></p>\n\n<p><span class=\"long-line\">when the mind swells. A thought bigger than your</span><br /><span class=\"long-line\">own head. Try it. Seriously. Cover more ground.</span><br /><span class=\"long-line\">I thought of myself as a city and I licked my lips.</span><br /><span class=\"long-line\">I thought of myself as a nation and I wrung my hands,</span><br /><span class=\"long-line\">I put a thing in your hand. Will you defend yourself?</span></p>\n\n<p><span class=\"long-line\">From me, I mean. Let\u2019s kill something. The mind</span><br /><span class=\"long-line\">moves forward, the paint layers up: glop glop and</span><br /><span class=\"long-line\">shellac. I shovel the color into our faces, I shovel our</span><br /><span class=\"long-line\">faces into our faces. They look like me. I move them</span><br /><span class=\"long-line\">around. I prefer to blame others, it\u2019s easier. King me.</span></p>\n"}, {"title": "Now I Get It", "view_node": "/poem/now-i-get-it", "field_author": "<a href=\"/poet/fanny-howe\" hreflang=\"und\">Fanny Howe</a>", "field_date_published": "2014", "body": " <p>Remember judge and you shall<br />Be judged<br />For laughing in school, for being<br />Stupid and always wrong.<br />Penance like the scent of the sheep<br />Is slow O\u2019 weary, its coat<br />A kind of fluff that goes up<br />In filament theory.<br />Your own life ahead follows you<br />Like a scientist posing as a shepherd.</p> "}, {"title": "Wide Sigh", "view_node": "/poem/wide-sigh", "field_author": "<a href=\"/poet/melissa-broder\" hreflang=\"und\">Melissa Broder</a>", "field_date_published": "2014", "body": " <p>I thought that there were two<br />The good voice<br />And my voice</p><p>I thought the good voice was buried<br />And I would have to go<br />Under my voice<br />Which is glittery and cold<br />To get there</p><p>Then I heard them<br />A drumbeat and hawks<br />Also snakes<br />Many wild voices</p><p>Heartbeats<br />Big beats<br />One beat<br />All over</p><p>Do you hear it?<br />I hear it now<br />Speeding up<br />Taking me up</p><p>\u00a0</p> "}, {"title": "Song", "view_node": "/poem/song-4", "field_author": "<a href=\"/poet/dan-beachy-quick\" hreflang=\"und\">Dan Beachy-Quick</a>", "field_date_published": "2014", "body": " <p style=\"text-align: center;\"><br /><span style=\"line-height: 1.538em;\">The wars are everywhere, o even within.</span></p><p style=\"text-align: center;\"><span style=\"line-height: 1.538em;\">Drawn in poor bee by the dance loud hum</span></p><p style=\"text-align: center;\"><span style=\"line-height: 1.538em;\">Of some other tribe, poor bee. Even the center, even the heart,</span></p><p style=\"text-align: center;\"><span style=\"line-height: 1.538em;\">Keeps a sting sharp: art stings thought, thought stings art.</span></p><p style=\"text-align: center;\"><span style=\"line-height: 1.538em;\">Petty realm of the long known. Are there other ways to learn to sing?</span></p><p style=\"text-align: center;\"><span style=\"line-height: 1.538em;\">Clash of long dead blades in the fallow fields</span></p><p style=\"text-align: center;\"><span style=\"line-height: 1.538em;\">And the wind that blows truce for an hour whistles loud the rash</span></p><p style=\"text-align: center;\"><span style=\"line-height: 1.538em;\">Martial tune. Some scribe handles himself. \u201cUse it,\u201d sings the song.</span></p> "}, {"title": "Congregation", "view_node": "/poem/congregation", "field_author": "<a href=\"/poet/parneshia-jones\" hreflang=\"en\">Parneshia Jones</a>", "field_date_published": "2014", "body": " <p>Weir, Mississippi, 1984</p><p>Sara Ross,<br />Great and Grand-mother of all<br />rooted things waits on the family porch.<br />We make our way back to her beginnings.</p><p>Six daughters gather space and time<br />in a small kitchen.<br />Recipes as old as the cauldron<br />and aprons wrap around these daughters;<br />keepers of cast iron and collective</p><p>Lard sizzles a sermon from the stove,<br />frying uncle\u2019s morning catch<br />into gold-plated, cornmeal catfish.<br />Biscuits bigger than a grown man\u2019s fist<br />center the Chantilly laced table of yams,<br />black eyed peas over rice and pineapple,<br />pointing upside down cake.</p><p>The fields, soaked with breeze and sun,<br />move across my legs like Sara\u2019s hands.<br />Chartreuse colored waters, hide and seek<br />in watermelon patches, dim my ache for Chicago.</p><p>Peach and pear ornaments<br />hang from Sara\u2019s trees. Jelly jars tinted<br />with homemade whiskey,<br />guitar stringing uncles who never left<br />the porch, still dream of being famous<br />country singers.</p><p>Toothpick, tipped hats and sunset<br />linger as four generations come from<br />four corners to eat, pray, fuss and laugh<br />themselves into stories of a kinfolk,<br />at a country soiree, down in the delta.</p> "}, {"title": "from &quot;We Do the Polis&quot;", "view_node": "/poem/we-do-polis", "field_author": "<a href=\"/poet/david-buuck\" hreflang=\"en\">David Buuck</a>", "field_date_published": "2014", "body": " <p>Pent up<br />in a narrow</p><p>compass<br />and shortened</p><p>on every side<br />by the neigh-</p><p>borhood<br />of walls</p><p><br />These veterans<br />of future wars</p><p>handing out<br />the PTSD</p><p>brieflets<br />before</p><p>the mess<br />to come</p><p>*</p><p>Were verbing<br />swerved</p><p>and swayed<br />into sieves</p><p>maneuvering<br />toward</p><p>fissures<br />in the line</p><p><br />Swallowed<br />the scare quotes</p><p>and choked on<br />what hung there</p><p>in the air<br />around me</p><p>stripped of that<br />security</p><p>*</p><p>A field<br />of intensities</p><p>pulse through<br />a set</p><p>of others<br />coaligned</p><p>in throng<br />song</p><p><br />What poetry<br />is this</p><p>happening<br />too fast</p><p>to count<br />the syllables</p><p>in each throat's<br />retort</p> "}, {"title": "Lithuania", "view_node": "/poem/lithuania", "field_author": "<a href=\"/poet/phillis-levin\" hreflang=\"und\">Phillis Levin</a>", "field_date_published": "2014", "body": "<blockquote><sup><em>in memory of Jean Blecker Levin</em></sup></blockquote>\n\n<p><span class=\"long-line\">Not a trace, those days, not a sign</span><br /><span class=\"long-line\">On a map of where you were from,</span><br /><span class=\"long-line\">That farm greener than green</span></p>\n\n<p><span class=\"long-line\">Rolling hills, hay high as a barn</span><br /><span class=\"long-line\">Under skies without end, joy</span><br /><span class=\"long-line\">Rolling too, the way it used to.</span></p>\n\n<p><span class=\"long-line\">Now that you\u2019re gone,</span><br /><span class=\"long-line\">The name of the place reappears.</span></p>\n\n<p><span class=\"long-line\">*</span></p>\n\n<p><span class=\"long-line\">Not a map in the world</span><br /><span class=\"long-line\">Will show where you are,</span><br /><span class=\"long-line\">Now that you are long gone</span></p>\n\n<p><span class=\"long-line\">Under the glowing ground,</span><br /><span class=\"long-line\">Lending yourself to the grass,</span><br /><span class=\"long-line\">Joined at last by Joe, who cried,</span></p>\n\n<p><span class=\"long-line\">As they lowered you down,</span><br /><span class=\"long-line\">\u201cJenny my love, my life.\u201d</span></p>\n\n<p><span class=\"long-line\">*</span></p>\n\n<p><span class=\"long-line\">Wherever you are, being</span><br /><span class=\"long-line\">Nowhere, show me a way</span><br /><span class=\"long-line\">To be here, you who are gone</span></p>\n\n<p><span class=\"long-line\">Into bottomless loam: ivy</span><br /><span class=\"long-line\">Climbing the walls of waking,</span><br /><span class=\"long-line\">The walls of sleep, show me to</span></p>\n\n<p><span class=\"long-line\">Two on a porch waiting</span><br /><span class=\"long-line\">To see the flesh of their flesh.</span></p>\n"}], "pager": {"current_page": 401, "total_items": "13248", "total_pages": 663, "items_per_page": 20}}