{"rows": [{"title": "from Elegy in X Parts (audio only)", "view_node": "/poem/elegy-x-parts-audio-only", "field_author": "<a href=\"/poet/matt-rasmussen\" hreflang=\"und\">Matt Rasmussen</a>", "field_date_published": "2013", "body": " <p>\u00a0</p><p>Click the icon above to listen to this audio poem.</p> "}, {"title": "Aperture (audio only)", "view_node": "/poem/aperture-audio-only", "field_author": "<a href=\"/poet/matt-rasmussen\" hreflang=\"und\">Matt Rasmussen</a>", "field_date_published": "2013", "body": " <p>\u00a0</p><p>Click the icon above to listen to this audio poem.</p> "}, {"title": "And God Said, (audio only)", "view_node": "/poem/and-god-said-audio-only", "field_author": "<a href=\"/poet/matt-rasmussen\" hreflang=\"und\">Matt Rasmussen</a>", "field_date_published": "2013", "body": " <p>\u00a0</p><p>Click the icon above to listen to this audio poem.</p> "}, {"title": "After Suicide [2] (audio only)", "view_node": "/poem/after-suicide-2-audio-only", "field_author": "<a href=\"/poet/matt-rasmussen\" hreflang=\"und\">Matt Rasmussen</a>", "field_date_published": "2013", "body": " <p>\u00a0</p><p>Click the icon above to listen to this audio poem.</p> "}, {"title": "747 (audio only)", "view_node": "/poem/747-audio-only", "field_author": "<a href=\"/poet/matt-rasmussen\" hreflang=\"und\">Matt Rasmussen</a>", "field_date_published": "2013", "body": " <p>\u00a0</p><p>Click the icon above to listen to this audio poem.</p> "}, {"title": "thirteen ways of looking at the towers: a 9/11 poem ten years later (audio only)", "view_node": "/poem/thirteen-ways-looking-towers-911-poem-ten-years-later-audio-only", "field_author": "<a href=\"/poet/evie-shockley\" hreflang=\"und\">Evie Shockley</a>", "field_date_published": "2013", "body": " <p>\u00a0</p><p>Click the icon above to listen to this audio poem.</p> "}, {"title": "&quot;the people want the regime to fall&quot; (audio only)", "view_node": "/poem/people-want-regime-fall-audio-only", "field_author": "<a href=\"/poet/evie-shockley\" hreflang=\"und\">Evie Shockley</a>", "field_date_published": "2013", "body": " <p>\u00a0</p><p>Click the icon above to listen to this audio poem.</p> "}, {"title": "song in the backyard: a golden shovel for Rihanna (audio only)", "view_node": "/poem/song-backyard-golden-shovel-rihanna-audio-only", "field_author": "<a href=\"/poet/evie-shockley\" hreflang=\"und\">Evie Shockley</a>", "field_date_published": "2013", "body": " <p>\u00a0</p><p>Click the icon above to listen to this audio poem.</p> "}, {"title": "question marks (audio only)", "view_node": "/poem/question-marks-audio-only", "field_author": "<a href=\"/poet/evie-shockley\" hreflang=\"und\">Evie Shockley</a>", "field_date_published": "2013", "body": " <p>\u00a0</p><p>Click the icon above to listen to this audio poem.</p> "}, {"title": "philosophically immune (audio only)", "view_node": "/poem/philosophically-immune-audio-only", "field_author": "<a href=\"/poet/evie-shockley\" hreflang=\"und\">Evie Shockley</a>", "field_date_published": "2013", "body": " <p>\u00a0</p><p>Click the icon above to listen to this audio poem.</p> "}, {"title": "mirror and canvas (audio only)", "view_node": "/poem/mirror-and-canvas-audio-only", "field_author": "<a href=\"/poet/evie-shockley\" hreflang=\"und\">Evie Shockley</a>", "field_date_published": "2013", "body": " <p>\u00a0</p><p>Click the icon above to listen to this audio poem.</p> "}, {"title": "Holding Posture", "view_node": "/poem/holding-posture", "field_author": "<a href=\"/poet/howard-altmann\" hreflang=\"und\">Howard Altmann</a>", "field_date_published": "2014", "body": " <p>History sits on a chair<br />in a room without windows.<br />Mornings it searches for a door,<br />afternoons it naps.<br />At the stroke of midnight,<br />it stretches its body and sighs.<br />It keeps time and loses time,<br />knows its place and doesn\u2019t know its place.<br />Sometimes it considers the chair a step,<br />sometimes it believes the chair is not there.<br />To corners it never looks the same.<br />Under a full moon it holds its own.<br />History sits on a chair<br />in a room above our houses.</p> "}, {"title": "A Home in the Country", "view_node": "/poem/home-country", "field_author": "<a href=\"/poet/james-allen-hall\" hreflang=\"und\">James Allen Hall</a>", "field_date_published": "2014", "body": " <p>Down on Comegys Road, two miles<br />from the Rifle Club that meets Wednesdays,<br />summer to fall, firing into a blackness<br />they call night but I know is a body,<br />in unpaved Kennedyville, not far<br />from the Bight, on five acres of green<br />organic farm, next to the algaed pond<br />that yields the best fishing in all of Kent County<br />(my neighbor says it is a <em>lingering</em> death I deal<br />the trout when he sees me throw the small<br />bodies back), down where the commonest<br />cars are tractors and hayfetchers, and men<br />wave as they pass, briefly bowing a gentleman\u2019s<br />straw hat, you can find the wood cabin<br />where I live, infested with stink bugs.\u00a0<br />Every day, my boyfriend asks the <em>murder count</em>,<br />making light of my hatred. Even reading I sit,<br />swatter poised on the couch\u2019s arm,<br />all the windows closed, fans off, the whole house<br />listening for the <em>thwat</em> of stink alighting<br />smartly on sun-warmed glass, their soft-backed<br />geometric carapaces calling to be stopped.\u00a0<br />I did not grow up like this, here<br />on Maryland\u2019s Eastern Shore, but I am most<br />at home now I live with something inside to kill.\u00a0</p> "}, {"title": "Mist Everywhere", "view_node": "/poem/mist-everywhere", "field_author": "<a href=\"/poet/nate-pritts\" hreflang=\"und\">Nate Pritts</a>", "field_date_published": "2014", "body": " <p>When the afternoon light<br />touches the broad orange petals<br />of the tiger lilies, mute tongues<br />curled, I pray hard<br />for such joyous sights to continue.</p><p>But I pray wrong, selfishly.<br />I don\u2019t know where the words<br />are going.\u00a0</p><p>\u00a0 \u00a0 \u00a0 \u00a0 \u00a0 \u00a0 \u00a0 \u00a0 \u00a0 \u00a0I struggle to recall<br />even the names of my old friends.</p><p>When I remember, I try<br />to search them out but I don\u2019t<br />have any illusions about their lives.</p><p>It rained last night &amp; all day today<br />so the lake I can\u2019t quite see<br />over the tree line is pure frothy white.</p><p>There is mist everywhere<br />&amp; I am alone in it.\u00a0</p><p>\u00a0 \u00a0 \u00a0 \u00a0 \u00a0 \u00a0 \u00a0 \u00a0 \u00a0 \u00a0 \u00a0 \u00a0 \u00a0 \u00a0 \u00a0 \u00a0 \u00a0 The white light<br />burns my eyes, sears a holy purpose<br />in my human frame.\u00a0<br />\u00a0 \u00a0 \u00a0 \u00a0 \u00a0 \u00a0 \u00a0 \u00a0 \u00a0 \u00a0 \u00a0 \u00a0 \u00a0 \u00a0 \u00a0 \u00a0 \u00a0 \u00a0 \u00a0 \u00a0I\u2019m setting out<br />on a new journey, ever faithful.<br /><br />Early on, I walked away<br />from everything, from things I loved.</p><p>But now, when I come to the ocean,<br />as I know I will, foaming<br />like some impossible hell,<br />I won\u2019t despair or surrender.</p><p>I\u2019ll find a tree, growing from a crag<br />on the shore &amp; I\u2019ll cut it down<br />with the force of my loneliness.\u00a0</p><p>There is the shape of a boat<br />hidden beneath the bark,<br />I know it.</p><p>\u00a0 \u00a0 \u00a0 \u00a0 \u00a0 \u00a0 \u00a0 \u00a0 \u00a0 So I\u2019ll release it,<br />using my most tender memories<br />as tools. I\u2019ll continue.\u00a0</p><p>\u00a0 \u00a0 \u00a0 \u00a0 \u00a0 \u00a0 \u00a0 \u00a0 \u00a0 \u00a0 \u00a0 \u00a0 \u00a0 \u00a0 \u00a0 \u00a0 \u00a0 \u00a0 \u00a0 \u00a0 \u00a0Nothing<br />will block my way.<br />\u00a0</p> "}, {"title": "Called", "view_node": "/poem/called", "field_author": "<a href=\"/poet/lisa-gluskin-stonestreet\" hreflang=\"en\">Lisa Gluskin Stonestreet</a>", "field_date_published": "2014", "body": " <p>and I go</p><p>down into it, the hall again<br />(streetlights, blinds)</p><p>all the same all the dark</p><p>down into it and do what must be done<br />with my body, with the patience<br />that I do not have</p><p>fellow sufferer, fellow sleeper, not-</p><p>sleeper, seeker</p><p>night boat, little sail</p><p>in the slow air in the rounded dark<br />inside the broken night</p><p>rudderless\u00a0\u00a0 elliptical</p><p>in the stitched-together minute</p><p>minute</p><p>minute</p><p>365 x night x 8 \u00a0 \u00a0 \u00a0 \u00a0 \u00a0 \u00a0 \u00a0 \u00a0 \u00a0 \u00a0 \u00a0 \u00a0 \u00a0 \u00a0(new)</p><p>x 4<br />x 2<br />x 8 again \u00a0 \u00a0 \u00a0 \u00a0 \u00a0 \u00a0 \u00a0 \u00a0 \u00a0 \u00a0 \u00a0 \u00a0 \u00a0 \u00a0 \u00a0 \u00a0 \u00a0 \u00a0 \u00a0(despair, iron)<br />x 2</p><p>x 1, x occasional, x rarity \u00a0 \u00a0 \u00a0 \u00a0(fever, monsters, light)</p><p>= now</p><p>= again</p><p>once<br />\u00a0</p> "}, {"title": "Love", "view_node": "/poem/love-3", "field_author": "<a href=\"/poet/william-carlos-williams\" hreflang=\"und\">William Carlos Williams</a>", "field_date_published": "2014", "body": " <p>Love is twain, it is not single,<br />Gold and silver mixed to one,<br />Passion \u2018tis and pain which mingle<br />Glist\u2019ring then for aye undone.</p><p>Pain it is not; wondering pity<br />Dies or e\u2019er the pang is fled;<br />Passion \u2018tis not, foul and gritty,<br />Born one instant, instant dead.</p><p>Love is twain, it is not single,<br />Gold and silver mixed to one,<br />Passion \u2018tis and pain which mingle<br />Glist\u2019ring then for aye undone.</p> "}, {"title": "When Eyes Are on Me (audio only)", "view_node": "/poem/when-eyes-are-me-audio-only", "field_author": "<a href=\"/poet/yusef-komunyakaa\" hreflang=\"und\">Yusef Komunyakaa</a>", "field_date_published": "2011", "body": " <p>\u00a0</p><p>Click the icon above to listen to this audio poem.</p> "}, {"title": "Ode to a Drum (audio only)", "view_node": "/poem/ode-drum-audio-only", "field_author": "<a href=\"/poet/yusef-komunyakaa\" hreflang=\"und\">Yusef Komunyakaa</a>", "field_date_published": "2011", "body": " <p>\u00a0</p><p>Click the icon above to listen to this audio poem.</p> "}, {"title": "Grenade (audio only)", "view_node": "/poem/grenade-audio-only", "field_author": "<a href=\"/poet/yusef-komunyakaa\" hreflang=\"und\">Yusef Komunyakaa</a>", "field_date_published": "2011", "body": " <p>\u00a0</p><p>Click the icon above to listen to this audio poem.</p> "}, {"title": "Anodyne (audio only)", "view_node": "/poem/anodyne-audio-only", "field_author": "<a href=\"/poet/yusef-komunyakaa\" hreflang=\"und\">Yusef Komunyakaa</a>", "field_date_published": "2011", "body": " <p>\u00a0</p><p>Click the icon above to listen to this audio poem.</p> "}], "pager": {"current_page": 393, "total_items": "13248", "total_pages": 663, "items_per_page": 20}}