{"rows": [{"title": "The dandelions in the moment and then", "view_node": "/poem/dandelions-moment-and-then", "field_author": "<a href=\"/poet/cj-evans\" hreflang=\"und\">CJ Evans</a>", "field_date_published": "2015", "body": " <p>It is. And needles don\u2019t fall;<br />cones don\u2019t fall. The soil keeps</p><p>holding the grass seed and the dune<br />sand beneath is still torn by thirsty,</p><p>wooden hands. By bedrock<br />is where will be my tenoned pine.</p><p>And the grass seeds don\u2019t split,<br />their shoots don\u2019t spill. The clouds</p><p>remain, widely. That locked closet<br />inside will never have its tumblers</p><p>turned. Honestly, all I had<br />was the only lie\u2014that I could be</p><p>the one who evades. Sparrows<br />don\u2019t fall, no owl falls. Left behind</p><p>are her thin hands, a box full<br />of ribbons, a bolt, a knife.</p><p>Photographs with anybody\u2019s faces.<br />Hungry letters, angry letters about</p><p>a time and people and love that is<br />not. No image holds its meaning</p><p>within itself. Not one dandelion fell.<br />Please. Something did happen here.</p> "}, {"title": "Animal / Anima", "view_node": "/poem/animal-anima", "field_author": "<a href=\"/poet/martha-collins\" hreflang=\"und\">Martha Collins</a>", "field_date_published": "2015", "body": " <p style=\"text-align: center;\"><br />all of us\u00a0\u00a0\u00a0\u00a0 all but us\u00a0\u00a0\u00a0\u00a0 only</p><p style=\"text-align: center;\">(but not us) the mammals\u00a0\u00a0\u00a0\u00a0 or only</p><p style=\"text-align: center;\">us: <em>animal in us</em>\u00a0\u00a0\u00a0\u00a0 or only</p><p style=\"text-align: center;\">the male of us:\u00a0\u00a0\u00a0\u00a0 <em>brute</em></p><p style=\"text-align: center;\">\u00a0</p><p style=\"text-align: center;\">no <em>animals\u00a0\u00a0\u00a0\u00a0 </em>in the Bible</p><p style=\"text-align: center;\">only <em>beasts\u00a0\u00a0\u00a0\u00a0 </em>as\u00a0 <em>of the field</em></p><p style=\"text-align: center;\">not <em>us</em>:\u00a0\u00a0\u00a0\u00a0 it says\u00a0\u00a0\u00a0 <em>breathed</em></p><p style=\"text-align: center;\"><em>into\u00a0\u00a0\u00a0\u00a0 in our image\u00a0\u00a0\u00a0\u00a0 of the dust</em></p><p style=\"text-align: center;\">\u00a0</p><p style=\"text-align: center;\"><em>anima </em>breath\u00a0\u00a0\u00a0\u00a0 to <em>anima</em></p><p style=\"text-align: center;\">soul\u00a0\u00a0\u00a0\u00a0 but all animals</p><p style=\"text-align: center;\">breathe the\u00a0\u00a0\u00a0\u00a0 same\u00a0\u00a0\u00a0\u00a0 one</p><p style=\"text-align: center;\">long song\u00a0\u00a0\u00a0\u00a0 the same\u00a0\u00a0\u00a0\u00a0 air<br />\u00a0</p> "}, {"title": "from Life in a Box is a Pretty Life", "view_node": "/poem/life-box-pretty-life", "field_author": "<a href=\"/poet/dawn-lundy-martin\" hreflang=\"und\">Dawn Lundy Martin</a>", "field_date_published": "2015", "body": " <p>Lake, interminable. I do not know where my house is. Where is my house? Summer steams by. Every border is cocked and ready. Flatten body against cool earth. Lie without sound. Be a cool corpse under wire teeth. The police are so young. They do not hear the wailing. Wailing, I\u2019m told, is a figment of your imagination. What to know of the body\u2019s refusal to open, of its hidden cave? Put the cave inside another cave so no one can reach it. Perspiration aches. Strain against dirt walls. I have come to you from a metal house. We had steel barriers to protect us from the sun. The lake drifts into forever. Windows here are small and I cannot see myself in them. What it is to be captured without spoons.\u00a0</p> "}, {"title": "Serenity", "view_node": "/poem/serenity", "field_author": "<a href=\"/poet/edward-rowland-sill\" hreflang=\"en\">Edward Rowland  Sill</a>", "field_date_published": "1868", "body": " <p>Brook,<br />Be still,\u2014be still!<br />Midnight\u2019s arch is broken<br />In thy ceaseless ripples.<br />Dark and cold below them<br />Runs the troubled water,\u2014<br />Only on its bosom,<br />Shimmering and trembling,<br />Doth the glinted star-shine<br />\u00a0 \u00a0 \u00a0 \u00a0 \u00a0 \u00a0 \u00a0 \u00a0 \u00a0 Sparkle and cease.</p><p>\u00a0 \u00a0 \u00a0 \u00a0 \u00a0 \u00a0 \u00a0 \u00a0 \u00a0 Life,<br />Be still,\u2014be still!<br />Boundless truth is shattered<br />On thy hurrying current.<br />Rest, with face uplifted,<br />Calm, serenely quiet;<br />Drink the deathless beauty\u2014<br />Thrills of love and wonder<br />Sinking, shining, star-like;<br />Till the mirrored heaven<br />Hollow down within thee<br />Holy deeps unfathomed,<br />Where far thoughts go floating,<br />And low voices wander<br />\u00a0 \u00a0 \u00a0 \u00a0 \u00a0 \u00a0 \u00a0 Whispering peace.<br />\u00a0</p> "}, {"title": "For Telly the Fish", "view_node": "/poem/telly-fish", "field_author": "<a href=\"/poet/toi-derricotte\" hreflang=\"und\">Toi Derricotte</a>", "field_date_published": "2011", "body": " <p>Telly\u2019s favorite artist was Alice Neel.<br />When he first came to my house,<br />I propped up her bright yellow shade with open<br />window &amp; a vase of flowers (postcard size)<br />behind his first fish bowl. I thought<br />it might give him something<br />to look at, like the center<br />of a house you keep coming<br />back to, a hearth, a root<br />for your eye. It was a<br />wondering in me that came up with that<br />thought, a kind of empathy<br />across my air &amp; through his<br />water, maybe the first<br />word I cast out between us<br />in case he could<br />hear. Telly would stare at that painting<br />for hours, hanging there with his glassy<br />eyes wide<br />open. At night he wanted the<br />bottom, as if it were a warm<br />bed, he\u2019d lay there<br />sort of dreaming, his eyes<br />gray &amp; dim &amp;<br />thoughtless. For months he came back<br />to her, the way a critic or lover<br />can build a whole<br />life on the study of one<br />great work. I don\u2019t know why<br />he stopped, maybe it was when<br />he first noticed<br />me, the face above my hand<br />feeding for, sometimes, when I\u2019d set the food<br />on top, he\u2019d still watch me, eye<br />to eye, as if saying, food<br />isn\u2019t enough. Once, when I<br />bent, he jumped up out of the water &amp; kissed<br />my lips. What is a fish\u2019s kiss like?<br />You\u2019d think it would be<br />cold, slimy, but it was<br />quick, nippy, hard. Maybe it was just<br />what I expected. For all<br />our fears of<br />touch, it takes so long<br />to learn how to take in.</p><p><br />When he stopped coming<br />to the top, I guess I did all the wrong<br />things\u2014the fish medicine<br />that smelled, measured<br />carefully for his ounce of weight\u2014<br />for his gills worked<br />so hard &amp; he lay still,<br />tipped over slightly<br />like a dead boat.<br />How do you stop the hurt<br />of having to breathe?</p><p><br />After, I took him to the middle of the<br />yellow bridge right near the<br />Andy Warhol museum\u2014<br />I had put a paper towel<br />in a painted egg &amp; laid him in it\u2014<br />&amp;, at the top,<br />I opened the casket &amp; emptied him out<br />into the water.</p> "}, {"title": "Rune of the Finland Woman", "view_node": "/poem/rune-finland-woman", "field_author": "<a href=\"/poet/marilyn-hacker\" hreflang=\"und\">Marilyn Hacker</a>", "field_date_published": "1994", "body": " <p><br />\u00a0\u00a0\u00a0\u00a0\u00a0\u00a0\u00a0\u00a0\u00a0\u00a0\u00a0\u00a0\u00a0\u00a0\u00a0\u00a0\u00a0\u00a0\u00a0\u00a0<em>\u00a0\u00a0\u00a0\u00a0\u00a0\u00a0\u00a0\u00a0\u00a0\u00a0\u00a0\u00a0\u00a0\u00a0 For S\u00e1ra Karig</em></p><p><em>\"You are so wise,\" the reindeer said, \"you can bind the winds of the world in a single strand.\"</em><br />\u00a0\u00a0\u00a0\u00a0\u00a0\u00a0\u00a0\u00a0\u00a0\u00a0\u00a0\u00a0\u00a0\u00a0\u00a0\u00a0\u00a0\u00a0\u00a0\u00a0\u00a0\u00a0\u00a0\u00a0\u00a0\u00a0\u00a0\u00a0\u00a0\u00a0\u00a0\u00a0\u00a0\u00a0\u00a0\u00a0 H. C. Andersen, \"The Snow Queen\"</p><p>She could bind the world's winds in a single strand.<br />She could find the world's words in a singing wind.<br />She could lend a weird will to a mottled hand.<br />She could wind a willed word from a muddled mind.</p><p>She could wend the wild woods on a saddled hind.<br />She could sound a wellspring with a rowan wand.<br />She could bind the wolf's wounds in a swaddling band.<br />She could bind a banned book in a silken skin.</p><p>She could spend a world war on invaded land.<br />She could pound the dry roots to a kind of bread.<br />She could feed a road gang on invented food.<br />She could find the spare parts of the severed dead.</p><p>She could find the stone limbs in a waste of sand.<br />She could stand the pit cold with a withered lung.<br />She could handle bad puns in the slang she learned.<br />She could dandle foundlings in their mother tongue.</p><p>She could plait a child's hair with a fishbone comb.<br />She could tend a coal fire in the Arctic wind.<br />She could mend an engine with a sewing pin.<br />She could warm the dark feet of a dying man.</p><p>She could drink the stone soup from a doubtful well.<br />She could breathe the green stink of a trench latrine.<br />She could drink a queen's share of important wine.<br />She could think a few things she would never tell.</p><p>She could learn the hand code of the deaf and blind.<br />She could earn the iron keys of the frozen queen.<br />She could wander uphill with a drunken friend.<br />She could bind the world's winds in a single strand.</p><p>\u00a0</p> "}, {"title": "Like Hearing Your Name Called in a Language You Don\u2019t Understand", "view_node": "/poem/hearing-your-name-called-language-you-dont-understand", "field_author": "<a href=\"/poet/c-d-wright\" hreflang=\"und\">C. D. Wright</a>", "field_date_published": "2008", "body": " <p>Since the day the bell was cast</p><p>I have sat in the bishop\u2019s carved chair and waited my turn</p><p>with my feet crossed at the ankles, and the leather of my huaraches</p><p>cutting into the hide of my foot.</p><p>From where I was sitting I watched the light being drawn off</p><p>the magnolias in the Plaza de Armas</p><p>while the voices of the others choired an evening.</p><p>I have risen to the lectern when the eyes of the host summoned.</p><p>I faced the great open doors as the faces of strangers<br />acknowledged their own losses.</p><p>I saw the white trousers of the vendor flapping in the dust</p><p>his body engulfed in balloons,</p><p>the children selling Chiclets dispersed;</p><p>the shoe shine boy putting away his brushes, the sum of his inheritance.</p><p>I have read what was written there, said, Gracias, and sat down again.</p><p>I have climbed the pyramidal steps and felt winded and humbled.</p><p>I have stood small and borracha and been glad<br />of not being thrown down the barranca alongside the pariah consul<br />in the celebrated book.</p><p>In every sense have I felt lonelier than a clod of clay, a whip, a bolsa,<br />a skull of chocolate.</p><p>I have been lured my host\u2019s pellucid face and the blue salvia<br />where the rooster is buried.</p><p><br />Though I have worn the medal of the old town with forlorn pleasure<br />I say unto you:</p><p><br />\u00a0\u00a0\u00a0\u00a0 Comrades, be not in mourning for your being</p><p>\u00a0\u00a0\u00a0\u00a0 To express happiness and expel scorpions is the best job on earth.</p><p>\u00a0</p> "}, {"title": "How Do I Know When a Poem Is Finished?", "view_node": "/poem/how-do-i-know-when-poem-finished", "field_author": "<a href=\"/poet/naomi-shihab-nye\" hreflang=\"und\">Naomi Shihab Nye</a>", "field_date_published": "2008", "body": "<p><span class=\"long-line\">When you quietly close</span><br /><span class=\"long-line\">the door to a room</span><br /><span class=\"long-line\">the room is not finished.</span></p>\n\n<p><span class=\"long-line\">It is resting. Temporarily.</span><br /><span class=\"long-line\">Glad to be without you</span><br /><span class=\"long-line\">for a while.</span></p>\n\n<p><span class=\"long-line\">Now it has time to gather</span><br /><span class=\"long-line\">its balls of gray dust,</span><br /><span class=\"long-line\">to pitch them from corner to corner.</span></p>\n\n<p><span class=\"long-line\">Now it seeps back into itself,</span><br /><span class=\"long-line\">unruffled and proud.</span><br /><span class=\"long-line\">Outlines grow firmer.</span></p>\n\n<p><span class=\"long-line\">When you return,</span><br /><span class=\"long-line\">you might move the stack of books,</span><br /><span class=\"long-line\">freshen the water for the roses.</span></p>\n\n<p><span class=\"long-line\">I think you could keep doing this</span><br /><span class=\"long-line\">forever. But the blue chair looks best</span><br /><span class=\"long-line\">with the red pillow. So you might as well</span></p>\n\n<p><span class=\"long-line\">leave it that way.</span></p>\n"}, {"title": "The Chance", "view_node": "/poem/chance-0", "field_author": "<a href=\"/poet/arthur-sze\" hreflang=\"und\">Arthur Sze</a>", "field_date_published": "1998", "body": "<p><span class=\"long-line\">\u00a0\u00a0The blue-black mountains are etched</span><br /><span class=\"long-line\">\u00a0\u00a0 with ice. I drive south in fading light.</span><br /><span class=\"long-line\">\u00a0\u00a0 The lights of my car set out before</span><br /><span class=\"long-line\">\u00a0\u00a0 me, and disappear before my very eyes.</span><br /><span class=\"long-line\">\u00a0\u00a0 And as I approach thirty, the distances</span><br /><span class=\"long-line\">\u00a0\u00a0 are shorter than I guess? The mind</span><br /><span class=\"long-line\">\u00a0\u00a0 travels at the speed of light. But for</span><br /><span class=\"long-line\">\u00a0\u00a0 how many people are the passions</span><br /><span class=\"long-line\">\u00a0\u00a0 ironwood, ironwood that hardens and hardens?</span><br /><span class=\"long-line\">\u00a0\u00a0 Take the ex-musician, insurance salesman,</span><br /><span class=\"long-line\">\u00a0\u00a0 who sells himself a policy on his own life;</span><br /><span class=\"long-line\">\u00a0\u00a0 or the magician who has himself locked</span><br /><span class=\"long-line\">\u00a0\u00a0 in a chest and thrown into the sea,</span><br /><span class=\"long-line\">\u00a0\u00a0 only to discover he is caught in his own chains.</span><br /><span class=\"long-line\">\u00a0\u00a0 I want a passion that grows and grows.</span><br /><span class=\"long-line\">\u00a0\u00a0 To feel, think, act, and be defined</span><br /><span class=\"long-line\">\u00a0\u00a0 by your actions, thoughts, feelings.</span><br /><span class=\"long-line\">\u00a0\u00a0 As in the bones of a hand in an X-ray,</span><br /><span class=\"long-line\">\u00a0\u00a0 I want the clear white light to work</span><br /><span class=\"long-line\">\u00a0\u00a0 against the fuzzy blurred edges of the darkness:</span><br /><span class=\"long-line\">\u00a0\u00a0 even if the darkness precedes and follows</span><br /><span class=\"long-line\">\u00a0\u00a0 us, we have a chance, briefly, to shine.</span></p>\n"}, {"title": "The Orange Flower (audio only)", "view_node": "/poem/orange-flower-audio-only", "field_author": "<a href=\"/poet/dorothea-lasky\" hreflang=\"und\">Dorothea Lasky</a>", "field_date_published": "2014", "body": " <p>\u00a0</p><p>Click the icon above to listen to this audio poem.</p> "}, {"title": "The Minotaur (audio only)", "view_node": "/poem/minotaur-audio-only", "field_author": "<a href=\"/poet/dorothea-lasky\" hreflang=\"und\">Dorothea Lasky</a>", "field_date_published": "2014", "body": " <p>\u00a0</p><p>Click the icon above to listen to this audio poem.</p> "}, {"title": "Porn (audio only)", "view_node": "/poem/porn-audio-only", "field_author": "<a href=\"/poet/dorothea-lasky\" hreflang=\"und\">Dorothea Lasky</a>", "field_date_published": "2014", "body": " <p>\u00a0</p><p>Click the icon above to listen to this audio poem.</p> "}, {"title": "Never Did Amount to Anything (audio only)", "view_node": "/poem/never-did-amount-anything-audio-only", "field_author": "<a href=\"/poet/dorothea-lasky\" hreflang=\"und\">Dorothea Lasky</a>", "field_date_published": "2014", "body": " <p>\u00a0</p><p>Click the icon above to listen to this audio poem.</p> "}, {"title": "It&#039;s Only a Paper Moon (audio only)", "view_node": "/poem/its-only-paper-moon-audio-only", "field_author": "<a href=\"/poet/dorothea-lasky\" hreflang=\"und\">Dorothea Lasky</a>", "field_date_published": "2014", "body": " <p>\u00a0</p><p>Click the icon above to listen to this audio poem.</p> "}, {"title": "I Remember in the Morning (audio only)", "view_node": "/poem/i-remember-morning-audio-only", "field_author": "<a href=\"/poet/dorothea-lasky\" hreflang=\"und\">Dorothea Lasky</a>", "field_date_published": "2014", "body": " <p>\u00a0</p><p>Click the icon above to listen to this audio poem.</p> "}, {"title": "Diet Mountain Dew (audio only)", "view_node": "/poem/diet-mountain-dew-audio-only", "field_author": "<a href=\"/poet/dorothea-lasky\" hreflang=\"und\">Dorothea Lasky</a>", "field_date_published": "2014", "body": " <p>\u00a0</p><p>Click the icon above to listen to this audio poem.</p> "}, {"title": "Depression (audio only)", "view_node": "/poem/depression-audio-only", "field_author": "<a href=\"/poet/dorothea-lasky\" hreflang=\"und\">Dorothea Lasky</a>", "field_date_published": "2014", "body": " <p>\u00a0</p><p>Click the icon above to listen to this audio poem.</p> "}, {"title": "Complainers (audio only)", "view_node": "/poem/complainers-audio-only", "field_author": "<a href=\"/poet/dorothea-lasky\" hreflang=\"und\">Dorothea Lasky</a>", "field_date_published": "2014", "body": " <p>\u00a0</p><p>Click the icon above to listen to this audio poem.</p> "}, {"title": "The Dream of a Pillow (audio only)", "view_node": "/poem/dream-pillow-audio-only", "field_author": "<a href=\"/poet/kimiko-hahn\" hreflang=\"und\">Kimiko Hahn</a>", "field_date_published": "2014", "body": " <p>\u00a0</p><p>Click the icon above to listen to this audio poem.</p> "}, {"title": "The Dream of a Little Occupied Japan Doll (audio only)", "view_node": "/poem/dream-little-occupied-japan-doll-audio-only", "field_author": "<a href=\"/poet/kimiko-hahn\" hreflang=\"und\">Kimiko Hahn</a>", "field_date_published": "2014", "body": " <p>\u00a0</p><p>Click the icon above to listen to this audio poem.</p> "}], "pager": {"current_page": 383, "total_items": "13248", "total_pages": 663, "items_per_page": 20}}