{"rows": [{"title": "In the Still, Star-Lit Night", "view_node": "/poem/still-star-lit-night", "field_author": "<a href=\"/poet/elizabeth-drew-stoddard\" hreflang=\"en\">Elizabeth Drew  Stoddard</a>", "field_date_published": "2017", "body": " <p>\u00a0\u00a0\u00a0\u00a0 In the still, star-lit night,<br />By the full fountain and the willow-tree,<br />\u00a0\u00a0\u00a0\u00a0 I walked, and not alone\u2014<br />A spirit walked with me!<br /><br />\u00a0\u00a0\u00a0\u00a0 A shade fell on the grass;<br />Upon the water fell a deeper shade:<br />\u00a0\u00a0\u00a0\u00a0 Something the willow stirred,<br />For to and fro it swayed.<br /><br />\u00a0 \u00a0\u00a0\u00a0The grass was in a quiver,<br />The water trembled, and the willow-tree<br />\u00a0\u00a0\u00a0\u00a0 Sighed softly; I sighed loud\u2014<br />The spirit taunted me.<br /><br />\u00a0\u00a0\u00a0\u00a0 All the night long I walked<br />By the full fountain, dropping icy tears;<br />\u00a0\u00a0\u00a0\u00a0 I tore the willow leaves,<br />I tore the long, green spears!<br /><br />\u00a0\u00a0\u00a0\u00a0 I clutched the quaking grass,<br />And beat the rough bark of the willow-tree;<br />\u00a0\u00a0\u00a0\u00a0 I shook the wreath\u00e8d boughs,<br />To make the spirit flee.<br /><br />\u00a0\u00a0\u00a0\u00a0 It haunted me till dawn,<br />By the full fountain and the willow-tree;<br />\u00a0\u00a0\u00a0\u00a0 For with myself I walked\u2014<br />How could the spirit flee?\u00a0\u00a0</p> "}, {"title": "March", "view_node": "/poem/march", "field_author": "<a href=\"/poet/elizabeth-drew-stoddard\" hreflang=\"en\">Elizabeth Drew  Stoddard</a>", "field_date_published": "2017", "body": " <p>Ho, wind of March, speed over sea,<br />\u00a0\u00a0\u00a0\u00a0 From mountains where the snows lie deep<br />\u00a0\u00a0\u00a0\u00a0 The cruel glaciers threatening creep,<br />And witness this, my jubilee!<br /><br />Roar from the surf of boreal isles,<br />\u00a0\u00a0\u00a0\u00a0 Roar from the hidden, jagged steeps,<br />\u00a0\u00a0\u00a0\u00a0 Where the destroyer never sleeps;<br />Ring through the iceberg\u2019s Gothic piles!<br /><br />Voyage through space with your wild train,<br />\u00a0\u00a0\u00a0\u00a0 Harping its shrillest, searching tone,<br />\u00a0\u00a0\u00a0\u00a0 Or wailing deep its ancient moan,<br />And learn how impotent your reign.<br /><br />Then hover by this garden bed,<br />\u00a0\u00a0\u00a0\u00a0 With all your willful power, behold,<br />\u00a0\u00a0\u00a0\u00a0 Just breaking from the leafy mould,<br />My little primrose lift its head!</p> "}, {"title": "Christmas Comes Again", "view_node": "/poem/christmas-comes-again", "field_author": "<a href=\"/poet/elizabeth-drew-stoddard\" hreflang=\"en\">Elizabeth Drew  Stoddard</a>", "field_date_published": "2017", "body": " <p>Let me be merry now, \u2019t is time;<br />\u00a0\u00a0\u00a0\u00a0 The season is at hand<br />For Christmas rhyme and Christmas chime,<br />\u00a0\u00a0\u00a0\u00a0 Close up, and form the band.<br /><br />The winter fires still burn as bright,<br />\u00a0\u00a0\u00a0\u00a0 The lamp-light is as clear,<br />And since the dead are out of sight,<br />\u00a0\u00a0\u00a0\u00a0 What hinders Christmas cheer?<br /><br />Why think or speak of that abyss<br />\u00a0\u00a0\u00a0\u00a0 In which lies all my Past?<br />High festival I need not miss,<br />\u00a0\u00a0\u00a0\u00a0 While song and jest shall last.<br /><br />We\u2019ll clink and drink on Christmas Eve,<br />\u00a0\u00a0\u00a0\u00a0 Our ghosts can feel no wrong;<br />They revelled ere they took their leave\u2014<br />\u00a0\u00a0\u00a0\u00a0 Hearken, my Soldier\u2019s Song:<br /><br />\u201cThe morning air doth coldly pass,<br />Comrades, to the saddle spring;<br />The night more bitter cold will bring<br />Ere dying\u2014ere dying.<br />Sweetheart, come, the parting glass;<br />Glass and sabre, clash, clash, clash,<br />Ere dying\u2014ere dying.<br />Stirrup-cup and stirrup-kiss\u2014<br />Do you hope the foe we\u2019ll miss,<br />Sweetheart, for this loving kiss,<br />Ere dying\u2014ere dying?\u201d<br /><br />The feasts and revels of the year<br />\u00a0\u00a0\u00a0\u00a0 Do ghosts remember long?<br />Even in memory come they here?<br />\u00a0\u00a0\u00a0\u00a0 Listen, my Sailor\u2019s song:<br /><br />\u201cO my hearties. yo heave ho!<br />Anchor\u2019s up in Jolly Bay\u2014<br />Hey!<br />Pipes and swipes, hob and nob\u2014<br />Hey!<br />Mermaid Bess and Dolphin Meg,<br />Paddle over Jolly Bay\u2014<br />Hey!<br />Tars, haul in for Christmas Day,<br />For round the \u2019varsal deep we go;<br />Never church, never bell,<br />For to tell<br />Of Christmas Day.<br />Yo heave ho, my hearties O!<br />Haul in, mates, here we lay\u2014<br />Hey!\u201d<br /><br />His sword is rusting in its sheath,<br />\u00a0\u00a0\u00a0\u00a0 His flag furled on the wall;<br />We\u2019ll twine them with a holly-wreath,<br />\u00a0\u00a0\u00a0\u00a0 With green leaves cover all.<br /><br />So clink and drink when falls the eve;<br />\u00a0\u00a0\u00a0\u00a0 But, comrades, hide from me<br />Their graves\u2014I would not see them heave<br />\u00a0\u00a0\u00a0\u00a0 Beside me, like the sea.<br /><br />Let not my brothers come again,<br />\u00a0\u00a0\u00a0\u00a0 As men dead in their prime;<br />Then hold my hands, forget my pain,<br />\u00a0\u00a0\u00a0\u00a0 And strike the Christmas chime.</p> "}, {"title": "from \u201cHardly Opera\u201d ", "view_node": "/poem/hardly-opera", "field_author": "<a href=\"/poet/don-mee-choi\" hreflang=\"und\">Don Mee Choi</a>", "field_date_published": "2017", "body": " <p align=\"center\"><em>\u2014t\u00eate-\u00e0-t\u00eate of flowers\u2014</em></p><p align=\"center\"><em>(still at the ambassador\u2019s garden party in the middle of Seoul)</em></p><p align=\"center\"><em>ROSE OF SHARON</em></p><p align=\"center\">How do you do<br />Mr. Ambassador?</p><p align=\"center\"><em>\u00a0</em></p><p align=\"center\"><em>DECLASSIFIED FLOWER</em></p><p align=\"center\">How do you do?<br />Modern style?<br />I do</p><p align=\"center\">\u2014</p><p align=\"center\"><em>AZALEA</em></p><p align=\"center\">Overly ovaries!<br />General Kim<br />How do you do?</p><p align=\"center\">\u00a0</p><p align=\"center\"><em>ROSE OF SHARON</em></p><p align=\"center\">One shot!<br />No spots!<br />How many baby azaleas?</p><p align=\"center\">\u2014</p><p align=\"center\"><em>UPI FLOWER</em></p><p align=\"center\">Did something happen?<br />The world wants to know</p><p align=\"center\"><em>\u00a0</em></p><p align=\"center\"><em>ROSE OF SHARON</em></p><p align=\"center\">Syngman Rhee has left for Hawaii<br />Modern style of course!</p><p align=\"center\">\u2014</p><p align=\"center\"><em>UPI FLOWER</em></p><p align=\"center\">Do petals fall and bloom again?</p><p align=\"center\"><em>\u00a0</em></p><p align=\"center\"><em>UGLY FLOWER</em></p><p align=\"center\">Tell the world<br />We want<br />Coty powder!</p><p align=\"center\">\u2014</p><p align=\"center\"><em>CHERRY BLOSSOMS</em></p><p align=\"center\">O totally tether!<br />Does it tatter?</p><p align=\"center\"><em>\u00a0</em></p><p align=\"center\"><em>CLASSIFIED FLOWERS</em></p><p align=\"center\">O patter matter!<br />Do you batter?</p><p align=\"center\">\u2014</p><p align=\"center\"><em>BABY AZALEAS</em></p><p align=\"center\">O Coty potty!<br />Hoity naughty</p><p align=\"center\">\u00a0</p><p align=\"center\"><em>FORSYTHIAS</em></p><p align=\"center\">O pat her met her!<br />Does she natter?</p><p align=\"center\">\u2014</p><p align=\"center\"><em>ROSE OF SHARON</em></p><p align=\"center\">I\u2019d rather batter</p><p align=\"center\"><strong>\u00a0</strong></p><p align=\"center\"><em>BLUE HYDRANGEAS</em></p><p align=\"center\">Yes, ma\u2019am</p><p align=\"center\">\u2014<br /><em>\u2014end of t\u00eate-\u00e0-t\u00eate\u2014</em></p> "}, {"title": "A Little Menu", "view_node": "/poem/little-menu", "field_author": "<a href=\"/poet/don-mee-choi\" hreflang=\"und\">Don Mee Choi</a>", "field_date_published": "2017", "body": " <p align=\"center\">Wieners<br />Canned fruit<br />Crackers<br />Soluble coffee<br />Milk powder<br />Granulated sugar<br />Tin of jam<br />Cookie sandwich<br />Fudge<br />or<br />Radish Soup<br />Birthday Seaweed Soup<br />Pan-fried Spam with kimchi<br />Strictly lard<br />so<br />What did General Fatty eat?</p> "}, {"title": "from \u201cTwin Flower, Master, Emily\u201d", "view_node": "/poem/twin-flower-master-emily", "field_author": "<a href=\"/poet/don-mee-choi\" hreflang=\"und\">Don Mee Choi</a>", "field_date_published": "2017", "body": " <p>Dear Emily,</p><p>For poetry \u2013 I have you. One need not be a House \u2013 One need not be a Nation or a Master for that matter. Delicate and beautiful, common in rich mossy woods, in pairs, we live.\u00a0We are crimson-pink, particularly in the mountains. The rough terrain is not visible to many, but somewhat green and fatigued, demilitarized! A nod from far away is hollow.\u00a0True men \u2013 How shall I greet them? Nation building is kind and generous. It is common to decline it. Emily, Shall I \u2013 bloom?<br /><br />Yours, Twin Flower\u00a0\u00a0\u00a0</p> "}, {"title": "L [You say you are holy]", "view_node": "/poem/l-you-say-you-are-holy", "field_author": "<a href=\"/poet/stephen-crane\" hreflang=\"und\">Stephen Crane</a>", "field_date_published": "2017", "body": " <pre>You say you are holy,\nAnd that\nBecause I have not seen you sin.\nAye, but there are those\nWho see you sin, my friend.\n</pre>\n "}, {"title": "XLVI [Many red devils ran from my heart]", "view_node": "/poem/xlvi-many-red-devils-ran-my-heart", "field_author": "<a href=\"/poet/stephen-crane\" hreflang=\"und\">Stephen Crane</a>", "field_date_published": "2017", "body": " <pre>Many red devils ran from my heart\nAnd out upon the page,\nThey were so tiny\nThe pen could mash them.\nAnd many struggled in the ink.\nIt was strange\nTo write in this red muck\nOf things from my heart.\n</pre>\n "}, {"title": "XXXV [A man saw a ball of gold in the sky]", "view_node": "/poem/xxxv-man-saw-ball-gold-sky", "field_author": "<a href=\"/poet/stephen-crane\" hreflang=\"und\">Stephen Crane</a>", "field_date_published": "2017", "body": " <pre>A man saw a ball of gold in the sky; \nHe climbed for it, \nAnd eventually he achieved it\u2014\nIt was clay. \n\nNow this is the strange part: \nWhen the man went to the earth \nAnd looked again, \nLo, there was the ball of gold. \nNow this is the strange part: \nIt was a ball of gold. \nAye, by the heavens, it was a ball of gold.\n</pre>\n "}, {"title": "XXIX [Behold, from the land of the farther suns]", "view_node": "/poem/xxix-behold-land-farther-suns", "field_author": "<a href=\"/poet/stephen-crane\" hreflang=\"und\">Stephen Crane</a>", "field_date_published": "2017", "body": " <pre>Behold, from the land of the farther suns \nI returned. \nAnd I was in a reptile-swarming place, \nPeopled, otherwise, with grimaces, \nShrouded above in black impenetrableness. \nI shrank, loathing, \nSick with it. \nAnd I said to him, \n\u201cWhat is this?\u201d\nHe made answer slowly, \n\u201cSpirit, this is a world; \n\u201cThis was your home.\u201d</pre>\n "}, {"title": "XXVIII [\u201cTruth,&quot; said a traveller]", "view_node": "/poem/xxviii-truth-said-traveller", "field_author": "<a href=\"/poet/stephen-crane\" hreflang=\"und\">Stephen Crane</a>", "field_date_published": "2017", "body": " <pre>\u201cTruth,\" said a traveller, \n\u201cIs a rock, a mighty fortress; \n\u201cOften have I been to it, \n\u201cEven to its highest tower, \n\u201cFrom whence the world looks black.\u201d\n\n\u201cTruth,\" said a traveller, \n\u201cIs a breath, a wind, \n\u201cA shadow, a phantom; \n\u201cLong have I pursued it, \n\u201cBut never have I touched \n\u201cThe hem of its garment.\u201d\n\nAnd I believed the second traveller; \nFor truth was to me \nA breath, a wind, \nA shadow, a phantom, \nAnd never had I touched \nThe hem of its garment.\n</pre>\n "}, {"title": "Modern Love: XXXII", "view_node": "/poem/modern-love-xxxii", "field_author": "<a href=\"/poet/george-meredith\" hreflang=\"und\">George Meredith</a>", "field_date_published": "1909", "body": " <pre>Full faith I have she holds that rarest gift\nTo beauty, Common Sense. To see her lie\nWith her fair visage an inverted sky\nBloom-covered, while the underlids uplift,\nWould almost wreck the faith; but when her mouth\n(Can it kiss sweetly? sweetly!) would address\nThe inner me that thirsts for her no less,\nAnd has so long been languishing in drouth,\nI feel that I am matched; that I am man!\nOne restless corner of my heart of head,\nThat holds a dying something never dead,\nStill frets, though Nature giveth all she can.\nIt means, that woman is not, I opine,\nHer sex\u2019s antidote. Who seeks the asp\nFor serpent\u2019s biters? \u2019T would calm me could I clasp\nShrieking Bacchantes with their souls of wine!\n</pre>\n "}, {"title": "Modern Love: XXXI", "view_node": "/poem/modern-love-xxxi", "field_author": "<a href=\"/poet/george-meredith\" hreflang=\"und\">George Meredith</a>", "field_date_published": "1909", "body": " <pre>This golden head has wit in it. I live\nAgain, and a far higher life, near her.\nSome women like a young philosopher;\nPerchance because he is diminutive.\nFor woman\u2019s manly god must not exceed\nProportions of the natural nursing size.\nGreat poets and great sages draw no prize\nWith women: but the little lap-dog breed,\nWho can be hugged, or on a mantel-piece\nPerched up for adoration, these obtain\nHer homage. And of this we men are vain?\nOf this! \u2019T is ordered for the world\u2019s increase!\nSmall flattery! Yet she has that rare gift\nTo beauty, Common Sense. I am approved.\nIt is not half so nice as being loved,\nAnd yet I do prefer it. What\u2019s my drift?\n</pre>\n "}, {"title": "Modern Love: XXX", "view_node": "/poem/modern-love-xxx", "field_author": "<a href=\"/poet/george-meredith\" hreflang=\"und\">George Meredith</a>", "field_date_published": "1909", "body": "<p><span class=\"long-line\">What are we first? First, animals; and next</span><br /><span class=\"long-line\">Intelligences at a leap; on whom</span><br /><span class=\"long-line\">Pale lies the distant shadow of the tomb,</span><br /><span class=\"long-line\">And all that draweth on the tomb for text.</span><br /><span class=\"long-line\">Into which state comes Love, the crowning sun:</span><br /><span class=\"long-line\">Beneath whose light the shadow loses form.</span><br /><span class=\"long-line\">We are the lords of life, and life is warm.</span><br /><span class=\"long-line\">Intelligence and instinct now are one.</span><br /><span class=\"long-line\">But Nature says: \u2018My children most they seem</span><br /><span class=\"long-line\">When they least know me: therefore I decree</span><br /><span class=\"long-line\">That they shall suffer.\u2019 Swift doth young Love flee,</span><br /><span class=\"long-line\">And we stand wakened, shivering from our dream.</span><br /><span class=\"long-line\">Then if we study Nature we are wise.</span><br /><span class=\"long-line\">Thus do the few who live but with the day:</span><br /><span class=\"long-line\">The scientific animals are they.\u2014</span><br /><span class=\"long-line\">Lady, this is my sonnet to your eyes.</span></p>\n"}, {"title": "Modern Love: XXIX", "view_node": "/poem/modern-love-xxix", "field_author": "<a href=\"/poet/george-meredith\" hreflang=\"und\">George Meredith</a>", "field_date_published": "1909", "body": " <pre>Am I failing? For no longer can I cast\nA glory round about this head of gold.\nGlory she wears, but springing from the mould;\nNot like the consecration of the Past!\nIs my soul beggared? Something more than earth\nI cry for still: I cannot be at peace\nIn having Love upon a mortal lease.\nI cannot take the woman at her worth!\nWhere is the ancient wealth wherewith I clothed\nOur human nakedness, and could endow\nWith spiritual splendour a white brow\nThat else had grinned at me the fact I loathed?\nA kiss is but a kiss now! and no wave\nOf a great flood that whirls me to the sea.\nBut, as you will! we\u2019ll sit contentedly,\nAnd eat our pot of honey on the grave.\n</pre>\n "}, {"title": "Speakin\u2019 O\u2019 Christmas", "view_node": "/poem/speakin-o-christmas", "field_author": "<a href=\"/poet/paul-laurence-dunbar\" hreflang=\"und\">Paul Laurence Dunbar</a>", "field_date_published": "1922", "body": "<p>Breezes blowin\u2019 middlin\u2019 brisk,<br />\nSnow-flakes thro\u2019 the air a-whisk,<br />\nFallin\u2019 kind o\u2019 soft an\u2019 light,<br />\nNot enough to make things white,<br />\nBut jest sorter siftin\u2019 down<br />\nSo \u2019s to cover up the brown<br />\nOf the dark world\u2019s rugged ways<br />\n\u2019N\u2019 make things look like holidays.<br />\nNot smoothed over, but jest specked,<br />\nSorter strainin\u2019 fur effect,<br />\nAn\u2019 not quite a-gittin\u2019 through<br />\nWhat it started in to do.<br />\nMercy sakes! it does seem queer<br />\nChristmas day is \u2019most nigh here.<br />\nSomehow it don\u2019t seem to me<br />\nChristmas like it used to be,\u2014<br />\nChristmas with its ice an\u2019 snow,<br />\nChristmas of the long ago.<br />\nYou could feel its stir an\u2019 hum<br />\nWeeks an\u2019 weeks before it come;<br />\nSomethin\u2019 in the atmosphere<br />\nTold you when the day was near,<br />\nDid n\u2019t need no almanacs;<br />\nThat was one o\u2019 Nature\u2019s fac\u2019s.<br />\nEvery cottage decked out gay\u2014<br />\nCedar wreaths an\u2019 holly spray\u2014<br />\nAn\u2019 the stores, how they were drest,<br />\nTinsel tell you could n\u2019t rest;<br />\nEvery winder fixed up pat,<br />\nCandy canes, an\u2019 things like that;<br />\nNoah\u2019s arks, an\u2019 guns, an\u2019 dolls,<br />\nAn\u2019 all kinds o\u2019 fol-de-rols.<br />\nThen with frosty bells a-chime,<br />\nSlidin\u2019 down the hills o\u2019 time,<br />\nRight amidst the fun an\u2019 din<br />\nChristmas come a-bustlin\u2019 in,<br />\nRaised his cheery voice to call<br />\nOut a welcome to us all;<br />\nHale and hearty, strong an\u2019 bluff,<br />\nThat was Christmas, sure enough.<br />\nSnow knee-deep an\u2019 coastin\u2019 fine,<br />\nFrozen mill-ponds all ashine,<br />\nSeemin\u2019 jest to lay in wait,<br />\nBeggin\u2019 you to come an\u2019 skate.<br />\nAn\u2019 you\u2019d git your gal an\u2019 go<br />\nStumpin\u2019 cheerily thro\u2019 the snow,<br />\nFeelin\u2019 pleased an\u2019 skeert an\u2019 warm<br />\n\u2019Cause she had a-holt yore arm.<br />\nWhy, when Christmas come in, we<br />\nSpent the whole glad day in glee,<br />\nHavin\u2019 fun an\u2019 feastin\u2019 high<br />\nAn\u2019 some courtin\u2019 on the sly.<br />\nBurstin\u2019 in some neighbor\u2019s door<br />\nAn\u2019 then suddenly, before<br />\nHe could give his voice a lift,<br />\nYellin\u2019 at him, \u201cChristmas gift.\u201d<br />\nNow sich things are never heard,<br />\n\u201cMerry Christmas\u201d is the word.<br />\nBut it\u2019s only change o\u2019 name,<br />\nAn\u2019 means givin\u2019 jest the same.<br />\nThere\u2019s too many new-styled ways<br />\nNow about the holidays.<br />\nI\u2019d jest like once more to see<br />\nChristmas like it used to be!</p>\n"}, {"title": "Modern Love: XXVIII", "view_node": "/poem/modern-love-xxviii", "field_author": "<a href=\"/poet/george-meredith\" hreflang=\"und\">George Meredith</a>", "field_date_published": "1909", "body": " <pre>I must be flattered. The imperious\nDesire speaks out. Lady, I am content\nTo play with you the game of Sentiment,\nAnd with you enter on paths perilous;\nBut if across your beauty I throw light,\nTo make it threefold, it must be all mine.\nFirst secret; then avowed. For I must shine\nEnvied,\u2014I, lessened in my proper sight!\nBe watchful of your beauty, Lady dear!\nHow much hangs on that lamp you cannot tell.\nMost earnestly I pray you, tend it well:\nAnd men shall see me as a burning sphere;\nAnd men shall mark you eyeing me, and groan\nTo be the God of such a grand sunflower!\nI feel the promptings of Satanic power,\nWhile you do homage unto me alone.\n</pre>\n "}, {"title": "Modern Love: XXVII", "view_node": "/poem/modern-love-xxvii", "field_author": "<a href=\"/poet/george-meredith\" hreflang=\"und\">George Meredith</a>", "field_date_published": "1909", "body": "<p><span class=\"long-line\">Distraction is the panacea, Sir!</span><br /><span class=\"long-line\">I hear my oracle of Medicine say.</span><br /><span class=\"long-line\">Doctor! that same specific yesterday</span><br /><span class=\"long-line\">I tried, and the result will not deter</span><br /><span class=\"long-line\">A second trial. Is the devil\u2019s line</span><br /><span class=\"long-line\">Of golden hair, or raven black, composed?</span><br /><span class=\"long-line\">And does a cheek, like any sea-shell rosed,</span><br /><span class=\"long-line\">Or clear as widowed sky, seem most divine?</span><br /><span class=\"long-line\">No matter, so I taste forgetfulness.</span><br /><span class=\"long-line\">And if the devil snare me, body and mind,</span><br /><span class=\"long-line\">Here gratefully I score:\u2014he seem\u00ebd kind,</span><br /><span class=\"long-line\">When not a soul would comfort my distress!</span><br /><span class=\"long-line\">O sweet new world, in which I rise new made!</span><br /><span class=\"long-line\">O Lady, once I gave love: now I take!</span><br /><span class=\"long-line\">Lady, I must be flattered. Shouldst thou wake</span><br /><span class=\"long-line\">The passion of a demon, be not afraid.</span></p>\n"}, {"title": "Modern Love: XXVI", "view_node": "/poem/modern-love-xxvi", "field_author": "<a href=\"/poet/george-meredith\" hreflang=\"und\">George Meredith</a>", "field_date_published": "1909", "body": " <pre>Love ere he bleeds, an eagle in high skies,\nHas earth beneath his wings: from reddened eve\nHe views the rosy dawn. In vain they weave\nThe fatal web below while far he flies.\nBut when the arrow strikes him, there\u2019s a change.\nHe moves but in the track of his spent pain,\nWhose red drops are the links of a harsh chain,\nBinding him to the ground, with narrow range.\nA subtle serpent then has Love become.\nI had the eagle in my bosom erst:\nHenceforward with the serpent I am cursed.\nI can interpret where the mouth is dumb.\nSpeak, and I see the side-lie of a truth.\nPerchance my heart may pardon you this deed:\nBut be no coward:\u2014you that made Love bleed,\nYou must bear all the venom of his tooth!\n</pre>\n "}, {"title": "Modern Love: XXV", "view_node": "/poem/modern-love-xxv", "field_author": "<a href=\"/poet/george-meredith\" hreflang=\"und\">George Meredith</a>", "field_date_published": "1909", "body": " <pre>You like not that French novel? Tell me why.\nYou think it quite unnatural. Let us see.\nThe actors are, it seems, the usual three:\nHusband, and wife, and love. She\u2014but fie!\nIn England we\u2019ll not hear of it. Edmond,\nThe lover, her devout chagrin doth share;\nBlanc-mange and absinthe are his penitent fare,\nTill his pale aspect makes her over-fond:\nSo, to preclude fresh sin, he tried rosbif.\nMeantime, the husband is no more abused:\nAuguste forgives her ere the tear is used.\nThen hangeth all on one tremendous IF:\u2014\nIf she will choose between them. She does choose;\nAnd takes her husband, like a proper wife.\nUnnatural! My dear, these things are life:\nAnd life, some think, is worthy of the Muse.\n</pre>\n "}], "pager": {"current_page": 268, "total_items": "13248", "total_pages": 663, "items_per_page": 20}}