{"rows": [{"title": "Coming Close", "view_node": "/poem/coming-close", "field_author": "<a href=\"/poet/philip-levine\" hreflang=\"und\">Philip Levine</a>", "field_date_published": "1991", "body": " <pre>\nTake this quiet woman, she has been\nstanding before a polishing wheel\nfor over three hours, and she lacks\ntwenty minutes before she can take\na lunch break. Is she a woman?\nConsider the arms as they press\nthe long brass tube against the buffer,\nthey are striated along the triceps,\nthe three heads of which clearly show.\nConsider the fine dusting of dark down\nabove the upper lip, and the beads\nof sweat that run from under the red\nkerchief across the brow and are wiped\naway with a blackening wrist band\nin one odd motion a child might make\nto say No! No! You must come closer\nto find out, you must hang your tie\nand jacket in one of the lockers\nin favor of a black smock, you must\nbe prepared to spend shift after shift\nhauling off the metal trays of stock,\nbowing first, knees bent for a purchase, \nthen lifting with a gasp, the first word \nof tenderness between the two of you,\nthen you must bring new trays of dull\nunpolished tubes. You must feed her,\nas they say in the language of the place.\nMake no mistake, the place has a language,\nand if by some luck the power were cut,\nthe wheel slowed to a stop so that you\nsuddenly saw it was not a solid object\nbut so many separate bristles forming\nin motion a perfect circle, she would turn\nto you and say, \"Why?\" Not the old why\nof why must I spend five nights a week?\nJust, \"Why?\" Even if by some magic \nyou knew, you wouldn't dare speak\nfor fear of her laughter, which now\nyou have anyway as she places the five\ntapering fingers of her filthy hand\non the arm of your white shirt to mark\nyou for your own, now and forever.</pre>\n "}, {"title": "Patriotics", "view_node": "/poem/patriotics", "field_author": "<a href=\"/poet/david-baker\" hreflang=\"und\">David Baker</a>", "field_date_published": "2002", "body": " <pre>\nYesterday a little girl got slapped to death by her daddy,\n   out of work, alcoholic, and estranged two towns down river. \nAmerica, it's hard to get your attention politely.\n   America, the beautiful night is about to blow up\n\nand the cop who brought the man down with a shot to the chops \n   is shaking hands, dribbling chaw across his sweaty shirt,\nand pointing cars across the courthouse grass to park. \n   It's the Big One one more time, July the 4th,\n\nour country's perfect holiday, so direct a metaphor for war, \n   we shoot off bombs, launch rockets from Drano cans,\nspray the streets and neighbors' yards with the machine-gun crack \n   of fireworks, with rebel yells and beer. In short, we celebrate.\n\nIt's hard to believe. But so help the soul of Thomas Paine,\n   the entire county must be here--the acned faces of neglect,\nthe halter-tops and ties, the bellies, badges, beehives,\n   jacked-up cowboy boots, yes, the back-up singers of democracy\n\nall gathered to brighten in unambiguous delight\n   when we attack the calm and pointless sky. With terrifying vigor \nthe whistle-stop across the river will lob its smaller arsenal\n   halfway back again. Some may be moved to tears.\n\nWe'll clean up fast, drive home slow, and tomorrow\n   get back to work, those of us with jobs, convicting the others \nin the back rooms of our courts and malls--yet what\n   will be left of that one poor child, veteran of no war\n\nbut her family's own? The comfort of a welfare plot,\n   a stalk of wilting prayers? Our fathers' dreams come true as \n   nightmare.\nSo the first bomb blasts and echoes through the streets and shrubs:\n   red, white, and blue sparks shower down, a plague\n\nof patriotic bugs. Our thousand eyeballs burn aglow like punks. \n   America, I'd swear I don't believe in you, but here I am,\nand here you are, and here we stand again, agape.</pre>\n "}, {"title": "War Photograph", "view_node": "/poem/war-photograph", "field_author": "<a href=\"/poet/kate-daniels\" hreflang=\"und\">Kate Daniels</a>", "field_date_published": "2002", "body": "<p><span class=\"long-line\">A naked child is running</span><br /><span class=\"long-line\">along the path toward us,</span><br /><span class=\"long-line\">her arms stretched out,</span><br /><span class=\"long-line\">her mouth open,</span><br /><span class=\"long-line\">the world turned to trash</span><br /><span class=\"long-line\">behind her.</span></p>\n<p><span class=\"long-line\">She is running from the smoke</span><br /><span class=\"long-line\">and the soldiers, from the bodies</span><br /><span class=\"long-line\">of her mother and little sister</span><br /><span class=\"long-line\">thrown down into a ditch,</span><br /><span class=\"long-line\">from the blown-up bamboo hut</span><br /><span class=\"long-line\">from the melted pots and pans.</span><br /><span class=\"long-line\">And she is also running from the gods</span><br /><span class=\"long-line\">who have changed the sky to fire</span><br /><span class=\"long-line\">and puddled the earth with skin and blood.</span><br /><span class=\"long-line\">She is running--my god--to us,</span><br /><span class=\"long-line\">10,000 miles away,</span><br /><span class=\"long-line\">reading the caption</span><br /><span class=\"long-line\">beneath her picture</span><br /><span class=\"long-line\">in a weekly magazine.</span><br /><span class=\"long-line\">All over the country</span><br /><span class=\"long-line\">we're feeling sorry for her</span><br /><span class=\"long-line\">and being appalled at the war</span><br /><span class=\"long-line\">being fought in the other world.</span><br /><span class=\"long-line\">She keeps on running, you know,</span><br /><span class=\"long-line\">after the shutter of the camera</span><br /><span class=\"long-line\">clicks. She's running to us.</span><br /><span class=\"long-line\">For how can she know,</span><br /><span class=\"long-line\">her feet beating a path</span><br /><span class=\"long-line\">on another continent?</span><br /><span class=\"long-line\">How can she know</span><br /><span class=\"long-line\">what we really are?</span><br /><span class=\"long-line\">From the distance, we look</span><br /><span class=\"long-line\">so terribly human.</span></p>\n"}, {"title": "Kitchen Song", "view_node": "/poem/kitchen-song", "field_author": "<a href=\"/poet/laura-kasischke\" hreflang=\"und\">Laura Kasischke</a>", "field_date_published": "2002", "body": " <pre>\nThe white bowls in the orderly\ncupboards filled with nothing.\n\nThe sound\nof applause in running water.\nAll those who've drowned in oceans, all \nwho've drowned in pools, in ponds, the small \nfamily together in the car hit head on. The pantry\n\nfull of lilies, the lobsters scratching to get out of the pot, and God\n\nbeing pulled across the heavens\nin a burning car.\n\nThe recipes\nlike confessions.\nThe confessions like songs.\nThe sun. The bomb. The white\n\nbowls in the orderly\ncupboards filled with blood. <i>I wanted\n\nsomething simple, and domestic. A kitchen song.</i>\n\nThey were just driving along. Dad \nturned the radio off, and Mom \nturned it back on.</pre>\n "}, {"title": "Siberian Life", "view_node": "/poem/siberian-life", "field_author": "<a href=\"/poet/herman-taube\" hreflang=\"und\">Herman Taube</a>", "field_date_published": "2002", "body": " <pre>\nWe traveled in sub-zero Arctic weather, \nbundled in cotton-lined coats and fur hats, \nto labor camps in remote detention villages. \nThere we gave first aid to the exiled Europeans \nwho were beset by plague and disease.\n\nThe people here suffered from frostbite and \nthe crushing burden of stressful hard labor. \nTheirs was a difficult, miserable life--\nconstant insults added to their misery.\n\nWe were welcomed with warm greetings, \ntheir single link to the outside world--\nthey all wanted to know how the war was \ngoing. Are the radio stories about Hitler's \nreign of terror true, or just Soviet propaganda?\n\nWe carried (by memory) names of relatives, \nseparated from their families, sent to other \ngulag camps. Sadly, most of our inquiries \nreceived sad answers: \"committed suicide\"--\n\"died from typhus\"--\"perished in the mines.\"\n\nFour of us traveled together--a Polish nurse, \na Ukrainian driver, a Russian watchman, and me. \nOn the way back to our clinic, the others were \ndrinking, singing, or telling jokes. With the tragic \nlives of the exiles fresh in my mind, I only cried.</pre>\n "}, {"title": "Borrowed Dress", "view_node": "/poem/borrowed-dress", "field_author": "<a href=\"/poet/cathy-colman\" hreflang=\"und\">Cathy Colman</a>", "field_date_published": "2001", "body": " <pre>\nHe left the room, assured of his immortality-- \nor was it just his cologne?\nI once wanted his money--not really his money, \nbut the freshly minted coins of reason.\nHis hands smelling like prime numbers. \nI once wanted his swagger, his fame \nbut without the dental work. \nI'm reminded that my destiny was \nto stand reflected in the infinity-inducing\n\nmirrors with other women in restaurant \nbathrooms who pat their hair, make that little \nmoue with their lips;\nwho return to the tables of men, \ntheir hands wet, body hairs galvanized \nlike filaments of iron. Strange how \neverything is orderly even in dissipation \nwhen leaves blizzard the pavement. \nI don't see them land but their fall,\nthe <i>event</i> of it, is still present, almost invisible.</pre>\n "}, {"title": "The Fire Stays in Red", "view_node": "/poem/fire-stays-red", "field_author": "<a href=\"/poet/ronny-someck\" hreflang=\"und\">Ronny Someck</a>", "field_date_published": "2002", "body": " <pre>End of December and the green of King Saul Avenue \ncopies itself from leaves, the fire\nremains in red and the yellow is yellow. Tonight \nduring intervals of sudden rain she talks \nof Martin Buber. Such a Hidden Light from traffic signals \nand car beams. And in my body her words suspended \nlike electric wires, under which the memory of her \nswirls, a cropduster's acrobatics.</pre>\n "}, {"title": "Sparrow, the Special Delight of My Girl", "view_node": "/poem/sparrow-special-delight-my-girl", "field_author": "<a href=\"/poet/gaius-valerius-catullus\" hreflang=\"und\">Gaius Valerius Catullus</a>", "field_date_published": "2002", "body": " <pre>\nSparrow, the special delight of my girl, \nwhom often she teases and holds on her lap \nand pokes with the tip of her finger, provoking \ncounterattacks with your mordant beak, \nwhenever my luminous love desires \nsomething or other, innocuous fun, \na bit of escape, I suppose, from her pain, \na moment of peace from her turbulent passion, \nI wish I could play like she does with you \nand lighten the cares of my sorrowful soul. \nIt thrills me as much as the nimble girl \nin the story was thrilled by the gilded apple \nthat finally uncinched her virginal gown.</pre>\n "}, {"title": "Interlude: Still Still", "view_node": "/poem/interlude-still-still", "field_author": "<a href=\"/poet/robin-behn\" hreflang=\"und\">Robin Behn</a>", "field_date_published": "2001", "body": " <pre>\nInside the hole, where it's yellow, \nthe boy has dropped a quarter \nso that the guitar rattles\n\nwhen he shakes it by the neck. \nKnocks, scrapes, scars. \nSo this is what music is.\n\nThe wooden body is no longer \nbigger than his body. \nThe strings, which, when\n\nhe strums them, \ngo on forever are forever \nwound around small pegs\n\nshaped like the big ones \nthey wrap the ropes around, \nthere being an absence of\n\nable-bodied mourners \nto lower, with the softer machines \nof their bodies, the coffin down.\n\nIt was a cold day.\nThe boy had not been born yet, \nbut stood among us\n\nwarm in his round place. \nThen, from the distance,\nthe bagpiper who'd been found\n\nin the yellow pages \nextracted the horizon note \nlike a red needle from the sky.\n\nAnd so it was not with nothing \nhuman our friend was lowered. \nThis is what music is.\n\nBut how did it sound to the boy, \nthe bladder of cries squeezed \nthrough the slit throat\n\nwhen there had not been anything \nyet to cry about?\nThe solace of music is\n\nnot that we recognize it. \nIt is that the hearing \ncomes from before and is wound\n\naround after. Between, \nour bad singing a stranger \ndozed, then bulldozed to.\n\nAt home, in its case, the guitar \nwas hunkered inside the dark \ninto which music goes,\n\nand the more particular dark \nfrom which music comes \nwas inside of it.\n\nThe sound hole swallowed and passed back \nbuckets of silence\nuntil the inner and outer dark\n\nhad the same yellow smell. \nThis, while the song the boy \nwould pay for waited, still still.</pre>\n "}, {"title": "Churst Apollo", "view_node": "/poem/churst-apollo", "field_author": "<a href=\"/poet/joyce-james\" hreflang=\"und\">Joyce James</a>", "field_date_published": "2002", "body": " <pre>\n                        Think on it!\n                        In the beginning\n            Had not occurred such thing as mortal Death.\n\nWalked hand in hand our new Maide children the sweetest aisles of perfect earth \nRisen there its soil, spread holy stock organic membrane woven round.\n\n            Devised his curse, Apollo,\n            Set Man against The Woman\n            Descendants human kine.\n            Yet had not early surged such enmity between the genders,\n            Persecuted first, The Queen of Heaven.\n            Aphollowed only after. . .\n            Churst and Massacred, The Woman.\n\nReached to genocide, the earthly state of war between divided sexes. \nYet never existed true schism, except was thing contrived in heaven.\n\n            Now Male and Female are conditioned equal,\n            Denying both, their maker Goddess.\n\n            He bruises heel, Apollo:\n            'Upon your seed, my venmity \n            Serpent Worman! Repent!' \n            Harries her, Impalla-Acchus,\n            Self-proclaimed was Jealous God\n            Impelled the rancor ancient.\n            As perceives the beauty envied Maide New Human. . .\n            Sets about its persecution.\n\n            Twinned progeny was Io's,\n            Derogates as produce hardly more than beasts the fields\n            That cause henceforward\n            Vengeful mayhem and destruction.</pre>\n "}, {"title": "Journey&#039;s End", "view_node": "/poem/journeys-end", "field_author": "<a href=\"/poet/jonas-hallgrimsson\" hreflang=\"und\">J\u00f3nas Hallgr\u00edmsson</a>", "field_date_published": "2002", "body": " <pre>\nThe star of love \nover Steeple Rock\nis cloaked in clouds of night. \nIt laughed, once, in heaven \nfor the lad who grieves \ndeep in the dark valley.\n\nI know where all hope--\nand my whole world--\nflames with the fire of God. \nI throw off the chains \nof thought, I fling \nmyself into your soul.\n\nI sink myself, \nsee into your being, \nlive your very life; \neach gracious moment \nGod allots you \nflares in my flaming heart.\n\nAlone together \nwe gathered flowers\nhigh on the heath at dawn. \nI wove you wreaths, \nreverently laying \nloving gifts in your lap.\n\nYou heaped my forehead \nwith fragrant rings \nof bright blue flowers, \none, then another;\nyou nodded and smiled \nand swiftly snatched them away.\n\nWe laughed in the highlands \nwhile heaven grew clear, \nbright at the mountain brim. \nNot a single joy\nseemed to exist \napart from living our life.\n\nThe wise flower elves \nwept in the hollows, \nthey knew we would need to part. \nWe thought it was drops \nof dew and kissed\ncold tears from the crossgrass.\n\nI held you on horseback \nin the hurtling stream \nand felt with fond assurance \nI could lift and carry \nso light a flower \nover all the leagues of life.\n\nBeside the bank \nof Boar River\nI carefully combed your hair; \neye stars flash, \nflower lips smile, \ncheeks turn ruby red.\n\nHe is far from your fair \nfriendship, the lad\ndeep in the dark valley. \nThe star of love \nover Steeple Rock \nis burning back of clouds.\n\nThe heavens part \nthe high planets, \nblade parts back and edge; \nnot even eter-\nnity can part\nsouls that are sealed in love.</pre>\n "}, {"title": "Photograph of People Dancing in France", "view_node": "/poem/photograph-people-dancing-france", "field_author": "<a href=\"/poet/leslie-adrienne-miller\" hreflang=\"und\">Leslie Adrienne Miller</a>", "field_date_published": "2002", "body": " <pre>\nIt's true that you don't know them--nor do I \nknow what I wanted their movement to say \nwhen I tucked them in an envelope with words\n\nfor you. I thought it was my life caught \nin a warm night. I believed myself loved \nby the wan and delicate man you see dancing\n\nagainst the drop-off behind them all. But you \ncan't see that they are on a mountain, that \njust beyond the railings is a ravine, abrupt\n\nand studded with thorn, beyond it, a river, \ndry bed of stone that, by the time you take \nthe photo from the envelope, will have filled\n\nwith green foam of cold torrents from high \nin the Alps. This is France, you think, as you look \nat the people dancing, but there is nothing of France\n\nvisible save one branch of a tree close enough \nto catch in their hair. I could tell you that by the time \nyou see this picture, the young girl with the long jaw\n\nlaunching her bared navel at the lens will have bedded \nthe man you're afraid of losing me to. There is food \non the table, French food, and so more beautiful for that,\n\ngreen olives in brine, a local cake in paper lace, \nsliced tomatoes that look in the flash like flesh \nwith their red spill of curve and seed. I could tell you\n\nthey grew not twenty meters from the table \nwhere you see them, that I picked them one day \nwith the small woman who bares her breasts\n\nin this photo because she is about to leave us\nand doesn't know any other way to say she is sad. \n<i>They're alive</i> is all you'll say of the scene, which\n\nis to say you feel you're not. It is November \nby the time I've thought to send you the photo, \nby the time I feel myself ready to part with the image.\n\nBy then, the woman of the manifest breasts has left us, \nand the one with the dark eyes who loved her \nhas darker eyes. Very soon after this dancing stopped,\n\nthe man with the hollow cheeks took the girl \nof the ripe navel to his bed because he, like you, \nis so afraid of dying, he invites it daily, to try him.\n\nThe girl's last lover was a boy on heroin in Cairo \nwith the possible end of them both asleep in his blood,\nand now too in the blood of the lover I wanted\n\nto save. Because you are married to a woman \nwho insists on wearing her dead sister's clothes, \nyou understand that while I am not in this picture,\n\nI am in this picture. Know that I need never see it again \nto see: the incessant knot of the girl's navel is a fist, \nan oily wad of sweet-sour girl flesh, a ball of tissue\n\nI twisted and crushed all of that evening, and since. \nYou refuse to remember her name, or his, because you want \nto be my lover again, and the others must be kept\n\nabstract. <i>They were alive</i> you say again, not more, \nbecause the heart is nothing if not a grave. You want me \nbecause your wife holds out her familiar wrist to you\n\nin the terrible sleeve of her dead sister's dress, \nbecause I reach for the gaunt cheek of the man \nwho worships at the luminous inch of belly on the girl\n\nwho lifts her arms from the body of a boy none of us \nwill ever know in Cairo, the girl, who dead center \nin the photo, lifts the potent, mocking extravagance\nof her flash-drenched arms, and dances for us all.</pre>\n "}, {"title": "Earth Tremors Felt in Missouri", "view_node": "/poem/earth-tremors-felt-missouri", "field_author": "<a href=\"/poet/mona-van-duyn\" hreflang=\"und\">Mona Van Duyn</a>", "field_date_published": "2002", "body": " <pre>\nThe quake last night was nothing personal, \nyou told me this morning. I think one always wonders, \nunless, of course, something is visible: tremors \nthat take us, private and willy-nilly, are usual.\n\nBut the earth said last night that what I feel, \nyou feel; what secretly moves you, moves me. \nOne small, sensuous catastrophe \nmakes inklings letters, spelled in a worldly tremble.\n\nThe earth, with others on it, turns in its course \nas we turn toward each other, less than ourselves, gross, \nmindless, more than we were. Pebbles, we swell \nto planets, nearing the universal roll, \nin our conceit even comprehending the sun, \nwhose bright ordeal leaves cool men woebegone.</pre>\n "}, {"title": "My Aunts", "view_node": "/poem/my-aunts", "field_author": "<a href=\"/poet/adam-zagajewski\" hreflang=\"und\">Adam Zagajewski</a>", "field_date_published": "2002", "body": " <pre>Always caught up in what they called \nthe practical side of life \n(theory was for Plato), \nup to their elbows in furniture, in bedding, \nin cupboards and kitchen gardens,\nthey never neglected the lavender sachets \nthat turned a linen closet to a meadow.\n\nThe practical side of life, \nlike the Moon's unlighted face, \ndidn't lack for mysteries; \nwhen Christmastime drew near, \nlife became pure <i>praxis</i> \nand resided temporarily in hallways, \ntook refuge in suitcases and satchels.\n\nAnd when somebody died--it happened \neven in our family, alas--\nmy aunts, preoccupied\nwith death's practical side, \nforgot at last about the lavender,\nwhose frantic scent bloomed selflessly \nbeneath a heavy snow of sheets.\nDon't just do something, sit there.\nAnd so I have, so I have,\n                    the seasons curling around me like smoke,\nGone to the end of the earth and back without sound. </pre>\n "}, {"title": "Springing", "view_node": "/poem/springing", "field_author": "<a href=\"/poet/marie-ponsot\" hreflang=\"und\">Marie Ponsot</a>", "field_date_published": "2002", "body": " <pre>\nIn a skiff on a sunrisen lake we are watchers.\n\nSwimming aimlessly is luxury just as walking \nloudly up a shallow stream is.\n\nAs we lean over the deep well, we whisper.\n\nFriends at hearths are drawn to the one warm air; \nstrangers meet on beaches drawn to the one wet sea.\n\nWhat wd it be to be water, one body of water \n(what water is is another mystery) (We are \nwater divided.) It wd be a self without walls, \nwith surface tension, specific gravity a local\nexchange between bedrock and cloud of falling and rising, \nrising to fall, falling to rise.</pre>\n<p>(1962)</p> "}, {"title": "Skating in Harlem, Christmas Day", "view_node": "/poem/skating-harlem-christmas-day", "field_author": "<a href=\"/poet/cynthia-zarin\" hreflang=\"und\">Cynthia Zarin</a>", "field_date_published": "2002", "body": " <p>To Mary Jo Salter</p>\n<pre>\nBeyond the ice-bound stones and bucking trees, \npast bewildered Mary, the Meer in snow, \ntwo skating rinks and two black crooked paths\n\nare a battered pair of reading glasses \nscratched by the skater's multiplying math. \nBeset, I play this game of tic-tac-toe.\n\nDivide, subtract. Who can tell if love surpasses? \nTwo naughts we've learned make one astonished 0\u2014 \na hectic night of goats and compasses.\n\nFolly tells the truth by what it's not\u2014 \none X equals a fall I'd not forgo. \nAre ice and fire the integers we've got?\n\nSkating backwards tells another story\u2014 \nthe risky star above the freezing town, \na way to walk on water and not drown.</pre>\n "}, {"title": "The Coming of Light", "view_node": "/poem/coming-light", "field_author": "<a href=\"/poet/mark-strand\" hreflang=\"und\">Mark Strand</a>", "field_date_published": "2002", "body": " <pre>Even this late it happens:\nthe coming of love, the coming of light. \nYou wake and the candles are lit as if by themselves, \nstars gather, dreams pour into your pillows, \nsending up warm bouquets of air.\nEven this late the bones of the body shine \nand tomorrow's dust flares into breath.</pre>\n "}, {"title": "Souvenir of the Ancient World", "view_node": "/poem/souvenir-ancient-world", "field_author": "<a href=\"/poet/carlos-drummond-de-andrade\" hreflang=\"und\">Carlos Drummond de Andrade</a>", "field_date_published": "2002", "body": " <pre>\nClara strolled in the garden with the children. \nThe sky was green over the grass, \nthe water was golden under the bridges,\nother elements were blue and rose and orange, \na policeman smiled, bicycles passed, \na girl stepped onto the lawn to catch a bird, \nthe whole world\u2014Germany, China\u2014\n   all was quiet around Clara.\n\nThe children looked at the sky: it was not forbidden.\nMouth, nose, eyes were open. There was no danger.\nWhat Clara feared were the flu, the heat, the insects.\nClara feared missing the eleven o'clock trolley:\nShe waited for letters slow to arrive,\n<span class=\"long-line\">She couldn't always wear a new dress. But she strolled in the garden, in the morning!</span>\nThey had gardens, they had mornings in those days!</pre>\n "}, {"title": "Wave", "view_node": "/poem/wave", "field_author": "<a href=\"/poet/joanna-goodman\" hreflang=\"und\">Joanna Goodman</a>", "field_date_published": "2002", "body": " <pre>\nTell the truth: no key appeared in your mouth, \nno sound like <i>mum</i>, which wouldn't help anyway. \nGive me a word to get through the night. \nSomething spontaneous, fluid:\nsee the hand's unintended imprint on the shore,\n\nfireworks dissolving into the black sky--\n\n      Try now. <i>Ripple</i>. Yes.\nPut the two of us in a boat on the gray river;\nkeep rowing in a circle while on the hazy banks \nclumps of grass swarm and echo the rhythm of words \nwe had once spoken: <i>after this, mistake me for someone else</i>.\nSleep no more. Wave. Wave. That's love enough.</pre>\n "}, {"title": "A Light Says Why", "view_node": "/poem/light-says-why", "field_author": "<a href=\"/poet/karen-volkman\" hreflang=\"und\">Karen Volkman</a>", "field_date_published": "2002", "body": " <pre>\n   A light says why. From all the poor prying. Again we attain a more \nregal posture--small bird accompanying slips between our whim. \nWhere will we flicker, loose as two feathers from a wren's back? Gone, \ndo not brood for all the hands that miss you. They hardly hold. Don't \nwait, one who thought a dark eye could save you, like night with its black \npaws curled and gone to sleep. There are only two names to remember, \n<i>Loss</i> and <i>Pleasure</i>, crossed in this field like no man's borrowed light. Call \nthe far-sighted foxes to the launching. Call the small deer scattered in \nthe back brush, swift as flit. Contingency has arms and hands and wasted \nfaces. And a body, shrunk and scurvy, built to burn.</pre>\n "}], "pager": {"current_page": 633, "total_items": "13248", "total_pages": 663, "items_per_page": 20}}