{"rows": [{"title": "War Rug", "view_node": "/poem/war-rug", "field_author": "<a href=\"/poet/henri-cole\" hreflang=\"und\">Henri Cole</a>", "field_date_published": "2013", "body": " <p>The pony and the deer are trapped by tanks,<br /><br />and the lady with the guitar is sad beyond words.<br /><br />Hurtling across the sky, a missile has mistaken<br /><br />a vehicle for a helicopter, exploding in a ball<br /><br />of white flame. Upside-down birds\u2014red specks<br /><br />of knotted wool\u2014glow above the sideways trees.<br /><br />Hidden among plants, a barefooted boy waits\u2014<br /><br />like the divine coroner\u2014aiming his rifle at something,<br /><br />enjoying the attentions of a gray doggy, or maybe<br /><br />there\u2019s a bullet already in his head.</p> "}, {"title": "A Conceit", "view_node": "/poem/conceit", "field_author": "<a href=\"/poet/rae-armantrout\" hreflang=\"und\">Rae Armantrout</a>", "field_date_published": "2013", "body": " <pre>\nLocal anchors list the ways\nviewers might enjoy tomorrow.\n\nOne says, \u201cGet some great....\u201d, but\nthat seems like a stretch.\n\nThe other snickers, meaning,\n\u201cWhere were you going with that?\u201d\n\nLike you thought\n\n\n     *\n\nLike you could defend \nvanity\n\nin the sense of\nidle conceit,\n\nvacuous self-\nabsorption,\n\ndoing whatever\nit takes to\n\nwhatever\nbecause,\n\nreally.\n\n\n     *\n\nAs if to say,\n\n\u201cConceit\nis the vacuum energy.\u201d </pre>\n "}, {"title": "Like Him", "view_node": "/poem/him", "field_author": "<a href=\"/poet/aaron-smith\" hreflang=\"und\">Aaron Smith</a>", "field_date_published": "2013", "body": " <p>I\u2019m almost forty and just understanding my father<br />doesn\u2019t like me. At thirteen I quit basketball, the next year<br />refused to hunt, I knew he was disappointed, but never<br />thought he didn\u2019t have to like me<br />to love me. No girls. Never learned<br />to drive a stick. Chose the kitchen and mom<br />while he went to the woods with friends who had sons<br />like he wanted. He tried fishing\u2014a rod and reel<br />under the tree one Christmas. Years I tried \u00a0<br />talking deeper, acting tougher<br />when we were together. Last summer<br />I went with him to buy a tractor.<br /><i>In case he needs help</i>, Mom said. He didn\u2019t look at me<br />as he and the sales guy tied the wheels to the trailer, perfect<br />boy-scout knots. Why do I sometimes wish I could be a man<br />who cares about cars and football, who carries a pocketknife<br />and needs it? It was January when he screamed: <i>I\u2019m not<br /><span class=\"long-line\">a student, don\u2019t talk down to me!</span></i> I yelled: <i>You\u2019re not smart enough<br />to be one!</i> I learned to fight like his father, like him, like men:<br />the meanest guy wins, don't ever apologize.</p> "}, {"title": "Tigers", "view_node": "/poem/tigers", "field_author": "<a href=\"/poet/melissa-ginsburg\" hreflang=\"und\">Melissa Ginsburg</a>", "field_date_published": "2013", "body": " <p><i>for Erik Lemke (1979-2012)</i><br /><br /></p>&#13;\n<pre>&#13;\n1.&#13;\n&#13;\nA hummingbird flies into a window &#13;\nthat looks like the sky. Everything around here&#13;\n&#13;\nlooks like the sky. The sky looks tiger striped.&#13;\nThey call that kind of cloud &#13;\n&#13;\nsomething. I know somebody &#13;\nwho knows about clouds. I could find &#13;\n&#13;\nout the name. Everything around here &#13;\nhas a name. &#13;\n&#13;\n&#13;\n&#13;\n&#13;\n2.&#13;\n&#13;\nThe hummingbird fell to the deck. My husband picked it up.&#13;\n&#13;\n\u2014What did it feel like in your hand? &#13;\n\u2014Nothing. It felt like nothing. &#13;\n\u2014Where is it now? &#13;\n\u2014Gone.&#13;\n\u2014Dead? &#13;\n\u2014Not dead. It flew away. It disappeared and it disappeared again. &#13;\n&#13;\n&#13;\n&#13;\n&#13;\n3.&#13;\n&#13;\nI\u2019ll tell you a joke. A hummingbird flew into a window\u2026&#13;\n&#13;\nI\u2019ll tell you another joke. Treachery, &#13;\nwe were friends once. &#13;\n&#13;\n&#13;\n&#13;\n&#13;\n4.&#13;\n&#13;\nIn dreams the bird &#13;\nweighs more, so you can feel it&#13;\n&#13;\nwhen you pick it up. So when &#13;\nit dies it seems &#13;\n&#13;\nlike something actually happened. &#13;\nIt\u2019s a word &#13;\n&#13;\nbound &#13;\naround your hand and a sign &#13;\n&#13;\nat the stripped road. &#13;\nA mylar star on a plastic stick&#13;\n&#13;\ntied to the sign. &#13;\nBlacktop. Post. A fat star\u2019s&#13;\n&#13;\nwrinkles &#13;\ntaut. It\u2019s stuffed. &#13;\n&#13;\nIt\u2019s shining.&#13;\nThere\u2019s going &#13;\n&#13;\nto be a party around here somewhere.&#13;\nThe bird weighs nothing waits nowhere.&#13;\n&#13;\nThe sky looks like a window and it flies right through.</pre>&#13;\n<p>\u00a0</p> "}, {"title": "Cruel Cogito", "view_node": "/poem/cruel-cogito", "field_author": "<a href=\"/poet/ken-chen\" hreflang=\"und\">Ken Chen</a>", "field_date_published": "2013", "body": " <pre>\nHow joyous!, \npassing this time alone \nwith your father, how bright his golden laugh \nwhich drew you to laugh yourself uncontrolled, \nhow sweet the happy hour oysters you two pry and eat, \npiling wobbling shells that glisten on the table\nwhile the pianist plays by the kitchen doors. \nYou find yourself reminded of what you wrote \nin the eulogy: that you two would still possess \na relationship even though \nhe was dead, that you could still \ngo and speak with him \nwhen you dreamed\n\nand so you see the seat opposite from you seats no one.</pre>\n "}, {"title": "Separation is the necessary condition for light.", "view_node": "/poem/separation-necessary-condition-light", "field_author": "<a href=\"/poet/brian-teare\" hreflang=\"und\">Brian Teare</a>", "field_date_published": "2013", "body": " <pre>&#13;\nso it came to me to &#13;\ncarry the abandoned &#13;\nmattress to the attic      &#13;\n&#13;\n                         a month dead my father&#13;\n\t\t         waited hillside in the field &#13;\n \t\t\t surrounding his house &#13;\n&#13;\nI was glad to see him&#13;\nto remember when&#13;\nthe fathers seemed &#13;\n&#13;\n                          generic     related     a class&#13;\n    \t\t\t  of things as uniform as trees &#13;\n                          are when you don\u2019t know&#13;\n\t\t\t&#13;\ntheir names     a stand&#13;\nof them across the field &#13;\nI want to say autumn&#13;\n&#13;\n                           aspens     the late fathers &#13;\n                           blonde as early evening&#13;\n \t\t\t   wind startles their eyes &#13;\n &#13;\nand makes of your name &#13;\na sail      a boat above roots &#13;\nthat rise to stem that rise &#13;\n&#13;\n\t\t            to leaf his door and cornices    &#13;\n                            his felt hat and mattress &#13;\n                            empty     it feels like forever&#13;\n\t\t\t\t&#13;\nabove the flickering field     &#13;\nthe fathers shrinking &#13;\nfar beneath our feet</pre>&#13;\n<br /><br /><br /><p><i>for Lisa Fishman</i></p> "}, {"title": "Forms of Range and Loathing", "view_node": "/poem/forms-range-and-loathing", "field_author": "<a href=\"/poet/ruth-ellen-kocher\" hreflang=\"und\">Ruth Ellen Kocher</a>", "field_date_published": "2013", "body": " <pre>&#13;\ntypical of an arid country among hundreds of other flora\u2028&#13;\nyou find half a province of avalanches &#13;\n&#13;\n&#13;\n&#13;\n\u2028\u2028parts are desert&#13;\n&#13;\n&#13;\n&#13;\n\u2028\u2028I might say light defeated by a dark thing that strips\u2028&#13;\nmountain and bullet &#13;\n&#13;\n&#13;\n&#13;\n\u2028\u2028\t\t         no&#13;\n&#13;\n&#13;\n&#13;\n\u2028\u2028the mountains have forgotten airborne&#13;\n\u2028you would never say howl\u2028&#13;\nnever say mountain&#13;\n&#13;\n&#13;\n&#13;\n\u2028\u2028or region or enemy&#13;\n\u2028you say men\u2019s mouths  are the woods\u2019 black holes&#13;\n&#13;\n&#13;\n&#13;\n\u2028\u2028I\u2019m thinking The guy on TV didn\u2019t seem upset about\u2028&#13;\nkilling his wife If he\u2019d done so but he didn\u2019t he says&#13;\n&#13;\n&#13;\n&#13;\n\u2028\u2028nothing about him if not after an interview\u2028&#13;\ntuft bodies of red wings scatter the lawns &#13;\n&#13;\n&#13;\n&#13;\n\u2028\u2028did you hear \u2028&#13;\nbirds out of sky\u2028&#13;\nsome dead wind&#13;\n&#13;\n&#13;\n&#13;\n\u2028\u2028he didn\u2019t seem upset and so may as well\u2028&#13;\nhave killed his wife\u2028&#13;\na jury says&#13;\n&#13;\n&#13;\n&#13;\n\u2028\u2028If you could hear me now I\u2019m not sure how important&#13;\n\u2028it might seem In another language&#13;\n&#13;\n&#13;\n&#13;\n\u2028\u2028Hope is not too much or that a random crime\u2028&#13;\nmight mean We share something</pre>&#13;\n "}, {"title": "Light (an Ars Poetica)", "view_node": "/poem/light-ars-poetica", "field_author": "<a href=\"/poet/michael-cirelli\" hreflang=\"und\">Michael Cirelli</a>", "field_date_published": "2013", "body": " <pre>&#13;\n<i>for Basquiat, Wylie Dufresne, Bob Viscusi, Trish Hicks</i>&#13;\n&#13;\n&#13;\nWe all do the same ol\u2019 same ol\u2019 same. &#13;\n(Some don\u2019t.) Basquiat&#13;\nDubbed it SAMO\u00a9. The buildings made&#13;\nOf bricks the poems about poetry.&#13;\nViscusi said the hyphenated can\u2019t stop yapping&#13;\nAbout Nonna, gravy, the Old Country.&#13;\nAt St. John\u2019s Rec Center, all the fathers&#13;\nAre missing poems and all the poems are missing&#13;\nFathers. When the sun dies, so do the birds &#13;\nAnd the trees fall fast as a butcher\u2019s knife.&#13;\nSo I don\u2019t eat food anymore, I eat light.&#13;\nThe saying goes: you can tell a good chef&#13;\nBy how he cooks an egg. What is the saying&#13;\nFor poets? When Wylie Dufresne &#13;\nCooks eggs, they come out cubed.       &#13;\nWhen Jean-Michel paints eggs, Joe\u2019s red eyes&#13;\nAre in the skillet. SAMO\u00a9 left his darkness&#13;\nAt the speed of light\u2026 &#13;\nBut who is The Truth, The Light?  &#13;\nWe don\u2019t discuss these things in our family, &#13;\nAnd my mother &#13;\nThinks I\u2019m perfect. We\u2019ve mastered burying &#13;\nThe dark stuff deep inside. Mom breathes smoke &#13;\nTo keep it at bay, I eat light, a stack of pancakes: &#13;\nA stack of light\u2014coffee, juice, Gatorade: &#13;\nA mug, a glass, a bottle of light\u2014spaghetti &#13;\nWith meatballs: strings of light with ornaments of light.</pre>&#13;\n "}, {"title": "Pleasure", "view_node": "/poem/pleasure", "field_author": "<a href=\"/poet/katie-peterson\" hreflang=\"und\">Katie Peterson</a>", "field_date_published": "2013", "body": " <pre>\nI remembered what it was like,\nknowing what you want to eat and then making it,\nforgetting about the ending in the middle,\nlooking at the ocean for \na long time without restlessness,\nor with restlessness not inhabiting the joints,\nsitting Indian style on a porch\noverlooking that water, smooth like good cake frosting. \nAnd then I experienced it, falling so deeply\ninto the storyline, I laughed as soon as my character entered\nthe picture, humming the theme music even when I\u2019d told myself\nI wanted to be quiet by some freezing river\nand never talk to anyone again. \nAnd I thought, now is the right time to cut up your shirt. </pre>\n "}, {"title": "The Magpie&#039;s Shadow", "view_node": "/poem/magpies-shadow", "field_author": "<a href=\"/poet/yvor-winters\" hreflang=\"und\">Yvor Winters</a>", "field_date_published": "1922", "body": " <pre>\nI. IN WINTER\n\u00a0\n     <i>Myself</i>\nPale mornings, and\u00a0\n\u00a0 \u00a0I rise.\u00a0\n\u00a0\n     <i>Still Morning</i>\nSnow air--my fingers curl.\n\u00a0\n     <i>Awakening</i>\nNew snow, O pine of dawn!\n\u00a0\n     <i>Winter Echo</i>\nThin air! My mind is gone.\n\u00a0\n     <i>The Hunter</i>\nRun! In the magpie's shadow.\n\u00a0\n     <i>No Being</i>\nI, bent. Thin nights receding.\u00a0\n\u00a0\n\u00a0\nII. IN SPRING\n\u00a0\n     <i>Spring</i>\nI walk out the world's door.\n\u00a0\n     <i>May</i>\nOh, evening in my hair!\n\u00a0\n     <i>Spring Rain</i>\nMy doorframe smells of leaves.\n\u00a0\n     <i>Song</i>\nWhy should I stop\n\u00a0 \u00a0for spring?\n\u00a0\n\u00a0\nIII. IN SUMMER AND AUTUMN\n\u00a0\n     <i>Sunrise</i>\nPale bees! O whither now?\n\u00a0\n     <i>Fields</i>\nI did not pick\n\u00a0 \u00a0a flower.\n\u00a0\n     <i>At Evening</i>\nLike leaves my feet passed by.\n\u00a0\n     <i>Cool Nights</i>\nAt night bare feet on flowers!\n\u00a0\n     <i>Sleep</i>\nLike winds my eyelids close.\n\u00a0\n     <i>The Aspen's Song</i>\nThe summer holds me here.\n\u00a0\n     <i>The Walker</i>\nIn dream my feet are still.\u00a0\n\u00a0\n     <i>Blue Mountains</i>\nA deer walks that mountain.\n\u00a0\n     <i>God of Roads</i>\nI, peregrine of noon.\u00a0\n\u00a0\n     <i>September</i>\nFaint gold! O think not here.\n\u00a0\n     <i>A Lady</i>\nShe's sun on autumn leaves.\u00a0\n\u00a0\n     <i>Alone</i>\nI saw day's shadow strike.\n\u00a0\n     <i>A Deer</i>\nThe trees rose in the dawn.\n\u00a0\n     <i>Man in Desert</i>\nHis feet run as eyes blink.\u00a0\n\u00a0\n     <i>Desert</i>\nThe tented autumn, gone!\n\u00a0\n     <i>The End</i>\nDawn rose, and desert shrunk.\n\u00a0\n     <i>High Valleys</i>\nIn sleep I filled these lands.\n\u00a0\n     <i>Awaiting Snow</i>\nThe well of autumn--dry.</pre>\n "}, {"title": "This is My Life", "view_node": "/poem/my-life", "field_author": "<a href=\"/poet/william-stanley-braithwaite\" hreflang=\"und\">William Stanley Braithwaite</a>", "field_date_published": "1908", "body": "<p><span class=\"long-line\">To feed my soul with beauty till I die;</span><br /><span class=\"long-line\">To give my hands a pleasant task to do;</span><br /><span class=\"long-line\">To keep my heart forever filled anew</span><br /><span class=\"long-line\">With dreams and wonders which the days supply;</span><br /><span class=\"long-line\">To love all conscious living, and thereby</span><br /><span class=\"long-line\">Respect the brute who renders up its due,</span><br /><span class=\"long-line\">And know the world as planned is good and true\u2014</span><br /><span class=\"long-line\">And thus \u2014because there chanced to be an I!</span></p>\n\n<p><span class=\"long-line\">This is my life since things are as they are:</span><br /><span class=\"long-line\">One half akin to flowers and the grass:</span><br /><span class=\"long-line\">The rest a law unto the changeless star.</span><br /><span class=\"long-line\">And I believe when I shall come to pass</span><br /><span class=\"long-line\">Within the Door His hand shall hold ajar</span><br /><span class=\"long-line\">I'll leave no echoing whisper of Alas!</span></p>\n"}, {"title": "The House of Death", "view_node": "/poem/house-death", "field_author": "<a href=\"/poet/william-stanley-braithwaite\" hreflang=\"und\">William Stanley Braithwaite</a>", "field_date_published": "1908", "body": " <pre>\nLO, a house untenanted\nStands beside the road of Time;\nThey who lived there once, have fled\nTo some other house and clime.\n\nTowers pointing to the sky\nWith long shadows on the ground,\nNever shade a passerby,\nNever echo back a sound.</pre>\n "}, {"title": "My Skeleton", "view_node": "/poem/my-skeleton", "field_author": "<a href=\"/poet/jane-hirshfield\" hreflang=\"und\">Jane Hirshfield</a>", "field_date_published": "2013", "body": "<p><span class=\"long-line\">My skeleton,</span><br /><span class=\"long-line\">you who once ached</span><br /><span class=\"long-line\">with your own growing larger</span></p>\n\n<p><span class=\"long-line\">are now,</span><br /><span class=\"long-line\">each year</span><br /><span class=\"long-line\">imperceptibly smaller,</span><br /><span class=\"long-line\">lighter,</span><br /><span class=\"long-line\">absorbed by your own</span><br /><span class=\"long-line\">concentration.</span></p>\n\n<p><span class=\"long-line\">When I danced,</span><br /><span class=\"long-line\">you danced.</span><br /><span class=\"long-line\">When you broke,</span><br /><span class=\"long-line\">I.</span></p>\n\n<p><span class=\"long-line\">And so it was lying down,</span><br /><span class=\"long-line\">walking,</span><br /><span class=\"long-line\">climbing the tiring stairs.</span><br /><span class=\"long-line\">Your jaws. My bread.</span></p>\n\n<p><span class=\"long-line\">Someday you,</span><br /><span class=\"long-line\">what is left of you,</span><br /><span class=\"long-line\">will be flensed of this marriage.</span></p>\n\n<p><span class=\"long-line\">Angular wristbone's arthritis,</span><br /><span class=\"long-line\">cracked harp of ribcage,</span><br /><span class=\"long-line\">blunt of heel,</span><br /><span class=\"long-line\">opened bowl of the skull,</span><br /><span class=\"long-line\">twin platters of pelvis\u2014</span><br /><span class=\"long-line\">each of you will leave me behind,</span><br /><span class=\"long-line\">at last serene.</span></p>\n\n<p><span class=\"long-line\">What did I know of your days,</span><br /><span class=\"long-line\">your nights,</span><br /><span class=\"long-line\">I who held you all my life</span><br /><span class=\"long-line\">inside my hands</span><br /><span class=\"long-line\">and thought they were empty?</span></p>\n\n<p><span class=\"long-line\">You who held me all my life</span><br /><span class=\"long-line\">inside your hands</span><br /><span class=\"long-line\">as a new mother holds</span><br /><span class=\"long-line\">her own unblanketed child,</span><br /><span class=\"long-line\">not thinking at all.</span></p>\n\n<p><span class=\"long-line\">\u20142013</span></p>\n"}, {"title": "Amour Honestus", "view_node": "/poem/amour-honestus", "field_author": "<a href=\"/poet/edward-hirsch\" hreflang=\"und\">Edward Hirsch</a>", "field_date_published": "2013", "body": " <p>The nights were long and cold and bittersweet,<br />And he made a song for the hell of it.<br /><br />She stood by the window, a heavenly light<br />Who created havoc for the hell of it.<br /><br />He used to fondle every skirt in sight,<br />Then he fell in love\u2014that\u2019s the hell of it.<br /><br />Now there\u2019s a courtyard with an abject knight<br />Yodeling his head off for the hell of it.<br /><br /><i>O poor me, my Lady, my hopeless plight!</i><br />She married a prince for the hell of it.<br /><br />Honorable, unsatisfied, illicit\u2014<br />Why bring it up? Just for the hell of it.<br /><br />The fever spread from poet to poet<br />Who burned in the high-minded hell of it.<br /><br />But the Untouchable had him by the throat,<br />And he stopped singing for the hell of it.<br /><br />Love is a tower, a trance, a medieval pit.<br />When I lost you, I knew the hell of it.</p> "}, {"title": "Gone", "view_node": "/poem/gone", "field_author": "<a href=\"/poet/lia-purpura\" hreflang=\"und\">Lia Purpura</a>", "field_date_published": "2013", "body": " <p>It\u2019s that, when I\u2019m gone,<br />(and right off this is tricky)<br />I won\u2019t be worried<br />about being gone.<br />I won\u2019t be here<br />to miss anything.<br />I want now, sure,<br />all I\u2019ve been gathering<br />since I was born,<br />but later<br />when I no longer have it,<br />(which might be<br />a state everlasting, who knows?)<br />this moment right now<br />(stand closer, love,<br />you can\u2019t be too close),<br />is not a thing I\u2019ll know to miss.<br />I doubt I\u2019ll miss it.<br />I can\u2019t get over this.</p> "}, {"title": "poem I wrote sitting across the table from you", "view_node": "/poem/poem-i-wrote-sitting-across-table-you", "field_author": "<a href=\"/poet/kevin-varrone\" hreflang=\"und\">Kevin Varrone</a>", "field_date_published": "2013", "body": " <p>if I had two nickels to rub together<br />I would rub them together<br /><br />like a kid rubs sticks together<br />until friction made combustion<br /><br />and they burned<br />\u2028a hole in my pocket<br /><br />into which I would put my hand<br />and then my arm<br /><br />and eventually my whole self\u2013\u2013<br />I would fold myself<br /><br />into the hole in my pocket and disappear<br />\u2028into the pocket of myself, or at least my pants<br /><br />but before I did<br />\u2028like some ancient star<br /><br />I\u2019d grab your hand</p> "}, {"title": "Beauty Supply", "view_node": "/poem/beauty-supply", "field_author": "<a href=\"/poet/lee-ann-brown\" hreflang=\"und\">Lee Ann Brown</a>", "field_date_published": "2013", "body": " <p>Sheaves of wheat in cement relief<br />Supply the beauties of Archer Ave.<br /><br />Past the scaffolded brick church spire<br />We turn on the vacant corner lot<br /><br />Through winds worthy of Hopkins (Gerard M.)<br />New words \u2014 Alexus \u2014 Everything must go<br /><br />\u201cInclude everything in poetry\u201d<br />Even the things you think are nothing<br /><br />Like the way the new white snowflake<br />Decoration waves its wild tentacles<br />\u00a0\u00a0\u00a0\u00a0 against the high blue sky<br /><br />\u00a0\u00a0\u00a0\u00a0loop and angle<br />Black graffiti palimpsests the<br />\u00a0\u00a0\u00a0\u00a0yellow official sign of Danger<br />in bus stairwell<br /><br />She stares at me unsmiling<br />\u00a0\u00a0\u00a0\u00a0with cold Northface<br />Notices me writing but says nothing<br />\u00a0\u00a0\u00a0\u00a0with her eye<br /><br />The corner lot I used to chart or cheat in its \u2018vacancies\u2019<br />Configures new blown trash and walk through paths<br /><br />Subjected to random search<br /><br />Has grown a mouth of gravel<br />Constructed in a cone<br />Surrounded by temporary fence<br />\u00a0\u00a0\u00a0\u00a0Of blue nailed board<br /><br />Now on Roti Avenue<br />Cutlery &amp; Wang Quai<br /><br />Amalgam of chairs,<br />Jamaica Island Center</p> "}, {"title": "After Suicide (audio only)", "view_node": "/poem/after-suicide-audio-only", "field_author": "<a href=\"/poet/matt-rasmussen\" hreflang=\"und\">Matt Rasmussen</a>", "field_date_published": "2013", "body": " <p>\u00a0</p><p>Click the icon above to listen to this audio poem.</p> "}, {"title": "improper(ty) behavior (audio only)", "view_node": "/poem/improperty-behavior-audio-only", "field_author": "<a href=\"/poet/evie-shockley\" hreflang=\"und\">Evie Shockley</a>", "field_date_published": "2013", "body": " <p>\u00a0</p><p>Click the icon above to listen to this audio poem.</p> "}, {"title": "Requiem (audio only)", "view_node": "/poem/requiem-audio-only", "field_author": "<a href=\"/poet/yusef-komunyakaa\" hreflang=\"und\">Yusef Komunyakaa</a>", "field_date_published": "2013", "body": " <p>\u00a0</p><p>Click the icon above to listen to this audio poem.</p> "}], "pager": {"current_page": 416, "total_items": "13248", "total_pages": 663, "items_per_page": 20}}