{"rows": [{"title": "Might and Right", "view_node": "/poem/might-and-right", "field_author": "<a href=\"/poet/henry-van-dyke\" hreflang=\"en\">Henry van Dyke</a>", "field_date_published": "2018", "body": " <pre>If Might made Right, life were a wild-beasts\u2019 cage;\nIf Right made Might, this were the golden age;\nBut now, until we win the long campaign,\nRight must gain Might to conquer and to reign.\n\n</pre>\n "}, {"title": "Lights Out", "view_node": "/poem/lights-out-1", "field_author": "<a href=\"/poet/henry-van-dyke\" hreflang=\"en\">Henry van Dyke</a>", "field_date_published": "2018", "body": " <pre>\u201cLights out\" along the land,\n\u201cLights out\u201d upon the sea.\nThe night must put her hiding hand\nO\u2019er peaceful towns where children sleep,\nAnd peaceful ships that darkly creep\nAcross the waves, as if they were not free.\n\nThe dragons of the air,\nThe hell-hounds of the deep,\nLurking and prowling everywhere,\nGo forth to seek their helpless prey,\nNot knowing whom they maim or slay\u2014\nMad harvesters, who care not what they reap.\n\nOut with the tranquil lights,\nOut with the lights that burn\nFor love and law and human rights!\nSet back the clock a thousand years:\nAll they have gained now disappears,\nAnd the dark ages suddenly return.\n\nKaiser who loosed wild death,\nAnd terror in the night\u2014\nGod grant you draw no quiet breath,\nUntil the madness you began \nIs ended, and long-suffering man,\nSet free from was lords, cries, \u201cLet there be Light.\u201d\n\n\n</pre>\n "}, {"title": "Stand Fast", "view_node": "/poem/stand-fast", "field_author": "<a href=\"/poet/henry-van-dyke\" hreflang=\"en\">Henry van Dyke</a>", "field_date_published": "2018", "body": " <pre>           Stand fast, Great Britain!\nTogether England, Scotland, Ireland stand\nOne in the faith that makes a mighty land,\u2014\nTrue to the bond you have and will not break\nAnd fearless in the fight for conscience\u2019 sake!\nAgainst the Giant Robber clad in steel,\nWith blood of trampled Belgium on his heel,\nStriding through France to strike you down at last\n           Britain, stand fast!\n\n           Stand fast, brave land!\nThe Huns are thundering toward the citadel;\nThey prate of Culture but their path is Hell;\nTheir light is darkness, and the bloody sword\nThey wield and worship is their only Lord.\nO land where reason stands secure on right,\nO land where freedom is the source of light,\nAgainst the mailed Barbarians\u2019 deadly blast,\n           Britain, stand fast!\n\n           Stand fast, dear land!\nThou island mother of a world-wide race,\nWhose children speak thy tongue and love thy face,\nTheir hearts and hopes are with thee in the strife,\nTheir hands will break the sword that seeks thy life;\nFight on until the Teuton madness cease;\nFight bravely on, until the word of peace\nIs spoken in the English tongue at last,\u2014\n           Britain, stand fast!\n</pre>\n "}, {"title": "The Red Flower", "view_node": "/poem/red-flower", "field_author": "<a href=\"/poet/henry-van-dyke\" hreflang=\"en\">Henry van Dyke</a>", "field_date_published": "2018", "body": " <pre>                <em>June, 1914</em>\n\nIn the pleasant time of Pentecost,\n    By the little river Kyll,\nI followed the angler\u2019s winding path\n    Or waded the stream at will,\nAnd the friendly fertile German land\n    Lay round me green and still.\n\nBut all day long on the eastern bank\n    Of the river cool and clear,\nWhere the curving track of the double rails\n    Was hardly seen though near,\nThe endless trains of German troops\n    Went rolling down to Trier.\n\nThey packed the windows with bullet heads\n    And caps of hodden gray;\nThey laughed and sang and shouted loud\n    When the trains were brought to a stay;\nThey waved their hands and sang again\n    As they went on their iron way.\n\nNo shadows fell on the smiling land,\n    No cloud arose in the sky;\nI could hear the river\u2019s quiet tune\n    When the trains had rattled by;\nBut my heart sank low with a heavy sense\n    Of trouble,\u2014I knew not why.\n\nThen came I into a certain field\n    Where the devil\u2019s paint-brush spread\n\u2019Mid the gray and green of the rolling hills\n    A flaring splotch of red,\u2014\nAn evil omen, a bloody sign,\n    And a token of many dead.\n\nI saw in a vision the field-gray horde\n    Break forth at the devil\u2019s hour,\nAnd trample the earth into crimson mud\n    In the rage of the Will to Power,\u2014\nAll this I dreamed in the valley of Kyll,\n    At the sign of the blood-red flower.\n\n</pre>\n "}, {"title": "The Gunboat", "view_node": "/poem/gunboat", "field_author": "<a href=\"/poet/dana-burnet\" hreflang=\"en\">Dana Burnet</a>", "field_date_published": "2018", "body": " <pre>Out in the good, clean water where it\u2019s blue and wide and deep,\nThe pride of Britain\u2019s navy lies with thunders all asleep,\nAnd the men they fling their British songs along the open sky,\nBut the little modest gunboat, she\u2019s a-creepin\u2019 in to die!\n\nThe First Line\u2019s swingin\u2019 lazy on the purple outer ring,\nThe proudest ships that ever kept the honor of a King!\nBut nosin\u2019 down the roadway past the bones of other wrecks\nGoes the doughty little gunboat with her manhood on her decks!\n\nOh, the First Line\u2019s in the offing, with its shotted lightnings pent,\nThe proudest fleet that ever kept the King his sacrament!\nBut down the death-sown harbor where a ship may find her grave,\nThe plucky little gunboat is a-sinkin\u2019 \u2019neath the wave!\n\nThen sing your British chanteys to the ends of all the seas,\nAnd fling your British banners to the Seven Oceans\u2019 breeze\u2014\nBut when you tell the gallant tale beneath the open sky\nGive honor to the gunboat that was not too small to die!\n\n</pre>\n "}, {"title": "Ballad of French Rivers", "view_node": "/poem/ballad-french-rivers", "field_author": "<a href=\"/poet/christopher-morley\" hreflang=\"en\">Christopher Morley</a>", "field_date_published": "2018", "body": " <pre>Of streams that men take honour in\n    The Frenchman looks to three,\nAnd each one has for origin\n    The hills of Burgundy;\nAnd each has known the quivers \n    Of blood and tears and pain\u2014\nO gallant bleeding rivers,\n    The Marne, the Meuse, the Aisne.\n\nSays Marne: \u201cMy poplar fringes\n    Have felt the Prussian tread,\nThe blood of brave men tinges\n    My banks with lasting red;\nLet others ask due credit,\n    But France has me to thank;\nVon Kluck himself has said it:\u2014\n    I turned the Boche\u2019s flank!\u201d\n\nSays Meuse: \u201cI claim no winning,\n    No glory on the stage,\nSave that, in the beginning\n    I stove to save Li\u00e9ge.\nAlas that Frankish rivers\n    Should share such shame as mine\u2014\nIn spite of all endeavours\n    I flow to join the Rhine!\u201d\n\nSays Aisne: \u201cMy silver shallows\n    Are salter than the sea,\nThe woe of Rheims still hallows\n    My endless tragedy.\nOf rivers rich in story\n    That run through green Champagne,\nIn agony and glory\n    The chief am I, the Aisne!\u201d\n\nNow there are greater waters\n    That Frenchmen all hold dear\u2014\nThe Rhone, with many daughters,\n    That runs so icy clear;\nThere\u2019s Moselle, deep and winy,\n    There\u2019s Loire, Garonne and Seine,\nBut O the valiant tiny\u2014\n    The Marne, the Meuse, the Aisne!\n</pre>\n "}, {"title": "Not to Keep", "view_node": "/poem/not-keep", "field_author": "<a href=\"/poet/robert-frost\" hreflang=\"und\">Robert Frost</a>", "field_date_published": "2018", "body": "<p><span class=\"long-line\">They sent him back to her. The letter came</span><br /><span class=\"long-line\">Saying... and she could have him. And before</span><br /><span class=\"long-line\">She could be sure there was no hidden ill</span><br /><span class=\"long-line\">Under the formal writing, he was in her sight\u2014</span><br /><span class=\"long-line\">Living.\u2014 They gave him back to her alive\u2014</span><br /><span class=\"long-line\">How else? They are not known to send the dead\u2014</span><br /><span class=\"long-line\">And not disfigured visibly. His face?\u2014</span><br /><span class=\"long-line\">His hands? She had to look\u2014to ask,</span><br /><span class=\"long-line\">\u201cWhat was it, dear?\u201d And she had given all</span><br /><span class=\"long-line\">And still she had all\u2014<em>they</em> had\u2014they the lucky!</span><br /><span class=\"long-line\">Wasn\u2019t she glad now? Everything seemed won,</span><br /><span class=\"long-line\">And all the rest for them permissible ease.</span><br /><span class=\"long-line\">She had to ask, \"What was it, dear?\"</span><br /><span class=\"long-line\">\u00a0 \u00a0 \u00a0 \u00a0 \u00a0 \u00a0 \u00a0 \u00a0 \u00a0 \u00a0 \u00a0 \u00a0 \u00a0 \u00a0 \u00a0 \u00a0 \u00a0 \u00a0 \u00a0 \u00a0 \u00a0 \u00a0 \u00a0 \u00a0 \u00a0 \u00a0 \u00a0 \u00a0 \u00a0 \u00a0 \u00a0 \u00a0\u201cEnough,</span><br /><span class=\"long-line\">Yet not enough. A bullet through and through,</span><br /><span class=\"long-line\">High in the breast. Nothing but what good care</span><br /><span class=\"long-line\">And medicine and rest\u2014and you a week,</span><br /><span class=\"long-line\">Can cure me of to go again.\u201d The same</span><br /><span class=\"long-line\">Grim giving to do over for them both.</span><br /><span class=\"long-line\">She dared no more than ask him with her eyes</span><br /><span class=\"long-line\">How was it with him for a second trial.</span><br /><span class=\"long-line\">And with his eyes he asked her not to ask.</span><br /><span class=\"long-line\">They had given him back to her, but not to keep.\u00a0</span></p>\n"}, {"title": "Two Sonnets", "view_node": "/poem/two-sonnets", "field_author": "<a href=\"/poet/charles-hamilton-sorley\" hreflang=\"en\">Charles Hamilton Sorley</a>", "field_date_published": "2018", "body": " <p>I</p><p>Saints have adorned the lofty soul of you.<br />Poets have whitened at your high renown.<br />We stand among the many millions who<br />Do hourly wait to pass your pathway down.<br />You, so familiar, once were strange: we tried<br />To live as of your presence unaware.<br />But now in every road on every side<br />We see your straight and steadfast signpost there.</p><p>I think it like that signpost in my land<br />Hoary and tall, which pointed me to go<br />Upward, into the hills, on the right hand,<br />Where the mists swim and the winds shriek and blow,<br />A homeless land and friendless, but a land<br />I did not know and that I wished to know.</p><p>II</p><p>Such, such is Death: no triumph: no defeat:<br />Only an empty pail, a slate rubbed clean,<br />A merciful putting away of what has been.</p><p>And this we know: Death is not Life effete,<br />Life crushed, the broken pail. We who have seen<br />So marvellous things know well the end not yet.</p><p>Victor and vanquished are a-one in death:<br />Coward and brave: friend, foe. Ghosts do not say,<br />\u201cCome, what was your record when you drew breath?\u201d<br />But a big blot has hid each yesterday<br />So poor, so manifestly incomplete.<br />And your bright Promise, withered long and sped,<br />Is touched, stirs, rises, opens and grows sweet<br />And blossoms and is you, when you are dead.</p> "}, {"title": "Typhoon", "view_node": "/poem/typhoon", "field_author": "<a href=\"/poet/amelia-josephine-burr\" hreflang=\"en\">Amelia Josephine Burr</a>", "field_date_published": "2018", "body": " <p>We shall not shiver as we vainly try<br />To stir cold ashes once again to fire,<br />Nor bury a dead passion, you and I.<br />The wind that weds a moment sea and sky<br />In one exultant storm and passes by,<br />Was our desire.</p> "}, {"title": "Red Cross Work", "view_node": "/poem/red-cross-work", "field_author": "<a href=\"/poet/amelia-josephine-burr\" hreflang=\"en\">Amelia Josephine Burr</a>", "field_date_published": "2018", "body": " <p>\u00a0\u00a0\u00a0\u00a0\u00a0\u00a0\u00a0\u00a0 <em>(Or the vigilantes)</em></p><p>Interminable folds of gauze<br />For those whom we shall never see....<br />Remember, when your fingers pause,<br />That every drop of blood to stain<br />Their whiteness, falls for you and me,<br />Part of the price that keeps us free<br />To serve our own, that keeps us clean<br />For shame that other women know....<br />O, saviours we have never seen,<br />Forgive us that we are so slow!<br />God\u2014if that blood should cry in vain,<br />And we have let our moments go!</p> "}, {"title": "I Have a Rendezvous with Death", "view_node": "/poem/i-have-rendezvous-death", "field_author": "<a href=\"/poet/alan-seeger\" hreflang=\"und\">Alan Seeger</a>", "field_date_published": "1917", "body": "<p><span class=\"long-line\">I have a rendezvous with Death</span><br /><span class=\"long-line\">At some disputed barricade,</span><br /><span class=\"long-line\">When Spring comes back with rustling shade</span><br /><span class=\"long-line\">And apple-blossoms fill the air\u2014</span><br /><span class=\"long-line\">I have a rendezvous with Death</span><br /><span class=\"long-line\">When Spring brings back blue days and fair.</span></p>\n\n<p><span class=\"long-line\">It may be he shall take my hand</span><br /><span class=\"long-line\">And lead me into his dark land</span><br /><span class=\"long-line\">And close my eyes and quench my breath\u2014</span><br /><span class=\"long-line\">It may be I shall pass him still.</span><br /><span class=\"long-line\">I have a rendezvous with Death</span><br /><span class=\"long-line\">On some scarred slope of battered hill,</span><br /><span class=\"long-line\">When Spring comes round again this year </span><br /><span class=\"long-line\">And the first meadow-flowers appear. </span></p>\n\n<p><span class=\"long-line\">God knows \u2019twere better to be deep</span><br /><span class=\"long-line\">Pillowed in silk and scented down,</span><br /><span class=\"long-line\">Where love throbs out in blissful sleep,</span><br /><span class=\"long-line\">Pulse nigh to pulse, and breath to breath,</span><br /><span class=\"long-line\">Where hushed awakenings are dear... </span><br /><span class=\"long-line\">But I\u2019ve a rendezvous with Death</span><br /><span class=\"long-line\">At midnight in some flaming town,</span><br /><span class=\"long-line\">When Spring trips north again this year,</span><br /><span class=\"long-line\">And I to my pledged word am true, </span><br /><span class=\"long-line\">I shall not fail that rendezvous.</span></p>\n"}, {"title": "The Twelve-Forty-Five", "view_node": "/poem/twelve-forty-five", "field_author": "<a href=\"/poet/joyce-kilmer\" hreflang=\"und\">Joyce Kilmer</a>", "field_date_published": "2018", "body": " <pre>              (For Edward J. Wheeler)\n\nWithin the Jersey City shed\nThe engine coughs and shakes its head.\nThe smoke, a plume of red and white,\nWaves madly in the face of night.\nAnd now the grave incurious stars\nGleam on the groaning hurrying cars.\nAgainst the kind and awful reign\nOf darkness, this our angry train,\nA noisy little rebel, pouts\nIts brief defiance, flames and shouts\u2014\nAnd passes on, and leaves no trace.\nFor darkness holds its ancient place,\nSerene and absolute, the king\nUnchanged, of every living thing.\nThe houses lie obscure and still\nIn Rutherford and Carlton Hill.\nOur lamps intensity the dark\nOf slumbering Passaic Park.\nAnd quiet holds the weary feet\nThat daily tramp through Prospect Street.\nWhat though we clang and clank and roar\nThrough all Passaic\u2019s streets? No door\nWill open, not an eye will see\nWho this loud vagabond may be.\nUpon my crimson cushioned seat,\nIn manufactured light and heat,\nI feel unnatural and mean.\nOutside the towns are cool and clean;\nCurtained awhile from sound and sight\nThey take God\u2019s gracious gift of night.\nThe stars are watchful over them.\nOn Clifton as on Bethlehem\nThe angels, leaning down the sky,\nShed peace and gentle dreams. And I\u2014\nI ride, I blasphemously ride\nThrough all the silent countryside.\nThe engine\u2019s shriek, the headlight\u2019s glare,\nPollute the still nocturnal air.\nThe cottages of Lake View sigh\nAnd sleeping, frown as we pass by.\nWhy, even strident Paterson\nRests quietly as any nun.\nHer foolish warring children keep\nThe grateful armistice of sleep.\nFor what tremendous errand\u2019s sake\nAre we so blatantly awake?\nWhat precious secret is our freight?\nWhat king must be abroad so late?\nPerhaps Death roams the hills to-night\nAnd we rush forth to give him fight.\nOr else, perhaps, we speed his way\nTo come remote unthinking prey.\nPerhaps a woman writhes in pain\nAnd listens\u2014listens for the train!\nThe train, with healing on its wings.\nNow \u201cHawthorne!\u201d the conductor cries.\nMy neighbor starts and rubs his eyes.\nHe hurries yawning through the car\nAnd steps out where the houses are.\nThis is the reason of our quest!\nNot wantonly we break the rest\nOf town and village, nor do we\nLightly profane night\u2019s sanctity.\nWhat Love commands the train fulfills,\nAnd beautiful upon the hills\nAre these our feet of burnished steel.\nSubtly and certainly I feel\nThat Glen Rock welcomes us to her\nAnd silent Ridgewood seems to stir\nAnd smile, because she knows the train\nHas brought her children back again.\nWe carry people home\u2014and so \nGod speeds us, wheresoe\u2019er we go.\nHohokus, Waldwick, Allendale\nLift sleepy heads to give us hail.\nIn Ramsey, Mahwah, Suffern stand\nHouses that wistfully demand\nA father\u2014son\u2014some human thing\nThat this, the midnight train, may bring.\nThe trains that travel in the day\nThey hurry folks to work or play.\nThe midnight train is slow and old,\nBut of it let this thing be told,\nTo its high honor be it said,\nIt carries people home to bed.\nMy cottage lamp shines white and clear.\nGod bless the train that brought me here.\n</pre>\n "}, {"title": "Mirage du Cantonment", "view_node": "/poem/mirage-du-cantonment", "field_author": "<a href=\"/poet/joyce-kilmer\" hreflang=\"und\">Joyce Kilmer</a>", "field_date_published": "2018", "body": " <pre>Many laughing ladies, leisurely and wise,\nLow rich voice, delicate gay cries,\nTea in fragile china cups, ices, macaroons,\nSheraton and Heppelwhite and old thin spoons,\nRather dim paintings on very high walls,\nWindows showing lawns whereon the sunlight falls,\nPink and silver gardens and broad kind trees,\n<span class=\"long-line\">And fountains scattering rainbows at the whim of a breeze,</span>\nFragrance, mirth and gentleness, a Summer day\nIn a world that has forgotten everything but play.\n</pre>\n "}, {"title": "The Peacemaker", "view_node": "/poem/peacemaker", "field_author": "<a href=\"/poet/joyce-kilmer\" hreflang=\"und\">Joyce Kilmer</a>", "field_date_published": "2018", "body": " <pre>Upon his will he binds a radiant chain,\n    For Freedom\u2019s sake he is no longer free.\n    It is his task, the slave of Liberty,\nWith his own blood to wipe away a stain.\nThat pain may cease, he yields his flesh to pain.\n    To banish war, he must a warrior be.\n    He dwells in Night, eternal Dawn to see,\nAnd gladly dies, abundant life to gain.\n\nWhat matters Death, if Freedom be not dead?\n    No flags are fair, if Freedom\u2019s flag be furled.\nWho fights for Freedom, goes with joyful tread\n    To meet the fires of Hell against him hurled,\nAnd has for captain Him whose thorn-wreathed head\n    Smiles from the Cross upon a conquered world.\n</pre>\n "}, {"title": "The White Ships and the Red", "view_node": "/poem/white-ships-and-red", "field_author": "<a href=\"/poet/joyce-kilmer\" hreflang=\"und\">Joyce Kilmer</a>", "field_date_published": "2018", "body": " <pre>         (For Alden March)\n\nWith dropping sail and pennant\n    That never a wind may reach,\nThey float in sunless waters\n    Beside a sunless beach.\nTheir mighty masts and funnels\n    Are white as driven snow,\nAnd with a pallid radiance\n    Their ghostly bulwarks glow.\n\nHere is a Spanish galleon\n    That once with gold was gay,\nHere is a Roman trireme\n    Whose hues outshone the day.\nBut Tyrian dyes have faded,\n    And prows that once were bright\nWith rainbow stains wear only\n    Death\u2019s livid, dreadful white.\n\nWhite as the ice that clove her\n    That unforgotten day,\nAmong her pallid sisters\n    the grim <em>Titanic</em> lay.\nAnd through the leagues above her\n    She looked aghast, and said:\n\u201cWhat is this living ship that comes\n    Where every ship is dead?\u201d\n\nThe ghostly vessels trembled\n    From ruined stern to prow;\nWhat was this thing of terror\n    That broke their vigil now?\nDown through the startled ocean\n    A mighty vessel came,\nNot white, as all dead ships must be,\n    But red, like living flame!\n\nThe pale green waves about her\n    Were swiftly, strangely dyed,\nBy the great scarlet stream that flowed\n    From out her wounded side.\nAnd all her decks were scarlet\n    And all her shattered crew.\nShe sank among the white ghost ships\n    And stained them through and through.\n\nThe grim <em>Titanic</em> greeted her.\n    \u201cAnd who art thou?\u201d she said;\n\u201cWhy dost thou join our ghostly fleet\n    Arrayed in living red?\nWe are the ships of sorrow\n    Who spend the weary night,\nUntil the dawn of Judgement Day,\n    Obscure and still and white.\u201d\n\n\u201cNay,\u201d said the scarlet visitor,\n    \u201cThough I sink through the sea,\nA ruined thing that was a ship,\n    I sink not as did ye.\nFor ye met with your destiny\n    By storm or rock or fight,\nSo through the lagging centuries\n    Ye wear your robes of white.\n\n\u201cBut never crashing iceberg\n    Nor honest shot of foe,\nNor hidden reef has sent me\n    The way that I must go.\nMy wound that stains the waters,\n    My blood that is like flame,\nBear witness to a loathly deed,\n    A deed without a name.\n\n\u201cI went not forth to battle,\n    I carried friendly men,\nThe children played about my decks,\n    The women sang\u2014and then\u2014\nAnd then\u2014the sun blushed scarlet\n    And Heaven hid its face,\nThe world that God created\n    Became a shameful place!\n\n\u201cMy wrong cries out for vengeance,\n    The blow that sent me here\nWas aimed in Hell. My dying scream\n    Has reached Jehovah\u2019s ear.\nNot all the seven oceans\n    Shall wash away that stain;\nUpon a brow that wears a crown\n    I am the brand of Cain.\u201d\n\nWhen God\u2019s great voice assembles \n    The fleet of Judgement Day,\nThe ghosts of ruined ships will rise\n    In sea and strait and bay.\nthough they have lain for ages\n    Beneath the changeless flood,\nThey shall be white as silver,\n    But one\u2014shall be like blood.\n\n \n</pre>\n "}, {"title": "Rouge Bouquet", "view_node": "/poem/rouge-bouquet", "field_author": "<a href=\"/poet/joyce-kilmer\" hreflang=\"und\">Joyce Kilmer</a>", "field_date_published": "2018", "body": " <pre>In a wood they call the Rouge Bouquet\nThere is a new-made grave to-day,\nBuild by never a spade nor pick\nYet covered with earth ten metres thick.\nThere lie many fighting men,\n    Dead in their youthful prime,\nNever to laugh nor love again\n    Nor taste the Summertime.\nFor Death came flying through the air\nAnd stopped his flight at the dugout stair,\nTouched his prey and left them there,\n    Clay to clay.\nHe hid their bodies stealthily\nIn the soil of the land they fought to free\n    And fled away.\nNow over the grave abrupt and clear\n    Three volleys ring;\nAnd perhaps their brave young spirits hear\n    The bugle sing:\n\u201cGo to sleep!\nGo to sleep!\nSlumber well where the shell screamed and fell.\nLet your rifles rest on the muddy floor,\nYou will not need them any more.\nDanger\u2019s past;\nNow at last, \nGo to sleep!\u201d\n\nThere is on earth no worthier grave\nTo hold the bodies of the brave\nThan this place of pain and pride\nWhere they nobly fought and nobly died.\nNever fear but in the skies\nSaints and angels stand \nSmiling with their holy eyes\n    On this new-come band.\nSt. Michael\u2019s sword darts through the air\nAnd touches the aureole on his hair\nAs he sees them stand saluting there,\n    His stalwart sons;\nAnd Patrick, Brigid, Columkill\nRejoice that in veins of warriors still\n    The Gael\u2019s blood runs.\nAnd up to Heaven\u2019s doorway floats,\n    From the wood called Rouge Bouquet,\nA delicate cloud of buglenotes\n    That softly say:\n\u201cFarewell!\nFarewell!\nComrades true, born anew, peace to you!\nAnd your memory shine like the morning-star.\nBrave and dear,\nShield us here.\nFarewell!\u201d\n</pre>\n "}, {"title": "Prayer", "view_node": "/poem/prayer-11", "field_author": "<a href=\"/poet/richard-aldington\" hreflang=\"und\">Richard Aldington</a>", "field_date_published": "2018", "body": " <pre>I am a garden of red tulips\nAnd late daffodils and bay-hedges,\nA small sunk garden\nAbout an oblong pool\nWith three grey lead Dutch tanks\u2014\nI am this garden shattered and blown\nWith a day-long western gale\nAnd bursts of rapid rain.\n\nThere are dank petals in the ruffled waters,\nAnd muddy flowers upon the path.\nThe grass is covered with torn leaves.\n\nGod of gardens, dear small god of gardens,\nGrant me faint glow of sunlight,\nA last bird hopping in the quiet haze,\nThen let the night swoop swiftly,\nFold round and crush out life\nFor ever.\n\n</pre>\n "}, {"title": "R. V. and Another", "view_node": "/poem/r-v-and-another", "field_author": "<a href=\"/poet/richard-aldington\" hreflang=\"und\">Richard Aldington</a>", "field_date_published": "2018", "body": " <pre>Vagabonds of beauty,\nWistful exquisite waifs\nFrom a lost, and a forgotten, and a lovely land,\nWe cannot comfort you\nThough our souls yearn for you.\n\nYou are delicate strangers\nIn a gloomy town,\nStared at and hated\u2014\nGold crocus blossoms in a drab lane.\n\nWe cannot comfort you;\nYour life is anguish;\nAll we can do\u2014\nMutely bring pungent herbs and branches of oak\nAnd resinous scented pine wreaths\nTo hid the crown of thorny pain\nCrushing your white frail foreheads. \n</pre>\n "}, {"title": "Captive", "view_node": "/poem/captive", "field_author": "<a href=\"/poet/richard-aldington\" hreflang=\"und\">Richard Aldington</a>", "field_date_published": "2018", "body": " <pre>They have torn the gold tettinx\nFrom my hair;\nAnd wrenched the bronze sandals\nFrom my ankles.\n\nThey have taken from me my friend\nWho knew the holy wisdom of poets,\nWho had drunk at the feast\nWhere Simonides sang.\n\nNo more do I walk the calm gardens\nIn the white mist of olives;\nNo more do I take the rose-crown\nFrom the white hands of a maiden.\n\nI, who was free, am a slave;\nThe Muses have forgotten me,\nThe gods do not hear me.\n\nHere there are no flowers to love;\nBut afar off I dream that I see\nBent poppies and the deathless asphodel. \n\n</pre>\n "}, {"title": "Images", "view_node": "/poem/images-1", "field_author": "<a href=\"/poet/richard-aldington\" hreflang=\"und\">Richard Aldington</a>", "field_date_published": "2018", "body": " <pre>                         I\n\nThrough the dark pine trunks\nSilver and yellow gleam the clouds\nAnd the sun;\nThe sea is faint purple.\n<em>My love, my love, I shall never reach you.\n</em>\n                        II\n\nYou are beautiful\nAs a straight red fox-glove\nAmong green plants;\nI stretched out my hand to caress you:\nIt is blistered by the envious nettles.\n\n                       III\n\nI have spent hours this morning\nSeeking in the brook\nFor a clear pebble\nTo remind me of your eyes.\n\nAnd all the sleepless hours of night\nI think of you.\n\n                       IV\n\nYour kisses are poignant,\nAh! why must I leave you?\n\nHere above I scribble and re-scribble\nThe words of a long-dead Greek Poet:\n\u201cLove, thou art terrible,\nAh, Love, thou are bitter-sweet!\u201d\n\n</pre>\n "}], "pager": {"current_page": 204, "total_items": "13248", "total_pages": 663, "items_per_page": 20}}