{"rows": [{"title": "The Silent Singer", "view_node": "/poem/silent-singer", "field_author": "<a href=\"/poet/len-roberts\" hreflang=\"und\">Len Roberts</a>", "field_date_published": "2000", "body": " <pre>\nThe girls sang better than the boys, \ntheir voices reaching <i>All the way to God</i>, \nSister Ann Zita insisted during those \n     practice sessions\nwhen I was told to mouth <i>do, re, mi</i>,\n     but to go no higher,\nwhen I was told to stand in back \n    and form a perfect <i>0</i>\n        with my lips\nalthough no word was ever to come out, \nthe silent singer in that third-grade \n     class\nduring the Christmas Pageant and Easter \n     Week, the birth and death \n        of Christ lip-synched\n            but unsung\t\nwhile my relatives, friends and parents\n     praised my baritone,\n     how low my voice was,\n<i>Balancing those higher, more childlike tones</i>,\n     my father said,\n<i>Adding depth</i>, my mother said,\n<i>Thank God they had my huskiness to bring all\n     that tinniness to earth</i>,\n     my great-aunt whispered,\nso I believed for many years in miracles\n     myself,\nthe words I'd never sung reaching their ears \n     in the perfect pitch, the perfect tone, \nwhile the others stuttered in their all-too-human\n     voices to praise the Lord.\n</pre>\n "}, {"title": "Concerning the Angel at 5th &amp; 53rd", "view_node": "/poem/concerning-angel-5th-53rd", "field_author": "<a href=\"/poet/j-p-white\" hreflang=\"und\">J. P. White</a>", "field_date_published": "2000", "body": " <pre>\nEvery city has them--pools of helmeted, stained men\nClustered around engines grinding through night.\nWhite arc lights sear the jagged, scraped surface\nOf dirt and cut stone as the men stand guard\nOver broken water mains, busted sewer lines, road repair.\nWho knows how long they've been there, caught\nBy the old mephitic street vapors, swallowed by the noise\nOf machinery, the long blue flashes of smoke?\nWhere much is lacking, faces say, there are many wishes.\nOr so it seemed after midnight at 5th and 53rd\nWhen this black woman in tight red shorts, lacy blouse,\nAnd black bra clipped past men cutting out a section\nOf curb with backhoe and jackhammers.\n\n                                        A riveting Giotto\nAngel, she'd plunged to earth to fill momentarily the wing\nOf a triptych. As she turned the corner, a white man hunched\nOver a hammer, took his eyes off his work, \"Hey, Valentine, \nI'll take some of that.\" With his compressor hissing over\nTaxi horns, she never noticed his pain when the hammer\nHit his boot, probably broke his foot. He slumped, wailing,\nRipped the gold cross from his neck as though he might\nHeave it after her. I could see in his eyes how close\nHate is to love--the Angel of Mercy now an ugly cunning\nFury, the source of so much uninhaled pollen, the cause\nOf the world cut in twain--as she vanished deep into\nThe luminous fibers of the neat block, both answering\nAnd failing to answer the many prayers she had heard.\n</pre>\n "}, {"title": "I Have Been Living", "view_node": "/poem/i-have-been-living", "field_author": "<a href=\"/poet/jane-mead\" hreflang=\"und\">Jane Mead</a>", "field_date_published": "2000", "body": " <pre>\nI have been living\ncloser to the ocean than I thought--\nin a rocky cove thick with seaweed.\n\nIt pulls me down when I go wading.\nSometimes, to get back to land\ntakes everything that I have in me. \n\nSometimes, to get back to land\nis the worst thing a person can do. \nMeanwhile, we are dreaming: \n\nThe body is innocent.\nShe has never hurt me.\nWhat we love flutters in us. </pre>\n "}, {"title": "Words", "view_node": "/poem/words", "field_author": "<a href=\"/poet/dana-gioia\" hreflang=\"und\">Dana Gioia</a>", "field_date_published": "2001", "body": " <pre>\nThe world does not need words. It articulates itself \nin sunlight, leaves, and shadows. The stones on the path \nare no less real for lying uncatalogued and uncounted.\nThe fluent leaves speak only the dialect of pure being. \nThe kiss is still fully itself though no words were spoken.\n\nAnd one word transforms it into something less or other--\n<i>illicit, chaste, perfunctory, conjugal, covert</i>.\nEven calling it a <i>kiss</i> betrays the fluster of hands \nglancing the skin or gripping a shoulder, the slow \narching of neck or knee, the silent touching of tongues.\n\nYet the stones remain less real to those who cannot \nname them, or read the mute syllables graven in silica. \nTo see a red stone is less than seeing it as jasper--\nmetamorphic quartz, cousin to the flint the Kiowa \ncarved as arrowheads. To name is to know and remember.\n\nThe sunlight needs no praise piercing the rainclouds, \npainting the rocks and leaves with light, then dissolving \neach lucent droplet back into the clouds that engendered it. \nThe daylight needs no praise, and so we praise it always-- \ngreater than ourselves and all the airy words we summon.\n</pre>\n "}, {"title": "Barrio with Sketchy Detail", "view_node": "/poem/barrio-sketchy-detail", "field_author": "<a href=\"/poet/andrea-werblin\" hreflang=\"und\">Andrea Werblin</a>", "field_date_published": "2001", "body": " <pre>\nExcept for the chickens humming to each other,\nmaking themselves look boneless in the dirt, \nI want no memory of this place.\n\nI will leave gingerly.\nI will leave strung out.\nI will leave rocking on my heels in unbearable heat.\n\nthe Mexican girls still faking and mourning Selena \nfrom their perfect cement stoops, \nnot yet sworn to the anger hanging \nfrom their papas' mouths like cigarettes.\n\nI will leave stunned, from across the room.\nI will leave by instinct, my tongue intact.\nI will leave understanding it\n\nwas always coming, before that night, even \nbefore we met. Marta will stand quiet, a glyph,\nPedro offer beer in cups. We'll sit.\n\nWhen I leave, the sky will be a gouache of scratches,\nthe morning sluggish, a cactus flowering.\nOr I will leave in blistered dark. It will still be true.\n</pre>\n "}, {"title": "Altars of Light", "view_node": "/poem/altars-light", "field_author": "<a href=\"/poet/pierre-joris\" hreflang=\"und\">Pierre Joris</a>", "field_date_published": "2001", "body": " <pre>If the light is the soul \nthen soul is what's \nall around me.\n\nIt is you, \nit is around you too, \nit is you.\n\nThe darkness is inside me, \nthe opaqueness of organs folded \nupon organs\u2014\n\nto make light in the house of\nthe body\u2014\n     thus to bring the\noutside in,\n     the impossible job.\n\n   And the only place to become\nthe skin\n   the border, the inbetween, where\ndark meets light, where I meets\n   you.\n\n   In the house of world the \nmany darknesses are surrounded \nby light.\n\n   To see the one, we need \nthe other / it cuts both ways\n\n   light on light is blind \n   dark on dark is blind\n\n   light through dark is not\n\n   dark through light is movement\n   dark through light becomes,\nis becoming,\n     to move through\nlight is becoming,\n\n   is all\n     we can know.\n</pre>\n "}, {"title": "The Escape", "view_node": "/poem/escape", "field_author": "<a href=\"/poet/mark-halperin\" hreflang=\"und\">Mark Halperin</a>", "field_date_published": "2001", "body": " <pre>\nAmused when she asks, <i>is your wife Jewish</i>? and, \nbecause it's easier, because I don't \nwant to think, I answer <i>yes</i>. It's the first time. \nLater, a pushy man wants to know my \nson's birthday. Confused, I make him younger \nand the shift of dates feels so natural\n\nI let it stand. Then it's happening with family \nnames, with where I work, how long, with \nwhom\u2014minor changes in my <i>vita</i>, small alterations, \nother lives, one variant for this person, \nanother for that, as though I were picking out \nballpoint pens or books, rummaging for\n\nkeep-sakes to give away, a different self to \neach, each time. Months pass before I \ncatch on too and admit I've done what I did out of \ncaution, an attempt to screen the self, \nerase the scent, obscure the trail with a series \nof dead-ends until no one could thread\n\na way ahead through those dense thickets back to \nme, reeking of fear. what did I think I \nhad worth hiding and who was I trying to deceive? \nTell me: surrounded by those casual lies \nfabricating with disarming aplomb, why didn't I ask \nwhose escape I imagined I was fashioning?\n</pre>\n "}, {"title": "My Grandmother&#039;s White Cat", "view_node": "/poem/my-grandmothers-white-cat", "field_author": "<a href=\"/poet/maurice-kilwein-guevara\" hreflang=\"und\">Maurice Kilwein Guevara</a>", "field_date_published": "2001", "body": " <pre>\n\tWhen fiber-optic, sky blue hair became the fashion, my father began the \nmonthly ritual of shaving his head. It was August, and we were still living in the \nProjects without a refrigerator. The sound of my mother fluttering through the \nrosaries in another room reminded me of the flies I'd learned to trap in mid-\nflight and bring to my ear.\n\t\"Vecchio finally died,\" my father said, bending to lace his old boots. \"You \nwant to come help me?\"\n\tMy grandparents lived in a green-shingled house on the last street before \nthe Jones &amp; Laughlin coke furnaces, the Baltimore &amp; Ohio switching yard, and \nthe sliding banks of the Monongahela. The night was skunk-dark. The spade \nwaited off to the side.\n\tBefore I could see it, I could smell the box on the porch.\n\tWe walked down the tight alley between the houses to get to the back yard \nwhere fireflies pushed through the heat like slow aircraft and tomato plants hung \nbandaged to iron poles. My father tore and chewed a creamy yellow flower from \nthe garden.\n\tAfter a few minutes of digging, he said, \"Throw him in.\"\n\tI lifted the cardboard box above my head, so I could watch the old white \ncat tumble down, a quarter moon in the pit of the sky.\n </pre>\n "}, {"title": "Pledge", "view_node": "/poem/pledge", "field_author": "<a href=\"/poet/elizabeth-powell\" hreflang=\"und\">Elizabeth Powell</a>", "field_date_published": "2001", "body": " <pre>\nRepublic, your cool hands\nOn my schoolgirl shoulders.\nNot sure what <i>allegiances</i> meant\nUntil the vows were held by heart,\nBy memory, by rote, by benign betrothal.\nRepublic, you were mine, I knew\nBecause of Mother's religious pamphlets:\n<i>Lindsay for Mayor.\nMcGovern for President.\nHow to Register Voters.</i>\nI didn't ever want to go to school\nOn Saturdays. The baby-sitter said\nIf Nixon won, I'd have to go. Me,\nYour most cherished child bride.\nI wanted a white communion dress\nLike the ones the Catholic girls wore.\nRepublic, you know I wanted to play\nCards with Mother. Mother smoking\nMarlboros, watching Watergate all week.\nCitizen Mother all consumed at that confessional.\nI liked the name Betsy Ross.\nI liked the idea of sewing flags.\nI liked the tattered textbook about the colonies.\nSo tender, so tender. My Republic,\nI am pledged by my childish troth\nSo strangely to you.\n</pre>\n "}, {"title": "Amends", "view_node": "/poem/amends", "field_author": "<a href=\"/poet/michael-burkard\" hreflang=\"und\">Michael Burkard</a>", "field_date_published": "2001", "body": " <pre>\nIt's 11.9 miles to Mardela Springs. \nThe public school's a left away from \nthe town which is too small to be called \na town.\n\nPast the school and heading \nsouth is a road which \nimmediately kisses country, \na large pond there\n\nwith a house \nbeside it. \nThe shadows \nin the fall morning\nmake a wind beside the house.\n\nThe students are tired. \nIt's Monday. It doesn't seem\nto matter what day, most of the time \nthey're tired.\n\nIn the early fall dark \nthe road whispers to the pond.\n\"Amends.\" School is out, no one hears. In 216 \nthe janitor replaces a fluorescent light. \nHe drops a screw from ten steps up.\n\nThe school is so quiet it hears the drop.\nThe school and the road begin their talk.\nSoon the pond joins in.\n\"Amends.\"\n</pre>\n "}, {"title": "Mosquito", "view_node": "/poem/mosquito", "field_author": "<a href=\"/poet/myronn-hardy\" hreflang=\"und\">Myronn Hardy</a>", "field_date_published": "2001", "body": " <pre>\nShe visits me when the lights are out, \nwhen the sun is loving another\npart of the world.\n\nShe passes through the net I sleep under  like \na cloud its holes are easily navigable.\n\nHer buzzing tells me that\nshe doesn't want my legs  arms  cheeks \nor chest.\n\nNo.\n\nShe craves adventure  wanting to travel through \nthe dark canal  the spiraling cave \nwhere earthquakes are wind.\n\nHer prize is in sight  the gelatinous mass controlling this machine. \nHow beautiful she thinks it is  her needle mouth\nfilling with water.\n\nHer children will know physics  geometry  will understand \nEnglish  Spanish  perhaps Portuguese. They will be \nhaunted their whole lives by trees  guns\nand a boom that won't cease.\n\nShe cries before drinking  the fluid is \nsalty-sweet. Oh if my mother had \ndone this for me  I would have lived.\n</pre>\n "}, {"title": "Brooklyn Anchorage", "view_node": "/poem/brooklyn-anchorage", "field_author": "<a href=\"/poet/lisa-jarnot\" hreflang=\"und\">Lisa Jarnot</a>", "field_date_published": "2001", "body": " <pre>\nand at noon I will fall in love \nand nothing will have meaning \nexcept for the brownness of \nthe sky, and tradition, and water \nand in the water off the railway \nin New Haven all the lights \ngo on across the sun, and for \nmillennia those who kiss fall into \nhospitals, riding trains, wearing \nblack shoes, pursued by those \nthey love, the Chinese in the armies \nwith the shiny sound of Johnny Cash, \nand in my plan to be myself \nI became someone else with\nsoft lips and a secret life, \nand I left, from an airport, \nin tradition of the water\non the plains, until the train \nstarted moving and yesterday \nit seemed true that suddenly \ninside of the newspaper \nthere was a powerline and \nmy heart stopped, and everything \nleaned down from the sky to kill me \nand now the cattails sing.\n</pre>\n "}, {"title": "Urgent Telegram to Jean-Michel Basquiat", "view_node": "/poem/urgent-telegram-jean-michel-basquiat", "field_author": "<a href=\"/poet/kevin-young\" hreflang=\"und\">Kevin Young</a>", "field_date_published": "2001", "body": "<p><span class=\"long-line\">HAVENT HEARD FROM YOU IN AGES STOP LOVE YOUR</span><br /><span class=\"long-line\">LATEST SHOW STOP THIS NO PHONE STUFF IS FOR BIRDS</span><br /><span class=\"long-line\">LIKE YOU STOP ONCE SHOUTED UP FROM STREET ONLY</span></p>\n\n<p><span class=\"long-line\">RAIN AND YOUR ASSISTANT ANSWERED STOP DO YOU</span><br /><span class=\"long-line\">STILL SLEEP LATE STOP DOES YOUR PAINT STILL COVER</span><br /><span class=\"long-line\">DOORS STOP FOUND A SAMO TAG COPYRIGHT HIGH</span></p>\n\n<p><span class=\"long-line\">ABOVE A STAIR STOP NOT SURE HOW YOU REACHED STOP</span><br /><span class=\"long-line\">YOU ALWAYS WERE A CLIMBER STOP COME DOWN SOME</span><br /><span class=\"long-line\">DAY AND SEE US AGAIN END</span></p>\n"}, {"title": "Mary&#039;s Duties", "view_node": "/poem/marys-duties", "field_author": "<a href=\"/poet/lola-haskins\" hreflang=\"und\">Lola Haskins</a>", "field_date_published": "2001", "body": " <pre>\nHe is rid away to the tenant farms \nand I take up my pen to list \nthe shakings-out and openings. \nAnd my thin letters lean as sails \nthat, though driven, cannot arrive.\n\nMay the ninth, I write.\nAnd: Mrs. Ferguson. \nUnbutton the bed pillows \nand plump them to the air.\nThen: Take the curtains down \nand with your broom unseat \nthe spiders' webs. Open\n\nthe windows and leave them \nwide and here the thread trails \noff, among the cottages \nwith their spring festoons of eggs \npricked with pins and blown, \nfragile as the blacksmith's daughter \ndreaming in the sun, who lifts \nher skirts above her white knees.\n\nI pull back behind a hedge. \nLet her not meet me, with my dry pen.\n</pre>\n "}, {"title": "Song", "view_node": "/poem/song-0", "field_author": "<a href=\"/poet/h-d\" hreflang=\"und\">H. D.</a>", "field_date_published": "1921", "body": " <pre>\nYou are as gold \nas the half-ripe grain \nthat merges to gold again, \nas white as the white rain \nthat beats through \nthe half-opened flowers \nof the great flower tufts \nthick on the black limbs \nof an Illyrian apple bough.\n\n  Can honey distill such fragrance \nAs your bright hair\u2014\nFor your face is as fair as rain, \n  yet as rain that lies clear \n  on white honey-comb,\nlends radiance to the white wax, \nso your hair on your brow \ncasts light for a shadow.\n</pre>\n "}, {"title": "October 27, 1989", "view_node": "/poem/october-27-1989", "field_author": "<a href=\"/poet/ed-ochester\" hreflang=\"und\">Ed Ochester</a>", "field_date_published": "2001", "body": " <pre>\n          <i>And what did you want?</i>\n          <i>To call myself beloved, to feel myself</i>\n                 <i>beloved on the earth.</i>\n                       --Ray Carver\n\t\t\t\t\t\t\nHe was in a hotel in Baltimore\nin a suburb near Johns Hopkins. He would\n\ngive a talk there, and they would pay him for it. \nIt was night, and he was alone; sirens were racing\n\nup and down the streets. The room was very large. \nMost of what he had wished as a boy was to write poems,\n\nto have some power with the word, to be paid \nfor talking. Don't smile, please. He wanted\n\nto be put in a beautiful room like this. \nBonnie would pick him up in an hour. He saw\n\nout the picture window a few men in trenchcoats \nwalking toward the parking lot, and beyond that\n\nheadlights and taillights on a freeway a mile \nor so away. He'd been reading Carver's last book\n\nof poems, reading \"Gravy\" and the other valedictories. \nHe remembered Carver a few years before his death,\n\nkidding about his prosperity, kneeling before his Mercedes \nand waving a fistful of dollars, because he was so amazed,\n\nhe supposed, to have them, that good man, whose last poems, \nwritten in the knowledge of imminent death, said\n\n<i>love the world, don't grieve overmuch, listen to people</i>. \nThe beautiful room was a good place to read; he'd finished\n\nthe book (for the second time) at the pine desk, where \nthe indirect white light hurt his eyes. He didn't think \n\nhe'd ever be as famous as Carver, but who could tell? \nHe was sorry the man was dead; there was nothing\n\nhe could do about that, but he was sorry for it. \nHe got up to look out the picture window. He could\n\nsee the red spintops of some cops' cars. Other than that \nnothing special: in the entrance courtyard a lone cabbie\n\nsmoked a cigarette; spotlights shone up through the yellow \nfoliage of a clump of maples. A few slow crickets.\n\nHe had everything he really wanted, he had learned \nthat friends, like love, couldn't save him.\n</pre>\n "}, {"title": "Identity of Images", "view_node": "/poem/identity-images", "field_author": "<a href=\"/poet/robert-desnos\" hreflang=\"und\">Robert Desnos</a>", "field_date_published": "1997", "body": " <pre>\nI am fighting furiously with animals and bottles\nIn a short time perhaps ten hours have passed one\n   after another\nThe beautiful swimmer who was afraid of coral wakes\n   this morning\nCoral crowned with holly knocks on her door\nAh! coal again always coal\nI conjure you coal tutelary genius of dreams and my\n   solitude let me let me speak again of the beautiful\n   swimmer who was afraid of coral\nNo longer tyrannize this seductive subject of my\n   dreams\nThe beautiful swimmer was reposing in a bed of lace\n   and birds\nThe clothes on a chair at the foot of the bed were\n   illuminated by gleams the last gleams of coal\nThe one that had come from the depths of the sky and \n   earth and sea was proud of its coral beak and great\n   wings of crape\nAll night long it had followed divergent funerals toward\n   suburban cemeteries\nIt had been to embassy balls marked white satin gowns with\n   its imprint a fern leaf\nIt had risen terribly before ships and the ships had not \n   returned\nNow crouched in the chimney it was watching for the \n   waking of foam and singing of kettles\nIts resounding step had disturbed the silence of nights\n   in streets with sonorous pavements\nSonorous coal coal master of dreams coal\nAh tell me where is that beautiful swimmer the swimmer\n   who was afraid of coral?\nBut the swimmer herself has gone back to sleep\nAnd I remain face to face with the fire and shall remain\n   through the night interrogating the coal with wings of\n   darkness that persists in projecting on my monotonous\n   road the shadow of its smoke and the terrible \n   reflections of its embers\nSonorous coal coal pitiless coal</pre>\n<hr /><p><a name=\"French\" id=\"French\"></a></p><p><b>Identit\u00e9 des images</b></p>\n<pre>\nJe me bats avec fureur contre des animaux et des bouteilles\nDepuis peu de temps peut-\u00eatre dix heures sont\n   pass\u00e9es l'une apr\u00e8s l'autre\nLa belle nageuse qui avait peur du corail ce matin s'\u00e9veille\nLe corail couronn\u00e9 de houx frappe \u00e0 sa porte\nAh! encore le charbon toujours le charbon\nJe t'en conjure charbon g\u00e9nie tut\u00e9laire du r\u00eave et da ma\n   solitude laisse-moi laisse-moi parler encore de la\n   belle nageuse qui avait peur du corail\nNe tyrannise plus ce s\u00e9duisant sujet de mes r\u00eaves\nLa belle nageuse reposait dans un lit de dentelles et d'oiseaux\nLes v\u00eatements sur une chaise au pied du lit \u00e9taient\n   illumin\u00e9s par les lueurs les derni\u00e8res lueurs du charbon\nCelui-ci venu des profondeurs du ciel de la terre et\n   de la mer \u00e9tait fier de son bec de corail et de ses\n   grandes ailes de cr\u00eape\nIl avait toute la nuit suivi des enterrements\n   divergents vers des cimeti\u00e8res suburbains\nIl avait assist\u00e9 \u00e0 des bals dans les ambassades\n   marqu\u00e9 de son empreinte une feuille de foug\u00e8re\n   des robes de satin blanc\nIt s'\u00e9tait dress\u00e9 terrible \u00e0 l'avant des navires et les\n   navires n'\u00e9taient pas revenus\nMaintenant tapi dans la chemin\u00e9e il guettait le\n   r\u00e9veil de l'\u00e9cume et le chant des bouilloires\nSon pas retentissant avait troubl\u00e9 le silence des\n   nuits dans les rues aux pav\u00e9s sonores\nCharbon sonore charbon ma\u00eetre du r\u00eave charbon\nAh dis-moi o\u00f9 est-elle cette belle nageuse cette\n   nageuse qui avait peur du corail?\nMais la nageuse elle-m\u00eame s'est rendormie\nEt je reste face \u00e0 face avec le feu et je resterai\n   la nuit durant \u00e0 interroger le charbon aux ailes\n   de t\u00e9n\u00e8bres qui persiste \u00e0 projeter sur mon\n   chemin monotone l'ombre de ses fum\u00e9es et le \n   reflet terrible de ses braises\nCharbon sonore charbon impitoyable charbon.</pre>\n "}, {"title": "Madrigal", "view_node": "/poem/madrigal", "field_author": "<a href=\"/poet/mary-leader\" hreflang=\"und\">Mary Leader</a>", "field_date_published": "2001", "body": " <pre>\nHow the tenor warbles in April!\nHe thrushes, he nightingales, 0 he's a lark.\nHe cuts the cinquefoil air into snippets\nWith his love's scissors in the shape of a stork.\n\nHear the alto's glissando, October.\nShe drapes blue air on her love's shoulders,\nOn his velvet jerkin the color of crows.\nHer cape of felt &amp; old pearls enfolds her.\n\nHow the baritone roots out in May!\nHis depths reach even the silence inside\nThe worms moving level, the worms moving up,\nThe pike plunging under the noisy tide.\n\nHear the soprano's vibrato, November,\nWater surface trembles, cold in the troughs.\nShe transforms blowing hedges into fences,\nShe transforms scarlet leaves into moths.\n</pre>\n "}, {"title": "What are the consequences of silence?", "view_node": "/poem/what-are-consequences-silence", "field_author": "<a href=\"/poet/bhanu-kapil\" hreflang=\"und\">Bhanu Kapil</a>", "field_date_published": "2001", "body": " <pre>\n53.\n\nRed Canna, I see you. Edge of. What I saw: a flower blossoming, in slow motion. \n<i>Not specific enough</i>. Okay. <i>No</i>. Cannot. Red Canna, I veer into you. I am not in \none straight line. Red Canna, I see you. 1904. The University of Arizona Museum \nof Art. Opening in slow motion: are you okay? Are you okay? Can you hear me? \n(<i>I can't</i>)\n\nThat's how it begins: impenetrable.\n\nThe book of two words I happen to see, out of the corner of my eye, on a wall. Such \nslowness.\n\nThese words took years to arrive.\n</pre>\n "}, {"title": "The One Secret That Has Carried", "view_node": "/poem/one-secret-has-carried", "field_author": "<a href=\"/poet/jason-shinder\" hreflang=\"und\">Jason Shinder</a>", "field_date_published": "2001", "body": " <pre>\nIrene loves a man\n      who is afraid of sex-- \n            she's attended\n\nto everything,\n      said it was okay,\n            held me until I slept.\n\nShe says, <i>Why don't you just\n      not think about it?</i>\n            But I want to know\n\nevery sensation,\n      nothing untouched,\n            though I pull my hand away\n\nonce she's found it\n      I can't be around a woman\n            too long,\n\ntoo much.\n      I say, <i>I was mistreated.</i>\n            She says, <i>A cup of tea?</i>\n\nI say, <i>I can't start a thing</i>\n      and then\n            describe the kind\n\nof thing I'd start.\n      We talk about ballrooms,\n            long sleeves and sashes,\n\nsay someday \n      we should go somewhere\n            though we can't think\n\nof anywhere\n      and then I say abruptly,\n            <i>I've never loved</i>\n\n<i>hard enough\n      to be loved back.</i>\n            I say it as if I've had enough\n\nof the whole goddamn\n      world and will never\n            be satisfied.\n\nI'm looking\n      at the wall.\n            She's looking out\n\nthe window because\n      she needs \n            to be somewhere.\n\nLater, I leave a note:\n      <i>Sorry for the difficulties.</i>\n            Meaning: how come\n\nyou don't leave?\n      I've never told this story.\n            Even at the moment\n\t\t\t\nof dying, \n      I would say\n            it was someone else's.\n</pre>\n "}], "pager": {"current_page": 651, "total_items": "13248", "total_pages": 663, "items_per_page": 20}}