{"rows": [{"title": "Bats", "view_node": "/poem/bats", "field_author": "<a href=\"/poet/paisley-rekdal\" hreflang=\"und\">Paisley Rekdal</a>", "field_date_published": "2007", "body": " <pre>\nunveil themselves in dark.\nThey hang, each a jagged,\n\nsilken sleeve, from moonlit rafters bright\nas polished knives. They swim\n\nthe muddled air and keen\nlike supersonic babies, the sound\n\nwe imagine empty wombs might make\nin women who can\u2019t fill them up.\n\nA clasp, a scratch, a sigh.\nThey drink fruit dry.\n\nAnd wheel, against feverish light flung hard\nupon their faces,\n\nin circles that nauseate.\nImagine one at breast or neck,\n\nPatterning a name in driblets of iodine\nthat spatter your skin stars.\n\nThey flutter, shake like mystics.\nThey materialize. Revelatory\n\nas a stranger\u2019s underthings found tossed\nupon the marital bed, you tremble\n\neven at the thought. Asleep,\nyou tear your fingers\n\nand search the sheets all night.</pre>\n "}, {"title": "I Would Like to Describe", "view_node": "/poem/i-would-describe", "field_author": "<a href=\"/poet/zbigniew-herbert\" hreflang=\"und\">Zbigniew Herbert</a>", "field_date_published": "2007", "body": " <pre>\nI would like to describe the simplest emotion\njoy or sadness\nbut not as others do\nreaching for shafts of rain or sun\n\nI would like to describe a light\nwhich is being born in me\nbut I know it does not resemble\nany star\nfor it is not so bright\nnot so pure\nand is uncertain\n\nI would like to describe courage\nwithout dragging behind me a dusty lion\nand also anxiety\nwithout shaking a glass full of water\n\nto put it another way\nI would give all metaphors\nin return for one word\ndrawn out of my breast like a rib\nfor one word\ncontained within the boundaries\nof my skin\n\nbut apparently this is not possible\n\nand just to say - I love\nI run around like mad\npicking up handfuls of birds\nand my tenderness\nwhich after all is not made of water\nasks the water for a face\nand anger\ndifferent from fire\nborrows from it\na loquacious tongue\n\nso is blurred\nso is blurred\nin me\nwhat white-haired gentlemen\nseparated once and for all\nand said \nthis is the subject\nand this is the object\n\nwe fall asleep\nwith one hand under our head\nand with the other in a mound of planets\n\nour feet abandon us\nand taste the earth\nwith their tiny roots\nwhich next morning\nwe tear out painfully</pre>\n "}, {"title": "1990 special", "view_node": "/poem/1990-special", "field_author": "<a href=\"/poet/charles-bukowski\" hreflang=\"und\">Charles Bukowski</a>", "field_date_published": "2007", "body": " <pre>\nyear-worn\nweary to the bone,\ndancing in the dark with the\ndark,\nthe Suicide Kid gone\ngray.\n\nah, the swift summers\nover and gone\nforever!\n\nis that death\nstalking me\nnow?\n\nno, it\u2019s only my cat,\nthis\ntime.</pre>\n "}, {"title": "Mottled Tuesday", "view_node": "/poem/mottled-tuesday", "field_author": "<a href=\"/poet/john-ashbery\" hreflang=\"und\">John Ashbery</a>", "field_date_published": "2007", "body": " <pre>\nSomething was about to go laughably wrong,\nwhether directly at home or here,\non this random shoal pleading with its eyes\ntill it too breaks loose, caught in a hail of references.\nI\u2019ll add one more scoop\nto the pile of retail.\n\nHey, you\u2019re doing it, like I didn\u2019t tell you\nto, my sinking laundry boat, point of departure,\nmy white pomegranate, my swizzle stick.\nWe\u2019re leaving again of our own volition\nfor bogus patterned plains streaked by canals,\nmaybe. Amorous ghosts will pursue us\nfor a time, but sometimes they get, you know, confused and\nforget to stop when we do, as they continue to populate this\nfertile land with their own bizarre self-imaginings.\nHere\u2019s hoping the referral goes tidily, O brother.\nChime authoritatively with the pop-ups and extras.\nKeep your units pliable and folded,\nthe recourse a mere specter, like you have it coming to you,\nawash with the new day and its abominable antithesis,\nOK? Don\u2019t be able to make that distinction.</pre>\n "}, {"title": "My First Memory (of Librarians)", "view_node": "/poem/my-first-memory-librarians", "field_author": "<a href=\"/poet/nikki-giovanni\" hreflang=\"und\">Nikki Giovanni</a>", "field_date_published": "2007", "body": " <pre>\nThis is my first memory:\nA big room with heavy wooden tables that sat on a creaky\n\u00a0\u00a0\u00a0\u00a0\u00a0\u00a0\u00a0wood floor\nA line of green shades\u2014bankers\u2019 lights\u2014down the center\nHeavy oak chairs that were too low or maybe I was simply\n\u00a0\u00a0\u00a0\u00a0\u00a0\u00a0\u00a0too short\n\u00a0\u00a0\u00a0\u00a0\u00a0\u00a0\u00a0\u00a0\u00a0\u00a0\u00a0\u00a0\u00a0\u00a0For me to sit in and read\nSo my first book was always big\n\nIn the foyer up four steps a semi-circle desk presided\nTo the left side the card catalogue\nOn the right newspapers draped over what looked like\n\u00a0\u00a0\u00a0\u00a0\u00a0\u00a0\u00a0a quilt rack\nMagazines face out from the wall\n\nThe welcoming smile of my librarian\nThe anticipation in my heart\nAll those books\u2014another world\u2014just waiting\nAt my fingertips.</pre>\n "}, {"title": "Sampling", "view_node": "/poem/sampling", "field_author": "<a href=\"/poet/ralph-angel\" hreflang=\"und\">Ralph Angel</a>", "field_date_published": "2006", "body": " <pre>\nI\u2019m standing on 10th Street. I\u2019m not the only one. Buildings rise like\n              foliage and human touch.\n\nAnd so shall dig this cigarette as my last, and rattle trains, and rot the fences\n              of the gardens of my body\u2014\n\nor without the harmony of speaking here the many sounds and rhythms that\n              sound a lot like anger\n\nwhen anger\u2019s silent, like a painting, though in the stillness of the paint itself\n              the painter nods or waves or asks for help.\n\nI\u2019m not the only one. The pharmacy\u2019s untitled. The stars are there at night.\n              In this Humidity\n\nthe forlorn singing of the insects clings to anything nailed down. A whole bag of\n              things I\u2019m working\n\nthrough, some set things that I know, like words I know that mean \"from\n              one place to another,\" the word that means\n\n\"to carry.\" I\u2019m standing still on 10th Street. I\u2019m not the only one.\n              The dark tastes of salt and oranges. Its eyes\n\nwander round and round. I am its thousand windows. I think about the future\n              and the sea. And stay.</pre>\n "}, {"title": "Surf Buddha", "view_node": "/poem/surf-buddha", "field_author": "<a href=\"/poet/matthew-lippman\" hreflang=\"und\">Matthew Lippman</a>", "field_date_published": "2007", "body": " <pre>\nThere is a sandalwood Buddha on the desk that has my stomach\nand I don't suppose to call myself a Buddha\nor even pretend to know much about Buddhist whirlings\nbut Rachel gave me the thing and it's got my belly\nthe one my father has got\nand the one his father had\nand I know this bulge the way I know my name,\nand can't believe I've become the language of fat\nthat the boys in my family have kept quiet.\n\nSo I encourage my stomach out into the world,\nrub it on a daily basis and think\nthat if I ever become a religious man\nthere would be god and glory to find there,\nmy rib cage distended,\nmy love of ice cream as sweet as my love of Rachel\n\nwho put the Buddha in my palm a month after we met and said, have this,\nand I said, <i>I already have this</i>,\nmy hands in motion around my belly button and then today\nnoticed for the first time that the little bastard has got some serious nipples on him,\nthank god, and breasts too,\nhe's the perfect kind of godlike statuette\neven if I am a Jew\n\nbut the days have been glorious and people die in truck crashes\nand men beat their wives and flowers bloom purple\nand the cardinal I've named Jack always comes around my way at this time,\n4:40 in Baldwin on the Island,\nWes Montgomery on the Sony\nand I don't know if it's his song <i>Cariba</i> or the wind on my swollen toes\nthat makes me pick up the little guy, stick him in my mouth,\nswirl him around between teeth and cheek,\nplace him on the edge of my tongue and let him surf there,\nthrough the neighborhood of my white heat,\non the curl of my pink waves.</pre>\n "}, {"title": "Grief Calls Us to the Things of This World", "view_node": "/poem/grief-calls-us-things-world", "field_author": "<a href=\"/poet/sherman-alexie\" hreflang=\"und\">Sherman Alexie</a>", "field_date_published": "2009", "body": " <pre>\n<i>The morning air is all awash with angels . . .</i>\n                                            - Richard Wilbur\n\n\nThe eyes open to a blue telephone\nIn the bathroom of this five-star hotel.\n\t\nI wonder whom I should call? A plumber, \nProctologist, urologist, or priest?\n\nWho is most among us and most deserves\nThe first call? I choose my father because\n\nHe's astounded by bathroom telephones.\nI dial home. My mother answers. \"Hey, Ma, \n\nI say, \"Can I talk to Poppa?\" She gasps,  \nAnd then I remember that my father \n\nHas been dead for nearly a year. \"Shit, Mom,\" \nI say. \"I forgot he\u2019s dead. I\u2019m sorry\u2014\n\nHow did I forget?\" \"It\u2019s okay,\" she says.\n\"I made him a cup of instant coffee \n\nThis morning and left it on the table\u2014\nLike I have for, what, twenty-seven years\u2014\n\nAnd I didn't realize my mistake \nUntil this afternoon.\" My mother laughs\n\nAt the angels who wait for us to pause\nDuring the most ordinary of days\n\nAnd sing our praise to forgetfulness\nBefore they slap our souls with their cold wings.\n\nThose angels burden and unbalance us.\nThose fucking angels ride us piggyback.\n\nThose angels, forever falling, snare us\nAnd haul us, prey and praying, into dust.</pre>\n "}, {"title": "Grace", "view_node": "/poem/grace", "field_author": "<a href=\"/poet/terence-winch\" hreflang=\"und\">Terence Winch</a>", "field_date_published": "2007", "body": " <pre>\nDidn\u2019t know if he was a retard or a drunk. \nHe would lurch around Gaelic Park \nduring game days, grinning like an idiot,\ndribbling onto his filthy cassock.  First time\nI saw him it was a shock.   And then his\nname, which had a funny sound to it:\nFather McMenamin.  The drunk priest,\nthe embarrassment to the whole community.\nHappily staggering onto the field, being gently\nushered off again, scolded as one would a\nchild: now, now, father, mustn\u2019t go there.\n\nThe shame of it all.  An affliction from God.\nThe shepherd, the authority, the man of the cloth\nas moron, bum, joke.  The meaner ones\nwould buy him drinks and make fun of him.\nGive us your blessing, Father.  Forgive me\nmy sins, Father, and I\u2019ll give you a glass.\nMcMenamin forgave them all,\nwondering where he was. Somewhere\nfar from home it seemed, searching \nfor grace in the darkness of the Bronx.</pre>\n "}, {"title": "Romantic Note", "view_node": "/poem/romantic-note", "field_author": "<a href=\"/poet/charles-north\" hreflang=\"und\">Charles North</a>", "field_date_published": "2007", "body": " <pre>\nPieces\u2014stems, ghosts\u2014of afternoon\nfalling all over themselves\ninto evening\u2014the doughty Queen Anne\u2019s lace\nthreatening to leave its bed\nso \"order growing from rank disorder\" is a dream if not\na simple category mistake, with\nor without your tacit consent\nyou want particulars I\u2019ll show you\nparticulars see here they are\nI hold them towards you</pre>\n "}, {"title": "Aftermath", "view_node": "/poem/aftermath", "field_author": "<a href=\"/poet/tony-connor\" hreflang=\"und\">Tony Connor</a>", "field_date_published": "1991", "body": " <pre>\nSlumped in a prickly armchair \non a humid summer night, \nI listened dully to dogs\nbarking with brainless pleasure \nfar away and in this street \nunder the Victory flags.\n\nThe bronze eagles with spread wings, \nflightless on walls and porches, \nreflected the light from stars, \nas my slow imaginings \nmoved between foreign corpses \nand these Stars and Stripes of ours.\n\nSweaty, itching, impotent,\nI scratched my shirtless shoulder \nand reached for another beer \u2014 \nlike a listless President \ndreaming a new world order \nfrom idle thoughts and hot air.\n\nOr like someone long inured \nto the crafted, public lies \nthat lull the popular mind \ninto easy disregard \nfor the coarse realities \nof imperial command.\n\nThe Heroes were coming home \u2014\nbut not to me in my chair \ndogged by barks and disarray; \n\"Welcome!\" the flags flapped, \"Welcome! \nyou fought for all we hold dear \nin the mighty USA.\"</pre>\n "}, {"title": "The Summer House", "view_node": "/poem/summer-house", "field_author": "<a href=\"/poet/tony-connor\" hreflang=\"und\">Tony Connor</a>", "field_date_published": "1978", "body": " <pre>\nThe Danube glitters and toils \njust beyond the walnut trees. \nThe Great Writer sits at ease \namong blooms and disciples.\n\nA garden with an old man \u2014 \nyounger men drinking his wine; \nhis voice is slow and benign, \nthe others pause to listen.\n\nWhen he has nothing to say\nhe smiles, and sniffs a pink rose \nthat straggles near his nose. \nSometimes he closes one eye.\n\nHis wife, in her painting-smock, \nserves us hors d'oeuvres and tidbits. \nShe bustles about, then sits \nto chatter and have a smoke.\n\nHow idyllic, how humane!\nI think, testing the thought: \u2014\nfor such scenes are dearly bought \nwhen foreign troops ring a town.\n\nBetrayals, maybe, and lies \nearned them a peaceful old age; \nchewing lox I try to gauge \nthe character of each face.\n\nBut I don't know the language, \nand they're all strangers to me. \nEverybody looks guilt-free, \nsunlit near the water's edge.\n\nI included, it must be,\nas I stare at the old man\nlike some homage-heavy fan \nsilenced by proximity.\n\nCalmed by thoughts that I too wear \nthe double-dealer's false face, \nI begin to like the place, \nand move out from my corner.\n\nWith the interpreter's help \nI talk of Art in the West \nfor a charming poet-guest \nwho downs vodka at a gulp.</pre>\n "}, {"title": "Elegy for Alfred Hubbard", "view_node": "/poem/elegy-alfred-hubbard", "field_author": "<a href=\"/poet/tony-connor\" hreflang=\"und\">Tony Connor</a>", "field_date_published": "1957", "body": " <pre>\nHubbard is dead, the old plumber:\nwho will mend our burst pipes now,\nthe tap that has dripped all the summer,\ntesting the sink's overflow?\n\nNo other like him. Young men with knowledge\nof new techniques and theories from books\nmay better his work, straight from college,\nbut who will challenge his squint-eyed looks\n\nin kitchen, bathroom, under floorboards,\nrules of thumb which were often wrong;\nseek as erringly stopcocks in cupboards,\nor make a job last half as long?\n\nHe was a man who knew the ginnels\nalleyways, streets \u2014 the whole district:\nfamily secrets, minor annals,\ntime-honoured fictions fused to fact.\n\nSeventy years of gossip muttered\nunder his cap, his tufty thatch,\nso that his talk was slow and clotted,\nhard to follow, and too much.\n\nAs though nothing fell, none vanished,\nand time were the maze of Cheetham Hill,\nin which the dead \u2014 with jobs unfinished\nwaited to hear him ring the bell.\n\nFor much he never got round to doing,\nbut meant to, when weather bucked up,\nor worsened, or when his pipe was drawing,\nor when he'd finished this cup.\n\nI thought time, he forgot so often,\nhad forgotten him; but here's Death's pomp\nover his house, and by the coffin\nthe son who will inherit his blowlamp,\n\ntools, workshop, cart, and cornet\n(pride of Cheetham Prize Brass Band),\nand there's his mourning widow, Janet,\nstood at the gate he'd promised to mend.\n\nSoon he will make his final journey:\nshaved and silent, strangely trim,\nwith never a pause to talk to any-\nbody: how arrow-like, for him!\n\nIn St Mark's Church, whose dismal tower\nhe pointed and painted when a lad,\nthey will sing his praises amidst flowers\nwhile, somewhere, a cellar starts to flood,\n\nand the housewife banging his front-door knocker\nis not surprised to find him gone,\nand runs for Thwaite, who's a better worker,\nand sticks at a job until it's done.</pre>\n "}, {"title": "Swarm", "view_node": "/poem/swarm", "field_author": "<a href=\"/poet/nick-flynn\" hreflang=\"und\">Nick Flynn</a>", "field_date_published": "2002", "body": " <pre>\nWhen you see us swarm \u2014 rustle of\n\nwingbeat, collapsed air \u2014 your mind\ntries to make us one, a common\n\nintelligence, a single spirit un-\ntethered. You imagine us merely\nsearching out the next\n\nvessel, anything\n\nthat could contain us, as if the hive\nwere just another jar. You try\n\nto hold the ending, this\nunspooling, make it either\n\nzero or many, lack\n\nor flurry. <i>I was born</i>,\nyou begin, &amp; already each word\nmakes you smaller. Look at this field \u2014\n\n<i>Cosmos. Lungwort.</i> Utter each\n&amp; break\n\ninto a thousand versions of yourself.\n\nYou can't tell your stories fast enough.\nThe answer is not one, but also\n\nnot two.</pre>\n "}, {"title": "Don&#039;t Let Me Be Lonely [On the bus two women argue]", "view_node": "/poem/dont-let-me-be-lonely-bus-two-women-argue", "field_author": "<a href=\"/poet/claudia-rankine\" hreflang=\"und\">Claudia Rankine</a>", "field_date_published": "2004", "body": "<p>On the bus two women argue about whether Rudy Giuliani had to kneel before the Queen of England when he was knighted. One says she is sure he had to. They all had to, Sean Connery, John Gielgud, Mick Jagger. They all had to. The other one says that if Giuliani did they would have seen it on television. We would have seen him do it. I am telling you we would have seen it happen.</p>\n\n<p>When my stop arrives I am still considering Giuliani as nobility. It is difficult to separate him out from the extremes connected to the city over the years of his mayorship. Still, a day after the attack on the World Trade Center a reporter asked him to estimate the number of dead. His reply\u2014More than we can bear\u2014caused me to turn and look at him as if for the first time. It is true that we carry the idea of us along with us. And then there are three thousand of us dead and it is incomprehensible and ungraspable. Physically and emotionally we cannot bear it, should in fact never have this capacity. So when the number is released it is a sieve that cannot hold the loss of us, the loss Giuliani recognized and answered for.</p>\n\n<p>Wallace Stevens wrote that \"the peculiarity of the imagination is nobility . . . nobility which is our spiritual height and depth; and while I know how difficult it is to express it, nevertheless I am bound to give a sense of it. Nothing could be more evasive and inaccessible. Nothing distorts itself and seeks disguise more quickly. There is a shame of disclosing it and in its definite presentation a horror of it. But there it is.\"</p>\n\n<p>Sir Giuliani kneeling. It was apparently not something to be seen on television, but rather a moment to be heard and experienced; a moment that allowed his imagination\u2019s encounter with death to kneel under the weight of the real.</p>\n"}, {"title": "The Great Figure", "view_node": "/poem/great-figure", "field_author": "<a href=\"/poet/william-carlos-williams\" hreflang=\"und\">William Carlos Williams</a>", "field_date_published": "1962", "body": " <pre>\nAmong the rain\nand lights\nI saw the figure 5\nin gold\non a red\nfiretruck\nmoving\ntense\nunheeded\nto gong clangs\nsiren howls\nand wheels rumbling\nthrough the dark city.</pre>\n "}, {"title": "Such Is the Sickness of Many a Good Thing", "view_node": "/poem/such-sickness-many-good-thing", "field_author": "<a href=\"/poet/robert-duncan\" hreflang=\"und\">Robert Duncan</a>", "field_date_published": "1968", "body": " <pre>\nWas he then Adam of the Burning Way? \nhid away in the heat like wrath \n\u00a0\u00a0\u00a0\u00a0\u00a0\u00a0\u00a0\u00a0conceald in Love\u2019s face, \nor the seed, Eris in Eros, \n\u00a0\u00a0\u00a0\u00a0\u00a0\u00a0\u00a0\u00a0key and lock \nof what I was?\u00a0\u00a0\u00a0\u00a0\u00a0\u00a0\u00a0\u00a0I could not speak \n\u00a0\u00a0\u00a0\u00a0\u00a0\u00a0\u00a0\u00a0the releasing \nword.\u00a0\u00a0\u00a0\u00a0\u00a0\u00a0\u00a0\u00a0For into a dark \n\u00a0\u00a0\u00a0\u00a0\u00a0\u00a0\u00a0\u00a0matter he came \nand askt me to say what \n\u00a0\u00a0\u00a0\u00a0\u00a0\u00a0\u00a0\u00a0I could not say.\u00a0\u00a0\u00a0\u00a0\u00a0\u00a0\u00a0\u00a0\"I ..\" \n\n\nAll the flame in me stopt \n\u00a0\u00a0\u00a0\u00a0\u00a0\u00a0\u00a0\u00a0against my tongue. \nMy heart was a stone, a dumb \n\u00a0\u00a0\u00a0\u00a0\u00a0\u00a0\u00a0\u00a0unmanageable thing in me, \na darkness that stood athwart \n\u00a0\u00a0\u00a0\u00a0\u00a0\u00a0\u00a0\u00a0his need \nfor the enlightening, the \n\u00a0\u00a0\u00a0\u00a0\u00a0\u00a0\u00a0\u00a0\"I love you\" that has \nonly this one quick in time, \n\u00a0\u00a0\u00a0\u00a0\u00a0\u00a0\u00a0\u00a0this one start \nwhen its moment is true. \n\n\nSuch is the sickness of many a good thing \nthat now into my life from long ago this \nrefusing to say I love you has bound \nthe weeping, the yielding, the \n\u00a0\u00a0\u00a0\u00a0\u00a0\u00a0\u00a0\u00a0yearning to be taken again, \ninto a knot, a waiting, a string \n\n\nso taut it taunts the song, \nit resists the touch. It grows dark \nto draw down the lover\u2019s hand \nfrom its lightness to what\u2019s \n\u00a0\u00a0\u00a0\u00a0\u00a0\u00a0\u00a0\u00a0underground.</pre>\n "}, {"title": "A Shropshire Lad, XXXVI", "view_node": "/poem/shropshire-lad-xxxvi", "field_author": "<a href=\"/poet/e-housman\" hreflang=\"und\">A. E. Housman</a>", "field_date_published": "1896", "body": " <pre>\nWhite in the moon the long road lies,  \n  The moon stands blank above;  \nWhite in the moon the long road lies  \n  That leads me from my love.  \n  \nStill hangs the hedge without a gust,\n  Still, still the shadows stay:  \nMy feet upon the moonlit dust  \n  Pursue the ceaseless way.  \n  \nThe world is round, so travellers tell,  \n  And straight though reach the track,  \nTrudge on, trudge on, \u2019twill all be well,  \n  The way will guide one back.  \n  \nBut ere the circle homeward hies  \n  Far, far must it remove:  \nWhite in the moon the long road lies  \n  That leads me from my love. </pre>\n "}, {"title": "Monument (audio only)", "view_node": "/poem/monument-audio-only", "field_author": "<a href=\"/poet/natasha-trethewey\" hreflang=\"und\">Natasha Trethewey</a>", "field_date_published": "2006", "body": " <p>\u00a0</p><p>Click the icon above to listen to this audio poem.</p> "}, {"title": "Friday&#039;s Child (audio only)", "view_node": "/poem/fridays-child-audio-only", "field_author": "<a href=\"/poet/w-h-auden\" hreflang=\"und\">W. H. Auden</a>", "field_date_published": "1964", "body": " <p>\u00a0</p><p>Click the icon above to listen to this audio poem.</p> "}], "pager": {"current_page": 560, "total_items": "13248", "total_pages": 663, "items_per_page": 20}}