{"rows": [{"title": "Farewell", "view_node": "/poem/farewell-0", "field_author": "<a href=\"/poet/johann-wolfgang-von-goethe\" hreflang=\"und\">Johann Wolfgang von Goethe</a>", "field_date_published": "1798", "body": " <pre>\nTo break one's word is pleasure\u2013fraught,\n\nTo do one's duty gives a smart;\nWhile man, alas! will promise nought,\n\nThat is repugnant to his heart.\n\nUsing some magic strains of yore,\n\nThou lurest him, when scarcely calm,\nOn to sweet folly's fragile bark once more,\n\nRenewing, doubling chance of harm.\n\nWhy seek to hide thyself from me?\n\nFly not my sight\u2014be open then!\n\nKnown late or early it must be,\n\nAnd here thou hast thy word again.\n\nMy duty is fulfill'd to\u2013day,\n\nNo longer will I guard thee from surprise;\nBut, oh, forgive the friend who from thee turns away,\n\nAnd to himself for refuge flies!</pre>\n "}, {"title": "Christel", "view_node": "/poem/christel", "field_author": "<a href=\"/poet/johann-wolfgang-von-goethe\" hreflang=\"und\">Johann Wolfgang von Goethe</a>", "field_date_published": "1902", "body": " <pre>\nMy senses ofttimes are oppress'd,\n\nOft stagnant is my blood;\nBut when by Christel's sight I'm blest,\n\nI feel my strength renew'd.\nI see her here, I see her there,\n\nAnd really cannot tell\nThe manner how, the when, the where,\n\nThe why I love her well.\n\nIf with the merest glance I view\n\nHer black and roguish eyes,\nAnd gaze on her black eyebrows too,\n\nMy spirit upward flies.\nHas any one a mouth so sweet,\n\nSuch love\u2013round cheeks as she?\nAh, when the eye her beauties meet,\n\nIt ne'er content can be.\n\nAnd when in airy German dance\n\nI clasp her form divine,\nSo quick we whirl, so quick advance,\n\nWhat rapture then like mine!\nAnd when she's giddy, and feels warm,\n\nI cradle her, poor thing,\nUpon my breast, and in mine arm,\u2014\n\nI'm then a very king!\n\nAnd when she looks with love on me,\n\nForgetting all but this,\nWhen press'd against my bosom she\n\nExchanges kiss for kiss,\nAll through my marrow runs a thrill,\n\nRuns e'en my foot along!\nI feel so well, I feel so ill,\n\nI feel so weak, so strong!\n\nWould that such moments ne'er would end!\n\nThe day ne'er long I find;\nCould I the night too with her spend,\n\nE'en that I should not mind.\nIf she were in mine arms but held,\n\nTo quench love's thirst I'd try;\nAnd could my torments not be quell'd,\n\nUpon her breast would die.</pre>\n "}, {"title": "Faust [Go, find yourself a more obedient slave!]", "view_node": "/poem/faust-go-find-yourself-more-obedient-slave", "field_author": "<a href=\"/poet/johann-wolfgang-von-goethe\" hreflang=\"und\">Johann Wolfgang von Goethe</a>", "field_date_published": "1808", "body": " <p><i>Poet</i></p>\n<pre>\nGo, find yourself a more obedient slave!\nWhat! shall the Poet that which Nature gave,\nThe highest right, supreme Humanity,\nForfeit so wantonly, to swell your treasure?\nWhence o'er the heart his empire free?\nThe elements of Life how conquers he?\nIs't not his heart's accord, urged outward far and dim,\nTo wind the world in unison with him?\nWhen on the spindle, spun to endless distance,\nBy Nature's listless hand the thread is twirled,\nAnd the discordant tones of all existence\nIn sullen jangle are together hurled,\nWho, then, the changeless orders of creation\nDivides, and kindles into rhythmic dance?\nWho brings the One to join the general ordination,\nWhere it may throb in grandest consonance?\nWho bids the storm to passion stir the bosom?\nIn brooding souls the sunset burn above?\nWho scatters every fairest April blossom\nAlong the shining path of Love?\nWho braids the noteless leaves to crowns, requiting\nDesert with fame, in Action's every field?\nWho makes Olympus sure, the Gods uniting?\nThe might of Man, as in the Bard revealed.</pre>\n "}, {"title": "Poem", "view_node": "/poem/poem-11", "field_author": "<a href=\"/poet/james-schuyler\" hreflang=\"und\">James Schuyler</a>", "field_date_published": "1993", "body": " <pre>\nHow about an oak leaf\nif you had to be a leaf?\nSuppose you had your life to live over\nknowing what you know?\nSuppose you had plenty money\n\n\"Get away from me you little fool.\"\n\nEvening of a day in early March,\nyou are like the smell of drains\nin a restaurant where pat\u00e9 maison\nis a slab of cold meat loaf\ndamp and wooly. You lack charm.</pre>\n "}, {"title": "Poem", "view_node": "/poem/poem-12", "field_author": "<a href=\"/poet/james-schuyler\" hreflang=\"und\">James Schuyler</a>", "field_date_published": "1993", "body": "<p><span class=\"long-line\">I do not always understand what you say.</span><br /><span class=\"long-line\">Once, when you said, across, you meant along.</span><br /><span class=\"long-line\">What is, is by its nature, on display.</span></p>\n\n<p><span class=\"long-line\">Words' meanings count, aside from what they weigh:</span><br /><span class=\"long-line\">poetry, like music, is not just song.</span><br /><span class=\"long-line\">I do not always understand what you say.</span></p>\n\n<p><span class=\"long-line\">You would hate, when with me, to meet by day</span><br /><span class=\"long-line\">What at night you met and did not think wrong.</span><br /><span class=\"long-line\">What is, is by its nature, on display.</span></p>\n\n<p><span class=\"long-line\">I sense a heaviness in your light play,</span><br /><span class=\"long-line\">a wish to stand out, admired, from the throng.</span><br /><span class=\"long-line\">I do not always understand what you say.</span></p>\n\n<p><span class=\"long-line\">I am as shy as you. Try as we may,</span><br /><span class=\"long-line\">only by practice will our talks prolong.</span><br /><span class=\"long-line\">What is, is by its nature, on display.</span></p>\n\n<p><span class=\"long-line\">We talk together in a common way.</span><br /><span class=\"long-line\">Art, like death, is brief: life and friendship long.</span><br /><span class=\"long-line\">I do not always understand what you say.</span><br /><span class=\"long-line\">What is, is by its nature, on display.</span></p>\n"}, {"title": "The Noble Nature", "view_node": "/poem/noble-nature", "field_author": "<a href=\"/poet/ben-jonson\" hreflang=\"und\">Ben Jonson</a>", "field_date_published": "1640", "body": " <pre>\n\u00a0\u00a0\u00a0\u00a0\u00a0It is not growing like a tree\t\n\u00a0\u00a0\u00a0\u00a0\u00a0In bulk, doth make man better be;\t\nOr standing long an oak, three hundred year,\t\nTo fall a log at last, dry, bald, and sere:\t\n\u00a0\u00a0\u00a0\u00a0\u00a0\u00a0\u00a0\u00a0\u00a0\u00a0A lily of a day\t        \n\u00a0\u00a0\u00a0\u00a0\u00a0\u00a0\u00a0\u00a0\u00a0\u00a0Is fairer far in May,\t\n\u00a0\u00a0\u00a0\u00a0\u00a0Although it fall and die that night\u2014\t\n\u00a0\u00a0\u00a0\u00a0\u00a0It was the plant and flower of Light.\t\nIn small proportions we just beauties see;\t\nAnd in short measures life may perfect be.</pre>\n "}, {"title": "Under the Willows [May is a pious fraud of the almanac]", "view_node": "/poem/under-willows-may-pious-fraud-almanac", "field_author": "<a href=\"/poet/james-russell-lowell\" hreflang=\"und\">James Russell Lowell</a>", "field_date_published": "1890", "body": " <pre>\nMay is a pious fraud of the almanac,\nA ghastly parody of real Spring\nShaped out of snow and breathed with eastern wind;\nOr if, o'er-confident, she trust the date,\nAnd, with her handful of anemones,\nHerself as shivery, steal into the sun,\nThe season need but turn his hourglass round,\nAnd Winter suddenly, like crazy Lear,\nReels back, and brings the dead May in his arms,\nHer budding breasts and wan dislustred front\nWith frosty streaks and drifts of his white beard\nAll overblown. Then, warmly walled with books,\nWhile my wood-fire supplies the sun's defect,\nWhispering old forest-sagas in its dreams,\nI take my May down from the happy shelf\nWhere perch the world's rare song-birds in a row,\nWaiting my choice to open with full breast,\nAnd beg an alms of springtime, ne'er denied\nIndoors by vernal Chaucer, whose fresh woods\nThrob thick with merle and mavis all the year.</pre>\n "}, {"title": "Sea Rose", "view_node": "/poem/sea-rose", "field_author": "<a href=\"/poet/h-d\" hreflang=\"und\">H. D.</a>", "field_date_published": "1916", "body": "<p><span class=\"long-line\">Rose, harsh rose,</span><br /><span class=\"long-line\">marred and with stint of petals,</span><br /><span class=\"long-line\">meagre flower, thin,</span><br /><span class=\"long-line\">sparse of leaf,</span></p>\n\n<p><span class=\"long-line\">more precious</span><br /><span class=\"long-line\">than a wet rose</span><br /><span class=\"long-line\">single on a stem\u2014</span><br /><span class=\"long-line\">you are caught in the drift.</span></p>\n\n<p><span class=\"long-line\">Stunted, with small leaf,</span><br /><span class=\"long-line\">you are flung on the sand,</span><br /><span class=\"long-line\">you are lifted</span><br /><span class=\"long-line\">in the crisp sand</span><br /><span class=\"long-line\">that drives in the wind.</span></p>\n\n<p><span class=\"long-line\">Can the spice-rose</span><br /><span class=\"long-line\">drip such acrid fragrance</span><br /><span class=\"long-line\">hardened in a leaf?</span></p>\n"}, {"title": "In a Blue Wood", "view_node": "/poem/blue-wood", "field_author": "<a href=\"/poet/richard-levine\" hreflang=\"und\">Richard  Levine</a>", "field_date_published": "2012", "body": " <pre>\nThe faceless couple in Van Gogh's blue wood, is walking\nwhere there is no path, amid tall,\nseemingly branchless blue and pink trees. The tree crowns\nare beyond the frame, reaching up into our mind's eye\u2014\nbecause we know where trees go and that they are full\nof wind and a thousand softly stirring\nmachines that are alive. Equally out of sight,\nnests of intricately woven strength and fragility hang\nlike proofs that there are no diagrams or maps\nfor life's most important journeys. The horizon\nat the couple's back, between the trees, is black.\nThey walk toward relative light. Crowds of waist-high flowers,\non thick-leaved stalks, sing in stout slurries of pink and white.\n\nThe couple cannot think of anything good\never coming from anger, so they are more happy than not.\nThat could be true. Maybe I want it to be\ntrue of me, of us. And like us, they may have worn paths\nto the most forest-deep secrets in each other's lives.\nOr, perhaps they are only now on their way to the place\nwhere they will become lovers, the excitement of their flesh\nthrough their clothes singing, making them careless,\ngiddy, and light as birds in flight.\n\nOf course, we can't know any of this. Perhaps, even Van Gogh\ndidn't know anything about them,\nmaybe that's why he didn't give them faces: \nso many unseen possibilities lived in a blue wood, so like ours.</pre>\n "}, {"title": "In Whoever&#039;s Hotel Room This Is", "view_node": "/poem/whoevers-hotel-room", "field_author": "<a href=\"/poet/matt-rasmussen\" hreflang=\"und\">Matt Rasmussen</a>", "field_date_published": "2012", "body": " <pre>\nIf it were up to me,\nthe bible would begin:\n\nA man steps into a field...\nI'd forgotten what was in\n\nthe background when you took \nthe photo of me I wouldn't \n\nsee until later. When I did, \nit was just a wall, and my smile \n\nwas a mouthful of rocks.\nA little after it was clicked off \n\nthe T.V. screen's light\ncondensed down a drain.\n \nEven when the television \nhad become an aquarium \n\nfull of black water\nthat last bright dot \n\nburned in my eye.\nOn the back of my photo\n\nyou wrote, <i>This isn't you</i>,\nand you were right,\n\nit no longer was.</pre>\n "}, {"title": "Chekhov&#039;s Gun", "view_node": "/poem/chekhovs-gun", "field_author": "<a href=\"/poet/matt-rasmussen\" hreflang=\"und\">Matt Rasmussen</a>", "field_date_published": "2012", "body": " <pre>\nNothing ever absolutely has to happen. The gun \ndoesn't have to be fired. When our hero sits \n\non the edge of his bed contemplating the pistol \non his nightstand, you have to believe he might \n\nnot use it. Then the theatre is sunk in blackness.\nThe audience is a log waiting to be split open. The faint \n\nscuff of feet. Objects are picked up, shuffled away. \nOther things are put down. Based on the hushed sounds \n\nyou guess: a bed, some walls, a dresser. You feel \neverything shift. You sense yourself being picked up, \n\nset down. A cone of light cracks overhead. The audience's \neyes flicker toward you like droplets of water.</pre>\n "}, {"title": "A Horse Grazes in My Shadow", "view_node": "/poem/horse-grazes-my-shadow", "field_author": "<a href=\"/poet/matt-rasmussen\" hreflang=\"und\">Matt Rasmussen</a>", "field_date_published": "2012", "body": "<p><span class=\"long-line\">\u00a0\u00a0\u00a0\u00a0\u00a0\u00a0\u00a0\u00a0\u00a0\u00a0\u00a0\u00a0\u00a0<em>after <a href=\"https://poets.org/poet/james-wright\">James Wright</a></em></span></p>\n\n<p><span class=\"long-line\">Startled by my breath it bolts </span><br /><span class=\"long-line\">to the other end of the field. </span></p>\n\n<p><span class=\"long-line\">The horizon's brow rasps </span><br /><span class=\"long-line\">against a green cloud</span></p>\n\n<p><span class=\"long-line\">which seems both</span><br /><span class=\"long-line\">desperate and sincere.\u00a0 </span></p>\n\n<p><span class=\"long-line\">Into a dead tree</span><br /><span class=\"long-line\">a flame of bird</span></p>\n\n<p><span class=\"long-line\">drives its burning beak.</span><br /><span class=\"long-line\">And somewhere out here</span></p>\n\n<p><span class=\"long-line\">I have come to terms</span><br /><span class=\"long-line\">with my brother's suicide. </span></p>\n\n<p><span class=\"long-line\">I wish the god of this place </span><br /><span class=\"long-line\">would put me in its mouth </span></p>\n\n<p><span class=\"long-line\">until I dissolve, until </span><br /><span class=\"long-line\">the field doesn't end</span></p>\n\n<p><span class=\"long-line\">and I am broken open</span><br /><span class=\"long-line\">like a shotgun, </span></p>\n\n<p><span class=\"long-line\">swabbed clean.</span></p>\n"}, {"title": "Elegy in X Parts [My foreshadow stretches]", "view_node": "/poem/elegy-x-parts-my-foreshadow-stretches", "field_author": "<a href=\"/poet/matt-rasmussen\" hreflang=\"und\">Matt Rasmussen</a>", "field_date_published": "2012", "body": " <p>X.</p>\n<pre>\nMy foreshadow stretches\nout in front of me.\n\nWe stand on the soles\nof each other's feet.\n\nI am a field\nand there's a man\n\nstanding in the middle\nof me saying,\n\n<i>God is the sky pinning\nme to my body.</i>\n\nI am a man\nand there is a field \n\nunder me saying, \n<i>A dead man makes\n\nlove to the earth\nby just lying there.</i></pre>\n "}, {"title": "Elegy in X Parts [Kafka said, A book]", "view_node": "/poem/elegy-x-parts-kafka-said-book", "field_author": "<a href=\"/poet/matt-rasmussen\" hreflang=\"und\">Matt Rasmussen</a>", "field_date_published": "2012", "body": " <p>X.</p>\n<pre>\nKafka said, <i>A book\nmust be an axe\n\nfor the frozen sea \ninside us</i>, which sounds \n\ngreat, but what good \nis an axe against \n\na frozen sea?\nPerhaps this is why\n\nhe said, while dying,\n<i>Destroy everything</i>.\n\nThere is little comfort\nin knowing there\n\nare worse undertakings\nthan killing yourself.\n\nIs it dangerous \nto say these things? \n\nI don't think so.\nOr I do. Either way, \n\ndon't believe me. \nThere is no refuge \n\nfrom yourself.</pre>\n "}, {"title": "Postcard: Disable Spellcheck", "view_node": "/poem/postcard-disable-spellcheck", "field_author": "<a href=\"/poet/joyelle-mcsweeney\" hreflang=\"und\">Joyelle McSweeney</a>", "field_date_published": "2012", "body": " <p><img alt=\"\" border=\"0\" src=\"/sites/default/files/images/post2_mcsweeney.jpg\" /></p><br /><br /><p>DISABLE SPELLCHECK</p> "}, {"title": "Paradise on Black Ice", "view_node": "/poem/paradise-black-ice", "field_author": "<a href=\"/poet/patrick-donnelly\" hreflang=\"und\">Patrick Donnelly</a>", "field_date_published": "2012", "body": " <p>\u00a0\u00a0\u00a0\u00a0\u00a0\u00a0\u00a0\u00a0\u00a0\u00a0\u00a0\u00a0Heaven hunts round for those that find itself below, and then it snatches.<br />\u00a0\u00a0\u00a0\u00a0\u00a0\u00a0\u00a0\u00a0\u00a0\u00a0\u00a0\u00a0\u00a0\u00a0\u00a0\u00a0\u00a0\u00a0\u00a0\u00a0\u00a0\u00a0\u00a0\u00a0\u2014Emily Dickinson<br />\u00a0</p>\n<pre>\nI wind\nthe sheet of elegy\n\nwhile he's still alive, I can't help it,\nI follow his breath while he sleeps,\n\ngreet each coming and going,\nwith an <i>Ave</i>.\n\u00a0\u00a0\u00a0\u00a0\u00a0\u00a0\u00a0\u00a0\u00a0\u00a0\u00a0\u00a0\u00a0\u00a0\u00a0\u00a0\u00a0\u00a0(Because of how\nthe quick\nbecome the dead.)\n\nBut right now he's showering\nwith a gospel choir, radio\n\nhalf on and half off that station.\nAnd today's heaven is half hell,\n\nhalf whole, half hurt,\nhunting every naked thing\n\nwith the same harsh delight.</pre>\n "}, {"title": "Ascension", "view_node": "/poem/ascension", "field_author": "<a href=\"/poet/john-donne\" hreflang=\"und\">John Donne</a>", "field_date_published": "1610", "body": " <pre>\n<i>Salute the last, and everlasting day</i>,\nJoy at the uprising of this Sun, and Son,\nYe whose true tears, or tribulation\nHave purely wash'd, or burnt your drossy clay.\nBehold, the Highest, parting hence away,\nLightens the dark clouds, which He treads upon;\nNor doth he by ascending show alone,\nBut first He, and He first enters the way.\nO strong Ram, which hast batter'd heaven for me!\nMild lamb, which with Thy Blood hast mark'd the path!\nBright Torch, which shinest, that I the way may see!\nO, with Thy own Blood quench Thy own just wrath;\nAnd if Thy Holy Spirit my Muse did raise,\n<i>Deign at my hands this crown of prayer and praise</i></pre>\n<p>.</p> "}, {"title": "The Spoilsport", "view_node": "/poem/spoilsport", "field_author": "<a href=\"/poet/robert-graves\" hreflang=\"und\">Robert Graves</a>", "field_date_published": "1918", "body": "<p><span class=\"long-line\">My familiar ghost again</span><br /><span class=\"long-line\">\u00a0\u00a0\u00a0\u00a0Comes to see what he can see,</span><br /><span class=\"long-line\">Critic, son of Conscious Brain,</span><br /><span class=\"long-line\">\u00a0\u00a0\u00a0\u00a0Spying on our privacy.</span></p>\n\n<p><span class=\"long-line\">Slam the window, bolt the door,</span><br /><span class=\"long-line\">\u00a0\u00a0\u00a0\u00a0Yet he'll enter in and stay;</span><br /><span class=\"long-line\">In to-morrow's book he'll score</span><br /><span class=\"long-line\">\u00a0\u00a0\u00a0\u00a0Indiscretions of to-day.</span></p>\n\n<p><span class=\"long-line\">Whispered love and muttered fears,</span><br /><span class=\"long-line\">\u00a0\u00a0\u00a0\u00a0How their echoes fly about!</span><br /><span class=\"long-line\">None escape his watchful ears,</span><br /><span class=\"long-line\">\u00a0\u00a0\u00a0\u00a0Every sigh might be a shout.</span></p>\n\n<p><span class=\"long-line\">No kind words nor angry cries</span><br /><span class=\"long-line\">\u00a0\u00a0\u00a0\u00a0Turn away this grim spoilsport;</span><br /><span class=\"long-line\">No fine lady's pleading eyes,</span><br /><span class=\"long-line\">\u00a0\u00a0\u00a0\u00a0Neither love, nor hate, nor...port.</span></p>\n\n<p><span class=\"long-line\">Critic wears no smile of fun,</span><br /><span class=\"long-line\">\u00a0\u00a0\u00a0\u00a0Speaks no word of blame nor praise,</span><br /><span class=\"long-line\">Counts our kisses one by one,</span><br /><span class=\"long-line\">\u00a0\u00a0\u00a0\u00a0Notes each gesture, every phrase.</span></p>\n\n<p><span class=\"long-line\">My familiar ghost again</span><br /><span class=\"long-line\">\u00a0\u00a0\u00a0\u00a0Stands or squats where suits him best;</span><br /><span class=\"long-line\">Critic, son of Conscious Brain,</span><br /><span class=\"long-line\">\u00a0\u00a0\u00a0\u00a0Listens, watches, takes no rest.</span></p>\n"}, {"title": "Ground Birds in Open Country", "view_node": "/poem/ground-birds-open-country", "field_author": "<a href=\"/poet/stanley-plumly\" hreflang=\"und\">Stanley Plumly</a>", "field_date_published": "2012", "body": " <pre>\nThey fly up in front of you so suddenly,\ntossed, like gravel, by the handful,\nkicked like snow or dead leaves into life.\nOr if it's spring they break back and forth\nlike schools of fish silver at the surface,\nlike the swifts I saw in the hundreds\nover the red tile roofs of Assisi\u2014\nthey made shadows, they changed sunlight,\nand at evening, before vespers,\nwaved back to the blackbird nuns.\nMy life list is one bird at a time long,\nwhat Roethke calls <i>looking</i>. The eye,\nparticular for color, remembers when \na treeful would go gray with applause,\nin the middle of nowhere, in a one-oak field.\nI clapped my hands just for the company.\nAs one lonely morning, green under glass,\na redwing flew straight at me, its shoulders\nslick with rain that hadn't fallen yet.\nIn the birdbook there, where the names are,\nit's always May, and the thing so fixed\nwe can see it\u2014Cerulean, Blackpoll, Pine.\nThe time one got into the schoolroom\nwe didn't know what it was, but it sang,\nit sailed along the ceiling on all sides,\nand blew back out, wild, still lost,\nbefore any of us, stunned, could shout\nit down. And in a hallway once,\na bird went mad, window by locked window,\nthe hollow echo length of a building.\nI picked it up closed inside my hand.\nI picked it up and tried to let it go.\nThey fly up so quickly in front of you,\nwithout names, in the slurred shapes of wings.\nScatter as if shot from twelve-gauge guns.\nOr they fly from room to room, from memory\npast the future, having already gathered\n\u00a0\u00a0\u00a0\u00a0\u00a0\u00a0\u00a0\u00a0\u00a0\u00a0\u00a0\u00a0\u00a0\u00a0\u00a0\u00a0in great numbers on the ground.</pre>\n "}, {"title": "Willow", "view_node": "/poem/willow", "field_author": "<a href=\"/poet/jane-shore\" hreflang=\"und\">Jane Shore</a>", "field_date_published": "2012", "body": " <pre>\nIt didn't weep the way a willow should.\nPlanted all alone in the middle of the field\nby the bachelor who sold our house to us,\nshoulder height when our daughter was born,\nit grew eight feet a year until it blocked\nthe view through the first-, then the second-\nstory windows, its straggly canopy obstructing\nour sunrise and moonrise over Max Gray Road.\nI gave it the evil eye, hoping lightning\nwould strike it, the way a bolt had split\nthe butternut by the barn. And if leaf blight\nor crown gall or cankers didn\u2019t kill it, then\nI'd gladly pay someone to chop it down.\nMy daughter said no, she loved that tree,\nand my husband agreed. One wet Sunday\u2014\nthe rainiest July since 1885\u2014\nhusband napping, daughter at a matinee\nin town\u2014a wind shear barreled up the hill\nso loud I glanced up from my mystery\nthe moment the willow leaned, bowed,\nand fell over flat on its back, roots and all,\nsplayed on the ground like Gulliver.\nThe house shook, just once.\nLater, when the sun came out, neighbors\ncame to gawk; they chain-sawed thicker\nbranches, wrapped chains around the trunk,\ntheir backhoe ripped out pieces of stump\nand root as if extracting a rotten tooth.\nI'm not sorry that tree is gone. No one\never sat under it for shade or contemplation.\nYet spring after spring it reliably leafed out.\nIt was always the last to lose its leaves\nin fall. It should have died a decade ago\nfor all the grief I gave it, my dirty looks\napparently the fuel on which it thrived.\nIt must have done its weeping in private.\nBut now I can see the slope of the hill.\nDid my wishful thinking cast a spell?\nI was the only one on earth who saw it fall.</pre>\n "}], "pager": {"current_page": 444, "total_items": "13248", "total_pages": 663, "items_per_page": 20}}