{"rows": [{"title": "Self-Traction (audio only)", "view_node": "/poem/self-traction-audio-only", "field_author": "<a href=\"/poet/rachel-eliza-griffiths\" hreflang=\"und\">Rachel Eliza Griffiths</a>", "field_date_published": "2014", "body": " <p>\u00a0</p><p>Click the icon above to listen to this audio poem.</p> "}, {"title": "The Reckoning of Relics (audio only)", "view_node": "/poem/reckoning-relics-audio-only", "field_author": "<a href=\"/poet/rachel-eliza-griffiths\" hreflang=\"und\">Rachel Eliza Griffiths</a>", "field_date_published": "2014", "body": " <p>\u00a0</p><p>Click the icon above to listen to this audio poem.</p> "}, {"title": "Mercy Does Not Mean Thank You (audio only)", "view_node": "/poem/mercy-does-not-mean-thank-you-audio-only", "field_author": "<a href=\"/poet/rachel-eliza-griffiths\" hreflang=\"und\">Rachel Eliza Griffiths</a>", "field_date_published": "2014", "body": " <p>\u00a0</p><p>Click the icon above to listen to this audio poem.</p> "}, {"title": "Fragments of Poems Returned to You (audio only)", "view_node": "/poem/fragments-poems-returned-you-audio-only", "field_author": "<a href=\"/poet/rachel-eliza-griffiths\" hreflang=\"und\">Rachel Eliza Griffiths</a>", "field_date_published": "2014", "body": " <p>\u00a0</p><p>Click the icon above to listen to this audio poem.</p> "}, {"title": "Troubadour Song (audio only)", "view_node": "/poem/troubadour-song-audio-only", "field_author": "<a href=\"/poet/edward-hirsch\" hreflang=\"und\">Edward Hirsch</a>", "field_date_published": "2014", "body": " <p>\u00a0</p><p>Click the icon above to listen to this audio poem.</p> "}, {"title": "The Sweetness (audio only)", "view_node": "/poem/sweetness-audio-only", "field_author": "<a href=\"/poet/edward-hirsch\" hreflang=\"und\">Edward Hirsch</a>", "field_date_published": "2014", "body": " <p>\u00a0</p><p>Click the icon above to listen to this audio poem.</p> "}, {"title": "Special Orders (audio only)", "view_node": "/poem/special-orders-audio-only", "field_author": "<a href=\"/poet/edward-hirsch\" hreflang=\"und\">Edward Hirsch</a>", "field_date_published": "2014", "body": " <p>\u00a0</p><p>Click the icon above to listen to this audio poem.</p> "}, {"title": "Self-Portrait (audio only)", "view_node": "/poem/self-portrait-audio-only", "field_author": "<a href=\"/poet/edward-hirsch\" hreflang=\"und\">Edward Hirsch</a>", "field_date_published": "2014", "body": " <p>\u00a0</p><p>Click the icon above to listen to this audio poem.</p> "}, {"title": "I Was Never Able to Pray (audio only)", "view_node": "/poem/i-was-never-able-pray-audio-only", "field_author": "<a href=\"/poet/edward-hirsch\" hreflang=\"und\">Edward Hirsch</a>", "field_date_published": "2014", "body": " <p>\u00a0</p><p>Click the icon above to listen to this audio poem.</p> "}, {"title": "Cotton Candy", "view_node": "/poem/cotton-candy", "field_author": "<a href=\"/poet/edward-hirsch\" hreflang=\"und\">Edward Hirsch</a>", "field_date_published": "2010", "body": " <p>We walked on the bridge over the Chicago River<br />for what turned out to be the last time,<br />and I ate cotton candy, that sugary air,<br />that sweet blue light spun out of nothingness.<br />It was just a moment, really, nothing more,<br />but I remember marveling at the sturdy cables<br />of the bridge that held us up<br />and threading my fingers through the long<br />and slender fingers of my grandfather,<br />an old man from the Old World<br />who long ago disappeared into the nether regions.<br />And I remember that eight-year-old boy<br />who had tasted the sweetness of air,<br />which still clings to my mouth<br />and disappears when I breathe.</p> "}, {"title": "The Chardin Exhibition (audio only)", "view_node": "/poem/chardin-exhibition-audio-only", "field_author": "<a href=\"/poet/edward-hirsch\" hreflang=\"und\">Edward Hirsch</a>", "field_date_published": "2014", "body": " <p>\u00a0</p><p>Click the icon above to listen to this audio poem.</p> "}, {"title": "Branch Library (audio only)", "view_node": "/poem/branch-library-audio-only", "field_author": "<a href=\"/poet/edward-hirsch\" hreflang=\"und\">Edward Hirsch</a>", "field_date_published": "2014", "body": " <p>\u00a0</p><p>Click the icon above to listen to this audio poem.</p> "}, {"title": "Black Rhinoceros", "view_node": "/poem/black-rhinoceros", "field_author": "<a href=\"/poet/edward-hirsch\" hreflang=\"und\">Edward Hirsch</a>", "field_date_published": "2014", "body": " <p data-wc=\"22\" word_count=\"22\">The Black Rhinoceros at Brookfield Zoo<br />Eating sweet potatoes, carrots, and bread<br />Looked like my uncle\u2019s extended family<br />Crowding around the table at Thanksgiving.</p><p data-wc=\"27\" word_count=\"27\">Mrs. Movehill suddenly started crying<br />On the second-grade bus, which often stalled,<br />And the next day we had a substitute teacher<br />Who said that rhinos have poor eyesight</p><p data-wc=\"28\" word_count=\"28\">And swivel their tube-shaped ears in all directions<br />So they can hear their enemies approaching, lions<br />And people who carve their horns into daggers<br />Or mash them into pain relievers.</p><p data-wc=\"30\" word_count=\"30\">My parents bought my shoes on discount<br />At Wolinsky &amp; Levy, and so whenever I raised<br />Either foot my sole said \u201cDamaged.\u201d<br />That\u2019s why I kept my feet close to the floor.</p><p data-wc=\"33\" word_count=\"33\">When Mrs. Movehill returned, she wore dark<br />Dresses and told us that the Black Rhinoceros<br />Is the same muddy color as the White Rhinoceros,<br />Which is strange, if you think about it, and we did.</p><p data-wc=\"31\" word_count=\"31\">What does it feel like to have two horns<br />Tilting up on a huge head, Mr. Rhinoceros?<br />You lumber around in your skin of armor<br />Like an exiled general or a grounded unicorn.</p><p data-wc=\"28\" word_count=\"28\">Everyone knows that a pachyderm in peril<br />Would still rather live in the open savannah.<br />We can\u2019t tell if you are trumpeting forward<br />Or backward in your scrubby house.</p> "}, {"title": "A Partial History of My Stupidity (audio only)", "view_node": "/poem/partial-history-my-stupidity-audio-only", "field_author": "<a href=\"/poet/edward-hirsch\" hreflang=\"und\">Edward Hirsch</a>", "field_date_published": "2014", "body": " <p>\u00a0</p><p>Click the icon above to listen to this audio poem.</p> "}, {"title": "from Gabriel", "view_node": "/poem/gabriel", "field_author": "<a href=\"/poet/edward-hirsch\" hreflang=\"und\">Edward Hirsch</a>", "field_date_published": "2014", "body": " <p>The evening with its lamps burning<br />The night with its head in its hands<br />The early morning</p><p>I look back at the worried parents<br />Wandering through the house<br />What are we going to do</p><p>The evening of the clinical<br />The night of the psychological<br />The morning facedown in the pillow</p><p>The experts can handle him<br />The experts have no idea<br />How to handle him</p><p>There are enigmas in darkness<br />There are mysteries<br />Sent out without searchlights</p><p>The stars are hiding tonight<br />The moon is cold and stony<br />Behind the clouds</p><p>Nights without seeing<br />Mornings of the long view<br /><em>It\u2019s not a sprint but a marathon</em></p><p><em>Whatever we can do<br />We must do</em><br />Every morning\u2019s resolve</p><p>But sometimes we suspected<br />He was being punished<br />For something obscure we had done</p><p>I would never abandon the puzzle<br />Sleeping in the next room<br />But I could not solve it<br />\u00a0</p> "}, {"title": "The Past", "view_node": "/poem/past-1", "field_author": "<a href=\"/poet/louise-gluck\" hreflang=\"und\">Louise Gl\u00fcck</a>", "field_date_published": "2014", "body": " <p>Small light in the sky appearing<br />suddenly between<br />two pine boughs, their fine needles</p><p>now etched onto the radiant surface<br />and above this<br />high, feathery heaven\u2014</p><p>Smell the air. That is the smell of the white pine,<br />most intense when the wind blows through it<br />and the sound it makes equally strange,<br />like the sound of the wind in a movie\u2014</p><p>Shadows moving. The ropes<br />making the sound they make. What you hear now<br />will be the sound of the nightingale, <em>Chordata</em>,<br />the male bird courting the female\u2014</p><p>The ropes shift. The hammock<br />sways in the wind, tied<br />firmly between two pine trees.</p><p><em>Smell the air. That is the smell of the white pine.</em></p><p>It is my mother\u2019s voice you hear<br />or is it only the sound the trees make<br />when the air passes through them</p><p>because what sound would it make,<br />passing through nothing?<br />\u00a0</p> "}, {"title": "A New Theology (audio only)", "view_node": "/poem/new-theology-audio-only", "field_author": "<a href=\"/poet/edward-hirsch\" hreflang=\"und\">Edward Hirsch</a>", "field_date_published": "2014", "body": " <p>\u00a0</p><p>Click the icon above to listen to this audio poem.</p> "}, {"title": "The Airman Who Flew Over Shakespeare&#039;s England", "view_node": "/poem/airman-who-flew-over-shakespeares-england", "field_author": "<a href=\"/poet/hyam-plutzik\" hreflang=\"en\">Hyam Plutzik</a>", "field_date_published": "2014", "body": " <p>A nation of hayricks spotting the green solace<br /><span style=\"line-height: 1.538em;\">\u00a0 \u00a0 \u00a0 \u00a0 \u00a0 Of grass,</span><br /><span style=\"line-height: 1.538em;\">And thrones of thatch ruling a yellow kingdom</span><br /><span style=\"line-height: 1.538em;\">\u00a0 \u00a0 \u00a0 \u00a0 \u00a0 Of barley.</span><br /><span style=\"line-height: 1.538em;\">In the green lands, the white nation of sheep.</span><br /><span style=\"line-height: 1.538em;\">\u00a0 \u00a0 \u00a0 \u00a0 \u00a0 And the woodlands,</span><br /><span style=\"line-height: 1.538em;\">Red, the delicate tribes of roebuck, doe</span><br /><span style=\"line-height: 1.538em;\">\u00a0 \u00a0 \u00a0 \u00a0 \u00a0 And fawn.</span><br /><span style=\"line-height: 1.538em;\">A senate of steeples guarding the slaty and gabled</span><br /><span style=\"line-height: 1.538em;\">\u00a0 \u00a0 \u00a0 \u00a0 \u00a0 Shires,</span><br /><span style=\"line-height: 1.538em;\">While aloof the elder houses hold a secret</span><br /><span style=\"line-height: 1.538em;\">\u00a0 \u00a0 \u00a0 \u00a0 \u00a0 Sceptre.</span><br /><span style=\"line-height: 1.538em;\">To the north, a wall touching two stone-grey reaches</span><br /><span style=\"line-height: 1.538em;\">\u00a0 \u00a0 \u00a0 \u00a0 \u00a0 Of water;</span><br /><span style=\"line-height: 1.538em;\">A circle of stones; then to the south a chalk-white</span><br /><span style=\"line-height: 1.538em;\">\u00a0 \u00a0 \u00a0 \u00a0 \u00a0 Stallion.</span><br /><span style=\"line-height: 1.538em;\">To the north, the wireless towers upon the cliff.</span><br /><span style=\"line-height: 1.538em;\">\u00a0 \u00a0 \u00a0 \u00a0 \u00a0 Southward</span><br /><span style=\"line-height: 1.538em;\">The powerhouse, and monstrous constellations</span><br /><span style=\"line-height: 1.538em;\">\u00a0 \u00a0 \u00a0 \u00a0 \u00a0 Of cities.</span><br /><span style=\"line-height: 1.538em;\">To the north, the pilgrims along the holy roads</span><br /><span style=\"line-height: 1.538em;\">\u00a0 \u00a0 \u00a0 \u00a0 \u00a0 To Walsingham,</span><br /><span style=\"line-height: 1.538em;\">And southward, the road to Shottery, shining</span><br /><span style=\"line-height: 1.538em;\">\u00a0 \u00a0 \u00a0 \u00a0 \u00a0 With daisies.</span><br /><span style=\"line-height: 1.538em;\">Over the castle of Warwick frightened birds</span><br /><span style=\"line-height: 1.538em;\">\u00a0 \u00a0 \u00a0 \u00a0 \u00a0 Are fleeing,</span><br /><span style=\"line-height: 1.538em;\">And on the bridge, faces upturned to a roaring</span><br /><span style=\"line-height: 1.538em;\">\u00a0 \u00a0 \u00a0 \u00a0 \u00a0 Falcon.</span></p> "}, {"title": "I Have Read in the Book of the Butcher Boy (In Time of War)", "view_node": "/poem/i-have-read-book-butcher-boy-time-war", "field_author": "<a href=\"/poet/hyam-plutzik\" hreflang=\"en\">Hyam Plutzik</a>", "field_date_published": "2014", "body": " <p>I have read in the book of the butcher boy, William of Avon,<br /><span style=\"line-height: 1.538em;\">Of the deathless thyme; I have read of the wild thyme growing.</span><br /><span style=\"line-height: 1.538em;\">Be patient, gypsy, and we shall seek for that place.</span><br /><span style=\"line-height: 1.538em;\">We shall set our house there on that fragrant hill,</span><br /><span style=\"line-height: 1.538em;\">Deathless too, over the thyme-sweet stream,</span><br /><span style=\"line-height: 1.538em;\">With a road as brown and clean as an autumn leaf</span><br /><span style=\"line-height: 1.538em;\">Passing beside it for friendly feet to tread.</span><br /><span style=\"line-height: 1.538em;\">No mouse will lurk there, or fourteen-legged bug</span><br /><span style=\"line-height: 1.538em;\">Trespass its comers as in a lesser house.</span><br /><span style=\"line-height: 1.538em;\">No pug-nosed dog will snarl from its lawns, but a gentle,</span><br /><span style=\"line-height: 1.538em;\">Sad-eyed and shaggy-eared being as wise as Buddha</span><br /><span style=\"line-height: 1.538em;\">Will sit magisterial on the porch to guard us</span><br /><span style=\"line-height: 1.538em;\">From villain and bore. Never will hoarse old rooster</span><br /><span style=\"line-height: 1.538em;\">Raise up his odious cry at dawn to wake us:</span><br /><span style=\"line-height: 1.538em;\">A small red bird on a limb by our window will be</span><br /><span style=\"line-height: 1.538em;\">The bell of morning for us through the long years.</span><br /><span style=\"line-height: 1.538em;\">And we shall look down at the brown road to see</span><br /><span style=\"line-height: 1.538em;\">The butcher boy pass there idling upon his wheel</span><br /><span style=\"line-height: 1.538em;\">As butcher boys do, whistling a lilt to life;</span><br /><span style=\"line-height: 1.538em;\">The postman will pass there and other wise men also.</span><br /><span style=\"line-height: 1.538em;\">Sons will come to us there through the long years.</span><br /><span style=\"line-height: 1.538em;\">We shall grow old but mist and road and stream,</span><br /><span style=\"line-height: 1.538em;\">In that coign of things, will give us youth eternal,</span><br /><span style=\"line-height: 1.538em;\">By the happy thyme of the fragrant butcher boy's singing.</span></p> "}, {"title": "Sprig of Lilac", "view_node": "/poem/sprig-lilac", "field_author": "<a href=\"/poet/hyam-plutzik\" hreflang=\"en\">Hyam Plutzik</a>", "field_date_published": "2014", "body": " <p>Their heads grown weary under the weight of Time\u2014<br /><span style=\"line-height: 1.538em;\">These few hours on the hither side of silence\u2014</span><br /><span style=\"line-height: 1.538em;\">The lilac sprigs bend on the bough to perish.</span></p><p>Though each for its own sake is beautiful,<br />In each is the greater, the remembered beauty.<br />Each is exemplar of its ancestors.<br /><br />Within the flower of the present, uneasy in the wind,<br />Are the forms of those of the years behind the door.<br />Their faint aroma touches the edge of the mind.<br /><br />And the living and the past give to one another.<br />There is no door between them.\u00a0 They pass freely<br />Out of themselves; becoming one another.<br /><br />I see the lilac sprigs bending and withering.<br />Each year like Adonis they pass through the dumb-show of death,<br />Waxing and waning on the tree in the brain of a man.</p> "}], "pager": {"current_page": 398, "total_items": "13248", "total_pages": 663, "items_per_page": 20}}