{"rows": [{"title": "Thek", "view_node": "/poem/thek", "field_author": "<a href=\"/poet/thom-donovan\" hreflang=\"und\">Thom Donovan</a>", "field_date_published": "2014", "body": "<p><span class=\"long-line\">A more interpretable ark than this</span><br /><span class=\"long-line\">Blood is song your party </span><br /><span class=\"long-line\">Apprenticeship of what one can\u2019t have </span><br /><span class=\"long-line\">Changed to money usury and the </span><br /><span class=\"long-line\">World what was worth having</span><br /><span class=\"long-line\">Ends up broken yesterday\u2019s news</span><br /><span class=\"long-line\">Like the blue of earth </span><br /><span class=\"long-line\">Seen from outside atmosphere like</span><br /><span class=\"long-line\">An egg we must begin </span><br /><span class=\"long-line\">Anything can be charged with value</span><br /><span class=\"long-line\">Changed to money Madonna of </span><br /><span class=\"long-line\">A different blue </span><br /><span class=\"long-line\">Still there is not</span><br /><span class=\"long-line\">Just failure and despair in this world</span><br /><span class=\"long-line\">Corruption of the flesh, forgotten sex</span><br /><span class=\"long-line\">Still blesses our other names.</span></p>\n"}, {"title": "Star in the Throat, Fire in the Cupboard", "view_node": "/poem/star-throat-fire-cupboard", "field_author": "<a href=\"/poet/catie-rosemurgy\" hreflang=\"und\">Catie Rosemurgy</a>", "field_date_published": "2014", "body": " <pre>\nWhen I was young, I hid under the porch with a star in my throat.\nWhen I got a little older, my mother opened the cupboard to let the fire out. \n\nI should\u2019ve known the cliffs meant a coming blankness.\nWe should\u2019ve noticed the competition growing deadly between the masts and the trees.\nThe problem wasn\u2019t the lateness of our parties\nbut what we used for wood to keep them lit.\n\nWhat is it people say\u2014take my arm and walk with me along the shore for a minute? \n\nMy mother, bless her, is a speck of color in the flush of a great cheek. \nI\u2019ve come to ask you to consider praying for that giant child. \n \nRemember when we began to forget the babies once we tossed them in the air?\nFirst it was the completion of those simple gestures, but then entire sections of the story\nwent missing. In our lips we could feel the slight buzz\nof the edge where the cut was made.  We crawled in and out of those holes \nwearing different faces. \n\nI believe the stories got wet and began to bleed together. \nI believe we built the sides of the town too high and the events kept rolling back. \nI didn\u2019t know that the water was going to keep rising as well, \nbut if you have any say in the matter, while the boats go down,\nI\u2019d like to be on a ladder,\npeeking into a loft made narcotic with children, \na dead pool with rolling, living waves. If possible, \nI\u2019d like the water to douse the match that\u2019s growing out of the bones of my hand. </pre>\n "}, {"title": "Representative Character", "view_node": "/poem/representative-character", "field_author": "<a href=\"/poet/brett-fletcher-lauer\" hreflang=\"und\">Brett Fletcher Lauer</a>", "field_date_published": "2014", "body": " <pre>\nI cut the orange in two \n  and the two parties \nare not equal. I watch \n  the driveway, study \nirregularities in market \n  fluctuation, the bird\nhumming at the feeder. \n  It\u2019s colder than yesterday. \nVery dark. I\u2019ve been here \n  now two years and \nhaven\u2019t received a letter.    \n  One hour of sleep \nbefore midnight is worth   \n  three in August. Do you \nknow what I mean? \n  Women in particular \nresponded once to my  \n  advances. I\u2019ve been \nresearching Buddhism \n  on my phone for twenty \nminutes. They say one \n  thing exists in every \nhidden thing. Soon I will   \n  replace myself with \nthe sound of a prayer \n  bell application. Cigarettes \ndrag time. I get news \n  alerts: first the harbinger \nof the storm, followed \n  by an icon of the sun \ncovered in raindrops, \n  then nothing to look \nforward to. Another \n  coffee without milk.\nThere\u2019s no hurry. \n  In a few hours a sprinkler\nsystem automatically \n  operates. Someday \nsomewhere I believe \n  someone will depend \non my presence \n  at a recital or, more likely, \ntheir ride home. I wish \n  there were more time \nto go back to school, \n  read the classics, clean \nthe pool. The doctor will \n  arrive soon to walk me \naround the bend up in\n  the road, pause at colonial \ngravesites. I could care. \n  Gradually these fields broaden, \nbrown, and we walk back. </pre>\n "}, {"title": "Grief Puppet", "view_node": "/poem/grief-puppet", "field_author": "<a href=\"/poet/sandra-beasley\" hreflang=\"und\">Sandra Beasley</a>", "field_date_published": "2014", "body": " <pre>\nIn the nearby plaza, musicians would often gather.\nThe eternal flame was fueled by propane tank.\nAn old man sold chive dumplings from a rolling cart,\nwhile another grilled skewers of paprika beef.\nMale turtledoves would puff their breasts, woo-ing, \nand for a few coins, we each bought an hour with \nthe grief puppet. It had two eyes, enough teeth, \na black tangle of something like hair or fur,\na flexible spine that ran the length of your arm.\nFlick your wrist, and at the end of long rods\nit raised its hands as if conducting the weather.\nTilt the other wrist, and it nodded. No effort\nwas ever lost on its waiting face. It never \nneeded a nap or was too hungry to think straight.\nYou could have your conversation over and over,\npast dusk when old men doused their charcoal,\ninto rising day when they warmed their skillets.\nThe puppet only asked what we could answer.\nSome towns had their wall, others their well; \nwe never gave the stupid thing a name, nor\nasked the name of the woman who took our coins.\nBut later, we could all remember that dank felt,\nand how the last of grief\u2019s flock lifted from our chests.</pre>\n "}, {"title": "bonne chance de lycee", "view_node": "/poem/bonne-chance-de-lycee", "field_author": "<a href=\"/poet/buck-downs\" hreflang=\"en\">Buck Downs</a>", "field_date_published": "2014", "body": "<pre>\nsome trust the tarot\n                   or the feel\n      of a new tattoo\n\nor messages that seem\n                  to descend\n     to a higher form\n\n             all figures\n             all for show\n\n    once love one\n    love's master\n\nas when overcoming\n          her resistance\n     the way she wanted\n\nbeautiful ambient light\nof the end of days\n              like a limb\n     I never had\n                  that still felt\nlike it was missing</pre>\n"}, {"title": "from Two Inch Fables", "view_node": "/poem/two-inch-fables", "field_author": "<a href=\"/poet/marilyn-chin\" hreflang=\"und\">Marilyn Chin</a>", "field_date_published": "2014", "body": " <pre>\nYellow gold is meaningless\nLearning is better than pearls\nA woman without brilliance\nLeaves nothing but dim children\n \nYou can hawk your gold if you\u2019re hungry\nSell your mule when you\u2019re desperate\nWhat can you do with so many poems\nSprouting dead hairs in an empty coffin\n \n*\n\nLotus: pink     dewlapped     pretty\nLotus: upturned palm of my dead mother\nLotus:  a foot       a broken arch\nLotus:  plop      and a silent     ripple\n \n*\n \nI hum and stroll\nAnd contemplate a poem\nWhile young boys are dying\nIn West Darfur\n \nI hum and stroll\nAnd contemplate a poem\nWhile young boys are dying\nIn West Darfur\n</pre>\n "}, {"title": "Making It Up as You Go Along", "view_node": "/poem/making-it-you-go-along", "field_author": "<a href=\"/poet/bin-ramke\" hreflang=\"und\">Bin Ramke</a>", "field_date_published": "2014", "body": " <pre>\nLucretius loved Epicurus, knew\nthe world through him; his\nmeaning was clear: love as a way\nof knowing, of assuming the known.\n\nTo know is to narrate.\nPeople die trying to tell what\nit was like there then. Others\ndie of not trying. The form of this\ntelling is, for example,\na trellis. A growth controlled\nunpredictable within measure.\n\nTrellis. <em>Tri licium</em>. three threads.\nThe weaver knows\nthrough the fingers the way worlds\nhold together. Basket makers.\nThe shadow of a trellis is filled\nagainst itself, against measure.\nSee the sun try again to\nstop the movement of the rose\n\nclimbing among the woven ways.</pre>\n "}, {"title": "When They Die We Change Our Minds About Them", "view_node": "/poem/when-they-die-we-change-our-minds-about-them", "field_author": "<a href=\"/poet/jennifer-michael-hecht\" hreflang=\"en\">Jennifer Michael Hecht</a>", "field_date_published": "2014", "body": " <pre>\nWhen they die we change our minds \nabout them. While they live we see \nthe plenty hard they\u2019re trying,\nto be a star, or nice, or wise, \nand so we do not quite believe them. \n\nWhen they die, suddenly they are \nwhat they claimed. Turns out, \nthat\u2019s what one of those looks like. \n\nThe cold war over manner of manly \nor mission is over. Same person, \nsame facts and acts, just now \na quiet brain stem. We no longer \nbegrudge his or her stupid luck.\n\nWhen they die we change our minds \nabout them. I will try to believe \nwhile you yet breathe.</pre>\n "}, {"title": "Vantage", "view_node": "/poem/vantage", "field_author": "<a href=\"/poet/alan-shapiro\" hreflang=\"und\">Alan Shapiro</a>", "field_date_published": "2014", "body": " <pre>&#13;\nFrom where I watch, there are no highest leaves,&#13;\nno leaves that don\u2019t have over them more leaves &#13;\nimpeding what they open up and out for, &#13;\n&#13;\ndarkening downward as they feed on green &#13;\ndiminishments, as if dark, if it still&#13;\ncan darken, could be itself the light &#13;\n&#13;\nthe darker leaves beneath are hungry for.&#13;\nFrom where I watch even the shade hungers&#13;\nAnd is hungered after\u2014all along the chain &#13;\n&#13;\npast bark, root, leaf, ghost speck of leaf,     &#13;\nmicrobial scrapings, and beyond them, flakes &#13;\nchipped off of flakes off of a now- &#13;\n&#13;\nno-longer anything sucked dry, unsifted &#13;\nand unsiftable into so fine a green &#13;\neven the dark shines through. What\u2019s hunger but&#13;\n&#13;\na hole to fill, gravity of a self-&#13;\nconsuming self-proliferating blind&#13;\nand densely tangled maze of this from that,&#13;\n&#13;\nfrom this, somewhere inside of which a cry&#13;\nfor mercy isn\u2019t heard, or is, and the jaws shut, &#13;\nand the very dirt becomes the dirt of it. </pre>&#13;\n "}, {"title": "Preparation", "view_node": "/poem/preparation", "field_author": "<a href=\"/poet/effie-waller-smith\" hreflang=\"en\">Effie Waller Smith</a>", "field_date_published": "1886", "body": "<p><span class=\"long-line\">\u201cI have no time for those things now,\u201d we say;</span><br /><span class=\"long-line\">\u201cBut in the future just a little way,</span><br /><span class=\"long-line\">No longer by this ceaseless toil oppressed,</span><br /><span class=\"long-line\">I shall have leisure then for thought and rest.</span><br /><span class=\"long-line\">When I the debts upon my land have paid,</span><br /><span class=\"long-line\">Or on foundations firm my business laid,</span><br /><span class=\"long-line\">I shall take time for discourse long and sweet</span><br /><span class=\"long-line\">With those beloved who round my hearthstone meet;</span><br /><span class=\"long-line\">I shall take time on mornings still and cool</span><br /><span class=\"long-line\">To seek the freshness dim of wood and pool,</span><br /><span class=\"long-line\">Where, calmed and hallowed by great Nature's peace,</span><br /><span class=\"long-line\">My life from its hot cares shall find release;</span><br /><span class=\"long-line\">I shall take time to think on destiny,</span><br /><span class=\"long-line\">Of what I was and am and yet shall be,</span><br /><span class=\"long-line\">Till in the hush my soul may nearer prove</span><br /><span class=\"long-line\">To that great Soul in whom we live and move.</span><br /><span class=\"long-line\">All this I shall do sometime but not now\u2014</span><br /><span class=\"long-line\">The press of business cares will not allow.\u201d</span><br /><span class=\"long-line\">And thus our life glides on year after year;</span><br /><span class=\"long-line\">The promised leisure never comes more near.</span><br /><span class=\"long-line\">Perhaps the aim on which we placed our mind</span><br /><span class=\"long-line\">Is high, and its attainment slow to find;</span><br /><span class=\"long-line\">Or if we reach the mark that we have set,</span><br /><span class=\"long-line\">We still would seek another, farther yet.</span><br /><span class=\"long-line\">Thus all our youth, our strength, our time go past</span><br /><span class=\"long-line\">Till death upon the threshold stands at last,</span><br /><span class=\"long-line\">And back unto our Maker we must give</span><br /><span class=\"long-line\">The life we spent preparing well to live.</span></p>\n"}, {"title": "Poetry", "view_node": "/poem/poetry-3", "field_author": "<a href=\"/poet/amy-lowell\" hreflang=\"und\">Amy Lowell</a>", "field_date_published": "1919", "body": " <pre>Over the shop where silk is sold\nStill the dragon kites are flying.</pre>\n "}, {"title": "A Bird Song", "view_node": "/poem/bird-song", "field_author": "<a href=\"/poet/christina-rossetti\" hreflang=\"und\">Christina Rossetti</a>", "field_date_published": "1873", "body": " <pre>\nIt's a year almost that I have not seen her:\nOh, last summer green things were greener,\nBrambles fewer, the blue sky bluer.\n\nIt's surely summer, for there's a swallow:\nCome one swallow, his mate will follow,\nThe bird race quicken and wheel and thicken.\n\nOh happy swallow whose mate will follow\nO'er height, o'er hollow! I'd be a swallow,\nTo build this weather one nest together.</pre>\n "}, {"title": "Rondeau", "view_node": "/poem/rondeau", "field_author": "<a href=\"/poet/jessie-redmon-fauset\" hreflang=\"und\">Jessie Redmon Fauset</a>", "field_date_published": "1912", "body": " <pre>\nWhen April's here and meadows wide \nOnce more with spring's sweet growths are pied \n    I close each book, drop each pursuit, \n    And past the brook, no longer mute, \nI joyous roam the countryside.\n\nLook, here the violets shy abide \nAnd there the mating robins hide\u2014\n    How keen my sense, how acute, \n      When April's here!\n\nAnd list! down where the shimmering tide \nHard by that farthest hill doth glide, \n    Rise faint strains from shepherd's flute, \n    Pan's pipes and Berecyntian lute. \nEach sight, each sound fresh joys provide \n      When April's here. </pre>\n "}, {"title": "Brokeheart: Just like that", "view_node": "/poem/brokeheart-just", "field_author": "<a href=\"/poet/patrick-rosal\" hreflang=\"und\">Patrick Rosal</a>", "field_date_published": "2014", "body": " <pre>\nWhen the bass drops on Bill Withers\u2019 \nBetter Off Dead, it\u2019s like 7 a.m.  \nand I confess I\u2019m looking \nover my shoulder once or twice\njust to make sure no one in Brooklyn \nis peeking into my third-floor window \nto see me in pajamas I haven\u2019t washed \nfor three weeks before I slide \nfrom sink to stove in one long groove \nleft foot first then back to the window side\nwith my chin up and both fists clenched \nlike two small sacks of stolen nickels\nand I can almost hear the silver \nhit the floor by the dozens\nwhen I let loose and sway a little back \nand just like that I\u2019m a lizard grown \ntwo new good legs on a breeze\n-bent limb. I\u2019m a grown-ass man \nwith a three-day wish and two days to live.\nAnd just like that everyone knows \nmy heart\u2019s broke and no one is home. \nJust like that, I\u2019m water. \nJust like that, I\u2019m the boat. \nJust like that, I\u2019m both things in the whole world \nrocking. Sometimes sadness is just \nwhat comes between the dancing. And bam!, \nmy mother\u2019s dead and, bam!, my brother\u2019s \nchildren are laughing. Just like\u2014ok, it\u2019s true \nI can\u2019t pop up from my knees so quick these days \nand no one ever said I could sing but \ntell me my body ain\u2019t good enough \nfor this. I\u2019ll count the aches another time, \none in each ankle, the sharp spike in my back, \nthis mud-muscle throbbing in my going bones, \nI\u2019m missing the six biggest screws \nto hold this blessed mess together. I\u2019m wind-\nrattled. The wood\u2019s splitting. The hinges are\nfalling off. When the first bridge ends,\njust like that, I\u2019m a flung open door. </pre>\n "}, {"title": "Etta\u2019s Elegy", "view_node": "/poem/ettas-elegy", "field_author": "<a href=\"/poet/maureen-seaton\" hreflang=\"und\">Maureen Seaton</a>", "field_date_published": "2014", "body": "<pre>\n<i>for Etta Silver (1913\u20132013)</i>\t\t\n\t\n\nThis is where the poem holds its breath,\nwhere the usable truth sways, sorrowing,\n\nand the people sway with the truth of it,\nand this is where the poem enters the dark.\n\nThis is where the book closes and the clock \nopens and the clock closes and the book \n\nopens to song so the snow geese murmur \nand the coyote swaggers along the aspens.\n\nThis is where the geese fly unabashedly out, \nand the sky turns white and wild with sound.\n\nThis is where tumult, this is where prophecy.\nThis is where the poem repents of language.\n\nThis is where the poem enters silence,\nwhere the child holds the book in her lap  \n\nwhose pages are aflame with life, whose \nsong sways with a usable truth, sorrowing.\n\nAnd this is where the poem holds its breath, \nand this is where the poem enters the dark.\n\nThis is where it leaps wild about the child,\nwhere the snow geese seize the seamless sky\n\nand the universe splits open for one poem\u2014\nthe way a life lived calls on us to praise it.</pre>\n"}, {"title": "Singer", "view_node": "/poem/singer", "field_author": "<a href=\"/poet/valzhyna-mort\" hreflang=\"und\">Valzhyna Mort</a>", "field_date_published": "2014", "body": " <pre>\nA yoke of honey in a glass of cooling milk.\nBats playful like butterflies on power lines.\nIn all your stories blood hangs like braids\n\nof drying onions. Our village is so small,\nit doesn\u2019t have its own graveyard. Our souls,\nare sapped in sour water of the bogs. \n\nMen die in wars, their bodies their graves. \nAnd women burn in fire. When midsummer\nbrings thunderstorms, we cannot sleep\n\nbecause our house is a wooden sieve,\nand crescent lightning cut off our hair. \nThe bogs ablaze, we sit all night in fear. \n\nI always thought that your old trophy Singer \nwould hurry us away on its arched back. \nI thought we\u2019d hold on to its mane of threads \n\nfrom loosened spools along Arabic spine, \nsame threads that were sown into my skirts, \nmy underthings, first bras. What smell\n\ncame from those threads you had so long, \nsown in, pulled out, sown back into the clothes\nthat held together men who\u2019d fall apart \n\nundressed. Same threads between my legs! \nI lash them, and the Singer gallops!  \n\nAnd sky hangs only the lightning\u2019s thread. \nLike in that poem: on Berlin\u2019s Jaegerstrasse\nArian whores are wearing shirts ripped off\nsliced chests of our girls. My Singer-Horsey,\n\nwhy everything has to be like that poem? </pre>\n "}, {"title": "The Summer of Reconciliation", "view_node": "/poem/summer-reconciliation", "field_author": "<a href=\"/poet/d-nurkse\" hreflang=\"und\">D. Nurkse</a>", "field_date_published": "2014", "body": " <pre>\n1\nThey\u2019re happy but don\u2019t know it.\nThey think they\u2019re bored and hate each other.\n\nThe other has forgotten the hammer and must pound\neach triangular tent peg with a damp stone\nthat has a smooth underside but no flat plane,\nand here the earth is granite or friable lichen.\n\nThe whoosh could be a horsefly, rain, or a powerboat.\n\nThey make love, and each gasps politely, each feels\nthat fat cloud is me, that drilled acorn was me,\nbut this person holding me is strange,\nwithholding as time itself.\n\n2\nAt sunset the island lights up:\t\t\t\t\t\na firefly, a Coleman lamp, a bed of coals.\n                                        It\u2019s there they will learn to be travelers,     \nthere where the flies know they are loud,\nthe hidden spring is aware of being cold.\n\nThey will get there by the teak rowboat,\nworn almost to a thought, the gunwale splaying,\nthe strake shipping bilge and drowned lunar moths,\nthe old dog in the prow, watching through cataracts.\n       \nBeach with me on mica, in the tannin-dark inlet.\n\n3\nNo, there is nothing here, a wisp of tarred rope,\na smashed teal egg, paths that lead to each other,\nso you might walk to Quarry Cove and find only quartz.\n\nBut here the night makes its own darkness.\n\nLike lake water, or the spine of a moss-green book,\nour marriage closes over us.</pre>\n "}, {"title": "The World Seems\u2026", "view_node": "/poem/world-seems", "field_author": "<a href=\"/poet/gregory-orr\" hreflang=\"und\">Gregory Orr</a>", "field_date_published": "2014", "body": " <pre>\nThe world seems so palpable\nAnd dense: people and things\nAnd the landscapes \nThey inhabit or move through.\n\nWords, on the other hand, \nAre so abstract\u2014they\u2019re\nMade of empty air\nOr black scratches on a page\nThat urge us to utter\nCertain sounds.\n                           And <i>us:</i>\nPoised in the middle, aware\nOf the objects out there\nWaiting patiently to be named,\nAs if the right words \nCould save them. \n                               And don\u2019t\nThey deserve it? \t\t\t\t\t\nSo much hidden inside each one,\nSuch a longing \nTo become the beloved.\n\nAnd inside us: the sounds \nThat could extend that blessing\u2014\nHow they crowd our mouths,\nHow they press up against\nOur lips, which are such \nA narrow exit for a joy so desperate.</pre>\n "}, {"title": "To Amy Lowell", "view_node": "/poem/amy-lowell", "field_author": "<a href=\"/poet/eunice-tietjens\" hreflang=\"en\">Eunice Tietjens</a>", "field_date_published": "1919", "body": " <pre>\n<em>who visits me in a hospital\n</em>\nLike a fleet with bellying sails, \nLike the great bulk of a sea-cliff with the staccato bark \n     of waves about it, \nLike the tart tang of the sea breeze\nAre you;\nFilling the little room where I lie straitly on a white \n     island between pain and pain.</pre>\n "}, {"title": "I Got Heaven...", "view_node": "/poem/i-got-heaven", "field_author": "<a href=\"/poet/garrett-hongo\" hreflang=\"und\">Garrett Hongo</a>", "field_date_published": "2014", "body": " <pre>\nI swear that, in Gardena, on a moonlit suburban street,\nThere are souls that twirl like kites lashed to the wrists of the living\nAnd spirits who tumble in a solemn limbo between 164th\nAnd the long river of stars to Amida\u2019s Paradise in the West.\n\nAs though I belonged, I\u2019ve come from my life of papers and exile\nTo walk among these penitents at the Festival of the Dead,\nThe booths full of sellers hawking rice cakes and candied plums,\nAll around us the rhythmic chant of <em>min\u2019yo</em> bursting through loudspeakers,\nCalling out the mimes and changes to all who dance.\n\nI stop at a booth and watch a man, deeply tanned from work outdoors,\nPitch bright, fresh quarters into blue plastic bowls.\nHe wins a porcelain cat, a fishnet bag of marbles,\nThen a bottle of <em>sh\u014dyu</em>, and a rattle shaped like tam-tam he gives to a child.\n\nI hear the words of a Motown tune carry through the gaudy air\n<em>\u2026got sunshine on a cloudy day\u2026got the month of May\u2026</em>\nAs he turns from the booth and re-enters the River of Heaven\u2014\nThese dancers winding in brocades and silk sleeves,\nA faithlit circle briefly as warm in the summer night.\n</pre>\n "}], "pager": {"current_page": 407, "total_items": "13248", "total_pages": 663, "items_per_page": 20}}