{"rows": [{"title": "Discovery", "view_node": "/poem/discovery", "field_author": "<a href=\"/poet/florence-ripley-mastin\" hreflang=\"en\">Florence Ripley Mastin</a>", "field_date_published": "1918", "body": "<p><span class=\"long-line\">The gray path glided before me</span><br /><span class=\"long-line\">Through cool, green shadows;</span><br /><span class=\"long-line\">Little leaves hung in the soft air</span><br /><span class=\"long-line\">Like drowsy moths;</span><br /><span class=\"long-line\">A group of dark trees, gravely conferring,</span><br /><span class=\"long-line\">Made me conscious of the gaucherie of sound;</span><br /><span class=\"long-line\">Farther on, a slim lilac</span><br /><span class=\"long-line\">Drew me down to her on the warm grass.</span><br /><span class=\"long-line\">\u201cHow sweet is peace!\u201d</span><br /><span class=\"long-line\">My serene heart said.</span></p>\n\n<p><span class=\"long-line\">Then, suddenly, in a curve of the road,</span><br /><span class=\"long-line\">Red tulips!</span><br /><span class=\"long-line\">A bright battalion, swaying,</span><br /><span class=\"long-line\">They marched with fluttering flags,</span><br /><span class=\"long-line\">And gay fifes playing!</span></p>\n\n<p><span class=\"long-line\">A swift flame leapt in my heart;</span><br /><span class=\"long-line\">I burned with passion;</span><br /><span class=\"long-line\">I was tainted with cruelty;</span><br /><span class=\"long-line\">I wanted to march in the wind,</span><br /><span class=\"long-line\">To tear the silence with gay music,</span><br /><span class=\"long-line\">And to slash the sober green</span><br /><span class=\"long-line\">Until it sobbed and bled.</span></p>\n\n<p><span class=\"long-line\">The tulips have found me out.</span></p>\n"}, {"title": "August", "view_node": "/poem/august-0", "field_author": "<a href=\"/poet/lizette-woodworth-reese\" hreflang=\"und\">Lizette Woodworth Reese</a>", "field_date_published": "1887", "body": " <p>No wind, no bird. The river flames like brass.<br />On either side, smitten as with a spell<br />Of silence, brood the fields. In the deep grass,<br />Edging the dusty roads, lie as they fell<br />Handfuls of shriveled leaves from tree and bush.<br />But \u2019long the orchard fence and at the gate,<br />Thrusting their saffron torches through the hush,<br />Wild lilies blaze, and bees hum soon and late.<br />Rust-colored the tall straggling briar, not one<br />Rose left. The spider sets its loom up there<br />Close to the roots, and spins out in the sun<br />A silken web from twig to twig. The air<br />Is full of hot rank scents. Upon the hill<br />Drifts the noon\u2019s single cloud, white, glaring, still.</p> "}, {"title": "Daughter", "view_node": "/poem/daughter", "field_author": "<a href=\"/poet/jon-pineda\" hreflang=\"en\">Jon Pineda</a>", "field_date_published": "2015", "body": " <p>Let us take the river<br />path near Fall Hill.</p><p>There we will negotiate<br />an outcrop with its silvered<br />initials &amp; other bits of graffiti,</p><p>all the way to the broken edge<br />that overlooks the bend,<br />&amp; hold hands until</p><p>we can no longer tell<br />where the river ends.<br />\u00a0</p> "}, {"title": "Mercy Beach", "view_node": "/poem/mercy-beach", "field_author": "<a href=\"/poet/kamilah-aisha-moon\" hreflang=\"en\">Kamilah  Aisha Moon</a>", "field_date_published": "2015", "body": " <p>Stony trails of jagged beauty rise<br />like stretch marks streaking sand-hips.<br />All the Earth has borne beguiles us<br />&amp; battered bodies build our acres.</p><p>Babes that sleep in hewn rock cradles<br />learn to bear the hardness coming.<br />Tough grace forged in tender bones\u2014<br />may this serve &amp; bless them well.</p><p>They grow &amp; break grief into islands<br />of sun-baked stone submerged in salt<br />kisses, worn down by the ocean's ardor<br />relentless as any strong loving.</p><p>May they find caresses that abolish pain.<br />Like Earth, they brandish wounds of gold!<br />\u00a0</p> "}, {"title": "As If I Am Someone Else", "view_node": "/poem/if-i-am-someone-else", "field_author": "<a href=\"/poet/douglas-piccinnini\" hreflang=\"en\">Douglas Piccinnini</a>", "field_date_published": "2015", "body": " <p>so much depends<br />on the authority</p><p>of a reality<br />to guide me</p><p>in a logic<br />of circumstance\u2014</p><p><em>to live comfortably<br />yet desire differently.</em><br />\u00a0</p> "}, {"title": "You Make the Culture", "view_node": "/poem/you-make-culture", "field_author": "<a href=\"/poet/amy-king\" hreflang=\"und\">Amy King</a>", "field_date_published": "2015", "body": " <p>The words became librarians, custodians of people<br />I looked for on the bridge.<br />I forgot my own face.<br />I read the book backwards, and<br />I painted your name in lace<br />(I drink only the milk of script as beer).<br />I dislocate all gallery aesthetics,<br />I carry keys for Baltimore and<br />Go where no one is my name.<br />I wish I could sculpt a healing street<br />from a blanket of guns. The way the sun drops<br />behind a one-armed cop &amp; we default<br />to believing in voices. This is the trough of sleep<br />we draw from. Even gravity works at night.<br />If I pull your speech on the carpet of impossibility,<br />will you speak this immediate need for movement?<br />The immediate need of not drowning in public?<br />I will walk with the sharks of our pigments<br />if that's what inconclusive data requires,<br />until we leave rooms that hold us apart.\u00a0<br />What you see as a small minority, I see<br />as closer to liberatory. Nothing comes from the center<br />that doesn't break most everything in parts.\u00a0<br />I break bread with the handwriting of words.<br />Nothing of appearance is always an illusion.<br />Lend me your book when you finish<br />writing it. I\u2019ll be the first to fill in its spaces.</p> "}, {"title": "In Defense of Melancholy", "view_node": "/poem/defense-melancholy", "field_author": "<a href=\"/poet/pablo-medina\" hreflang=\"und\">Pablo Medina</a>", "field_date_published": "2015", "body": " <p>At least once a week<br />I walk into the city of bricks<br />where the rubies grow</p><p>and the killers await<br />the coming of doves and cats.</p><p>I pass by the homes of butchers<br />and their knives sharpened by insomnia</p><p>to the river of black sails<br />and the torn-up sea and the teeth of dogs.</p><p>She waits for me in a narrow bed,<br />watching the rain<br />that gathers on the broken street</p><p>and the weak light of dusk<br />and the singing trees.<br />\u00a0</p> "}, {"title": "The Sea of Glass", "view_node": "/poem/sea-glass", "field_author": "<a href=\"/poet/ezra-pound\" hreflang=\"und\">Ezra Pound</a>", "field_date_published": "1917", "body": " <p>I looked and saw a sea<br />\u00a0 \u00a0 \u00a0 \u00a0 \u00a0 \u00a0 \u00a0 \u00a0 \u00a0 \u00a0 \u00a0 \u00a0 \u00a0 \u00a0 \u00a0 \u00a0roofed over with rainbows,<br />In the midst of each<br />\u00a0\u00a0\u00a0\u00a0\u00a0\u00a0\u00a0\u00a0\u00a0\u00a0\u00a0\u00a0\u00a0\u00a0\u00a0\u00a0\u00a0\u00a0\u00a0\u00a0\u00a0\u00a0\u00a0\u00a0\u00a0\u00a0\u00a0\u00a0\u00a0\u00a0 two lovers met and departed;<br />Then the sky was full of faces<br />\u00a0\u00a0\u00a0\u00a0\u00a0\u00a0\u00a0\u00a0\u00a0\u00a0\u00a0\u00a0\u00a0\u00a0\u00a0\u00a0\u00a0\u00a0\u00a0\u00a0\u00a0\u00a0\u00a0\u00a0\u00a0\u00a0\u00a0\u00a0\u00a0\u00a0 with gold glories behind them.</p> "}, {"title": "A Memory", "view_node": "/poem/memory", "field_author": "<a href=\"/poet/lola-ridge\" hreflang=\"und\">Lola Ridge</a>", "field_date_published": "1918", "body": "<p><span class=\"long-line\">I remember</span><br /><span class=\"long-line\">The crackle of the palm trees</span><br /><span class=\"long-line\">Over the mooned white roofs of the town\u2026</span><br /><span class=\"long-line\">The shining town\u2026</span><br /><span class=\"long-line\">And the tender fumbling of the surf</span><br /><span class=\"long-line\">On the sulphur-yellow beaches</span><br /><span class=\"long-line\">As we sat\u2026a little apart\u2026in the close-pressing night.</span></p>\n\n<p><span class=\"long-line\">The moon hung above us like a golden mango,</span><br /><span class=\"long-line\">And the moist air clung to our faces,</span><br /><span class=\"long-line\">Warm and fragrant as the open mouth of a child</span><br /><span class=\"long-line\">And we watched the out-flung sea</span><br /><span class=\"long-line\">Rolling to the purple edge of the world,</span><br /><span class=\"long-line\">Yet ever back upon itself\u2026</span><br /><span class=\"long-line\">As we\u2026</span></p>\n\n<p><span class=\"long-line\">Inadequate night\u2026</span><br /><span class=\"long-line\">And mooned white memory</span><br /><span class=\"long-line\">Of a tropic sea\u2026</span><br /><span class=\"long-line\">How softly it comes up</span><br /><span class=\"long-line\">Like an ungathered lily.</span></p>\n"}, {"title": "Enough", "view_node": "/poem/enough-0", "field_author": "<a href=\"/poet/ellen-bass\" hreflang=\"und\">Ellen Bass</a>", "field_date_published": "2015", "body": " <p><br /><em>Enough seen\u2026.Enough had....Enough\u2026</em><br />\u00a0 \u00a0 \u00a0 \u00a0 \u00a0 \u00a0 \u00a0 \u00a0 \u00a0 \u00a0 \u00a0 \u00a0 \u00a0 \u00a0\u2014<em>Arthur Rimbaud</em></p><p>No. It will never be enough. Never<br />enough wind clamoring in the trees,<br />sun and shadow handling each leaf, never enough clang<br />of my neighbor hammering,<br />the iron nails, relenting wood, sound waves<br />lapping over roofs, never enough<br />bees purposeful at the throats<br />of lilies. How could we be replete<br />with the flesh of ripe tomatoes, the unique<br />scent of their crushed leaves. It would take many<br />births to be done with the thatness of that.</p><p>Oh blame life. That we just want more.<br />Summer rain. Mud. A cup of tea.<br />Our teeth, our eyes. A baby in a stroller.<br />Another spoonful of cr\u00e8me br\u00fbl\u00e9e, sweet burnt crust crackling.<br />And hot showers, oh lovely, lovely hot showers.</p><p>Today was a good day.<br />My mother-in-law sat on the porch, eating crackers and cheese<br />with a watered-down margarita<br />and though her nails are no longer stop-light red<br />and she can\u2019t remember who\u2019s alive and dead,<br />still, this was a day<br />with no weeping, no unstoppable weeping.</p><p>Last night, through the small window of my laptop,<br />I watched a dying man kill himself in Switzerland.<br />He wore a blue shirt and snow was falling<br />onto a small blue house, onto dark needles of pine and fir.<br />He didn\u2019t step outside to feel the snow on his face.<br />He sat at a table with his wife and drank poison.</p><p>Online I found a plastic bag complete with Velcro<br />and a hole for a tube to a propane tank. I wouldn\u2019t have to<br />move our Weber. I could just slide<br />down the stucco to the flagstones, where the healthy<br />weeds are sprouting through the cracks.<br />Maybe it wouldn\u2019t be half-bad<br />to go out looking at the yellowing leaves of the old camellia.<br />And from there I could see the chickens scratching\u2014<br />if we still have chickens then. And yet\u2026</p><p>this little hat of life, how will I bear<br />to take it off while I can still reach up? Snug woolen watch cap,<br />lacy bonnet, yellow cloche with the yellow veil<br />I wore the Easter I turned thirteen when my mother let me<br />\u00a0\u00a0\u00a0 promenade<br />with Tommy Spagnola on the boardwalk in Atlantic City.</p><p><em>Oxygen, oxygen, </em>the cry of the body\u2014and you always want to<br />\u00a0\u00a0\u00a0 give it<br />what it wants. But I must say<em> no\u2014<br />enough, enough</em><br />with more tenderness<br />than I have ever given to a lover, the gift<br />of the nipple hardening under my fingertip, more<br />tenderness than to my newborn,<br />when I held her still flecked<br />with my blood. I\u2019ll say the most gentle refusal<br />to this dear dumb animal and tighten<br />the clasp around my throat that once was kissed and kissed<br />until the blood couldn\u2019t rest in its channel, but rose<br />to the surface like a fish that couldn\u2019t wait to be caught.</p><p>\u00a0</p> "}, {"title": "The Rule of Opulence", "view_node": "/poem/rule-opulence", "field_author": "<a href=\"/poet/khadijah-queen\" hreflang=\"und\">Khadijah Queen</a>", "field_date_published": "2015", "body": " <p>Bamboo shoots on my grandmother's side path<br />grow denser every year they\u2019re harvested for nuisance.<br />Breezes peel blush and white petals from her magnolia,<br />lacing unruly roots in the spring grass. For nine decades<br />she has seen every season stretch out of shape, this past<br />Connecticut winter slow to relinquish cold. As a girl<br />she herded slow turkeys on her Aunt Nettie\u2019s farm, fifty acres<br />in a Maryland county that didn\u2019t plumb until midcentury,<br />plucking chickens and pheasants from pre-dawn<br />into the late night, scratching dough<br />for neighbors, relatives stopping by for biscuits, and the view<br />from my window changes. It's Mother's Day<br />and I\u2019d\u00a0always disbelieved permanence\u2014newness a habit,<br />change an addiction\u2014but the difficulty of staying put<br />lies not in the discipline of upkeep, as when my uncle<br />\u00a0\u00a0\u00a0 chainsaws<br />hurricane-felled birches blocking the down-sloped driveway,<br />not in the inconvenience of well water<br />slowing showers and night flushes, not in yellowjackets<br />colonizing the basement, nuzzling into a hole<br />so small only a faint buzz announces their invasion<br />when violin solos on vinyl end, but in the opulence of acres<br />surrounding a tough house, twice repaired from fires, a kitchen<br />drawer that hasn\u2019t opened properly in thirty years marked<br />\u00a0\u00a0\u00a0 <em>Danger</em>,<br />nothing more permanent than the cracked flagstone<br />path to the door, the uneven earth shifting invisibly beneath it.</p> "}, {"title": "Poem to Play", "view_node": "/poem/poem-play", "field_author": "<a href=\"/poet/hannah-brooks-motl\" hreflang=\"en\">Hannah Brooks-Motl</a>", "field_date_published": "2015", "body": " <p>It continued to haunt, in its electro-stripes and</p><p><br />late your saying intervened, adding blue</p><p><br />to the triangle like a screen. This</p><p><br />system which couldn\u2019t echo and failed to</p><p><br />orient the true barrier. A long thin line</p><p><br />from their penultimate year</p><p><br />or the pavilion they\u2019re casting around.</p> "}, {"title": "Patsy Cline", "view_node": "/poem/patsy-cline", "field_author": "<a href=\"/poet/jennifer-chang\" hreflang=\"und\">Jennifer Chang</a>", "field_date_published": "2015", "body": "<p><span class=\"long-line\">She\u2019s in the desert</span><br /><span class=\"long-line\">releasing the ashes of her father,</span><br /><span class=\"long-line\">the ashes of her child,</span><br /><span class=\"long-line\">or the ashes of the world. She is not</span></p>\n\n<p><span class=\"long-line\">what she observes. The rare spinystar.</span><br /><span class=\"long-line\">It does not belong to her. Bright needle threading</span><br /><span class=\"long-line\">a cloud through the sky. There\u2019s sun enough,</span><br /><span class=\"long-line\">there\u2019s afterlife. Her own body, a pillar of ash.</span><br /><span class=\"long-line\"><em>I fall to pieces</em>, she says. Faithless</span></p>\n\n<p><span class=\"long-line\">nimbus, faithless thought. In my life,</span><br /><span class=\"long-line\">I have lost two men. One by death,</span><br /><span class=\"long-line\">inevitable. One</span></p>\n\n<p><span class=\"long-line\">by error: a waste. He wept</span><br /><span class=\"long-line\">from a northern state,</span><br /><span class=\"long-line\">hunger too cold</span><br /><span class=\"long-line\">for human knowledge.</span><br /><br /><span class=\"long-line\">Once I was a woman with nothing to say.\u00a0</span></p>\n\n<p><span class=\"long-line\">Never did I say <em>ash to ash</em>.</span><br /><span class=\"long-line\">Never has the desert woken me up.</span><br /><span class=\"long-line\">I said</span><br /><span class=\"long-line\"><em>who releases whom?</em></span></p>\n\n<p><span class=\"long-line\">Inevitably, all have known</span><br /><span class=\"long-line\">what the desert knows. No one</span><br /><span class=\"long-line\">will count the lupine when I\u2019m gone.</span></p>\n\n<p><span class=\"long-line\">No one looks to the sun</span><br /><span class=\"long-line\">for meaning. For meat</span><br /><span class=\"long-line\">I\u2019ve done so much less.</span></p>\n\n<p><span class=\"long-line\">Cattle in the far basin, sagebrush, sage.\u00a0</span></p>\n\n<p><span class=\"long-line\">I live in the city where I loved that man.</span><br /><span class=\"long-line\">The ash of him, the self\u2019s argument.</span></p>\n\n<p><span class=\"long-line\">Now and then, I think of his weeping,</span><br /><span class=\"long-line\">how my body betrays me:</span><br /><span class=\"long-line\">I am not done with releasing.</span></p>\n"}, {"title": "Another Poem", "view_node": "/poem/another-poem", "field_author": "<a href=\"/poet/geoffrey-g-obrien\" hreflang=\"und\">Geoffrey G. O&#039;Brien</a>", "field_date_published": "2015", "body": " <p>I bypassed all the compromise,<br />The first ten problems of speech<br />And the latest, the sharpest, the contest,<br />Then began, having already fallen,<br />To rise just less, weaker than<br />My chore, yours, made else<br />By othering, by day by day,<br />The schedules, the routes, task<br />Whose claim I forgot to throw off,<br />Rising less but somewhat up anyway<br />With a kind of strength for having<br />Done so several times before.<br />I mean all times so far<br />Which is the taste of coffee gone<br />This latest one, and that it sticks<br />Like nothing else has ever done.<br />It isn\u2019t a calamity so much<br />As a disaster that it\u2019s not one.<br />Things already were real, are<br />Never just. Did not just get,<br />Can\u2019t help being so. This<br />Massive ordinary cloud<br />Where I surrendered to<br />Filling out a form in the rain<br />That doesn\u2019t come or does,<br />Sent down or kept in overplus<br />Till the next storm\u2019s approved,<br />The face notified of its context,<br />The sequence continuing west<br />West I said west, turning up<br />To receive some all,<br />To celebrate that share of sense<br />Breaking into day then run<br />After it as through gray games<br />I plan to win by losing only<br />Every time but one, the next<br />To last or after that, though<br />What it\u2019s called when it comes<br />I don\u2019t, I do, pretend to know.</p> "}, {"title": "The Tradition", "view_node": "/poem/tradition", "field_author": "<a href=\"/poet/jericho-brown\" hreflang=\"und\">Jericho Brown</a>", "field_date_published": "2015", "body": "<p><span class=\"long-line\"><em>Aster. Nasturtium. Delphinium. </em>We thought</span><br /><span class=\"long-line\">Fingers in dirt meant it was our dirt, learning</span><br /><span class=\"long-line\">Names in heat, in elements classical</span><br /><span class=\"long-line\">Philosophers said could change us. <em>Star Gazer.\u00a0</em></span><br /><span class=\"long-line\"><em>Foxglove.</em> Summer seemed to bloom against the will</span><br /><span class=\"long-line\">Of the sun, which news reports claimed flamed hotter</span><br /><span class=\"long-line\">On this planet than when our dead fathers</span><br /><span class=\"long-line\">Wiped sweat from their necks. <em>Cosmos. Baby\u2019s Breath.\u00a0</em></span><br /><span class=\"long-line\">Men like me and my brothers filmed what we</span><br /><span class=\"long-line\">Planted for proof we existed before</span><br /><span class=\"long-line\">Too late, sped the video to see blossoms</span><br /><span class=\"long-line\">Brought in seconds, colors you expect in poems</span><br /><span class=\"long-line\">Where the world ends, everything cut down.</span><br /><span class=\"long-line\"><em>John Crawford. Eric Garner. Mike Brown.</em></span></p>\n"}, {"title": "The Dark Hills", "view_node": "/poem/dark-hills", "field_author": "<a href=\"/poet/edwin-arlington-robinson\" hreflang=\"und\">Edwin Arlington Robinson</a>", "field_date_published": "1920", "body": " <p>Dark hills at evening in the west,<br />Where sunset hovers like a sound<br />Of golden horns that sang to rest<br />Old bones of warriors under ground,<br />Far now from all the bannered ways<br />Where flash the legions of the sun,<br />You fade\u2014as if the last of days<br />Were fading, and all wars were done.</p> "}, {"title": "from Citizen, VI [I knew whatever was in front of me was happening]", "view_node": "/poem/citizen-vi-i-knew-whatever-was-front-me-was-happening", "field_author": "<a href=\"/poet/claudia-rankine\" hreflang=\"und\">Claudia Rankine</a>", "field_date_published": "2014", "body": "<p>I knew whatever was in front of me was happening and then the police vehicle came to a screeching halt in front of me like they were setting up a blockade. Everywhere were flashes, a siren sounding and a stretched-out roar. Get on the ground. Get on the ground now. Then I just knew.</p>\n\n<p>And you are not the guy and still you fit the description because there is only one guy who is always the guy fitting the description.</p>\n\n<p>\u00a0</p>\n\n<p>I left my client's house knowing I would be pulled over. I knew. I just knew. I opened my briefcase on the passenger seat, just so they could see. Yes officer rolled around on my tongue, which grew out of a bell that could never ring because its emergency was a tolling I was meant to swallow.</p>\n\n<p>In a landscape drawn from an ocean bed, you can't drive yourself sane\u2014so angry you are crying. You can't drive yourself sane. This motion wears a guy out. Our motion is wearing you out and still you are not that guy.</p>\n\n<p>\u00a0</p>\n\n<p>//</p>\n\n<p>\u00a0</p>\n\n<p>Then flashes, a siren, a stretched-out roar\u2014and you are not the guy and still you fit the description because there is only one guy who is always the guy fitting the description.</p>\n\n<p>Get on the ground. Get on the ground now. I must have been speeding. No, you weren't speeding. I wasn't speeding? You didn't do anything wrong. Then why are you pulling me over? Why am I pulled over? Put your hands where they can be seen. Put your hands in the air. Put your hands up.</p>\n\n<p>Then you are stretched out on the hood. Then cuffed. Get on the ground now.</p>\n\n<p>\u00a0</p>\n\n<p>//</p>\n\n<p>\u00a0</p>\n\n<p>Each time it begins in the same way, it doesn't begin the same way, each time it begins it's the same. Flashes, a siren, the stretched-out roar\u2014</p>\n\n<p>Maybe because home was a hood the officer could not afford, not that a reason was needed, I was pulled out of my vehicle a block from my door, handcuffed and pushed into the police vehicle's backseat, the officer's knee pressing into my collarbone, the officer's warm breath vacating a face creased into the smile of its own private joke.</p>\n\n<p>Each time it begins in the same way, it doesn't begin the same way, each time it begins it's the same.</p>\n\n<p>Go ahead hit me motherfucker fled my lips and the officer did not need to hit me, the officer did not need anything from me except the look on my face on the drive across town. You can't drive yourself sane. You are not insane. Our motion is wearing you out. You are not the guy.</p>\n\n<p>\u00a0</p>\n\n<p>//</p>\n\n<p>\u00a0</p>\n\n<p>This is what it looks like. You know this is wrong. This is not what it looks like. You need to be quiet. This is wrong. You need to close your mouth now. This is what it looks like. Why are you talking if you haven't done anything wrong?</p>\n\n<p>And you are not the guy and still you fit the description because there is only one guy who is always the guy fitting the description.</p>\n\n<p>\u00a0</p>\n\n<p>//</p>\n\n<p>\u00a0</p>\n\n<p>In a landscape drawn from an ocean bed, you can't drive yourself sane\u2014so angry you can't drive yourself sane.</p>\n\n<p>The charge the officer decided on was exhibition of speed. I was told, after the fingerprinting, to stand naked. I stood naked. It was only then I was instructed to dress, to leave, to walk all those miles back home.</p>\n\n<p>And still you are not the guy and still you fit the description because there is only one guy who is always the guy fitting the description.</p>\n"}, {"title": "Forever", "view_node": "/poem/forever", "field_author": "<a href=\"/poet/paul-laurence-dunbar\" hreflang=\"und\">Paul Laurence Dunbar</a>", "field_date_published": "1901", "body": " <p>I had not known before<br />\u00a0\u00a0\u00a0 Forever was so long a word.<br />The slow stroke of the clock of time<br />\u00a0\u00a0\u00a0 I had not heard.</p><p>\u2018Tis hard to learn so late;<br />\u00a0\u00a0\u00a0 It seems no sad heart really learns,<br />But hopes and trusts and doubts and fears,<br />\u00a0\u00a0\u00a0 And bleeds and burns.</p><p>The night is not all dark,<br />\u00a0\u00a0\u00a0 Nor is the day all it seems,<br />But each may bring me this relief\u2014<br />\u00a0\u00a0\u00a0 My dreams and dreams.</p><p>I had not known before<br />\u00a0\u00a0\u00a0 That Never was so sad a word,<br />So wrap me in forgetfulness\u2014<br />\u00a0\u00a0\u00a0\u00a0 I have not heard.<br />\u00a0</p> "}, {"title": "Ghosts and Fashion", "view_node": "/poem/ghosts-and-fashion", "field_author": "<a href=\"/poet/elaine-equi\" hreflang=\"und\">Elaine Equi</a>", "field_date_published": "2015", "body": " <p>Although it no longer has a body<br />to cover out of a sense of decorum,</p><p>the ghost must still consider fashion\u2014</p><p>must clothe its invisibility in something<br />if it is to \u201cappear\u201d in public.</p><p>Some traditional specters favor<br />the simple shroud\u2014</p><p>a toga of ectoplasm<br />worn Isadora-Duncan-style<br />swirling around them.</p><p>While others opt for lightweight versions<br />of once familiar tee shirts and jeans.</p><p>Perhaps being thought-forms,<br />they can change their outfits instantly\u2014</p><p>or if they were loved ones,<br />it is we who clothe them<br />like dolls from memory.<br />\u00a0</p> "}, {"title": "Frequently Asked Questions: #9", "view_node": "/poem/frequently-asked-questions-9", "field_author": "<a href=\"/poet/camille-t-dungy\" hreflang=\"und\">Camille T. Dungy</a>", "field_date_published": "2015", "body": "<p><span class=\"long-line\"><em>Don\u2019t you think you should have another child?</em></span></p>\n\n<p><span class=\"long-line\">This girl I have is hardtack and dried lime</span><br /><span class=\"long-line\">\u00a0 \u00a0 \u00a0 \u00a0 \u00a0 \u00a0and reminds me, every groggy morning,</span><br /><span class=\"long-line\">what a miracle it must have been</span><br /><span class=\"long-line\">\u00a0 \u00a0 \u00a0 \u00a0 \u00a0 \u00a0when outfitters learned to stock ship holds</span><br /><span class=\"long-line\">with that one long lasting fruit. How the sailors\u2019 tongues,</span><br /><span class=\"long-line\">\u00a0 \u00a0 \u00a0 \u00a0 \u00a0 \u00a0landing on its bitter brilliance, must have cursed</span><br /><span class=\"long-line\">the curse of joy, as I did that morning the burst</span><br /><span class=\"long-line\">\u00a0 \u00a0 \u00a0 \u00a0 \u00a0 \u00a0of water brought my sweet girl into our lives.</span></p>\n\n<p><span class=\"long-line\">But, already, she hates me sometimes.</span><br /><span class=\"long-line\">\u00a0 \u00a0 \u00a0 \u00a0 \u00a0 \u00a0Like I have sometimes hated my mother and she</span><br /><span class=\"long-line\">must have sometimes hated her own.</span></p>\n\n<p><span class=\"long-line\">After weeks at sea, the limes would desiccate and the meal</span><br /><span class=\"long-line\">\u00a0 \u00a0 \u00a0 \u00a0 \u00a0 \u00a0fill with worms. They would have eaten</span><br /><span class=\"long-line\">anyway, the sailors, but taken no pleasure from anything.</span><br /><span class=\"long-line\">\u00a0 \u00a0 \u00a0 \u00a0 \u00a0 \u00a0Or taken no pleasure from anything but</span><br /><span class=\"long-line\">the fact of their sustained lives. Which is to say it is all</span><br /><span class=\"long-line\">\u00a0 \u00a0 \u00a0 \u00a0 \u00a0 \u00a0I can do, most days, not to swallow</span><br /><span class=\"long-line\">her up and curse her maker, I swear. Like I have not</span><br /><span class=\"long-line\">\u00a0 \u00a0 \u00a0 \u00a0 \u00a0 \u00a0sworn since the morning she was born.</span></p>\n"}], "pager": {"current_page": 369, "total_items": "13248", "total_pages": 663, "items_per_page": 20}}