{"rows": [{"title": "This City", "view_node": "/poem/city", "field_author": "<a href=\"/poet/liam-rector\" hreflang=\"und\">Liam Rector</a>", "field_date_published": "1984", "body": "<blockquote><sup><em>for Bertolt Brecht</em></sup></blockquote>\n\n<p><span class=\"long-line\">This apartment with no furniture,</span><br /><span class=\"long-line\">where no one puts anything up,</span><br /><span class=\"long-line\">where everyone schemes to get out.</span></p>\n\n<p><span class=\"long-line\">This mess, to the right and the left of me,</span><br /><span class=\"long-line\">that equation of garbage wherein matter moves its way,</span><br /><span class=\"long-line\">the magazine sector in glanced-at demise.</span></p>\n\n<p><span class=\"long-line\">This price, and that mind, and nothing to say but \"violent.\"</span><br /><span class=\"long-line\">Nothing but violence in the expensive mind.</span><br /><span class=\"long-line\">Moving from the window towards morning.</span></p>\n\n<p><span class=\"long-line\">These characters at the bottom, so generous</span><br /><span class=\"long-line\">and pathetic. Those abstract things at the top,</span><br /><span class=\"long-line\">so mean, precise and arresting.</span></p>\n\n<p><span class=\"long-line\">That god-abandoned theatre with its three-legged dog.</span><br /><span class=\"long-line\">Staying alone to learn the lesson, the lesson being</span><br /><span class=\"long-line\">DO NOT SPEND NIGHTS ALONE FOR AWHILE.</span></p>\n\n<p><span class=\"long-line\">This program, these organizations, these gatherings</span><br /><span class=\"long-line\">and awards. This sweat that drags it down.</span><br /><span class=\"long-line\">These pagans with large teeth and good eyes.</span></p>\n\n<p><span class=\"long-line\">The profit sector giving us images, the nonprofit</span><br /><span class=\"long-line\">passing out handbills, and worried.</span><br /><span class=\"long-line\">The mind that grabs after information.</span></p>\n\n<p><span class=\"long-line\">The dance changed every week so no one masters</span><br /><span class=\"long-line\">any one dance. Carrying around the little guns</span><br /><span class=\"long-line\">and knives, the bars owned by a friend.</span></p>\n\n<p><span class=\"long-line\">The same economy that binds them together</span><br /><span class=\"long-line\">pulls them apart. The little thems, staring</span><br /><span class=\"long-line\">into the canyon. The all of us.</span></p>\n\n<p><span class=\"long-line\">A sense of proportion, in this dense heat,</span><br /><span class=\"long-line\">hearing the tune of romance behind the psychotic.</span><br /><span class=\"long-line\">The profit sector giving us images.</span></p>\n\n<p><span class=\"long-line\">Elegance, learning, poverty and crime.</span><br /><span class=\"long-line\">Those who smell power must dog these.</span><br /><span class=\"long-line\">The untuning of cement into many moods.</span></p>\n\n<p><span class=\"long-line\">In audacity, in hilarity, this city</span><br /><span class=\"long-line\">plays an unbelievable organ.</span><br /><span class=\"long-line\">How afternoon goes like the movies.</span></p>\n"}, {"title": "Psychoanalysis: An Elegy", "view_node": "/poem/psychoanalysis-elegy", "field_author": "<a href=\"/poet/jack-spicer\" hreflang=\"und\">Jack Spicer</a>", "field_date_published": "2008", "body": " <pre>\n<i>What are you thinking about?</i>\n\nI am thinking of an early summer.\nI am thinking of wet hills in the rain\nPouring water.  Shedding it\nDown empty acres of oak and manzanita\nDown to the old green brush tangled in the sun,\nGreasewood, sage, and spring mustard.\nOr the hot wind coming down from Santa Ana\nDriving the hills crazy,\nA fast wind with a bit of dust in it\nBruising everything and making the seed sweet.\nOr down in the city where the peach trees\nAre awkward as young horses,\nAnd there are kites caught on the wires\nUp above the street lamps,\nAnd the storm drains are all choked with dead branches.\n\n<i>What are you thinking?</i>\n\nI think that I would like to write a poem that is slow as a summer\nAs slow getting started\nAs 4th of July somewhere around the middle of the second stanza\nAfter a lot of unusual rain\nCalifornia seems long in the summer.\nI would like to write a poem as long as California\nAnd as slow as a summer.\nDo you get me, Doctor?  It would have to be as slow\nAs the very tip of summer.\nAs slow as the summer seems\nOn a hot day drinking beer outside Riverside\nOr standing in the middle of a white-hot road\nBetween Bakersfield and Hell\nWaiting for Santa Claus.\n\n<i>What are you thinking now?</i>\n\nI\u2019m thinking that she is very much like California.\nWhen she is still her dress is like a roadmap.  Highways\nTraveling up and down her skin\nLong empty highways\nWith the moon chasing jackrabbits across them\nOn hot summer nights.\nI am thinking that her body could be California\nAnd I a rich Eastern tourist\nLost somewhere between Hell and Texas\nLooking at a map of a long, wet, dancing California\nThat I have never seen.\nSend me some penny picture-postcards, lady,\nSend them.\nOne of each breast photographed looking\nLike curious national monuments,\nOne of your body sweeping like a three-lane highway\nTwenty-seven miles from a night\u2019s lodging\nIn the world\u2019s oldest hotel.\n\n<i>What are you thinking?</i>\n\nI am thinking of how many times this poem\nWill be repeated.  How many summers\nWill torture California\nUntil the damned maps burn\nUntil the mad cartographer\nFalls to the ground and possesses\nThe sweet thick earth from which he has been hiding.\n\n<i>What are you thinking now?</i>\n\nI am thinking that a poem could go on forever.\n</pre>\n "}, {"title": "Improvisations On A Sentence By Poe", "view_node": "/poem/improvisations-sentence-poe", "field_author": "<a href=\"/poet/jack-spicer\" hreflang=\"und\">Jack Spicer</a>", "field_date_published": "2008", "body": " <pre>\n\"Indefiniteness is an element of the true music.\"\nThe grand concord of what\nDoes not stoop to definition.  The seagull\nAlone on the pier cawing its head off\nOver no fish, no other seagull,\nNo ocean.  As absolutely devoid of meaning\nAs a French horn.\nIt is not even an orchestra.  Concord\nAlone on a pier.  The grand concord of what\nDoes not stoop to definition.  No fish\nNo other seagull, no ocean\u2014the true\nMusic.</pre>\n "}, {"title": "Orfeo", "view_node": "/poem/orfeo", "field_author": "<a href=\"/poet/jack-spicer\" hreflang=\"und\">Jack Spicer</a>", "field_date_published": "2008", "body": "<p><span class=\"long-line\">Sharp as an arrow Orpheus</span><br /><span class=\"long-line\">Points his music downward.</span><br /><span class=\"long-line\">Hell is there</span><br /><span class=\"long-line\">At the bottom of the seacliff.</span><br /><span class=\"long-line\">Heal</span><br /><span class=\"long-line\">Nothing by this music.</span><br /><span class=\"long-line\">Eurydice</span><br /><span class=\"long-line\">Is a frigate bird or a rock or some seaweed.</span><br /><span class=\"long-line\">Hail nothing</span><br /><span class=\"long-line\">The infernal</span><br /><span class=\"long-line\">Is a slippering wetness out at the horizon.</span><br /><span class=\"long-line\">Hell is this:</span><br /><span class=\"long-line\">The lack of anything but the eternal to look at</span><br /><span class=\"long-line\">The expansiveness of salt</span><br /><span class=\"long-line\">The lack of any bed but one\u2019s</span><br /><span class=\"long-line\">Music to sleep in.</span></p>\n"}, {"title": "A Book of Music", "view_node": "/poem/book-music", "field_author": "<a href=\"/poet/jack-spicer\" hreflang=\"und\">Jack Spicer</a>", "field_date_published": "1958", "body": "<p><span class=\"long-line\">Coming at an end, the lovers</span><br /><span class=\"long-line\">Are exhausted like two swimmers. Where</span><br /><span class=\"long-line\">Did it end? There is no telling. No love is</span><br /><span class=\"long-line\">Like an ocean with the dizzy procession of the waves\u2019 boundaries</span><br /><span class=\"long-line\">From which two can emerge exhausted, nor long goodbye</span><br /><span class=\"long-line\">Like death.</span><br /><span class=\"long-line\">Coming at an end. Rather, I would say, like a length</span><br /><span class=\"long-line\">Of coiled rope</span><br /><span class=\"long-line\">Which does not disguise in the final twists of its lengths</span><br /><span class=\"long-line\">Its endings.</span><br /><span class=\"long-line\">But, you will say, we loved</span><br /><span class=\"long-line\">And some parts of us loved</span><br /><span class=\"long-line\">And the rest of us will remain</span><br /><span class=\"long-line\">Two persons. Yes,</span><br /><span class=\"long-line\">Poetry ends like a rope.</span></p>\n"}, {"title": "Against Pleasure", "view_node": "/poem/against-pleasure", "field_author": "<a href=\"/poet/robin-becker\" hreflang=\"und\">Robin Becker</a>", "field_date_published": "2006", "body": " <pre>\nWorry stole the kayaks and soured the milk.\nNow, it\u2019s jellyfish for the rest of the summer\nand the ozone layer full of holes.\nWorry beats me to the phone.\nWorry beats me to the kitchen,\nand all the food is sorry. Worry calcifies\nmy ears against music; it stoppers my nose\nagainst barbecue. All films end badly.\nPaintings taunt with their smug convictions.\nIn the dark, Worry wraps her long legs\naround me, promises to be mine forever.\n\n<i>Thugs hijacked all the good parking spaces.\nThere\u2019s never a good time for lunch.\nAnd why, </i>my mother asks,<i> must you track\nbeach sand into the apartment?\nNo, don\u2019t bother with books,\nnot reading much these days.\nAnd who wants to walk the boardwalk anyway,\nwith scam artists who steal your home and savings?\nWatch out for talk that sounds too good to be true.\nYou, </i>she says pointing at me,<i>\ndon\u2019t worry so much.</i></pre>\n "}, {"title": "Man of the Year", "view_node": "/poem/man-year", "field_author": "<a href=\"/poet/robin-becker\" hreflang=\"und\">Robin Becker</a>", "field_date_published": "2006", "body": " <pre>\nMy father tells the story of his life\n\nand he repeats <i>The most important thing:\n          to love your work.\nI always loved my work. I was a lucky man.</i>\n\nThis man who makes up half of who I am,\n         this blusterer\nwho tricked the rich, outsmarting smarter men,\n\ngave up his Army life insurance plan\n          (not thinking of the future\nwife and kids) and brokered deals with two-faced\n\nrats who disappeared his cash but later overpaid\n         for building sites.\nIn every tale my father plays outlaw, a Robin Hood\n\nfor whom I'm named, a type of yeoman\n         refused admission\ninto certain clubs. For years he joined no guild\u2014\n\nno <i>Drapers, Goldsmiths, Skinners, Merchant\n         Tailors, Salters, Vintners</i>\u2014\nbut lived on prescience and cleverness.\n\nHe was the self-inventing Polish immigrant's\n         Son, transformed\nBy American tools into Errol Flynn.\n\nAs he speaks, I remember the phone calls\n         during meals\u2014\nan old woman dead in apartment two-twelve\n\nor burst pipes and water flooding rooms.\n         Hatless,\nhe left the house and my mother's face\n\nassumed the permanent worry she wore,\n         forced to watch him\ngamble the future of the semi-detached house,\n\nour college funds, and his weekly payroll.\n         Manorial halls\nof Philadelphia his Nottingham,\n\nmy father fashioned his fraternity\n         without patronage\nor royal charters but a mercantile\n\nswagger, finding his Little John, Tinker,\n         and Allen-a-Dale.\nWholesalers, retailers, in time they resembled\n\nthe men they set themselves against.\n         Each year they roast and toast\none member, a remnant of the Grocer's Feast\n\nheld on St. Anthony's Day, when brothers\n         communed and dined\non swan, capon, partridges, and wine.\n\nThey commission a coat of arms, a song,\n         and honor my father\u2014\nexemplary, self-made, without debt\u2014\n\nas Man of the Year, a title he reveres\n          for the distinguished\npeerage he joins, the lineage of merry men.</pre>\n "}, {"title": "Angel Supporting St. Sebastian", "view_node": "/poem/angel-supporting-st-sebastian", "field_author": "<a href=\"/poet/robin-becker\" hreflang=\"und\">Robin Becker</a>", "field_date_published": "2006", "body": " <pre>\nShot with arrows and left for dead,\nagainst the angel's leg, Sebastian sinks.\nIn time, he'll become the patron\n\nsaint of athletes and bookbinders.\nBut for now, who wouldn't want to be\ndelivered into the sculpted arms\n\nof this seraph, his heavenly\nshoulders and biceps?\nThe artist understood the swoon\n\nof doctrine, its fundamental\nmusculature, and the human need\nto lean against the lusty form,\n\naccept the discourse that assigns\nto each of us a winged guardian\nwhispering into our ringing ears.</pre>\n "}, {"title": "Great Sleeps I Have Known", "view_node": "/poem/great-sleeps-i-have-known", "field_author": "<a href=\"/poet/robin-becker\" hreflang=\"und\">Robin Becker</a>", "field_date_published": "2006", "body": " <pre>\nOnce in a cradle in Norway folded\nlike Odin's eight-legged horse Sleipnir\nas a ship in full sail transported the dead to Valhalla\n\nOnce on a mountain in Taos after making love\nin my thirties the decade of turquoise and silver\n\nAfter your brother walked into the Atlantic\nto scatter your mothers ashes his khakis soaked\nto the knees his shirtsleeves blowing\n\nAt the top of the cottage in a thunderstorm\nonce or twice each summer covetous of my solitude\n\nImmediately following lunch\nagainst circadian rhythms, once\nin a bunk bed in a dormitory in the White Mountains\n\nOnce in a hollow tree in Wyoming\nA snow squall blew in the guide said <i> tie up your horses</i>\n\nThe last night in the Katmandu guest house\nwhere I saw a bird fly from a monk's mouth\na consolidated sleep of East and West\n\nOnce on a horsehair mattress two feet thick\nI woke up singing\nas in the apocryphal story of my birth\nat Temple University Hospital\n\nOn the mesa with the burrowing owls\non the mesa with the prairie dogs\n\nWilling to be lucky\nI ran the perimeter road in my sleep\nentrained to the cycles of light and dark\nSometimes my dead sister visited my dreams\n\nOnce on the beach in New Jersey\nafter the turtles deposited their eggs\nbefore my parents grew old, nocturnal</pre>\n "}, {"title": "Units", "view_node": "/poem/units", "field_author": "<a href=\"/poet/albert-goldbarth\" hreflang=\"und\">Albert Goldbarth</a>", "field_date_published": "2007", "body": " <p><i>We could say that Rembrandt was a greater painter than Kandinsky. We could not say that Rembrandt was three and a half times better than Kandinsky. . . . We could say, \"I have more pain than I had yesterday.\" When we tried to say, \"I have nine dols of pain,\" we found we were talking nonsense.</i></p><br /><pre>\n\t\t   - Leshan and Morgenau\n\nThis is the pain you could fit in a tea ball.\nThis is the pain you could pack in a pipe\n\u00a0\u2013\u00a0a plug of pungent shag-cut pain,\na pain to roll between the thumb and the forefinger.\nHere: <i>this</i> pain you could pour down the city sewers,\nwhere it would harden, and swell, and crack\nthose tubes like the flex of a city-wide snake,\nand still you would wake and\nthere would be more for the pouring.\nSome pain believes its only true measure is litigation.\nFor other pain, the glint of the lamp\nin a single called-forth tear is enough.\nSome pain requires just one mouth, at an ear.\nAnother pain requires the Transatlantic Cable.\nNo ruled lines exist by which to gauge its growth\n<i>(my pain at three years old. . . at five. . . )</i> and yet\nif we follow the chronolinear path of Rembrandt's face\nself-imaged over forty years - a human cell\nin the nurturing murk of his signature thick-laid paint\u00a0\u2013\u00a0\nwe see the look-by-look development,\nthrough early swank and rollick, of a kind of pain\nso comfortable it's worn, at the last,\nlike a favorite robe, that's frayed by now, and intimate\nwith the frailties of its body, and has\nan easy fit that the showiest cloak of office\nnever could. In 1658, the gaze is equally\ninto himself, and out to the world-at-large\n\u00a0\u2013\u00a0they've reached a balance of apportioned\ndisappointment\u00a0\u2013\u00a0and the meltflesh under the eyes\nis the sallow of chicken skin, recorded\nwith a faithfulness, with really a painterly\ntenderness, that lifts this understanding of pain\ninto something so accommodating, \"love\" is the word\nthat seems to apply to these mournfully <i>basso</i>\nbloodpan reds and tankard-bottom browns. Today\nin the library stacks, the open face of a woman\nabove this opened book of Rembrandt reproductions\nmight be something like the moon he looked to,\nthinking it shared in his sadness. What's\nher pain? her ohm, her acreage, her baker's dozen,\nof actual on-your-knees-in-the-abattoir misery?\nI don't know. I'm not writing this\npretending that I know. What I can say is that\nthe chill disc of the stethoscope is known to announce\nan increment of pain not inappropriate\nto being blurted forth along the city wall\nby a corps of regalia' d trumpeters.\nWho's to say what a \"unit\" of pain is?\nOn a marshy slope beyond the final outpost,\nRembrandt stares at the moon, and stares at the moon,\nuntil the background drumming-in of the ocean\nand the other assorted sounds of the Amsterdam night,\nand then the Amsterdam dawn, are one\nwith his forlornness, and the mood fades\ninto a next day, and a woman here\nin Kansas turns to face the sky: she's late\nfor her appointment. She's due\nfor another daily injection of nine c.c.'s of undiluted <i>dol<i>.</i></i></pre>\n "}, {"title": "Lullabye", "view_node": "/poem/lullabye", "field_author": "<a href=\"/poet/albert-goldbarth\" hreflang=\"und\">Albert Goldbarth</a>", "field_date_published": "2007", "body": " <pre>\nsleep, little beansprout\ndon't be scared\nthe night is simply the true sky\nbared\n\nsleep, little dillseed\ndon't be afraid\nthe moon is the sunlight\nricocheted\n\nsleep, little button\ndon't make a fuss\nwe make up the gods\nso they can make us\n\nsleep, little nubbin\ndon't you stir\nthis sky smiled down\non Atlantis and Ur</pre>\n "}, {"title": "The Sciences Sing a Lullabye", "view_node": "/poem/sciences-sing-lullabye", "field_author": "<a href=\"/poet/albert-goldbarth\" hreflang=\"und\">Albert Goldbarth</a>", "field_date_published": "2007", "body": " <pre>\n<i>Physics says</i>: go to sleep. Of course\nyou're tired. Every atom in you\nhas been dancing the shimmy in silver shoes\nnonstop from mitosis to now.\nQuit tapping your feet. They'll dance\ninside themselves without you. Go to sleep.\n\n<i>Geology says</i>: it will be all right. Slow inch\nby inch America is giving itself\nto the ocean. Go to sleep. Let darkness\nlap at your sides. Give darkness an inch.\nYou aren't alone. All of the continents used to be\none body. You aren't alone. Go to sleep.\n\n<i>Astronomy says</i>: the sun will rise tomorrow,\n<i>Zoology says</i>: on rainbow-fish and lithe gazelle,\n<i>Psychology says</i>: but first it has to be night, so\n<i>Biology says</i>: the body-clocks are stopped all over town\nand\n<i>History says</i>: here are the blankets, layer on layer, down and down. </pre>\n "}, {"title": "Of Many Worlds in This World", "view_node": "/poem/many-worlds-world", "field_author": "<a href=\"/poet/margaret-cavendish\" hreflang=\"und\">Margaret Cavendish</a>", "field_date_published": "1653", "body": " <pre>\nJust like as in a nest of boxes round,\nDegrees of sizes in each box are found:\nSo, in this world, may many others be\nThinner and less, and less still by degree:\nAlthough they are not subject to our sense,\nA world may be no bigger than two-pence.\nNature is curious, and such works may shape,\nWhich our dull senses easily escape:\nFor creatures, small as atoms, may there be,\nIf every one a creature\u2019s figure bear.\nIf atoms four, a world can make, then see\nWhat several worlds might in an ear-ring be:\nFor, millions of those atoms may be in\nThe head of one small, little, single pin.\nAnd if thus small, then ladies may well wear\nA world of worlds, as pendents in each ear.</pre>\n "}, {"title": "The Eagle", "view_node": "/poem/eagle", "field_author": "<a href=\"/poet/alfred-lord-tennyson\" hreflang=\"und\">Alfred Lord Tennyson</a>", "field_date_published": "1851", "body": "<p><span class=\"long-line\">He clasps the crag with crooked hands;</span><br /><span class=\"long-line\">Close to the sun in lonely lands,</span><br /><span class=\"long-line\">Ringed with the azure world, he stands. </span></p>\n\n<p><span class=\"long-line\">The wrinkled sea beneath him crawls;</span><br /><span class=\"long-line\">He watches from his mountain walls,</span><br /><span class=\"long-line\">And like a thunderbolt he falls.</span></p>\n"}, {"title": "The Crocodile", "view_node": "/poem/crocodile", "field_author": "<a href=\"/poet/lewis-carroll\" hreflang=\"und\">Lewis Carroll</a>", "field_date_published": "1865", "body": "<p><span class=\"long-line\">How doth the little crocodile</span><br /><span class=\"long-line\">\u00a0\u00a0\u00a0\u00a0\u00a0Improve his shining tail, </span><br /><span class=\"long-line\">And pour the waters of the Nile </span><br /><span class=\"long-line\">\u00a0\u00a0\u00a0\u00a0\u00a0On every golden scale! </span></p>\n\n<p><span class=\"long-line\">How cheerfully he seems to grin,</span><br /><span class=\"long-line\">\u00a0\u00a0\u00a0\u00a0\u00a0How neatly spreads his claws, </span><br /><span class=\"long-line\">And welcomes little fishes in, </span><br /><span class=\"long-line\">\u00a0\u00a0\u00a0\u00a0\u00a0With gently smiling jaws!</span></p>\n"}, {"title": "Bed in Summer", "view_node": "/poem/bed-summer", "field_author": "<a href=\"/poet/robert-louis-stevenson\" hreflang=\"und\">Robert Louis Stevenson</a>", "field_date_published": "1885", "body": "<p><span class=\"long-line\">In winter I get up at night\u00a0\u00a0 </span><br /><span class=\"long-line\">And dress by yellow candle-light.\u00a0\u00a0 </span><br /><span class=\"long-line\">In summer, quite the other way,\u00a0\u00a0 </span><br /><span class=\"long-line\">I have to go to bed by day.\u00a0\u00a0 </span></p>\n\n<p><span class=\"long-line\">I have to go to bed and see\u00a0\u00a0\u00a0\u00a0\u00a0\u00a0\u00a0\u00a0\u00a0 </span><br /><span class=\"long-line\">The birds still hopping on the tree,\u00a0\u00a0 </span><br /><span class=\"long-line\">Or hear the grown-up people\u2019s feet\u00a0\u00a0 </span><br /><span class=\"long-line\">Still going past me in the street.\u00a0\u00a0 </span></p>\n\n<p><span class=\"long-line\">And does it not seem hard to you,\u00a0\u00a0 </span><br /><span class=\"long-line\">When all the sky is clear and blue,\u00a0\u00a0 </span><br /><span class=\"long-line\">And I should like so much to play,\u00a0\u00a0 </span><br /><span class=\"long-line\">To have to go to bed by day?</span></p>\n"}, {"title": "There is no frigate like a book (1263)", "view_node": "/poem/there-no-frigate-book-1263", "field_author": "<a href=\"/poet/emily-dickinson\" hreflang=\"und\">Emily Dickinson</a>", "field_date_published": "1890", "body": "<p><span class=\"long-line\">There is no Frigate like a Book</span><br /><span class=\"long-line\">To take us Lands away,</span><br /><span class=\"long-line\">Nor any Coursers like a Page</span><br /><span class=\"long-line\">Of prancing Poetry\u00a0\u2013\u00a0 </span><br /><span class=\"long-line\">This Traverse may the poorest take</span><br /><span class=\"long-line\">Without oppress of Toll\u00a0\u2013\u00a0</span><br /><span class=\"long-line\">How frugal is the Chariot</span><br /><span class=\"long-line\">That bears a Human soul.</span></p>\n"}, {"title": "Orpheus", "view_node": "/poem/orpheus", "field_author": "<a href=\"/poet/robert-kelly\" hreflang=\"und\">Robert Kelly</a>", "field_date_published": "2005", "body": " <p>Orpheus can never look back at the real woman trailing behind him out of hell, the woman that anybody could see with ordinary eyes. Orpheus must keep his eyes firmly fixed on the imaginal Eurydice before him, towards whom he has struggled all his life. She is not imaginary, not at all, but realer than any mere apparency, than any momentary act of seeing. He must move always towards that perfect image of his wife, and so sustain himself and his song. If ever he turns back, that is, regresses into seeing his wife as an ordinary woman, she is lost. And he is lost.</p> "}, {"title": "Science", "view_node": "/poem/science", "field_author": "<a href=\"/poet/robert-kelly\" hreflang=\"und\">Robert Kelly</a>", "field_date_published": "2006", "body": " <pre>\nScience explains nothing\nbut holds all together as\nmany things as it can count\n\nscience is a basket\nnot a religion he said\na cat as big as a cat\n\nthe moon the size of the moon\nscience is the same as poetry\nonly it uses the wrong words.</pre>\n "}, {"title": "Prefix: Finding the measure", "view_node": "/poem/prefix-finding-measure", "field_author": "<a href=\"/poet/robert-kelly\" hreflang=\"und\">Robert Kelly</a>", "field_date_published": "1995", "body": " <pre>\nFinding the measure is finding the mantram,\nis finding the moon, as index of measure,\nis finding the moon's source;\n\n                                         if that source\nis Sun, finding the measure is finding\nthe natural articulation of ideas.\n\n                                              The organism\nof the macrocosm, the organism of language,\nthe organism of <i>I</i> combine in ceaseless naturing\nto propagate a fourth,\n                               the poem,\n                                               from their trinity.\n\nStyle is death. Finding the measure is finding\na freedom from that death, a way out, a movement\nforward.\n\n             Finding the measure is finding the\nspecific music of the hour,\n                                     the synchronous\nconsequence of the motion of the whole world.</pre>\n "}], "pager": {"current_page": 551, "total_items": "13248", "total_pages": 663, "items_per_page": 20}}