{"rows": [{"title": "Blackbottom", "view_node": "/poem/blackbottom", "field_author": "<a href=\"/poet/toi-derricotte\" hreflang=\"und\">Toi Derricotte</a>", "field_date_published": "2013", "body": " <p>When relatives came from out of town,<br />we would drive down to Blackbottom,<br />drive slowly down the congested main streets<br />\u00a0\u00a0\u00a0\u00a0 -- Beubian and Hastings --<br />trapped in the mesh of Saturday night.<br />Freshly escaped, black middle class,<br />we snickered, and were proud;<br />the louder the streets, the prouder.<br />We laughed at the bright clothes of a prostitute,<br />a man sitting on a curb with a bottle in his hand.<br />We smelled barbecue cooking in dented washtubs,<br />\u00a0\u00a0\u00a0\u00a0 and our mouths watered.<br />As much as we wanted it we couldn't take the chance.</p><p>Rhythm and blues came from the windows, the throaty voice of<br />\u00a0\u00a0\u00a0\u00a0 a woman lost in the bass, in the drums, in the dirty down<br />\u00a0\u00a0\u00a0\u00a0 and out, the grind.<br />\"I love to see a funeral, then I know it ain't mine.\"<br />We rolled our windows down so that the waves rolled over us<br />\u00a0\u00a0\u00a0\u00a0 like blood.<br />We hoped to pass invisibly, knowing on Monday we would<br />\u00a0\u00a0\u00a0\u00a0 return safely to our jobs, the post office and classroom.<br />We wanted our sufferings to be offered up as tender meat,<br />and our triumphs to be belted out in raucous song.<br />We had lost our voice in the suburbs, in Conant Gardens,<br />\u00a0\u00a0\u00a0\u00a0 where each brick house delineated a fence of silence;<br />we had lost the right to sing in the street and damn creation.</p><p>We returned to wash our hands of them,<br />to smell them<br />whose very existence<br />tore us down to the human.</p><p>\u00a0</p> "}, {"title": "Walking with Walt (audio only)", "view_node": "/poem/walking-walt-audio-only", "field_author": "<a href=\"/poet/ron-padgett\" hreflang=\"und\">Ron Padgett</a>", "field_date_published": "2013", "body": " <p>\u00a0</p><p>Click the icon above to listen to this audio poem.</p> "}, {"title": "Second Why (audio only)", "view_node": "/poem/second-why-audio-only", "field_author": "<a href=\"/poet/ron-padgett\" hreflang=\"und\">Ron Padgett</a>", "field_date_published": "2013", "body": " <p>\u00a0</p><p>Click the icon above to listen to this audio poem.</p> "}, {"title": "Prose Poem (audio only)", "view_node": "/poem/prose-poem-audio-only", "field_author": "<a href=\"/poet/ron-padgett\" hreflang=\"und\">Ron Padgett</a>", "field_date_published": "2013", "body": " <p>\u00a0</p><p>Click the icon above to listen to this audio poem.</p> "}, {"title": "Louisiana Perch (audio only)", "view_node": "/poem/louisiana-perch-audio-only", "field_author": "<a href=\"/poet/ron-padgett\" hreflang=\"und\">Ron Padgett</a>", "field_date_published": "2013", "body": " <p>\u00a0</p><p>Click the icon above to listen to this audio poem.</p> "}, {"title": "Joe Brainard&#039;s Painting Bingo (audio only)", "view_node": "/poem/joe-brainards-painting-bingo-audio-only", "field_author": "<a href=\"/poet/ron-padgett\" hreflang=\"und\">Ron Padgett</a>", "field_date_published": "2013", "body": " <p>\u00a0</p><p>Click the icon above to listen to this audio poem.</p> "}, {"title": "One Way or Another", "view_node": "/poem/one-way-or-another", "field_author": "<a href=\"/poet/naomi-shihab-nye\" hreflang=\"und\">Naomi Shihab Nye</a>", "field_date_published": "2013", "body": " <p>She is gone, where did she go?<br />He can\u2019t imagine how the house will feel<br />when he enters it, moving room to room.<br />Now that the wait is over, a larger pause<br />will blanket the roof, softness settling<br />slowly down. By which window or door<br />may future days enter?\u00a0 And what about minor<br />questions called out, to which there was always<br />that lilting reply?</p> "}, {"title": "Business", "view_node": "/poem/business", "field_author": "<a href=\"/poet/naomi-shihab-nye\" hreflang=\"und\">Naomi Shihab Nye</a>", "field_date_published": "2013", "body": "<p><span class=\"long-line\">\u00a0\u00a0 \u00a0 <em>\u201cSyrian refugees go about their business in a refugee camp in Mafraq, Jordan\u2026\u201d</em></span></p>\n\n<p><span class=\"long-line\">Ropes on poles, jeans &amp; shirts flapping in wind.</span><br /><span class=\"long-line\">He sits on a giant bag of rice, head in hands.</span></p>\n\n<p><span class=\"long-line\">Too much or too little, rips &amp; bursts &amp; furrows.</span><br /><span class=\"long-line\">Something seared in a pan.</span></p>\n\n<p><span class=\"long-line\">If you knew a mother, any mother, you would care</span><br /><span class=\"long-line\">for mothers, yes?\u00a0 No.</span></p>\n\n<p><span class=\"long-line\">What it is to be lonesome for stacked papers</span><br /><span class=\"long-line\">on a desk, under glass globe,</span></p>\n\n<p><span class=\"long-line\">brass vase with standing pencils,</span><br /><span class=\"long-line\">new orders.</span></p>\n\n<p><span class=\"long-line\">How quickly urgencies of doing disappear.</span><br /><span class=\"long-line\">And where is the child from the next apartment,</span></p>\n\n<p><span class=\"long-line\">whose crying kept him awake</span><br /><span class=\"long-line\">these last terrible months?\u00a0</span></p>\n\n<p><span class=\"long-line\">Where do you file this unknowing?</span></p>\n"}, {"title": "Arabs in Finland", "view_node": "/poem/arabs-finland", "field_author": "<a href=\"/poet/naomi-shihab-nye\" hreflang=\"und\">Naomi Shihab Nye</a>", "field_date_published": "2013", "body": "<p><span class=\"long-line\">Their language rolls out,</span><br /><span class=\"long-line\">soft carpet in front of them.</span><br /><span class=\"long-line\">Strolling slowly beneath trees,</span><br /><span class=\"long-line\">men in white shirts,</span><br /><span class=\"long-line\">belts, baggy trousers,</span><br /><span class=\"long-line\">women in scarves,</span><br /><span class=\"long-line\">glinting cigarettes in the dusk.</span><br /><span class=\"long-line\">What they left to be here, in the cold country,</span><br /><span class=\"long-line\">where winter lasts forever,</span><br /><span class=\"long-line\">haunts them in the dark\u2014</span><br /><span class=\"long-line\">golden hue of <em>souk </em>in sunlight,</span><br /><span class=\"long-line\">gentle calling through streets that said, brother,</span><br /><span class=\"long-line\">sit with me a minute, on the small stool</span><br /><span class=\"long-line\">with the steaming glass of tea. <em>Sit with me. </em></span><br /><span class=\"long-line\"><em>We belong together.</em></span></p>\n"}, {"title": "To Jackson Pollock", "view_node": "/poem/jackson-pollock", "field_author": "<a href=\"/poet/mark-doty\" hreflang=\"und\">Mark Doty</a>", "field_date_published": "2013", "body": " <p>Last night somebody murdered a young tree on Seventh Avenue<br />between 18th and 19th\u2014only two in that block,<br />and just days ago we'd taken refreshment in the crisp and particular shade</p><p>of that young ginkgo's tight leaves, its beauty and optimism,<br />though I didn't think of that word until the snapped trunk this morning,<br />a broken broomstick discarded, and tell me what pleasure</p><p>could you take from that? Maybe I understand it,<br />the sudden surge of rage and the requirement of a gesture,<br />but this hour I place myself firmly on the side of thirst,</p><p>the sapling's ambition to draw from the secret streams<br />beneath this city, to lift up our subterranean waters.<br />Power in a pointless scrawl now on the pavement.</p><p>Pollock, when he swung his wild arcs in the barn-air<br />by Accabonac, stripped away incident and detail till all<br />that was left was swing and fall and return,</p><p>austere rhythm deep down things, beautiful<br />because he's subtracted the specific stub and pith,<br />this wreck on the too-hot pavement where scavengers</p><p>spread their secondhand books in the scalding sunlight.<br />Or maybe he didn't. Erase it I mean: look into the fierce ellipse<br />of his preserved gesture, and hasn't he swept up every bit,</p><p>all the busted and incomplete, half-finished and lost?<br />Alone in the grand rooms of last century's heroic painters<br />\u2014granted entrance, on an off day, to a museum</p><p>with nobody, thank you, this once nobody talking\u2014<br />and for the first time I understood his huge canvases<br />were prayers. No matter to what. And silent as hell;</p><p>he rode the huge engine of his attention toward silence,<br />and silence emanated from them, and they would not take no<br />for an answer, though there is no other. Forget supplication,</p><p>beseechment, praise. Look down<br />into it, the smash-up swirl, oil and pigment and tree-shatter:<br />tumult in equilibrium.</p> "}, {"title": "This Your Home Now", "view_node": "/poem/your-home-now", "field_author": "<a href=\"/poet/mark-doty\" hreflang=\"und\">Mark Doty</a>", "field_date_published": "2015", "body": " <p>For years I went to the Peruvian barbers on 18th Street<br />\u2014comforting, welcome: the full coatrack,<br />three chairs held by three barbers,</p><p>oldest by the window, the middle one<br />a slight fellow who spoke an oddly feminine Spanish,<br />the youngest last, red-haired, self-consciously masculine,</p><p>and in each of the mirrors their children\u2019s photos,<br />smutty cartoons, postcards from Machu Picchu.<br />I was happy in any chair, though I liked best</p><p>the touch of the eldest, who\u2019d rest his hand<br />against my neck in a thoughtless, confident way.<br />Ten years maybe. One day the powdery blue</p><p>steel shutters pulled down over the window and door,<br />not to be raised again. They\u2019d lost their lease.<br />I didn\u2019t know how at a loss I\u2019d feel;<br /><br />this haze around what I\u2019d like to think<br />the sculptural presence of my skull<br />requires neither art nor science,</p><p>but two haircuts on Seventh, one in Dublin,<br />nothing right.<br />\u00a0\u00a0\u00a0\u00a0\u00a0\u00a0\u00a0\u00a0\u00a0\u00a0\u00a0\u00a0\u00a0\u00a0\u00a0\u00a0\u00a0\u00a0\u00a0\u00a0\u00a0\u00a0\u00a0\u00a0\u00a0\u00a0\u00a0 Then (I hear my friend Marie<br />laughing over my shoulder, saying<em> In your poems</em></p><p><em>there\u2019s always a then</em>, and I think,\u00a0 <em>Is it a poem<br />without a then?</em>) dull early winter, back on 18th,<br />upspiraling red in a cylinder of glass, just below the line</p><p>of sidewalk, a new sign, WILLIE\u2019S BARBERSHOP.\u00a0<br />Dark hallway, glass door, and there\u2019s (presumably) Willie.<br />When I tell him I used to go down the street</p><p>he says in an inscrutable accent, <em>This your home now</em>,<br />puts me in a chair, asks me what I want and soon he\u2019s clipping<br />and singing with the radio\u2019s Latin dance tune.</p><p>That\u2019s when I notice Willie\u2019s walls,<br />though he\u2019s been here all of a week, spangled with images<br />hung in barber shops since the beginning of time:</p><p>lounge singers, near-celebrities, random boxers<br />\u2014Italian boys, Puerto Rican, caught in the hour<br />of their beauty, though they\u2019d scowl at the word.</p><p>Cheering victors over a trophy won for what?\u00a0<br />Frames already dusty, at slight angles,<br />here, it is clear, forever. Are barbershops</p><p>like aspens, each sprung from a common root<br />ten thousand years old, sons of one father,<br />holding up fighters and starlets to shield the tenderness</p><p>at their hearts? Our guardian Willie defies time,<br />his chair our ferryboat, and we go down into the trance<br />of touch and the skull-buzz drone</p><p>singing cranial nerves in the direction of peace,<br />and so I understand that in the back<br />of this nothing building on 18th Street<br />\u00a0 \u00a0 \u00a0 \u00a0 \u00a0 \u00a0 \u00a0 \u00a0 \u00a0 \u00a0 \u00a0 \u00a0 \u00a0 \u00a0 \u00a0 \u00a0 \u00a0 \u00a0 \u00a0 \u00a0 \u00a0 \u00a0 \u00a0 \u00a0 \u00a0 \u00a0\u2014I\u2019ve found that door</p><p>ajar before, in daylight, when it shouldn\u2019t be,<br />some forgotten bulb left burning in a fathomless shaft<br />of my uncharted nights\u2014<br />\u00a0\u00a0\u00a0\u00a0\u00a0\u00a0\u00a0\u00a0\u00a0\u00a0\u00a0\u00a0\u00a0\u00a0\u00a0\u00a0\u00a0\u00a0\u00a0\u00a0\u00a0\u00a0\u00a0\u00a0\u00a0\u00a0\u00a0\u00a0\u00a0\u00a0\u00a0\u00a0\u00a0\u00a0\u00a0\u00a0\u00a0\u00a0\u00a0\u00a0\u00a0\u00a0\u00a0\u00a0\u00a0\u00a0\u00a0\u00a0\u00a0\u00a0 the men I have outlived</p><p>await their turns, the fevered and wasted, whose mothers<br />and lovers scattered their ashes and gave away their clothes.<br />Twenty years and their names tumble into a numb well</p><p>\u2014though in truth I have not forgotten one of you,<br />may I never forget one of you\u2014these layers of men,<br />arrayed in their no-longer-breathing ranks.</p><p>Willie, I have not lived well in my grief for them;<br />I have lugged this weight from place to place<br />as though it were mine to account for,</p><p>and today I sit in your good chair, in the sixth decade<br />of my life, and if your back door is a threshold<br />of the kingdom of the lost, yours is a steady hand</p><p>on my shoulder. Go down into the still waters<br />of this chair and come up refreshed, ready to face the avenue.<br />Maybe I do believe we will not be left comfortless.</p><p>After everything comes tumbling down or you tear it down<br />and stumble in the shadow-valley trenches of the moon,<br />there\u2019s a still a decent chance at\u2014a barber shop,</p><p>salsa on the radio, the instruments of renewal wielded,<br />effortlessly, and, who\u2019d have thought, for you.<br />Willie if he is Willie fusses much longer over my head</p><p>than my head merits, which allows me to be grateful<br />without qualification. Could I be a little satisfied?<br />There\u2019s a man who loves me. Our dogs. Fifteen,</p><p>twenty more good years, if I\u2019m a bit careful.<br />There\u2019s what I haven\u2019t written. It\u2019s sunny out,<br />though cold.\u00a0 After I tip Willie</p><p>I\u2019m going down to Jane Street, to a coffee shop I like,<br />and then I\u2019m going to write this poem. Then<br />\u00a0</p> "}, {"title": "On Abrigador Hill (audio only)", "view_node": "/poem/abrigador-hill-audio-only", "field_author": "<a href=\"/poet/marilyn-nelson\" hreflang=\"und\">Marilyn Nelson</a>", "field_date_published": "2013", "body": " <p>\u00a0</p><p>Click the icon above to listen to this audio poem.</p> "}, {"title": "Dinah&#039;s Lament (audio only)", "view_node": "/poem/dinahs-lament-audio-only", "field_author": "<a href=\"/poet/marilyn-nelson\" hreflang=\"und\">Marilyn Nelson</a>", "field_date_published": "2013", "body": " <p>\u00a0</p><p>Click the icon above to listen to this audio poem.</p> "}, {"title": "Saturday Night at the Buddhist Cinema", "view_node": "/poem/saturday-night-buddhist-cinema", "field_author": "<a href=\"/poet/juan-felipe-herrera\" hreflang=\"und\">Juan Felipe Herrera</a>", "field_date_published": "2013", "body": " <p>\u00a0\u00a0\u00a0\u00a0\u00a0\u00a0\u00a0\u00a0\u00a0\u00a0\u00a0\u00a0\u00a0\u00a0\u00a0\u00a0\u00a0\u00a0\u00a0\u00a0\u00a0\u00a0\u00a0\u00a0\u00a0\u00a0\u00a0\u00a0\u00a0\u00a0\u00a0\u00a0\u00a0\u00a0\u00a0\u00a0\u00a0\u00a0\u00a0\u00a0\u00a0\u00a0\u00a0\u00a0\u00a0\u00a0\u00a0\u00a0\u00a0\u00a0\u00a0\u00a0\u00a0\u00a0\u00a0\u00a0\u00a0\u00a0\u00a0 There were elephants</p><p>in cabaret dress reddish &amp; cadmium blue</p><p>&amp; dolphins in undetermined incarnations (I felt as if</p><p>I had interrupted the process I mean</p><p>the organ player had not risen</p><p>remember the Castro theatre off of Market?</p><p>It was Visconti\u2019s <em>Rocco &amp; His Brothers</em> &amp; the lights went out maybe</p><p>1992 during the Rodney King revolt</p><p>the dolphin was working this out somehow tweeting</p><p>blinking his tiny saucy eyes I was in the third row as usual</p><p>in the middle) there was a horse torn unbridled</p><p>immense &amp; stoic being pinned</p><p>with a hideous medal by the War Provosts it turned to us &amp;</p><p>waited waited \u00a0\u00a0\u00a0\u00a0\u00a0\u00a0\u00a0\u00a0\u00a0\u00a0\u00a0\u00a0 for someone to take her home</p><p>the cow was there</p><p>\u00a0</p><p>\u00a0\u00a0\u00a0\u00a0\u00a0\u00a0\u00a0\u00a0\u00a0\u00a0\u00a0 in a Mexican Pancho Villa outfit</p><p>\u00a0\u00a0\u00a0\u00a0\u00a0\u00a0\u00a0\u00a0\u00a0\u00a0\u00a0\u00a0\u00a0\u00a0\u00a0\u00a0\u00a0\u00a0\u00a0\u00a0\u00a0\u00a0\u00a0\u00a0\u00a0\u00a0\u00a0\u00a0\u00a0\u00a0\u00a0\u00a0\u00a0\u00a0\u00a0 spraying everyone with snowflakes &amp;</p><p>\u00a0\u00a0\u00a0\u00a0\u00a0\u00a0\u00a0\u00a0\u00a0\u00a0\u00a0\u00a0\u00a0\u00a0\u00a0\u00a0\u00a0\u00a0\u00a0\u00a0\u00a0\u00a0\u00a0 you you \u00a0\u00a0\u00a0\u00a0\u00a0\u00a0\u00a0\u00a0\u00a0\u00a0 should have seen us</p><p>\u00a0</p><p>how we had realized the Way</p><p>how we rubbed the blood off of our faces after the killings &amp;</p><p>how we stuck it to the assassins huddled in a shabby corner</p><p>you should have seen the Pig Act</p><p>the pig \u00a0\u00a0\u00a0\u00a0\u00a0\u00a0\u00a0\u00a0\u00a0\u00a0\u00a0\u00a0\u00a0\u00a0\u00a0\u00a0\u00a0\u00a0\u00a0\u00a0\u00a0\u00a0\u00a0 a real pig with a wig in flames</p><p>in pinkish pajamas &amp; a cigar doing a Fatty Arbuckle schtick</p><p>he even ordered 18 eggs over easy with 18 sides of sourdough</p><p>cranberry sauce sardines &amp; a side of pastrami he was</p><p>hanging off the window ledge top story of the St. Francis</p><p>yoddling to a Gloria Swanson look-alike in a cashmere robe</p><p>(it was hilarious it was</p><p>what we all dreamed of yes that was it\u00a0\u00a0\u00a0\u00a0 it</p><p>was what we all dreamed of) the chicken in kimono pirouetted</p><p>with piquant harpsichord arpeggios</p><p><em>Sonata in E Major</em> by Domenico Scarlatti the evil iris</p><p>on the side of the cheeky make-up popped</p><p>that is when I fell out</p><p>slid to the toilet but there were no towels or stalls or water</p><p>it was some kind of trick I said &amp; blew my nose</p><p>into my sleeve an Italian piece from Beverly Hills 1966</p><p>(why was I there</p><p>all of a sudden?)</p><p>\u00a0</p><p>\u00a0\u00a0\u00a0\u00a0\u00a0\u00a0\u00a0\u00a0\u00a0\u00a0\u00a0\u00a0\u00a0\u00a0\u00a0\u00a0\u00a0\u00a0\u00a0\u00a0\u00a0\u00a0\u00a0 For the Short Feature everyone shouted</p><p><em>Where</em><em>\u2019</em><em>s the Tuna?</em><br />\u00a0\u00a0\u00a0\u00a0\u00a0\u00a0\u00a0\u00a0\u00a0\u00a0\u00a0\u00a0\u00a0\u00a0\u00a0\u00a0\u00a0\u00a0\u00a0\u00a0\u00a0\u00a0\u00a0\u00a0\u00a0\u00a0\u00a0\u00a0\u00a0\u00a0\u00a0\u00a0\u00a0\u00a0\u00a0\u00a0\u00a0\u00a0\u00a0\u00a0\u00a0\u00a0\u00a0\u00a0\u00a0\u00a0\u00a0\u00a0\u00a0\u00a0\u00a0\u00a0\u00a0 <em>We want the Tuna?</em></p><p><em>\u00a0\u00a0\u00a0\u00a0\u00a0\u00a0\u00a0\u00a0\u00a0\u00a0\u00a0\u00a0\u00a0\u00a0\u00a0\u00a0\u00a0\u00a0\u00a0\u00a0\u00a0\u00a0\u00a0 We want the Tuna!</em></p><p><em>What about the Tuna?</em></p><p>\u00a0</p><p>The organ rose from the stage</p><p>the song <em>Avremi der Marvikher</em> jittered the chandeliers</p><p>sung by a scrubby lanky tenor in a shredded vest</p><p>I had the same Chrysanthemum eyes of exile</p><p>I had the same wet braided locks &amp; the black spot</p><p>\u00a0\u00a0\u00a0\u00a0\u00a0\u00a0\u00a0\u00a0\u00a0\u00a0\u00a0 we all danced with straw stuffed violas we lost ourselves</p><p>\u00a0\u00a0\u00a0\u00a0\u00a0\u00a0\u00a0\u00a0\u00a0\u00a0\u00a0 we regained some kind of\u00a0 tree-strength that had been severed</p><p>the screen lit up with our faces huge hands</p><p>reached out to us we lit a tiny fire in the village</p><p>that is when my mother Mar\u00eda danced an incredible</p><p>inappropriate Polka at the center of the plaza (How could that be?</p><p>She died decades ago!)</p><p>I was expecting parables on the Three Treasures</p><p>I was running from the bombs I was delirious for shelter</p><p>Outside everything was on fire and the gasman was after me</p><p>Imagine that Why me? I said. Why me!\u00a0 But it was no use</p><p>so I ran in here</p><p>so I crouched under the seats</p><p>next to a woman in an emeraldine scaly dress</p><p>she was calm &amp; stunning &amp;</p><p>strumming a pearl-edged ten-string Stella</p><p>you\u2019re Ava Gardner I said Where\u2019s the exit?</p><p>\u00a0</p><p>\u00a0This <em>is</em> the exit.</p> "}, {"title": "My Proteins", "view_node": "/poem/my-proteins", "field_author": "<a href=\"/poet/jane-hirshfield\" hreflang=\"und\">Jane Hirshfield</a>", "field_date_published": "2015", "body": "<p><span class=\"long-line\">They have discovered, they say,</span><br /><span class=\"long-line\">the protein of itch\u2014</span><br /><span class=\"long-line\">natriuretic polypeptide b\u2014</span><br /><span class=\"long-line\">and that it travels its own distinct pathway</span><br /><span class=\"long-line\">inside my spine.</span><br /><span class=\"long-line\">As do pain, pleasure, and heat.</span></p>\n\n<p><span class=\"long-line\">A body it seems is a highway,</span><br /><span class=\"long-line\">a cloverleaf crossing</span><br /><span class=\"long-line\">well built, well traversed.</span><br /><span class=\"long-line\">Some of me going north, some going south.</span></p>\n\n<p><span class=\"long-line\">Ninety percent of my cells, they have discovered,</span><br /><span class=\"long-line\">are not my own person,</span><br /><span class=\"long-line\">they are other beings inside me.</span></p>\n\n<p><span class=\"long-line\">As ninety-six percent of my life is not my life.</span></p>\n\n<p><span class=\"long-line\">Yet I, they say, am they\u2014</span><br /><span class=\"long-line\">my bacteria and yeasts,</span><br /><span class=\"long-line\">my father and mother,</span><br /><span class=\"long-line\">grandparents, lovers,</span><br /><span class=\"long-line\">my drivers talking on cell phones,</span><br /><span class=\"long-line\">my subways and bridges,</span><br /><span class=\"long-line\">my thieves, my police</span><br /><span class=\"long-line\">who chase my self night and day.</span></p>\n\n<p><span class=\"long-line\">My proteins, apparently also me,</span><br /><span class=\"long-line\">fold the shirts.</span></p>\n\n<p><span class=\"long-line\">I find in this crowded metropolis</span><br /><span class=\"long-line\">a quiet corner,</span><br /><span class=\"long-line\">where I build of not-me Lego blocks</span><br /><span class=\"long-line\">a bench,</span><br /><span class=\"long-line\">pigeons, a sandwich</span><br /><span class=\"long-line\">of rye bread, mustard, and cheese.</span></p>\n\n<p><span class=\"long-line\">It is me and is not,</span><br /><span class=\"long-line\">the hunger</span><br /><span class=\"long-line\">that makes the sandwich good.</span></p>\n\n<p><span class=\"long-line\">It is not me then is,</span><br /><span class=\"long-line\">the sandwich\u2014</span><br /><span class=\"long-line\">a mystery neither of us</span><br /><span class=\"long-line\">can fold, unfold, or consume.</span></p>\n\n<p>\u20142013</p>\n"}, {"title": "Mosquito", "view_node": "/poem/mosquito-0", "field_author": "<a href=\"/poet/jane-hirshfield\" hreflang=\"und\">Jane Hirshfield</a>", "field_date_published": "2013", "body": "<p><span class=\"long-line\">I say I</span><br /><span class=\"long-line\">&amp;</span><br /><span class=\"long-line\">a small mosquito drinks from my tongue</span></p>\n\n<p><span class=\"long-line\">but many say we and hear I</span><br /><span class=\"long-line\">say you or he and</span><br /><span class=\"long-line\">hear I</span></p>\n\n<p><span class=\"long-line\">what can we do with this problem</span></p>\n\n<p><span class=\"long-line\">a bowl held in both hands</span><br /><span class=\"long-line\">cannot be filled by its holder</span></p>\n\n<p><span class=\"long-line\"><em>x</em>, says the blue whale</span><br /><span class=\"long-line\"><em>x</em>, say the krill</span><br /><span class=\"long-line\">solve for <em>y</em>, says the ocean, then multiply by existence</span></p>\n\n<p><span class=\"long-line\">the feet of an ant make their own sound on the earth</span></p>\n\n<p><span class=\"long-line\">ice is astonished by water</span></p>\n\n<p><span class=\"long-line\">a person misreads</span><br /><span class=\"long-line\">delirium as delphinium</span><br /><span class=\"long-line\">and falls into</span><br /><span class=\"long-line\">a blueness sleepy as beauty when sneezing</span></p>\n\n<p><span class=\"long-line\">the pronoun dozes</span></p>\n\n<p><span class=\"long-line\">\u20142010</span></p>\n"}, {"title": "Non-lieux", "view_node": "/poem/non-lieux", "field_author": "<a href=\"/poet/erika-meitner\" hreflang=\"und\">Erika Meitner</a>", "field_date_published": "2014", "body": " <p>Hand-painted on the side<br />of a shack we pass<br />on the road to Ohio:<br /><strong>what this world comin to?</strong></p><p>This is not haiku. This<br />is more like fog and we\u2019re<br />socked in and your body</p><p>is invisible and right<br />across from me<br />simultaneously.</p><p><em>How much ammo you got?</em><br />says one guy to another<br />in the cola-chip aisle<br />of the Food Lion.</p><p>The fortitude of rain<br />hitting the roof:<br />percussive sadness.</p><p>Almost-saved is not<br />good enough, says<br />the church sign. We are<br />out of ketchup again.</p><p><em>Did you see what he<br />put on Pete\u2019s grave and<br />what he put on Junior\u2019s?</em></p><p>says the woman in<br />the Bob Evans bath-<br />room stall with a cane.</p><p>It was sprained, not<br />broken. From high up,<br />from far away.</p><p>He was still working<br />at that bar in town,<br />after all these years,</p><p>assigned to a circum-<br />scribed position, like<br />the supermoon, like<br />employee parking.</p><p>In the dark 7-Eleven lot<br />two officers approach<br />a white van, flashlights on<br />and held overhand.</p><p>The church sign says<br />living without God<br />is like dribbling a football.</p><p>The light\u2014it was<br />too bright to be captured<br />in an iPhone photo</p><p>where people are not<br />the urgency of the<br />present moment.</p><p><em>Did you get it squared<br />away? </em>asks one man to<br />another at the Starbucks<br />condiment counter.</p><p>One of the officers<br />has a hand on his<br />holster. What is he<br />saying to the driver?</p><p>The church sign touts<br />tonight\u2019s sermon: Entering<br />the Miraculous Zone.</p><p>There were no grounds<br />for prosecution. I left<br />before I heard<br />the answer.</p> "}, {"title": "To the Thawing Wind", "view_node": "/poem/thawing-wind", "field_author": "<a href=\"/poet/robert-frost\" hreflang=\"und\">Robert Frost</a>", "field_date_published": "2014", "body": " <p>Come with rain, O loud Southwester!<br />Bring the singer, bring the nester;<br />Give the buried flower a dream;<br />Make the settled snowbank steam;<br />Find the brown beneath the white;<br />But whate\u2019er you do tonight,<br />Bathe my window, make it flow,<br />Melt it as the ice will go;<br />Melt the glass and leave the sticks<br />Like a hermit\u2019s crucifix;<br />Burst into my narrow stall;<br />Swing the picture on the wall;<br />Run the rattling pages o\u2019er;<br />Scatter poems on the floor;<br />Turn the poet out of door.</p> "}, {"title": "The Requiem of 1:00 AM (audio only)", "view_node": "/poem/requiem-100-am-audio-only", "field_author": "<a href=\"/poet/ken-chen\" hreflang=\"und\">Ken Chen</a>", "field_date_published": "2013", "body": " <p>\u00a0</p><p>Click the icon above to listen to this audio poem.</p> "}, {"title": "from The Death Star (audio only)", "view_node": "/poem/death-star-audio-only", "field_author": "<a href=\"/poet/ken-chen\" hreflang=\"und\">Ken Chen</a>", "field_date_published": "2013", "body": " <p>\u00a0</p><p>Click the icon above to listen to this audio poem.</p> "}], "pager": {"current_page": 395, "total_items": "13248", "total_pages": 663, "items_per_page": 20}}