{"rows": [{"title": "There are these moments of permission", "view_node": "/poem/there-are-these-moments-permission", "field_author": "<a href=\"/poet/camille-t-dungy\" hreflang=\"und\">Camille T. Dungy</a>", "field_date_published": "2012", "body": " <pre>\n\tBetween raindrops, \n\n\n\t\t\tspace, certainly,\n\n\nbut we call it all rain.\n\n\n          I hang in the undrenched intervals,\n\n\nwhile Callie is sleeping,\n\n\n\tmy old self necessary\n\n\nand imperceptible as air.</pre>\n "}, {"title": "Poem In Which Words Have Been Left Out", "view_node": "/poem/poem-which-words-have-been-left-out", "field_author": "<a href=\"/poet/charles-jensen\" hreflang=\"und\">Charles Jensen</a>", "field_date_published": "2012", "body": "<blockquote><sup><em>\u2014The \"Miranda Rights,\" established 1966</em></sup></blockquote>\n\n<p><span class=\"long-line\">You have the right to remain</span><br /><span class=\"long-line\">anything you can and will be.</span></p>\n\n<p><span class=\"long-line\">An attorney you cannot afford</span><br /><span class=\"long-line\">will be provided to you.</span></p>\n\n<p><span class=\"long-line\">You have silent will.</span><br /><span class=\"long-line\">You can be against law.</span><br /><span class=\"long-line\">You cannot afford one.</span></p>\n\n<p><span class=\"long-line\">You remain silent. Anything you say</span><br /><span class=\"long-line\">will be provided to you.</span></p>\n\n<p><span class=\"long-line\">The right can and will be</span><br /><span class=\"long-line\">against you. The right provided you.</span></p>\n\n<p><span class=\"long-line\">Have anything you say be </span><br /><span class=\"long-line\">right. Anything you say can be right.</span></p>\n\n<p><span class=\"long-line\">Say you have the right attorney.</span><br /><span class=\"long-line\">The right remain silent.</span></p>\n\n<p><span class=\"long-line\">Be held. Court the one. Be provided.</span><br /><span class=\"long-line\">You cannot be you.</span></p>\n"}, {"title": "The Snow Fairy", "view_node": "/poem/snow-fairy", "field_author": "<a href=\"/poet/claude-mckay\" hreflang=\"und\">Claude McKay</a>", "field_date_published": "1922", "body": " <pre>\nI \n\nThroughout the afternoon I watched them there, \nSnow-fairies falling, falling from the sky, \nWhirling fantastic in the misty air, \nContending fierce for space supremacy. \nAnd they flew down a mightier force at night, \nAs though in heaven there was revolt and riot, \nAnd they, frail things had taken panic flight \nDown to the calm earth seeking peace and quiet. \nI went to bed and rose at early dawn \nTo see them huddled together in a heap, \nEach merged into the other upon the lawn, \nWorn out by the sharp struggle, fast asleep. \nThe sun shone brightly on them half the day, \nBy night they stealthily had stol'n away. \n\n\nII \n\nAnd suddenly my thoughts then turned to you \nWho came to me upon a winter's night, \nWhen snow-sprites round my attic window flew, \nYour hair disheveled, eyes aglow with light. \nMy heart was like the weather when you came, \nThe wanton winds were blowing loud and long; \nBut you, with joy and passion all aflame, \nYou danced and sang a lilting summer song. \nI made room for you in my little bed, \nTook covers from the closet fresh and warm, \nA downful pillow for your scented head, \nAnd lay down with you resting in my arm. \nYou went with Dawn. You left me ere the day, \nThe lonely actor of a dreamy play.</pre>\n "}, {"title": "Directions for Lines that will Remain Unfinished", "view_node": "/poem/directions-lines-will-remain-unfinished", "field_author": "<a href=\"/poet/sarah-messer\" hreflang=\"und\">Sarah Messer</a>", "field_date_published": "2012", "body": " <pre>\nLine to be sewn into a skirt hem\n<i>held in my mouth ever since the  unraveling</i> \n\nLine beneath a bridge\n<i>for years without hope I stretched my arms into the river searching for you</i>\n\nLine to be sent to the cornfield\n<i>history is a hallway of leaves</i>.\n\nLine written for electric wires\n<i>your voice inside the no history, sitting still</i>\n\nLine for future people\n<i>inside the work, only my empty teeth</i>\n\nLine from Maharaj\n<i>Presently you are in quietude. Is it on this side of sleep or on the other side? </i>\n\nLine that cannot be read because of its darkness\n<i>impossible walk under weight of honey\naway from your hands that break me in half </i>\n\nLine addressing President Lincoln\n<i>when the handle and blade are gone, what remains\nof your axe? </i>\n\nLine to be run over by a lawn mower\n<i>afraid of everything and to be of no use</i>.\n\nLine for a distant midnight dog-pack\n<i>because I can never speak it</i>\n\nLine to be sewn into a shirt collar\n<i>the streak of your finger across the hood of the car</i>\n\nLine for a stone growing old\n<i>a sunburst that lands inside a flower</i>\n\nLine written only with your mouth\n<i>desire is a trick ghost</i>\n\nLine for the garden weeds\n<i>slowly I am nearer to you</i>\n\nLine describing the better qualities of monsters\n<i>are we afraid of what we wished for? </i>\n\nThree lines written for bears\n<i>inside cells, water, trees, I am meaningless\ndarkness and light wind like breath on fur\nI carry the circling cities inside me</i>\n\nLine for a leaf blown into the hair of the Master\n<i>seeing you, I want no other life</i>\n\nLine for a mouse\n<i>to die like that, held in your hands</i></pre>\n "}, {"title": "Elegy for my husband", "view_node": "/poem/elegy-my-husband", "field_author": "<a href=\"/poet/toi-derricotte\" hreflang=\"und\">Toi Derricotte</a>", "field_date_published": "2012", "body": "<blockquote><sup><em>Bruce Derricotte, June 22, 1928 - June 21, 2011</em></sup></blockquote>\n\n<pre>\nWhat was there is no longer there:\n<span class=\"long-line\">Not the blood running its wires of flame through the whole length</span>\n<span class=\"long-line\">Not the memories, the texts written in the language of the flat hills</span>\nNo, not the memories, the porch swing and the father crying\nThe genteel and elegant aunt bleeding out on the highway\n(Too black for the white ambulance to pick up)\nWho had sent back lacquered plates from China\n<span class=\"long-line\">Who had given away her best ivory comb that one time she was angry</span>\nNot the muscles, the ones the white girls longed to touch\nBut must not (for your mother warned\n<span class=\"long-line\">You would be lynched in that all-white Ohio town you grew up in)</span>\n<span class=\"long-line\">Not that same town where you were the only, the one good black boy</span>\nAll that is gone\n<span class=\"long-line\">Not the muscles running, the baseball flying into your mitt</span>\nNot the hand that laid itself over my heart and saved me \nNot the eyes that held the long gold tunnel I believed in \nNot the restrained hand in love and in anger\nNot the holding back\nNot the taut holding</pre>\n\n<p>\u00a0</p>\n"}, {"title": "London Snow", "view_node": "/poem/london-snow", "field_author": "<a href=\"/poet/robert-bridges\" hreflang=\"und\">Robert Bridges</a>", "field_date_published": "1890", "body": " <pre>\nWhen men were all asleep the snow came flying,\nIn large white flakes falling on the city brown,\nStealthily and perpetually settling and loosely lying,\n\u00a0\u00a0\u00a0\u00a0\u00a0\u00a0Hushing the latest traffic of the drowsy town;\nDeadening, muffling, stifling its murmurs failing;\nLazily and incessantly floating down and down:\n\u00a0\u00a0\u00a0\u00a0\u00a0\u00a0Silently sifting and veiling road, roof and railing;\nHiding difference, making unevenness even,\nInto angles and crevices softly drifting and sailing.\n\u00a0\u00a0\u00a0\u00a0\u00a0\u00a0All night it fell, and when full inches seven\nIt lay in the depth of its uncompacted lightness,\nThe clouds blew off from a high and frosty heaven;\n\u00a0\u00a0\u00a0\u00a0\u00a0\u00a0And all woke earlier for the unaccustomed brightness\nOf the winter dawning, the strange unheavenly glare:\nThe eye marvelled\u2014marvelled at the dazzling whiteness;\n\u00a0\u00a0\u00a0\u00a0\u00a0\u00a0The ear hearkened to the stillness of the solemn air;\nNo sound of wheel rumbling nor of foot falling,\nAnd the busy morning cries came thin and spare.\n\u00a0\u00a0\u00a0\u00a0\u00a0\u00a0Then boys I heard, as they went to school, calling,\nThey gathered up the crystal manna to freeze\nTheir tongues with tasting, their hands with snowballing;\n\u00a0\u00a0\u00a0\u00a0\u00a0\u00a0Or rioted in a drift, plunging up to the knees;\nOr peering up from under the white-mossed wonder,\n\"O look at the trees!\" they cried, \"O look at the trees!\"\n\u00a0\u00a0\u00a0\u00a0\u00a0\u00a0With lessened load a few carts creak and blunder,\nFollowing along the white deserted way,\nA country company long dispersed asunder:\n\u00a0\u00a0\u00a0\u00a0\u00a0\u00a0When now already the sun, in pale display\nStanding by Paul\u2019s high dome, spread forth below\nHis sparkling beams, and awoke the stir of the day.\n\u00a0\u00a0\u00a0\u00a0\u00a0\u00a0For now doors open, and war is waged with the snow;\nAnd trains of sombre men, past tale of number,\nTread long brown paths, as toward their toil they go:\n\u00a0\u00a0\u00a0\u00a0\u00a0\u00a0But even for them awhile no cares encumber\nTheir minds diverted; the daily word is unspoken,\nThe daily thoughts of labor and sorrow slumber\n<span class=\"long-line\">At the sight of the beauty that greets them, for the charm they have broken.</span></pre>\n "}, {"title": "It sifts from Leaden Sieves - (311)", "view_node": "/poem/it-sifts-leaden-sieves-311", "field_author": "<a href=\"/poet/emily-dickinson\" hreflang=\"und\">Emily Dickinson</a>", "field_date_published": "1890", "body": " <pre>\nIt sifts from Leaden Sieves -\nIt powders all the Wood.\nIt fills with Alabaster Wool\nThe Wrinkles of the Road -\n\nIt makes an Even Face\nOf Mountain, and of Plain -\nUnbroken Forehead from the East\nUnto the East again -\n\nIt reaches to the Fence -\nIt wraps it Rail by Rail\nTill it is lost in Fleeces -\nIt deals Celestial Vail\n\nTo Stump, and Stack - and Stem -\nA Summer\u2019s empty Room -\nAcres of Joints, where Harvests were,\nRecordless, but for them -\n\nIt Ruffles Wrists of Posts\nAs Ankles of a Queen -\nThen stills its Artisans - like Ghosts -\nDenying they have been -</pre>\n "}, {"title": "War and Hell, XVI [I am a great inventor]", "view_node": "/poem/war-and-hell-xvi-i-am-great-inventor", "field_author": "<a href=\"/poet/ernest-crosby\" hreflang=\"und\">Ernest Crosby</a>", "field_date_published": "1902", "body": " <pre>\nI am a great inventor, did you but know it.\nI have new weapons and explosives and devices to\n     substitute for your obsolete tactics and tools.\nMine are the battle-ships of righteousness and integrity\u2014\nThe armor-plates of a quiet conscience and self-respect\u2014\nThe impregnable conning-tower of divine manhood\u2014\nThe Long Toms of persuasion\u2014\nThe machine guns of influence and example\u2014\nThe dum-dum bullets of pity and remorse\u2014\nThe impervious cordon of sympathy\u2014\nThe concentration camps of brotherhood\u2014\nThe submarine craft of forgiveness\u2014\nThe torpedo-boat-destroyer of love\u2014\nAnd behind them all the dynamite of truth!\nI do not patent my inventions.\nTake them. They are free to all the world.</pre>\n "}, {"title": "Oh stay at home, my lad, and plough", "view_node": "/poem/oh-stay-home-my-lad-and-plough", "field_author": "<a href=\"/poet/e-housman\" hreflang=\"und\">A. E. Housman</a>", "field_date_published": "1922", "body": " <pre>\nOh stay at home, my lad, and plough\n   The land and not the sea,\nAnd leave the soldiers at their drill,\nAnd all about the idle hill\n   Shepherd your sheep with me.\n\nOh stay with company and mirth\n   And daylight and the air;\nToo full already is the grave\nOf fellows that were good and brave\n   And died because they were.</pre>\n "}, {"title": "Brown of Ossawatomie", "view_node": "/poem/brown-ossawatomie", "field_author": "<a href=\"/poet/john-greenleaf-whittier\" hreflang=\"und\">John Greenleaf Whittier</a>", "field_date_published": "1859", "body": " <pre>\nJohn Brown of Ossawatomie spake on his dying day:\n'I will not have to shrive my soul a priest in Slavery's pay;\nBut let some poor slave-mother whom I have striven to free,\nWith her children, from the gallows-stair put up a prayer for me!'\n\nJohn Brown of Ossawatomie, they led him out to die;\nAnd lo! a poor slave-mother with her little child pressed nigh:\nThen the bold, blue eye grew tender, and the old harsh face grew mild,\nAs he stooped between the jeering ranks and kissed the negro's child!\n\nThe shadows of his stormy life that moment fell apart,\nAnd they who blamed the bloody hand forgave the loving heart;\nThat kiss from all its guilty means redeemed the good intent,\nAnd round the grisly fighter's hair the martyr's aureole bent!\n\nPerish with him the folly that seeks through evil good!\nLong live the generous purpose unstained with human blood!\nNot the raid of midnight terror, but the thought which underlies;\nNot the borderer's pride of daring, but the Christian's sacrifice.\n\nNevermore may yon Blue Ridges the Northern rifle hear,\nNor see the light of blazing homes flash on the negro's spear;\nBut let the free-winged angel Truth their guarded passes scale,\nTo teach that right is more than might, and justice more than mail!\n\nSo vainly shall Virginia set her battle in array;\nIn vain her trampling squadrons knead the winter snow with clay!\nShe may strike the pouncing eagle, but she dares not harm the dove;\nAnd every gate she bars to Hate shall open wide to Love!</pre>\n "}, {"title": "Many-Roofed Building in Moonlight", "view_node": "/poem/many-roofed-building-moonlight", "field_author": "<a href=\"/poet/jane-hirshfield\" hreflang=\"und\">Jane Hirshfield</a>", "field_date_published": "2015", "body": "<p><span class=\"long-line\">I found myself</span><br /><span class=\"long-line\">suddenly voluminous,</span><br /><span class=\"long-line\">three-dimensioned,\u00a0</span><br /><span class=\"long-line\">a many-roofed building in moonlight.</span><br /><span class=\"long-line\">\u00a0</span><br /><span class=\"long-line\">Thought traversed\u00a0</span><br /><span class=\"long-line\">me as simply as moths might.\u00a0</span><br /><span class=\"long-line\">Feelings traversed me as fish.</span></p>\n\n<p><span class=\"long-line\">I heard myself thinking,</span><br /><span class=\"long-line\"><em>It isn't the piano, it isn't the ears</em>.</span></p>\n\n<p><span class=\"long-line\">Then heard, too soon, the ordinary furnace,\u00a0</span><br /><span class=\"long-line\">the usual footsteps above me.</span></p>\n\n<p><span class=\"long-line\">Washed my face again with hot water,</span><br /><span class=\"long-line\">as I did when I was a child.</span></p>\n\n<p>\u20142010</p>\n"}, {"title": "Comet Hyakutake", "view_node": "/poem/comet-hyakutake", "field_author": "<a href=\"/poet/arthur-sze\" hreflang=\"und\">Arthur Sze</a>", "field_date_published": "2012", "body": " <pre>\nComet Hyakutake's tail stretches for 360 million miles\u2014\n\nin 1996, we saw Hyakutake through binoculars\u2014\n\nthe ion tail contains the time we saw bats emerge out of a cavern at dusk\u2014\n\nin the cavern, we first heard stalactites dripping\u2014\n\nfirst silence, then reverberating sound\u2014\n\nour touch reverberates and makes a blossoming track\u2014\n\na comet's nucleus emits X-rays and leaves tracks\u2014\n\ntwo thousand miles away, you box up books and, in two days, will step through the \t\n\u00a0\u00a0\u00a0\u00a0\u00a0\u00a0\u00a0\u00a0invisible rays of an airport scanner\u2014\n\nwe write on invisible pages in an invisible book with invisible ink\u2014\n\nin nature's infinite book, we read a few pages\u2014\n\nin the sky, we read the ion tracks from the orchard\u2014\n\nthe apple orchard where blossoms unfold, where we unfold\u2014\n\nbudding, the child who writes, \"the puzzle comes to life\"\u2014\n\nelated, puzzled, shocked, dismayed, confident, loving: minutes to an hour\u2014\n\na minute, a pinhole lens through which light passes\u2014\n\nComet Hyakutake will not pass earth for another 100,000 years\u2014\n\nno matter, ardor is here\u2014\n\nand to the writer of fragments, each fragment is a whole\u2014</pre>\n "}, {"title": "Half-Hearted Sonnet", "view_node": "/poem/half-hearted-sonnet", "field_author": "<a href=\"/poet/kim-addonizio\" hreflang=\"und\">Kim Addonizio</a>", "field_date_published": "2012", "body": " <pre>\nHe'd left his belt. She\nfollowed him and\nthrew it in the street.\nWine: kisses: snake: end\n\nof their story. Be-\ngin again, under-\nstand what happened; de-\nspite that battered\n\nfeeling, it will have been\nworth it; better to\nhave etc\u2026\n(\u2014<i>not to have been born\n\nat all</i>\u2014 Schopenhauer.)\nBut, soft! Enter tears.</pre>\n "}, {"title": "Automatic Teller Machine", "view_node": "/poem/automatic-teller-machine", "field_author": "<a href=\"/poet/ben-mirov\" hreflang=\"und\">Ben Mirov</a>", "field_date_published": "2012", "body": " <pre>\nIf you work at a steady rate\nyou may reach the river by nightfall\nand if you have the will\n\na canoe will be waiting \nby the ash factory \nfor you to take upstream\n\nto the takoyaki shack\nwhere you can eat delicious food\nand drink as much beer as you like\n\nuntil late into the night.\nIn other words you have \nyour whole life ahead of you\n\nand no one can tell you \nwhat to do or how to act\nor what to say or anything\n\nsaid the machine in the wall\nbefore dispensing my receipt \nin a tiny wadded ball.</pre>\n "}, {"title": "Dear Empire [these are your temples]", "view_node": "/poem/dear-empire-these-are-your-temples", "field_author": "<a href=\"/poet/oliver-de-la-paz\" hreflang=\"und\">Oliver de la Paz</a>", "field_date_published": "2012", "body": " <p>Dear Empire,</p><br /><br /><p>These are your temples. There are rows of stone countenances, pillar after pillar. As if walking through a forest filled with alabaster heads: here, the frown. The gaze. The luminous stare.</p><p>Smoke from the incense curls, shapes itself against the archways, rubs against the grooves of the columns. Only a few men press their heads to their hands.</p><p>Outside, archeologists excavate a stone torso. Bound in coils of fraying rope, it rises before us, pulled upwards by a backhoe. Its form momentarily hides the sun, though as it sways, the light strikes our eyes. Saying yes. Saying no.</p> "}, {"title": "The Magi", "view_node": "/poem/magi", "field_author": "<a href=\"/poet/w-b-yeats\" hreflang=\"und\">W. B. Yeats</a>", "field_date_published": "1914", "body": " <p>Now as at all times I can see in the mind's eye,<br />In their stiff, painted clothes, the pale unsatisfied ones<br />Appear and disappear in the blue depth of the sky<br />With all their ancient faces like rain-beaten stones,<br />And all their helms of silver hovering side by side,<br />And all their eyes still fixed, hoping to find once more,<br />Being by Calvary's turbulence unsatisfied,<br />The uncontrollable mystery on the bestial floor.</p> "}, {"title": "Winter Heavens", "view_node": "/poem/winter-heavens", "field_author": "<a href=\"/poet/george-meredith\" hreflang=\"und\">George Meredith</a>", "field_date_published": "1888", "body": "<p><span class=\"long-line\">Sharp is the night, but stars with frost alive</span><br /><span class=\"long-line\">Leap off the rim of earth across the dome.</span><br /><span class=\"long-line\">It is a night to make the heavens our home</span><br /><span class=\"long-line\">More than the nest whereto apace we strive.</span><br /><span class=\"long-line\">Lengths down our road each fir-tree seems a hive,</span><br /><span class=\"long-line\">In swarms outrushing from the golden comb.</span><br /><span class=\"long-line\">They waken waves of thoughts that burst to foam:</span><br /><span class=\"long-line\">The living throb in me, the dead revive.</span><br /><span class=\"long-line\">Yon mantle clothes us: there, past mortal breath,</span><br /><span class=\"long-line\">Life glistens on the river of the death.</span><br /><span class=\"long-line\">It folds us, flesh and dust; and have we knelt,</span><br /><span class=\"long-line\">Or never knelt, or eyed as kine the springs</span><br /><span class=\"long-line\">Of radiance, the radiance enrings:</span><br /><span class=\"long-line\">And this is the soul's haven to have felt.</span></p>\n"}, {"title": "Untitled [I closed the book and changed my life]", "view_node": "/poem/untitled-i-closed-book-and-changed-my-life", "field_author": "<a href=\"/poet/bruce-smith\" hreflang=\"und\">Bruce Smith</a>", "field_date_published": "2012", "body": " <p>I closed the book and changed my life and changed my life and changed my life and one more change and I was back here looking up at a blue sky with russets and the World was hypnotic but it wasn't great. I wanted more range, maybe, more bliss, I didn't know about bliss. Is bliss just a rant about the size of the bowl? The trance was the true thing, no, the rant, no, the sky, now, that icy whiteness.</p> "}, {"title": "The Vista", "view_node": "/poem/vista", "field_author": "<a href=\"/poet/c-dale-young\" hreflang=\"und\">C. Dale Young</a>", "field_date_published": "2012", "body": " <pre>\nNot tenderness in the eye but the brute need\nto see accurately: over the ridge on a trail \ndeep in Tennessee, the great poet looked out and saw\nthe vista that confederate soldiers saw \nas they rode over the edge rather than surrender. \n\nI saw only the edge of the cliff side itself and then\nestimated the distance down to the bottom\nof the dirty ravine. This is what someone with wings\ndoes when he knows he cannot fly: he measures \ndistance. I have spent far too much time \n\nexamining my wings in the bathroom mirror\nafter the shower's steam has slowly cleared \nfrom the medicine cabinet's toothpaste-spattered glass:\ngrey, each feather just slightly bigger than a hawk's. \nThe great poet said one might find a vista like this, \n\nperhaps, once in a lifetime, but I didn't understand\nwhat he meant by this then. The wings, tucked\nbeneath a t-shirt, beneath my long-sleeve oxford,\nthe wings folded in along my spine, were irritated\nby that humid air, itchy from the collected sweat from the hike. \n\nI wasn't paying attention, which is a sin I have since learned.\nAt 14, after the wings first erupted from my back,\nI went up to the roof and tried to fly. Some lessons\ncan only be learned after earnest but beautiful failures.\nMy individual feathers are just slightly bigger than a hawk's\n\nfeathers. But my wingspan is just about 8 feet. I'm a man,\nand like men I measure everything. But vistas \nmake me nervous. And the great poet made me nervous. \nAnd I knew then what I still know now, that I \nwas only seconds away from another beautiful failure.</pre>\n "}, {"title": "Item:", "view_node": "/poem/item", "field_author": "<a href=\"/poet/lynn-emanuel\" hreflang=\"und\">Lynn Emanuel</a>", "field_date_published": "2012", "body": " <pre>\nI strolled through the neighborhood of beautiful houses\nAll of which I had written\n\nDown the long dark street\nPast the cemetery\n\nWhere all the tombstones\nHad my small white face.\n\nOver my shoulder burned the lamp\nOf the moon.\n\nThe pages, in the wind, flew, were fluffed and ruffled\nLike water by stones into a tune.\n\nI watched the horse and the rat\nThe rabbit and fox\n\nLeaving their tracks\nOn the snowy drafts.\n\nThe fox looked like me\nHad my face\n\nA long sharp chin\nA shifty eye.\n\nThe wind riffled its beautiful pelt.\nMy spelling faltered\n\nUnder the spell of myself.</pre>\n "}], "pager": {"current_page": 452, "total_items": "13248", "total_pages": 663, "items_per_page": 20}}