{"rows": [{"title": "What was he saying and to whom", "view_node": "/poem/what-was-he-saying-and-whom", "field_author": "<a href=\"/poet/alan-michael-parker\" hreflang=\"und\">Alan Michael Parker</a>", "field_date_published": "2008", "body": " <pre>\nWhat was he saying and to whom?\nWith a silver thermos he left the building;\nHe paused in the courtyard and turned.\nWhat was he saying and to whom?\n\nThe building at dawn not yet a building\nPaused the way all buildings do.\nWhat was he saying and to whom?\n\nTime doesn't stop; time doesn't wait;\nTime has never moved.\nWhat was he saying and to whom?\n\nIf the dog had been sleeping\nShe would not have awakened,\nSo small was the moment to lose.\nWhat was he saying and to whom?\n\nWhat was he saying and to whom?\nThe courtyard at dawn was the same\nAs the sky, the sky swept clean by the moon.\nWhat was he saying and to whom?\n\nGood morning, good-bye, I love you, I'll try.\nWhat was he saying and to whom?</pre>\n "}, {"title": "The Edge of the World [excerpt]", "view_node": "/poem/edge-world-excerpt", "field_author": "<a href=\"/poet/adonis\" hreflang=\"und\">Adonis</a>", "field_date_published": "2008", "body": " <pre>\n      I release the earth and I imprison the skies.  I fall down in order to stay faithful to \nthe light, in order to make the world ambiguous, fascinating, changeable, dangerous, in \norder to announce the steps beyond.\n     The blood of the gods is still fresh on my clothes.  A seagull's scream echoes \nthrough my pages.  Let me just pack up my words and leave.</pre>\n "}, {"title": "Immigrant Blues", "view_node": "/poem/immigrant-blues", "field_author": "<a href=\"/poet/li-young-lee\" hreflang=\"und\">Li-Young Lee</a>", "field_date_published": "2008", "body": "<p><span class=\"long-line\"><em>People have been trying to kill me since I was born</em>,</span><br /><span class=\"long-line\">a man tells his son, trying to explain</span><br /><span class=\"long-line\">the wisdom of learning a second tongue.</span></p>\n\n<p><span class=\"long-line\">It's the same old story from the previous century</span><br /><span class=\"long-line\">about my father and me.</span></p>\n\n<p><span class=\"long-line\">The same old story from yesterday morning</span><br /><span class=\"long-line\">about me and my son.</span></p>\n\n<p><span class=\"long-line\">It's called \"Survival Strategies</span><br /><span class=\"long-line\">and the Melancholy of Racial Assimilation.\"</span></p>\n\n<p><span class=\"long-line\">It's called \"Psychological Paradigms of Displaced Persons,\"</span></p>\n\n<p><span class=\"long-line\">called \"The Child Who'd Rather Play than Study.\"</span></p>\n\n<p><span class=\"long-line\"><em>Practice until you feel </em></span><br /><em><span class=\"long-line\">the language inside you</span></em>, says the man.</p>\n\n<p><span class=\"long-line\">But what does he know about inside and outside,</span><br /><span class=\"long-line\">my father who was spared nothing</span><br /><span class=\"long-line\">in spite of the languages he used?</span></p>\n\n<p><span class=\"long-line\">And me, confused about the flesh and soul,</span><br /><span class=\"long-line\">who asked once into a telephone,</span><br /><span class=\"long-line\"><em>Am I inside you? </em></span></p>\n\n<p><em><span class=\"long-line\">You're always inside me</span></em>, a woman answered,<br /><span class=\"long-line\">at peace with the body's finitude, </span><br /><span class=\"long-line\">at peace with the soul's disregard</span><br /><span class=\"long-line\">of space and time.</span></p>\n\n<p><span class=\"long-line\"><em>Am I inside you?</em> I asked once </span><br /><span class=\"long-line\">lying between her legs, confused</span><br /><span class=\"long-line\">about the body and the heart.</span></p>\n\n<p><span class=\"long-line\"><em>If you don't believe you're inside me, you're not</em>,</span><br /><span class=\"long-line\">she answered, at peace with the body's greed,</span><br /><span class=\"long-line\">at peace with the heart's bewilderment.</span></p>\n\n<p><span class=\"long-line\">It's an ancient story from yesterday evening</span></p>\n\n<p><span class=\"long-line\">called \"Patterns of Love in Peoples of Diaspora,\"</span></p>\n\n<p><span class=\"long-line\">called \"Loss of the Homeplace </span><br /><span class=\"long-line\">and the Defilement of the Beloved,\"</span></p>\n\n<p><span class=\"long-line\">called \"I Want to Sing but I Don\u2019t Know Any Songs.\"</span></p>\n"}, {"title": "The Fish", "view_node": "/poem/fish-0", "field_author": "<a href=\"/poet/lisa-williams\" hreflang=\"und\">Lisa Williams</a>", "field_date_published": "2008", "body": " <pre>\nHow they appear: tunneled vision\nin a brackish world. But they weave through it,\nambient, loose as the drops that brush their skin,\nslick colony of mists. Or do not weave.\n\nThese snaking vines, these luminous passersby\nwho quiver and blink in strange upstagings\ndon't form obstructions to a path, but mark details \nin an intimate landscape, one that, though vast,\nin practice is always narrowed . . .\n\nMinutiae abound, things small as the tip\nof an eyelash, which the fish might gulp,\nfor inside lies the way to another world\nof blood, fanned bones, cold pearly spears\naround which scales furl armor. Slits\nfor breath, sleek passageways, flutter life \nin beats, the rhythm of their keeping.\n\nWhere they exist: this pulse they are hinged on, \nthis harsh gill music. In colorless fog,\nor where a billion hues confound,\nthey can settle on the island of that \nbreathing, hold fast to the stone of it \nas the great mouth churns, each wave \none ring of truth the sea itself extends.</pre>\n "}, {"title": "Looking Back in My Eighty-First Year", "view_node": "/poem/looking-back-my-eighty-first-year", "field_author": "<a href=\"/poet/maxine-kumin\" hreflang=\"und\">Maxine Kumin</a>", "field_date_published": "2008", "body": " <pre>\n          <i>How did we get to be old ladies\u2014\n          my grandmother's job\u2014when we \n          were the long-legg\u00e8d girls?\n\t\u2014 Hilma Wolitzer</i>\n\nInstead of marrying the day after graduation,\t\t\nin spite of freezing on my father's arm as \t\t\t\t\nhere comes the bride struck up,\nsaying, I'm not sure I want to do this,\n\nI should have taken that fellowship\nto the University of Grenoble to examine \nthe original manuscript \nof Stendhal's unfinished <i>Lucien Leuwen</i>, \n\nI, who had never been west of the Mississippi, \nshould have crossed the ocean \nin third class on the Cunard White Star,\t\nthe war just over, the Second World War \n \nwhen Kilroy was here, that innocent graffito,\ntwo eyes and a nose draped over \na fence line.  How could I go?\nPassion had locked us together.\n\nSixty years my lover,\nhe says he would have waited.\nHe says he would have sat\nwhere the steamship docked\n\ntill the last of the pursers\ndecamped, and I rushed back\t\t\t\t\nlittering the runway with carbon paper . . .  \nWhy didn\u2019t I go? It was fated. \n\nMarriage dizzied us. Hand over hand,\nflesh against flesh for the final haul,\t\nwe tugged our lifeline through limestone and sand,\nlover and long-legg\u00e8d girl.</pre>\n "}, {"title": "Cherry Tomatoes", "view_node": "/poem/cherry-tomatoes", "field_author": "<a href=\"/poet/sandra-beasley\" hreflang=\"und\">Sandra Beasley</a>", "field_date_published": "2008", "body": " <pre>\nLittle bastards of vine.\nLittle demons by the pint.\nRed eggs that never hatch,\njust collapse and rot. When\n\nmy mom told me to gather\ntheir grubby bodies\ninto my skirt, I'd cry. You \nand your father, she'd chide\u2014\n\nthe way, each time I kicked \nand wailed against sailing, \nmy dad shook his head, said\nYou and your mother. \n\nNow, a city girl, I ease one \nloose from its siblings,\nfrom its clear plastic coffin,\nplace it on my tongue.\n\nJust to try. The smooth\nsurface resists, resists,\nand erupts in my mouth: \nseeds, juice, acid, blood\n\nof a perfect household.\nThe way, when I finally \nwent sailing, my stomach \nwas rocked from inside\n\nout. Little boat, big sea.\nHandful of skinned sunsets.</pre>\n "}, {"title": "Glen Uig", "view_node": "/poem/glen-uig", "field_author": "<a href=\"/poet/richard-hugo\" hreflang=\"und\">Richard Hugo</a>", "field_date_published": "2008", "body": " <pre>\nBelieve in this couple this day who come \nto picnic in the Faery Glen. They pay rain \nno matter, or wind. They spread their picnic \nunder a gale-stunted rowan. Believe they grew tired \nof giants and heroes and know they believe \nin wise tiny creatures who live under the rocks. \n\nBelieve these odd mounds, the geologic joke \nplayed by those wise tiny creatures far from \nthe world's pitiful demands: make money, stay sane. \nBelieve the couple, by now soaked to the skin, \nsing their day as if dry, as if sheltered inside \nCastle Ewen. Be glad Castle Ewen's only a rock\nthat looks like a castle. Be glad for no real king. \n\nThese wise tiny creatures, you'd better believe, \nhave lived through it all: the Viking occupation, \nclan torturing clan, the Clearances, the World War \nII bomber gone down, a fiery boom \non Beinn Edra. They saw it from here. They heard \nthe sobs of last century's crofters trail off below \nwhere every day the Conon sets out determined for Uig. \nThey remember the Viking who wandered off course, \nunder the hazelnut tree hating aloud all he'd done. \n\nSome days dance in the bracken. Some days go out \nwide and warm on bad roads to collect the dispossessed \nand offer them homes. Some days celebrate addicts \nsweet in their dreams and hope to share with them \na personal spectrum. The loch here's only a pond, \nthe monster is in it small as a wren. \n\nBelieve the couple who have finished their picnic \nand make wet love in the grass, the tiny wise creatures \ncheering them on. Believe in milestones, the day \nyou left home forever and the cold open way \na world wouldn't let you come in. Believe you \nand I are that couple. Believe you and I sing tiny \nand wise and could if we had to eat stone and go on.</pre>\n "}, {"title": "The Kudzu Chronicles - Oxford, Mississippi [excerpt]", "view_node": "/poem/kudzu-chronicles-oxford-mississippi-excerpt", "field_author": "<a href=\"/poet/beth-ann-fennelly\" hreflang=\"und\">Beth Ann Fennelly</a>", "field_date_published": "2008", "body": " <pre>\n1.\nKudzu sallies into the gully\nlike a man pulling up a chair \nwhere a woman was happily dining alone.   \nKudzu sees a field of cotton,\nwants to be its better half.\nPities the red clay, leaps across \nthe color wheel to tourniquet.  \nSees every glass half full,\npours itself in.  Then over the brim.\nScribbles in every margin \nwith its green highlighter.  Is begging \nto be measured.  Is pleased \nto make acquaintance with\nyour garden, which it is pleased to name\nPlace Where I Am Not.\nYet.  Breeds its own welcome mat.\n\n2.\nWhy fret \nif all it wants\nis to lay one heart\u2014\nshaped palm\non your sleeping back?   \n\nWhy fright \nwhen the ice \nmachine dumps its \narmload of diamonds?</pre>\n "}, {"title": "Quarantine", "view_node": "/poem/quarantine", "field_author": "<a href=\"/poet/eavan-boland\" hreflang=\"und\">Eavan Boland</a>", "field_date_published": "2008", "body": "<p><span class=\"long-line\">In the worst hour of the worst season</span><br /><span class=\"long-line\">\u00a0 \u00a0 of the worst year of a whole people</span><br /><span class=\"long-line\">a man set out from the workhouse with his wife.</span><br /><span class=\"long-line\">He was walking\u2014they were both walking\u2014north.</span></p>\n<p><span class=\"long-line\">She was sick with famine fever and could not keep up.</span><br /><span class=\"long-line\">\u00a0 \u00a0 \u00a0He lifted her and put her on his back.</span><br /><span class=\"long-line\">He walked like that west and west and north.</span><br /><span class=\"long-line\">Until at nightfall under freezing stars they arrived.</span></p>\n<p><span class=\"long-line\">In the morning they were both found dead.</span><br /><span class=\"long-line\">\u00a0 \u00a0 Of cold. Of hunger. Of the toxins of a whole history.</span><br /><span class=\"long-line\">But her feet were held against his breastbone.</span><br /><span class=\"long-line\">The last heat of his flesh was his last gift to her.</span></p>\n<p><span class=\"long-line\">Let no love poem ever come to this threshold.</span><br /><span class=\"long-line\">\u00a0 \u00a0 \u00a0There is no place here for the inexact</span><br /><span class=\"long-line\">praise of the easy graces and sensuality of the body.</span><br /><span class=\"long-line\">There is only time for this merciless inventory:</span></p>\n<p><span class=\"long-line\">Their death together in the winter of 1847.</span><br /><span class=\"long-line\">\u00a0 \u00a0 \u00a0 Also what they suffered. How they lived.</span><br /><span class=\"long-line\">And what there is between a man and woman.</span><br /><span class=\"long-line\">And in which darkness it can best be proved.</span></p>\n"}, {"title": "Glut", "view_node": "/poem/glut", "field_author": "<a href=\"/poet/gerald-stern\" hreflang=\"und\">Gerald Stern</a>", "field_date_published": "2008", "body": " <pre>\nThe whole point was getting rid of glut\nfor which I starved myself and lived with the heat down\nand only shaved oh every five days and used\na blunt razor for months so that my cheek\nwas not only red but the hair was bent not cut\nfor which I then would be ready for the bicycle\nand the broken wrist, for which\u2014oh God\u2014I would be \nready to climb the steps and fight the boxes\nwith only nothing, a pair of shoes, and once \ninside to open the window and let the snow in\nand when the fire was over climb down the icy\nfire escape and drop the last twenty\nfeet with notebooks against my chest, bruises\ndown one side of my body, fresh blood down the other.</pre>\n "}, {"title": "Ferrum [excerpt]", "view_node": "/poem/ferrum-excerpt", "field_author": "<a href=\"/poet/m-nourbese-philip\" hreflang=\"und\">M. NourbeSe Philip</a>", "field_date_published": "2008", "body": " <pre>s no s                        laves s                          in nest/s with\n                in come sir                                  my lie\n                                                ge lord it i\n                                 s now y/                                 our turn co\n                me b                        e me rains fa\n                            ll no wa                            ter in t me and p\nlay your p\n                                          art the sun ros                                  he t\n                ub                                                                under sk\n                            in sin for                          ty days fo\n     rty nigh                          ts forty <i>ce</i>                             <i>dis</i> for forty\n                sins <i>j'aim</i>                            <i>faim j'ai</i>\n                                <i>faim</i> god of                            spire <i>spes</i> and p\n          raise turn and                          turn the bo                               nes sing\n                               a son                                  g of wa\n                                         ter a wat                                er so\n                     ng sin                         g song sin                          g song de\n                               fend the d                           ead &amp; sin n\n         o sin sin                           g the bo                               nes h/o\n                        me what w                         ill my b                               ones say h\n                                         ow do the                        y forty we\n               eks come to t                        erm shh <i>au</i>                                  <i>di</i> can you\n                                       not he                           ar from the de\n                                                  ep the voi\n                        ces not sir                                                ens we are a\n      t sea the d                                            art of my sto\n                                         ry stings i me\n                      ant no harm                                         no hurt res\n\n\n\n\n\n\n\n                                          cue us rag                                        and bone men in\n               dict the a                                           ge pears in g\n                              in in                    wine win                                ter wine and y\n                                      ou Ruth                              this story ne\n                   sts in the ne               t the we                                    b of ti\n                                       me tam                p it down do\n                                                  use the flam                 e of this ta\n               le what pro                                      fit me if <i>mon</i>               <i>coeur non est</i>\n                                 we wind o                                       ur way sub\n                                                                    water o\n                                       nly the bone                                       s of the sh\n                     ip their e                          yes dart this\n                                   way and th                                                              at soft so\n                                                                                   ft they ro\n                         am the ship                                                            their cri\n                                                            es grate on me\n                                          y ears drag                                the dee\n                                                            p for the b                            ones of my so\n                              ul their sou                                  ls cast the n\n                                                    et wide to the d                             eep men to the\n                     p and a                                             tot of ru\n                                           m...</pre>\n "}, {"title": "Spirit Birds", "view_node": "/poem/spirit-birds", "field_author": "<a href=\"/poet/stanley-plumly\" hreflang=\"und\">Stanley Plumly</a>", "field_date_published": "2008", "body": " <pre>\nThe spirit world the negative of this one,\nsoft outlines of soft whites against soft darks,\nsomeone crossing Broadway at Cathedral, walking\ntoward the god taking the picture, but now,\ninside the camera, suddenly still. Or the spirit\nworld the detail through the window, manifest\nif stared at long enough, the shapes of this\nor that, the lights left on, the lights turned off,\nthe spirits under arcs of sycamores the gray-gold\nmists of migratory birds and spotted leaves recognize.\n\nAutumnal evening chill, knife-edges of the avenues,\nwind kicking up newspaper off the street,\nthose ghost peripheral moments you catch yourself\nbeside yourself going down a stair or through\na door\u2014the spirit world surprising: those birds,\nfor instance, bursting from the trees and turning\ninto shadow, then nothing, like spirit birds\ncalled back to life from memory or a book,\nthose shadows in my hands I held, surprised.\nI found them interspersed among the posthumous pages\n\nof a friend, some hundreds of saved poems: dun\nsparrows and a few lyrical wrens in photocopied\nprofile perched in air, focused on an abstract\nabrupt edge. Blurred, their natural color bled,\nthey'd passed from one world to another: the poems,\ntoo, sung in the twilit middle of the night, loved,\nhalf-typed, half-written-over, flawed, images \nof images. He'd kept them to forget them.\nAnd every twenty pages, in xerox ash-and-frost,\nGray Eastern, Gold Western, ranging across borders.</pre>\n "}, {"title": "Chance", "view_node": "/poem/chance", "field_author": "<a href=\"/poet/molly-peacock\" hreflang=\"und\">Molly Peacock</a>", "field_date_published": "2008", "body": " <pre>\nmay favor obscure brainy aptitudes in you\nand a love of the past so blind you would\nventure, always securing permission,\ninto the back library stacks, without food\nor water because you have a mission:\nto find yourself, in the regulated light,\nholding a volume in your hands as you\nyourself might like to be held.  Mostly your life\nwill be voices and images.  Information.  You\nmay go a long way alone, and travel much\nto open a book to renew your touch.</pre>\n "}, {"title": "Theme For Intermediate Chinese (audio only)", "view_node": "/poem/theme-intermediate-chinese-audio-only", "field_author": "<a href=\"/poet/afaa-michael-weaver\" hreflang=\"und\">Afaa Michael Weaver</a>", "field_date_published": "2008", "body": " <p>\u00a0</p><p>Click the icon above to listen to this audio poem.</p> "}, {"title": "Who Has Seen the Wind?", "view_node": "/poem/who-has-seen-wind", "field_author": "<a href=\"/poet/christina-rossetti\" hreflang=\"und\">Christina Rossetti</a>", "field_date_published": "1893", "body": "<p><span class=\"long-line\">Who has seen the wind?</span><br /><span class=\"long-line\">Neither I nor you.</span><br /><span class=\"long-line\">But when the leaves hang trembling,</span><br /><span class=\"long-line\">The wind is passing through. </span><br /><span class=\"long-line\">Who has seen the wind? </span><br /><span class=\"long-line\">Neither you nor I. </span><br /><span class=\"long-line\">But when the trees bow down their heads, </span><br /><span class=\"long-line\">The wind is passing by.</span></p>\n"}, {"title": "The Swing", "view_node": "/poem/swing", "field_author": "<a href=\"/poet/robert-louis-stevenson\" hreflang=\"und\">Robert Louis Stevenson</a>", "field_date_published": "1885", "body": " <pre>\nHow do you like to go up in a swing, \n             Up in the air so blue? \nOh, I do think it the pleasantest thing \n             Ever a child can do! \n\nUp in the air and over the wall, \n             Till I can see so wide, \nRiver and trees and cattle and all \n             Over the countryside\u2014\n\nTill I look down on the garden green, \n              Down on the roof so brown\u2014\nUp in the air I go flying again, \n              Up in the air and down!</pre>\n "}, {"title": "Envoy", "view_node": "/poem/envoy", "field_author": "<a href=\"/poet/robert-louis-stevenson\" hreflang=\"und\">Robert Louis Stevenson</a>", "field_date_published": "1887", "body": " <pre>\nGo, little book, and wish to all\nFlowers in the garden, meat in the hall,\nA bin of wine, a spice of wit,\nA house with lawns enclosing it,\nA living river by the door,\nA nightingale in the sycamore!</pre>\n "}, {"title": "The Celestial Surgeon", "view_node": "/poem/celestial-surgeon", "field_author": "<a href=\"/poet/robert-louis-stevenson\" hreflang=\"und\">Robert Louis Stevenson</a>", "field_date_published": "1887", "body": " <pre>\nIf I have faltered more or less\nIn my great task of happiness;\nIf I have moved among my race\nAnd shown no glorious morning face;\nIf beams from happy human eyes\nHave moved me not; if morning skies,\nBooks, and my food, and summer rain\nKnocked on my sullen heart in vain:-\nLord, thy most pointed pleasure take\nAnd stab my spirit broad awake;\nOr, Lord, if too obdurate I,\nChoose thou, before that spirit die,\nA piercing pain, a killing sin,\nAnd to my dead heart run them in!</pre>\n "}, {"title": "The Sick Child", "view_node": "/poem/sick-child", "field_author": "<a href=\"/poet/robert-louis-stevenson\" hreflang=\"und\">Robert Louis Stevenson</a>", "field_date_published": "1887", "body": " <pre>\nCHILD.\nO Mother, lay your hand on my brow!\nO mother, mother, where am I now?\nWhy is the room so gaunt and great? \nWhy am I lying awake so late?\n\nMOTHER.\nFear not at all: the night is still.\nNothing is here that means you ill -\nNothing but lamps the whole town through,\nAnd never a child awake but you.\n\nCHILD.\nMother, mother, speak low in my ear,\nSome of the things are so great and near,\nSome are so small and far away,\nI have a fear that I cannot say,\nWhat have I done, and what do I fear,\nAnd why are you crying, mother dear?\n\nMOTHER.\nOut in the city, sounds begin\nThank the kind God, the carts come in!\nAn hour or two more, and God is so kind,\nThe day shall be blue in the window-blind,\nThen shall my child go sweetly asleep,\nAnd dream of the birds and the hills of sheep.</pre>\n "}, {"title": "Block City", "view_node": "/poem/block-city", "field_author": "<a href=\"/poet/robert-louis-stevenson\" hreflang=\"und\">Robert Louis Stevenson</a>", "field_date_published": "1913", "body": "<p><span class=\"long-line\">What are you able to build with your blocks?</span><br /><span class=\"long-line\">Castles and palaces, temples and docks.</span><br /><span class=\"long-line\">Rain may keep raining, and others go roam,</span><br /><span class=\"long-line\">But I can be happy and building at home.</span></p>\n\n<p><span class=\"long-line\">Let the sofa be mountains, the carpet be sea, </span><br /><span class=\"long-line\">There I'll establish a city for me:</span><br /><span class=\"long-line\">A kirk and a mill and a palace beside,</span><br /><span class=\"long-line\">And a harbor as well where my vessels may ride.</span></p>\n\n<p><span class=\"long-line\">Great is the palace with pillar and wall,</span><br /><span class=\"long-line\">A sort of a tower on top of it all,</span><br /><span class=\"long-line\">And steps coming down in an orderly way</span><br /><span class=\"long-line\">To where my toy vessels lie safe in the bay. </span></p>\n\n<p><span class=\"long-line\">This one is sailing and that one is moored:</span><br /><span class=\"long-line\">Hark to the song of the sailors on board!</span><br /><span class=\"long-line\">And see on the steps of my palace, the kings</span><br /><span class=\"long-line\">Coming and going with presents and things!</span></p>\n"}], "pager": {"current_page": 541, "total_items": "13248", "total_pages": 663, "items_per_page": 20}}