{"rows": [{"title": "Abraham Lincoln", "view_node": "/poem/abraham-lincoln", "field_author": "<a href=\"/poet/abraham-lincoln\" hreflang=\"und\">Abraham Lincoln</a>", "field_date_published": "1824", "body": " <pre>\nAbraham Lincoln\nhis hand and pen\nhe will be good but\ngod knows When</pre>\n "}, {"title": "from The Vision of Sir Launfal", "view_node": "/poem/vision-sir-launfal", "field_author": "<a href=\"/poet/james-russell-lowell\" hreflang=\"und\">James Russell Lowell</a>", "field_date_published": "1848", "body": " <pre>\nAnd what is so rare as a day in June?\n\u00a0\u00a0\u00a0\u00a0\u00a0Then, if ever, come perfect days;\nThen Heaven tries the earth if it be in tune,\n\u00a0\u00a0\u00a0\u00a0\u00a0And over it softly her warm ear lays:\nWhether we look, or whether we listen,\nWe hear life murmur, or see it glisten;\nEvery clod feels a stir of might,\n\u00a0\u00a0\u00a0\u00a0\u00a0An instinct within it that reaches and towers,\nAnd, groping blindly above it for light,\n\u00a0\u00a0\u00a0\u00a0\u00a0Climbs to a soul in grass and flowers;\nThe flush of life may well be seen\n\u00a0\u00a0\u00a0\u00a0\u00a0Thrilling back over hills and valleys;\nThe cowslip startles in meadows green,\n\u00a0\u00a0\u00a0\u00a0\u00a0The buttercup catches the sun in its chalice,\nAnd there's never a leaf nor a blade too mean\n\u00a0\u00a0\u00a0\u00a0\u00a0To be some happy creature's palace;\nThe little bird sits at his door in the sun,\n\u00a0\u00a0\u00a0\u00a0\u00a0Atilt like a blossom among the leaves,\nAnd lets his illumined being o'errun\n\u00a0\u00a0\u00a0\u00a0\u00a0With the deluge of summer it receives;\nHis mate feels the eggs beneath her wings,\nAnd the heart in her dumb breast flutters and sings;\nHe sings to the wide world, and she to her nest,\u2014\nIn the nice ear of Nature which song is the best?\n\nNow is the high-tide of the year,\n\u00a0\u00a0\u00a0\u00a0\u00a0And whatever of life hath ebbed away\nComes flooding back with a ripply cheer,\n\u00a0\u00a0\u00a0\u00a0\u00a0Into every bare inlet and creek and bay;\nNow the heart is so full that a drop over-fills it,\nWe are happy now because God wills it;\nNo matter how barren the past may have been,\n'Tis enough for us now that the leaves are green;\nWe sit in the warm shade and feel right well\nHow the sap creeps up and the blossoms swell;\nWe may shut our eyes, but we cannot help knowing\nThat skies are clear and grass is growing;\nThe breeze comes whispering in our ear,\nThat dandelions are blossoming near,\n\u00a0\u00a0\u00a0\u00a0\u00a0That maize has sprouted, that streams are flowing,\nThat the river is bluer than the sky,\nThat the robin is plastering his house hard by;\nAnd if the breeze kept the good news back,\nFor other couriers we should not lack;\n\u00a0\u00a0\u00a0\u00a0\u00a0We could guess it all by yon heifer's lowing,\u2014\nAnd hark! how clear bold chanticleer,\nWarmed with the new wine of the year,\n\u00a0\u00a0\u00a0\u00a0\u00a0Tells all in his lusty crowing!</pre>\n "}, {"title": "Night Songs", "view_node": "/poem/night-songs", "field_author": "<a href=\"/poet/thomas-kinsella\" hreflang=\"und\">Thomas Kinsella</a>", "field_date_published": "2010", "body": " <p><b>1</b></p>\n<pre>\nNow, as I sink in sleep,\nMy heart is cut down,\nNothing\u2014poetry nor love\u2014\nAchieving.\n\n*\n\nTurns again in my room,\nThe crippled leopard.\nPaw-pad, configured\nYellow light of his eyes,\nPass, repass, repass.\nQuiet, my hand; he is tame.\nSoon, while I dream, will step\nAnd stir the sunken dawn.\n\n<b>2</b>\n\nBefore I woke there entered in\nA woman with a golden skin\nThat tangled with the light.\nA tang of orchards climbed the stair\nAnd dwindled in the waxen air,\nCrisping the midnight,\nAnd the white pillows of my bed\nOn apple-tasted darkness fed.\nWeakened with appetite\nSleep broke like a dish wherein\nA woman lay with golden skin.</pre>\n "}, {"title": "Video: &quot;Eve of Easter&quot; on Public Access Poetry", "view_node": "/poem/video-eve-easter-public-access-poetry", "field_author": "<a href=\"/poet/bernadette-mayer\" hreflang=\"und\">Bernadette Mayer</a>", "field_date_published": "1978", "body": " <p><iframe allowfullscreen=\"\" frameborder=\"0\" height=\"349\" src=\"https://www.youtube.com/embed/8XFVx-fpYfA\" width=\"425\"></iframe></p><p><br /><a href=\"/video\"><img alt=\"\" border=\"0\" src=\"/sites/default/files/images/vid_archivebar.jpg\" /></a></p> "}, {"title": "Video: The Librarian", "view_node": "/poem/video-librarian", "field_author": "<a href=\"/poet/charles-olson\" hreflang=\"und\">Charles Olson</a>", "field_date_published": "1966", "body": " <p><iframe allowfullscreen=\"\" frameborder=\"0\" height=\"349\" src=\"https://www.youtube.com/embed/E85iFHTKrAI\" width=\"425\"></iframe></p><p><br /><a href=\"/video\"><img alt=\"\" border=\"0\" src=\"/sites/default/files/images/vid_archivebar.jpg\" /></a></p> "}, {"title": "if s/one is mocking let it be tender", "view_node": "/poem/if-sone-mocking-let-it-be-tender", "field_author": "<a href=\"/poet/julian-talamantez-brolaski\" hreflang=\"und\">Julian Talamantez Brolaski</a>", "field_date_published": "2011", "body": " <pre>\n                                 for T. Peterson\n\n\nso what if the magistrate calls you dude\nfor all the petrogaff in helsinki\nwhat is the idles, the ides to you\nthe hottest month on record\n\n\nif s/o is making a mockery\n&amp; yew liable to get thwarted\none needs a quiet room\nwho hands out thir fucking pronoun paradigm at parties??!!\n\n\nif s/o is mocking\nlet thir hart be tender\nharted. if one can be\nnot-deformed.\n\n</pre>\n "}, {"title": "elegy for kari edwards", "view_node": "/poem/elegy-kari-edwards", "field_author": "<a href=\"/poet/julian-talamantez-brolaski\" hreflang=\"und\">Julian Talamantez Brolaski</a>", "field_date_published": "2011", "body": " <pre>\n                                for memorial at Zinc Bar, 23 June 2007, NYC\n\n\t\tI am your sugarplum fairy commodore in chief.\n\t\t\t\u2014<a href=\"/node/46620\">kari edwards</a>\n\n\t\t<i>conturbabimus illa.</i>\n                                (<i>Vivamus, mea Lesbia, atque amemus</i> \n\t\t[let us live, my Lesbia, and let us love])\n\t\t\t\u2014Catullus V.II\n\ndamesirs of fishairs\nprinces reginae\nI don't need this botheration\nguilded toe in a gendered pension\nembedded narcissism\nskirts can or could not be worn w/\n\n\nintentional disgrace\ngetting oh-aff\nI sleep where I sit\ngog and magog\nope myopia\n\n\nsweetness and delight do\nit for sidney, as starlover did rue\non star, thir mistress cloying\nthe lack, with thir poesis toying\n\n\ntwill never hurt\nregina prince\nalack, areft\nlocks beset\ncandle agrove\na buck in a corridor\n\n\nas like with likeness grace the tongue\nand sweets with sweets cloy them among\n\n\nconturbabimus illa\nlet us confound them\n\n\nbeasts implored and character impaled\nagathas breast in a 14th century pincer anon\n7 heads w/ 7 comings on\nhorns on their horns\nwings at their feet and at their wings\n\n\n<i>well you have three seconds to live</i>\nbespeckled apprentice\nfreckled daylily\na penny uneasily\npleaded myrtle\n\n\niron bootblackening\n<i>at the speed</i>\n<i>we levatate con</i>\nthere is no missus\nI am among\n\n\nlimbed elms\ncolluding with doves\n\n\nnor tide nor tail\nangels w/ svelte angles\n\n\nthe rub and tug goils\nlanguid as jersey\ntoo early for supper\n\n\netc was their pimp\nand whatever their sucker\nshitslinger\nmaster cleanser\n\n\nw/ corporate coffee\nand torture p\u00e2t\u00e9\n\n\nmy present page\nin l-l-livery\n\n\nold glut\nof a beast's spleen\nthe glory over\nlordling socked ajaw\n\n\nnassau ablog\nby fairly a sweepmate a swoopster\nbedevilled in gullet\nswashbuckld by proxy\n\n\n<i>homosexuality eh?</i>\nred river andaloos\nfunny albeit friday\nall the dork-rock\n\n\ngender suggests\nwe levitate avec\nheld captive\npatr\u00f3n, bothermonger\n\n\nah myrtle\nwhy sie is taken\nmy mind\nimpertinent parasol\n\n\nglossy wit promise of salt\ncaint leave thir cellphone alone\nipode eterna\nsatellite viscera\n\n\nmuscadetted papillon (that one)\n\n\nstrident\n17 stallions\nwith horns on their heads\nand horns coming out of the horns\n\n\na papillon\nthat one\n\n\na buck in a corridor\nconturbabimus illa\nlet us confound them\n\n\nall ridded of giggling\nanthropomorphia aghast\nDL in the bowries \nthe tee hee ambigenuity\nof amputee-wannabees\n\n\ngoogling tee hee\n<i>silly faggot</i>\n<i>dicks are for chicks</i>\ndicks are for chicks\n\n\nwicked hee\nto bury my heart at\nmy heart was in my knee\n</pre>\n "}, {"title": "last swan of avon", "view_node": "/poem/last-swan-avon", "field_author": "<a href=\"/poet/julian-talamantez-brolaski\" hreflang=\"und\">Julian Talamantez Brolaski</a>", "field_date_published": "2011", "body": " <pre>\nsocalled swan of avon\nn/t but a beaurocrat\nbuggering the buttercups\ngoy from the waist up\n\n\nnow soldiers're the ones making offers\nand fucking caravaggio posters\nmaybe the artist had bothered about melancholia\n\n\nsuddenly xe finds xemself walking down\nsome dark corridor\n\n\ncalifornia was truly the promised land\nfor a minute there\nvideo marlboro\nto show us\n\n\nshoppingcart in dingy water\nand then turn melancholical\n\n\nsign reads no squatting\nswitchd on the cathode ray\nat yr coronation\n\n\nthe bomb droppd w/ regular monotony\nleaving us wanting\n\n\n        a to zed\ndampened a grid\n\n\nsatyrical deliria\npan's ballet\nin a black tutu\n\n\nwho have the inclination\nbut even whose   necromancer\u2014\nfirelit but dried\u2014\n\u2014commandeering meadows\u2014\nprotests were pathetic\n</pre>\n "}, {"title": "&#039;The child is father to the man.&#039;", "view_node": "/poem/child-father-man", "field_author": "<a href=\"/poet/gerard-manley-hopkins\" hreflang=\"und\">Gerard Manley Hopkins</a>", "field_date_published": "2011", "body": " <pre>\n'The child is father to the man.'\nHow can he be? The words are wild.\nSuck any sense from that who can:\n'The child is father to the man.'\nNo; what the poet did write ran,\n'The man is father to the child.'\n'The child is father to the man!'\nHow can he be? The words are wild!</pre>\n "}, {"title": "Body and Soul (audio only)", "view_node": "/poem/body-and-soul-audio-only", "field_author": "<a href=\"/poet/charles-wright\" hreflang=\"und\">Charles Wright</a>", "field_date_published": "2011", "body": " <p>\u00a0</p><p>Click the icon above to listen to this audio poem.</p> "}, {"title": "Relics (audio only)", "view_node": "/poem/relics-audio-only", "field_author": "<a href=\"/poet/charles-wright\" hreflang=\"und\">Charles Wright</a>", "field_date_published": "2011", "body": " <p>\u00a0</p><p>Click the icon above to listen to this audio poem.</p> "}, {"title": "Road Warriors (audio only)", "view_node": "/poem/road-warriors-audio-only", "field_author": "<a href=\"/poet/charles-wright\" hreflang=\"und\">Charles Wright</a>", "field_date_published": "2011", "body": " <p>\u00a0</p><p>Click the icon above to listen to this audio poem.</p> "}, {"title": "Grace II (audio only)", "view_node": "/poem/grace-ii-audio-only", "field_author": "<a href=\"/poet/charles-wright\" hreflang=\"und\">Charles Wright</a>", "field_date_published": "2011", "body": " <p>\u00a0</p><p>Click the icon above to listen to this audio poem.</p> "}, {"title": "Sentences II (audio only)", "view_node": "/poem/sentences-ii-audio-only", "field_author": "<a href=\"/poet/charles-wright\" hreflang=\"und\">Charles Wright</a>", "field_date_published": "2011", "body": " <p>\u00a0</p><p>Click the icon above to listen to this audio poem.</p> "}, {"title": "Interlude", "view_node": "/poem/interlude", "field_author": "<a href=\"/poet/edith-sitwell\" hreflang=\"und\">Edith Sitwell</a>", "field_date_published": "1920", "body": " <pre>\nAmid this hot green glowing gloom\t \nA word falls with a raindrop's boom...\t \n  \nLike baskets of ripe fruit in air\t \nThe bird-songs seem, suspended where\t \n  \nThose goldfinches\u2014the ripe warm lights\t         \nPeck slyly at them\u2014take quick flights.\t \n  \nMy feet are feathered like a bird\t \nAmong the shadows scarcely heard;\t \n  \nI bring you branches green with dew\t \nAnd fruits that you may crown anew\t  \n  \nYour whirring waspish-gilded hair\t \nAmid this cornucopia\u2014\t \n  \nUntil your warm lips bear the stains\t \nAnd bird-blood leap within your veins.</pre>\n "}, {"title": "Earth Took of Earth", "view_node": "/poem/earth-took-earth", "field_author": "<a href=\"/poet/anonymous\" hreflang=\"und\">Anonymous</a>", "field_date_published": "1000", "body": " <pre>\nEarth took of earth earth with ill;\nEarth other earth gave earth with a will.\nEarth laid earth in the earth stock-still:\nThen earth in earth had of earth its fill.\n\n\n\n<b><i>Erthe Toc of Erthe</i></b><i>\n\nErthe toc of erthe erthe wyth woh,\nerthe other erthe to the earthe droh,\nerthe leyde erthe in erthene throh,\ntho hevede erthe of erthe erthe ynoh</i>.</pre>\n "}, {"title": "My Galley Charged with Forgetfulness", "view_node": "/poem/my-galley-charged-forgetfulness", "field_author": "<a href=\"/poet/thomas-wyatt\" hreflang=\"und\">Thomas Wyatt</a>", "field_date_published": "1557", "body": " <pre>\nMy galley charged with forgetfulness\n   Thorough sharp seas in winter nights doth pass\n\u00a0\u00a0\u00a0'Tween rock and rock; and eke mine enemy, alas,\n\u00a0\u00a0\u00a0That is my lord, steereth with cruelness;\nAnd every oar a thought in readiness,\n\u00a0\u00a0\u00a0As though that death were light in such a case.\n\u00a0\u00a0\u00a0An endless wind doth tear the sail apace\n\u00a0\u00a0\u00a0Of forced sighs, and trusty fearfulness\nA rain of tears, a cloud of dark disdain,\n\u00a0\u00a0\u00a0Hath done the wearied cords great hinderance;\n\u00a0\u00a0\u00a0Wreathed with error and eke with ignorance,\nThe stars be hid that led me to this pain;\n\u00a0\u00a0\u00a0Drowned is reason that should me consort,\nAnd I remain despairing of the port.</pre>\n "}, {"title": "Since brass, nor stone, nor earth, nor boundless sea (Sonnet 65)", "view_node": "/poem/brass-nor-stone-nor-earth-nor-boundless-sea-sonnet-65", "field_author": "<a href=\"/poet/william-shakespeare\" hreflang=\"und\">William Shakespeare</a>", "field_date_published": "1609", "body": "<p><span class=\"long-line\">Since brass, nor stone, nor earth, nor boundless sea</span><br /><span class=\"long-line\">But sad mortality o'er-sways their power,</span><br /><span class=\"long-line\">How with this rage shall beauty hold a plea,</span><br /><span class=\"long-line\">Whose action is no stronger than a flower?</span><br /><span class=\"long-line\">O, how shall summer's honey breath hold out</span><br /><span class=\"long-line\">Against the wreckful siege of battering days,</span><br /><span class=\"long-line\">When rocks impregnable are not so stout,</span><br /><span class=\"long-line\">Nor gates of steel so strong, but time decays?</span><br /><span class=\"long-line\">O fearful meditation! where, alack,</span><br /><span class=\"long-line\">Shall time's best jewel from time's chest lie hid?</span><br /><span class=\"long-line\">Or what strong hand can hold his swift foot back?</span><br /><span class=\"long-line\">Or who his spoil of beauty can forbid?</span><br /><span class=\"long-line\">\u00a0\u00a0\u00a0\u00a0O, none, unless this miracle have might,</span><br /><span class=\"long-line\">\u00a0\u00a0\u00a0\u00a0That in black ink my love may still shine bright.</span></p>\n"}, {"title": "It was not Death, for I stood up (510)", "view_node": "/poem/it-was-not-death-i-stood-510", "field_author": "<a href=\"/poet/emily-dickinson\" hreflang=\"und\">Emily Dickinson</a>", "field_date_published": "1890", "body": "<p><span class=\"long-line\">It was not Death, for I stood up,</span><br /><span class=\"long-line\">And all the Dead, lie down\u2014</span><br /><span class=\"long-line\">It was not Night, for all the Bells</span><br /><span class=\"long-line\">Put out their Tongues, for Noon.</span></p>\n\n<p><span class=\"long-line\">It was not Frost, for on my Flesh</span><br /><span class=\"long-line\">I felt Sirocos\u2014crawl\u2014</span><br /><span class=\"long-line\">Nor Fire\u2014for just my Marble feet</span><br /><span class=\"long-line\">Could keep a Chancel, cool\u2014</span></p>\n\n<p><span class=\"long-line\">And yet, it tasted, like them all,</span><br /><span class=\"long-line\">The Figures I have seen</span><br /><span class=\"long-line\">Set orderly, for Burial,</span><br /><span class=\"long-line\">Reminded me, of mine\u2014</span></p>\n\n<p><span class=\"long-line\">As if my life were shaven, </span><br /><span class=\"long-line\">And fitted to a frame,</span><br /><span class=\"long-line\">And could not breathe without a key,</span><br /><span class=\"long-line\">And 'twas like Midnight, some\u2014</span></p>\n\n<p><span class=\"long-line\">When everything that ticked\u2014has stopped\u2014</span><br /><span class=\"long-line\">And Space stares all around\u2014</span><br /><span class=\"long-line\">Or Grisly frosts\u2014first Autumn morns,</span><br /><span class=\"long-line\">Repeal the Beating Ground\u2014</span></p>\n\n<p><span class=\"long-line\">But, most, like Chaos\u2014Stopless\u2014cool\u2014</span><br /><span class=\"long-line\">Without a Chance, or Spar\u2014</span><br /><span class=\"long-line\">Or even a Report of Land\u2014</span><br /><span class=\"long-line\">To justify\u2014Despair.</span></p>\n"}, {"title": "Essay on Man, Epistle I [excerpt]", "view_node": "/poem/essay-man-epistle-i-excerpt", "field_author": "<a href=\"/poet/alexander-pope\" hreflang=\"und\">Alexander Pope</a>", "field_date_published": "1734", "body": " <pre>\nVI. What would this Man? Now upward will he soar,\nAnd little less than Angel, would be more;\nNow looking downwards, just as griev'd appears\nTo want the strength of bulls, the fur of bears.\nMade for his use all creatures if he call,\nSay what their use, had he the pow'rs of all?\nNature to these, without profusion kind,\nThe proper organs, proper pow'rs assign'd;\nEach seeming want compensated of course,\nHere with degrees of swiftness, there of force;\nAll in exact proportion to the state;\nNothing to add, and nothing to abate.\nEach beast, each insect, happy in its own;\nIs Heav'n unkind to Man, and Man alone?\nShall he alone, whom rational we call,\nBe pleas'd with nothing, if not bless'd with all?\n\u00a0\u00a0\u00a0The bliss of Man (could Pride that blessing find)\nIs not to act or think beyond mankind;\nNo pow'rs of body or of soul to share,\nbut what his nature and his state can bear.\nWhy has not Man a microscopic eye?\nFor this plain reason, Man is not a Fly.\nSay what the use, were finer optics giv'n,\nT' inspect a mite, not comprehend the heav'n?\nOr touch, if tremblingly alive all o'er,\nTo smart and agonize at ev'ry pore?\nOr quick effluvia darting thro' the brain,\nDie of a rose in aromatic pain?\nIf nature thunder'd in his op'ning ears,\nAnd stunn'd him with the music of the spheres,\nHow would he wish that Heav'n had left him still\nThe whisp'ring Zephyr, and the purling rill?\nWho finds not Providence all good and wise,\nAlike in what it gives, and what denies?\n\nVII. Far as Creation's ample range extends,\nThe scale of sensual, mental pow'rs ascends:\nMark how it mounts, to Man's imperial race,\nFrom the green myriads in the peopled grass:\nWhat modes of sight betwixt each wide extreme,\nthe mole's dim curtain, and the lynx's beam:\nOf smell, the headlong lioness between,\nAnd hound sagacious on the tainted green:\nOf hearing, from the life that fills the flood,\nTo that which warbles thro' the vernal wood:\nThe spider's touch, how exquisitely fine!\nFeels at each thread, and lives along the line:\nIn the nice bee, what sense so subtly true\nFrom pois'nous herbs extracts the healing dew:\nHow Instinct varies in the grov'ling swine,\nCompar'd, half-reas'ning elephant, with thine:\n'Twixt that, and Reason, what a nice barrier;\nFor ever sep'rate, yet for ever near!\nRemembrance and Reflection how ally'd;\nWhat thin partitions Sense from Thought divide:\nand Middle natures, how they long to join,\nYet never pass th' insuperable line!\nWithout this just gradation, could they be\nSubjected these to those, or all to thee?\nThe pow'rs of all subdu'd by thee alone,\nIs not thy Reason all these pow'rs in one?\n\nVIII. See, thro' this air, this ocean, and this earth,\nAll matter quick, and bursting into birth. \nAbove, how high progressive life may go!\nAround, how wide! how deep extend below!\nVast chain of being, which from God began,\nNatures \u00e6thereal, human, angel, man,\nBeast, bird, fish, insect! what no eye can see,\nNo glass can reach! from Infinite to thee,\nFrom thee to Nothing\u2014On superior pow'rs\nWere we to press, inferior might on ours:\nOr in the full creation leave a void,\nWhere, one step broken, the great scale's destroy'd:\nFrom Nature's chain whatever link you strike,\nTenth or ten thousandth, breaks the chain alike.\n\u00a0\u00a0\u00a0And if each system in gradation roll,\nAlike essential to th' amazing whole;\nThe least confusion but in one, not all\nThat system only, but the whole must fall.\nLet Earth unbalanc'd from her orbit fly,\nPlanets and Suns run lawless thro' the sky,\nLet ruling Angels from their spheres be hurl'd,\nBeing on being wreck'd, and world on world,\nHeav'n's whole foundations to their centre nod,\nAnd Nature tremble to the throne of God:\nAll this dread Order break\u2014for whom? for thee?\nVile worm!\u2014oh Madness, Pride, Impiety!\n\nIX. What if the foot, ordain'd the dust to tread,\nOr hand to toil, aspir'd to be the head?\nWhat if the head, the eye, or ear repin'd\nTo serve mere engines to the ruling Mind?\nJust as absurd for any part to claim\nTo be another, in this gen'ral frame:\nJust as absurd, to mourn the tasks or pains\nThe great directing Mind of All ordains.\n\u00a0\u00a0\u00a0All are but parts of one stupendous whole,\nWhose body Nature is, and God the soul...</pre>\n "}], "pager": {"current_page": 465, "total_items": "13248", "total_pages": 663, "items_per_page": 20}}