{"rows": [{"title": "O Autumn, Autumn!", "view_node": "/poem/o-autumn-autumn", "field_author": "<a href=\"/poet/effie-lee-newsome\" hreflang=\"en\">Effie Lee Newsome</a>", "field_date_published": "2017", "body": "<p><span class=\"long-line\">O Autumn, Autumn! O pensive light</span><br /><span class=\"long-line\">\u00a0\u00a0\u00a0\u00a0 and wistful sound!</span><br /><span class=\"long-line\">Gold-haunted sky, green-haunted ground!</span></p>\n\n<p><span class=\"long-line\">When, wan, the dead leaves flutter by</span><br /><span class=\"long-line\">\u00a0\u00a0\u00a0\u00a0 Deserted realms of butterfly!</span><br /><span class=\"long-line\">When robins band themselves together</span></p>\n\n<p><span class=\"long-line\">\u00a0\u00a0\u00a0\u00a0 To seek the sound of sun-steeped weather;</span><br /><span class=\"long-line\">And all of summer\u2019s largesse goes</span><br /><span class=\"long-line\">\u00a0\u00a0\u00a0\u00a0 For lands of olive and the rose! </span></p>\n"}, {"title": "The Bronze Legacy", "view_node": "/poem/bronze-legacy", "field_author": "<a href=\"/poet/effie-lee-newsome\" hreflang=\"en\">Effie Lee Newsome</a>", "field_date_published": "1922", "body": "<blockquote><sup><em>To a Brown Boy</em></sup></blockquote>\n\n<p><span style=\"font-size:12.0pt\"><span style=\"font-family:&quot;Times New Roman&quot;,serif\">\u2019</span></span><span class=\"long-line\">Tis a noble gift to be brown, all brown,</span><br /><span class=\"long-line\">\u00a0\u00a0\u00a0\u00a0 Like the strongest things that make up this earth,</span><br /><span class=\"long-line\">Like the mountains grave and grand,</span><br /><span class=\"long-line\">\u00a0\u00a0\u00a0\u00a0 Even like the very land,</span><br /><span class=\"long-line\">\u00a0\u00a0\u00a0\u00a0 Even like the trunks of trees\u2014</span><br /><span class=\"long-line\">\u00a0\u00a0\u00a0\u00a0 Even oaks, to be like these!</span><br /><span class=\"long-line\">God builds His strength in bronze.</span></p>\n\n<p><span class=\"long-line\">To be brown like thrush and lark!</span><br /><span class=\"long-line\">\u00a0\u00a0\u00a0\u00a0 Like the subtle wren so dark!</span><br /><span class=\"long-line\">Nay, the king of beasts wears brown;</span><br /><span class=\"long-line\">\u00a0\u00a0\u00a0\u00a0 Eagles are of this same hue.</span><br /><span class=\"long-line\">I thank God, then, I am brown.</span><br /><span class=\"long-line\">\u00a0\u00a0\u00a0\u00a0 Brown has mighty things to do.</span></p>\n"}, {"title": "Morning Light", "view_node": "/poem/morning-light", "field_author": "<a href=\"/poet/effie-lee-newsome\" hreflang=\"en\">Effie Lee Newsome</a>", "field_date_published": "2017", "body": " <p><em>(The Dew-drier)</em></p><p><em>It is a custom in some parts of Africa for travelers into the jungles to send before them in the early morning little African boys called \u201cDew-driers\u201d to brush with their bodies the dew from the high grasses\u2014and be, perchance, the first to meet the leopard\u2019s or hyena\u2019s challenge\u2014and so open the road. \u201cHuman Brooms,\u201d Dan Crawford calls them.</em></p><p>Brother to the firefly\u2014<br />For as the firefly lights the night<br />So lights he the morning\u2014<br />Bathed in the dank dews as he goes forth<br />Through heavy menace and mystery<br />Of half-waking tropic dawns,<br />Behold a little black boy, a naked black boy,<br />Sweeping aside with his slight frame<br />Night\u2019s pregnant tears,<br />And making a morning path to the light<br />For the tropic traveler!</p><p>Bathed in the blood of battle,<br />Treading toward a new morning,<br />May not his race\u2014its body long bared to the world\u2019s disdain,<br />Its face schooled to smile for a light to come\u2014<br />May not his race, even as the dew-boy leads,<br />Bear onward the world toward a new day-dawn<br />When tolerance, forgiveness,<br />Such as reigned in the heart of One<br />Whose heart was gold,<br />Shall shape the earth for that fresh dawning<br />\u00a0\u00a0\u00a0\u00a0 After the dews of blood?</p><br clear=\"all\" />"}, {"title": "The Narrow Way", "view_node": "/poem/narrow-way", "field_author": "<a href=\"/poet/anne-bronte\" hreflang=\"en\">Anne Bront\u00eb</a>", "field_date_published": "2017", "body": " <p>Believe not those who say<br />\u00a0\u00a0\u00a0\u00a0 The upward path is smooth,<br />Lest thou shouldst stumble in the way,<br />\u00a0\u00a0\u00a0\u00a0 And faint before the truth.</p><p>It is the only road<br />\u00a0\u00a0\u00a0\u00a0 Unto the realms of joy;<br />But he who seeks that blest abode<br />\u00a0\u00a0\u00a0\u00a0 Must all his powers employ.</p><p>Bright hopes and pure delights<br />\u00a0\u00a0\u00a0\u00a0 Upon his course may beam,<br />And there, amid the sternest heights<br />\u00a0\u00a0\u00a0\u00a0 The sweetest flowerets gleam.</p><p>On all her breezes borne,<br />\u00a0\u00a0\u00a0\u00a0 Earth yields no scents like those;<br />But he that dares not grasp the thorn<br />\u00a0\u00a0\u00a0\u00a0 Should never crave the rose.</p><p>Arm\u2014arm thee for the fight!<br />\u00a0\u00a0\u00a0\u00a0 Cast useless loads away;<br />Watch through the darkest hours of night,<br />\u00a0\u00a0\u00a0\u00a0 Toil through the hottest day.</p><p>Crush pride into the dust,<br />\u00a0\u00a0\u00a0\u00a0 Or thou must needs be slack;<br />And trample down rebellious lust,<br />\u00a0\u00a0\u00a0\u00a0 Or it will hold thee back.</p><p>Seek not thy honor here;<br />\u00a0\u00a0\u00a0\u00a0 Waive pleasure and renown;<br />The world\u2019s dread scoff undaunted bear,<br />\u00a0\u00a0\u00a0\u00a0 And face its deadliest frown.</p><p>To labor and to love,<br />\u00a0\u00a0\u00a0\u00a0 To pardon and endure,<br />To lift thy heart to God above,<br />\u00a0\u00a0\u00a0\u00a0 And keep thy conscience pure;</p><p>Be this thy constant aim,<br />\u00a0\u00a0\u00a0\u00a0 Thy hope, thy chief delight;<br />What matter who should whisper blame,<br />\u00a0\u00a0\u00a0\u00a0 Or who should scorn or slight?</p><p>What matter, if thy God approve,<br />\u00a0\u00a0\u00a0\u00a0 And if, within thy breast,<br />Thou feel the comfort of His love,<br />\u00a0\u00a0\u00a0\u00a0 The earnest of His rest?</p> "}, {"title": "The Captive Dove", "view_node": "/poem/captive-dove", "field_author": "<a href=\"/poet/anne-bronte\" hreflang=\"en\">Anne Bront\u00eb</a>", "field_date_published": "2017", "body": " <p>Poor restless dove, I pity thee;<br />And when I hear thy plaintive moan,<br />I mourn for thy captivity,<br />And in thy woes forget mine own.</p><p>To see thee stand prepared to fly,<br />And flap those useless wings of thine,<br />And gaze into the distant sky,<br />Would melt a harder heart than mine.</p><p>In vain\u2014in vain! Thou canst not rise<br />Thy prison roof confines thee there;<br />Its slender wires delude thine eyes,<br />And quench thy longings with despair.</p><p>Oh, thou wert made to wander free<br />In sunny mead and shady grove,<br />And far beyond the rolling sea,<br />In distant climes, at will to rove!</p><p>Yet, hadst thou but one gentle mate<br />Thy little drooping heart to cheer,<br />And share with thee thy captive state,<br />Thou couldst be happy even there.</p><p>Yes, even there, if, listening by,<br />One faithful dear companion stood,<br />While gazing on her full bright eye,<br />Thou might\u2019st forget thy native wood.</p><p>But thou, poor solitary dove,<br />Must make, unheard, thy joyless moan;<br />The heart that Nature formed to love<br />Must pine, neglected, and alone.</p> "}, {"title": "Appeal", "view_node": "/poem/appeal", "field_author": "<a href=\"/poet/anne-bronte\" hreflang=\"en\">Anne Bront\u00eb</a>", "field_date_published": "2017", "body": " <p>Oh, I am very weary,<br />\u00a0\u00a0\u00a0\u00a0 Though tears no longer flow;<br />My eyes are tired of weeping,<br />\u00a0\u00a0\u00a0\u00a0 My heart is sick of woe;</p><p>My life is very lonely,<br />\u00a0\u00a0\u00a0\u00a0 My days pass heavily,<br />I\u2019m weary of repining;<br />\u00a0\u00a0\u00a0\u00a0 Wilt thou not come to me?</p><p>Oh, didst thou know my longings<br />\u00a0\u00a0\u00a0\u00a0 For thee, from day to day,<br />My hopes, so often blighted,<br />\u00a0\u00a0\u00a0\u00a0 Thou wouldst not thus delay!</p> "}, {"title": "Lines Composed in a Wood on a Windy Day", "view_node": "/poem/lines-composed-wood-windy-day", "field_author": "<a href=\"/poet/anne-bronte\" hreflang=\"en\">Anne Bront\u00eb</a>", "field_date_published": "2017", "body": " <p>My soul is awakened, my spirit is soaring<br />\u00a0\u00a0\u00a0\u00a0 And carried aloft on the winds of the breeze;<br />For above and around me the wild wind is roaring,<br />\u00a0\u00a0\u00a0\u00a0 Arousing to rapture the earth and the seas.</p><p>The long withered grass in the sunshine is glancing,<br />\u00a0\u00a0\u00a0\u00a0 The bare trees are tossing their branches on high;<br />The dead leaves beneath them are merrily dancing,<br />\u00a0\u00a0\u00a0\u00a0 The white clouds are scudding across the blue sky.</p><p>I wish I could see how the ocean is lashing<br />\u00a0\u00a0\u00a0\u00a0 The foam of its billows to whirlwinds of spray;<br />I wish I could see how its proud waves are dashing,<br />\u00a0\u00a0\u00a0\u00a0 And hear the wild roar of their thunder to-day!</p> "}, {"title": "Alas", "view_node": "/poem/alas", "field_author": "<a href=\"/poet/walter-de-la-mare\" hreflang=\"und\">Walter de la Mare</a>", "field_date_published": "2017", "body": " <p>One moment take thy rest.<br />Out of mere nought in space<br />Beauty moved human breast<br />To tell in this far face<br />A dream in noonday seen,<br />Never to fade or pass;<br />A breath-time\u2019s mute delight;<br />A joy in flight:<br />The aught desire doth mean<br />Sighing, Alas!</p> "}, {"title": "Heavy", "view_node": "/poem/heavy", "field_author": "<a href=\"/poet/hieu-minh-nguyen\" hreflang=\"en\">Hieu Minh Nguyen</a>", "field_date_published": "2017", "body": " <p>The narrow clearing down to the river<br />I walk alone, out of breath</p><p>my body catching on each branch.<br />Small children maneuver around me.</p><p>Often, I want to return to my old body<br />a body I also hated, but hate less</p><p>given knowledge.<br />Sometimes my friends\u2014my friends</p><p>who are always beautiful &amp; heartbroken<br />look at me like they know</p><p>I will die before them.<br />I think the life I want</p><p>is the life I have, but how can I be sure?<br />There are days when I give up on my body</p><p>but not the world. I am alive.<br />I know this. Alive now</p><p>to see the world, to see the river<br />rupture everything with its light.</p> "}, {"title": "Elegy for a Year ", "view_node": "/poem/elegy-year", "field_author": "<a href=\"/poet/joseph-fasano\" hreflang=\"und\">Joseph Fasano</a>", "field_date_published": "2017", "body": " <p>Before I watched you die, I watched the dying<br />falter, their hearts curled and purring in them</p><p>like kitfoxes asleep<br />beside their shadows, their eyes pawed out by the trouble</p><p>of their hunger. I was<br />humbling, Lord, like the taxidermist\u2019s</p><p>apprentice. I said<br />yes, and amen, like the monk brushing</p><p>the barley from the vealcalf\u2019s<br />withers, the heft of it</p><p>as it leans against his cilice.\u00a0<br />Winter, I have watched the lost</p><p>lie down among their bodies, clarified<br />as the birdsong</p><p>they have hymned of.<br />I have heard the earth sing longer than the song.</p><p>Come, I said, come<br />summer, come</p><p>after: you were the bull-elk in the moonlight<br />of my threshold, knocking off the mosses from its antlers</p><p>before it backed away, bewildered, into foliage.<br />You were thin-ribbed, were hawk-</p><p>scarred, were few.\u00a0<br />Yes, amen, before I heard you giving up</p><p>your singing, you were something stumbling hunted<br />to my open door; you were thinning with the milkweed</p><p>of the river. Winter, Wintering, listen: I think of you<br />long gone now</p><p>through the valley, scissoring<br />your ancient way</p><p>through the pitch pines. Not waiting, but the great elk<br />in the dark door. Not ravens</p><p>where they stay, awhile, in furor,<br />but the lost thing backing out</p><p>among the saplings, dancing off the madness<br />of its antlers. Not stone, not cold</p><p>stone, but fire. The wild thing, musk-blooded, at my open<br />door, wakening and wakening and</p><p>wakening, migrations<br />in the blindness of its wild eyes,</p><p>saying Look at them, look at how they have to.\u00a0<br />Do something with the wildness that confounds you.</p> "}, {"title": "Children of Aleppo", "view_node": "/poem/children-aleppo", "field_author": "<a href=\"/poet/chard-deniord\" hreflang=\"und\">Chard deNiord</a>", "field_date_published": "2017", "body": " <p>The children were asking<br />a thousand questions about why<br />the sky was blue and grass was green<br />when suddenly their tongues<br />were stilled by an answer they<br />never saw. Now silence rings<br />in their place so loud a stone<br />can hear it in Arkansas.<br />So why not the men inside<br />the sky who only hear the roar<br />beneath their wings that rip<br />the clouds? Who believe the distance<br />is theirs for the way it turns<br />the heavens into a high of feeling<br />nothing at all? In which<br />they have everywhere to turn<br />as excellent pilots\u2014really<br />superb\u2014with nowhere to go.</p> "}, {"title": "Sea Garden", "view_node": "/poem/sea-garden", "field_author": "<a href=\"/poet/rosamond-s-king\" hreflang=\"en\">Rosamond S. King</a>", "field_date_published": "2017", "body": "<p><span class=\"long-line\">Dead man\u2019s fingers\u2014</span><br /><span class=\"long-line\">short and still</span><br /><span class=\"long-line\">or waving spindles</span><br /><span class=\"long-line\">brain coral,</span><br /><span class=\"long-line\">mountain coral</span><br /><span class=\"long-line\">ground small\u2014they</span><br /><span class=\"long-line\">would be pebbles</span><br /><span class=\"long-line\">if they weren\u2019t shards</span><br /><span class=\"long-line\">hiding places</span><br /><span class=\"long-line\">for trumpet</span><br /><span class=\"long-line\">fish and crabs</span><br /><span class=\"long-line\">live and dead coral</span><br /><span class=\"long-line\">What is sand made of?</span><br /><span class=\"long-line\">Who is to know</span><br /><span class=\"long-line\">which is coral</span><br /><span class=\"long-line\">and which</span><br /><span class=\"long-line\">is bone</span><br /><span class=\"long-line\">From the surface you</span><br /><span class=\"long-line\">can see dark</span><br /><span class=\"long-line\">patches where sea grass</span><br /><span class=\"long-line\">and spirit hair grow</span></p>\n"}, {"title": "Who Makes Love to Us After We Die ", "view_node": "/poem/who-makes-love-us-after-we-die", "field_author": "<a href=\"/poet/diana-marie-delgado\" hreflang=\"en\">Diana Marie Delgado</a>", "field_date_published": "2017", "body": " <p style=\"text-align: justify;\">I turn on the radio and hear horses, girls becoming women after tragedy. Talk about dreams! His heart was covered in a thin shell the color of the moon, and when touched, I\u2019d grow old. The best movies have a philosophy, Dorothy, after being subjected to witch-on-girl violence, is rescued. Someone hung himself on that set, a man, who loved, but couldn\u2019t have a certain woman. Management said it was a bird. The best movies begin with an encounter and end with someone setting someone free. In Coppola\u2019s version of Dracula my favorite scene is when the camera chases two women through a garden and watches them kiss. I made love to a man who asked, after many years, for me to choke him, so that later, cleaning a kitchen cabinet, I read a recipe he\u2019d written into wood, and I had a hard time believing him.</p> "}, {"title": "After Ch\u2019u Yuan ", "view_node": "/poem/after-chu-yuan", "field_author": "<a href=\"/poet/ezra-pound\" hreflang=\"und\">Ezra Pound</a>", "field_date_published": "2017", "body": " <p>I will get me to the wood<br />Where the gods walk garlanded in wisteria,<br />By the silver-blue flood move others with ivory cars.<br />There come forth many maidens<br />\u00a0 \u00a0 \u00a0 \u00a0 \u00a0 \u00a0 \u00a0 \u00a0 to gather grapes for the leopards, my friend.<br />For there are leopards drawing the cars.</p><p>I will walk in the glade,<br />I will come out of the new thicket<br />\u00a0 \u00a0 \u00a0 \u00a0 \u00a0 \u00a0 \u00a0 \u00a0 and accost the procession of maidens.<br />\u00a0</p> "}, {"title": "Thoughts While Walking ", "view_node": "/poem/thoughts-while-walking", "field_author": "<a href=\"/poet/maxwell-bodenheim\" hreflang=\"en\">Maxwell Bodenheim</a>", "field_date_published": "2017", "body": " <p>A steel hush freezes the trees.<br />It is my mind stretched to stiff lace,<br />And draped on high wide thoughts.</p><p>My soul is a large sallow park<br />And people walk on it, as they do on the park before me.<br />They numb my levelness with dumb feet,<br />Yet I cannot even hate them.<br />\u00a0</p> "}, {"title": "Cachexia", "view_node": "/poem/cachexia", "field_author": "<a href=\"/poet/max-ritvo\" hreflang=\"en\">Max Ritvo</a>", "field_date_published": "2017", "body": " <p>Today I woke up in my body<br />and wasn\u2019t that body anymore.<br />\u202f<br />It\u2019s more like my dog\u2014<br />for the most part obedient,<br />warming to me<br />when I slip it goldfish or toast,<br />\u202f<br />but it sheds.<br />Can\u2019t get past a simple sit,<br />stay, turn over. House-trained, but not entirely.<br />\u202f<br />This doesn\u2019t mean it\u2019s time to say goodbye.<br />\u202f<br />I\u2019ve realized the estrangement<br />is temporary, and for my own good:<br />\u202f<br />My body\u2019s work to break the world<br />into bricks and sticks<br />has turned inward.<br />\u202f<br />As all the doors in the world<br />grow heavy<br />a big white bed is being put up in my heart.</p> "}, {"title": "Resurrection", "view_node": "/poem/resurrection-0", "field_author": "<a href=\"/poet/sally-wen-mao\" hreflang=\"en\">Sally Wen Mao</a>", "field_date_published": "2017", "body": "<p><span class=\"long-line\">In the autumn I moved to New York,</span><br /><span class=\"long-line\">I recognized her face all over the subway</span><br /><span class=\"long-line\">stations\u2014pearls around her throat, she poses</span><br /><span class=\"long-line\">for her immigration papers. In 1924, the only</span><br /><span class=\"long-line\">Americans required to carry identity cards</span><br /><span class=\"long-line\">were ethnically Chinese\u2014the first photo IDs,</span><br /><span class=\"long-line\">red targets on the head of every man, woman,</span><br /><span class=\"long-line\">child, infant, movie star. Like pallbearers,</span><br /><span class=\"long-line\">they lined up to get their pictures taken: full-face</span><br /><span class=\"long-line\">view, direct camera gaze, no smiles, ears showing,</span><br /><span class=\"long-line\">in silver gelatin. A rogue\u2019s gallery of Chinese</span><br /><span class=\"long-line\">exclusion. The subway poster doesn\u2019t name</span><br /><span class=\"long-line\">her\u2014though it does mention her ethnicity,</span><br /><span class=\"long-line\">and the name of the New York Historical</span><br /><span class=\"long-line\">Society exhibition: <em>Exclusion/Inclusion</em>.</span><br /><span class=\"long-line\">Soon, when I felt alone in this city, her face</span><br /><span class=\"long-line\">would peer at me from behind seats, turnstiles,</span><br /><span class=\"long-line\">heads, and headphones, and I swear she wore</span><br /><span class=\"long-line\">a smile only I could see. Sometimes my face</span><br /><span class=\"long-line\">aligned with hers, and we would rush past</span><br /><span class=\"long-line\">the bewildered lives before us\u2014hers, gone</span><br /><span class=\"long-line\">the year my mother was born, and mine,</span><br /><span class=\"long-line\">a belt of ghosts trailing after my scent.</span><br /><span class=\"long-line\">In the same aboveground train, in the same</span><br /><span class=\"long-line\">city where slain umbrellas travel across</span><br /><span class=\"long-line\">the Hudson River, we live and live.</span><br /><span class=\"long-line\">I\u2019ve left my landline so ghosts can\u2019t dial me</span><br /><span class=\"long-line\">at midnight with the hunger of hunters</span><br /><span class=\"long-line\">anymore. I\u2019m so hungry I gnaw at light.</span><br /><span class=\"long-line\">It tunnels from the shadows, an exhausting</span><br /><span class=\"long-line\">hope. I know this hunger tormented her too.</span><br /><span class=\"long-line\">It haunted her through her years in L.A., Paris,</span><br /><span class=\"long-line\">and New York, the parties she went to, people</span><br /><span class=\"long-line\">she met\u2014Paul Robeson, Zora Neale Hurston,</span><br /><span class=\"long-line\">Langston Hughes, Gertrude Stein. It haunts</span><br /><span class=\"long-line\">her expression still, on the 6 train, Grand</span><br /><span class=\"long-line\">Central station, an echo chamber behind</span><br /><span class=\"long-line\">her eyes. But dear universe: if I can recognize</span><br /><span class=\"long-line\">her face under this tunnel of endless shadows</span><br /><span class=\"long-line\">against the luminance of all that is extinct</span><br /><span class=\"long-line\">and oncoming, then I am not a stranger here.</span></p>\n"}, {"title": "Tuesday", "view_node": "/poem/tuesday", "field_author": "<a href=\"/poet/fady-joudah\" hreflang=\"und\">Fady Joudah</a>", "field_date_published": "2017", "body": "<p>Days been dark<br />\ndon\u2019t say \u201cin these dark days\u201d<br />\ndone changed my cones and rods<br /><br />\nSometimes I\u2019m the country<br />\nother times the countryside<br /><br />\nI put my clothes back on<br />\nto take them off again</p>\n"}, {"title": "Songs to Joannes, V", "view_node": "/poem/songs-joannes-v", "field_author": "<a href=\"/poet/mina-loy\" hreflang=\"und\">Mina Loy</a>", "field_date_published": "2017", "body": " <p>Midnight empties the street<br />Of all but us<br />Three<br />I am undecided which way back<br />\u00a0\u00a0\u00a0\u00a0\u00a0\u00a0\u00a0\u00a0\u00a0\u00a0\u00a0\u00a0\u00a0\u00a0\u00a0\u00a0\u00a0\u00a0\u00a0\u00a0\u00a0\u00a0\u00a0 To the left a boy<br />\u2014One wing has been washed in the rain<br />\u00a0\u00a0\u00a0 The other will never be clean any more\u2014<br />Pulling door-bells to remind<br />Those that are snug<br />\u00a0\u00a0\u00a0\u00a0\u00a0\u00a0\u00a0\u00a0\u00a0\u00a0\u00a0\u00a0\u00a0\u00a0\u00a0\u00a0\u00a0\u00a0\u00a0\u00a0\u00a0\u00a0\u00a0 To the right a haloed ascetic<br />\u00a0\u00a0\u00a0\u00a0\u00a0\u00a0\u00a0\u00a0\u00a0\u00a0\u00a0\u00a0\u00a0\u00a0\u00a0\u00a0\u00a0\u00a0\u00a0\u00a0\u00a0\u00a0\u00a0 Threading houses<br />Probes wounds for souls<br />\u2014The poor can\u2019t wash in hot water\u2014<br />And I don\u2019t know which turning to take<br />Since you got home to yourself\u2014first</p> "}, {"title": "Heritage", "view_node": "/poem/heritage", "field_author": "<a href=\"/poet/claude-mckay\" hreflang=\"und\">Claude McKay</a>", "field_date_published": "2017", "body": " <p>Now the dead past seems vividly alive,<br />\u00a0\u00a0\u00a0 And in this shining moment I can trace,<br />Down through the vista of the vanished years,<br />\u00a0\u00a0\u00a0 Your faun-like form, your fond elusive face.</p><p>And suddenly some secret spring\u2019s released,<br />\u00a0\u00a0\u00a0 And unawares a riddle is revealed,<br />And I can read like large, black-lettered print,<br />\u00a0\u00a0\u00a0 What seemed before a thing forever sealed.</p><p>I know the magic word, the graceful thought,<br />\u00a0\u00a0\u00a0 The song that fills me in my lucid hours,<br />The spirit\u2019s wine that thrills my body through,<br />\u00a0\u00a0\u00a0 And makes me music-drunk, are yours, all yours.</p><p>I cannot praise, for you have passed from praise,<br />\u00a0\u00a0\u00a0 I have no tinted thoughts to paint you true;<br />But I can feel and I can write the word;<br />\u00a0\u00a0\u00a0 The best of me is but the least of you.<br />\u00a0</p> "}], "pager": {"current_page": 318, "total_items": "13248", "total_pages": 663, "items_per_page": 20}}