{"rows": [{"title": "Willow", "view_node": "/poem/willow", "field_author": "<a href=\"/poet/jane-shore\" hreflang=\"und\">Jane Shore</a>", "field_date_published": "2012", "body": " <pre>\nIt didn't weep the way a willow should.\nPlanted all alone in the middle of the field\nby the bachelor who sold our house to us,\nshoulder height when our daughter was born,\nit grew eight feet a year until it blocked\nthe view through the first-, then the second-\nstory windows, its straggly canopy obstructing\nour sunrise and moonrise over Max Gray Road.\nI gave it the evil eye, hoping lightning\nwould strike it, the way a bolt had split\nthe butternut by the barn. And if leaf blight\nor crown gall or cankers didn\u2019t kill it, then\nI'd gladly pay someone to chop it down.\nMy daughter said no, she loved that tree,\nand my husband agreed. One wet Sunday\u2014\nthe rainiest July since 1885\u2014\nhusband napping, daughter at a matinee\nin town\u2014a wind shear barreled up the hill\nso loud I glanced up from my mystery\nthe moment the willow leaned, bowed,\nand fell over flat on its back, roots and all,\nsplayed on the ground like Gulliver.\nThe house shook, just once.\nLater, when the sun came out, neighbors\ncame to gawk; they chain-sawed thicker\nbranches, wrapped chains around the trunk,\ntheir backhoe ripped out pieces of stump\nand root as if extracting a rotten tooth.\nI'm not sorry that tree is gone. No one\never sat under it for shade or contemplation.\nYet spring after spring it reliably leafed out.\nIt was always the last to lose its leaves\nin fall. It should have died a decade ago\nfor all the grief I gave it, my dirty looks\napparently the fuel on which it thrived.\nIt must have done its weeping in private.\nBut now I can see the slope of the hill.\nDid my wishful thinking cast a spell?\nI was the only one on earth who saw it fall.</pre>\n "}, {"title": "Slur", "view_node": "/poem/slur", "field_author": "<a href=\"/poet/jacek-gutorow\" hreflang=\"und\">Jacek Gutorow</a>", "field_date_published": "2012", "body": " <pre>\nThe problem with boundaries: in the blink of an eye a dozen crows\nlose their individuality and become a flock. Same as now:\nfrayed seconds disappear into quarters\nthat transfer their worth into the afternoon's account.\nTime flows but space isn't any worse:\nthe flock of crows cuts the sky diagonally.\nIt's as if a new continent were emerging\nto greet halfway the nascent cartographers\nand their dreams. Sooner or later the flock will break up\ninto birds. The sea will crumble into waves.\nThe waves into drops. A delicate afternoon will be calculable\nlike harvested grain. The room will resemble\na clock without hands.</pre>\n "}, {"title": "Purism", "view_node": "/poem/purism", "field_author": "<a href=\"/poet/vona-groarke\" hreflang=\"und\">Vona Groarke</a>", "field_date_published": "2011", "body": " <pre>\nThe wind orchestrates\nits theme of loneliness\nand the rain\nhas too much glitter in it, yes.\n\nThey are like words, the wrong ones,\ninsisting I listen to sense.\nBut I too am obstinate.\n\nI have white walls,\nwhite curtained windows.\nWhat need have I\nof the night's jet-black,\noutlandish ornament?\n\nWhat I am after\nis silence\nin proportion\nto desire,\n\nthe way music plumbs\nits surfaces\nas straight words do\nthe air between them.\n\nI begin to learn\nthe simple thing\n\nburning through\nto an impulse at once lovely\nand given to love\n\nthat will not be refused.</pre>\n "}, {"title": "Guessing My Death [excerpt]", "view_node": "/poem/guessing-my-death-excerpt", "field_author": "<a href=\"/poet/caconrad\" hreflang=\"und\">  CAConrad</a>", "field_date_published": "2012", "body": " <pre>\n<b>1</b>\n\nby choking in\n11 years\n4 months\n2 weeks\n6 days\n12:18 pm\n\n\u00a0\u00a0\u00a0\u00a0\u00a0\u2014\u2014\u2014\n\nwhen i win the lottery\ni want my legs amputated\nand two beautiful peg legs\nwooden of course\n\nFrank Sherlock says it's\na very bad idea\nhe says i should\nreconsider\nseriously\nreconsider\n\ni want peg legs but\nhe says i'll regret it\nhe might be right\nbut what i really\nwant is to have my\nreal legs (the ones\ni don't want)\ncremated because\nwhat i really want\nis to scatter\nmy own\nashes\n\ni thought about getting\nliposuction and having\nthe fat cremated\nbut it's not\nthe same\nbecause i can\neat more\ndelicious\ndoughnuts and\ngrow it back\n\nit doesn't count\n\nit HAS to be\nsomething\nmissing for\ngood you\nknow\n\nbut to\nspread my\nown ashes is something\ni love thinking about\nand the cheerful\nsound of my\npeg legs on\nPhiladelphia\nsidewalks</pre>\n "}, {"title": "Granada Sings Whitman", "view_node": "/poem/granada-sings-whitman", "field_author": "<a href=\"/poet/nathalie-handal\" hreflang=\"und\">Nathalie Handal</a>", "field_date_published": "2012", "body": " <pre>\nBy the river Genil\nlovers sing what belongs to the water,\na shoemaker sings the dream he had,\nhis helper the dream he didn't,\na man sings to the woman\non the broken mattress,\ndeath at midday sings,\non the banks of the Darro\na blind thief\ncollecting golden poplars sings,\nand so does the crevice of quivers,\nthe saints flaming in la Sierra\nand the men rehearsing a country.\nThey know nothing stays,\nbut when Whitman sings\u2014\nthey allow his voice\nto take them apart.</pre>\n "}, {"title": "Structure \u2014 Masolino&#039;s Eve \u2014 The Female Snake", "view_node": "/poem/structure-masolinos-eve-female-snake", "field_author": "<a href=\"/poet/annah-sobelman\" hreflang=\"und\">&#039;Annah Sobelman</a>", "field_date_published": "2012", "body": " <pre>\n: ~ a springy fire set inside pear prickles the vocative , a <i>now</i> bubble now that's a thing\n\nyour nervous system might have been one of the paths on the Tree on earth , oddly like as\nnight where she was <i>musing , under sap</i> , blazed in here , hushed in under cover of , ,\n: ~ a springy fire sets arm in arm on the athlete sea of interpretation bushes\n\nwhere the moon was waxing under sap , here we make up the <i>arbornauts</i>\ntravelling around the islands\nand the <i>forests-of-summers amateurs</i> we called ourselves\n\n~ a <i>forno</i> with which to scratch her nickname , soften a groove\ninto a belt trout pan , her initials into how a highway feels ; ~\n\n: ~ taking space out hanging it up along the clotheslines in that hour of the trees\n\n: ~ the Brancacci chapel winds might have been one of the paths of the tree\nBlazed in here , hushed in here under cover of painting : ~\n\nThe springy fire set by one long experience on earth , ,\n\nOn earth , through that roar gap makes through trees ' velvet amateurs\n\n: ~ no longer ashamed to be a tree-like belly the <i>I</i> is laid upon , as if emblazoned\nin vowels it must be the poise of the Linden leaves he is swimming with\n\n: ~ it might have been a structural tense upbraiding in and out of\nher saying <i>what is the plural of one</i>\nthat on their lapping undersides snake eggs lay their little heads \u2014\u2014</pre>\n "}, {"title": "Making Shelves", "view_node": "/poem/making-shelves", "field_author": "<a href=\"/poet/d-nurkse\" hreflang=\"und\">D. Nurkse</a>", "field_date_published": "2012", "body": " <pre>\nIn that lit window in Bushwick\nhalfway through the hardest winter\nI cut plexiglass on a table saw,\ncoaxing the chalked taped pane\ninto the absence of the blade,\nworking to such fine tolerance\nthe kerf abolished the soft-lead line.\nI felt your eyes play over me\nbut did not turn\u2014dead people\nwere not allowed in those huge factories.\nI bargained: when the bell rang\nI would drink with you on Throop\nunder the El, quick pint of Night Train\nbut you said no. Blood jumped\n\nfrom my little finger, power\nsnapped off, voices summoned me\nby name, but I waved them back\nand knelt to rule the next line.</pre>\n "}, {"title": "The Practice", "view_node": "/poem/practice-0", "field_author": "<a href=\"/poet/aaron-shurin\" hreflang=\"und\">Aaron Shurin</a>", "field_date_published": "2012", "body": " <p>They mistook me for illumination \u2014 a revenant in walking shoes \u2014 so I gathered significance and spread text... stood beneath the seven cardinal points with arms upraised \u2014 practical telepathy \u2014 in a white paper suit like a flag of surrender, thunder at my back... I was an open man of the open streets \u2014 a burnished sieve of common purpose \u2014 scrawled on walls, thrashed cans and blasted caps for equivalence. I wasn't alone \u2014 the boulevards teemed with wiggly kids and mooing parents slow as boulders. In the Plaza Palabra on a green iron bench a grand senora suffered the odes of schoolboys and thugs \u2014 smiled behind an opal fan while they searched for words to match their tumultuous nights \u2014 and all words fit... In July \u2014 volubility \u2014 I hoarded cherries, catalogued their juices \u2014 were they Rainier, Blood Nut, Royal Ann, Squirrel Heart, Rosebud or Bing? \u2014then swallowed them one by one like detonations...initiations...In a fever of taxonomy I followed a squadron of dragonflies right to the vanishing point...Incarnation is a provisional state, but stretches outward like noon. For practice, I wallowed and stretched...</p> "}, {"title": "You and Your Ilk", "view_node": "/poem/you-and-your-ilk", "field_author": "<a href=\"/poet/thomas-lux\" hreflang=\"und\">Thomas Lux</a>", "field_date_published": "2012", "body": " <pre>\nI have thought much upon\nwho might be my ilk,\nand that I am ilk myself if I have ilk.\nIs one of my ilk, or me, the barber\nwho cuts the hair of the blind?\nAnd the man crushed by cruelties\nfor which we can't imagine sorrow,\nwho would be his ilk?\nAnd whose ilk was it\nstanding around, hands in pockets, May 1933,\nwhen 2,242 tons of books were burned?\nNot mine. So: what makes my ilkness my\nilkness? No answers, none forthcoming.\nTo be one of the ilks, that's all\nI hoped for; to say hello to the mailman,\nnod to my neighbors, to watch\nmy children climb the stairs of a big yellow bus\nwhich takes them to a place\nwhere they learn to read\nand write and eat their lunches\nfrom puzzle trays\u2014all around them, amid\nthe clatter and din,\namid bananas, bread, and milk.\nall around them: them and their ilk.</pre>\n "}, {"title": "Glass House", "view_node": "/poem/glass-house", "field_author": "<a href=\"/poet/heather-mchugh\" hreflang=\"und\">Heather McHugh</a>", "field_date_published": "2012", "body": "<p><span class=\"\u201clong-line\u201d\">Everything obeyed our laws and</span><br /><span class=\"long-line\">we just went on self-improving</span><br /><span class=\"long-line\">till a window gave us pause and</span><br /><span class=\"long-line\">there the outside world was, moving.</span></p>\n\n<p><span class=\"\u201clong-line\u201d\">Five apartment blocks swept by,</span><br /><span class=\"long-line\">the trees and ironwork and headstones</span><br /><span class=\"long-line\">of the next town's cemetery.</span><br /><span class=\"long-line\">Auto lots. Golf courses. Rest homes.</span><br /><span class=\"long-line\">Blue-green fields and perishable vistas</span><br /><span class=\"long-line\">wars had underscored in red</span><br /><span class=\"long-line\">were sweeping past,</span><br /><span class=\"long-line\">with cloudscapes, just</span></p>\n\n<p><span class=\"\u201clong-line\u201d\">as if the living room were dead.</span><br /><span class=\"long-line\">Which way to look? Nonnegative?</span><br /><span class=\"long-line\">Nonplussed? (Unkilled? Unkissed?)</span><br /><span class=\"long-line\">Look out, you said; the sight's on us:</span></p>\n\n<p><span class=\"\u201clong-line\u201d\">If we don't move, we can't be missed.</span></p>\n"}, {"title": "Oarlock, Oar (Y, W, V, U, F)", "view_node": "/poem/oarlock-oar-y-w-v-u-f", "field_author": "<a href=\"/poet/katrina-vandenberg\" hreflang=\"und\">Katrina Vandenberg</a>", "field_date_published": "2012", "body": " <pre>\nstill I hail from smokestacks girders closed\n\nfactories McLouth Steel\u2019s poured slag turning the night\n\nsky and black river orange the tight typeface of houses\n\nin River Rouge Wyandotte the steel and auto tribes\n\ntribe of the alphabet job shops the fathers who set\n\ncutting tools on screw machines to make in multiples\n\nin sixes packets of ear plugs the men made deaf shift\n\nchanges at three the line must never stop nothing could\n\nnot mothers who taught us the alphabet shapes\n\nof oxen boats houses camels letters row on row\n\nto prop us up row the ideas forward the spear\n\nthe snake the needle tooth <i>Y W V U</i> and <i>F</i>\n\nall hailing from the same tribe the same hieroglyph father\n\n<i>oar</i> or <i>oarlock</i> depending the alphabet not unlike\n\nthe world we lived in once we lived there the letters\n\ntrundled forth on their tracks boxcars shaking full\n\nof gleaming two-doors leather seats body by Fisher\n\nand yes I hail from unbeautiful artifice things\n\nthat made us late (barred tracks flashed lights opened\n\nbridges) a tribe of shipbuilders iron ore taconite men\n\nwhose hands would not wash clean the machinery\n\nand the machinery of the river the made <i>thing</i>\n\nmore important than we were the things themselves\n\nnot the idea of them I thought the letters books\n\na different place the books were not the way\n\nout but in the letters embodying mirroring making what is\n\nthe oarlock what the oar still I hail from the Grosse Ile crew\n\nteam pulling on the river before school matching letter\n\njackets forgotten on the dock the catch release their blades</pre>\n "}, {"title": "Kingdom Animalia", "view_node": "/poem/kingdom-animalia", "field_author": "<a href=\"/poet/aracelis-girmay\" hreflang=\"und\">Aracelis Girmay</a>", "field_date_published": "2012", "body": " <pre>\nWhen I get the call about my brother,\nI'm on a stopped train leaving town\n&amp; the news packs into me\u2014freight\u2014\nthough it's him on the other end\nnow, saying <i>finefine</i>\u2014\n\nForfeit my eyes, I want to turn away\nfrom the hair on the floor of his house\n&amp; how it got there Monday,\nbut my one heart falls\nlike a sad, fat persimmon\ndropped by the hand of the Turczyn's old tree.\n\nI want to sleep. I do not want to sleep. See,\n\none day, not today, not now, we will be gone\nfrom this earth where we know the gladiolas.\nMy brother, this noise,\nsome love [you] I loved\nwith all my brain, &amp; breath,\nwill be gone; I've been told, today, to consider this\nas I ride the long tracks out &amp; dream so good\n\nI see a plant in the window of the house\nmy brother shares with his love, their shoes. &amp; there\nhe is, asleep in bed\nwith this same woman whose long skin\ncovers all of her bones, in a city called Oakland,\n&amp; their dreams hang above them\na little like a chandelier, &amp; their teeth\nflash in the night, oh, body.\n\nOh, body, be held now by whom you love.\nWhole years will be spent, underneath these impossible stars,\nwhen dirt's the only animal who will sleep with you\n&amp; touch you with\nits mouth.</pre>\n "}, {"title": "Gather", "view_node": "/poem/gather", "field_author": "<a href=\"/poet/rose-mclarney\" hreflang=\"und\">Rose McLarney</a>", "field_date_published": "2012", "body": " <pre>\nSome springs, apples bloom too soon.\nThe trees have grown here for a hundred years, and are still quick\nto trust that the frost has finished. Some springs,\npink petals turn black. Those summers, the orchards are empty\nand quiet. No reason for the bees to come.\n\nOther summers, red apples beat hearty in the trees, golden apples\nglow in sheer skin. Their weight breaks branches,\nthe ground rolls with apples, and you fall in fruit.\n\nYou could say, <i>I have been foolish</i>. You could say, <i>I have been fooled</i>.\nYou could say, <i>Some years, there are apples</i>.</pre>\n "}, {"title": "Useless Landscape", "view_node": "/poem/useless-landscape", "field_author": "<a href=\"/poet/d-powell\" hreflang=\"und\">D. A. Powell</a>", "field_date_published": "2012", "body": "<p><span class=\"long-line\">A lone cloudburst hijacked the Doppler radar screen, a bandit</span><br /><span class=\"long-line\">hung from the gallows, in rehearsal for the broke-necked man,</span><br />\ndamn him, tucked under millet in the potter's plot. Welcome<br /><span class=\"long-line\">to disaster's alkaline kiss, its little clearing edged with twigs,</span><br /><span class=\"long-line\">and posted against trespass. Though finite, its fence is endless.</span></p>\n\n<p><span class=\"long-line\">Lugs of prune plums already half-dehydrated. Lugged toward</span><br /><span class=\"long-line\">shelf life and sorry reconstitution in somebody's eggshell kitchen.</span><br /><span class=\"long-line\">If you hear the crop-dust engine whining overhead, mind</span><br /><span class=\"long-line\">the orange windsock's direction, lest you huff its vapor trail.</span><br /><span class=\"long-line\">Scurry if you prefer between the lime-sulphured rows, and cull</span><br /><span class=\"long-line\">from the clods and sticks, the harvest shaker's settling.</span></p>\n\n<p><span class=\"long-line\">The impertinent squalls of one squeezebox vies against another</span><br /><span class=\"long-line\">in ambling pick-ups. The rattle of dice and spoons. The one caf\u00e9</span><br /><span class=\"long-line\">allows a patron to pour from his own bottle. Special: tripe today.</span><br /><span class=\"long-line\">Goat's head soup. Tortoise-shaped egg bread, sugared pink.</span><br /><span class=\"long-line\">The darkness doesn't descend, and then it descends so quickly</span><br /><span class=\"long-line\">it seems to seize you in burly arms. I've been waiting all night</span><br /><span class=\"long-line\">to have this dance. Stay, it says. Haven't touched your drink.</span></p>\n"}, {"title": "Intimacy", "view_node": "/poem/intimacy", "field_author": "<a href=\"/poet/paisley-rekdal\" hreflang=\"und\">Paisley Rekdal</a>", "field_date_published": "2012", "body": " <pre>\nHow horrible it is, how horrible\nthat Cronenberg film where Goldblum's trapped\n\nwith a fly inside his Material\nTransformer: bits of the man emerging\n\ngooey, many-eyed; bits of the fly\nworrying that his agent's screwed him\u2013\n\nI almost flinch to see the body later\nthat's left its fly in the corner, I mean\n\nthe fly that's left its body, recalling too\nthat medieval nightmare, Resurrection,\n\nin which each soul must scurry\nto rejoin the plush interiors of its flesh,\n\npushing through, marrying indiscriminately\nbecause Heaven won't take what's only half:\n\none soul blurring forever\ninto another body.\n\nIf we can't know the boundaries between ourselves\nin life, what will they be in death,\n\ncorrupted steadily by maggot,\nrain or superstition, by affection\n\nthat depends on memory to survive?\nPeople should keep their hands to themselves\n\nfor the remainder of the flight: who needs\nsome stranger's waistline, joint\n\nproblems or insecurities? Darling,\nwhat I love in you I pray will always stay\n\nthe hell away from me.</pre>\n "}, {"title": "On Silence", "view_node": "/poem/silence-3", "field_author": "<a href=\"/poet/r-zamora-linmark\" hreflang=\"und\">R. Zamora Linmark</a>", "field_date_published": "2012", "body": " <pre>\nIs it the Garcia Lorca kind\nfaithful as a cricket's\ntune about a boy fishing\nin a pool of rainwater\nfor his lost voice\npraying it'll sing back\nso he can wear it\non his finger again\nlike a wedding ring?\n\nMaybe it's the anti-parakeet\nNicanor Parra kind\nremorseful as a memoir\nthat survived four wars\nhalf a dozen sexually\ntransmitted depressions\ninsomnia-\ninspired hallucinations\nand a dedication to\nits remaining readers\nlast count forty-five\nasking them to burn each page\nupon reading memories\nit had tried to capture\n\nunless it's the Paz kind\nnot Paz-be-with-you of olden\ndays difficult now\nto digest Paz or any Zense\nof peace without Belano or Bola\u00f1o\npearly-gate-crashing in an Impala\nslingshooting saints out\nof their poses harping\non angels reciting bad poetry\naloud anything to disturb\nthe last of the angry gods'\nsiesta atop a mountain of ashes\nonce rich without meaning.</pre>\n "}, {"title": "Pacific Slope", "view_node": "/poem/pacific-slope", "field_author": "<a href=\"/poet/stephen-motika\" hreflang=\"und\">Stephen Motika</a>", "field_date_published": "2012", "body": " <pre>\nshoals\u00a0\u00a0\u00a0in sparked night\nreal creatures crushed by\n                                         \n\u00a0\u00a0\u00a0\u00a0\u00a0\u00a0\u00a0\u00a0\u00a0\u00a0\u00a0\u00a0\u00a0\u00a0\u00a0\u00a0\u00a0\u00a0\u00a0\u00a0\u00a0\u00a0\u00a0\u00a0\u00a0\u00a0\u00a0\u00a0\u00a0\u00a0\u00a0\u00a0\u00a0\u00a0\u00a0heated hunter\n\u00a0\u00a0\u00a0\u00a0\u00a0\u00a0\u00a0\u00a0\u00a0\u00a0\u00a0\u00a0\u00a0\u00a0\u00a0\u00a0\u00a0\u00a0\u00a0\u00a0\u00a0\u00a0\u00a0\u00a0\u00a0\u00a0\u00a0\u00a0\u00a0\u00a0\u00a0\u00a0\u00a0\u00a0\u00a0\u00a0\u00a0\u00a0\u00a0\u00a0\u00a0\u00a0\u00a0\u00a0\u00a0\u00a0gathers me, in long stocking\n\npearlescent, feasting\n\u00a0\u00a0\u00a0\u00a0\u00a0\u00a0\u00a0\u00a0\u00a0\u00a0\u00a0\u00a0\u00a0\u00a0\u00a0\u00a0\u00a0\u00a0\u00a0\u00a0\u00a0\u00a0\u00a0\u00a0\u00a0\u00a0\u00a0\u00a0\u00a0\u00a0\u00a0\u00a0\u00a0\u00a0\u00a0\u00a0\u00a0\u00a0\u00a0\u00a0\u00a0\u00a0\u00a0\u00a0\u00a0\u00a0salty heat of\nabalone\n\u00a0\u00a0\u00a0\u00a0\u00a0\u00a0\u00a0\u00a0\u00a0\u00a0stewed in derelict measure\n\nclimbed, naked, on board\n\u00a0\u00a0\u00a0\u00a0\u00a0\u00a0\u00a0\u00a0\u00a0\u00a0\u00a0\u00a0\u00a0\u00a0\u00a0\u00a0\u00a0\u00a0\u00a0\u00a0\u00a0\u00a0\u00a0\u00a0\u00a0\u00a0\u00a0\u00a0\u00a0\u00a0\u00a0\u00a0\u00a0\u00a0\u00a0\u00a0\u00a0\u00a0\u00a0\u00a0\u00a0\u00a0\u00a0\u00a0\u00a0\u00a0each body, a mosaic in sand\n\ndrift, sea rind, carapace in hand\n\u00a0\u00a0\u00a0\u00a0\u00a0\u00a0\u00a0\u00a0\u00a0\u00a0\u00a0\u00a0\u00a0\u00a0\u00a0\u00a0\u00a0\u00a0\u00a0\u00a0\u00a0\u00a0\u00a0\u00a0\u00a0\u00a0\u00a0\u00a0\u00a0\u00a0\u00a0\u00a0\u00a0\u00a0\u00a0\u00a0\u00a0\u00a0\u00a0\u00a0\u00a0\u00a0\u00a0\u00a0\u00a0\u00a0to which we, a fire\n\nred carved, each tissue ripped from small purse\n\u00a0\u00a0\u00a0\u00a0\u00a0\u00a0\u00a0\u00a0\u00a0\u00a0\u00a0\u00a0\u00a0\u00a0\u00a0\u00a0\u00a0\u00a0\u00a0\u00a0\u00a0\u00a0\u00a0\u00a0\u00a0\u00a0\u00a0\u00a0\u00a0\u00a0\u00a0\u00a0\u00a0\u00a0\u00a0\u00a0\u00a0\u00a0\u00a0\u00a0\u00a0\u00a0\u00a0\u00a0\u00a0\u00a0\u00a0\u00a0\u00a0\u00a0\u00a0\u00a0\u00a0\u00a0tessellated surface\n\u00a0\u00a0\u00a0\u00a0\u00a0\u00a0\u00a0\u00a0\u00a0\u00a0talus shade\n\n\n\u00a0\u00a0\u00a0\u00a0\u00a0\u00a0\u00a0\u00a0\u00a0\u00a0\u00a0\u00a0\u00a0\u00a0\u00a0\u00a0\u00a0in tears</pre>\n "}, {"title": "Untitled [Tracks carve through Florida florid wetlands]", "view_node": "/poem/untitled-tracks-carve-through-florida-florid-wetlands", "field_author": "<a href=\"/poet/megan-kaminski\" hreflang=\"und\">Megan Kaminski</a>", "field_date_published": "2012", "body": " <pre>\nTracks carve through Florida florid wetlands\nwilderness breaks down my estuarial intent\n\u00a0\u00a0\u00a0\u00a0\u00a0\u00a0\u00a0\u00a0he fell in love with the s-curve of her neck to spine\n\u00a0\u00a0\u00a0\u00a0\u00a0\u00a0\u00a0\u00a0\u00a0\u00a0\u00a0\u00a0\u00a0\u00a0\u00a0\u00a0\u00a0\u00a0\u00a0\u00a0\u00a0\u00a0\u00a0\u00a0\u00a0\u00a0\u00a0\u00a0\u00a0\u00a0\u00a0\u00a0\u00a0\u00a0\u00a0\u00a0\u00a0\u00a0\u00a0\u00a0\u00a0\u00a0\u00a0\u00a0\u00a0\u00a0\u00a0\u00a0simple mathematics\n\u00a0\u00a0\u00a0\u00a0\u00a0\u00a0\u00a0\u00a0could explain the reappearance of other things too\ndo we all dream of swash-buckling adventures \nand text anxiety   mothers sharpening knives\nlet's track green dots on trees\nour own operation of marking up boundaries\ndiscern the legibility of protons and casual time\nshadows of moths passing between light\nspread across your sleeping face</pre>\n "}, {"title": "Self-Portrait", "view_node": "/poem/self-portrait-0", "field_author": "<a href=\"/poet/ira-sadoff\" hreflang=\"und\">Ira Sadoff</a>", "field_date_published": "2012", "body": " <pre>\nI sniff after the sparrow and the spaniel, flitting around,\nbarking, digging up the dirt: how could I not be\nat one with them? But I'm a spendthrift too, rummaging about\n\nold sport coats, selecting a style, a clash of styles\u2014\nin a private moment trying to decide who I am today by trying on\nsomething discarded, something nobody treasured\u2014\n\nI think I want everyone and everything to be loved so much\nI get dour, chastising, dark, and sometimes hate\nso much I can't go for a stroll without recycling the moment\n\nthey dropped acid on my palm, the thousand ways I could ease\ntheir demise\u2014dipping them into a river of invective\nthat seems futile and enticing\u2014whether it\u2019s the Secretary of State\n\nor a species of white shirts and thin black ties who exude smugness,\nwho quote from the bible as if it were the Bible. It's like having an affair\u2014\nthey all end badly, don't they?\u2014thereby the passion flies out of me\n\nlike an open window in February: take the heat, world,\ndisperse it before I undress another thought.</pre>\n "}, {"title": "The Surprise", "view_node": "/poem/surprise", "field_author": "<a href=\"/poet/lola-haskins\" hreflang=\"und\">Lola Haskins</a>", "field_date_published": "2012", "body": " <pre>\n\u00a0\u00a0\u00a0\u00a0\u00a0\u00a0\u00a0\u00a0\u00a0\u00a0\u00a0\u00a0\u00a0\u00a0\u00a0\u00a0\u00a0<i>St. Augustine</i>\n\n\nLight shafts down on \nthe assembled congregation of sails \n\nbillows my shirt\u00a0\u00a0\u00a0\u00a0\u00a0\u00a0sends me to where thin countries \nstretch like needles\u00a0\u00a0\u00a0\u00a0to a low and distant shore \n\nfrom which\u00a0\u00a0\u00a0\u00a0suddenly\u00a0\u00a0\u00a0\u00a0\u00a0canoes appear</pre>\n "}], "pager": {"current_page": 446, "total_items": "13248", "total_pages": 663, "items_per_page": 20}}