{"rows": [{"title": "Habit", "view_node": "/poem/habit", "field_author": "<a href=\"/poet/hazel-hall\" hreflang=\"und\">Hazel Hall</a>", "field_date_published": "1921", "body": "<p>Last night when my work was done,<br />\nAnd my estranged hands<br />\nWere becoming mutually interested<br />\nIn such forgotten things as pulses,<br />\nI looked out of a window<br />\nInto a glittering night sky.<br /><br />\nAnd instantly<br />\nI began to feather-stitch a ring around the moon.</p>\n"}, {"title": "The Line-Gang", "view_node": "/poem/line-gang", "field_author": "<a href=\"/poet/robert-frost\" hreflang=\"und\">Robert Frost</a>", "field_date_published": "1916", "body": " <p>Here come the line-gang pioneering by.<br />They throw a forest down less cut than broken.<br />They plant dead trees for living, and the dead<br />They string together with a living thread.<br />They string an instrument against the sky<br />Wherein words whether beaten out or spoken<br />Will run as hushed as when they were a thought<br />But in no hush they string it: they go past<br />With shouts afar to pull the cable taut,<br />To hold it hard until they make it fast,<br />To ease away\u2014they have it. With a laugh,<br />An oath of towns that set the wild at naught<br />They bring the telephone and telegraph.</p> "}, {"title": "My Brook", "view_node": "/poem/my-brook", "field_author": "<a href=\"/poet/helen-hay-whitney\" hreflang=\"en\">Helen Hay Whitney</a>", "field_date_published": "1898", "body": " <p>Earth holds no sweeter secret anywhere<br />Than this my brook, that lisps along the green<br />Of mossy channels, where slim birch trees lean<br />Like tall pale ladies, whose delicious hair,<br />Lures and invites the kiss of wanton air.<br />The smooth soft grasses, delicate between<br />The rougher stalks, by waifs alone are seen,<br />Shy things that live in sweet seclusion there.<br /><br />And is it still the same, and do the eyes<br />Of every silver ripple meet the trees<br />That bend above like guarding emerald skies?<br />I turn, who read the city\u2019s beggared book,<br />And hear across the moan of many seas<br />The whisper and the laughter of my brook.</p> "}, {"title": "My Yoko Ono Moment", "view_node": "/poem/my-yoko-ono-moment", "field_author": "<a href=\"/poet/david-trinidad\" hreflang=\"und\">David Trinidad</a>", "field_date_published": "2014", "body": " <p><em>for Nick Twemlow</em><br /><br />It\u2019s annoying<br />how much<br />junk mail<br />comes through<br />the slot<br />&amp; accumulates<br />at the foot<br />of the stairs<br /><br />mostly menus<br />from restaurants<br />in the neighborhood<br /><br />endlessly<br />coming through<br />the slot<br /><br />despite the sign<br />we put on the door:<br /><em>No Advertisements<br />No Solicitors</em><br /><br />One night<br />I scoop up the whole pile<br />on my way out<br />(as I do periodically)<br />&amp; dump it<br />in the trash can<br />on the corner<br />of West Broadway &amp; Spring<br /><br />just as Yoko Ono<br />happens to be strolling<br />through SoHo<br />with a male companion<br /><br />She watches me<br />toss the menus<br /><br />then turns to her friend<br />&amp; says, \u201cI guess<br />no one reads those.\u201d</p> "}, {"title": "Flight 214", "view_node": "/poem/flight-214", "field_author": "<a href=\"/poet/sally-bliumis-dunn\" hreflang=\"en\">Sally Bliumis-Dunn</a>", "field_date_published": "2014", "body": " <p>The news is still falling<br />in our kitchen<br />like invisible rain<br /><br />as we eat the pink salmon,<br />the lettuce, the mashed potatoes.<br /><br />Because now everything<br />glistens. The candles, the soft<br /><br />folds of red napkins<br />each in its place,<br /><br />as though it all were sacred\u2014<br />the rain<br />must still be falling.<br /><br /><em>Not me, not anyone I know.</em><br /><br />Earlier in the day, the terrible<br />news lifted too easily,<br /><br />a cheap Mylar balloon<br />cut loose\u2014a tinny flash.<br /><br />Couldn\u2019t even tell its color<br />against the sky.</p> "}, {"title": "Stilling to North", "view_node": "/poem/stilling-north", "field_author": "<a href=\"/poet/arthur-sze\" hreflang=\"und\">Arthur Sze</a>", "field_date_published": "2014", "body": " <p>Just as a blue tip of a compass needle<br />stills to north, you stare at a pencil<br /><br />with sharpened point, a small soapstone<br />bear with a tiny chunk of turquoise<br /><br />tied to its back, the random pattern<br />of straw flecked in an adobe wall;<br /><br />you peruse the silver poplar branches,<br />the spaces between branches, and as<br /><br />a cursor blinks, situate at the edge<br />of loss\u2014the axolotl was last sighted<br /><br />in Xochimilco over twenty years ago;<br />a jaguar meanders through tawny<br /><br />brush in the Gila Wilderness\u2014<br />and, as the cursor blinks, you guess<br /><br />it\u2019s a bit of line that arcs\u2014a parsec<br />made visible\u2014and as you sit,<br /><br />the imperfections that mark you<br />attune you to a small emptied flask<br /><br />tossed to the roadside and the x,<br />never brewed, that throbs in your veins.</p> "}, {"title": "The Pink Crosses", "view_node": "/poem/pink-crosses", "field_author": "<a href=\"/poet/amanda-auchter\" hreflang=\"en\">Amanda Auchter</a>", "field_date_published": "2014", "body": " <p><em>Ciudad Ju\u00e1rez, Mexico</em><br /><br />In this wild city, we are bones<br />scattered in the valley\u2019s grave. An apron,<br />a white tennis shoe, a face gone<br />missing. A mother leans over the dust<br /><br />scattered in the valley\u2019s grave. An apron<br />around her waist, on her way to work. The<br />missing. A mother leans over the dust<br />and carves her daughter\u2019s initials. Her name<br /><br />around her waist, on her way to work. The<br />bones wait to be found; there are always bones. She prays<br />and carves her daughter\u2019s initials. Her name,<br /><em>Veronica</em>, and the others, <em>Esmerelda</em>, <em>Barbara</em>, <em>Brenda</em>; our<br /><br />bones wait to be found; there are always bones. She prays<br />to the gardens tethered to the field of pink crosses:<br /><em>Veronica</em>, and the others, <em>Esmerelda</em>, <em>Barbara</em>, <em>Brenda</em>, our<br />roses, wild poppies, fragile blooms of morning glories,<br /><br />to the gardens tethered to the field of pink crosses:<br />the wooden fence marked <em>\u00a1Justicia!</em>, the desert empty of<br />roses, wild poppies, fragile blooms of morning glories,<br />for the women who walk home each night. The unfinished earth.</p> "}, {"title": "Verge", "view_node": "/poem/verge", "field_author": "<a href=\"/poet/mark-doty\" hreflang=\"und\">Mark Doty</a>", "field_date_published": "2014", "body": " <p>A month at least before the bloom<br />and already five bare-limbed cherries<br />by the highway ringed in a haze<br />of incipient fire<br />\u00a0 \u00a0 \u00a0 \u00a0 \u00a0 \u00a0 \u00a0 \u00a0 \u00a0 \u00a0 \u00a0 \u2014middle of the afternoon,<br />a faint pink-bronze glow. Some things<br />wear their becoming:<br />\u00a0 \u00a0 \u00a0 \u00a0 \u00a0 \u00a0 \u00a0 \u00a0 \u00a0 \u00a0 \u00a0 \u00a0 \u00a0 \u00a0 \u00a0 \u00a0 the night we walked,<br />nearly strangers, from a fevered party<br />to the corner where you\u2019d left your motorcycle,<br />afraid some rough wind might knock it to the curb,<br />you stood on the other side<br />of the upright machine, other side<br />of what would be us, and tilted your head<br />toward me over the wet leather seat<br />while you strapped your helmet on,<br />engineer boots firm on the black pavement.<br /><br />Did we guess we\u2019d taken the party\u2019s fire with us,<br />somewhere behind us that dim apartment<br />cooling around its core like a stone?<br />Can you know, when you\u2019re not even a bud<br />but a possibility poised at some brink?<br /><br />Of course we couldn\u2019t see ourselves,<br />though love\u2019s the template and rehearsal<br />of all being, something coming to happen<br />where nothing was\u2026<br />\u00a0 \u00a0 \u00a0 \u00a0 \u00a0 \u00a0 \u00a0 \u00a0 \u00a0 \u00a0 \u00a0 \u00a0 \u00a0 \u00a0 \u00a0 \u00a0 \u00a0 \u00a0 But just now<br />I thought of a troubled corona of new color,<br />visible echo, and wondered if anyone<br />driving in the departing gust and spatter<br />on Seventh Avenue might have seen<br />the cloud breathed out around us<br />as if we were a pair<br />of\u2014could it be?\u2014soon-to-flower trees.</p> "}, {"title": "From the Telephone", "view_node": "/poem/telephone", "field_author": "<a href=\"/poet/florence-ripley-mastin\" hreflang=\"en\">Florence Ripley Mastin</a>", "field_date_published": "2014", "body": " <p>Out of the dark cup<br />Your voice broke like a flower.<br />It trembled, swaying on its taut stem.<br />The caress in its touch<br />Made my eyes close.</p> "}, {"title": "Appalachian Book of the Dead IV (audio only)", "view_node": "/poem/appalachian-book-dead-iv-audio-only", "field_author": "<a href=\"/poet/charles-wright\" hreflang=\"und\">Charles Wright</a>", "field_date_published": "1997", "body": " <p>\u00a0</p><p>Click the icon above to listen to this audio poem.</p> "}, {"title": "Recognitions", "view_node": "/poem/recognitions", "field_author": "<a href=\"/poet/rachel-hadas\" hreflang=\"und\">Rachel Hadas</a>", "field_date_published": "2014", "body": " <p>When my son was a few weeks old,<br />replicas of his yawning face appeared<br />suddenly on drowsy passersby:<br /><br />middle-aged man\u2019s gape that split his beard,<br />old woman on a bus, a little girl\u2014<br />all told a story that I recognized.<br /><br />Now he is fifteen.<br />As my students shuffle in the door<br />of the classroom, any of the boys<br /><br />could easily be him\u2014<br />foot-dragging, also swaggering a little,<br />braving the perils of a public space<br /><br />by moving in a wary little troop.<br />But the same sleepy eyes, the same soft face.<br />We recognize the people whom we love,<br /><br />or love what we respond to as our own,<br />trusting that one day someone<br />will look at us with recognition.</p> "}, {"title": "real poem (personal statement)", "view_node": "/poem/real-poem-personal-statement", "field_author": "<a href=\"/poet/rachel-zucker\" hreflang=\"und\">Rachel Zucker</a>", "field_date_published": "2014", "body": " <p>I skim sadness like fat off the surface<br />of cooling soup. Don't care about<br />metaphor but wish it would arrive<br />me. There\u2019s a cool current of air<br />this hot day I want to ride.<br />I have no lover, not even my love.<br />I have no other, not even I.</p> "}, {"title": "Lie", "view_node": "/poem/lie", "field_author": "<a href=\"/poet/rae-armantrout\" hreflang=\"und\">Rae Armantrout</a>", "field_date_published": "2014", "body": " <p>1<br /><br />I lay down<br />the acidification<br />of the ocean<br />with a sly smile.<br /><br />Unstoppable<br />beats fiery impact<br />every time.<br /><br />*<br /><br />But the sweet yellow<br />shoulders of the road\u2014<br /><br />the up and up<br />into same blossom.<br /><br />I'd like to hold these<br />in reserve.<br /><br />2<br /><br />\u201cProtect your identity\u201d<br />says Mileage.com<br />three times today<br />as if it knew something.<br /><br />I may want to fly cheap,<br />cruise in luxury,<br />buy a walk-in-tub<br />and burial insurance.<br /><br />*<br /><br />I may want to lie still<br />and think about my choices.</p> "}, {"title": "Were They Hands Would They Flower", "view_node": "/poem/were-they-hands-would-they-flower", "field_author": "<a href=\"/poet/rob-schlegel\" hreflang=\"und\">Rob Schlegel</a>", "field_date_published": "2014", "body": " <p>Why are you grieving?<br /><br />Because the others are grieving.<br /><br />You are not compelled to grieve independently?<br /><br />The grass needs raking.<br /><br />The grass?<br /><br />The leaves. I will build a fence to keep them from the sea.<br /><br />Then will you help the others?<br /><br />Tollers ring bells even the dead can hear,<br />a ringing such that I am bound to.<br /><br />And the leaves?<br /><br />When they are taken by the waves I give them names,<br />desiring in this act a homecoming<br />to which I am constantly denied<br />on account of other people\u2019s prayers.</p> "}, {"title": "Quai de la Tournelle", "view_node": "/poem/quai-de-la-tournelle", "field_author": "<a href=\"/poet/john-dos-passos\" hreflang=\"en\">John Dos Passos </a>", "field_date_published": "1922", "body": " <p>I<br />In the dark the river spins,<br />Laughs and ripples never ceasing,<br />Swells to gurgle under arches,<br />Swishes past the hows of barges.<br />In its haste to swirl away<br />From the stone walls of the city<br />That has lamps that weight the eddies<br />Down with snaky silver glitter.<br />As it flies it calls me with it<br />Through the meadows to the sea.<br /><br />I close the door on it, draw the bolts,<br />Climb the stairs to my silent room;<br />But through the window that swings open<br />Comes again its shuttle-song,<br />Spinning love and night and madness,<br />Madness of the spring at sea.<br /><br />II<br />The streets are full of lilacs.<br />Lilacs in boys' buttonholes,<br />Lilacs at women's waists;<br />Arms full of lilacs, people trail behind them through the moist night<br />Long swirls of fragrance.<br />Fragrance of gardens,<br />Fragrance of hedgerows where they have wandered<br />All the May day,<br />Where the lovers have held each other's hands<br />And lavished vermilion kisses<br />Under the portent of the swaying plumes<br />Of the funereal lilacs.<br /><br />The streets are full of lilacs<br />That trail long swirls and eddies of fragrance,<br />Arabesques of fragrance,<br />Like the arabesques that form and fade,<br />In the fleeting ripples of the jade-green river.</p> "}, {"title": "Life", "view_node": "/poem/life-0", "field_author": "<a href=\"/poet/edith-wharton\" hreflang=\"en\">Edith Wharton</a>", "field_date_published": "1894", "body": " <p>Life, like a marble block, is given to all,<br />A blank, inchoate mass of years and days,<br />Whence one with ardent chisel swift essays<br />Some shape of strength or symmetry to call;<br />One shatters it in bits to mend a wall;<br />One in a craftier hand the chisel lays,<br />And one, to wake the mirth in Lesbia\u2019s gaze,<br />Carves it apace in toys fantastical.<br /><br />But least is he who, with enchanted eyes<br />Filled with high visions of fair shapes to be,<br />Muses which god he shall immortalize<br />In the proud Parian\u2019s perpetuity,<br />Till twilight warns him from the punctual skies<br />That the night cometh wherein none shall see.</p> "}, {"title": "My 71st Year", "view_node": "/poem/my-71st-year", "field_author": "<a href=\"/poet/walt-whitman\" hreflang=\"und\">Walt Whitman</a>", "field_date_published": "1891", "body": " <p>After surmounting threescore and ten,<br />With all their chances, changes, losses, sorrows,<br /><span class=\"long-line\">My parents' deaths, the vagaries of my life, the many tearing passions of me,\u00a0the war of '63 and '4,</span><br /><span class=\"long-line\">As some old broken soldier, after a long, hot, wearying march, or haply after battle,</span><br /><span class=\"long-line\">To-day at twilight, hobbling, answering company roll-call, <em>Here</em>,\u00a0with vital voice,</span><br />Reporting yet, saluting yet the Officer over all.</p> "}, {"title": "You! Inez!", "view_node": "/poem/you-inez", "field_author": "<a href=\"/poet/alice-dunbar-nelson\" hreflang=\"und\">Alice Dunbar-Nelson</a>", "field_date_published": "1921", "body": "<p><span class=\"long-line\">Orange gleams athwart a crimson soul</span><br /><span class=\"long-line\">Lambent flames; purple passion lurks</span><br /><span class=\"long-line\">In your dusk eyes.</span><br /><span class=\"long-line\">Red mouth; flower soft,</span><br /><span class=\"long-line\">Your soul leaps up\u2014and flashes</span><br /><span class=\"long-line\">Star-like, white, flame-hot.</span><br /><span class=\"long-line\">Curving arms, encircling a world of love,</span><br /><span class=\"long-line\">You! Stirring the depths of passionate desire!</span></p>\n"}, {"title": "Idaho", "view_node": "/poem/idaho", "field_author": "<a href=\"/poet/matthew-zapruder\" hreflang=\"und\">Matthew Zapruder</a>", "field_date_published": "2014", "body": " <p>All summer<br />it was on fire<br />I was as always<br />in California,<br />looking out my window,<br />discovering nothing,<br />then flying back<br />east far<br />above those forests<br />filled with black<br />smoke to feel<br />again that way<br />I will keep<br />failing to name.<br />O the same mistakes<br />O the mythical<br />different results.<br />It\u2019s true one day<br />I walked a ridge<br />saw a hawk<br />read three letters<br />by Keats, bought<br />some postcards<br />I will never send,<br />and in a blue<br />scrawl made<br />a list then fell<br />asleep holding<br />volume twelve<br />of the old<br />encyclopedia<br />some stranger<br />sent to fill<br />me with pictures<br />and information<br />about that land<br />where no president<br />has ever been born.<br />I woke wanting<br />so much to go<br />inside the mountain<br />they call<br />The Cabinet<br />to find<br />a few bats<br />and the daughter<br />of the chambers<br />drawing ibex<br />on the walls<br />so I can ask<br />her how soon<br />and in what manner<br />we will join them.</p> "}, {"title": "Another Poem on My Daughter\u2019s Birthday", "view_node": "/poem/another-poem-my-daughters-birthday", "field_author": "<a href=\"/poet/craig-morgan-teicher\" hreflang=\"und\">Craig Morgan Teicher</a>", "field_date_published": "2014", "body": " <p>There must be soft words<br />for an evening like this, when the breeze<br />caresses like gentle fingertips<br />all over. I don\u2019t know<br /><br />how not to write darkly and sad.<br />But it\u2019s two years today since<br />my little girl was born, cut safely<br />from the noose.<br /><br />We meant nothing but hope;<br />how near death is to that.<br /><br />Only children, only some children,<br />get to run free from these snags. She<br />was born! She lived and she grows<br />like joy spreading from the syllables<br /><br />of songs. She reminds me of now<br />and now and now.<br />\u00a0 \u00a0 \u00a0 \u00a0 \u00a0 \u00a0 \u00a0 \u00a0 \u00a0 \u00a0 \u00a0 \u00a0 \u00a0 \u00a0 I must learn<br />to have been so lucky.</p> "}], "pager": {"current_page": 405, "total_items": "13248", "total_pages": 663, "items_per_page": 20}}