{"rows": [{"title": "The Old Stoic", "view_node": "/poem/old-stoic", "field_author": "<a href=\"/poet/emily-bronte\" hreflang=\"und\">Emily Bront\u00eb</a>", "field_date_published": "1846", "body": " <p>Riches I hold in light esteem,<br />\u00a0\u00a0\u00a0And Love I laugh to scorn;<br />And lust of fame was but a dream,<br />\u00a0\u00a0\u00a0That vanished with the morn:<br /><br />And if I pray, the only prayer<br />\u00a0\u00a0\u00a0That moves my lips for me<br />Is, \"Leave the heart that now I bear,<br />\u00a0\u00a0\u00a0And give me liberty!\"<br /><br />Yes, as my swift days near their goal:<br />\u00a0\u00a0\u00a0\u2019Tis all that I implore;<br />In life and death a chainless soul,<br />\u00a0\u00a0\u00a0With courage to endure.</p> "}, {"title": "Prague", "view_node": "/poem/prague", "field_author": "<a href=\"/poet/khadijah-queen\" hreflang=\"und\">Khadijah Queen</a>", "field_date_published": "2013", "body": " <p>Yes as thievery, except if saved for<br />a fantasy in which I in a backless<br />dress encounter<br /><br />you on a typical balcony<br />overlooking Vltava, gripping the latticework,<br />metal, a barrier to leaping<br /><br />into an esoteric night, fixed and ornate<br />enough, like my penchant for the infinite<br />within the singular, encounter you<br /><br />as tributary, serpentine, the heat of your fingers<br />on my spine, my head turning<br />as you bend to catch the yes<br /><br />I'd held latent, a mine you trigger with<br />your tongue, neither of us<br />mean to stop exploding.</p> "}, {"title": "from Please Bury Me in This", "view_node": "/poem/please-bury-me", "field_author": "<a href=\"/poet/allison-benis-white\" hreflang=\"und\">Allison Benis White</a>", "field_date_published": "2013", "body": " <p>Maybe my arms lifted as a woman lowers a dress over my head.<br /><br />This is not what I want to tell you.<br /><br />Looking at red flowers on her mother\u2019s dress as she sat on her lap on a train is Woolf\u2019s first memory.<br /><br />Then the sound of waves behind a yellow shade, of being alive as ecstasy.<br /><br />Maybe her mind, as I read, lowering over my mind.<br /><br />Maybe looking down, as I sit on the floor, at the book inside the diamond of my legs.<br /><br />Even briefly, to love with someone else\u2019s mind.<br /><br />Moving my lips as I read <i>the waves breaking, one, two, one, two, and sending a splash of water over the beach.</i><br /><br />What I want to tell you is ecstasy.</p> "}, {"title": "Loss", "view_node": "/poem/loss", "field_author": "<a href=\"/poet/carl-adamshick\" hreflang=\"und\">Carl Adamshick</a>", "field_date_published": "2013", "body": " <p>It is nice to be without answers<br />at the end of summer.<br />Wind lifting leaves from branches.<br /><br />The moment laid down like something<br />in childhood and forgotten, until later,<br />when stumbled upon, we think:<br />this is where it was lost.<br /><br />The sadness isn't their sadness.<br />The sadness is the way<br /><br />they will never unpack the rucksack<br />of happiness again.<br /><br />They'll never surface as divers rising<br />through leagues of joy, through sun<br />willowing through the bottom half of waves.<br /><br />They'll never surface again.<br />Again and again,<br /><br />they will never surface.</p> "}, {"title": "In the Back Seat of History", "view_node": "/poem/back-seat-history", "field_author": "<a href=\"/poet/mary-biddinger\" hreflang=\"und\">Mary Biddinger</a>", "field_date_published": "2013", "body": " <p>We lived in Gettysburg like vagrant<br />prospectors, driven by the scent<br />of knees and a profound love of dimes<br /><br />if by dimes you meant knees, and we<br />were always kneeling before<br />one altar or another, making sacrifice<br /><br />as you called it. Your trunk was full<br />of coffee filters and insoles.<br />Somebody stole your brother\u2019s bike<br /><br />and that was all the reason needed.<br />We broke our melon the old<br />fashioned way, which is to say<br /><br />not at all. You\u2019d kneecap that bastard.<br />I knelt in front of you kneading<br />the last few pages of John Donne\u2019s<br /><br /><i>Holy Sonnets</i> like an exquisite loaf<br />of historically-derived rye.<br />When I got to the end I wasn\u2019t sure<br /><br />if breathing was polite, or necessary.<br />Later I stood in the alley<br />wearing red tatters of high school.<br /><br />Our motel was packed with the cry<br />from a broken television,<br />the kind that lived between your ribs.</p> "}, {"title": "A blurry photograph", "view_node": "/poem/blurry-photograph", "field_author": "<a href=\"/poet/martha-ronk\" hreflang=\"und\">Martha Ronk</a>", "field_date_published": "2013", "body": " <p>The tree azalea overwhelms the evening with its scent,<br />defining everything and the endless fields.<br /><br />Walking away, suddenly, it slices off and is gone.<br /><br />The visible object blurs open in front of you,<br />the outline of a branch folds back into itself, then clarifies\u2014just as you turn away\u2014<br /><br />and the glass hardens into glass<br /><br />as you go about taking care of things abstractedly<br />one thing shelved after another, as if they were already in the past,<br /><br />needing nothing from you until, smashing itself on the tile floor,<br />the present cracks open the aftermath of itself.</p> "}, {"title": "Excelsior", "view_node": "/poem/excelsior", "field_author": "<a href=\"/poet/walt-whitman\" hreflang=\"und\">Walt Whitman</a>", "field_date_published": "1891", "body": " <p>Who has gone farthest? for I would go farther,<br /><span class=\"long-line\">And who has been just? for I would be the most just person of the earth,</span><br />And who most cautious? for I would be more cautious,<br /><span class=\"long-line\">And who has been happiest? O I think it is I\u2014I think no one was ever happier than I,</span><br />And who has lavish'd all? for I lavish constantly the best I have,<br /><span class=\"long-line\">And who proudest? for I think I have reason to be the proudest son alive\u2014for I am the son of the brawny and tall-topt city,</span><br /><span class=\"long-line\">And who has been bold and true? for I would be the boldest and truest being of the universe,</span><br /><span class=\"long-line\">And who benevolent? for I would show more benevolence than all the rest,</span><br /><span class=\"long-line\">And who has receiv'd the love of the most friends? for I know what it is to receive the passionate love of many friends,</span><br /><span class=\"long-line\">And who possesses a perfect and enamour'd body? for I do not believe any one possesses a more perfect or enamour'd body than mine,</span><br /><span class=\"long-line\">And who thinks the amplest thoughts? for I would surround those thoughts,</span><br /><span class=\"long-line\">And who has made hymns fit for the earth? for I am mad with devouring ecstasy to make joyous hymns for the whole earth.</span></p> "}, {"title": "They Were Not Kidding in the Fourteenth Century", "view_node": "/poem/they-were-not-kidding-fourteenth-century", "field_author": "<a href=\"/poet/maureen-n-mclane\" hreflang=\"und\">Maureen N. McLane</a>", "field_date_published": "2013", "body": " <p>They were not kidding<br />when they said they were blinded<br />by a vision of love.<br /><br />It was not just a manner<br />of speaking or feeling<br />though it\u2019s hard to say<br /><br />how the dead<br />really felt harder<br />even than knowing the living.<br /><br />You are so opaque<br />to me your brief moments<br />of apparent transparency<br /><br />seem fraudulent windows<br />in a Brutalist structure<br />everyone admires.<br /><br />The effort your life<br />requires exhausts me.<br />I am not kidding.</p> "}, {"title": "He Stood", "view_node": "/poem/he-stood", "field_author": "<a href=\"/poet/aaron-shurin\" hreflang=\"und\">Aaron Shurin</a>", "field_date_published": "2013", "body": " <p><i>He stamped his feet and opened the door</i>, stood on the threshold, turned around. The desert light shrank his eyes, sun slammed his face\u2014he almost lost his breath\u2014blond shiny grasses, ring of distant mountains pinking in the haze, the scorched but somehow fertile earth\u2014he wiped his brow\u2014he couldn\u2019t go in, he couldn\u2019t move, he couldn\u2019t say why\u2014as if he too were a thing dried in sunlight, stopped in his tracks in the heat that fixed him in its gaze\u2014rattlesnake Medusa\u2014where he breathed the stinging dusty winds as though a rock inhaling rock\u2014his proper evolution?\u2014and fed on silence as it flowered and fell\u2014the fierce clarity, the fierce restraint\u2014front door behind him hanging open like a thrown shadow as he blazed in place... a man inside the view... the zooming arc... and edge to edge the blue absolute...</p> "}, {"title": "Having Words", "view_node": "/poem/having-words", "field_author": "<a href=\"/poet/alfred-corn\" hreflang=\"und\">Alfred Corn</a>", "field_date_published": "2013", "body": " <p>They\u2019d started meeting by night at the only local,<br />A seething crowd drawn from among the loudest<br />Words, swearing, conspiring, over tankards of ale.<br />In sour chiaroscuro their clenched faces by moments<br />Looked too grievance or was it expressive for comfort.<br /><br />Rage drowns out background sounds such as summer<br />Crickets, the result, that one of them, in humid<br />Darkness, stops rasping his metal comb. It\u2019s clear<br />That the rally of Words will turn demonic,<br />That before night ends they\u2019ll be up in arms.<br /><br />Even the rawest learner can in a clock tick<br />Become aware of the name it\u2019s called by. Which<br />He tries on\u00a0\u00a0<i>Cricket\u00a0\u00a0Cricket</i>\u00a0\u00a0till he thinks: <i>Your name<br />Amounts to a sound, nothing more.</i> Trundling on<br />Towards the defiant Words, he says, <i>No. No, I Am Deuce. </i></p> "}, {"title": "A Small Hot Town", "view_node": "/poem/small-hot-town", "field_author": "<a href=\"/poet/collier-nogues\" hreflang=\"und\">Collier Nogues</a>", "field_date_published": "2013", "body": " <p>The river its balm.<br />I spend a lot of time<br /><br />waiting in the car,<br />nail file dust sifting<br />onto the gearshift.<br /><br />Two corner stores gone<br />and a handle of gin<br />under the Walk sign.<br /><br />The gin drinker is<br />uncertain he\u2019s here.<br />He\u2019s in the war.<br /><br />Wind blows a hat<br />past the court\u2019s lawn,<br />a balloon<br /><br />from its gravesite tie.<br />The graveyard is<br />the town\u2019s high hill.<br /><br />Salty, sure, and a thrill,<br />at home in the hot sun<br />with not much on.<br /><br />Reaching for eggs<br />in the dry house<br />of hens, or reaching<br /><br />into a slaughtered hen,<br />plucking her clean\u2014<br />close-mouthed,<br /><br />I wouldn\u2019t say<br />anything bad<br />about anybody.<br /><br />Then I grew<br />into my ugly,<br />said plenty,<br /><br />dropping quarters<br />at the coin laundry.<br />The sound of water<br /><br />turning over water<br />was a comfort,<br />the sound of someone<br /><br />else\u2019s things.<br />There\u2019s only one<br />wing in our hospital.<br /><br />It\u2019s sufficient.<br />So is the one road<br />out of the county.<br /><br />You can drive<br />your whole life<br />into its macadam,<br /><br />no matter. June<br />crosses crosswalks<br />in the noon air,<br /><br />greasing gears<br />so gently<br />I can feel it<br /><br />in my ears, unrelenting,<br />busy as an army<br />in its foxholes.</p> "}, {"title": "Tang", "view_node": "/poem/tang", "field_author": "<a href=\"/poet/bruce-cohen\" hreflang=\"und\">Bruce Cohen</a>", "field_date_published": "2013", "body": " <p>If I do not witness these leaves turning orange, who will?<br /><br />I stir myself:<br />I like to think<br /><br />Of myself as a reincarnated Poet from the Tang Dynasty,<br />Dehydrated orange drink<br />Astronauts gulped orbiting this planet<br />That became a fun \u201860\u2019s breakfast staple,<br /><br />The bitter tang of a car\u2019s squealing tires as it peels out,<br />Any distinguishing characteristic that provides special individuality.<br /><br />Isn\u2019t it a very personal moment when each of us<br />Recognizes we are failing,<br />That we\u2019re incomplete, outdated perhaps,<br />&amp; need something new to make us valid,<br /><br />Sobbing on the mudroom floor,<br />Praying hands through a broken screen door,<br />Begging the aftermath of someone to come back,<br /><br />Or watching our planet grow<br />Smaller below us<br />That we discover it is<br />Impossible<br />To ever become<br />One hundred percent reconstituted?<br /><br />I am not where I am right now, in this autumn.<br /><br />My mind is not what it used to be either.<br />There is no more just-add water.<br /><br />None of us can prove our previous lives.<br /><br />I mean pervious: I meant disprove:</p> "}, {"title": "Getting Close", "view_node": "/poem/getting-close", "field_author": "<a href=\"/poet/victoria-redel\" hreflang=\"und\">Victoria Redel</a>", "field_date_published": "2013", "body": " <p>Because my mother loved pocketbooks<br />I come alive at the opening click or close of a metal clasp.<br /><br />And sometimes, unexpectedly, a faux crocodile handle makes me weep.<br /><br />Breathy clearing of throat, a smooth arm, heels on pavement, she lingers, sound tattoos.<br /><br />I go to the thrift store to feel for bobby pins caught in the pocket seam<br />of a camel hair coat.<br /><br />I hinge a satin handbag in the crease of my arm. I buy a little change purse with its<br />curled and fitted snap.<br /><br />My mother bought this for me. This was my mother\u2019s.<br /><br />I buy and then I buy and then, another day, I buy something else.<br /><br />In Paris she had a dog, Bijou, and when they fled Paris in 1942 they left the dog behind.<br /><br />When my mother died on February 9, 1983, she left me.<br /><br />Now, thirty years later and I am exactly her age.<br /><br />I tell my husband I will probably die by the end of today and all day he says, Are you<br />getting close, Sweetheart? And late in the afternoon, he asks if he should buy enough filet<br />of sole for two.<br /><br />From a blue velvet clutch I take out a mirror and behold my lips in the small rectangle.<br /><br />Put on something nice. Let him splurge and take you out for dinner, my mother whispers<br />on the glass.</p> "}, {"title": "Prayer", "view_node": "/poem/prayer-2", "field_author": "<a href=\"/poet/robert-gluck\" hreflang=\"und\">Robert Gl\u00fcck</a>", "field_date_published": "2013", "body": " <p>Dear Lord<br />Show me<br />The way\u2014<br />Take<br />My heart<br />And throw<br />It away<br /><br />Lord, take<br />My heart<br />And throw<br />It out<br /><br />Lord, throw<br />My heart<br />Way out</p> "}, {"title": "Why I Am Not a Buddhist", "view_node": "/poem/why-i-am-not-buddhist", "field_author": "<a href=\"/poet/charles-bernstein\" hreflang=\"und\">Charles Bernstein</a>", "field_date_published": "2013", "body": " <p>Reality cons me as it spur(n)s me.<br />This is the road to eternal<br />Consanguinity, eloping with<br />Hope and leaving me to pick<br />Up the proverbial bag.<br />But that's the argument for.</p> "}, {"title": "Permanence", "view_node": "/poem/permanence", "field_author": "<a href=\"/poet/denise-duhamel\" hreflang=\"und\">Denise Duhamel</a>", "field_date_published": "2013", "body": " <p>The barista at the coffee shop is covered in tattoos. She says there are only two ways they hold her back. 1. She can\u2019t work at Starbucks. 2. She can\u2019t wear a corsage, since she\u2019d just be way too busy, and this makes me laugh. She says no to gifts from prom dates\u2014the wrist corsage, the pinned corsage; no to bridal bouquets, the get-well-soon carnations. One day soon her mother will insist on sympathy wreaths around her coffin, which is closed, lest she be confused with the flowers.</p> "}, {"title": "Meditation 29", "view_node": "/poem/meditation-29", "field_author": "<a href=\"/poet/philip-pain\" hreflang=\"und\">Philip Pain</a>", "field_date_published": "1668", "body": " <p>How mutable is every thing that here<br />Below we do enjoy? with how much fear<br />And trouble are those gilded Vanities<br />Attended, that so captivate our eyes?<br />\u00a0\u00a0\u00a0Oh, who would trust this World, or prize what's in it,<br />\u00a0\u00a0\u00a0That gives, and takes, and changes in a minute?</p> "}, {"title": "\u201cOh could I raise the darken\u2019d veil\u201d", "view_node": "/poem/oh-could-i-raise-darkend-veil", "field_author": "<a href=\"/poet/nathaniel-hawthorne\" hreflang=\"und\">Nathaniel Hawthorne</a>", "field_date_published": "1820", "body": "<p>Oh could I raise the darken\u2019d veil,<br />\nWhich hides my future life from me,<br />\nCould unborn ages slowly sail,<br />\nBefore my view\u2014and could I see<br />\nMy every action painted there,<br />\nTo cast one look I would not dare.<br />\nThere poverty and grief might stand,<br />\nAnd dark Despair\u2019s corroding hand,<br />\nWould make me seek the lonely tomb<br />\nTo slumber in its endless gloom.<br />\nThen let me never cast a look,<br />\nWithin Fate\u2019s fix\u2019d mysterious book.</p>\n"}, {"title": "The Ocean", "view_node": "/poem/ocean", "field_author": "<a href=\"/poet/nathaniel-hawthorne\" hreflang=\"und\">Nathaniel Hawthorne</a>", "field_date_published": "1825", "body": " <p>The Ocean has its silent caves,<br />Deep, quiet, and alone;<br />Though there be fury on the waves,<br />Beneath them there is none.<br />The awful spirits of the deep<br />Hold their communion there;<br />And there are those for whom we weep,<br />The young, the bright, the fair.<br /><br />Calmly the wearied seamen rest<br />Beneath their own blue sea.<br />The ocean solitudes are blest,<br />For there is purity.<br />The earth has guilt, the earth has care,<br />Unquiet are its graves;<br />But peaceful sleep is ever there,<br />Beneath the dark blue waves.</p> "}, {"title": "Poppies on the Wheat", "view_node": "/poem/poppies-wheat", "field_author": "<a href=\"/poet/helen-hunt-jackson\" hreflang=\"und\">Helen Hunt Jackson</a>", "field_date_published": "1870", "body": "<p><span class=\"long-line\">Along Ancona's hills the shimmering heat,</span><br /><span class=\"long-line\">A tropic tide of air with ebb and flow</span><br /><span class=\"long-line\">Bathes all the fields of wheat until they glow</span><br /><span class=\"long-line\">Like flashing seas of green, which toss and beat</span><br /><span class=\"long-line\">Around the vines. The poppies lithe and fleet</span><br /><span class=\"long-line\">Seem running, fiery torchmen, to and fro</span><br /><span class=\"long-line\">To mark the shore.</span></p>\n\n<p><span class=\"long-line\">\u00a0\u00a0\u00a0\u00a0\u00a0\u00a0\u00a0\u00a0\u00a0\u00a0\u00a0\u00a0\u00a0\u00a0\u00a0\u00a0\u00a0\u00a0\u00a0\u00a0\u00a0\u00a0\u00a0\u00a0The farmer does not know</span><br /><span class=\"long-line\">That they are there. He walks with heavy feet,</span><br /><span class=\"long-line\">Counting the bread and wine by autumn's gain,</span><br /><span class=\"long-line\">But I,\u2014I smile to think that days remain</span><br /><span class=\"long-line\">Perhaps to me in which, though bread be sweet</span><br /><span class=\"long-line\">No more, and red wine warm my blood in vain,</span><br /><span class=\"long-line\">I shall be glad remembering how the fleet,</span><br /><span class=\"long-line\">Lithe poppies ran like torchmen with the wheat.</span></p>\n"}], "pager": {"current_page": 421, "total_items": "13248", "total_pages": 663, "items_per_page": 20}}