{"rows": [{"title": "Self-Portrait as Miranda", "view_node": "/poem/self-portrait-miranda", "field_author": "<a href=\"/poet/geri-doran\" hreflang=\"und\">Geri Doran</a>", "field_date_published": "2005", "body": " <pre>\nMy story begins at sea, in the bitter liquid.\nIf not, it would begin in Florida, along I-95\nin the circular drive of a circular, lime-green motel.\nBut I have selected the sea, and you must\n\ntrust me on this. Truly terrible stories\nbegin in navigational error, a slight misreading\nof the sight that sets the crew in a maelstrom.\nPerhaps in another story it would be a man\n\nstanding at the door, surprised that he\u2019s knocked,\nthat you have, in turn, answered. He wishes\nnow that he had lingered in that drive, paused\nbefore resuming the course toward your door.\n\nAs the crew, in desperate but unspoken straits,\nwishes belatedly for a drag on the anchor.\nFrequently, we are thus carried along.\nFrequently, <i>de profundis</i>, we struggle ashore\n\nto find ourselves, if not stranded, then beached.\nWe are inclined to be grateful for land.\nSurvivors of shipwreck cast two shadows:\nthe outline of interrupted light, and an aura, thirst\n\nto drown again. Perhaps, in the unwritten story,\nthe man at the door looks thirsty. You sense\nhe has come to repair himself at the dry dock\nof your flesh. There is nothing else to do.\n\nYour home is an island of white sand\nand he wades in from the shoals of the walkway\nasking for fresh water. So you find him berth.\nThis much Miranda herself could explain:\n\nhow Ferdinand come shimmering from the sea\nappeared no less a rescuer than she,\nwith his handful of kelp and the pretty words\nof a man desperate for sanctuary.\n\nFerdinand missed that she was shipwrecked\ntoo. Miranda had the shadowy thirst.\nYou know the rest of the story.\nThey\u2019re happy. Then it ends in the bitter sea. </pre>\n "}, {"title": "My Mother on an Evening in Late Summer", "view_node": "/poem/my-mother-evening-late-summer", "field_author": "<a href=\"/poet/mark-strand\" hreflang=\"und\">Mark Strand</a>", "field_date_published": "1979", "body": " <pre>\n1\n\nWhen the moon appears\nand a few wind-stricken barns stand out\nin the low-domed hills\nand shine with a light\nthat is veiled and dust-filled\nand that floats upon the fields,\nmy mother, with her hair in a bun,\nher face in shadow, and the smoke\nfrom her cigarette coiling close\nto the faint yellow sheen of her dress,\nstands near the house\nand watches the seepage of late light\ndown through the sedges,\nthe last gray islands of cloud\ntaken from view, and the wind\nruffling the moon's ash-colored coat\non the black bay.\n\n\n2\n\nSoon the house, with its shades drawn closed, will send\nsmall carpets of lampglow\ninto the haze and the bay\nwill begin its loud heaving\nand the pines, frayed finials\nclimbing the hill, will seem to graze\nthe dim cinders of heaven.\nAnd my mother will stare into the starlanes,\nthe endless tunnels of nothing,\nand as she gazes,\nunder the hour's spell,\nshe will think how we yield each night\nto the soundless storms of decay\nthat tear at the folding flesh,\nand she will not know\nwhy she is here\nor what she is prisoner of\nif not the conditions of love that brought her to this.\n\n\n3\n\nMy mother will go indoors\nand the fields, the bare stones\nwill drift in peace, small creatures --\nthe mouse and the swift -- will sleep\nat opposite ends of the house.\nOnly the cricket will be up,\nrepeating its one shrill note\nto the rotten boards of the porch,\nto the rusted screens, to the air, to the rimless dark,\nto the sea that keeps to itself.\nWhy should my mother awake?\nThe earth is not yet a garden\nabout to be turned. The stars\nare not yet bells that ring\nat night for the lost.\nIt is much too late.</pre>\n "}, {"title": "Last Supper", "view_node": "/poem/last-supper", "field_author": "<a href=\"/poet/charles-wright\" hreflang=\"und\">Charles Wright</a>", "field_date_published": "2005", "body": " <pre>\nI seem to have come to the end of something, but don\u2019t know what,\nFull moon blood orange just over the top of the redbud tree.\nMaundy Thursday tomorrow,\n                         then Good Friday, then Easter in full drag,\nDogwood blossoms like little crosses\nAll down the street,\n                    lilies and jonquils bowing their mitred heads.\n\nPerhaps it\u2019s a sentimentality about such fey things,\nBut I don\u2019t think so. One knows\nThere is no end to the other world,\n                                    no matter where it is.\nIn the event, a reliquary evening for sure,\nThe bones in their tiny boxes, rosettes under glass.\n\nOr maybe it\u2019s just the way the snow fell\n                                         a couple of days ago,\nSo white on the white snowdrops.\nAs our fathers were bold to tell us,\n                                    it\u2019s either eat or be eaten.\nSpring in its starched bib,\nWinter\u2019s cutlery in its hands. Cold grace. Slice and fork.</pre>\n "}, {"title": "The Coronary Garden, section 6", "view_node": "/poem/coronary-garden-section-6", "field_author": "<a href=\"/poet/ann-townsend\" hreflang=\"und\">Ann Townsend</a>", "field_date_published": "2005", "body": " <pre>\nDespair needles you with its whisper,\nit is agnostic, it believes in irony,\nlike a fly\u2019s buzz it is perceptions, a busy\n\nblood clot that says alive, alive.\n\nI\u2019m not the stopped motion, the straight line out.\nYour garlands are \"convivial, festival, sacrificial,\nnuptual, honorary, funebrial.\"\n\nThat spring, when we strolled in the rain,\n\nyou bent to the stone wall\u2019s alyssum\u2014\nbloom, stem, and root, you tore a handful free.\nAgainst your mouth the petals\n\nwere a mass of stars winking out.</pre>\n "}, {"title": "Evening Walk as the School Year Starts", "view_node": "/poem/evening-walk-school-year-starts", "field_author": "<a href=\"/poet/sydney-lea\" hreflang=\"und\">Sydney Lea</a>", "field_date_published": "2005", "body": " <pre>\nWhen was the last lobotomy, I wonder? \nToo late for Carl at least, whom it\u2019s all but hopeless \nto think of as a whipsaw of hateful passion \nthat would if it could have torn up his mother and father, \nmild as they are; but that's how old villagers say \nCarl acted before he was cut. Their smiles are rueful. \nThey shake their heads, subtle. A raven, unsubtle, \ngrates from a hemlock as Carl steps into sight.\n\nHis wave's familiar: he jerks and drops one palm. \nHow old must he be? He's ageless. His eyes are empty\u2014\nthe operation. He turns now: ninety degrees, \nthen ninety again like a sentry, the other way. \nHe turns the same on each warm evening, retreating \npast the house of our mutual neighbor, who will not speak \nto Carl's father, for reasons likely beyond recall. \nIt seems a shame not to edit grievances.\n\nIt\u2019s some awful stink nearby that draws the raven, \nbut the rest of the world seems fixed on the morbid too:\na squirrel keeps pouring spruce cones down at me;\na gall-blighted butternut groans; the broadleafs wilt; \nthere's a pair of toads at my feet that wheels have flattened \nside by side, like cartoon icons of failure; \nmosquitoes strafe me, a mammoth dragonfly\u2014\none of the season's last\u2014attacks a moth\n\nso close to me I can hear the fatal <i>click</i>. \nThe other day a son went off to college. \nHis mother and I are quietly beside ourselves. \nWe embrace each other harder now, and vow, \nas one vows, to love our children harder too. \nThough I hum to distract myself, the raven dives \nloud as gunfire through brush to its mess. I jump, \nbut Carl doesn't seem to hear. I watch him limp\n\nto his family's drive\u2014then again that sure right angle. \nLike him, our family finds a virtue in order: \nwe rise at six to eat our breakfasts together, \nthen make a certain sandwich for one of the girls, \na certain one for the other; we leave at seven; \nwe gather the girls promptly at end of school. \nCarl opens his door and shuts it\u2014<i>click</i>\u2014behind him. \nIt's after Labor Day, it's end-of-summer,\n\nit\u2019s another season upon us. Now he scolds me,\nthat squirrel on his branch, his store of weapons gone.\nWhy me, dumb brute? I haven\u2019t done anything wrong,\nI\u2019ve got no grievance with him\u2014not with anyone really.\nThe darkness deepens, Lord with me abide.\nThe wishing star is not enough to light\nthe space around me while this bit of hymn from my schooldays\nplays, while daytime\u2019s creatures crawl to cover,\n\nand night ones, having no choice, confront the night.</pre>\n "}, {"title": "The Correction", "view_node": "/poem/correction", "field_author": "<a href=\"/poet/frannie-lindsay\" hreflang=\"und\">Frannie Lindsay</a>", "field_date_published": "2005", "body": " <pre>\nWhen I got it wrong at school\u2014missed\na word, could not recite\nthe long division tables\u2014I would lock\nmy knees beneath my little plywood desk\nin back where all the tall ones sat,\nand sneak my uniform sleeve up\nand bite down on my forearm, make myself\nkeep quiet, doing that, not\ncrying; gnashing hard with my gapped teeth\nuntil the dotted \"O\" sunk in\nbecause I couldn\u2019t hold my breath,\nso had to clench my skin while no sobs flayed\nmy lungs: those lightless rooms\nwhere loud girls kept themselves,\nand stayed unsorry.</pre>\n "}, {"title": "Quotidian Poem", "view_node": "/poem/quotidian-poem", "field_author": "<a href=\"/poet/patricia-fargnoli\" hreflang=\"und\">Patricia Fargnoli</a>", "field_date_published": "2005", "body": " <pre>\nWhen I heard the bombing \n\nhad begun I drove down \n\nto Keene and bought \n\na 3x magnifying glass, \n\na sketch book \n\nand drawing pencils. Then,\n\nI went out behind the apartments\n\nto snap off seed pods, weeds \n\nI could not name \n\nand a couple of brittle leaves.\n\nI saved the afternoon  \n\nby studying edges \n\nof petals, seeds, \n\nthe marvelous veins\n\nand sketching them. \n\nOn the page, I wrote:\n\nunknown weeds 10/7/01, found \n\nin the patch between Applewood\n\nand the Historical Museum;\n\non the day we began bombing.\n\nThen I made a pot of soup \n\nout of black-eyed peas \n\nand a ham bone\n\nI'd frozen from Easter.\n\nI threw in onions, garlic, \n\nparsley, cumin, \n\na couple of tomatoes--\n\nwhatever made sense.\n\nEnough for an army.</pre>\n "}, {"title": "Father Listens to the Artists", "view_node": "/poem/father-listens-artists", "field_author": "<a href=\"/poet/david-petruzelli\" hreflang=\"und\">David Petruzelli</a>", "field_date_published": "2005", "body": " <pre>\nWhen I was eight months old, Jackson Pollock\n\nstuck his hand in my crib and let me squeeze\n\none of his fingers. He was in my parents' kitchen\n\nin Hoboken, where we lived for three years;\n\nhe said the new linoleum reminded him\n\nof one of his paintings. Every time my mother\n\ntells the story, she always adds, \"this is true\"; \n\nbut my mother can't tell stories.\n\nAnd my father has stopped remembering.\n\nWhat never changes is my hand touching Pollock's\n\nand who was watching; my parents and my father's \n\nbest friend from childhood\u2014Nick Carone,\n\na painter who had brought along his famous pal\n\npartly to show off, partly in the hope\n\nPollock would notice that the work my parents\n\nloyally hung in our living room was Nick's.\n\nBut all Pollock cared about, my mother says, \n\nwas how much beer was left, how much money \n\nNick could con my father into giving them,\n\nuntil the bottles on the table clinked happily\n\nand the artists looked at each other\n\nlike lovers who had forgotten our world.\n\nThen Nick placed his hands on my father's shoulders,\n\nPollock called over to my mother,\n\nwho had gone to my crib. Without looking up\n\nshe broke her train of baby talk to say goodbye,\n\nbut watched my father follow them out\n\ninto the hall and stand at the top of the stairs,\n\nwaiting as both men began the long walk down.\n\nIt's at this point my mother always stops to ask,\n\nDo I remember we lived on the fifth floor?\n\nAnd by now I've learned to answer, yes I do.</pre>\n "}, {"title": "Salt", "view_node": "/poem/salt", "field_author": "<a href=\"/poet/ander-monson\" hreflang=\"und\">Ander Monson</a>", "field_date_published": "2005", "body": " <pre>\nIt covers everything, a glossy January rind\nalong tires. Sunny days have brought it out,\nburned away the ice, left \nthe calcified tidelines to gloat\non the hoods and sun-warm trunks \nof cars queued up along the curb,\nparking close as they can get\nto each other, to the raised \nsidewalk that\u2019s buried\nbeneath the dirt crust next to the neon-lit\nsign for the funeral home.\n \nThe body of the boy we knew is still \ninside, the cheeks teased \nback to cheery life with rouge.\n \nThe ice on the canal\nthe faulty floor through which he descended\nblazing on the back of his Arctic Cat\nis black as slate\nwhich means it\u2019s thin\nand boys on the shore\nthrow aimless stones that yield\nricochets with laser sounds.\n \nThe outdoor rink is bare, festooned\nwith bits of the Canadian flag\nfragments of the maple leaf\nglistening starlike after storm.</pre>\n "}, {"title": "Dead Center", "view_node": "/poem/dead-center", "field_author": "<a href=\"/poet/rachel-contreni-flynn\" hreflang=\"und\">Rachel Contreni Flynn</a>", "field_date_published": "2005", "body": " <pre>\nAugust in Indiana:\n \na heavy moon hung over space\nwhere there was almost nothing\n \nbut one big town at dead center.\n \nGrasshoppers popped under tires, \nthe trees swelled with grackles,\n \nand I amused myself with windmills -- \nthe solitary geometry of glint and spin,\n \nslowing then standing motionless\nuntil the sky raised its dark fist. \n \n \nThe autumn my mother left\na coldness opened . . .\n \nBeans dried to snakes' tails in the fields,\nand my chest filled with rust.\n \n \nIn the snow I walked the pastures \n \nin an orange poncho \nmy father could see from the house.\n \nOnce I told him to stop waving at me.\n \nOnce I said <i>maybe I\u2019ll just keep walking.  </i>\n \nAnd once I slid the poncho \nto the near-frozen middle of Moots Pond\n \njust to watch him run from the house \nbarefoot and wild.</pre>\n "}, {"title": "A Word From the Fat Lady", "view_node": "/poem/word-fat-lady", "field_author": "<a href=\"/poet/gabrielle-calvocoressi\" hreflang=\"und\">Gabrielle Calvocoressi</a>", "field_date_published": "2005", "body": " <pre>\nIt isn't how we look up close\nso much as in dreams.\n\nOur giant is not so tall,\nour lizard boy merely flaunts\n\ncrusty skin- not his fault \nthey keep him in a crate\n\nand bathe him maybe once a week.\nWhen folks scream or clutch their hair\n\nand poke at us and glare and speak\nof how we slithered up from Hell,\n\nit is themselves they see:\nthe preacher with the farmer's girls\n\n(his bulging eyes, their chicken legs)\nor the mother lurching towards the sink,\n\na baby quivering in her gnarled \nhands. Horror is the company\n\nyou keep when shades are drawn.\nEvil does not reside in cages.</pre>\n "}, {"title": "Past Light", "view_node": "/poem/past-light", "field_author": "<a href=\"/poet/pimone-triplett\" hreflang=\"und\">Pimone Triplett</a>", "field_date_published": "2005", "body": " <pre>\nWithin reach of sex but not yet, I remember, a few stars \n          freckling the vacancies \npast the yard\u2019s blown flood beams and father\u2019s single \n          sycamore. Expert amateur, \nI thought myself, aged thirteen, rabid for facts and trying \n          to have a mind for \nwhat each light was. This I knew: arrivals of gaseous crackups \n          wholly unlike us, and not \npinpricks, nor quaint connect-the-dots, nor tiny stabs of will. \n         <i> Sky\u2019s Zenith, Lyra, The Great, The Small Bear. </i>\nHopes rose. It was before the boys and window escapes,\n          before breakup seeped \ninto the house like bad water. I loved stories\n          of staying in place.\nIn the one about the ancient astronomer \n          on the day of eclipse,\nafter he\u2019d gazed his naked sight away,\n          he thought he saw the sun giving birth \nto itself and scrawled, half blind, in a notebook, \n          <i>as if wood fought back\nto eat the fire</i>. Meanwhile, our lawn sparked \n          with mother\u2019s rake tines upraised,\nsound of door slam and squabble inside, squeal \n          of brakes rounding \nout the drive. And if I wanted one clean,\n          one lesser loyalty, wishing\nso hard on that old onlooker?\n          I could see him at full kneel\nin dirt unflinching, begging the above to smote what\u2019s bulk,\n          the words arcing slowly up, \nsaying, <i>burn me all to star, o fathers</i>.\n          I understood nothing of their pain.\nAlready, close to home, the sycamore leaves in full \n          heat looked edgeless,\neach dark on dark blurring the shapes \n          as if we were all dropped through: \n<i>Zenith, Lyra, The Greater, The Lesser, The True.</i></pre>\n "}, {"title": "Cityscape 1", "view_node": "/poem/cityscape-1", "field_author": "<a href=\"/poet/pablo-medina\" hreflang=\"und\">Pablo Medina</a>", "field_date_published": "2005", "body": " <pre>\nLet the aroma of need\nwaft across the river to New Jersey:\n\nall the snow and hills,\na sky that moves and moves.\n\nI saw a rose in the clouds,\nI saw happiness on fire.</pre>\n "}, {"title": "Sacred Heart", "view_node": "/poem/sacred-heart", "field_author": "<a href=\"/poet/lee-briccetti\" hreflang=\"und\">Lee Briccetti</a>", "field_date_published": "2005", "body": "<p><span class=\"long-line\">Even as a girl I knew the heart was not a valentine;</span><br /><span class=\"long-line\">it was wet, like a leopard frog on a lily pad,</span><br /><span class=\"long-line\">had long tube roots</span></p>\n<p><span class=\"long-line\">anchoring it in place.</span><br /><span class=\"long-line\">And smaller roots like lupine and marigold</span><br /><span class=\"long-line\">and bleeding hearts\u2019 roots I traced with my finger</span></p>\n<p><span class=\"long-line\">while transplanting in the garden.</span><br /><span class=\"long-line\">Jesus had a thousand bloody hearts</span><br /><span class=\"long-line\">planted in our flowerbeds beneath pink flowers;</span></p>\n<p><span class=\"long-line\">they could see us through the ground.</span><br /><span class=\"long-line\">I had a book about a girl who lived in the earth</span><br /><span class=\"long-line\">near the tree roots, who cut off her finger</span></p>\n<p><span class=\"long-line\">and used it as a key. \u00a0I wondered if I could love like that.</span><br /><span class=\"long-line\">I studied the painting of His chest peeled back</span><br /><span class=\"long-line\">to show light around the Sacred Heart.</span></p>\n<p><span class=\"long-line\">And in the bedroom at my grandmother\u2019s where I slept</span><br /><span class=\"long-line\">against the trees, I was the spirit\u00a0</span><br /><span class=\"long-line\">inside the room\u2019s heart, my life inside me,</span></p>\n<p><span class=\"long-line\">something that could leave through the window quietly.</span><br /><span class=\"long-line\">I heard the fibrous closing and closing</span><br /><span class=\"long-line\">inside my body and prayed to stay alive.</span></p>\n"}, {"title": "Harm or Home You Can Only Make One", "view_node": "/poem/harm-or-home-you-can-only-make-one", "field_author": "<a href=\"/poet/cammy-thomas\" hreflang=\"und\">Cammy Thomas</a>", "field_date_published": "2005", "body": " <pre>\nwhy did he descend on her\neagle to little brown wren\n\nbeneath his vermilion dives\ntalons pulling prey from the lake\n\nhe wanted a sweetness not himself\nwhen he covered her she gasped\n\nif she flew all day\nhe found her in a moment\n\nthe seeds she found not enough\nher own young ravished her warm breast</pre>\n "}, {"title": "Of Memory and Distance", "view_node": "/poem/memory-and-distance", "field_author": "<a href=\"/poet/russell-edson\" hreflang=\"und\">Russell Edson</a>", "field_date_published": "2005", "body": " <pre>\n     It\u2019s a scientific fact that anyone entering the distance will\ngrow smaller. Eventually becoming so small he might only be\nfound with a telescope, or, for more intimacy, with a \nmicroscope.... \n\n     But there\u2019s a vanishing point, where anyone having\npenetrated the distance must disappear entirely without hope \nof his ever returning, leaving only a memory of his ever having\nbeen. \n\n     But then there is fiction, so that one is never really sure if \nit was someone who vanished into the end of seeing, or\nsomeone made of paper and ink....</pre>\n "}, {"title": "Eden", "view_node": "/poem/eden", "field_author": "<a href=\"/poet/david-woo\" hreflang=\"und\">David Woo</a>", "field_date_published": "2005", "body": " <pre>\nYellow-oatmeal flowers of the windmill palms \nlike brains lashed to fans-\neven they think of cool paradise, \n\nNot this sterile air-conditioned chill \nor the Arizona hell in which they sway becomingly. \nEvery time I return to Phoenix I see these palms \n\nas a child\u2019s height marks on a kitchen wall, \ntaller now than the yuccas they were planted with, \ntaller than the Texas sage trimmed\n\nto a perfect gray-green globe with pointillist \nlavender blooms, taller than I, \nwho stopped growing years ago and commenced instead \n\nmy slow, almost imperceptible slouch \nto my parents\u2019 old age:\nFather\u2019s painful bend- really a bending of a bend- \n\nto pick up the paper at the end of the sidewalk; \nMother, just released from Good Samaritan, \ncurled sideways on a sofa watching the soaps, \n\nan unwanted tear inching down \nat the plight of some hapless Hilary or Tiffany. \nHow she\u2019d rail against television as a waste of time! \n\nNow, with one arthritis-mangled hand, \nshe aims the remote control at the set\nand flicks it off in triumph, turning to me\n\nas I turn to the trees framed in the Arcadia door.\nHer smile of affection melts into the back of my head, \na throb that presses me forward, \n\nhand pressed to glass. I feel the desert heat\nand see the beautiful shudders of the palms in the yard \nand wonder why I despised this place so, \n\nwhy I moved from city to temperate city, anywhere \nwithout palms and cactus trees. \nI found no paradise, as my parents know,\n\nbut neither did they, with their eager sprinklers \nand scrawny desert plants pumped up to artificial splendor, \nand their lives sighing away, exhaling slowly, \n\nthe man and woman \nwho teach me now as they could not before \nto prefer real hell to any imaginary paradise. </pre>\n "}, {"title": "Next Door", "view_node": "/poem/next-door", "field_author": "<a href=\"/poet/joan-selinger-sidney\" hreflang=\"und\">Joan Selinger Sidney</a>", "field_date_published": "2005", "body": " <pre>\nOaks drag alongside the road,\nweighted by yesterday\u2019s snow.\nThere\u2019s Frauka walking alone,\nthe hood of her parka\nsnow-lit against the trees.\n\nI pull over.  How is he?  But before\nI can answer, I see them last\nsummer: Frauka, and Father\nleaning on Mother, wanting to believe\nher will can make him well.\n\nSitting on the lawn,\npretending to read, I am unable\nto tell them, My legs won\u2019t walk.\nGo on without me.\n\nEleven years I\u2019ve protected them\u2014\nHolocaust survivors\u2014by not naming\nmy disease.  Wishing them dead\nbefore they\u2019d see me in a wheelchair.\n\nFrauka whispers, My younger brother\ndied one day before your father.\nTears rim her eyes, her slim\nbody shivers in the wind.\nFor a moment we are closer\nin our sorrow than we\u2019ve ever been.</pre>\n "}, {"title": "Happiness", "view_node": "/poem/happiness-0", "field_author": "<a href=\"/poet/jane-kenyon\" hreflang=\"und\">Jane Kenyon</a>", "field_date_published": "2001", "body": " <pre>\nThere's just no accounting for happiness,\nor the way it turns up like a prodigal\nwho comes back to the dust at your feet\nhaving squandered a fortune far away.\n\nAnd how can you not forgive?\nYou make a feast in honor of what\nwas lost, and take from its place the finest\ngarment, which you saved for an occasion\nyou could not imagine, and you weep night and day\nto know that you were not abandoned,\nthat happiness saved its most extreme form\nfor you alone.\n\nNo, happiness is the uncle you never\nknew about, who flies a single-engine plane\nonto the grassy landing strip, hitchhikes\ninto town, and inquires at every door\nuntil he finds you asleep midafternoon\nas you so often are during the unmerciful\nhours of your despair.\n\nIt comes to the monk in his cell.\nIt comes to the woman sweeping the street\nwith a birch broom, to the child\nwhose mother has passed out from drink.\nIt comes to the lover, to the dog chewing\na sock, to the pusher, to the basketmaker,\nand to the clerk stacking cans of carrots\nin the night.\n       It even comes to the boulder\nin the perpetual shade of pine barrens,\nto rain falling on the open sea,\nto the wineglass, weary of holding wine.</pre>\n "}, {"title": "Momentum", "view_node": "/poem/momentum", "field_author": "<a href=\"/poet/catherine-doty\" hreflang=\"und\">Catherine Doty</a>", "field_date_published": "2005", "body": " <pre>\nYour friends won\u2019t try to talk you out of the barrel,\nor your brag to go first, which has nothing to do with bravery.\nAnd you\u2019re so hungry to earn their love you forget\nto claim first your, perhaps, last look at this mountain\u2014\ncrab apples hanging sour in the sun, abandoned Buick,\na favorite place to play, dismantled and weathered\nand delicate as a voting booth. Instead you dive straight away\nand headfirst into darkness, the steel drum that dusts you,\nlike a chicken part, with rust. Looking out, there\u2019s nothing\nto see of your friends but their calves, which are scabby,\nand below them the filthy sneakers, shifting, shifting,\nevery foot aching to kick you off this cliff.\nTheir faces, you know, are blank with anticipation,\nthe look you see when they watch TV eating popcorn.\nThey\u2019re already talking about you as if you\u2019re gone,\nas if you boarded a bus and roared out of earshot,\nwhen one foot flashes forward and launches you.\n\nYou know as you feel that first solid slam you are lost.\nThe barrel changes shape with each crash to earth,\nas you will later, assuming and losing lives, but this\nis so true now: ankles flayed to the bone, cracked ribs\nand crushed mint, the brittle, pissy sumac. Right now\nthe pin oaks are popping in their sockets, the hillside\nwears your shoes, clouds pleat and buck. You know, of course,\nthat no one\u2019s going second, and friends who tell this story\nwill use the word idiot, rolling their hands in the air,\nbut you know you know what your life is for now and rise up,\nand just about scalp yourself on that tree limb above you,\nanother thing you couldn\u2019t possibly know was coming,\nanother which, like your first breath, was not your idea.</pre>\n "}], "pager": {"current_page": 602, "total_items": "13248", "total_pages": 663, "items_per_page": 20}}