{"rows": [{"title": "Amores (VII)", "view_node": "/poem/amores-vii", "field_author": "<a href=\"/poet/e-e-cummings\" hreflang=\"und\">E. E. Cummings</a>", "field_date_published": "", "body": " <pre>if i believe \nin death be sure \nof this \nit is \n\nbecause you have loved me, \nmoon and sunset \nstars and flowers \ngold crescendo and silver muting \n\nof seatides \ni trusted not, \n                        one night \nwhen in my fingers \n\ndrooped your shining body \nwhen my heart \nsang between your perfect \nbreasts \n\ndarkness and beauty of stars \nwas on my mouth petals danced \nagainst my eyes \nand down \n\nthe singing reaches of \nmy soul \nspoke \nthe green-\n\ngreeting pale-\ndeparting irrevocable \nsea \ni knew thee death. \n\n                                  and when \ni have offered up each fragrant \nnight,when all my days \nshall have before a certain \n\nface become \nwhite \nperfume \nonly, \n\n         from the ashes \nthen \nthou wilt rise and thou \nwilt come to her and brush \n\nthe mischief from her eyes and fold \nher \nmouth the new \nflower with \n\nthy unimaginable \nwings,where dwells the breath \nof all persisting stars\n</pre>\n "}, {"title": "Amores (VI)", "view_node": "/poem/amores-vi", "field_author": "<a href=\"/poet/e-e-cummings\" hreflang=\"und\">E. E. Cummings</a>", "field_date_published": "", "body": " <pre>into the smiting \nsky tense \nwith \nblend \n\ning \nthe \ntree        leaps \n                           a stiffened exquisite \n\ni \nwait the sweet \nannihilation of swift \nflesh \n\ni make me stern against \nyour charming strength \n\nO haste \n                annihilator \ndrawing into you my enchanting \nleaves\n</pre>\n "}, {"title": "Amores (V)", "view_node": "/poem/amores-v", "field_author": "<a href=\"/poet/e-e-cummings\" hreflang=\"und\">E. E. Cummings</a>", "field_date_published": "", "body": " <pre>as is the sea marvelous\nfrom god's\nhands which sent her forth\nto sleep upon the world\n\nand the earth withers\nthe moon crumbles\none by one\nstars flutter into dust\n\nbut the sea\ndoes not change\nand she goes forth out of hands and\nshe returns into hands\n\nand is with sleep....\n\nlove,\n         the breaking\n\nof your\n               soul\n               upon\nmy lips\n</pre>\n "}, {"title": "Amores (IV)", "view_node": "/poem/amores-iv", "field_author": "<a href=\"/poet/e-e-cummings\" hreflang=\"und\">E. E. Cummings</a>", "field_date_published": "", "body": " <pre>consider O \nwoman this \nmy body.\nfor it has \n\nlain \nwith empty arms \nupon the giddy hills \nto dream of you, \n\napprove these \nfirm unsated \neyes \nwhich have beheld \n\nnight's speechless carnival \nthe painting \nof the dark \nwith meteors \n\nstreaming from playful \nimmortal hands \nthe bursting \nof the wafted stars \n\n(in time to come you shall \nremember of this night amazing \necstasies       slowly, \nin the glutted \n\nheart fleet \nflowerterrible \nmemories \nshall \n\nrise,slowly \nreturn upon the \n                                red elected lips \n\n\nscaleless visions)\n</pre>\n "}, {"title": "Amores (III)", "view_node": "/poem/amores-iii", "field_author": "<a href=\"/poet/e-e-cummings\" hreflang=\"und\">E. E. Cummings</a>", "field_date_published": "", "body": " <pre>there is a \nmoon sole \nin the blue \nnight \n\n             amorous of waters \ntremulous, \nblinded with silence the \nundulous heaven yearns where \n\nin tense starlessness \nanoint with ardor \nthe yellow lover \n\nstands in the dumb dark \nsvelte \nand \nurgent \n\n           (again \nlove i slowly \ngather \nof thy languorous mouth the \n\nthrilling \nflower)\n</pre>\n "}, {"title": "Amores (II)", "view_node": "/poem/amores-ii", "field_author": "<a href=\"/poet/e-e-cummings\" hreflang=\"und\">E. E. Cummings</a>", "field_date_published": "", "body": " <pre>in the rain-\ndarkness,        the sunset\nbeing sheathed i sit and\nthink of you\n\nthe holy\ncity which is your face\nyour little cheeks the streets\nof smiles\n\nyour eyes half-\nthrush\nhalf-angel and your drowsy\nlips where float flowers of kiss\n\nand\nthere is the sweet shy pirouette\nyour hair\nand then\n\nyour dancesong\nsoul.      rarely-beloved\na single star is\nuttered,and i\n\nthink\n           of you\n</pre>\n "}, {"title": "Amores (I)", "view_node": "/poem/amores-i", "field_author": "<a href=\"/poet/e-e-cummings\" hreflang=\"und\">E. E. Cummings</a>", "field_date_published": "", "body": " <pre>your little voice \n                              Over the wires came leaping \nand i felt suddenly \ndizzy \n          With the jostling and shouting of merry flowers \nwee skipping high-heeled flames \ncourtesied before my eyes \n                                                or twinkling over to my side \nLooked up \nwith impertinently exquisite faces \nfloating hands were laid upon me \nI was whirled and tossed into delicious dancing \nup \nUp \nwith the pale important \n                                                stars and the Humorous \n                                                                                                moon \ndear girl \nHow i was crazy how i cried when i heard \n                                                                              over time \nand tide and death \nleaping \nSweetly \n               your voice\n</pre>\n "}, {"title": "La Guerre (I)", "view_node": "/poem/la-guerre-i", "field_author": "<a href=\"/poet/e-e-cummings\" hreflang=\"und\">E. E. Cummings</a>", "field_date_published": "", "body": "<p>Humanity i love you<br /><span class=\"\u201clong\" line=\"\">because you would rather black the boots of</span><br /><span class=\"\u201clong\" line=\"\">success than enquire whose soul dangles from his</span><br /><span class=\"\u201clong\" line=\"\">watch-chain which would be embarrassing for both</span></p>\n\n<p><span class=\"\u201clong\" line=\"\">parties and because you</span><br /><span class=\"\u201clong\" line=\"\">unflinchingly applaud all</span><br /><span class=\"\u201clong\" line=\"\">songs containing the words country home and</span><br /><span class=\"\u201clong\" line=\"\">mother when sung at the old howard</span></p>\n\n<p><span class=\"\u201clong\" line=\"\">Humanity i love you because</span><br /><span class=\"\u201clong\" line=\"\">when you're hard up you pawn your</span><br /><span class=\"\u201clong\" line=\"\">intelligence to buy a drink and when</span><br /><span class=\"\u201clong\" line=\"\">you're flush pride keeps</span></p>\n\n<p><span class=\"\u201clong\" line=\"\">you from the pawn shop and</span><br /><span class=\"\u201clong\" line=\"\">because you are continually committing</span><br /><span class=\"\u201clong\" line=\"\">nuisances but more</span><br /><span class=\"\u201clong\" line=\"\">especially in your own house</span></p>\n\n<p><span class=\"\u201clong\" line=\"\">Humanity i love you because you</span><br /><span class=\"\u201clong\" line=\"\">are perpetually putting the secret of</span><br /><span class=\"\u201clong\" line=\"\">life in your pants and forgetting</span><br /><span class=\"\u201clong\" line=\"\">it's there and sitting down</span></p>\n\n<p><span class=\"\u201clong\" line=\"\">on it</span><br /><span class=\"\u201clong\" line=\"\">and because you are</span><br /><span class=\"\u201clong\" line=\"\">forever making poems in the lap</span><br /><span class=\"\u201clong\" line=\"\">of death Humanity</span></p>\n\n<p><span class=\"\u201clong\" line=\"\">i hate you</span></p>\n"}, {"title": "Songs (IX)", "view_node": "/poem/songs-ix", "field_author": "<a href=\"/poet/e-e-cummings\" hreflang=\"und\">E. E. Cummings</a>", "field_date_published": "", "body": " <pre>when god lets my body be\n\nFrom each brave eye shall sprout a tree\nfruit that dangles therefrom\n\nthe purpled world will dance upon\nBetween my lips which did sing\n\na rose shall beget the spring\nthat maidens whom passion wastes\n\nwill lay between their little breasts\nMy strong fingers beneath the snow\n\nInto strenuous birds shall go\nmy love walking in the grass\n\ntheir wings will touch with her face\nand all the while shall my heart be\n\nWith the bulge and nuzzle of the sea\n</pre>\n "}, {"title": "Songs (VIII)", "view_node": "/poem/songs-viii", "field_author": "<a href=\"/poet/e-e-cummings\" hreflang=\"und\">E. E. Cummings</a>", "field_date_published": "", "body": " <pre>cruelly,love \nwalk the autumn long; \nthe last flower in whose hair, \nthy lips are cold with songs \n\nfor which is \nfirst to wither,to pass? \nshallowness of sunlight \nfalls and,cruelly, \nacross the grass \nComes the \nmoon \n\nlove,walk the \nautumn \nlove,for the last \nflower in the hair withers; \nthy hair is acold with \ndreams, \nlove thou art frail \n\n\u2014walk the longness of autumn \nsmile dustily to the people, \nfor winter \nwho crookedly care.\n</pre>\n "}, {"title": "Songs (VII)", "view_node": "/poem/songs-vii", "field_author": "<a href=\"/poet/e-e-cummings\" hreflang=\"und\">E. E. Cummings</a>", "field_date_published": "", "body": " <pre>Doll's boy \u2019s asleep \nunder a stile \nhe sees eight and twenty \nladies in a line \n\nthe first lady \nsays to nine ladies \nhis lips drink water \nbut his heart drinks wine \n\nthe tenth lady \nsays to nine ladies \nthey must chain his foot \nfor his wrist \u2019s too fine \n\nthe nineteenth \nsays to nine ladies \nyou take his mouth \nfor his eyes are mine. \n\nDoll's boy \u2019s asleep \nunder the stile \nfor every mile the feet go \nthe heart goes nine\n</pre>\n "}, {"title": "Songs (VI)", "view_node": "/poem/songs-vi", "field_author": "<a href=\"/poet/e-e-cummings\" hreflang=\"und\">E. E. Cummings</a>", "field_date_published": "", "body": " <pre>Where's Madge then,\nMadge and her men?\nburied with\nAlice in her hair,\n(but if you ask the rain\nhe'll not tell where.)\n\nbeauty makes terms\nwith time and his worms,\nwhen loveliness\nsays sweetly Yes\nto wind and cold;\nand how much earth\nis Madge worth?\nInquire of the flower that sways in the autumn\nshe will never guess.\nbut i know\n</pre>\n "}, {"title": "Songs (V)", "view_node": "/poem/songs-v", "field_author": "<a href=\"/poet/e-e-cummings\" hreflang=\"und\">E. E. Cummings</a>", "field_date_published": "", "body": " <pre>All in green went my love riding \non a great horse of gold \ninto the silver dawn.\n\nfour lean hounds crouched low and smiling \nthe merry deer ran before. \n\nFleeter be they than dappled dreams \nthe swift sweet deer \nthe red rare deer. \n\nFour red roebuck at a white water \nthe cruel bugle sang before. \n\nHorn at hip went my love riding \nriding the echo down \ninto the silver dawn. \n\nfour lean hounds crouched low and smiling \nthe level meadows ran before. \n\nSofter be they than slippered sleep \nthe lean lithe deer \nthe fleet flown deer. \n\nFour fleet does at a gold valley \nthe famished arrow sang before. \n\nBow at belt went my love riding \nriding the mountain down \ninto the silver dawn. \n\nfour lean hounds crouched low and smiling \nthe sheer peaks ran before. \n\nPaler be they than daunting death \nthe sleek slim deer \nthe tall tense deer. \n\nFour tall stags at a green mountain \nthe lucky hunter sang before. \n\nAll in green went my love riding \non a great horse of gold \ninto the silver dawn. \n\nfour lean hounds crouched low and smiling \nmy heart fell dead before.\n</pre>\n "}, {"title": "Song of Myself, 52", "view_node": "/poem/song-myself-52", "field_author": "<a href=\"/poet/walt-whitman\" hreflang=\"und\">Walt Whitman</a>", "field_date_published": "1891", "body": " <p><span class=\"long-line\"><span style=\"font-size: 1em; white-space: pre-wrap;\">The spotted hawk swoops by and accuses me, he complains of my gab and my loitering.</span></span></p><p><span style=\"font-size: 1em; white-space: pre-wrap;\">I too am not a bit tamed, I too am untranslatable,</span><br /><span style=\"font-size: 1em; white-space: pre-wrap;\">I sound my barbaric yawp over the roofs of the world.</span></p><p><span style=\"font-size: 1em; white-space: pre-wrap;\">The last scud of day holds back for me,</span><br /><span class=\"long-line\"><span style=\"font-size: 1em; white-space: pre-wrap;\">It flings my likeness after the rest and true as any on the shadow'd wilds,</span></span></p><p><span style=\"font-size: 1em; white-space: pre-wrap;\">It coaxes me to the vapor and the dusk.</span></p><p><span style=\"font-size: 1em; white-space: pre-wrap;\">I depart as air, I shake my white locks at the runaway sun,</span><br /><span style=\"font-size: 1em; white-space: pre-wrap;\">I effuse my flesh in eddies, and drift it in lacy jags.</span></p><p><span style=\"font-size: 1em; white-space: pre-wrap;\">I bequeath myself to the dirt to grow from the grass I love,</span><br /><span style=\"font-size: 1em; white-space: pre-wrap;\">If you want me again look for me under your boot-soles.</span></p><p><span style=\"font-size: 1em; white-space: pre-wrap;\">You will hardly know who I am or what I mean,</span><br /><span style=\"font-size: 1em; white-space: pre-wrap;\">But I shall be good health to you nevertheless,</span><br /><span style=\"font-size: 1em; white-space: pre-wrap;\">And filter and fibre your blood.</span></p><p><span style=\"font-size: 1em; white-space: pre-wrap;\">Failing to fetch me at first keep encouraged,</span><br /><span style=\"font-size: 1em; white-space: pre-wrap;\">Missing me one place search another,</span><br /><span style=\"font-size: 1em; white-space: pre-wrap;\">I stop somewhere waiting for you.</span></p> "}, {"title": "Songs (IV)", "view_node": "/poem/songs-iv", "field_author": "<a href=\"/poet/e-e-cummings\" hreflang=\"und\">E. E. Cummings</a>", "field_date_published": "", "body": " <pre>Thy fingers make early flowers of\nall things.\nthy hair mostly the hours love:\na smoothness which\nsings,saying\n(though love be a day)\ndo not fear,we will go amaying.\n\nthy whitest feet crisply are straying.\nAlways\nthy moist eyes are at kisses playing,\nwhose strangeness much\nsays;singing\n(though love be a day)\nfor which girl art thou flowers bringing?\n\nTo be thy lips is a sweet thing\nand small.\nDeath,Thee i call rich beyond wishing\nif this thou catch,\nelse missing.\n(though love be a day\nand life be nothing,it shall not stop kissing).\n</pre>\n "}, {"title": "Songs (III)", "view_node": "/poem/songs-iii", "field_author": "<a href=\"/poet/e-e-cummings\" hreflang=\"und\">E. E. Cummings</a>", "field_date_published": "", "body": " <pre>Always before your voice my soul \nhalf-beautiful and wholly droll \nis as some smooth and awkward foal, \nwhereof young moons begin \nthe newness of his skin, \n\nso of my stupid sincere youth \nthe exquisite failure uncouth \ndiscovers a trembling and smooth \nUnstrength,against the strong \nsilences of your song; \n\nor as a single lamb whose sheen \nof full unsheared fleece is mean \nbeside its lovelier friends,between \nyour thoughts more white than wool \nMy thought is sorrowful: \n\nbut my heart smote in trembling thirds \nof anguish quivers to your words, \nAs to a flight of thirty birds \nshakes with a thickening fright \nthe sudden fooled light.\n\nit is the autumn of a year: \nWhen through the thin air stooped with fear, \nacross the harvest whitely peer \nempty of surprise \ndeath's faultless eyes \n\n(whose hand my folded soul shall know \nwhile on faint hills do frailly go \nThe peaceful terrors of the snow, \nand before your dead face \nwhich sleeps,a dream shall pass) \n\nand these my days their sounds and flowers \nFall in a pride of petaled hours, \nlike flowers at the feet of mowers \nwhose bodies strong with love \nthrough meadows hugely move. \n\nyet what am i that such and such \nmysteries very simply touch \nme,whose  heart-wholeness overmuch \nExpects of your hair pale, \na terror musical? \n\nwhile in an earthless hour my fond \nsoul seriously yearns beyond \nthis fern of sunset frond on frond \nopening in a rare \nSlowness of  gloried air... \n\nThe flute of morning stilled in noon\u2014 \nnoon the implacable bassoon\u2014 \nnow Twilight seeks the thrill of moon, \nwashed with a wild and thin \ndespair of violin\n</pre>\n "}, {"title": "Song of Myself, 2", "view_node": "/poem/song-myself-2", "field_author": "<a href=\"/poet/walt-whitman\" hreflang=\"und\">Walt Whitman</a>", "field_date_published": "2019", "body": " <p><span class=\"long-line\"><span style=\"font-size: 1em; white-space: pre-wrap;\">Houses and rooms are full of perfumes, the shelves are crowded\u00a0with perfumes,</span></span><br /><span style=\"font-size: 1em; white-space: pre-wrap;\">I breathe the fragrance myself and know it and like it,</span><br /><span class=\"long-line\"><span style=\"font-size: 1em; white-space: pre-wrap;\">The distillation would intoxicate me also, but I shall not let it.</span></span></p><p><span class=\"long-line\"><span style=\"font-size: 1em; white-space: pre-wrap;\">The atmosphere is not a perfume, it has no taste of the distillation, it is odorless,</span></span><br /><span style=\"font-size: 1em; white-space: pre-wrap;\">It is for my mouth forever, I am in love with it,</span><br /><span class=\"long-line\"><span style=\"font-size: 1em; white-space: pre-wrap;\">I will go to the bank by the wood and become undisguised and\u00a0naked,</span></span><br /><span style=\"font-size: 1em; white-space: pre-wrap;\">I am mad for it to be in contact with me.</span></p><p>The smoke of my own breath,<br /><span class=\"long-line\">Echoes, ripples, buzz'd whispers, love-root, silk-thread, crotch and\u00a0vine,</span><br /><span class=\"long-line\">My respiration and inspiration, the beating of my heart, the passing of blood and air through my lungs,</span><br /><span class=\"long-line\">The sniff of green leaves and dry leaves, and of the shore and\u00a0dark-color'd sea-rocks, and of hay in the barn,</span><br /><span class=\"long-line\">The sound of the belch'd words of my voice loos'd to the eddies\u00a0of the wind,</span><br /><span class=\"long-line\">A few light kisses, a few embraces, a reaching around of arms,</span><br /><span class=\"long-line\">The play of shine and shade on the trees as the supple boughs\u00a0wag,</span><br /><span class=\"long-line\">The delight alone or in the rush of the streets, or along the fields\u00a0and hill-sides,</span><br /><span class=\"long-line\">The feeling of health, the full-noon trill, the song of me rising from\u00a0bed and meeting the sun.</span></p>\n<pre></pre>\n<p><span class=\"long-line\">Have you reckon'd a thousand acres much? have you reckon'd\u00a0the earth much?</span><br />Have you practis'd so long to learn to read?<br />Have you felt so proud to get at the meaning of poems?</p><p><span class=\"long-line\">Stop this day and night with me and you shall possess the origin\u00a0of all poems,</span><br /><span class=\"long-line\">You shall possess the good of the earth and sun, (there are millions\u00a0of suns left,)</span><br /><span class=\"long-line\">You shall no longer take things at second or third hand, nor look\u00a0through the eyes of the dead, nor feed on the spectres in\u00a0books,</span><br /><span class=\"long-line\">You shall not look through my eyes either, nor take things from me,</span><br />You shall listen to all sides and filter them from your self.</p> "}, {"title": "Songs (II)", "view_node": "/poem/songs-ii", "field_author": "<a href=\"/poet/e-e-cummings\" hreflang=\"und\">E. E. Cummings</a>", "field_date_published": "", "body": " <pre>when life is quite through with\nand leaves say alas,\nmuch is to do\nfor the swallow,that closes\na flight in the blue;\n\nwhen love's had his tears out,\nperhaps shall pass\na million years\n(while a bee dozes\non the poppies,the dears;\n\nwhen all's done and said,and\nunder the grass\nlies her head\nby oaks and roses\ndeliberated.)\n</pre>\n "}, {"title": "Songs (I)", "view_node": "/poem/songs-i", "field_author": "<a href=\"/poet/e-e-cummings\" hreflang=\"und\">E. E. Cummings</a>", "field_date_published": "", "body": " <pre>(thee will i praise between those rivers whose\nwhite voices pass upon forgetting(fail\nme not)whose courseless waters are a gloat\nof silver;o'er whose night three willows wail,\na slender dimness in the unshapeful hour\nmaking dear moan in tones of stroked flower;\nlet not thy lust one threaded moment lose:\nhaste)the very shadowy sheep float\nfree upon terrific pastures pale,\n \nwhose tall mysterious shepherd lifts a cheek\nteartroubled to the momentary wind\nwith guiding smile,lips wisely minced for blown\nkisses,condemnatory fingers thinned\nof pity\u2014so he stands counting the moved\nmyriads wonderfully loved,\n(hasten,it is the moment which shall seek\nall blossoms that do learn,scents of not known\nmusics in whose careful eyes are dinned;\n \nand the people of perfect darkness fills\nhis mind who will their hungering whispers hear\nwith weepings soundless,saying of \"alas\nwe were chaste on earth we ghosts:hark to the sheer\ncadence of our grey flesh in the gloom!\nand still to be immortal is our doom;\nbut a rain frailly raging whom the hills\nsink into and their sunsets,it shall pass.\nOur feet tread sleepless meadows sweet with fear\")\n \nthen be with me:unseriously seem\nby the perusing greenness of thy thought\nmy golden soul fabulously to glue\nin a superior terror;be thy taut\nflesh silver,like the currency of faint\ncities eternal\u2014ere the sinless taint\nof thy long sinful arms about me dream\nshall my love wholly taste thee as a new\nwine from steep hills by darkness softly brought\u2014\n \n(be with me in the sacred witchery\nof almostness which May makes follow soon\non the sweet heels of passed afterday,\nclothe thy soul's coming merely,with a croon\nof mingling robes musically revealed\nin rareness:let thy twain eyes deeply wield\na noise of petals falling silently\nthrough the far-spaced possible nearaway\nfrom huge trees drenched by a rounding moon)\n</pre>\n "}, {"title": "Elegy for a Gopher", "view_node": "/poem/elegy-gopher", "field_author": "<a href=\"/poet/ellen-bass\" hreflang=\"und\">Ellen Bass</a>", "field_date_published": "2019", "body": " <p>The pads of your paws scrabble<br />as I drag you from the tunnel<br />clamped to the shiny green trap,<br />a baby, hell-bent on saving<br />your twist of life, spun<br />from the same cells as I am, the common<br />intelligence of fins, wings, limbs.<br />The first time you see the sun<br />you\u2019re splayed on your back, the shadow<br />of my blade above you.<br />Your ears, tiny colorless petals,<br />and at the tips of your articulated fingers,<br />ten frantic claws. When I strike,<br />your mouth opens stunningly<br />wide, a scream so silent<br />all sound is sucked down the naked<br />whirlpool of your throat. I hate<br />that I can salvage nothing.<br />I can\u2019t skin and eat you, stuff or display<br />your fur on the mantel.<br />I won\u2019t carve a needle<br />from your bone. Bit of breath<br />I bury under a stone.</p> "}], "pager": {"current_page": 180, "total_items": "13248", "total_pages": 663, "items_per_page": 20}}