{"rows": [{"title": "Happy first anniversary (in anticipation of your thirty ninth)", "view_node": "/poem/happy-first-anniversary-anticipation-your-thirty-ninth", "field_author": "<a href=\"/poet/bob-hicok\" hreflang=\"und\">Bob Hicok</a>", "field_date_published": "2013", "body": " <pre>&#13;\nI don't have much time. I'm an important person&#13;\nto chickadees and mourning doves, whose feeder &#13;\nwas smashed last night by a raccoon. Soon &#13;\nI'll be wielding duct tape, noticing the dew, &#13;\nwanting to bathe in it, hoping the awkwardness &#13;\nof yesterday (three instances of people talking &#13;\nwith bear traps for mouths) never repeats itself &#13;\nand we all go forward as if to a party &#13;\nfor a five year old who refuses to smash candy &#13;\nout of a burro. It's too cute, the burro, too real &#13;\nfor him not to ask his mother, can I keep it, &#13;\nand when the other children cry, they're given &#13;\nlake front property, it works out, this &#13;\nis what I see for you, the working out. Think of the year &#13;\nbehind you as a root or think of going to Spain &#13;\nand feeling sorry for bulls or don't think, &#13;\nthis isn't the SATs, don't think but stay. &#13;\nStay happy, honest, stay as tall as you are &#13;\nas long as you can using giraffes if you need to &#13;\nto see each other above the crowd. I have these moments &#13;\nwhen I realize I'm not breathing, my wife &#13;\nis never why I'm not breathing and always why &#13;\nI want to lick a human heart, remember that each of you &#13;\nis half of why your bed will sag toward the middle &#13;\nof being a boat and that you both will sag &#13;\nif you're lucky together, be lucky together &#13;\nand acquire in sagging more square footage &#13;\nto kiss and to hold. And always remember &#13;\nthat I hate you for being so much closer &#13;\nthan I am to where none of us ever get to go &#13;\nagain - first look, first touch, first &#13;\ninadvertent brush of breath or hair, first time &#13;\nyou turned over and looked at who was surprising &#13;\nyou by how fully she was there.</pre>&#13;\n "}, {"title": "Opus 181", "view_node": "/poem/opus-181", "field_author": "<a href=\"/poet/arthur-davison-ficke\" hreflang=\"und\">Arthur Davison Ficke</a>", "field_date_published": "1916", "body": " <pre>\nSkeptical cat,\nCalm your eyes, and come to me. \nFor long ago, in some palmed forest,\nI too felt claws curling\nWithin my fingers...\nMoons wax and wane;\nMy eyes, too, once narrowed and widened...\nWhy do you shrink back?\nCome to me: let me pat you\u2014\nCome, vast-eyed one...\nOr I will spring upon you\nAnd with steel-hook fingers\nTear you limb from limb...\n\nThere were twins in my cradle...</pre>\n "}, {"title": "Opus 80", "view_node": "/poem/opus-80", "field_author": "<a href=\"/poet/arthur-davison-ficke\" hreflang=\"und\">Arthur Davison Ficke</a>", "field_date_published": "1916", "body": " <pre>\nOH my little house of glass!\nHow carefully\nI have planted shrubbery\nTo plume before your transparency.\nLight is too amorous of you,\nTransfusing through and through\nYour panes with an effulgence never new.\nSometimes\nI am terribly tempted\nTo throw the stones myself.</pre>\n "}, {"title": "From a Bridge Car", "view_node": "/poem/bridge-car", "field_author": "<a href=\"/poet/elias-lieberman\" hreflang=\"und\">Elias Lieberman</a>", "field_date_published": "1917", "body": " <pre>\nRiver inscrutable, river mysterious,\n     Mornings or evenings, in gray skies or blue,\nThousands of toilers in gay mood or serious,\n     Workward and homeward have gazed upon you.\n\nSwirling or sluggish, but ever inscrutable,\n     Sparkling or oily, but never the same;\nYou, like the city, mysterious, mutable,\n     Tremble with passions which no on can name.</pre>\n "}, {"title": "Coming and Going", "view_node": "/poem/coming-and-going", "field_author": "<a href=\"/poet/tony-hoagland\" hreflang=\"und\">Tony Hoagland</a>", "field_date_published": "2013", "body": " <pre>&#13;\nMy marriage ended in an airport long ago.&#13;\nI was not wise enough to cry while looking for my car,&#13;\n&#13;\nwalking through the underground garage;&#13;\njets were roaring overhead, and if I had been wise&#13;\n&#13;\nI would have looked up at those heavy-bellied cylinders&#13;\nand seen the wheelchairs and the frightened dogs inside;  &#13;\n&#13;\nthe kidneys bedded in dry ice and Styrofoam containers.&#13;\nI would have known that in synagogues and churches all over town &#13;\n&#13;\ncouples were gathering like flocks of geese &#13;\ngetting ready to take off,  while here the jets were putting down &#13;\n&#13;\ntheir gear, getting ready for the jolt, the giant tires &#13;\nshrieking and scraping off two &#13;\n&#13;\nlong streaks of rubber molecules,&#13;\nthat might have been my wife and I, screaming in our fear.&#13;\n&#13;\nIt is a matter of amusement to me now,    &#13;\nme staggering around that underground garage,  &#13;\n&#13;\ntrying to remember the color of my vehicle,&#13;\nunable to recall that I had come by cab\u2014&#13;\n&#13;\neventually gathering myself and going back inside,&#13;\nquite matter-of-fact,&#13;\n&#13;\nto get the luggage &#13;\nI would be carrying for the rest of my life.</pre>&#13;\n "}, {"title": "Joyride", "view_node": "/poem/joyride", "field_author": "<a href=\"/poet/ana-bozicevic\" hreflang=\"und\">Ana Bo\u017ei\u010devi\u0107</a>", "field_date_published": "2013", "body": " <pre>\nSkinny dirt road\nIn the middle of the ocean.\nThat led to the house of art.\nI took it. The engine nearly\nDrowned. I lied that it was fun\nThat I'd do it again. When I got to\nThat shore\nThe house was gone and when\nI looked back, so was the path.\nNow I'm old. Drown in my bed\nA thousand miles inland.\nFor years I thought\nI could\nArt my way back. Cats sing\nOf rose dawns. This country's a\nMirror image\nOf the one I left, except\nI've bad dreams. And\nYou're the only\nPerson who's not here.\nIs it the same\nFor you.</pre>\n "}, {"title": "Friend,", "view_node": "/poem/friend-0", "field_author": "<a href=\"/poet/jean-valentine\" hreflang=\"und\">Jean Valentine</a>", "field_date_published": "2013", "body": " <pre>\nYou came in a dream, yesterday\n\u2014The first day we met\nyou showed me your dark workroom\noff the kitchen, your books, your notebooks.\n\nReading our last, knowing-last letters\n\u2014the years of our friendship\nreading our poems to each other,\nI would start breathing again.\n\nYesterday, in the afternoon,\nmore than a year since you died,\nsome words came into the air.\nI looked away a second,\nand they were gone,\nsix lines, just passing through.\n\n                                          <i>for Adrienne Rich</i></pre>\n "}, {"title": "Prayer from a Mouse", "view_node": "/poem/prayer-mouse", "field_author": "<a href=\"/poet/sarah-messer\" hreflang=\"und\">Sarah Messer</a>", "field_date_published": "2013", "body": " <pre>&#13;\nDimensionless One, can you hear me? &#13;\nMe with the moon ears, caught &#13;\nin ice branches?&#13;\n\t&#13;\nBeneath the sky\u2019s long house,&#13;\nbeneath the old snake tree,&#13;\nI pray to see even a fragment&#13;\nof you\u2014&#13;\n \t\t\twhiskers ticking&#13;\n &#13;\na deserted street,&#13;\na staircase leading &#13;\nto the balcony&#13;\nof your collarbone.&#13;\n&#13;\nBeloved King of Stars, I cannot &#13;\ncontain my animal movements.&#13;\n&#13;\nFor you I stay like a mountain.&#13;\nFor you I stay like a straight pin.&#13;\n\t\t&#13;\nBut in the end, the body leaves us &#13;\nits empty building. &#13;\n&#13;\nMidnight petulant&#13;\nas a root cellar. Wasps crawling  &#13;\nin sleeves. I sleep &#13;\n&#13;\nwith my tail over &#13;\nmy face, enflamed.&#13;\n&#13;\nOh Great Cataloguer &#13;\nof Snow Leaves, I pray &#13;\nthat you may appear &#13;\nand carry every piece &#13;\nof my fur in your hands.</pre>&#13;\n "}, {"title": "To a Young Girl at a Window", "view_node": "/poem/young-girl-window", "field_author": "<a href=\"/poet/margaret-widdemer\" hreflang=\"und\">Margaret Widdemer</a>", "field_date_published": "1918", "body": " <pre>\nThe Poor Old Soul plods down the street,\n        Contented, and forgetting\nHow Youth was wild, and Spring was wild\n        And how her life is setting;\n\nAnd you lean out to watch her there,\n        And pity, nor remember,\nThat Youth is hard, and Life is hard,\n        And quiet is December. </pre>\n "}, {"title": "Escape", "view_node": "/poem/escape-0", "field_author": "<a href=\"/poet/elinor-wylie\" hreflang=\"und\">Elinor Wylie</a>", "field_date_published": "1923", "body": " <pre>\nWhen foxes eat the last gold grape,\nAnd the last white antelope is killed,\nI shall stop fighting and escape\nInto a little house I'll build.\n\nBut first I'll shrink to fairy size,\nWith a whisper no one understands,\nMaking blind moons of all your eyes,\nAnd muddy roads of all your hands.\n\nAnd you may grope for me in vain\nIn hollows under the mangrove root,\nOr where, in apple-scented rain,\nThe silver wasp-nests hang like fruit.</pre>\n "}, {"title": "Austerity", "view_node": "/poem/austerity", "field_author": "<a href=\"/poet/janet-loxley-lewis\" hreflang=\"und\">Janet Loxley Lewis</a>", "field_date_published": "1920", "body": " <pre>\nFrom \u201cCold Hills\u201d\n\nI have lived so long\t\nOn the cold hills alone \u2026\t\nI loved the rock\t\nAnd the lean pine trees,\t\nHated the life in the turfy meadow,\nHated the heavy, sensuous bees.\t\nI have lived so long\t\nUnder the high monotony of starry skies,\t\nI am so cased about\t\nWith the clean wind and the cold nights,\nPeople will not let me in\t\nTo their warm gardens\t\nFull of bees.</pre>\n "}, {"title": "Montparnasse", "view_node": "/poem/montparnasse", "field_author": "<a href=\"/poet/ernest-hemingway\" hreflang=\"und\">Ernest Hemingway</a>", "field_date_published": "1920", "body": " <pre>\nThere are never any suicides in the quarter among people one knows\nNo successful suicides.\nA Chinese boy kills himself and is dead.\n(they continue to place his mail in the letter rack at the Dome)\nA Norwegian boy kills himself and is dead.\n(no one knows where the other Norwegian boy has gone)\nThey find a model dead\nalone in bed and very dead.\n(it made almost unbearable trouble for the concierge)\nSweet oil, the white of eggs, mustard and water, soap suds\nand stomach pumps rescue the people one knows.\nEvery afternoon the people one knows can be found at the caf\u00e9.</pre>\n "}, {"title": "A Love", "view_node": "/poem/love-2", "field_author": "<a href=\"/poet/lorenzo-calogero\" hreflang=\"und\">Lorenzo Calogero</a>", "field_date_published": "2013", "body": " <pre>\nBlond fireflies amid the summer hedges,\nhow splendid your sunray\ndarting through the darkness! You\u2019ve reminded me\nof something that has never vanished\nfrom my childhood: infinite\nhope through the fields. I see myself\nas a child again, feel the unknown \nrhythm of times past: \nI a dream I am lying on a girl\nstuck in my heart:\na musical bas-relief\nfor vast infinity: I compare her\nto the moon, to the stars,\nto the splendorous night\nand everything attaches me to that love\nI lose myself in:\nof this I actually know nothing\nexcept a confusing clamor.\n\n\n<b>Un amore</b>\n\nLucciole bionde per le siepi d\u2019estate,\ncom\u2019\u00e8 splendido il vostro raggio\nche per le tenebra appare! Voi mi ricordate\nqualcosa che non si annulla\ndella mia fanciullezza: infinita\nsperanza pei prati. Mi rivedo\nfanciullo, sento l\u2019ignota\ncadenza di tempi andati:\nsono in sogno sopra una fanciulla \nche mi s\u2019\u00e8 fitta in cuore:\nun bassorilievo musicale\nper estese infinit\u00e0: la paragono\nalla luna, alle stelle,\nallo splendore della notte\ne tutto mi affiso in quell\u2019amore\ne mi vi disperdo:\ndi qui non so nulla\n</pre>\n "}, {"title": "from Fortino Samano", "view_node": "/poem/fortino-samano", "field_author": "<a href=\"/poet/virginie-lalucq\" hreflang=\"und\">Virginie Lalucq</a>", "field_date_published": "2012", "body": " <pre>\nHow can he be absolutely in motion and\nabsolutely motionless at the same time?\nIs it because, far from his place, he seeks\nabsolutely to return there? Or to occupy it\nabsolutely?\nA body in motion sometimes leaves traces \nin motionless bodies. From which the snowy\nimage: each thing in its place is absolutely in\nmotion is absolutely at rest.\n\n\nD\u2019o\u00f9 vient qu\u2019il est absolument en mouvement et\nabsolument immobile en m\u00eame temps ?\nEst-ce parce qu\u2019\u00e9loign\u00e9 de son lieu, il cherche\nabsolument \u00e0 y retourner ? Ou bien qu\u2019il l\u2019occupe \nabsolument ?\nUn corps en mouvement laisse parfois des traces\ndans les corps immobiles. D\u2019o\u00f9 l\u2019effet neigeux de\nl\u2019image: chaque chose \u00e0 sa place est absolument\nen mouvement est absolument au repos. \n</pre>\n "}, {"title": "A Windflower", "view_node": "/poem/windflower", "field_author": "<a href=\"/poet/lizette-woodworth-reese\" hreflang=\"und\">Lizette Woodworth Reese</a>", "field_date_published": "1891", "body": " <pre>\nThe wind stooped down and wrote a sweet, small word,\nBut the snow fell, and all the writing blurred:\nNow, the snow gone, we read it as we pass,\u2014\nThe wind\u2019s word in the grass.\n</pre>\n "}, {"title": "Telling the Bees", "view_node": "/poem/telling-bees-0", "field_author": "<a href=\"/poet/lizette-woodworth-reese\" hreflang=\"und\">Lizette Woodworth Reese</a>", "field_date_published": "1900", "body": " <pre>\n<i>A Colonial Custom</i>\n\nBathsheba came out to the sun,\nOut to our wall\u00e8d cherry-trees;\nThe tears adown her cheek did run,\nBathsheba standing in the sun,\nTelling the bees.\n\nMy mother had that moment died;\nUnknowing, sped I to the trees,\nAnd plucked Bathsheba\u2019s hand aside;\nThen caught the name that there she cried\nTelling the bees.\n\nHer look I never can forget,\nI that held sobbing to her knees;\nThe cherry-boughs above us met;\nI think I see Bathsheba yet\nTelling the bees.</pre>\n "}, {"title": "In a Landscape: IV", "view_node": "/poem/landscape-iv", "field_author": "<a href=\"/poet/john-gallaher\" hreflang=\"und\">John Gallaher</a>", "field_date_published": "2013", "body": " <pre>&#13;\nNow the scene changes, we say, and the next few years &#13;\nare quiet.  It\u2019s another curse, the inverse of the \u201cinteresting times\u201d&#13;\nthe Chinese were said to go on so about.  Nevertheless, there it is, &#13;\nas the emptiness needs a something in order to be defined as empty, &#13;\nwhich means we spend the next few years talking about other years, &#13;\nas if that\u2019s what\u2019s important.  Maybe that is what\u2019s important.  It was terrible, &#13;\nthe hospital stay.  The children.  Not the children in the abstract way, &#13;\nbut those times worried that this would go wrong, or that, and then things &#13;\ndo go wrong and it almost feels like we\u2019d wished for it to happen, &#13;\nso not only do we have to go through this terrible time, but we also &#13;\nhave to keep reminding ourselves that we didn\u2019t wish for it.  It\u2019s Problem &#13;\nOne.  And there\u2019s our two-year-old son strapped to a board with an IV, crying.  &#13;\n&#13;\nAnd doesn\u2019t it feel like a formal device then?  As if expecting it &#13;\nwere the same\u2014or is the same\u2014as willing it, but then almost willing it anyway, &#13;\nsaying something like, \u201cPlease God, or whomever, get it over with already . . .\u201d &#13;\nif the world isn\u2019t going to be a museum only, as museums keep calling out &#13;\nthat there\u2019s so much more to find in the past, like ourselves, for instance.  &#13;\nThe simplification of our forms.  The question of why it might be important &#13;\nto save our dinnerware, or Yo-yos.  We have these accidents &#13;\nin common: last night I was pulling a filing cabinet upstairs on a hand truck, &#13;\nand at the 90 degree turn it fell on top of me and I had to hold it like that, &#13;\none wheel on the stair, one in mid-air.  So I had some time on my hands, &#13;\nwaiting for Robin to get home.  They say that if you relax, lying there &#13;\nis 80% as restful as sleep.  And knowing how to relax is key, they say.  &#13;\n&#13;\nHere\u2019s a guess: we will sit on a wooden lawn-chair in the sun, and we &#13;\nwill like it.  We will run the numbers and think it sounds like a good &#13;\nproposition.  We will consult a map, even ask directions.  The sun\u2019s &#13;\nout right now, in fact, and it\u2019s all a matter of doing the next big thing.  &#13;\nDriving home, say.  And then it\u2019s a manner of having done something.  &#13;\nDriving past the car wash.  Yes, forcing a matter of doing the next &#13;\nthing, which is filling out the accident report, while the old man &#13;\nwho hit my pickup is crying in the street.  And then I\u2019m walking around, &#13;\npicking up the fender and light pieces and putting them in the bed.</pre>&#13;\n "}, {"title": "Toad", "view_node": "/poem/toad", "field_author": "<a href=\"/poet/diane-seuss\" hreflang=\"und\">Diane Seuss</a>", "field_date_published": "2013", "body": " <pre>&#13;\nThe grief, when I finally contacted it &#13;\ndecades later, was black, tarry, hot,&#13;\nlike the yarrow-edged side roads &#13;\nwe walked barefoot in the summer. &#13;\n&#13;\nSometimes we\u2019d come upon a toad &#13;\nflattened by a car tire, pressed into &#13;\nthe softened pitch, its arms spread out &#13;\na little like Jesus, and it was now &#13;\n&#13;\npart of the surface of the road, part &#13;\nof the road\u2019s story. Then there was &#13;\nthe live toad I discovered under &#13;\nthe poison leaves of the rhubarb,&#13;\n&#13;\nhiding there among the ruby stems,&#13;\nand if you ate those stems raw, &#13;\nenough of them, you\u2019d shit yourself&#13;\nfor days. It isn\u2019t easy to catch a living &#13;\n&#13;\nthing and hold it until it pees on you&#13;\nin fear. Its skin was the dull brown &#13;\nof my father\u2019s clothes, my grandfather\u2019s &#13;\nclothes as he stood behind the barber\u2019s &#13;\n&#13;\nchair, clipping sideburns, laying a warm &#13;\nheap of shaving cream over a bristly chin, &#13;\nsharpening his straight razor and swiping it &#13;\nover the foam-covered cheek of my father, &#13;\n&#13;\nwho often shaved twice a day, his beard &#13;\nwas so obstinate, even in the hospital bed. &#13;\nWhen I laid a last kiss on his young cheek, &#13;\nthe scraping hurt my lips. Do you ever &#13;\n&#13;\nwonder, in your heart of hearts, &#13;\nif God loves you, if the angels love you, &#13;\nscowling, holding their fiery swords, &#13;\nradiating green light? If your father &#13;\n&#13;\nloved you, if he had room to love you, &#13;\ngiven his poverty and suffering, or if &#13;\na coldness had set in, a cold-bloodedness, &#13;\nlike Keats at the end, wanting a transfusion &#13;\n&#13;\nof the reader\u2019s life blood so he could live &#13;\nagain. Either way, they\u2019re all safely &#13;\nunderground, their gentleness or ferocity, &#13;\ntheir numb love, and my father\u2019s &#13;\n&#13;\ntar-colored hair, and the fibers of his good &#13;\nsuit softened by wood tannins, &#13;\nand grandfather\u2019s glass eye with its &#13;\npainted-on mud-colored iris, &#13;\n&#13;\nmaybe all that\u2019s left of him in that walnut &#13;\nbox, and Keats and his soft brown clothes, &#13;\nand the poets before and after him.&#13;\nBut their four-toed emissary sits &#13;\n&#13;\nin my hand. I feel the quickening pulse &#13;\nthrough its underbelly. Hooded eyes, &#13;\nmolasses-tinged, unexpressive, &#13;\nthe seam of its mouth glued shut.</pre>&#13;\n "}, {"title": "The Problem of Hands", "view_node": "/poem/problem-hands", "field_author": "<a href=\"/poet/louise-mathias\" hreflang=\"und\">Louise Mathias</a>", "field_date_published": "2013", "body": " <pre>&#13;\nAnd how to fill them &#13;\nis the problem of cigarettes and paint.  &#13;\n&#13;\nFirst time I felt my undoing &#13;\nwas in front of &#13;\n&#13;\na painting\u2014Sam Francis, I believe.  &#13;\n&#13;\nOh, his bloomed out, Xanax-ed California.&#13;\n&#13;\nI liked the word guard, but you know&#13;\n&#13;\nwe made each other&#13;\nnervous, standing too close&#13;\n&#13;\nfor everyone concerned. All art being &#13;\n&#13;\na form of violence&#13;\nas a peony &#13;\nis violence. &#13;\n&#13;\nHere you come&#13;\n&#13;\nwith your open hands. </pre>&#13;\n "}, {"title": "One Shies at the Prospect of Raising Yet Another Defense of Cannibalism", "view_node": "/poem/one-shies-prospect-raising-yet-another-defense-cannibalism", "field_author": "<a href=\"/poet/josh-bell\" hreflang=\"und\">Josh Bell</a>", "field_date_published": "2013", "body": " <pre>&#13;\n\"You can't kiss a movie,\" Jean Luc Godard said, and this is mostly true, in that you cannot&#13;\ninitiate the kiss. The Movie could initiate the kiss if The Movie wanted, as it is so much taller, &#13;\nleaning in, no way to demur, you would be too polite anyway, and, as the Roman poets have &#13;\nstressed, there is always something porous in the decorous. So there can be kissing between you &#13;\nand The Movie, and it would be amazing, better the more incoherent The Movie is and the more &#13;\nyou had to pay to see it, though in the movies it is said that prostitutes don't like to kiss as kissing &#13;\nis too personal, though I disagree, as sometimes the human will make a show of locating you &#13;\nwith a kiss, almost to prove to you that you are a real person with a face and that, absolutely, &#13;\nthey know where the face is and the face isn't, and this is how you know, for sure, that both of &#13;\nyou have been paid. But I don't want to make you feel bad here, and I apologize, for you are &#13;\nentirely kissable, as I have watched you through windows and keyholes even though, up to this &#13;\npoint, you do not appear in movies. Often you appear holding a book in your hand and with God &#13;\nknows what playing in your head\u2014I imagine you repeating to yourself, over and again, \"the &#13;\nhorse knows the way, the horse knows the way\"\u2014and remember: even someone as learned in &#13;\nfilm as Jean Luc Godard got it a little wrong. You can kiss The Movie, if The Movie wants to &#13;\nkiss you. It's just that The Movie, finally, isn't all that interested in your mouth.</pre>&#13;\n "}], "pager": {"current_page": 414, "total_items": "13248", "total_pages": 663, "items_per_page": 20}}