{"rows": [{"title": "Putting Things In Proportion (audio only)", "view_node": "/poem/putting-things-proportion-audio-only", "field_author": "<a href=\"/poet/kay-ryan\" hreflang=\"und\">Kay Ryan</a>", "field_date_published": "2011", "body": " <p>\u00a0</p><p>Click the icon above to listen to this audio poem.</p> "}, {"title": "Counting (audio only)", "view_node": "/poem/counting-audio-only", "field_author": "<a href=\"/poet/gerald-stern\" hreflang=\"und\">Gerald Stern</a>", "field_date_published": "2011", "body": " <p>\u00a0</p><p>Click the icon above to listen to this audio poem.</p> "}, {"title": "from Colors in the Mechanism of Concealment (audio only)", "view_node": "/poem/colors-mechanism-concealment-audio-only", "field_author": "<a href=\"/poet/anne-waldman\" hreflang=\"und\">Anne Waldman</a>", "field_date_published": "2011", "body": " <p>\u00a0</p><p>Click the icon above to listen to this audio poem.</p> "}, {"title": "Thinking, It&#039;s Ok to Discuss", "view_node": "/poem/thinking-its-ok-discuss", "field_author": "<a href=\"/poet/michelle-taransky\" hreflang=\"und\">Michelle Taransky</a>", "field_date_published": "2011", "body": " <pre>\nThis\u2014 The best tree\nIs sick now, now discuss\nWhere to look, discuss:\nThe cause, and, if\nPossible, discuss who\nCould have prevented\nThe workers who are working\nTo prevent, and if it happens then\nPrepares to discuss how bodger will\nRecognize people saying \"sick\"\nEverywhere, discuss how to handle\nDiscussing one sickness as if \nThat sickness is the other\nSickness\u2014 Ok, sickness\nOk to say ok discuss\nDiscuss the landscape\nWhen it changes from woods\nTo sorry. To not the ideal \nTree to use as the marker\nBeginning a discussion by a river\nMay confuse explanation with justification,\nAnd, how to avoid, when I say I need\nA new chair to work, you think:\nI am using the chair as a metaphor</pre>\n "}, {"title": "&quot;Also Birds&quot; [excerpt]", "view_node": "/poem/also-birds-excerpt", "field_author": "<a href=\"/poet/dawn-lundy-martin\" hreflang=\"und\">Dawn Lundy Martin</a>", "field_date_published": "2011", "body": "<p><span class=\"long-line\">Here, a description of stalemate looking past shore. Here is the fragment, the stunted word store.</span></p>\n\n<p><span class=\"long-line\">Life brings us to the dedication of the droning fisherman, all his preparations for autumn\u2014thermal thigh-high rubbers...</span></p>\n\n<p><span class=\"long-line\">Land trauma, spill snot from earth. A hole so deep on fire and imagined ends/endless. Glory arm reaches in.</span></p>\n\n<p><span class=\"long-line\">Speed is distracting.</span></p>\n\n<p><span class=\"long-line\">I've a faith prescription.</span></p>\n\n<p><span class=\"long-line\">If you multiply geography by time you have right here.</span></p>\n\n<p><span class=\"long-line\">Wake into a dream, or first glimpses of the afterlife, God just beyond the threshold, saying <i>you can have anything you want</i>.</span></p>\n\n<p><span class=\"long-line\">To be held fiercely, a wave: be still.</span></p>\n\n<p><span class=\"long-line\">Sudden awareness of the possibility of absolute loss. From mire, everything's riding on this.</span></p>\n\n<p><span class=\"long-line\">Sunlight, our undertaking.</span></p>\n\n<p><span class=\"long-line\">What it means to, in the absence of wholeness\u2014side of the self, caught by glimpse. How could we have not seen this before?</span></p>\n\n<p><span class=\"long-line\">My bright scarf, a masquerade. Hinter swan.</span></p>\n"}, {"title": "Here", "view_node": "/poem/here", "field_author": "<a href=\"/poet/ed-roberson\" hreflang=\"und\">Ed Roberson</a>", "field_date_published": "2011", "body": "<p><span class=\"long-line\">There is nothing concrete to grasp in </span><br /><span class=\"long-line\">looking into the morning sky</span></p>\n\n<p><span class=\"long-line\">The evidence of red-eye </span><br /><span class=\"long-line\">flights east a plane drawn line presents</span></p>\n\n<p><span class=\"long-line\">is not a wheelbarrow solid enough </span><br /><span class=\"long-line\">dependency as day and night</span></p>\n\n<p><span class=\"long-line\">carry\u00a0\u00a0\u00a0in coming and going</span><br /><span class=\"long-line\">You don't see the poem</span></p>\n\n<p><span class=\"long-line\">saying anything you can't see in it</span><br /><span class=\"long-line\">White dashes of contrails' </span></p>\n\n<p><span class=\"long-line\">seemingly unmoving streak towards sunrise</span><br /><span class=\"long-line\">disquiet the pale otherwise </span></p>\n\n<p><span class=\"long-line\">unpunctuated blue of dawn\u00a0\u00a0\u00a0 </span><br /><span class=\"long-line\">breaks it off\u00a0\u00a0\u00a0\u00a0\u00a0\u00a0\u00a0\u00a0\u00a0\u00a0\u00a0\u00a0\u00a0\u00a0\u00a0\u00a0Here is that silence</span></p>\n"}, {"title": "On the Sparrow: No Blame", "view_node": "/poem/sparrow-no-blame", "field_author": "<a href=\"/poet/ed-roberson\" hreflang=\"und\">Ed Roberson</a>", "field_date_published": "2010", "body": " <pre>\n When I worked in the steel mill\nthe ceiling crane dropped a bolt\nat my feet          the way the cat\nleaves his catch on the doorstep\nfor me        to step over it\na bolt thick as a sparrow:\nthe gift of it:              it didn't\neasy as eggshell crack my skull.\n\nWalking underneath the el's\nsame bridge superstructure\nwhen i first arrived\nin Chicago    this is what\nI thought of          a falling bolt,\nhaving to give up my cats\nand not be mad if the whole \nthing falls off track aimed at me.\n\nBuildings straight up from the street\ntall slough off their \"Falling Ice,\"\nstand-up sidewalk signs like it's nothing.\nBuildings the sparrow's slam into,\nfall from\u2014    watched from the window desks\u2014\nmistaking light for the sky, land up here.\nThe cats probably have been\nput to sleep by age by now. No blame.</pre>\n "}, {"title": "Nolan,", "view_node": "/poem/nolan", "field_author": "<a href=\"/poet/ed-roberson\" hreflang=\"und\">Ed Roberson</a>", "field_date_published": "2010", "body": " <pre>\n                     <i>The apparition of these faces in the crowd...)</i>\n\n\n\nriding the bullet train\nthe view passes by so fast\nit is either a blur they say\n\nor \u2014like night lightning\nstrobes the raindrops\nto a stop in midair\n\nin that soundless moment\u2014\nmaybe from the train you can glimpse\nwaiting there\n\none of those famous petals stopped still\nin midair holding its wave to you\nin place.        write us\n\nand tell us if\nthis is so.</pre>\n "}, {"title": "Your Brain Is Yours", "view_node": "/poem/your-brain-yours", "field_author": "<a href=\"/poet/natalie-lyalin\" hreflang=\"und\">Natalie Lyalin</a>", "field_date_published": "2011", "body": " <pre>\nI am baptized by coins with a faint smell of elderflower.\n\nI transfigure, blink in one part of the house and then another.\n\nA holy night unfolds and stands weakly.\n\nA child chemist mixes a star in a test tube.\n\nGlass shatters lightly.\n\nI am a saint.\n\nI soothe with marmalade and tonic.\n\nI embroider a pillow and give it a squeeze.\n\nI attach a heavy gold necklace to a horse rump.\n\nWe clang along across the empire.\n\nEvery church window flies open in greeting.\n\nEvery bell rings weary.\n\nI stretch my arms out and receive light.\n\nMy face appears on a tree.\n\nRed flowers spring forward.\n\nI attend a funeral, and then another.\n\nMy face appears in water, lightly distorted.\n\nI am tired like the ancients were tired.</pre>\n "}, {"title": "Detail of the Woods", "view_node": "/poem/detail-woods", "field_author": "<a href=\"/poet/richard-siken\" hreflang=\"und\">Richard Siken</a>", "field_date_published": "2011", "body": " <pre>\nI looked at all the trees and didn't know what to do.\n\nA box made out of leaves.\nWhat else was in the woods? A heart, closing. Nevertheless.\n\nEveryone needs a place. It shouldn't be inside of someone else.\nI kept my mind on the moon. Cold moon, long nights moon.\n\nFrom the landscape: a sense of scale.\nFrom the dead: a sense of scale.\n\nI turned my back on the story. A sense of superiority.\nEverything casts a shadow.\n\nYour body told me in a dream it's never been afraid of anything.</pre>\n "}, {"title": "This Deepening Takes Place Again", "view_node": "/poem/deepening-takes-place-again", "field_author": "<a href=\"/poet/emily-kendal-frey\" hreflang=\"und\">Emily Kendal Frey</a>", "field_date_published": "2011", "body": " <pre>\nWhat if everything \nwere revealed: where I was\nlast night. You, etc. The rain\nis coming down like salad.\nMy sister's hair\nreminds me of my sister\nso much I can't \nstop looking. Who am I\nto have arms? On the plane\none short dream:\na baby so small\nit wasn't even human,\njust a bouquet \nof light with wise\ncellular eyes. If losing me\nis the worst thing to happen,\nyour life is still a good life.</pre>\n "}, {"title": "First Light Edging Cirrus", "view_node": "/poem/first-light-edging-cirrus", "field_author": "<a href=\"/poet/jane-hirshfield\" hreflang=\"und\">Jane Hirshfield</a>", "field_date_published": "2011", "body": "<p>1025 molecules<br />\nare enough\u00a0<br />\nto call woodthrush or apple.</p>\n<p>A hummingbird, fewer.<br />\nA wristwatch: 1024.</p>\n<p>An alphabet's molecules,<br />\ntasting of honey, iron, and salt,<br />\ncannot be counted\u2014</p>\n<p>as some strings, untouched,<br />\nsound when a near one is speaking.</p>\n<p>As it was when love slipped inside us.<br />\nIt looked out face to face in every direction.</p>\n<p>Then it was inside the tree, the rock, the cloud.</p>\n<p>\u20142009<br />\n\u00a0</p>\n"}, {"title": "Postcard from Rockport", "view_node": "/poem/postcard-rockport", "field_author": "<a href=\"/poet/april-lindner\" hreflang=\"und\">April Lindner</a>", "field_date_published": "2011", "body": " <pre>\nCold as a slap, this indigo sea,\nwhere we clamber on blonde-fringed rocks,\nwhere someone's tarted up the fishing shacks\nwith red paint and artful nets.\n\nThe sun floats like ice in a highball.\nCondos train their plate-glass gazes\non the horizon, amnesiac\nto past conspiracies of cloud,\n\nstorms that shook homes and swallowed boats.\nJust north, a granite wall's etched with the lost\u2014\ndecades of their half-remembered names.\n\nImagine waking always to this spread\u2014\neach day the ocean swelling \nto loll at your feet, exotic pet.\n\nThe galleries glow, ripe with impasto,\nsunsets we could be bite into:\nraspberries, marzipan, seafoam like cream.\n\nTheir artists shoot for the numinous,\noverlook the jagged and impermanent:\n \nbarnacles overtaking the dock,\nclustered mussels, tangled kelp\nand the steady lament\nof pebbles tugged senseless from shore.</pre>\n "}, {"title": "Rondo", "view_node": "/poem/rondo", "field_author": "<a href=\"/poet/janet-holmes\" hreflang=\"und\">Janet Holmes</a>", "field_date_published": "2011", "body": " <pre>\nThe noun one keeps batting away\nrefuses declension.\n\nHe says, <i>I don\u2019t want to be\ntwenty-four again</i>.\nTwenty-four was a handful:\n\nthe flawless \nmeatflesh, best self, miraculous\nleap/thump on the hardwood,\nthe twist and splash.\n\nThe exuberance\nin the present tense,\n\nthe timebound blood pump\ntwo throbbing lungs butt\nin their bone cage\n\nsurges to bursting.\nHe does not perdure\n\nin this internal defection:\n<i>so rare, and so heroic</i>.</pre>\n "}, {"title": "Things Between Themselves", "view_node": "/poem/things-between-themselves", "field_author": "<a href=\"/poet/heidi-lynn-staples\" hreflang=\"und\">Heidi Lynn Staples</a>", "field_date_published": "2011", "body": " <pre>\n...to have been things among things between themselves and all others who live...\n...to travel widely beyond the seas...\n...to arrive one half king, one half informer...\n...to appear o how atrocious soever...\n\n...to present all the disabilities...\n...to demonstrate an investment in kin...\n...to show an interest real or personal in this...\n...to uncover such estates...\n\n...to expose ourselves as foundlings, nursed, clad, and taught...\n...to observe ourselves founded by experience...\n...to perceive ourselves discovered where unfounded...\n...to receive the legacy and the gift...\n\n...to forsake reckoned heavy sorrow...\n...to suffer the penalties and become...</pre>\n "}, {"title": "By Night with Torch and Spear", "view_node": "/poem/night-torch-and-spear", "field_author": "<a href=\"/poet/timothy-donnelly\" hreflang=\"und\">Timothy Donnelly</a>", "field_date_published": "2011", "body": " <pre>\nThat fire at the mouth of the flare stack rising\n\u00a0\u00a0\u00a0\u00a0\u00a0more than three-hundred feet above the refinery\ncontorts as it feeds on the invisible current\n\u00a0\u00a0\u00a0\u00a0\u00a0 of methane produced by the oil's distillation\n\nprocess like a monster, the nonstop spasm of it\n\u00a0\u00a0\u00a0\u00a0\u00a0lumbering upwards into the dark Newark\nnight like a sack made of orange parachute fabric\n\u00a0\u00a0\u00a0\u00a0\u00a0an awkward number of gorillas get it on in.\n\nI would worship it. The motion, the heat, the unapologetic\n\u00a0\u00a0\u00a0\u00a0\u00a0knack of the element to yank the appliance\nplug from its outlet, filling the big blue business-\n\u00a0\u00a0\u00a0\u00a0\u00a0suite of my head with nothing but its own\n\nwordlessness and light. Not now, not knowing\n\u00a0\u00a0\u00a0\u00a0\u00a0what I can't unknow, but back on the grasslands\nbefore we ever came to harness it I would bow\n\u00a0\u00a0\u00a0\u00a0\u00a0down among the seething life of that primitive\n\ninterior and worship the fire taking one bright\n\u00a0\u00a0\u00a0\u00a0\u00a0liberty after another. Done listening to fellow\npassengers tweaking the fine points. Done rubbing\n\u00a0\u00a0\u00a0\u00a0\u00a0the dead end of thinking like a spent torch\n\nagainst the cave's painted walls to make it burn\n\u00a0\u00a0\u00a0\u00a0\u00a0better. As the train slows down as the track\ncurves around the body of water the fire reflects in,\n\u00a0\u00a0\u00a0\u00a0\u00a0it is a form of worship. What is it in me that\n\nhasn't yet been killed with reason, habit, through\n\u00a0\u00a0\u00a0\u00a0\u00a0long atrophy or copied so beyond its master\nit parses like the last will and testament of a moth-\n\u00a0\u00a0\u00a0\u00a0\u00a0eaten cardigan? It dumps its nice adrenaline\n\ninto my system nights I hear the crisp steps of deer\n\u00a0\u00a0\u00a0\u00a0\u00a0on fallen leaves and stop or when looking up\nbeneath baroque snow or when I lean over the\n\u00a0\u00a0\u00a0\u00a0\u00a0banister along the border of a strong waterfall. \n\nAll good and well. But the endless hyperactive\n\u00a0\u00a0\u00a0\u00a0\u00a0plumage exploding from this toxic aviary, this sun\nof industry descended from the lightning strike,\n\u00a0\u00a0\u00a0\u00a0\u00a0obscures its diabolism with a Vegas brightness\n\nso that what there is to fear in it instead excites\n\u00a0\u00a0\u00a0\u00a0\u00a0me up a biochemical peak from the far side of which\nmy own voice, grizzled with a wisdom unknown\n\u00a0\u00a0\u00a0\u00a0\u00a0to me in waking life, reminds me of the conjuror\n\nwho grew distraught because he sensed the forces\n\u00a0\u00a0\u00a0\u00a0\u00a0he had stirred up with his art would not be\nmastered by it. It rattles tomorrow's paperwork\n\u00a0\u00a0\u00a0\u00a0\u00a0where it hangs from the branches of the ancient\n\ntimber trees. It messes with my reception, whereas\n\u00a0\u00a0\u00a0\u00a0\u00a0I do not wish my reception to be messed with.\u00a0\u00a0\u00a0\u00a0\u00a0 \nIt tells me to be careful with my worship\u2014that if this,\n\u00a0\u00a0\u00a0\u00a0\u00a0too, is a resource, then they have ways to tap it.</pre>\n "}, {"title": "A Young Poet", "view_node": "/poem/young-poet", "field_author": "<a href=\"/poet/jane-miller\" hreflang=\"und\">Jane Miller</a>", "field_date_published": "2011", "body": " <pre>\nFor begging beauty\none can hardly blame the artist\n\nsleeping like butter in the sun\ntaking no action for action\n\nsome prefer being a yellow rose petal \nI learned when I traveled\n\nthe young poet saying a prayer\nis a form of panic</pre>\n "}, {"title": "The Helmsman", "view_node": "/poem/helmsman", "field_author": "<a href=\"/poet/h-d\" hreflang=\"und\">H. D.</a>", "field_date_published": "1916", "body": " <pre>\nO be swift\u2014\nwe have always known you wanted us.\n\nWe fled inland with our flocks.\nwe pastured them in hollows,\ncut off from the wind\nand the salt track of the marsh.\n\nWe worshipped inland\u2014\nwe stepped past wood-flowers,\nwe forgot your tang,\nwe brushed wood-grass.\n\nWe wandered from pine-hills\nthrough oak and scrub-oak tangles,\nwe broke hyssop and bramble,\nwe caught flower and new bramble-fruit\nin our hair: we laughed\nas each branch whipped back,\nwe tore our feet in half-buried rocks\nand knotted roots and acorn-cups.\n\nWe forgot\u2014we worshipped,\nwe parted green from green,\nwe sought further thickets,\nwe dipped our ankles\nthrough leaf-mould and earth,\nand wood and wood-bank enchanted us\u2014\n\nand the feel of the clefts in the bark,\nand the slope between tree and tree\u2014\nand a slender path strung field to field\nand wood to wood\nand hill to hill\nand the forest after it.\n\nWe forgot\u2014for a moment\ntree-resin, tree-bark,\nsweat of a torn branch\nwere sweet to taste.\n\nWe were enchanted with the fields,\nthe tufts of coarse grass\u2014\nin the shorter grass\u2014\nwe loved all this.\n\nBut now, our boat climbs\u2014hesitates\u2014drops\u2014\nclimbs\u2014hesitates\u2014crawls back\u2014\nclimbs\u2014hesitates\u2014\nO, be swift\u2014\nwe have always known you wanted us.</pre>\n "}, {"title": "Guillaume Apollinaire", "view_node": "/poem/guillaume-apollinaire", "field_author": "<a href=\"/poet/gertrude-stein\" hreflang=\"und\">Gertrude Stein</a>", "field_date_published": "1913", "body": " <pre>\nGive known or pin ware.\nFancy teeth, gas strips.\nElbow elect, sour stout pore, pore caesar, pour state at.\nLeave eye lessons I. Leave I. Lessons. I. Leave I lessons, I.</pre>\n "}, {"title": "The Bus through Jonesboro, Arkansas", "view_node": "/poem/bus-through-jonesboro-arkansas", "field_author": "<a href=\"/poet/matthew-henriksen\" hreflang=\"und\">Matthew Henriksen</a>", "field_date_published": "2011", "body": " <pre>\nInanimate intimacy in the plural\nCouples under their dark covers\n\nThe distance between one body and another\nAn echo chamber against every stone\n\nThe distance between lovers in a rock-lashing wave\nThe solitude of two together under the waters of night\n\nOr the flattened space between two people on a bus \nTalking above the low beams of a few lost trucks\n\nSeeking their destruction or their portion elsewhere\nA road imagined as a slick for words in a discrete stream\n\nFlawless enamel the tongue slides along\nOr skates off into a future illumined within a highway sign\n\nAt the lip of revelation comes denouement or slow torturous sleep\nBecause traveling does not follow music\n\nOnly music brings the body down from the sky\nThe solid body in its partial form</pre>\n "}], "pager": {"current_page": 456, "total_items": "13248", "total_pages": 663, "items_per_page": 20}}