{"rows": [{"title": "In the Little Old Market-Place", "view_node": "/poem/little-old-market-place", "field_author": "<a href=\"/poet/ford-madox-ford\" hreflang=\"und\">Ford Madox Ford</a>", "field_date_published": "2017", "body": " <p><em>(To the memory of A. V.)</em></p><p>It rains, it rains,<br />From gutters and drains<br />And gargoyles and gables:<br />It drips from the tables<br />That tell us the tolls upon grains,<br />Oxen, asses, sheep, turkeys and fowls<br />Set into the rain-soaked wall<br />Of the old Town Hall.</p><p>The mountains being so tall<br />And forcing the town on the river,<br />The market\u2019s so small<br />That, with the wet cobbles, dark arches and all,<br />The owls<br />(For in dark rainy weather the owls fly out<br />Well before four), so the owls<br />In the gloom<br />Have too little room<br />And brush by the saint on the fountain<br />In veering about.</p><p>The poor saint on the fountain!<br />Supported by plaques of the giver<br />To whom we\u2019re beholden;<br />His name was de Sales<br />And his wife\u2019s name von Mangel.</p><p>(Now is he a saint or archangel?)<br />He stands on a dragon<br />On a ball, on a column<br />Gazing up at the vines on the mountain:<br />And his falchion is golden<br />And his wings are all golden.<br />He bears golden scales<br />And in spite of the coils of his dragon, without hint of alarm of invective<br />Looks up at the mists on the mountain.</p><p>(Now what saint or archangel<br />Stands winged on a dragon,<br />Bearing golden scales and a broad bladed sword all golden?<br />Alas, my knowledge<br />Of all the saints of the college,<br />Of all these glimmering, olden<br />Sacred and misty stories<br />Of angels and saints and old glories\u2026<br />Is sadly defective.)<br />The poor saint on the fountain\u2026</p><p>On top of his column<br />Gazes up sad and solemn.<br />But is it towards the top of the mountain<br />Where the spindrifty haze is<br />That he gazes?<br />Or is it into the casement<br />Where the girl sits sewing?<br />There\u2019s no knowing.</p><p>Hear it rain!<br />And from eight leaden pipes in the ball he stands on<br />That has eight leaden and copper bands on,<br />There gurgle and drain<br />Eight driblets of water down into the basin.</p><p>And he stands on his dragon<br />And the girl sits sewing<br />High, very high in her casement<br />And before her are many geraniums in a parket<br />All growing and blowing<br />In box upon box<br />From the gables right down to the basement<br />With frescoes and carvings and paint\u2026</p><p>The poor saint!<br />It rains and it rains,<br />In the market there isn\u2019t an ox,<br />And in all the emplacement<br />For waggons there isn\u2019t a waggon,<br />Not a stall for a grape or a raisin,<br />Not a soul in the market<br />Save the saint on his dragon<br />With the rain dribbling down in the basin,<br />And the maiden that sews in the casement.</p><p>They are still and alone,<br /><em>Mutterseelens </em>alone,<br />And the rain dribbles down from his heels and his crown,<br />From wet stone to wet stone.<br />It\u2019s grey as at dawn,<br />And the owls, grey and fawn,<br />Call from the little town hall<br />With its arch in the wall,<br />Where the fire-hooks are stored.</p><p>From behind the flowers of her casement<br />That\u2019s all gay with the carvings and paint,<br />The maiden gives a great yawn,<br />But the poor saint\u2014<br />No doubt he\u2019s as bored!<br />Stands still on his column<br />Uplifting his sword<br />With never the ease of a yawn<br />From wet dawn to wet dawn\u2026</p> "}, {"title": "Ts&#039;ai Chi&#039;h", "view_node": "/poem/tsai-chih", "field_author": "<a href=\"/poet/ezra-pound\" hreflang=\"und\">Ezra Pound</a>", "field_date_published": "2017", "body": " <p>The petals fall in the fountain,<br />\u00a0\u00a0\u00a0\u00a0\u00a0\u00a0\u00a0\u00a0\u00a0\u00a0\u00a0 the orange coloured rose-leaves,<br />Their ochre clings to the stone.</p> "}, {"title": "Fan-Piece for Her Imperial Lord", "view_node": "/poem/fan-piece-her-imperial-lord", "field_author": "<a href=\"/poet/ezra-pound\" hreflang=\"und\">Ezra Pound</a>", "field_date_published": "2017", "body": " <p>O fan of white silk,<br />\u00a0\u00a0\u00a0\u00a0\u00a0\u00a0\u00a0\u00a0\u00a0\u00a0\u00a0 clear as frost on the grass-blade,<br />You also are laid aside.</p> "}, {"title": "Liu Ch&#039;e", "view_node": "/poem/liu-che", "field_author": "<a href=\"/poet/ezra-pound\" hreflang=\"und\">Ezra Pound</a>", "field_date_published": "2017", "body": " <p>The rustling of the silk is discontinued,<br />Dust drifts over the courtyard,<br />There is no sound of footfall, and the leaves<br />Scurry into heaps and lie still,<br />And she the rejoicer of the heart is beneath them:</p><p>A wet leaf that clings to the threshold.</p> "}, {"title": "\u0394\u03ce\u03c1\u03b9\u03b1", "view_node": "/poem/doria", "field_author": "<a href=\"/poet/ezra-pound\" hreflang=\"und\">Ezra Pound</a>", "field_date_published": "2017", "body": "<p><span class=\"long-line\">Be in me as the eternal moods</span><br /><span class=\"long-line\">\u00a0\u00a0\u00a0\u00a0\u00a0\u00a0\u00a0\u00a0\u00a0\u00a0\u00a0 of the bleak wind, and not</span><br /><span class=\"long-line\">As transient things are \u2013</span><br /><span class=\"long-line\">\u00a0\u00a0\u00a0\u00a0\u00a0\u00a0\u00a0\u00a0\u00a0\u00a0\u00a0 gaiety of flowers.</span><br /><span class=\"long-line\">Have me in the strong loneliness</span><br /><span class=\"long-line\">\u00a0\u00a0\u00a0\u00a0\u00a0\u00a0\u00a0\u00a0\u00a0\u00a0\u00a0 of sunless cliffs</span><br /><span class=\"long-line\">And of grey waters.</span><br /><span class=\"long-line\">\u00a0\u00a0\u00a0\u00a0\u00a0\u00a0\u00a0\u00a0\u00a0\u00a0\u00a0 Let the gods speak softly of us</span><br /><span class=\"long-line\">In days hereafter,</span><br /><span class=\"long-line\">\u00a0\u00a0\u00a0\u00a0\u00a0\u00a0\u00a0\u00a0\u00a0\u00a0\u00a0 The shadowy flowers of Orcus</span><br /><span class=\"long-line\">Remember Thee.</span></p>\n"}, {"title": "Our Lady of the Flood", "view_node": "/poem/our-lady-flood", "field_author": "<a href=\"/poet/alison-pelegrin\" hreflang=\"en\">Alison Pelegrin</a>", "field_date_published": "2017", "body": " <p><em>\u00a0 \u00a0 \u00a0 \u00a0 \u00a0 \u00a0 \u00a0 \u00a0Louisiana, August 2016</em></p>\n<pre>\nLady, is that you, with a citronella halo,\nghosting the mud-milk waters\nwith a laundry basket of kittens in one arm?\nYou are no mythic Saint Medard, sheltered\nfrom rain beneath an eagle\u2019s wing,\nbut a hands-on angel of the earthly kind\u2014\nsweaty, with a burden of buckets and bleach,\nsurefooted through labyrinths of debris.\nYou take meals in church parking lots,\nthankful for whatever is served.\nSome saints are untouchable behind glass,\nbut you ride in open boats\nwith mildew on the hem of your gown,\na calm commander of the Cajun Navy\u2019s fleet.\nYour devotees worship outside\nin a circle of ruined pews,\nno incense but bug spray, their voices\na capella because the music of the drowned piano\nis too sad to sing to. They remain faithful\nbecause you are the one constant,\nhonored in front gardens and kitchen shrines.\nYou with your shrimp boots and rubber gloves\u2014\nwithout flinching you lead and they follow,\nwalking on water to the safety of each other.</pre>\n "}, {"title": "The Swan", "view_node": "/poem/swan", "field_author": "<a href=\"/poet/f-s-flint\" hreflang=\"en\">F. S. Flint</a>", "field_date_published": "2017", "body": " <p>Under the lily shadow<br />and the gold<br />and the blue and mauve<br />that the whin and the lilac<br />pour down on the water,<br />the fishes quiver.</p><p>Over the green cold leaves<br />and the rippled silver<br />and the tarnished copper<br />of its neck and beak,<br />toward the deep black water<br />beneath the arches,<br />the swan floats slowly.</p><p>Into the dark of the arch the swan floats<br />and into the black depth of my sorrow<br />it bears a white rose of flame.</p> "}, {"title": "[The grass is beneath my head]", "view_node": "/poem/grass-beneath-my-head", "field_author": "<a href=\"/poet/f-s-flint\" hreflang=\"en\">F. S. Flint</a>", "field_date_published": "2017", "body": " <p>The grass is beneath my head;<br />and I gaze<br />at the thronging stars<br />in the night.</p><p>They fall\u2026 they fall\u2026<br />I am overwhelmed,<br />and afraid.</p><p>Each leaf of the aspen<br />is caressed by the wind,<br />and each is crying.</p><p>And the perfume<br />of invisible roses<br />deepens the anguish.</p><p>Let a strong mesh of roots<br />feed the crimson of roses<br />upon my heart;<br />and then fold over the hollow<br />where all the pain was.</p> "}, {"title": "[Immortal?... No,]", "view_node": "/poem/immortal-no", "field_author": "<a href=\"/poet/f-s-flint\" hreflang=\"en\">F. S. Flint</a>", "field_date_published": "2017", "body": " <p>Immortal?... No,<br />they cannot be, these people,<br />nor I.</p><p>Tired faces,<br />eyes that have never seen the world,<br />bodies that have never lived in air,<br />lips that have never minted speech,<br />they are the clipped and garbled,<br />blocking the highway.<br />They swarm and eddy<br />between the banks of glowing shops<br />towards the red meat,<br />the potherbs,<br />the cheapjacks,<br />or surge in<br />before the swift rush<br />of the clanging trams,\u2014<br />pitiful, ugly, mean,<br />encumbering.</p><p>Immortal?...<br />In a wood,<br />watching the shadow of a bird<br />leap from frond to frond of bracken,<br />I am immortal.</p><p>But these?</p> "}, {"title": "Hallucination", "view_node": "/poem/hallucination", "field_author": "<a href=\"/poet/f-s-flint\" hreflang=\"en\">F. S. Flint</a>", "field_date_published": "2017", "body": " <p>I know this room,<br />and there are corridors:<br />the pictures, I have seen before;<br />the statues and those gems in cases<br />I have wandered by before,\u2014<br />stood there silent and lonely<br />in a dream of years ago.</p><p>I know the dark of night is all around me;<br />my eyes are closed, and I am half asleep.<br />My wife breathes gently at my side.</p><p>But once again this old dream is within me,<br />and I am on the threshold waiting,<br />wondering, pleased, and fearful.<br />Where do those doors lead,<br />what rooms lie beyond them?<br />I venture\u2026</p><p>But my baby moves and tosses<br />from side to side,<br />and her need calls me to her.</p><p>Now I stand awake, unseeing,<br />in the dark,<br />and I move towards her cot\u2026<br />I shall not reach her\u2026 There is no direction\u2026<br />I shall walk on\u2026</p> "}, {"title": "[London, my beautiful]", "view_node": "/poem/london-my-beautiful", "field_author": "<a href=\"/poet/f-s-flint\" hreflang=\"en\">F. S. Flint</a>", "field_date_published": "2017", "body": " <p>London, my beautiful,<br />it is not the sunset<br />nor the pale green sky<br />shimmering through the curtain<br />of the silver birch,<br />nor the quietness;<br />it is not the hopping<br />of birds<br />upon the lawn,<br />nor the darkness<br />stealing over all things<br />that moves me.</p><p>But as the moon creeps slowly<br />over the tree-tops<br />among the stars,<br />I think of her<br />and the glow her passing<br />sheds on the men.</p><p>London, my beautiful,<br />I will climb<br />into the branches<br />to the moonlit tree-tops,<br />that my blood may be cooled<br />by the wind.</p> "}, {"title": "A Ballad of Dreamland", "view_node": "/poem/ballad-dreamland", "field_author": "<a href=\"/poet/algernon-charles-swinburne\" hreflang=\"und\">Algernon Charles Swinburne</a>", "field_date_published": "2017", "body": " <p>I hid my heart in a nest of roses,<br />\u00a0\u00a0 Out of the sun\u2019s way, hidden apart;<br />In a softer bed than the soft white snow\u2019s is,<br />\u00a0\u00a0 Under the roses I hid my heart.<br />\u00a0\u00a0 Why would it sleep not? why should it start,<br />When never a leaf of the rose-tree stirred?<br />\u00a0\u00a0 What made sleep flutter his wings and part?<br />Only the song of a secret bird.</p><p>Lie still, I said, for the wind\u2019s wing closes,<br />\u00a0\u00a0 And mild leaves muffle the keen sun\u2019s dart;<br />Life still, for the wind of the warm sea dozes,<br />\u00a0\u00a0 And the wind is unquieter yet than thou art.<br />\u00a0\u00a0 Does a thought in thee still as a thorn\u2019s wound smart?<br />Does the fang still fret thee of hope deferred?<br />What bids the lids of thy sleep dispart?<br />Only the song of a secret bird.</p><p>The green land\u2019s name that a charm encloses,<br />\u00a0\u00a0 It never was writ in the traveller\u2019s chart,<br />And sweet as the fruit on its tree that grows is,<br />\u00a0\u00a0 It never was sold in the merchant\u2019s mart.<br />\u00a0\u00a0 The swallows of dreams through its dim fields dart,<br />And sleep\u2019s are the tunes in its tree tops heard;<br />\u00a0\u00a0 No hound\u2019s note wakens the wildwood hart,<br />Only the song of a secret bird.</p><p>ENVOI</p><p>In the world of dreams I have chosen my part,<br />\u00a0\u00a0 To sleep for a season and hear no word<br />Of true love\u2019s truth or of light love\u2019s art,<br />\u00a0\u00a0 Only the song of a secret bird.</p> "}, {"title": "[Be still, my soul, be still; the arms you bear are brittle]", "view_node": "/poem/be-still-my-soul-be-still-arms-you-bear-are-brittle", "field_author": "<a href=\"/poet/e-housman\" hreflang=\"und\">A. E. Housman</a>", "field_date_published": "2017", "body": " <p>Be still, my soul, be still; the arms you bear are brittle,\u00a0<br />\u00a0\u00a0 Earth and high heaven are fixt of old and founded strong.\u00a0<br />Think rather,\u2014call to thought, if now you grieve a little,\u00a0<br />\u00a0\u00a0 The days when we had rest, O soul, for they were long.\u00a0<br /><br />Men loved unkindness then, but lightless in the quarry\u00a0<br />\u00a0\u00a0 I slept and saw not; tears fell down, I did not mourn;\u00a0<br />Sweat ran and blood sprang out and I was never sorry:\u00a0<br />\u00a0\u00a0 Then it was well with me, in days ere I was born.\u00a0<br /><br />Now, and I muse for why and never find the reason,\u00a0<br />\u00a0\u00a0 I pace the earth, and drink the air, and feel the sun.\u00a0<br />Be still, be still, my soul; it is but for a season:\u00a0<br />\u00a0\u00a0 Let us endure an hour and see injustice done.\u00a0<br /><br />Ay, look: high heaven and earth ail from the prime foundation;\u00a0<br />\u00a0\u00a0 All thoughts to rive the heart are here, and all are vain:\u00a0<br />Horror and scorn and hate and fear and indignation\u2014<br />\u00a0\u00a0 Oh why did I awake? when shall I sleep again?\u00a0</p><p>\u00a0</p> "}, {"title": "[Here dead lie we because we did not choose]", "view_node": "/poem/here-dead-lie-we-because-we-did-not-choose", "field_author": "<a href=\"/poet/e-housman\" hreflang=\"und\">A. E. Housman</a>", "field_date_published": "2017", "body": " <p>Here dead lie we because we did not choose<br />\u00a0\u00a0\u00a0\u00a0 To live and shame the land from which we sprung.<br />Life, to be sure, is nothing much to lose;<br />\u00a0\u00a0\u00a0\u00a0 But young men think it is, and we were young.</p> "}, {"title": "Vivien\u2019s Song ", "view_node": "/poem/viviens-song", "field_author": "<a href=\"/poet/alfred-lord-tennyson\" hreflang=\"und\">Alfred Lord Tennyson</a>", "field_date_published": "2017", "body": " <p>\u00a0 \u00a0 \u2018In Love, if Love be Love, if Love be ours,<br />Faith and unfaith can ne\u2019er be equal powers:<br />Unfaith in aught is want of faith in all.</p><p>\u00a0\u00a0\u00a0 \u2018It is the little rift within the lute,<br />That by and by will make the music mute,<br />And ever widening slowly silence all.</p><p>\u00a0\u00a0\u00a0 \u2018The little rift within the lover\u2019s lute<br />Or little pitted speck in garnered fruit,<br />That rotting inward slowly moulders all.</p><p>\u00a0\u00a0\u00a0 \u2018It is not worth the keeping: let it go:<br />But shall it? answer, darling, answer, no.<br />And trust me not at all or all in all\u2019.<br />\u00a0</p> "}, {"title": "FaceTime", "view_node": "/poem/facetime", "field_author": "<a href=\"/poet/clint-smith\" hreflang=\"en\">Clint Smith</a>", "field_date_published": "2017", "body": "<p><span class=\"long-line\">On another night</span><br /><span class=\"long-line\">in a hotel</span><br /><span class=\"long-line\">in a room</span><br /><span class=\"long-line\">in a city</span><br /><span class=\"long-line\">flanked by all</span><br /><span class=\"long-line\">that is unfamiliar</span><br /><span class=\"long-line\">I am able to move</span><br /><span class=\"long-line\">my finger along</span><br /><span class=\"long-line\">a glass screen</span><br /><span class=\"long-line\"><em>once across</em></span><br /><span class=\"long-line\">once vertical</span><br /><span class=\"long-line\">&amp; in seconds</span><br /><span class=\"long-line\">see your mother</span><br /><span class=\"long-line\">smiling in a room</span><br /><span class=\"long-line\">that is our own</span><br /><span class=\"long-line\">that is now so</span><br /><span class=\"long-line\">far away but</span><br /><span class=\"long-line\">also not so far</span><br /><span class=\"long-line\">away at all</span><br /><span class=\"long-line\">&amp; she can place</span><br /><span class=\"long-line\">the small screen</span><br /><span class=\"long-line\">near her belly</span><br /><span class=\"long-line\">&amp; when I speak</span><br /><span class=\"long-line\">I can see you</span><br /><span class=\"long-line\">moving beneath</span><br /><span class=\"long-line\">her skin as if you</span><br /><span class=\"long-line\">knew that this</span><br /><span class=\"long-line\">distance was</span><br /><span class=\"long-line\">only temporary</span><br /><span class=\"long-line\">&amp; what a small</span><br /><span class=\"long-line\">yet profound</span><br /><span class=\"long-line\">joy it is to be some-</span><br /><span class=\"long-line\">where that is not</span><br /><span class=\"long-line\">with you but to</span><br /><span class=\"long-line\">still be with you</span><br /><span class=\"long-line\">&amp; see your feet</span><br /><span class=\"long-line\">dance beneath</span><br /><span class=\"long-line\">her rib cage like</span><br /><span class=\"long-line\">you knew we\u2019d</span><br /><span class=\"long-line\">both be dancing</span><br /><span class=\"long-line\">together soon.</span></p>\n"}, {"title": "Pomology", "view_node": "/poem/pomology", "field_author": "<a href=\"/poet/kim-roberts\" hreflang=\"en\">Kim Roberts</a>", "field_date_published": "2017", "body": " <p><em>I will eat the apple</em><br />read Stephen\u2019s note this morning.<br />He is volunteering to play Eve.</p><p>He wrote, <em>I will eat the apple</em><br />\u2014but there are no apples in the house.<br />We have no lascivious Honeycrisp,</p><p>no bonny Braeburn, no upright Baldwin.<br />We\u2019re out of spry Granny Smiths,<br />the skulking Northern Spy,</p><p>or the mysterious Pink Lady.<br />Stephen does have an Adam\u2019s apple<br />and I have an Apple computer,</p><p>but you can\u2019t compare apples and oranges.<br />The note said, <em>I will eat the apple.</em><br />Perhaps Stephen\u2019s chasing out the doctors.</p><p>Perhaps he\u2019s not falling far from the tree.<br />Or he\u2019s already eaten from the tree of knowledge:<br />in Latin, <em>malum</em> means both <em>apple</em></p><p>and <em>evil.</em> I think Stephen is sending a warning.<br />He means, <em>I will protect you.</em><br />He writes, <em>I will eat the apple.</em></p><p>\u00a0</p> "}, {"title": "Carillon", "view_node": "/poem/carillon", "field_author": "<a href=\"/poet/wayne-miller\" hreflang=\"und\">Wayne Miller</a>", "field_date_published": "2017", "body": " <p>Phones were ringing</p><p>in the pockets of the living<br />and the dead</p><p>the living stepped carefully among.<br />The whole still room</p><p>was lit with sound\u2014like a switchboard\u2014<br />and those who could answer</p><p>said hello. Then<br />it was just the dead, the living</p><p>trapped inside their bloody clothes<br />ringing and ringing them\u2014</p><p>and this was<br />the best image we had</p><p>of what made us a nation.<br />\u00a0</p> "}, {"title": "Rose of Jericho", "view_node": "/poem/rose-jericho", "field_author": "<a href=\"/poet/cindy-veach\" hreflang=\"en\">Cindy Veach</a>", "field_date_published": "2017", "body": " <p>I\u2019m not sure about this gift. This tangle<br />of dried roots curled into a fist. This gnarl</p><p>I\u2019ve let sit for weeks beside the toaster<br />and cookbooks on a bed of speckled granite.<br /><br />What am I waiting for? Online I find<br />Rose of Jericho prayers and rituals for safe birth,</p><p>well-being, warding off the evil eye.<br />At first I thought I\u2019d buy some white stones,</p><p>a porcelain bowl. But I didn\u2019t and I didn\u2019t.<br />I don\u2019t believe in omens. This still fist</p><p>of possibility all wrapped up in itself.<br />There it sat through the holidays, into the New Year.</p><p>Through all the days I\u2019ve been gone. Dormant.<br />But today, in an inch of water,</p><p>out of curiosity, I awakened<br />the soul of Jericho. Limb by limb it unfolded</p><p>and turned moss green. It reminded me<br />of the northwest, its lush undergrowth,</p><p>how twice despite the leaden clouds,<br />the rain, I found happiness there.</p><p>From tumbleweed to lush fern flower,<br />reversible, repeatable. And what am I</p><p>to make of this? Me, this woman who doesn\u2019t<br />believe. Doesn\u2019t take anything on faith. I won\u2019t</p><p>let it rot. I\u2019ll monitor the water level. Keep the mold<br />at bay. I tend things, but I do not pray.<br />\u00a0</p> "}, {"title": "Summer Haibun", "view_node": "/poem/summer-haibun", "field_author": "<a href=\"/poet/aimee-nezhukumatathil\" hreflang=\"und\">Aimee Nezhukumatathil</a>", "field_date_published": "2017", "body": " <p>To everything, there is a season of parrots. Instead of feathers, we searched the sky for meteors on our last night.\u00a0 Salamanders use the stars to find their way home. Who knew they could see that far, fix the tiny beads of their eyes on distant arrangements of lights so as to return to wet and wild nests? Our heads tilt up and up and we are careful to never look at each other. You were born on a day of peaches splitting from so much rain and the slick smell of fresh tar and asphalt pushed over a cracked parking lot. You were strong enough\u2014even as a baby\u2014to clutch a fistful of thistle and the sun himself was proud to light up your teeth when they first swelled and pushed up from your gums. And this is how I will always remember you when we are covered up again: by the pale mica flecks on your shoulders. Some thrown there from your own smile. Some from my own teeth. There are not enough jam jars to can this summer sky at night. I want to spread those little meteors on a hunk of still-warm bread this winter. Any trace left on the knife will make a kitchen sink like that evening air</p><p>the cool night before<br />star showers: so sticky so<br />warm so full of light<br />\u00a0</p> "}], "pager": {"current_page": 298, "total_items": "13248", "total_pages": 663, "items_per_page": 20}}