{"rows": [{"title": "Poem from Ho\u0308lderlin", "view_node": "/poem/poem-holderlin", "field_author": "<a href=\"/poet/susan-stewart\" hreflang=\"und\">Susan Stewart</a>", "field_date_published": "2017", "body": " <pre><em>As from dark orchard leaves, from quiet scripts</em>\nwhere each shape sends its tendril reaching\u2014\ncircle and line, the swaddled bud, the petiole \nsprung, an envelope tendered.\n\t\t\t\t\t\nBy a window, the infant \nturns, rooting\ntoward the breast,\n                     sun-lit, \nthe mother humming.\n(Those far things, sources \nof power and\nregret,\ncliffs and waves, \ncontinue\nat a distance.)\n\t\t\t\t\t\n           Here you\u2019ll find\na name scrawled in the bark\u2014\nlast words, left to chance\nand strangers.\n            There, the black ant, burdened \nby a crumb, and the weight\nof her lacquered armor,\ncrossing\u2014climbing,\nswitching, doubling \nback\u2014gnarl and crevice and \ncul de sac.\n\t\t\t\t\t\n            Pinch-waisted, \ndriven on, and trembling,\ndoes she have a notion \nof her own, or is it \nonly species \nmemory\u2014so\nfearless, so abstract?\n\t\t\t\t\t\n<em>because it is winter everywhere, \n            I spin my cocoon\n            I dig my heart a grave</em>\n\t\t\t\t\t\nIndifferent, a blossom \ndrifting, the knob swelling, \nthe leaf turned to\nshadow: filigree, smudged. \nThe petiole now brittle in \nthe first cold nights.\n                        The burden, relieved, \nweighs all the more\nfrom the guilt \nof its release.\n\t\t\t\t\t\nToo light, too light, like a sudden \nwaking, the sun in your eyes: \nyou cannot see for it.\t\t\t\n\t\t\t\t\nHow long will we live \nin this leaf-strewn place, \nthinking we belong\nto the sky?\n</pre>\n "}, {"title": "House of McQueen", "view_node": "/poem/house-mcqueen", "field_author": "<a href=\"/poet/valerie-wallace\" hreflang=\"en\">Valerie Wallace</a>", "field_date_published": "2017", "body": " <pre>Blush slash shocks callous London. Worth\nbuilt his own house.\nOthers consider cloth\u2019s ripple, want\na red flare to flaunt.\n\nFinery\u2019s patterns indeed shift to threads, line\ndraws down interred silhouette.\nBut while we live awhile here\npattern and line gather\n\nquiet that is anything\nbut quiet. Each time, dream delights\nas if a small wing beats, and leaves\ndance under our transient skins.\n</pre>\n "}, {"title": "Spoken For", "view_node": "/poem/spoken", "field_author": "<a href=\"/poet/li-young-lee\" hreflang=\"und\">Li-Young Lee</a>", "field_date_published": "2017", "body": " <pre>I didn\u2019t know I was blue,\nuntil I heard her sing.\n\nI was never aware so much\nhad been lost\neven before I was born.\nThere was so much to lose\neven before I knew\nwhat it meant to choose.\n\nBorn blue,\nliving blue unconfessed, blue\nin concealment, I\u2019ve lived all my life\nat the plinth\nof greater things than me.\n\nMorning is greater\nwith its firstborn light and birdsong.\nNoon is taller, though a moment\u2019s realm.\nEvening is ancient and immense, and\nnight\u2019s storied house more huge.\n\nBut I had no idea.\nAnd would have died without a clue,\nexcept she began to sing. And I understood\n\nmy soul is a bride enthralled by an unmet groom,\nor else the groom wholly spoken for, blue\nin ardor, happy in eternal waiting.\n\nI heard her sing and knew\nI would never hear the true\n\nname of each thing\nuntil I realized the abysmal\nground of all things. Her singing\ntouched that ground in me.\n\nNow, dying of my life, everything is made new.\nNow, my life is not my life. I have no life\napart from all of life.\n\nAnd my death is not my death,\nbut a pillow beneath my head, a rock\npropping the window open\nto admit the jasmine.\n\nI heard her sing,\nand I\u2019m no longer afraid.\nNow that I know what she knows, I hope\nnever to forget\nhow giant the gone\nand immaculate the going.\nHow much I\u2019ve already lost.\nHow much I go on losing.\nHow much I\u2019ve lived\nall one blue. O, how much\nI go on living.\n</pre>\n "}, {"title": "Modern Love: XXXIX", "view_node": "/poem/modern-love-xxxix", "field_author": "<a href=\"/poet/george-meredith\" hreflang=\"und\">George Meredith</a>", "field_date_published": "1909", "body": " <pre>She yields: my Lady in her noblest mood\nHas yielded: she, my golden-crown\u00ebd rose!\nThe bride of every sense! more sweet than those\nWho breathe the violet breath of maidenhood.\nO visage of still music in the sky!\nSoft moon! I feel thy song, m y fairest friend!\nTrue harmony within can apprehend\nDumb harmony without. And hard! \u2019t is nigh!\nBelief has struck the note of sound: a gleam\nOf living silver shows me where she shook\nHer long white fingers down the shadowy brook,\nThat sings her song, half waking, half in dream.\nWhat two come here to mar this heavenly tune?\nA man is one: the woman bears my name.\nAnd honour. Their hands touch! Am I still tame?\nGod, what a dancing spectre seems the moon!\n</pre>\n "}, {"title": "Modern Love: XXXVIII", "view_node": "/poem/modern-love-xxxviii", "field_author": "<a href=\"/poet/george-meredith\" hreflang=\"und\">George Meredith</a>", "field_date_published": "1909", "body": " <pre>Give to imagination some pure light\nIn human form to fix it, or you shame\nThe devils with that hideous human game:\u2014\nImagination  urging appetite!\nThus fallen have earth\u2019s greatest Gogmagogs,\nWho dazzle us, whom we cannot revere:\nImagination is the charioteer\nThat, in default of better, drives the hogs.\nSo, therefore, my dear Lady, let me love!\nMy soul is arrowy to the light in you.\nYou know me that I never can renew\nThe bond that woman broke: what would you have?\n\u2019T is Love or Vileness! not a choice between,\nSave petrifaction! What does Pity here?\nShe killed a thing, and now it\u2019s dead, \u2019t is dear.\nOh, when you counsel me, think what you mean!\n</pre>\n "}, {"title": "In the Light of One Lamp", "view_node": "/poem/light-one-lamp", "field_author": "<a href=\"/poet/sean-thomas-dougherty\" hreflang=\"und\">Sean Thomas Dougherty</a>", "field_date_published": "2017", "body": " <pre style=\"text-align: justify;\">I crawled into bed and closed my eyes and not long after heard the small hooves of the horses, the tiny ones that gallop in our dreams, or are they the dreams of our children, galloping through the black ruins. Everything we do is against the crippling light. To hear them cry at night is to know they are alive. When they are scared they come galloping down the long hall calling your name. Tonight, it is our oldest daughter, the red mare with her fiery mane, she snuggles in between us and falls back to sleep in your arms, to that secret place inside her, she barely moves, crossing over the river, through a grove of alders, through the black ruins, she is the one who once whispered, <em>the grass it knows everything.</em>\n</pre>\n "}, {"title": "Modern Love: XXXVII", "view_node": "/poem/modern-love-xxxvii", "field_author": "<a href=\"/poet/george-meredith\" hreflang=\"und\">George Meredith</a>", "field_date_published": "1909", "body": " <pre>Along the garden terrace, under which\nA purple valley (lighted at its edge\nBy smoky torch-flame on the long cloud-ledge\nWhereunder dropped the chariot), glimmers rich,\nA quiet company we pace, and wait\nThe dinner-bell in prae-digestive calm.\nSo sweet up violet banks the Southern balm\nBreathes round, we care not if the bell be late:\nThough here and there grey seniors question Time\nIn irritable coughings. With slow foot\nThe low rosed moon, the face of Music mute,\nBegins among her silent bars to climb.\nAs in and out, in silvery dusk, we tread,\nI hear the laugh of Madam, and discern\nMy Lady\u2019s heel before me at each turn.\nOur tragedy, is it alive or dead?\n</pre>\n "}, {"title": "Modern Love: XXXVI", "view_node": "/poem/modern-love-xxxvi", "field_author": "<a href=\"/poet/george-meredith\" hreflang=\"und\">George Meredith</a>", "field_date_published": "1909", "body": " <pre>My Lady unto Madam makes her bow.\nThe charm of women is, that even while\nYou\u2019re probed by them for tears you yet may smile,\nNay, laugh outright, as I have done just now.\nThe interview was gracious: they anoint\n(To me aside) each other with fine praise:\nDiscriminating compliments they raise,\nThat hit with wondrous aim on the weak point:\nMy Lady\u2019s nose of Nature might complain.\nIt is not fashioned aptly to express\nHer character of large-browed steadfastness.\nBut Madam says: \u2018Thereof she may be vain!\u2019\nNow Madam\u2019s faulty feature is a glazed\nAnd inaccessible eye, that has soft fires,\nWide gates, at love-time only. This admires\nMy Lady. At the two I stand amazed.\n</pre>\n "}, {"title": "A Thank-Offering", "view_node": "/poem/thank-offering", "field_author": "<a href=\"/poet/ella-higginson\" hreflang=\"en\">Ella Higginson</a>", "field_date_published": "2017", "body": " <p>Lord God, the winter has been sweet and brief<br />\u00a0\u00a0\u00a0\u00a0 In this fair land;<br />For us the budded willow and the leaf,<br />\u00a0\u00a0\u00a0\u00a0 The peaceful strand.<br /><br />For us the silver nights and golden days,<br />\u00a0\u00a0\u00a0\u00a0 The violet mist;<br />The pearly clouds pierced with vibrating rays<br />\u00a0\u00a0\u00a0\u00a0 Of amethyst.<br /><br />At evening, every wave of our blue sea<br />\u00a0\u00a0\u00a0\u00a0 Hollowed to hold<br />A fragment of the sunset\u2019s mystery\u2014<br />\u00a0\u00a0 \u00a0\u00a0A fleck of gold.<br /><br />The crimson haze is on the alder trees<br />\u00a0\u00a0\u00a0\u00a0 In places lush;<br />Already sings with sweet and lyric ease<br />\u00a0\u00a0\u00a0\u00a0 The western thrush.<br /><br />Lord God, for some of us the days and years<br />\u00a0\u00a0\u00a0\u00a0 Have bitter been;<br />For some of us the burden and the tears,<br />\u00a0 \u00a0\u00a0\u00a0The gnawing sin.<br /><br />For some of us, O God, the scanty store,<br />\u00a0\u00a0\u00a0\u00a0 The failing bin;<br />For some of us the gray wolf at the door,<br />\u00a0\u00a0\u00a0\u00a0 The red, within!<br /><br />But to the hungry Thou hast given meat,<br />\u00a0\u00a0\u00a0\u00a0 Hast clothed the cold;<br />And Thou hast given courage strong and sweet<br />\u00a0\u00a0\u00a0\u00a0 To the sad and old.<br /><br />And so we thank Thee, Thou most tender God,<br />\u00a0\u00a0\u00a0\u00a0 For the leaf and flower;<br />For the tempered winds, and quickening, velvet sod,<br />\u00a0\u00a0\u00a0\u00a0 And the gracious shower.<br /><br />Yea, generous God, we thank Thee for this land<br />\u00a0\u00a0\u00a0\u00a0 Where all are fed,<br />Where at the doors no freezing beggars stand,<br />\u00a0\u00a0\u00a0\u00a0 Pleading for bread.</p> "}, {"title": "Modern Love: XXXV", "view_node": "/poem/modern-love-xxxv", "field_author": "<a href=\"/poet/george-meredith\" hreflang=\"und\">George Meredith</a>", "field_date_published": "1909", "body": " <pre>It is no vulgar nature I have wived.\nSecretive, sensitive, she takes a wound\nDeep to her soul, as if the sense had swooned,\nAnd not a thought of vengeance had survived.\nNo confidences has she: but relief\nMust come to one whose suffering is acute.\nO have a care of natures that are mute!\nThey punish you in acts: their steps are brief.\nWhat is she doing? What does she demand\nFrom Providence or me? She is not one\nLong to endure this torpidly, and shun\nThe drugs that crowd about a woman\u2019s hands.\nAt Forfeits during snow we played, and I\nMust kiss her. \u2018Well performed!\u2019 I said: then she:\n\u2018\u2019T is hardly worth the money, you agree?\u2019\nSave her? What for? To act this wedded lie!\n</pre>\n "}, {"title": "Modern Love: XXXIV", "view_node": "/poem/modern-love-xxxiv", "field_author": "<a href=\"/poet/george-meredith\" hreflang=\"und\">George Meredith</a>", "field_date_published": "1909", "body": " <pre>Madam would speak with me. So, now it comes:\nThe Deluge or else Fire! She\u2019s well; she thanks\nMy husbandship. Our chain on silence clanks.\nTime leers between, above his twiddling thumbs.\nAm I quite well? Most excellent in health!\nThe journals, too, I diligently peruse.\nVesuvius is expected to give news:\nNiagara is no noisier. By stealth\nOur eyes dart scrutinizing snakes. She\u2019s glad\nI\u2019m happy, says her quivering under-lip.\n\u2018And are not you?\u2019 \u2018How can I be?\u2019 \u2018Take ship!\nFor happiness is somewhere to be had.\u2019\n\u2018Nowhere for me!\u2019 Her voice is barely heard.\nI am not melted, and make no pretence.\nWith commonplace I freeze her, tongue and sense.\nNiagara or Vesuvius is deferred.\n</pre>\n "}, {"title": "A Landscape", "view_node": "/poem/landscape", "field_author": "<a href=\"/poet/carl-dennis\" hreflang=\"und\">Carl Dennis</a>", "field_date_published": "2017", "body": " <pre>This painting of a barn and barnyard near sundown\nMay be enough to suggest we don\u2019t have to turn\nFrom the visible world to the invisible\nIn order to grasp the truth of things.\nWe don\u2019t always have to distrust appearances.\nNot if we\u2019re patient. Not if we\u2019re willing\nTo wait for the sun to reach the angle\nWhen whatever it touches, however retiring,\nFeels invited to step forward\nInto a moment that might seem to us\nFamiliar if we gave ourselves more often\nTo the task of witnessing. Now to witness\nA barn and barnyard on a day of rest\nWhen the usual veil of dust and smoke\nIs lifted a moment and things appear\nTo resemble closely what in fact they are.\n</pre>\n "}, {"title": "The Miscarriage", "view_node": "/poem/miscarriage", "field_author": "<a href=\"/poet/dorothea-lasky\" hreflang=\"und\">Dorothea Lasky</a>", "field_date_published": "2017", "body": "<p><span class=\"long-line\">The doctor says it\u2019s an empty room in there</span></p>\n\n<p><span class=\"long-line\">And it is</span></p>\n\n<p><span class=\"long-line\">A pale sack with no visitors </span><br /><span class=\"long-line\">I have made it and surrounded it with my skin</span><br /><span class=\"long-line\">To invite the baby in</span></p>\n\n<p><span class=\"long-line\">But he did not enter</span><br /><span class=\"long-line\">And dissolved himself into the sea so many moons ago</span></p>\n\n<p><span class=\"long-line\">I wait to see </span><br /><span class=\"long-line\">Will the giant bean be in there another day</span></p>\n\n<p><span class=\"long-line\">The women of the world say</span><br /><span class=\"long-line\">Work harder!</span></p>\n\n<p><span class=\"long-line\">The men in the world say</span><br /><span class=\"long-line\">Work harder!</span></p>\n\n<p><span class=\"long-line\">I work and work but I am an empty sack</span><br /><span class=\"long-line\">Until I bleed the food all over the floor</span></p>\n\n<p><span class=\"long-line\">Then I am once again with everything</span><br /><span class=\"long-line\">Until the gods say, you\u2019ve done well, good sir</span><br /><span class=\"long-line\">You may die now</span></p>\n\n<p><span class=\"long-line\">And the people who were asking me for favors all along</span><br /><span class=\"long-line\">Knock on the coffin door</span><br /><span class=\"long-line\">But I am gone, gone</span></p>\n"}, {"title": "Modern Love: XXXIII", "view_node": "/poem/modern-love-xxxiii", "field_author": "<a href=\"/poet/george-meredith\" hreflang=\"und\">George Meredith</a>", "field_date_published": "1909", "body": " <pre>\u2018In Paris, at the Louvre, there have I seen\nThe sumptuously-feathered angel pierce\nProne Lucifer, descending. Looked he fierce,\nShowing the fight a fair one? Too serene!\nThe young Pharsalians did not disarray\nLess willingly their locks of floating silk:\nThat suckling mouth of his, upon the milk\nOf heaven might still be feasting through the fray.\nOh, Raphael! when men the Fiend do fight,\nThey conquer not upon such easy terms.\nHalf serpent in the struggle grown these worms.\nAnd does he grow half human, all is right.\u2019\nThis to my Lady in a distant spot,\nUpon the theme: \u2018While mind is mastering clay,\nGross clay invades it.\u2019 If the spy you play,\nMy wife, read this! Strange love talk, is it not?\n</pre>\n "}, {"title": "The Passing of the Hours", "view_node": "/poem/passing-hours", "field_author": "<a href=\"/poet/ella-higginson\" hreflang=\"en\">Ella Higginson</a>", "field_date_published": "2017", "body": " <p>The hours steal by with still, unasking lips\u2014<br />\u00a0\u00a0\u00a0\u00a0 So lightly that I cannot hear their tread;<br />And softly touch me with their finger-tips<br />\u00a0\u00a0\u00a0\u00a0 To find if I be dreaming, or be dead.<br /><br />And yet however still their flight may be,<br />\u00a0\u00a0\u00a0\u00a0 Their ceaseless going weights my heart with tears;<br />These touches will have wrought deep scars on me\u2014<br />\u00a0\u00a0\u00a0\u00a0 When the light hours have worn to heavy years.</p> "}, {"title": "April", "view_node": "/poem/april-3", "field_author": "<a href=\"/poet/ella-higginson\" hreflang=\"en\">Ella Higginson</a>", "field_date_published": "2017", "body": " <p>Ah, who is this with twinkling feet,<br />With glad, young eyes and laughter sweet,<br />\u00a0\u00a0\u00a0\u00a0 Who tosses back her strong, wild hair,<br />\u00a0\u00a0\u00a0\u00a0 And saucy kisses flings to Care,<br />\u00a0\u00a0\u00a0\u00a0 The while she laughs at her? Beware\u2014<br />You who this winsome maiden meet!<br /><br />She dances on a daisied throne,<br />About her waist a slender zone<br />\u00a0\u00a0\u00a0\u00a0 Of dandelion\u2019s gold; her eyes<br />\u00a0\u00a0\u00a0\u00a0 Are softer than the summer skies,<br />\u00a0\u00a0\u00a0\u00a0 And blue as violets; and lies<br />A tearful laughter in her tone.<br /><br />She reaches dimpled arms and bare;<br />Her breath is sweet as wild-rose air;<br />\u00a0\u00a0\u00a0\u00a0 She sighs, she smiles, she glances down,<br />\u00a0\u00a0\u00a0\u00a0 Her brows meet in a sudden frown;<br />\u00a0\u00a0\u00a0\u00a0 She laughs; then tears the violets drown\u2014<br />If you should meet her\u2014ah, beware!</p> "}, {"title": "Dream-Time", "view_node": "/poem/dream-time", "field_author": "<a href=\"/poet/ella-higginson\" hreflang=\"en\">Ella Higginson</a>", "field_date_published": "2017", "body": " <p>It is the time when crimson stars<br />\u00a0\u00a0\u00a0\u00a0 Weary of heaven\u2019s cold delight,<br />And take, like petals from a rose,<br />\u00a0\u00a0\u00a0\u00a0 Their soft and hesitating flight<br />Upon the cool wings of the air<br />\u00a0\u00a0\u00a0\u00a0 Across the purple night.<br /><br />It is the time when silver sails<br />\u00a0\u00a0\u00a0\u00a0 Go drifting down the violet sea,<br />And every poppy\u2019s crimson mouth<br />\u00a0\u00a0\u00a0\u00a0 Kisses to sleep a lovesick bee;<br />The fireweed waves her rosy plumes<br />\u00a0\u00a0\u00a0\u00a0 On pasture, hill and lea.<br /><br />It is the time to dream\u2014and feel<br />\u00a0\u00a0\u00a0\u00a0 The lanquid rocking of a boat,<br />The pushing ripple round the keel<br />\u00a0\u00a0\u00a0\u00a0 Where cool, deep-hearted lilies float,<br />And hear thro\u2019 wild syringas steal<br />\u00a0\u00a0\u00a0\u00a0 Some songster\u2019s drowsy note.<br /><br />It is the time, at eve, to lie<br />\u00a0\u00a0\u00a0\u00a0 And in a hammock faintly sway,<br />To watch the golds and crimsons die<br />\u00a0\u00a0\u00a0\u00a0 Across the blue stretch of the bay;<br />To hear the sweet dusk tiptoe by<br />\u00a0 \u00a0\u00a0\u00a0In the footsteps of the day.</p> "}, {"title": "A Summer Night", "view_node": "/poem/summer-night", "field_author": "<a href=\"/poet/elizabeth-drew-stoddard\" hreflang=\"en\">Elizabeth Drew  Stoddard</a>", "field_date_published": "2017", "body": " <p>I feel the breath of the summer night,<br />\u00a0\u00a0\u00a0\u00a0\u00a0\u00a0\u00a0\u00a0\u00a0\u00a0\u00a0 Aromatic fire:<br />The trees, the vines, the flowers are astir<br />\u00a0\u00a0\u00a0\u00a0\u00a0\u00a0\u00a0\u00a0\u00a0\u00a0\u00a0 With tender desire.<br /><br />The white moths flutter about the lamp,<br />\u00a0\u00a0\u00a0\u00a0\u00a0\u00a0\u00a0\u00a0\u00a0\u00a0\u00a0 Enamoured with light;<br />And a thousand creates softly sing<br />\u00a0\u00a0\u00a0\u00a0\u00a0\u00a0\u00a0\u00a0\u00a0\u00a0\u00a0 A song to the night!<br /><br />But I am alone, and how can I sing<br />\u00a0\u00a0\u00a0\u00a0\u00a0\u00a0\u00a0\u00a0\u00a0\u00a0\u00a0 Praises to thee?<br />Come, Night! unveil the beautiful soul<br />\u00a0\u00a0\u00a0\u00a0\u00a0\u00a0\u00a0\u00a0\u00a0\u00a0\u00a0 That waiteth for me.</p> "}, {"title": "A Baby Song", "view_node": "/poem/baby-song", "field_author": "<a href=\"/poet/elizabeth-drew-stoddard\" hreflang=\"en\">Elizabeth Drew  Stoddard</a>", "field_date_published": "2017", "body": " <p>Come, white angels, to baby and me;<br />\u00a0\u00a0\u00a0\u00a0 Touch his blue eyes with the image of sleep,<br />\u00a0\u00a0\u00a0\u00a0 In his surprise he will cease to weep;<br />Hush, child, the angels are coming to thee!<br /><br />Come, white doves, to baby and me;<br />\u00a0\u00a0\u00a0\u00a0 Softly whirr in the silent air,<br />\u00a0\u00a0\u00a0\u00a0 Flutter about his golden hair:<br />Hark, child, the doves are cooing to thee!<br /><br />Come, white lilies, to baby and me;<br />\u00a0\u00a0\u00a0\u00a0 Drowsily nod before his eyes,<br />\u00a0\u00a0\u00a0\u00a0 So full of wonder, so round and wise:<br />Hist, child, the lily-bells tinkle for thee!<br /><br />Come, white moon, to baby and me;<br />\u00a0\u00a0\u00a0\u00a0 Gently glide o\u2019er the ocean of sleep,<br />\u00a0\u00a0\u00a0\u00a0 Silver the waves of its shadowy deep:<br />Sleep, child, and the whitest of dreams to thee.</p> "}, {"title": "Autumn", "view_node": "/poem/autumn-7", "field_author": "<a href=\"/poet/elizabeth-drew-stoddard\" hreflang=\"en\">Elizabeth Drew  Stoddard</a>", "field_date_published": "2017", "body": " <p>No melancholy days are these!<br />\u00a0\u00a0\u00a0\u00a0 Not where the maple changing stands,<br />Not in the shade of fluttering oaks,<br />\u00a0\u00a0\u00a0\u00a0\u00a0\u00a0\u00a0\u00a0\u00a0\u00a0\u00a0 Nor in the bands<br /><br />Of twisting vines and sturdy shrubs,<br />\u00a0\u00a0\u00a0\u00a0 Scarlet and yellow, green and brown,<br />Falling, or swinging on their stalks,<br />\u00a0\u00a0\u00a0\u00a0\u00a0\u00a0\u00a0\u00a0\u00a0\u00a0\u00a0 Is Sorrow\u2019s crown.<br /><br />The sparkling fields of dewy grass,<br />\u00a0\u00a0\u00a0\u00a0 Woodpaths and roadsides decked with flowers,<br />Starred asters and the goldenrod,<br />\u00a0\u00a0\u00a0\u00a0\u00a0\u00a0\u00a0\u00a0\u00a0\u00a0\u00a0 Date Autumn\u2019s hours.<br /><br />The shining banks of snowy clouds,<br />\u00a0\u00a0\u00a0\u00a0 Steadfast in the aerial blue,<br />The silent, shimmering, silver sea,<br />\u00a0\u00a0\u00a0\u00a0\u00a0\u00a0\u00a0\u00a0\u00a0\u00a0\u00a0 To Joy are true.<br /><br />My spirit in this happy air<br />\u00a0\u00a0\u00a0\u00a0 Can thus embrace the dying year,<br />And with it wrap me in a shroud<br />\u00a0\u00a0\u00a0\u00a0\u00a0\u00a0\u00a0\u00a0\u00a0\u00a0\u00a0 As bright and clear!</p> "}], "pager": {"current_page": 267, "total_items": "13248", "total_pages": 663, "items_per_page": 20}}