{"rows": [{"title": "Alone for a Week", "view_node": "/poem/alone-week", "field_author": "<a href=\"/poet/jane-kenyon\" hreflang=\"und\">Jane Kenyon</a>", "field_date_published": "2005", "body": " <pre>I washed a load of clothes\nand hung them out to dry.\nThen I went up to town\nand busied myself all day.\nThe sleeve of your best shirt\nrose ceremonious\nwhen I drove in; our night-\nclothes twined and untwined in\na little gust of wind.\n\nFor me it was getting late;\nfor you, where you were, not.\nThe harvest moon was full\nbut sparse clouds made its light\nnot quite reliable.\nThe bed on your side seemed\nas wide and flat as Kansas;\nyour pillow plump, cool,\nand allegorical. . . .</pre>\n "}, {"title": "Man Eating", "view_node": "/poem/man-eating", "field_author": "<a href=\"/poet/jane-kenyon\" hreflang=\"und\">Jane Kenyon</a>", "field_date_published": "2005", "body": " <pre>The man at the table across from mine\nis eating yogurt. His eyes, following\nthe progress of the spoon, cross briefly\neach time it nears his face. Time,\nand the world with all its principalities,\nmight come to an end as prophesied\nby the Apostle John, but what about\nthis man, so completely present\nto the little carton with its cool,\nsweet food, which has caused no animal\nto suffer, and which he is eating\nwith a pearl-white plastic spoon.</pre>\n "}, {"title": "Taking Down the Tree", "view_node": "/poem/taking-down-tree", "field_author": "<a href=\"/poet/jane-kenyon\" hreflang=\"und\">Jane Kenyon</a>", "field_date_published": "2005", "body": "<p><span class=\"long-line\">\"Give me some light!\" cries Hamlet's</span><br /><span class=\"long-line\">uncle midway through the murder</span><br /><span class=\"long-line\">of Gonzago. \"Light! Light!\" cry scattering</span><br /><span class=\"long-line\">courtesans. Here, as in Denmark,</span><br /><span class=\"long-line\">it's dark at four, and even the moon</span><br /><span class=\"long-line\">shines with only half a heart.</span></p>\n\n<p><span class=\"long-line\">The ornaments go down into the box:</span><br /><span class=\"long-line\">the silver spaniel, <em>My Darling</em></span><br /><span class=\"long-line\">on its collar, from Mother's childhood</span><br /><span class=\"long-line\">in Illinois; the balsa jumping jack</span><br /><span class=\"long-line\">my brother and I fought over,</span><br /><span class=\"long-line\">pulling limb from limb. Mother</span><br /><span class=\"long-line\">drew it together again with thread</span><br /><span class=\"long-line\">while I watched, feeling depraved</span><br /><span class=\"long-line\">at the age of ten.</span></p>\n\n<p><span class=\"long-line\">With something more than caution</span><br /><span class=\"long-line\">I handle them, and the lights, with their</span><br /><span class=\"long-line\">tin star-shaped reflectors, brought along</span><br /><span class=\"long-line\">from house to house, their pasteboard</span><br /><span class=\"long-line\">toy suitcase increasingly flimsy.</span><br /><span class=\"long-line\">Tick, tick, the desiccated needles drop.</span></p>\n\n<p><span class=\"long-line\">By suppertime all that remains is the scent</span><br /><span class=\"long-line\">of balsam fir. If it's darkness</span><br /><span class=\"long-line\">we're having, let it be extravagant.</span></p>\n"}, {"title": "Thinking of Madame Bovary", "view_node": "/poem/thinking-madame-bovary", "field_author": "<a href=\"/poet/jane-kenyon\" hreflang=\"und\">Jane Kenyon</a>", "field_date_published": "2005", "body": " <pre>The first hot April day the granite step\nwas warm. Flies droned in the grass.\nWhen a car went past they rose\nin unison, then dropped back down. . . .\n\nI saw that a yellow crocus bud had pierced\na dead oak leaf, then opened wide. How strong\nits appetite for the luxury of the sun!\n\nEveryone longs for love\u2019s tense joy and red delights.\n\nAnd then I spied an ant\ndragging a ragged, disembodied wing\nup the warm brick walk. It must have been\nthe Methodist in me that leaned forward,\npreceded by my shadow, to put a twig just where\nthe ant was struggling with its own desire.</pre>\n "}, {"title": "Three Songs at the End of Summer", "view_node": "/poem/three-songs-end-summer", "field_author": "<a href=\"/poet/jane-kenyon\" hreflang=\"und\">Jane Kenyon</a>", "field_date_published": "2005", "body": " <pre>A second crop of hay lies cut   \nand turned. Five gleaming crows   \nsearch and peck between the rows.\nThey make a low, companionable squawk,   \nand like midwives and undertakers   \npossess a weird authority.\n\nCrickets leap from the stubble,   \nparting before me like the Red Sea.   \nThe garden sprawls and spoils.\n\nAcross the lake the campers have learned   \nto water-ski. They have, or they haven\u2019t.   \nSounds of the instructor\u2019s megaphone   \nsuffuse the hazy air. \u201cRelax! Relax!\u201d\n\nCloud shadows rush over drying hay,   \nfences, dusty lane, and railroad ravine.   \nThe first yellowing fronds of goldenrod   \nbrighten the margins of the woods.\n\nSchoolbooks, carpools, pleated skirts;   \nwater, silver-still, and a vee of geese.\n\n*\n\nThe cicada\u2019s dry monotony breaks   \nover me. The days are bright   \nand free, bright and free.\n\nThen why did I cry today   \nfor an hour, with my whole   \nbody, the way babies cry?\n\n*\n\nA white, indifferent morning sky,   \nand a crow, hectoring from its nest   \nhigh in the hemlock, a nest as big   \nas a laundry basket....\n                                    In my childhood   \nI stood under a dripping oak,\nwhile autumnal fog eddied around my feet,   \nwaiting for the school bus\nwith a dread that took my breath away.\n\nThe damp dirt road gave off   \nthis same complex organic scent.\n\nI had the new books\u2014words, numbers,   \nand operations with numbers I did not   \ncomprehend\u2014and crayons, unspoiled   \nby use, in a blue canvas satchel\nwith red leather straps.\n\nSpruce, inadequate, and alien   \nI stood at the side of the road.   \nIt was the only life I had.</pre>\n "}, {"title": "Afternoon at MacDowell", "view_node": "/poem/afternoon-macdowell", "field_author": "<a href=\"/poet/jane-kenyon\" hreflang=\"und\">Jane Kenyon</a>", "field_date_published": "2005", "body": " <pre>On a windy summer day the well-dressed\ntrustees occupy the first row\nunder the yellow and white striped canopy.\nTheir drive for capital is over,\nand for a while this refuge is secure.\n\nThin after your second surgery, you wear\nthe gray summer suit we bought eight \nyears ago for momentous occasions\nin warm weather. My hands rest in my lap,\nunder the fine cotton shawl embroidered\nwith mirrors that we bargained for last fall\nin Bombay, unaware of your sickness.\n\nThe legs of our chairs poke holes\nin the lawn. The sun goes in and out\nof the grand clouds, making the air alive\nwith golden light, and then, as if heaven\u2019s\nspirits had fallen, everything\u2019s somber again.\n\nAfter music and poetry we walk to the car. \nI believe in the miracles of art, but what\nprodigy will keep you safe beside me, \nfumbling with the radio while you drive\nto find late innings of a Red Sox game? </pre>\n "}, {"title": "Christmas Away from Home", "view_node": "/poem/christmas-away-home", "field_author": "<a href=\"/poet/jane-kenyon\" hreflang=\"und\">Jane Kenyon</a>", "field_date_published": "2005", "body": " <pre>Her sickness brought me to Connecticut.\nMornings I walk the dog: that part of life\nis intact. Who's painted, who's insulated\nor put siding on, who's burned the lawn\nwith lime\u2014that's the news on Ardmore Street.\n\nThe leaves of the neighbor's respectable\nrhododendrons curl under in the cold.\nHe has backed the car\nthrough the white nimbus of its exhaust\nand disappeared for the day.\n\nIn the hiatus between mayors\nthe city has left leaves in the gutters,\nand passing cars lift them in maelstroms.\n\nWe pass the house two doors down, the one\nwith the wildest lights in the neighborhood,\nan establishment without irony.\nAll summer their <i>putto</i> empties a water jar,\ntheir St. Francis feeds the birds.\nNow it's angels, festoons, waist-high\ncandles, and swans pulling sleighs.\n\nTwo hundred miles north I'd let the dog\nrun among birches and the black shade of pines.\nI miss the hills, the woods and stony\nstreams, where the swish of jacket sleeves\nagainst my sides seems loud, and a crow\ncaws sleepily at dawn.\n\nBy now the streams must run under a skin\nof ice, white air-bubbles passing erratically,\nlike blood cells through a vein. Soon the mail,\nforwarded, will begin to reach me here.</pre>\n "}, {"title": "Heavy Summer Rain", "view_node": "/poem/heavy-summer-rain", "field_author": "<a href=\"/poet/jane-kenyon\" hreflang=\"und\">Jane Kenyon</a>", "field_date_published": "2005", "body": " <pre>The grasses in the field have toppled,\nand in places it seems that a large, now\nabsent, animal must have passed the night.\nThe hay will right itself if the day\n\nturns dry. I miss you steadily, painfully.\nNone of your blustering entrances\nor exits, doors swinging wildly\non their hinges, or your huge unconscious\nsighs when you read something sad,\nlike Henry Adams\u2019s letters from Japan,\nwhere he traveled after Clover died.\n\nEverything blooming bows down in the rain:\nwhite irises, red peonies; and the poppies\nwith their black and secret centers\nlie shattered on the lawn.</pre>\n "}, {"title": "Mosaic of the Nativity: Serbia, Winter, 1993", "view_node": "/poem/mosaic-nativity-serbia-winter-1993", "field_author": "<a href=\"/poet/jane-kenyon\" hreflang=\"und\">Jane Kenyon</a>", "field_date_published": "2005", "body": " <pre>On the domed ceiling God\nis thinking:\nI made them my joy,\nand everything else I created\nI made to bless them.\nBut see what they do!\nI know their hearts\nand arguments:\n\n\u201cWe\u2019re descended from\nCain. Evil is nothing new,\nso what does it matter now\nif we shell the infirmary,\nand the well where the fearful\nand rash alike must\ncome for water?\u201d\n\nGod thinks Mary into being.\nSuspended at the apogee\nof the golden dome,\nshe curls in a brown pod,\nand inside her mind\nof Christ, cloaked in blood,\nlodges and begins to grow.</pre>\n "}, {"title": "Portrait of a Figure Near Water", "view_node": "/poem/portrait-figure-near-water", "field_author": "<a href=\"/poet/jane-kenyon\" hreflang=\"und\">Jane Kenyon</a>", "field_date_published": "2005", "body": " <pre>Rebuked, she turned and ran\nuphill to the barn. Anger, the inner   \narsonist, held a match to her brain.   \nShe observed her life: against her will   \nit survived the unwavering flame.\n\nThe barn was empty of animals.   \nOnly a swallow tilted\nnear the beams, and bats\nhung from the rafters\nthe roof sagged between.\n\nHer breath became steady\nwhere, years past, the farmer cooled   \nthe big tin amphor\u00e6 of milk.\nThe stone trough was still\nfilled with water: she watched it   \nand received its calm.\n\nSo it is when we retreat in anger:   \nwe think we burn alone\nand there is no balm.\nThen water enters, though it makes   \nno sound.</pre>\n "}, {"title": "Private Beach", "view_node": "/poem/private-beach", "field_author": "<a href=\"/poet/jane-kenyon\" hreflang=\"und\">Jane Kenyon</a>", "field_date_published": "2005", "body": " <pre>It is always the dispossessed\u2014\nsomeone driving a huge rusted Dodge   \nthat\u2019s burning oil, and must cost   \ntwenty-five dollars to fill.\n\nToday before seven I saw, through\nthe morning fog, his car leave the road,   \nturning into the field. It must be\nhis day off, I thought, or he\u2019s out\nof work and drinking, or getting stoned.   \nOr maybe as much as anything\nhe wanted to see\nwhere the lane through the hay goes.\n\nIt goes to the bluff overlooking   \nthe lake, where we\u2019ve cleared   \nbrush, swept the slippery oak\nleaves from the path, and tried to destroy   \nthe poison ivy that runs\nover the scrubby, sandy knolls.\n\nSometimes in the evening I\u2019ll hear   \ngunshots or firecrackers. Later a car   \nneeding a new muffler backs out\nto the road, headlights withdrawing   \nfrom the lowest branches of the pines.\n\nNext day I find beer cans, crushed;   \nsometimes a few fish too small   \nto bother cleaning and left\non the moss to die; or the leaking   \nlatex trace of outdoor love....\n\nOnce I found the canvas sling chairs   \nbroken up and burned.\n\nWhoever laid the fire gathered stones   \nto contain it, like a boy pursuing\na merit badge, who has a dream of work,   \nand proper reward for work.</pre>\n "}, {"title": "Persimmons", "view_node": "/poem/persimmons", "field_author": "<a href=\"/poet/li-young-lee\" hreflang=\"und\">Li-Young Lee</a>", "field_date_published": "1986", "body": " <pre>In sixth grade Mrs. Walker\nslapped the back of my head\nand made me stand in the corner   \nfor not knowing the difference   \nbetween <i>persimmon</i> and <i>precision</i>.   \nHow to choose\n\npersimmons. This is precision.\nRipe ones are soft and brown-spotted.   \nSniff the bottoms. The sweet one\nwill be fragrant. How to eat:\nput the knife away, lay down newspaper.   \nPeel the skin tenderly, not to tear the meat.   \nChew the skin, suck it,\nand swallow. Now, eat\nthe meat of the fruit,\nso sweet,\nall of it, to the heart.\n\nDonna undresses, her stomach is white.   \nIn the yard, dewy and shivering\nwith crickets, we lie naked,\nface-up, face-down.\nI teach her Chinese.\nCrickets: <i>chiu chiu</i>. Dew: I\u2019ve forgotten.   \nNaked:   I\u2019ve forgotten.\n<i>Ni, wo</i>:   you and me.\nI part her legs,\nremember to tell her\nshe is beautiful as the moon.\n\nOther words\nthat got me into trouble were\n<i>fight</i> and <i>fright</i>, <i>wren</i> and <i>yarn</i>.\nFight was what I did when I was frightened,   \nFright was what I felt when I was fighting.   \nWrens are small, plain birds,   \nyarn is what one knits with.\nWrens are soft as yarn.\nMy mother made birds out of yarn.   \nI loved to watch her tie the stuff;   \na bird, a rabbit, a wee man.\n\nMrs. Walker brought a persimmon to class   \nand cut it up\nso everyone could taste\na <i>Chinese apple</i>. Knowing\nit wasn\u2019t ripe or sweet, I didn\u2019t eat\nbut watched the other faces.\n\nMy mother said every persimmon has a sun   \ninside, something golden, glowing,   \nwarm as my face.\n\nOnce, in the cellar, I found two wrapped in newspaper,   \nforgotten and not yet ripe.\nI took them and set both on my bedroom windowsill,   \nwhere each morning a cardinal\nsang, <i>The sun, the sun.</i>\n\nFinally understanding   \nhe was going blind,\nmy father sat up all one night   \nwaiting for a song, a ghost.   \nI gave him the persimmons,   \nswelled, heavy as sadness,   \nand sweet as love.\n\nThis year, in the muddy lighting\nof my parents\u2019 cellar, I rummage, looking   \nfor something I lost.\nMy father sits on the tired, wooden stairs,   \nblack cane between his knees,\nhand over hand, gripping the handle.\nHe\u2019s so happy that I\u2019ve come home.\nI ask how his eyes are, a stupid question.   \n<i>All gone,</i> he answers.\n\nUnder some blankets, I find a box.\nInside the box I find three scrolls.\nI sit beside him and untie\nthree paintings by my father:\nHibiscus leaf and a white flower.\nTwo cats preening.\nTwo persimmons, so full they want to drop from the cloth.\n\nHe raises both hands to touch the cloth,   \nasks, <i>Which is this?\n\nThis is persimmons, Father.\n\nOh, the feel of the wolftail on the silk,   \nthe strength, the tense\nprecision in the wrist.\nI painted them hundreds of times   \neyes closed. These I painted blind.   \nSome things never leave a person:\nscent of the hair of one you love,   \nthe texture of persimmons,\nin your palm, the ripe weight.</i></pre>\n "}, {"title": "The Gift", "view_node": "/poem/gift-1", "field_author": "<a href=\"/poet/li-young-lee\" hreflang=\"und\">Li-Young Lee</a>", "field_date_published": "1986", "body": " <pre>To pull the metal splinter from my palm\nmy father recited a story in a low voice.\nI watched his lovely face and not the blade.\nBefore the story ended, he\u2019d removed\nthe iron sliver I thought I\u2019d die from.\n\nI can\u2019t remember the tale,\nbut hear his voice still, a well\nof dark water, a prayer.\nAnd I recall his hands,\ntwo measures of tenderness\nhe laid against my face,\nthe flames of discipline\nhe raised above my head.\n\nHad you entered that afternoon\nyou would have thought you saw a man\nplanting something in a boy\u2019s palm,\na silver tear, a tiny flame.\nHad you followed that boy\nyou would have arrived here,\nwhere I bend over my wife\u2019s right hand.\n\nLook how I shave her thumbnail down\nso carefully she feels no pain.\nWatch as I lift the splinter out.\nI was seven when my father\ntook my hand like this,\nand I did not hold that shard\nbetween my fingers and think,\n<i>Metal that will bury me,</i>\nchristen it Little Assassin,\nOre Going Deep for My Heart.\nAnd I did not lift up my wound and cry,\n<i>Death visited here!</i>\nI did what a child does\nwhen he\u2019s given something to keep.\nI kissed my father.</pre>\n "}, {"title": "Little Father", "view_node": "/poem/little-father", "field_author": "<a href=\"/poet/li-young-lee\" hreflang=\"und\">Li-Young Lee</a>", "field_date_published": "2001", "body": " <pre>I buried my father\nin the sky.\nSince then, the birds\nclean and comb him every morning   \nand pull the blanket up to his chin   \nevery night.\n\nI buried my father underground.   \nSince then, my ladders\nonly climb down,\nand all the earth has become a house   \nwhose rooms are the hours, whose doors   \nstand open at evening, receiving   \nguest after guest.\nSometimes I see past them\nto the tables spread for a wedding feast.\n\nI buried my father in my heart.\nNow he grows in me, my strange son,   \nmy little root who won\u2019t drink milk,   \nlittle pale foot sunk in unheard-of night,   \nlittle clock spring newly wet\nin the fire, little grape, parent to the future   \nwine, a son the fruit of his own son,   \nlittle father I ransom with my life.</pre>\n "}, {"title": "A Story", "view_node": "/poem/story-0", "field_author": "<a href=\"/poet/li-young-lee\" hreflang=\"und\">Li-Young Lee</a>", "field_date_published": "1990", "body": "<p><span class=\"long-line\">Sad is the man who is asked for a story</span><br /><span class=\"long-line\">and can't come up with one.</span></p>\n\n<p><span class=\"long-line\">His five-year-old son waits in his lap.</span><br /><span class=\"long-line\"><em>Not the same story, Baba. A new one</em>.</span><br /><span class=\"long-line\">The man rubs his chin, scratches his ear.</span></p>\n\n<p><span class=\"long-line\">In a room full of books in a world</span><br /><span class=\"long-line\">of stories, he can recall</span><br /><span class=\"long-line\">not one, and soon, he thinks, the boy</span><br /><span class=\"long-line\">will give up on his father.</span></p>\n\n<p><span class=\"long-line\">Already the man lives far ahead, he sees</span><br /><span class=\"long-line\">the day this boy will go. <em>Don't go!</em></span><br /><span class=\"long-line\"><em>Hear the alligator story! The angel story once more!</em></span><br /><span class=\"long-line\"><em>You love the spider story. You laugh at the spider.</em></span><br /><span class=\"long-line\"><em>Let me tell it!</em></span></p>\n\n<p><span class=\"long-line\">But the boy is packing his shirts,</span><br /><span class=\"long-line\">he is looking for his keys. <em>Are you a god,</em></span><br /><span class=\"long-line\"><em>the man screams, that I sit mute before you?</em></span><br /><span class=\"long-line\"><em>Am I a god that I should never disappoint?</em></span></p>\n\n<p><span class=\"long-line\">But the boy is here. <em>Please, Baba, a story?</em></span><br /><span class=\"long-line\">It is an emotional rather than logical equation,</span><br /><span class=\"long-line\">an earthly rather than heavenly one,</span><br /><span class=\"long-line\">which posits that a boy's supplications</span><br /><span class=\"long-line\">and a father's love add up to silence.</span></p>\n"}, {"title": "Mnemonic", "view_node": "/poem/mnemonic", "field_author": "<a href=\"/poet/li-young-lee\" hreflang=\"und\">Li-Young Lee</a>", "field_date_published": "1986", "body": " <pre>I was tired. So I lay down.\nMy lids grew heavy. So I slept.\nSlender memory, stay with me.\n\nI was cold once. So my father took off his blue sweater.\nHe wrapped me in it, and I never gave it back.\nIt is the sweater he wore to America,\nthis one, which I've grown into, whose sleeves are too long,\nwhose elbows have thinned, who outlives its rightful owner.\nFlamboyant blue in daylight, poor blue by daylight,\nit is black in the folds.\n\nA serious man who devised complex systems of numbers and rhymes\nto aid him in remembering, a man who forgot nothing, my father\nwould be ashamed of me.\nNot because I'm forgetful,\nbut because there is no order\nto my memory, a heap\nof details, uncatalogued, illogical.\nFor instance:\nGod was lonely. So he made me.\nMy father loved me. So he spanked me.\nIt hurt him to do so. He did it daily.\n\nThe earth is flat. Those who fall off don't return.\nThe earth is round. All things reveal themselves to men only gradually.\n\nIt won't last. Memory is sweet.\nEven when it's painful, memory is sweet.\n\nOnce I was cold. So my father took off his blue sweater.</pre>\n "}, {"title": "Eating Together", "view_node": "/poem/eating-together", "field_author": "<a href=\"/poet/li-young-lee\" hreflang=\"und\">Li-Young Lee</a>", "field_date_published": "1986", "body": " <pre>In the steamer is the trout   \nseasoned with slivers of ginger,\ntwo sprigs of green onion, and sesame oil.   \nWe shall eat it with rice for lunch,   \nbrothers, sister, my mother who will   \ntaste the sweetest meat of the head,   \nholding it between her fingers   \ndeftly, the way my father did   \nweeks ago. Then he lay down   \nto sleep like a snow-covered road   \nwinding through pines older than him,   \nwithout any travelers, and lonely for no one.</pre>\n "}, {"title": "From Blossoms", "view_node": "/poem/blossoms-0", "field_author": "<a href=\"/poet/li-young-lee\" hreflang=\"und\">Li-Young Lee</a>", "field_date_published": "1986", "body": "<p><span class=\"long-line\">From blossoms comes</span><br /><span class=\"long-line\">this brown paper bag of peaches</span><br /><span class=\"long-line\">we bought from the boy</span><br /><span class=\"long-line\">at the bend in the road where we turned toward </span><br /><span class=\"long-line\">signs painted <em>Peaches</em>.</span></p>\n\n<p><span class=\"long-line\">From laden boughs, from hands,</span><br /><span class=\"long-line\">from sweet fellowship in the bins,</span><br /><span class=\"long-line\">comes nectar at the roadside, succulent</span><br /><span class=\"long-line\">peaches we devour, dusty skin and all,</span><br /><span class=\"long-line\">comes the familiar dust of summer, dust we eat.</span></p>\n\n<p><span class=\"long-line\">O, to take what we love inside,</span><br /><span class=\"long-line\">to carry within us an orchard, to eat</span><br /><span class=\"long-line\">not only the skin, but the shade,</span><br /><span class=\"long-line\">not only the sugar, but the days, to hold</span><br /><span class=\"long-line\">the fruit in our hands, adore it, then bite into </span><br /><span class=\"long-line\">the round jubilance of peach.</span></p>\n\n<p><span class=\"long-line\">There are days we live</span><br /><span class=\"long-line\">as if death were nowhere</span><br /><span class=\"long-line\">in the background; from joy</span><br /><span class=\"long-line\">to joy to joy, from wing to wing,</span><br /><span class=\"long-line\">from blossom to blossom to</span><br /><span class=\"long-line\">impossible blossom, to sweet impossible blossom.</span></p>\n"}, {"title": "The Hammock", "view_node": "/poem/hammock", "field_author": "<a href=\"/poet/li-young-lee\" hreflang=\"und\">Li-Young Lee</a>", "field_date_published": "2001", "body": " <pre>When I lay my head in my mother's lap\nI think how day hides the stars,\nthe way I lay hidden once, waiting\ninside my mother's singing to herself. And I remember \nhow she carried me on her back\nbetween home and the kindergarten,\nonce each morning and once each afternoon.\n \nI don't know what my mother's thinking.\n \nWhen my son lays his head in my lap, I wonder:\nDo his father's kisses keep his father's worries\nfrom becoming his? I think, <i>Dear God</i>, and remember\nthere are stars we haven't heard from yet:\nThey have so far to arrive. <i>Amen,</i>\nI think, and I feel almost comforted.\n \nI've no idea what my child is thinking.\n \nBetween two unknowns, I live my life.\nBetween my mother's hopes, older than I am\nby coming before me, and my child's wishes, older than I am\nby outliving me. And what's it like?\nIs it a door, and good-bye on either side?\nA window, and eternity on either side?\nYes, and a little singing between two great rests.</pre>\n "}, {"title": "Eating Alone", "view_node": "/poem/eating-alone", "field_author": "<a href=\"/poet/li-young-lee\" hreflang=\"und\">Li-Young Lee</a>", "field_date_published": "1986", "body": "<p><span class=\"long-line\">I've pulled the last of the year's young onions. </span><br /><span class=\"long-line\">The garden is bare now. The ground is cold, </span><br /><span class=\"long-line\">brown and old. What is left of the day flames </span><br /><span class=\"long-line\">in the maples at the corner of my </span><br /><span class=\"long-line\">eye. I turn, a cardinal vanishes. </span><br /><span class=\"long-line\">By the cellar door, I wash the onions, </span><br /><span class=\"long-line\">then drink from the icy metal spigot. </span></p>\n\n<p><span class=\"long-line\">Once, years back, I walked beside my father </span><br /><span class=\"long-line\">among the windfall pears. I can't recall </span><br /><span class=\"long-line\">our words. We may have strolled in silence. But </span><br /><span class=\"long-line\">I still see him bend that way-left hand braced </span><br /><span class=\"long-line\">on knee, creaky-to lift and hold to my </span><br /><span class=\"long-line\">eye a rotten pear. In it, a hornet </span><br /><span class=\"long-line\">spun crazily, glazed in slow, glistening juice. </span></p>\n\n<p><span class=\"long-line\">It was my father I saw this morning </span><br /><span class=\"long-line\">waving to me from the trees. I almost </span><br /><span class=\"long-line\">called to him, until I came close enough </span><br /><span class=\"long-line\">to see the shovel, leaning where I had </span><br /><span class=\"long-line\">left it, in the flickering, deep green shade. </span></p>\n\n<p><span class=\"long-line\">White rice steaming, almost done. Sweet green peas </span><br /><span class=\"long-line\">fried in onions. Shrimp braised in sesame </span><br /><span class=\"long-line\">oil and garlic. And my own loneliness. </span><br /><span class=\"long-line\">What more could I, a young man, want.</span></p>\n"}], "pager": {"current_page": 431, "total_items": "13248", "total_pages": 663, "items_per_page": 20}}