{"rows": [{"title": "The Mystic Blue", "view_node": "/poem/mystic-blue", "field_author": "<a href=\"/poet/d-h-lawrence\" hreflang=\"und\">D. H. Lawrence</a>", "field_date_published": "2017", "body": " <p>Out of the darkness, fretted sometimes in its sleeping,<br />Jets of sparks in fountains of blue come leaping<br />To sight, revealing a secret, numberless secrets keeping.</p><p>Sometimes the darkness trapped within a wheel<br />Runs into speed like a dream, the blue of the steel<br />Showing the rocking darkness now a-reel.</p><p>And out of the invisible, streams of bright blue drops<br />Rain from the showery heavens, and bright blue crops<br />Surge from the under-dark to their ladder-tops.</p><p>And all the manifold blue and joyous eyes,<br />The rainbow arching over in the skies,<br />New sparks of wonder opening in surprise.</p><p>All these pure things come foam and spray of the sea<br />Of Darkness abundant, which shaken mysteriously,<br />Breaks into dazzle of living, as dolphins that leap from the sea<br />Of midnight shake it to fire, so the secret of death we see.</p> "}, {"title": "Elegy ", "view_node": "/poem/elegy-0", "field_author": "", "field_date_published": "", "body": ""}, {"title": "A Passing Bell ", "view_node": "/poem/passing-bell", "field_author": "", "field_date_published": "", "body": ""}, {"title": "Perfidy", "view_node": "/poem/perfidy", "field_author": "<a href=\"/poet/d-h-lawrence\" hreflang=\"und\">D. H. Lawrence</a>", "field_date_published": "2017", "body": " <p>Hollow rang the house when I knocked on the door,<br />And I lingered on the threshold with my hand<br />Upraised to knock and knock once more:<br />Listening for the sound of her feet across the floor,<br />Hollow re-echoed my heart.</p><p>The low-hung lamps stretched down the road<br />With shadows drifting underneath,<br />With a music of soft, melodious feet<br />Quickening my hope as I hastened to meet<br />The low-hung light of her eyes.</p><p>The golden lamps down the street went out,<br />The last car trailed the night behind;<br />And I in the darkness wandered about<br />With a flutter of hope and of dark-shut doubt<br />In the dying lamp of my love.</p><p>Two brown ponies trotting slowly<br />Stopped at a dim-lit trough to drink:<br />The dark van drummed down the distance slowly;<br />While the city stars so dim and holy<br />Drew nearer to search through the streets.</p><p>A hastening car swept shameful past,<br />I saw her hid in the shadow,<br />I saw her step to the curb, and fast<br />Run to the silent door, where last<br />I had stood with my hand uplifted.<br />She clung to the door in her haste to enter,<br />Entered, and quickly cast<br />It shut behind her, leaving the street aghast.</p> "}, {"title": "Submergence ", "view_node": "/poem/submergence", "field_author": "", "field_date_published": "", "body": ""}, {"title": "Dissolute ", "view_node": "/poem/dissolute", "field_author": "", "field_date_published": "", "body": ""}, {"title": "Brooding Grief ", "view_node": "/poem/brooding-grief", "field_author": "", "field_date_published": "", "body": ""}, {"title": "Listening ", "view_node": "/poem/listening", "field_author": "", "field_date_published": "", "body": ""}, {"title": "Silence ", "view_node": "/poem/silence-44", "field_author": "<a href=\"/poet/d-h-lawrence\" hreflang=\"und\">D. H. Lawrence</a>", "field_date_published": "2017", "body": "<p>Since I lost you I am silence-haunted,<br />\n\u00a0 Sounds wave their little wings<br />\nA moment, then in weariness settle<br />\n\u00a0 On the flood that soundless swings.</p>\n\n<p>Whether the people in the street<br />\n\u00a0 Like pattering ripples go by,<br />\nOr whether the theatre sighs and sighs<br />\n\u00a0 With a loud, hoarse sigh:</p>\n\n<p>Or the wind shakes a ravel of light<br />\n\u00a0 Over the dead-black river,<br />\nOr night\u2019s last echoing<br />\n\u00a0 Makes the daybreak shiver:</p>\n\n<p>I feel the silence waiting<br />\n\u00a0 To take them all up again<br />\nIn its vast completeness, enfolding<br />\n\u00a0 The sound of men.<br />\n\u00a0</p>\n"}, {"title": "The Inheritance ", "view_node": "/poem/inheritance-0", "field_author": "", "field_date_published": "", "body": ""}, {"title": "Dolor of Autumn ", "view_node": "/poem/dolor-autumn", "field_author": "", "field_date_published": "", "body": ""}, {"title": "Sorrow", "view_node": "/poem/sorrow", "field_author": "<a href=\"/poet/d-h-lawrence\" hreflang=\"und\">D. H. Lawrence</a>", "field_date_published": "1916", "body": " <p>Why does the thin grey strand<br />Floating up from the forgotten<br />Cigarette between my fingers,<br />Why does it trouble me?</p><p>Ah, you will understand;<br />When I carried my mother downstairs,<br />A few times only, at the beginning<br />Of her soft-foot malady,</p><p>I should find, for a reprimand<br />To my gaiety, a few long grey hairs<br />On the breast of my coat; and one by one<br />I let them float up the dark chimney.</p> "}, {"title": "The End ", "view_node": "/poem/end", "field_author": "", "field_date_published": "", "body": ""}, {"title": "Anxiety", "view_node": "/poem/anxiety", "field_author": "", "field_date_published": "", "body": ""}, {"title": "Patience", "view_node": "/poem/patience-0", "field_author": "", "field_date_published": "", "body": ""}, {"title": "The Prophet ", "view_node": "/poem/prophet", "field_author": "<a href=\"/poet/d-h-lawrence\" hreflang=\"und\">D. H. Lawrence</a>", "field_date_published": "2017", "body": " <p>Ah, my darling, when over the purple horizon shall loom<br />The shrouded mother of a new idea, men hide their faces,<br />Cry out and fend her off, as she seeks her procreant groom,<br />Wounding themselves against her, denying her fecund embraces.</p> "}, {"title": "Scent of Irises ", "view_node": "/poem/scent-irises", "field_author": "<a href=\"/poet/d-h-lawrence\" hreflang=\"und\">D. H. Lawrence</a>", "field_date_published": "2017", "body": " <p>A faint, sickening scent of irises<br />Persists all morning. Here in a jar on the table<br />A fine proud spike of purple irises<br />Rising above the class-room litter, makes me unable<br />To see the class\u2019s lifted and bended faces<br />Save in a broken pattern, amid purple and gold and sable.</p><p>I can smell the gorgeous bog-end, in its breathless<br />Dazzle of may-blobs, when the marigold glare overcast you<br /><span class=\"long-line\">With fire on your cheeks and your brow and your chin as you dipped</span><br />Your face in the marigold bunch, to touch and contrast you,<br />Your own dark mouth with the bridal faint lady-smocks,<br />Dissolved on the golden sorcery you should not outlast.</p><p>You amid the bog-end\u2019s yellow incantation,<br />You sitting in the cowslips of the meadow above,<br />Me, your shadow on the bog-flame, flowery may-blobs,<br />Me full length in the cowslips, muttering you love;<br />You, your soul like a lady-smock, lost, evanescent,<br />You with your face all rich, like the sheen of a dove.</p><p>You are always asking, do I remember, remember<br />The butter-cup bog-end where the flowers rose up<br />And kindled you over deep with a cast of gold?<br />You ask again, do the healing days close up<br />The open darkness which then drew us in,<br />The dark which then drank up our brimming cup.</p><p>You upon the dry, dead beech-leaves, in the fire of night<br />Burnt like a sacrifice; you invisible;<br />Only the fire of darkness, and the scent of you!<br />\u2014And yes, thank God, it still is possible<br />The healing days shall close the darkness up<br />Wherein we fainted like a smoke or dew.</p><p>Like vapour, dew, or poison. Now, thank God,<br />The fire of night is gone, and your face is ash<br />Indistinguishable on the grey, chill day;<br />The night had burst us out, at last the good<br />Dark fire burns on untroubled, without clash<br />Of you upon the dead leaves saying me Yea.</p><p>\u00a0</p> "}, {"title": "Thetis", "view_node": "/poem/thetis", "field_author": "<a href=\"/poet/h-d\" hreflang=\"und\">H. D.</a>", "field_date_published": "2017", "body": " <p>I</p><p>On the paved parapet<br />you will step carefully<br />from amber stones to onyx<br />flecked with violet,<br />mingled with light,<br />half showing the sea-grass<br />and sea-sand underneath,<br />reflecting your white feet<br />and the gay strap crimson<br />as lily-buds of Arion,<br />and the gold that binds your feet.</p><p>II</p><p>You will pass<br />beneath the island disk<br />(and myrtle-wood,<br />the carved support of it)<br />and the white stretch<br />of its white beach,<br />curved as the moon crescent<br />or ivory when some fine hand<br />chisels it:<br />when the sun slips<br />through the far edge,<br />there is rare amber<br />through the sea,<br />and flecks of it<br />glitter on the dolphin's back<br />and jewelled halter<br />and harness and bit<br />as he sways under it.</p> "}, {"title": "Simaetha", "view_node": "/poem/simaetha", "field_author": "<a href=\"/poet/h-d\" hreflang=\"und\">H. D.</a>", "field_date_published": "2017", "body": " <p>Drenched with purple,<br />drenched with dye, my wool,<br />bind you the wheel-spokes\u2014<br />turn, turn, turn my wheel!</p><p>Drenched with purple,<br />steeped in the red pulp<br />of bursting sea-sloes\u2014<br />turn, turn, turn my wheel!</p><p>(Ah did he think<br />I did not know,<br />I did not feel\u2014<br />what wrack, what weal for him:<br />golden one, golden one,<br />turn again Aphrodite with the yellow zone,<br />I am cursed, cursed, undone!<br />Ah and my face, Aphrodite,<br />beside your gold,<br />is cut out of white stone!)</p><p>Laurel blossom and the red seed<br />of the red vervain weed,<br />burn, crackle in the fire,<br />burn, crackle for my need!<br />Laurel leaf, O fruited<br />branch of bay,<br />burn, burn away<br />thought, memory and hurt!</p><p>(Ah when he comes,<br />stumbling across my sill,<br />will he find me still,<br />fragrant as the white privet,<br />or as a bone,<br />polished in wet and sun,<br />worried of wild beaks,<br />and of the whelps' teeth\u2014<br />worried of flesh,<br />left to bleach under the sun,<br />white as ash bled of heat,<br />white as hail blazing in sheet-lightning,<br />white as forked lightning<br />rending the sleet?)</p> "}, {"title": "Demeter", "view_node": "/poem/demeter", "field_author": "<a href=\"/poet/h-d\" hreflang=\"und\">H. D.</a>", "field_date_published": "2017", "body": " <p>I</p><p>Men, fires, feasts,<br />steps of temple, fore-stone, lintel,<br />step of white altar, fire and after-fire,<br />slaughter before,<br />fragment of burnt meat,<br />deep mystery, grapple of mind to reach<br />the tense thought,<br />power and wealth, purpose and prayer alike,<br />(men, fires, feasts, temple steps)\u2014useless.</p><p>Useless to me who plant<br />wide feet on a mighty plinth,<br />useless to me who sit,<br />wide of shoulder, great of thigh,<br />heavy in gold, to press<br />gold back against solid back<br />of the marble seat:<br />useless the dragons wrought on the arms,<br />useless the poppy-buds and the gold inset<br />of the spray of wheat.</p><p>Ah they have wrought me heavy<br />and great of limb\u2014<br />she is slender of waist,<br />slight of breast, made of many fashions;<br />they have set her small feet<br />on many a plinth;<br />she they have known,<br />she they have spoken with,<br />she they have smiled upon,<br />she they have caught<br />and flattered with praise and gifts.</p><p>But useless the flattery<br />of the mighty power<br />they have granted me:<br />for I will not stay in her breast<br />the great of limb,<br />though perfect the shell they have<br />fashioned me, these men!</p><p>Do I sit in the market place\u2014<br />do I smile, does a noble brow<br />bend like the brow of Zeus\u2014<br />am I a spouse, his or any,<br />am I a woman, or goddess or queen,<br />to be met by a god with a smile\u2014and left?</p><p>II</p><p>Do you ask for a scroll,<br />parchment, oracle, prophecy, precedent;<br />do you ask for tablets marked with thought<br />or words cut deep on the marble surface,<br />do you seek measured utterance or the mystic trance?</p><p>Sleep on the stones of Delphi\u2014<br />dare the ledges of Pallas<br />but keep me foremost,<br />keep me before you, after you, with you,<br />never forget when you start<br />for the Delphic precipice,<br />never forget when you seek Pallas<br />and meet in thought<br />yourself drawn out from yourself<br />like the holy serpent,<br />never forget<br />in thought or mysterious trance\u2014<br />I am greatest and least.</p><p>Soft are the hands of Love,<br />soft, soft are his feet;<br />you who have twined myrtle,<br />have you brought crocuses,<br />white as the inner<br />stript bark of the osier,<br />have you set<br />black crocus against the black<br />locks of another?</p><p>III</p><p>Of whom do I speak?</p><p>Many the children of gods<br />but first I take<br />Bromios, fostering prince,<br />lift from the ivy brake, a king.</p><p>Enough of the lightning,<br />enough of the tales that speak<br />of the death of the mother:<br />strange tales of a shelter<br />brought to the unborn,<br />enough of tale, myth, mystery, precedent\u2014<br />a child lay on the earth asleep.</p><p>Soft are the hands of Love,<br />but what soft hands<br />clutched at the thorny ground,<br />scratched like a small white ferret<br />or foraging whippet or hound,<br />sought nourishment and found<br />only the crackling of ivy,<br />dead ivy leaf and the white<br />berry, food for a bird,<br />no food for this who sought,<br />bending small head in a fever,<br />whining with little breath.</p><p>Ah, small black head,<br />ah, the purple ivy bush,<br />ah, berries that shook and spilt<br />on the form beneath,<br />who begot you and left?</p><p>Though I begot no man child<br />all my days,<br />the child of my heart and spirit,<br />is the child the gods desert<br />alike and the mother in death\u2014<br />the unclaimed Dionysios.</p><p>IV</p><p><em>What of her\u2014<br />mistress of Death?</em></p><p>Form of a golden wreath<br />were my hands that girt her head,<br />fingers that strove to meet,<br />and met where the whisps escaped<br />from the fillet, of tenderest gold,<br />small circlet and slim<br />were my fingers then.</p><p>Now they are wrought of iron<br />to wrest from earth<br />secrets; strong to protect,<br />strong to keep back the winter<br />when winter tracks too soon<br />blanch the forest:<br />strong to break dead things,<br />the young tree, drained of sap,<br />the old tree, ready to drop,<br />to lift from the rotting bed<br />of leaves, the old<br />crumbling pine tree stock,<br />to heap bole and knot of fir<br />and pine and resinous oak,<br />till fire shatter the dark<br />and hope of spring<br />rise in the hearts of men.</p><p><em>What of her\u2014<br />mistress of Death\u2014<br />what of his kiss?</em></p><p>Ah, strong were his arms to wrest<br />slight limbs from the beautiful earth,<br />young hands that plucked the first<br />buds of the chill narcissus,<br />soft fingers that broke<br />and fastened the thorny stalk<br />with the flower of wild acanthus.</p><p>Ah, strong were the arms that took<br />(ah evil, the heart and graceless,)<br />but the kiss was less passionate!</p> "}], "pager": {"current_page": 300, "total_items": "13248", "total_pages": 663, "items_per_page": 20}}