{"rows": [{"title": "from \u201cAfter Dinner Was Over\u201d ", "view_node": "/poem/after-dinner-was-over", "field_author": "<a href=\"/poet/katie-peterson\" hreflang=\"und\">Katie Peterson</a>", "field_date_published": "2017", "body": " <p>I am enlightened, a man<br />says after dinner, and he doesn\u2019t<br />mean what you think<br />he means, he means he\u2019s a product<br />of the Enlightenment, he\u2019s talking<br />over his pain in the abyss<br />inside his gum, it\u2019s called<br />an abscess (we actually call it<br />that, he\u2019s taken painkillers,<br />he\u2019s swallowed them<br />with the wine offered him).\u00a0</p><p>*</p><p>Hawks in the trees. Men<br />talking about philosophy. Lemon<br />julienned over the chicken<br />turning colors<br />in an adequate oven. Good times,<br />for a minute. The argument<br />about the correct use of the word <em>surveillance</em><br />falls over my body.</p><p>*</p><p>The first time, I drank a beer<br />and hated it. The second, I craved<br />sugar water the colors of <em>Gone<br />with the Wind</em>, the third,<br />I just saw everything disappear.<br />Most men say they would<br />give birth if they could.</p><p>*</p><p>The crossroads. What you bring<br />there to bury. The journey. Constant\u00a0<br />circling back, later at night,<br />and in darker weather. Terrible<br />to lose touch with your friends.<br />Forgive the metaphor that defends.<br />The usual becomes treacherous.<br />In the dream, all of them\u00a0<br />had children and lived<br />together in the same<br />house where it was always<br />Halloween, decked<br />with pumpkins and ghosts.</p><p>*</p><p>I could try<br />to be scared but not afraid.<br />Looking into the chicken<br />coop like a wolf.</p><p>*</p><p>Days late, I could see a snake<br />moving across the surface<br />of the lake, writing its path,<br />unwriting the path it did<br />not take. But it wasn\u2019t<br />to be, that time. The effort<br />made towards what I wished.</p><p>*</p><p>You climbed the mountain with me, a recovering<br />moralist. You wanted<br />to stay on the path,<br />I wanted to find it.</p> "}, {"title": "from \u201c[the old soiled carpet of the wish to be Ana\u00efs]\u201d", "view_node": "/poem/old-soiled-carpet-wish-be-anais", "field_author": "<a href=\"/poet/wayne-koestenbaum\" hreflang=\"und\">Wayne Koestenbaum</a>", "field_date_published": "2017", "body": "<p><span class=\"long-line\">\u00a0 \u00a0 \u00a0 \u00a0 \u00a0 \u00a0 writing on the bruised</span><br /><span class=\"long-line\">body and seeing into the</span><br /><span class=\"long-line\">bruise\u2019s locked backyard, not</span><br /><span class=\"long-line\">psychoanalyzing the incursion</span><br /><span class=\"long-line\">but appreciating its scissory</span><br /><span class=\"long-line\">up and down</span></p>\n\n<p><span class=\"long-line\">\u2014\u2014\u2014\u2014\u2014\u2014\u2014</span></p>\n\n<p><span class=\"long-line\">\u00a0\u00a0\u00a0\u00a0\u00a0\u00a0\u00a0\u00a0\u00a0\u00a0\u00a0 remembering the wish</span><br /><span class=\"long-line\">to be Ana\u00efs Nin\u2014</span></p>\n\n<p><span class=\"long-line\">\u2014\u2014\u2014\u2014\u2014\u2014\u2014</span></p>\n\n<p><span class=\"long-line\">\u00a0\u00a0\u00a0\u00a0\u00a0\u00a0\u00a0\u00a0\u00a0\u00a0\u00a0 stepping on the old soiled</span><br /><span class=\"long-line\">carpet of the wish to be Ana\u00efs\u2014</span></p>\n\n<p><span class=\"long-line\">\u2014\u2014\u2014\u2014\u2014\u2014\u2014</span></p>\n\n<p><span class=\"long-line\">\u00a0\u00a0\u00a0\u00a0\u00a0\u00a0\u00a0\u00a0\u00a0\u00a0\u00a0 liking</span><br /><span class=\"long-line\">the pullulation of scratch marks</span><br /><span class=\"long-line\">and their glistering anonymity</span></p>\n\n<p><span class=\"long-line\">\u2014\u2014\u2014\u2014\u2014\u2014\u2014</span></p>\n\n<p><span class=\"long-line\">\u00a0\u00a0\u00a0\u00a0\u00a0\u00a0\u00a0\u00a0\u00a0\u00a0\u00a0\u00a0\u00a0\u00a0\u00a0\u00a0\u00a0\u00a0\u00a0\u00a0\u00a0\u00a0 florid</span><br /><span class=\"long-line\">British perfume wrongly purchased</span><br /><span class=\"long-line\">for stepfather\u2014the perfume stank</span><br /><span class=\"long-line\">so why did I buy it?</span></p>\n\n<p><span class=\"long-line\">\u2014\u2014\u2014\u2014\u2014\u2014\u2014</span></p>\n\n<p><span class=\"long-line\">\u00a0\u00a0\u00a0\u00a0\u00a0\u00a0\u00a0\u00a0\u00a0\u00a0\u00a0 the entire sky</span><br /><span class=\"long-line\">with a palette knife is scratched</span><br /><span class=\"long-line\">turquoise opal\u2014</span><br /><span class=\"long-line\">no underlying tint to betray it</span></p>\n\n<p><span class=\"long-line\">\u2014\u2014\u2014\u2014\u2014\u2014\u2014</span></p>\n\n<p><span class=\"long-line\">a sick tint inundating the marsh</span></p>\n\n<p><span class=\"long-line\">\u2014\u2014\u2014\u2014\u2014\u2014\u2014</span></p>\n\n<p><span class=\"long-line\">I celebrate mother\u2019s sunset</span><br /><span class=\"long-line\">or I am cloud making her</span><br /><span class=\"long-line\">sunset more inspiringly Turneresque\u2014</span></p>\n\n<p><span class=\"long-line\">\u2014\u2014\u2014\u2014\u2014\u2014\u2014</span></p>\n\n<p><span class=\"long-line\">to scratch through the page until</span><br /><span class=\"long-line\">it dies, and no credit given</span><br /><span class=\"long-line\">to the scratcher</span></p>\n"}, {"title": "Civilian", "view_node": "/poem/civilian", "field_author": "<a href=\"/poet/jared-stanley\" hreflang=\"en\">Jared Stanley</a>", "field_date_published": "2017", "body": " <p>All was permitted you.<br />Rooted out as a misfire or<br />somebody\u2019s chance smudge<br />stabbed into a satisfied mind,</p><p>your face was feathered in spittle.<br />Go ahead, lick it off! Be an air-swiped flag.<br />Every single strange example\u2019s<br />A blast, a test of evidence.</p><p>What if we had known then<br />we could bloom a flame like this?<br />Our forthright behavior<br />our stolen valor</p><p><em>Stick Fighting, Knife Fighting, and Home Defense.</em><br />Every now and then<br />Wind works your ear<br />but these facts are never reported.</p><p>I hate the song. I know all the words.</p> "}, {"title": "This City", "view_node": "/poem/city-1", "field_author": "<a href=\"/poet/eugenia-leigh\" hreflang=\"en\">Eugenia Leigh</a>", "field_date_published": "2017", "body": "<p><span class=\"long-line\">could use more seraphs.</span><br /><span class=\"long-line\">Anything with wings, really\u2014</span></p>\n\n<p><span class=\"long-line\">a falcon, a swallowtail.</span><br /><span class=\"long-line\">Ravenous for marvels, I slit open</span><br /><span class=\"long-line\">a chrysalis. Inside,</span><br /><span class=\"long-line\">no caterpillar mid-morph.</span><br /><span class=\"long-line\">Only its ghost in a horror of cells.</span><br /><span class=\"long-line\">I pinch the luminous mash</span><br /><span class=\"long-line\">of imaginal discs</span><br /><span class=\"long-line\">and shudder, imagining</span><br /><span class=\"long-line\">the mechanics of disintegration.</span><br /><span class=\"long-line\">The wormy larva\u2014whole,</span><br /><span class=\"long-line\">then whorled. A wonder</span><br /><span class=\"long-line\">it did not die. Even now,</span><br /><span class=\"long-line\">smeared against my skin, it beams</span></p>\n\n<p><span class=\"long-line\">like the angel in the tomb</span><br /><span class=\"long-line\">prepared to proclaim a rising.</span></p>\n"}, {"title": "Foreclosing on That Peril", "view_node": "/poem/foreclosing-peril", "field_author": "<a href=\"/poet/julie-carr\" hreflang=\"und\">Julie Carr</a>", "field_date_published": "2017", "body": " <p>I\u2019ll keep explaining\u2014because maybe you still don\u2019t get it<br />Those children in California (substitute any state), dead from gunfire\u2014<br />Let me begin again in a little roof garden with my friend<br />A perverse reader, he listens to my stories as if they were TV<br />I mean he mocks me lovingly on the roof and at the library book sale<br />My friend is not a banker but a prison activist<br />He used to be a philosopher, but like many philosophers, he\u2019s taken a turn<br />that should be easy to understand<br />The trajectory from philosopher to activist is like the curve of a single brushstroke across a large canvas<br />Artists in the fifties paid attention to that<br />I hate flat language like this, but I\u2019m pretty flat<br />sometimes. You have to be your own dictator<br />and the law is, hate yourself if you have to, but don\u2019t stop doing the thing you said you were going to do<br />As I tell my daughters often<br />Emotion is a site of unraveling (JB)<br />I admit, gripping my T-shirt<br />I wish I were writing in prose an unfolding intensity that shocks history professors and prison activists equally<br />Later, in the grass, we\u2019ll practice gymnastics and that way contribute our sweat<br />to Our Ephemeral City</p> "}, {"title": "The Room Is as We Left It ", "view_node": "/poem/room-we-left-it", "field_author": "<a href=\"/poet/marion-strobel\" hreflang=\"en\">Marion Strobel</a>", "field_date_published": "2017", "body": " <p>The room is as we left it<br />But mellowed to a heightened<br />Dignity.<br />The chairs<br />Have summer coverings<br />Of cobwebs,<br />The teakwood lamps are there,<br />And still the bed sags<br />To the center,<br />And the table throws<br />Its weight of shadow<br />On the spread . . . .<br />. . . Folly to have left the room unused:<br />You did not merit such a nicety . . . .</p><p>A ragged ache of light<br />Sifts through the dust:<br />Blotches<br />A grotesque of the present<br />Upon the patterns of the past . . .<br />My hands are bruised by surfaces<br />I do not see,<br />My fingers falter up and down<br />A tracery of years,<br />I sense the echo of a voice<br />I do not hear,<br />I am not sure the breath I hold<br />Is mine.<br />\u00a0</p> "}, {"title": "Town Watches Them Take Alfonso", "view_node": "/poem/town-watches-them-take-alfonso", "field_author": "<a href=\"/poet/ilya-kaminsky\" hreflang=\"und\">Ilya Kaminsky</a>", "field_date_published": "2017", "body": " <p>Now each of us is<br />a witness stand:</p><p><span class=\"long-line\">Vasenka watches us watch four soldiers throw Alfonso Barabinski on the sidewalk.</span><br />We let them take him, all of us cowards.</p><p>What we don\u2019t say<br />we carry in our suitcases, coat pockets, our nostrils.</p><p><span class=\"long-line\">Across the street they wash him with fire hoses. First he screams,</span><br />then he stops.</p><p>So much sunlight\u2014<br /><span class=\"long-line\">a t-shirt falls off a clothes line and an old man stops, picks it up, presses it to his face.</span></p><p><span class=\"long-line\">Neighbors line up to watch him thrown on a sidewalk like a vaudeville act: Ta Da.</span><br />In so much sunlight\u2014</p><p>how each of us<br />is a witness stand:</p><p>They take Alfonso<br />And no one stands up. Our silence stands up for us.<br />\u00a0</p> "}, {"title": "The Time Machine", "view_node": "/poem/time-machine", "field_author": "<a href=\"/poet/laura-kasischke\" hreflang=\"und\">Laura Kasischke</a>", "field_date_published": "2017", "body": " <p>My mother begged me: <em>Please, please, study<br />stenography...</em></p><p>Without it<br />I would have no future, and this</p><p>is the future that was lost in time to me</p><p>having scoffed at her, refusing<br />to learn the only skill I\u2019d ever need, the one</p><p>I will associate forever now with loss, with her<br />bald head, her wig, a world<br />already gone<br />by the time we had this argument, while</p><p>our walls stayed slathered in its pale green.\u00a0<br />While we<br />wore its sweater sets. While we<br />giddily picked the pineapple<br />off our hams with toothpicks. Now</p><p>I'm lost somewhere between<br />1937<br />and 1973. My</p><p>time machine, blown off course, just<br />as my mother knew it would be.</p><p>Oh, Mama: forget about me.<br />You don't have to forgive<br />me, but know this, please:</p><p>I am<br />the Stenographer now.<br />I am<br />the Secretary you wanted me to be.\u00a0 I am</p><p>the girl who gained the expertise you<br />knew some day some man would need.\u00a0</p><p>Too late, maybe.\u00a0<br />(Evening.)\u00a0<br />I'm sick, I think.<br />You're dead.\u00a0<br />I'm weak.</p><p>\u201cAnd now I'm going to tell you<br />a little secret.\u00a0<br />Get your pen and steno-pad, and sit<br />down across from me.\u201d</p><p>Ready?</p><p>The grieving:</p><p>It never ends.\u00a0</p><p>You learn a million<br />tricks, memorize<br />the symbols &amp;<br />practice the techniques</p><p>and still you wake up every morning<br />lost inside your<br />lost machine. Confused, but always<br />on a journey.</p><p>Disordered.</p><p>Cut short.</p><p>Still moving.</p><p><em>Keep speaking<br />Mama.<br />Please.</em><br />I'm taking it down<br />so quickly, so</p><p>quickly, even</p><p>(perhaps especially)</p><p>when I appear</p><p>not to be.\u00a0</p><p>I do this naturally.</p><p>See? So</p><p>naturally<br />that in the end<br />no training was ever needed.</p><p>None at all.<br />None at all.</p><p>I taught myself so well.</p><p>It's all I can do now.<br />\u00a0</p> "}, {"title": "Poem for My Son in the Car", "view_node": "/poem/poem-my-son-car", "field_author": "<a href=\"/poet/jennifer-k-sweeney\" hreflang=\"und\">Jennifer K. Sweeney</a>", "field_date_published": "2017", "body": " <p>The wipers sweep two overlapping hills<br />on the glass, we are quiet against the<br />squeaky metronome as we often are<br />before the concerns of the day well up.<br />Today: <em>Is it dark inside my body?</em><br />The wet cedar\u2019s dark of green-gone-black<br />of damp earth mending itself,<br />a pewter bell rung into night\u2019s collected<br />sigh, choral and sleep-sunk.<br />Dark as the oyster\u2019s clasp<br />in its small blind pocket<br />and the word <em>pocket</em> a tucked notion<br />set aside in-case-of.<br />Inside there are vestibules, clapboards<br />trapdoors, baskets,<br />there is cargo,<br />there is the self carrying the self<br />sprint, trodden\u2014<br />nowhere does it not\u2014<br />and mournful as a spine bowing to wood<br />you carry your actions; inside<br />is cave and concern,<br />everything purposeful<br />heartwood, clockwork, crank and tender<br />iron in the mountain belly,<br />all the hidden things breathing.<br />Outside of and woven into, you are<br />the knowledge you can\u2019t touch<br />the desire you can\u2019t locate,<br />unnameable questions unnameable answers,<br />source and tributary<br />and the rivers that hold you<br />beneath. Your darkness<br />lives in that potential,<br />snowblind<br />aurora<br />pulse<br />shore.</p> "}, {"title": "Age of Beauty", "view_node": "/poem/age-beauty", "field_author": "<a href=\"/poet/emilia-phillips\" hreflang=\"en\">Emilia Phillips</a>", "field_date_published": "2017", "body": " <p>This is not an age of beauty,<br />I say to the Rite-Aid as I pass a knee-high plastic witch<br />whose speaker-box laugh is tripped by my calf<br />breaking the invisible line cast by her motion<br />sensor. My heart believes it is a muscle</p><p>of love, so how do I tell it it is a muscle of blood?</p><p>This morning, I found myself<br />awake before my alarm &amp; felt I\u2019d been betrayed</p><p>by someone. My sleep is as thin as a paper bill<br />backed by black bars of coal that iridesce<br />indigo in the federal reserve of</p><p>dreams. Look, I said to the horse\u2019s<br />head I saw severed &amp; then set on the ground, the soft<br />tissue of the cheek &amp; crown cleaved with a necropsy<br />knife until the skull was visible. You look more<br />horse than the horses</p><p>with names &amp; quilted coats in the pasture, grazing unbothered</p><p>by your body in pieces, steaming</p><p>against the drizzle. You once had a name<br />that filled your ears like amphitheaters,<br />that caused an electrical</p><p>spark to bead to your brain. My grief was born<br />in the wrong time, my grief an old soul, grief re-<br />incarnate. My grief, once a black-winged</p><p>beetle. How I find every excuse to indulge it, like a child<br />given quarters. In the restaurant, eating alone,</p><p>instead of interrogating my own<br />solitude, I\u2019m nearly undone by the old<br />woman on her own. The window so filthy,</p><p>it won\u2019t even reflect her face, which must not be the same<br />face she sees when she dreams</p><p>of herself in the third person.</p> "}, {"title": "Biking to the George Washington Bridge ", "view_node": "/poem/biking-george-washington-bridge", "field_author": "<a href=\"/poet/alicia-ostriker\" hreflang=\"und\">Alicia Ostriker</a>", "field_date_published": "2017", "body": " <p>It sweeps away depression and today<br />you can\u2019t tell the heaped pin-white<br />cherry blossoms abloom along<br />Riverside Drive from the clouds above<br />it is all kerfluffle, all moisture and light and so<br />into the wind I go<br />past Riverside Church and the Fairway<br />Market, past the water treatment plant<br />and in the dusky triangle below<br />a hulk of rusted railroad bed<br />a single hooded boy is shooting hoops</p><p>It\u2019s ten minutes from here to the giant bridge<br />men\u2019s engineering astride the sky heroic<br />an animal roar of motors on it<br />the little red lighthouse at its foot<br />big brother befriending little brother<br />in the famous children\u2019s story<br />eight minutes back with the wind behind me<br />passing the boy there alone shooting<br />his hoops in the gloom</p><p>A neighborhood committee<br />must have said that space<br />should be used for something recreational<br />a mayor\u2019s aide must have said okay<br />so they put up basketball and handball courts<br />and if it were a painting or a photo<br />you would call it American loneliness</p> "}, {"title": "For I Will Consider the Lone Crow at Angels Landing", "view_node": "/poem/i-will-consider-lone-crow-angels-landing", "field_author": "<a href=\"/poet/lance-larsen\" hreflang=\"en\">Lance Larsen</a>", "field_date_published": "2016", "body": " <p>For she rides updrafts with scalloped hands, interrogating air.<br />For in the kingdom of lift, she has few peers.\u00a0<br />For she bullies the hawk and drops stones on a snapping fox.<br />For her trickster ways coalesce into spirals.<br />For I pine for a Muse so wild with wind.<br />For she counts murderous drop-offs as nothing.<br />For my quicksilver thoughts cling to her, like spume on a wave.<br />For she disdains the safety chains we grasped to climb here\u2014<br />\u00a0\u00a0\u00a0\u00a0\u00a0\u00a0\u00a0\u00a0\u00a0\u00a0\u00a0 but not the shimmer of my Yankees cap.<br />For her blackness kindles blue fire.\u00a0<br />For if only she would mistake my arm for a branch.<br />For I can freeze her feathers on film but not their glow.<br />For she shrugs off myths like a singer shedding stale arias.<br />For she offers no elegy to those who slip\u2014not even a caw.<br />For her errands of air map the sky with longing.<br />For she hops towards me now, part beggar, part Baryshnikov.<br />For she puts up with berries and nuts but prefers pastrami.<br />For she snaps the heads off locusts.<br />For she fills her craw with gravel and chews the world twice.<br />For if only I could relax into knowing.<br />For she rubs herself with crushed ants to keep off parasites.<br />For she flies straight into the oculus of <em>What if?</em><br />For I will call her Mischief Girl, or Odin.<br />For she jeers at prayer and says <em>I am my own Zion</em>.<br />For darkness is no more to her than dust on her wings.\u00a0\u00a0</p><p>\u00a0\u00a0\u00a0\u00a0\u00a0\u00a0\u00a0\u00a0\u00a0\u00a0\u00a0\u00a0\u00a0\u00a0\u00a0\u00a0\u00a0\u00a0\u00a0\u00a0\u00a0\u00a0\u00a0\u00a0\u00a0\u00a0\u00a0\u00a0\u00a0\u00a0\u00a0\u00a0\u00a0\u00a0\u00a0\u00a0\u00a0\u00a0\u00a0\u00a0\u00a0\u00a0\u00a0\u00a0\u00a0\u00a0\u00a0\u00a0\u00a0\u00a0\u00a0\u00a0\u00a0\u00a0\u00a0\u00a0\u00a0\u00a0\u00a0 (After Christopher Smart)\u00a0\u00a0\u00a0</p> "}, {"title": "Earthy Anecdotes ", "view_node": "/poem/earthy-anecdotes-0", "field_author": "<a href=\"/poet/wallace-stevens\" hreflang=\"und\">Wallace Stevens</a>", "field_date_published": "2016", "body": " <p>Every time the bucks went clattering,<br />Over Oklahoma<br />A firecat bristled in the way.</p><p>Wherever they went,<br />They went clattering.<br />Until they swerved,<br />In a swift, circular line,<br />To the right,<br />Because of the firecat.</p><p>Or until they swerved,<br />In a swift, circular line,<br />To the left,<br />Because of the firecat.</p><p>The bucks clattered.<br />The firecat went leaping,<br />To the right, to the left,<br />And<br />Bristled in the way.</p><p>Later, the firecat closed his bright eyes<br />And slept.</p> "}, {"title": "Read Genesis", "view_node": "/poem/read-genesis", "field_author": "<a href=\"/poet/gerald-stern\" hreflang=\"und\">Gerald Stern</a>", "field_date_published": "2016", "body": " <p>I was betrayed by Bohemia early<br />in my life and left a run-down hotel<br />with my eye swollen shut by an insect bite<br />but got my revenge in France and Italy<br />and wasn\u2019t bitten once in those two countries.</p><p>I swore off free meals and book-stealing<br />both there and elsewhere and<br />if I got something for nothing<br />it wasn\u2019t by schnorring<br />so have a heart, pedagogus.</p><p>Think of Baudelaire and his clouds<br />or Michelangelo on his step ladder<br />putting a little spit in for tone<br />and a gob or two for substance<br />just to please the flunkies down there</p><p>even as they kicked the wooden legs<br />their tongues out in excitement<br />though I have to interrupt to say<br />God did it with a voice not a finger,<br />n\u2019est-ce pas?<br />\u00a0</p> "}, {"title": "San Sebastian", "view_node": "/poem/san-sebastian", "field_author": "<a href=\"/poet/spencer-reece\" hreflang=\"und\">Spencer Reece</a>", "field_date_published": "2016", "body": " <p>\u00a0 \u00a0 \u00a0 \u00a0 \u00a0 \u00a0 \u00a0 Still singing in my cell<br />of succulents, staked by a man<br />who fled. Nothing personal.<br />How often I get that wrong\u2026<br />I move on\u2014</p><p>\u00a0\u00a0\u00a0\u00a0\u00a0\u00a0\u00a0\u00a0\u00a0\u00a0\u00a0\u00a0\u00a0 some man<br />is always fleeing, and that<br />is never personal. The longer<br />I go the fewer notes I need.\u00a0<br />My torso a sort of hotel.<br />Martyrdom bores me.<br />My hook-ups a new flamenco\u2014</p><p>\u00a0\u00a0\u00a0\u00a0\u00a0\u00a0\u00a0\u00a0\u00a0\u00a0\u00a0\u00a0\u00a0 will I be saved?<br />The peninsula tilts its goblets.<br />I am alone.\u00a0\u00a0<br />Wasn\u2019t I always?<br />Swifts fleck the dry grass.\u00a0<br />By my absence you\u2019ll know me.</p> "}, {"title": "Jack-in-the-Pulpit", "view_node": "/poem/jack-pulpit", "field_author": "<a href=\"/poet/kimiko-hahn\" hreflang=\"und\">Kimiko Hahn</a>", "field_date_published": "2016", "body": " <p><em>after William Carlos Williams\u2019s \u201cQueen-Anne\u2019s-Lace\u201d</em></p><p>Remote purple lays claim to stem,<br />beside routine stripes of green and brown.<br />Dark as a patch of shade<br />in the marsh across the path<br />that the neighborhood kids and I,<br />were forbidden to pass. It is<br />that hue that overtakes,\u00a0<br />the marsh that sucks in boots<br />and offers up skunk cabbage and cattails.<br />Nests here and overhead.\u00a0 Who named this plant\u2014<br />also called bog onion, brown dragon, Indian turnip, wake robin,<br /><em>Arisaema triphyllum\u2014</em><br />and who told me I cannot name. But<br />his purple\u2014all shadow, all remote and not-remote,<br />all question marks,<br />craving. Yes?<br />This herbaceous perennial, growing from corm<br />vertical and swollen as it is underground.<br />Even in late summer, it is not nothing, William<br />(or Jack),<br />turning from purple to red before his scattering.<br />\u00a0</p> "}, {"title": "Music from Childhood", "view_node": "/poem/music-childhood", "field_author": "<a href=\"/poet/john-yau\" hreflang=\"und\">John Yau</a>", "field_date_published": "2016", "body": " <p>You grow up hearing two languages. Neither fits your fits<br /><span class=\"long-line\">Your mother informs you \u201cmoon\u201d means \u201cwindow to another world.\u201d</span></p><p><span class=\"long-line\">You begin to hear words mourn the sounds buried inside their mouths</span><br />A row of yellow windows and a painting of them</p><p><span class=\"long-line\">Your mother informs you \u201cmoon\u201d means \u201cwindow to another world.\u201d</span><br />You decide it is better to step back and sit in the shadows</p><p>A row of yellow windows and a painting of them<br />Someone said you can see a blue pagoda or a red rocket ship</p><p>You decide it is better to step back and sit in the shadows<br />Is it because you saw a black asteroid fly past your window</p><p>Someone said you can see a blue pagoda or a red rocket ship<br />I tried to follow in your footsteps, but they turned to water</p><p>Is it because I saw a black asteroid fly past my window<br /><span class=\"long-line\">The air hums\u2014a circus performer riding a bicycle towards the ceiling</span></p><p>I tried to follow in your footsteps, but they turned to water<br />The town has started sinking back into its commercial</p><p><span class=\"long-line\">The air hums\u2014a circus performer riding a bicycle towards the ceiling</span><br />You grow up hearing two languages. Neither fits your fits</p><p>The town has started sinking back into its commercial<br /><span class=\"long-line\">You begin to hear words mourn the sounds buried inside their mouths</span><br />\u00a0</p> "}, {"title": "I Am the Whole Defense", "view_node": "/poem/i-am-whole-defense", "field_author": "<a href=\"/poet/mai-der-vang\" hreflang=\"en\">Mai Der  Vang </a>", "field_date_published": "2016", "body": " <p><em>Mid-1700s, Southwestern China</em></p><p>Lightning is the creature who carries a knife.</p><p>Two months now,<br />The rains hold watch.</p><p>Statues bury in teak<br />Smeared with old egret\u2019s blood.</p><p>I feel the pulse of this inferno,<br />Tested by the hour to know</p><p>That even torches must not waver.</p><p>In the garrison, I teach boulders<br />To trickle from the cliff.</p><p>My fallen grow parchment from their hair,</p><p>Calligraphy descends<br />From their lips.</p><p>Infantry attack<br />But my musket knows.</p><p>They scale the sides<br />Yet I tear the rocks.</p><p>I am not wife, but my name is Widow.</p><p>Let them arrive\u00a0<br />To my ready door,<br />The earth I\u2019ve already dug.</p> "}, {"title": "My Father\u2019s Tie Rack", "view_node": "/poem/my-fathers-tie-rack", "field_author": "<a href=\"/poet/joan-larkin\" hreflang=\"und\">Joan Larkin</a>", "field_date_published": "2016", "body": " <p>Back of the door to his dark closet,<br />eye height, with clever steel<br />pegs I could flip both ways.<br />A row of pendulums. Of tongues.<br />Words, wordless. Witnesses<br />waiting to be sworn. The town secret.<br />A silk body, a man's plenty.<br />A wild ache, a knot. One painted<br />with gold mums, one with blood<br />leaves on mud. Vishnu's skin, twenty<br />shades of sky. White flag iris.<br />Slick sheen of a greenblack snake.<br />Which one went with him into the hole?<br />Somewhere else: his belts.</p> "}, {"title": "I Have Not Come Here to Compare Notes But to Sit Together in the Stillness at the Edge of This Wound", "view_node": "/poem/i-have-not-come-here-compare-notes-sit-together-stillness-edge-wound", "field_author": "<a href=\"/poet/david-kirby\" hreflang=\"und\">David Kirby</a>", "field_date_published": "2016", "body": " <p><span class=\"long-line\">Asked if it isn\u2019t weird to be at an awards ceremony with Gregory Peck,</span><br /><span class=\"long-line\">Dylan says, \u201cWell, listen, everything\u2019s weird. You tell me something</span></p><p><span class=\"long-line\">that\u2019s not weird.\u201d He might as well have said \u201cbig,\u201d that his songs are</span><br /><span class=\"long-line\">a witness to magnitude, that your poems are. And why shouldn\u2019t they be?</span></p><p><span class=\"long-line\">Look at the epic of your life, at the people in it, all heroic. And to think</span><br /><span class=\"long-line\">it began with an accident. Somebody looked up at the night sky and saw a star,</span></p><p><span class=\"long-line\">somebody in Cracow or Belgrade, maybe, or the city where you live now.</span><br /><span class=\"long-line\">Carbon, nitrogen . . . there was an explosion, and now you have to pay attention</span></p><p><span class=\"long-line\">to everything. At the party, everyone was talking about the crappy TV series</span><br /><span class=\"long-line\">that\u2019s so popular, and you didn\u2019t say you wanted better, wanted more.</span></p><p><span class=\"long-line\">That same night, you met the man you\u2019d love so hard it made your teeth hurt.</span><br />He said, \u201cHey, baby,\u201d and you snapped, \u201cI\u2019m not your baby.\u201d</p><p><span class=\"long-line\">I have nothing to say to you, really. I just want to see what I\u2019m looking at.</span><br /><span class=\"long-line\">I want so much not to listen to you after all this time but to hear.</span></p> "}], "pager": {"current_page": 319, "total_items": "13248", "total_pages": 663, "items_per_page": 20}}