{"rows": [{"title": "The Strange Hours Travelers Keep", "view_node": "/poem/strange-hours-travelers-keep", "field_author": "<a href=\"/poet/august-kleinzahler\" hreflang=\"und\">August Kleinzahler</a>", "field_date_published": "2003", "body": " <pre>\nThe markets never rest\nAlways they are somewhere in agitation\nPork bellies, titanium, winter wheat\nElectromagnetic ether peppered with photons\nTreasure spewing from Unisys A-15 J mainframes\nAcross the firmament\nSoundlessly among the thunderheads and passenger jets\nAs they make their nightlong journeys\nAcross the oceans and steppes\n\nNebulae, incandescent frog spawn of information\nTrembling in the claw of Scorpio\nNot an instant, then shooting away\nLike an enormous cloud of starlings\n\nGarbage scows move slowly down the estuary\nThe lights of the airport pulse in morning darkness\nFood trucks, propane, tortured hearts\nThe reticent epistemologist parks\nGets out, checks the curb, reparks\nThunder of jets\nPeristalsis of great capitals\n\nHow pretty in her tartan scarf\nHer ruminative frown\nAmbiguity and Reason\nLocked in a slow, ferocious tango\nOf <i>if not, why not</i></pre>\n "}, {"title": "Landing Under Water, I See Roots", "view_node": "/poem/landing-under-water-i-see-roots", "field_author": "<a href=\"/poet/annie-finch\" hreflang=\"und\">Annie Finch</a>", "field_date_published": "2003", "body": " <pre>\nAll the things we hide in water\nhoping we won't see them go\u2014\n(forests growing under water\npress against the ones we know)\u2014\n\nand they might have gone on growing\nand they might now breathe above\neverything I speak of sowing\n(everything I try to love).</pre>\n "}, {"title": "Smoke", "view_node": "/poem/smoke-0", "field_author": "<a href=\"/poet/henry-david-thoreau\" hreflang=\"und\">Henry David Thoreau</a>", "field_date_published": "1843", "body": " <pre>\nLight-winged Smoke! Icarian bird,\t\nMelting thy pinions in thy upward flight;\t\nLark without song, and messenger of dawn,\t\nCircling above the hamlets as thy nest;\t\nOr else, departing dream, and shadowy form\nOf midnight vision, gathering up thy skirts;\t\nBy night star-veiling, and by day\t\nDarkening the light and blotting out the sun;\t\nGo thou, my incense, upward from this hearth,\t\nAnd ask the gods to pardon this clear flame.</pre>\n "}, {"title": "Inspiration", "view_node": "/poem/inspiration", "field_author": "<a href=\"/poet/henry-david-thoreau\" hreflang=\"und\">Henry David Thoreau</a>", "field_date_published": "1895", "body": " <pre>\nWhate'er we leave to God, God does, \nAnd blesses us; \nThe work we choose should be our own, \nGod leaves alone.\n \nIf with light head erect I sing, \nThough all the Muses lend their force, \nFrom my poor love of anything, \nThe verse is weak and shallow as its source. \n\nBut if with bended neck I grope \nListening behind me for my wit, \nWith faith superior to hope, \nMore anxious to keep back than forward it; \n\nMaking my soul accomplice there \nUnto the flame my heart hath lit, \nThen will the verse forever wear\u2014\nTime cannot bend the line which God hath writ. \n\nAlways the general show of things \nFloats in review before my mind, \nAnd such true love and reverence brings, \nThat sometimes I forget that I am blind. \n\nBut now there comes unsought, unseen, \nSome clear divine electuary, \nAnd I, who had but sensual been, \nGrow sensible, and as God is, am wary. \n\nI hearing get, who had but ears, \nAnd sight, who had but eyes before, \nI moments live, who lived but years, \nAnd truth discern, who knew but learning's lore. \n\nI hear beyond the range of sound, \nI see beyond the range of sight, \nNew earths and skies and seas around, \nAnd in my day the sun doth pale his light. \n\nA clear and ancient harmony \nPierces my soul through all its din, \nAs through its utmost melody\u2014\nFarther behind than they, farther within. \n\nMore swift its bolt than lightning is, \nIts voice than thunder is more loud, \nIt doth expand my privacies \nTo all, and leave me single in the crowd. \n\nIt speaks with such authority, \nWith so serene and lofty tone, \nThat idle Time runs gadding by, \nAnd leaves me with Eternity alone. \n\nNow chiefly is my natal hour, \nAnd only now my prime of life; \nOf manhood's strength it is the flower, \n'Tis peace's end and war's beginning strife. \n\nIt comes in summer's broadest noon, \nBy a grey wall or some chance place, \nUnseasoning Time, insulting June, \nAnd vexing day with its presuming face. \n\nSuch fragrance round my couch it makes, \nMore rich than are Arabian drugs, \nThat my soul scents its life and wakes \nThe body up beneath its perfumed rugs. \n\nSuch is the Muse, the heavenly maid, \nThe star that guides our mortal course, \nWhich shows where life's true kernel's laid, \nIts wheat's fine flour, and its undying force. \n\nShe with one breath attunes the spheres, \nAnd also my poor human heart, \nWith one impulse propels the years \nAround, and gives my throbbing pulse its start. \n\nI will not doubt for evermore, \nNor falter from a steadfast faith, \nFor thought the system be turned o'er, \nGod takes not back the word which once He saith. \n\nI will not doubt the love untold \nWhich not my worth nor want has bought, \nWhich wooed me young, and woos me old, \nAnd to this evening hath me brought. \n\nMy memory I'll educate \nTo know the one historic truth, \nRemembering to the latest date \nThe only true and sole immortal youth. \n\nBe but thy inspiration given, \nNo matter through what danger sought, \nI'll fathom hell or climb to heaven, \nAnd yet esteem that cheap which love has bought.\n\n</pre>\n<hr align=\"left\" width=\"50\" /><p>Fame cannot tempt the bard Who's famous with his God, Nor laurel him reward Who has his Maker's nod.</p> "}, {"title": "Great God, I Ask Thee for No Meaner Pelf", "view_node": "/poem/great-god-i-ask-thee-no-meaner-pelf", "field_author": "<a href=\"/poet/henry-david-thoreau\" hreflang=\"und\">Henry David Thoreau</a>", "field_date_published": "1842", "body": " <pre>\nGreat God, I ask for no meaner pelf\nThan that I may not disappoint myself,\nThat in my action I may soar as high\nAs I can now discern with this clear eye.\n\nAnd next in value, which thy kindness lends, \nThat I may greatly disappoint my friends,\nHowe'er they think or hope that it may be,\nThey may not dream how thou'st distinguished me.\n\nThat my weak hand may equal my firm faith\nAnd my life practice what my tongue saith\nThat my low conduct may not show\nNor my relenting lines\nThat I thy purpose did not know\nOr overrated thy designs. </pre>\n "}, {"title": "The Battle Hymn of the Republic", "view_node": "/poem/battle-hymn-republic", "field_author": "<a href=\"/poet/julia-ward-howe\" hreflang=\"und\">Julia Ward Howe</a>", "field_date_published": "1862", "body": "<p><span class=\"long-line\">\u2018Mine eyes have seen the glory of the coming of the Lord: </span><br /><span class=\"long-line\">\u2060He is trampling out the vintage where the grapes of wrath are stored; </span><br /><span class=\"long-line\">\u2060He hath loosed the fateful lightning of his terrible swift sword: </span><br /><span class=\"long-line\">\u2060\u00a0\u00a0\u00a0\u00a0\u00a0\u00a0\u00a0\u00a0\u00a0\u00a0\u00a0\u00a0His truth is marching on. </span></p>\n\n<p><span class=\"long-line\">\u2018I have seen Him in the watch-fires of a hundred circling camps;</span><br /><span class=\"long-line\">\u2060They have builded Him an altar in the evening dews and damps; </span><br /><span class=\"long-line\">\u2060I can read his righteous sentence by the dim and flaring lamps: </span><br /><span class=\"long-line\">\u2060\u00a0\u00a0\u00a0\u00a0\u00a0\u00a0\u00a0\u00a0\u00a0\u00a0\u00a0\u00a0His day is marching on. </span></p>\n\n<p><span class=\"long-line\">\u2018I have read a fiery gospel, writ in burnished rows of steel:</span><br /><span class=\"long-line\">\u2060\u201cAs ye deal with my contemners, so with you my grace shall deal;</span><br /><span class=\"long-line\">\u2060Let the Hero, born of woman, crush the serpent with his heel,</span><br /><span class=\"long-line\">\u2060\u00a0\u00a0\u00a0\u00a0\u00a0\u00a0\u00a0\u00a0\u00a0\u00a0\u00a0\u00a0Since God is marching on.\u201d</span></p>\n\n<p><span class=\"long-line\">\u2018He has sounded forth the trumpet that shall never call retreat;</span><br /><span class=\"long-line\">\u2060He is sifting out the hearts of men before his judgment-seat: </span><br /><span class=\"long-line\">\u2060O, be swift, my soul, to answer Him! be jubilant, my feet!</span><br /><span class=\"long-line\">\u2060\u00a0\u00a0\u00a0\u00a0\u00a0\u00a0\u00a0\u00a0\u00a0\u00a0\u00a0\u00a0Our God is marching on. </span></p>\n\n<p><span class=\"long-line\">\u2018In the beauty of the lilies Christ was born across the sea, </span><br /><span class=\"long-line\">\u2060With a glory in His bosom that transfigures you and me: </span><br /><span class=\"long-line\">\u2060As He died to make men holy, let us die to make men free, </span><br /><span class=\"long-line\">\u2060\u00a0\u00a0\u00a0\u00a0\u00a0\u00a0\u00a0\u00a0\u00a0\u00a0\u00a0\u00a0While God is marching on.</span></p>\n"}, {"title": "To My Mother", "view_node": "/poem/my-mother", "field_author": "<a href=\"/poet/christina-rossetti\" hreflang=\"und\">Christina Rossetti</a>", "field_date_published": "1842", "body": "<p><span class=\"long-line\">To-day's your natal day;</span><br /><span class=\"long-line\">\u00a0\u00a0\u00a0Sweet flowers I bring:</span><br /><span class=\"long-line\">Mother, accept, I pray</span><br /><span class=\"long-line\">\u00a0\u00a0\u00a0My offering.</span></p>\n\n<p><span class=\"long-line\">And may you happy live,</span><br /><span class=\"long-line\">\u00a0\u00a0\u00a0And long us bless;</span><br /><span class=\"long-line\">Receiving as you give</span><br /><span class=\"long-line\">\u00a0\u00a0\u00a0Great happiness.</span></p>\n"}, {"title": "To My Mother", "view_node": "/poem/my-mother-0", "field_author": "<a href=\"/poet/robert-louis-stevenson\" hreflang=\"und\">Robert Louis Stevenson</a>", "field_date_published": "1885", "body": " <pre>\nYou too, my mother, read my rhymes\nFor love of unforgotten times,\nAnd you may chance to hear once more\nThe little feet along the floor.</pre>\n "}, {"title": "Mother o&#039; Mine", "view_node": "/poem/mother-o-mine", "field_author": "<a href=\"/poet/rudyard-kipling\" hreflang=\"und\">Rudyard Kipling</a>", "field_date_published": "1892", "body": "<p><span class=\"long-line\">If I were hanged on the highest hill, </span><br /><span class=\"long-line\"><em>Mother o' mine, O mother o' mine!</em></span><br /><span class=\"long-line\">I know whose love would follow me still, </span><br /><span class=\"long-line\"><em>Mother o' mine, O mother o' mine!</em></span></p>\n\n<p><span class=\"long-line\">If I were drowned in the deepest sea, </span><br /><span class=\"long-line\"><em>Mother o' mine, O mother o' mine!</em></span><br /><span class=\"long-line\">I know whose tears would come down to me, </span><br /><span class=\"long-line\"><em>Mother o' mine, O mother o' mine!</em></span></p>\n\n<p><span class=\"long-line\">If I were damned of body and soul, </span><br /><span class=\"long-line\">I know whose prayers would make me whole, </span><br /><span class=\"long-line\"><em>Mother o' mine, O mother o' mine!</em></span></p>\n"}, {"title": "To My Mother", "view_node": "/poem/my-mother-1", "field_author": "<a href=\"/poet/edgar-allan-poe\" hreflang=\"und\">Edgar Allan Poe</a>", "field_date_published": "1849", "body": " <pre>\nBecause I feel that, in the Heavens above,\nThe angels, whispering to one another,\nCan find, among their burning terms of love,\nNone so devotional as that of \"Mother,\"\nTherefore by that dear name I long have called you\u2014\nYou who are more than mother unto me,\nAnd fill my heart of hearts, where Death installed you\nIn setting my Virginia's spirit free.\nMy mother\u2014my own mother, who died early,\nWas but the mother of myself; but you\nAre mother to the one I loved so dearly,\nAnd thus are dearer than the mother I knew\nBy that infinity with which my wife\nWas dearer to my soul than its soul-life.</pre>\n "}, {"title": "[Sonnets are full of love, and this my tome]", "view_node": "/poem/sonnets-are-full-love-and-my-tome", "field_author": "<a href=\"/poet/christina-rossetti\" hreflang=\"und\">Christina Rossetti</a>", "field_date_published": "1881", "body": " <pre>Sonnets are full of love, and this my tome\n      Has many sonnets: so here now shall be\n   One sonnet more, a love sonnet, from me\nTo her whose heart is my heart\u2019s quiet home,\n   To my first Love, my Mother, on whose knee\nI learnt love-lore that is not troublesome;\n   Whose service is my special dignity,\nAnd she my loadstar while I go and come.\nAnd so because you love me, and because\n   I love you, Mother, I have woven a wreath\n      Of rhymes wherewith to crown your honoured name:\n      In you not fourscore years can dim the flame\nOf love, whose blessed glow transcends the laws\n   Of time and change and mortal life and death.\n</pre>\n "}, {"title": "Round", "view_node": "/poem/round", "field_author": "<a href=\"/poet/tom-sleigh\" hreflang=\"und\">Tom Sleigh</a>", "field_date_published": "2007", "body": " <pre>\nSomebody's alone in his head, somebody's a kid, \nsomebody's arm's getting twisted\u2014a sandwich flies apart, \n\ntomatoes torn, white bread flung, then smeared with shit \nand handed back to eat\u2014<i>I dog dare you, I double dog dare you...</i>\n\nSomebody's watching little shit friends watch little shit him \nclimb to the crown of a broken-down cherry tree \n\nand throw cherries at him: now somebody's pushing \nsomebody into a sprinkler, everyone's laughing, everyone's shouting\n\nin that frenzy when a buddy's gonna get hurt, \ngonna get mad, gonna swing and swing from the top of the sky\u2014\n\nsomebody's falling through trees shedding leaves, \nOctober light you can see through, \n\nsomebody can't read the menu, can't find his glasses, \ncan't remember most mornings his best friends' names\u2014\n\nsomebody's racing just ahead of what it means to be \"it,\"\nporch lights coming on, trees jumping out at him, \n\nand that nameless smell, smell of the highschool lunchroom \nmingled with formaldehyde when somebody does dissections, \n\nfrog legs strangely human under the fine-edged scalpel, \nkeeps making somebody waken, not certain anymore \n\nof what window, which door, voices fading to a spectral \nwhine in somebody's ears, eyes calm, clear, the starpoint steeple \n\npiercing somebody's brain moving alone through mist, darkness, rain,\nsomebody's eye's, somebody's mouth cooling, hardening to bronze. </pre>\n "}, {"title": "Day Job and Night Job", "view_node": "/poem/day-job-and-night-job", "field_author": "<a href=\"/poet/andrew-hudgins\" hreflang=\"und\">Andrew Hudgins</a>", "field_date_published": "2003", "body": " <pre>\nAfter my night job, I sat in class\nand ate, every thirteen minutes,\nan orange peanut\u2014butter cracker.\nBright grease adorned my notes.\n\nAt noon I rushed to my day job\nand pushed a broom enough\nto keep the boss calm if not happy.\nIn a hiding place, walled off\n\nby bolts of calico and serge,\nI read my masters and copied\nDonne, Marlowe, Dickinson, and Frost,\nscrawling the words I envied,\n\nso my hand could move as theirs had moved\nand learn outside of logic\nhow the masters wrote.  But why?  Words\nwould never heal the sick,\n\nfeed the hungry, clothe the naked,\nblah, blah, blah.\nWhy couldn't I be practical,\nDad asked, and study law\u2014\n\nor take a single business class?\nI stewed on what and why\ntill driving into work one day,\na burger on my thigh\n\nand a sweating Coke between my knees,\nI yelled, \"Because I want to!\"\u2014\npained\u2014thrilled!\u2014as I looked down\nfrom somewhere in the blue\n\nand saw beneath my chastened gaze\nanother slack romantic\nchasing his heart like an unleashed dog\nchasing a pickup truck.\n\nAnd then I spilled my Coke.  In sugar\nI sat and fought a smirk.\nI could see my new life clear before me.\nlt looked the same.  Like work.</pre>\n "}, {"title": "Heat", "view_node": "/poem/heat-0", "field_author": "<a href=\"/poet/denis-johnson\" hreflang=\"und\">Denis Johnson</a>", "field_date_published": "1994", "body": " <pre>\nHere in the electric dusk your naked lover\ntips the glass high and the ice cubes fall against her teeth.\nIt's beautiful Susan, her hair sticky with gin,\nOur Lady of Wet Glass-Rings on the Album Cover,\nstreaming with hatred in the heat\nas the record falls and the snake-band chords begin\nto break like terrible news from the Rolling Stones,\nand such a last light\u2014full of spheres and zones.\nAugust,\n         you're just an erotic hallucination,\njust so much feverishly produced kazoo music,\nare you serious?\u2014this large oven impersonating night,\nthis exhaustion mutilated to resemble passion,\nthe bogus moon of tenderness and magic\nyou hold out to each prisoner like a cup of light?</pre>\n "}, {"title": "Surreptitious Kissing", "view_node": "/poem/surreptitious-kissing", "field_author": "<a href=\"/poet/denis-johnson\" hreflang=\"und\">Denis Johnson</a>", "field_date_published": "1994", "body": " <pre>\nI want to say that\nforgiveness keeps on\n\ndividing, that hope\ngives issue to hope,\n\nand more, but of course I\nam saying what is\n\nsaid when in this dark\nhallway one encounters\n\nyou, and paws and\nassaults you\u2014love\n\naffairs, fast lies\u2014and you\nsay it back and we\n\nblunder deeper, as would\nany pair of loosed\n\nmarionettes, any couple\nof cadavers cut lately\n\nfrom the scaffold,\nin the secluded hallways\n\nof whatever is\nholding us up now.</pre>\n "}, {"title": "The White Fires of Venus", "view_node": "/poem/white-fires-venus", "field_author": "<a href=\"/poet/denis-johnson\" hreflang=\"und\">Denis Johnson</a>", "field_date_published": "1994", "body": " <pre>\nWe mourn this senseless planet of regret,\ndroughts, rust, rain, cadavers\nthat can't tell us, but I promise\nyou one day the white fires\nof Venus shall rage: the dead,\nfeeling that power, shall be lifted, and each\nof us will have his resurrected one to tell him,\n\"Greetings. You will recover\nor die. The simple cure\nfor everything is to destroy\nall the stethoscopes that will transmit\nsilence occasionally. The remedy for loneliness\nis in learning to admit\nsolitude as one admits\nthe bayonet: gracefully,\nnow that already\nit pierces the heart.\nLiving one: you move among many\ndancers and don't know which\nyou are the shadow of;\nyou want to kiss your own face in the mirror\nbut do not approach,\nknowing you must not touch one\nlike that. Living\none, while Venus flares\nO set the cereal afire,\nO the refrigerator harboring things\nthat live on into death unchanged.\"\n\nThey know all about us on Andromeda,\nthey peek at us, they see us\nin this world illumined and pasteled\nphonily like a bus station,\nthey are with us when the streets fall down fraught\nwith laundromats and each of us\ncloses himself in his small\nSan Francisco without recourse.\nThey see you with your face of fingerprints\ncarrying your instructions in gloved hands\ntrying to touch things, and know you\nfor one despairing, trying to touch the curtains,\ntrying to get your reflection mired in alarm tape\npast the window of this then that dark\nclosed business establishment.\nThe Andromedans hear your voice like distant amusement park music\nconverged on by ambulance sirens\nand they understand everything.\nThey're on your side. They forgive you.\n\nI want to turn for a moment to those my heart loves,\nwho are as diamonds to the Andromedans,\nwho shimmer for them, lovely and useless, like diamonds:\nnamely, those who take their meals at soda fountains,\ntheir expressions lodged among the drugs\nand sunglasses, each gazing down too long\ninto the coffee as though from a ruined balcony.\nO Andromedans they don't know what to do\nwith themselves and so they sit there\nuntil they go home where they lie down\nuntil they get up, and you beyond the light years know\nthat if sleeping is dying, then waking\nis birth, and a life\nis many lives. I love them because they know how\nto manipulate change\nin the pockets musically, these whose faces the seasons\nnever give a kiss, these\nwho are always courteous to the faces\nof presumptions, the presuming streets,\nthe hotels, the presumption of rain in the streets.\nI'm telling you it's cold inside the body that is not the body,\nlonesome behind the face\nthat is certainly not the face\nof the person one meant to become.</pre>\n "}, {"title": "Pilgrimage", "view_node": "/poem/pilgrimage", "field_author": "<a href=\"/poet/natasha-trethewey\" hreflang=\"und\">Natasha Trethewey</a>", "field_date_published": "2006", "body": " <pre>\n<i>Vicksburg, Mississippi</i>\n\n\nHere, the Mississippi carved\n            its mud-dark path, a graveyard\n\nfor skeletons of sunken riverboats.\n            Here, the river changed its course,\n\nturning away from the city\n            as one turns, forgetting, from the past\u2014\n\nthe abandoned bluffs, land sloping up\n            above the river's bend\u2014where now\n\nthe Yazoo fills the Mississippi's empty bed.\n            Here, the dead stand up in stone, white\n\nmarble, on Confederate Avenue. I stand\n            on ground once hollowed by a web of caves;\n\nthey must have seemed like catacombs,\n            in 1863, to the woman sitting in her parlor,\n\ncandlelit, underground. I can see her\n            listening to shells explode, writing herself\n\ninto history, asking <i>what is to become\n            of all the living things in this place?</i>\n\nThis whole city is a grave. Every spring\u2014\n            <i>Pilgrimage</i>\u2014the living come to mingle\n\nwith the dead, brush against their cold shoulders\n            in the long hallways, listen all night\n\nto their silence and indifference, relive\n            their dying on the green battlefield.\n\nAt the museum, we marvel at their clothes\u2014\n            preserved under glass\u2014so much smaller\n\nthan our own, as if those who wore them\n            were only children. We sleep in their beds,\n\nthe old mansions hunkered on the bluffs, draped\n            in flowers\u2014funereal\u2014a blur\n\nof petals against the river's gray.\n            The brochure in my room calls this\n\n<i>living history</i>. The brass plate on the door reads\n            <i>Prissy's Room</i>. A window frames\n\nthe river's crawl toward the Gulf. In my dream,\n            the ghost of history lies down beside me,\n\nrolls over, pins me beneath a heavy arm.</pre>\n "}, {"title": "Providence", "view_node": "/poem/providence", "field_author": "<a href=\"/poet/natasha-trethewey\" hreflang=\"und\">Natasha Trethewey</a>", "field_date_published": "2006", "body": " <pre>\nWhat's left is footage: the hours before\n       Camille, 1969\u2014hurricane\n              parties, palm trees leaning\nin the wind,\n       fronds blown back,\n\na woman's hair. Then after:\n       the vacant lots,\n       boats washed ashore, a swamp\n\nwhere graves had been. I recall\n\nhow we huddled all night in our small house,\n       moving between rooms,\n              emptying pots filled with rain.\n\nThe next day, our house\u2014\n       on its cinderblocks\u2014seemed to float\n\n       in the flooded yard: no foundation\n\nbeneath us, nothing I could see\n       tying us \tto the land.\n       In the water, our reflection\n                                trembled,\ndisappeared\nwhen I bent to touch it.</pre>\n "}, {"title": "Concordance [Our conversation is a wing]", "view_node": "/poem/concordance-our-conversation-wing", "field_author": "<a href=\"/poet/mei-mei-berssenbrugge\" hreflang=\"und\">Mei-mei Berssenbrugge</a>", "field_date_published": "2006", "body": " <p><span class=\"long-line\">Our conversation is a wing below my consciousness, like organization in blowing cloth, eddies of water, its order of light on film with no lens.</span></p><p><span class=\"long-line\">A higher resonance of story finds its way to higher organization: data swirl into group dreams.</span></p><p><span class=\"long-line\">Then story surfaces, as if recognized; flies buzzing in your room suddenly translate to \"Oh! You're crying!\"</span></p><p><span class=\"long-line\">So, here I hug the old person, who's not \"light\" until I embrace him.</span></p><p><span class=\"long-line\">My happiness at seeing him, my French suit constitute at the interface of wing and occasion.</span></p><p>Postulate whether the friendship is fulfilling.</p><p><span class=\"long-line\">Reduce by small increments your worry about the nature of compassion or the chill of emotional identification among girlfriends, your wish to be held in the consciousness of another, like a person waiting for you to wake.</span></p><p><span class=\"long-line\">Postulate the wave nature of wanting him to wait (white space) and the quanta of fractal conflict, point to point, along the outline of a petal, shore from a small boat.</span></p><p>Words spoken with force create particles.</p><p><span class=\"long-line\">He calls the location of accidents a morphic field; their recurrence is resonance, as of an archetype with the vibration of a seed.</span></p><p><i>My last thoughts were bitter and helpless.</i></p><p><span class=\"long-line\">Friends witnessing grief enter your consciousness, illuminating your form, so quiet comes.</span></p> "}, {"title": "Flood", "view_node": "/poem/flood-0", "field_author": "<a href=\"/poet/miyazawa-kenji\" hreflang=\"und\">Miyazawa Kenji</a>", "field_date_published": "2007", "body": " <pre>\nUnder the malicious glints of the clouds\nthe Kitakami, grown twice in width, perhaps ten times in volume,\nbears yellow waves.\nAll the iron barges are being tugged to the army camp.\nA motorboat sputters.\nThe water flowing back from downstream\nhas already turned into marshes\nthe paddies on the dried riverbed,\nhidden the bean fields,\nand devastated half the mulberries.\nGleaming like a snail's trail\nit has made an island of the grass patch under the pines\nand of the Chinese cabbage fields.\nWhen and how they got there I don\u2019t know\nbut on the warm frightening beach\nseveral dark figures stand, afloat.\nOne holds a fishnet.\nI recognize Hosuke in leggings.\nHas the water already\nrobbed us of our autumn food?\nI climb the roof to look.\nI hauled the manure bundles to a high place.\nAs for the plows and baskets\nI went in the water a few minutes ago, up to my waist,\nand managed to retrieve them. \n\n                                        (8/15/1927)</pre>\n "}], "pager": {"current_page": 553, "total_items": "13248", "total_pages": 663, "items_per_page": 20}}