{"rows": [{"title": "Order", "view_node": "/poem/order", "field_author": "<a href=\"/poet/dan-rosenberg\" hreflang=\"en\">Dan Rosenberg</a>", "field_date_published": "2021", "body": "<p><span class=\"long-line\">I hear you wake before I\u2019m up myself </span><br /><span class=\"long-line\">and snap to ready now before my eyes </span><br /><span class=\"long-line\">crack from their crud to face your face today. </span><br /><span class=\"long-line\">I hear you blunder toward my door. I hear </span></p>\n\n<p><span class=\"long-line\">you crash it wide. The loosened hinges shiver </span><br /><span class=\"long-line\">their frame, and now the house itself, awake </span><br /><span class=\"long-line\">to the world and you, complicit, pulls me hard </span><br /><span class=\"long-line\">as thunder from my sleep. You beat the echoes </span></p>\n\n<p><span class=\"long-line\">to me, blear-faced, awash with night sweat;\u00a0 </span><br /><span class=\"long-line\">you drag a bunny by the ears to bed </span><br /><span class=\"long-line\">and tumble graceless up the mattress, silent, </span><br /><span class=\"long-line\">a drowsy rocket wanting, wanting something </span></p>\n\n<p><span class=\"long-line\">I\u2019m not awake enough to understand </span><br /><span class=\"long-line\">but will be, soon, my son, and then we\u2019ll go </span><br /><span class=\"long-line\">to blaze the day, to stomp each puddle left </span><br /><span class=\"long-line\">by the rain you never notice as you pull </span></p>\n\n<p><span class=\"long-line\">me into the world, all leap and bowl, all grab </span><br /><span class=\"long-line\">and fall. Today I\u2019ll wake up better, call </span><br /><span class=\"long-line\">the distance order, order it to be </span><br /><span class=\"long-line\">a smaller thing. I\u2019ll stand to make it so. </span></p>\n"}, {"title": "Earth Evanescent ", "view_node": "/poem/earth-evanescent", "field_author": "<a href=\"/poet/maxwell-anderson\" hreflang=\"en\">Maxwell Anderson </a>", "field_date_published": "1925", "body": "<p><span class=\"long-line\">If other planets dark as earth</span><br /><span class=\"long-line\">About dim trembling stars </span><br /><span class=\"long-line\">Carry frail freight of death and birth, </span><br /><span class=\"long-line\">Wild love, and endless wars; </span><br /><br /><span class=\"long-line\">If from far, unseen motes in flight </span><br /><span class=\"long-line\">Life look down questioning </span><br /><span class=\"long-line\">This helpless passage through the night </span><br /><span class=\"long-line\">Is a less lonely thing: </span><br /><br /><span class=\"long-line\">But if unchained through empty space </span><br /><span class=\"long-line\">Drift only shell and fire</span><br /><span class=\"long-line\">What seeks the beauty of this face,</span><br /><span class=\"long-line\">What end has its desire? </span><br /><br /><span class=\"long-line\">A candle in a night of storms, </span><br /><span class=\"long-line\">Blown back and choked with rain, </span><br /><span class=\"long-line\">Holds longer than the mounting forms </span><br /><span class=\"long-line\">That ride time\u2019s hurricane. </span></p>\n"}, {"title": "Meditations at Tabexa Wakpa (Frog Creek)", "view_node": "/poem/meditations-tabexa-wakpa-frog-creek", "field_author": "<a href=\"/poet/m-l-smoker\" hreflang=\"und\">M. L. Smoker</a>", "field_date_published": "2009", "body": "<p><span class=\"long-line\">I.</span><br /><span class=\"long-line\">We have taken the long highway home again. The grass is tall,</span><br /><span class=\"long-line\">cobwebs and the husks of yellow jackets ornament the basement.</span></p>\n\n<p><span class=\"long-line\">While we were away our neighbor and friend who always invited us over</span><br /><span class=\"long-line\">for salmon and potatoes died in his sleep on the couch.</span></p>\n\n<p><span class=\"long-line\">Two healthy babies have been born, twins and nephews.</span><br /><span class=\"long-line\">Someone broke in through a window downstairs\u2013</span></p>\n\n<p><span class=\"long-line\">took three televisions, two star quilts, a Pendleton shawl, the chainsaw</span><br /><span class=\"long-line\">and one large bottle of laundry detergent.</span></p>\n\n<p><span class=\"long-line\">They smoked cigarettes on the couch and drank pop from the fridge.</span></p>\n\n<p><span class=\"long-line\">II.</span><br /><span class=\"long-line\">The way the horizon bends itself around\u00a0</span><br /><span class=\"long-line\">our lives here might make us think\u00a0</span><br /><span class=\"long-line\">we are exceptional. Walking the giant plain,\u00a0</span><br /><span class=\"long-line\">wind-drenched, we found the fox kits\u00a0</span><br /><span class=\"long-line\">we had been watching the previous summer.</span><br /><span class=\"long-line\">Small bodies at the bottom of the open well.\u00a0</span><br /><span class=\"long-line\">Probably at play, lost their bearings,\u00a0</span><br /><span class=\"long-line\">and still too young to know any better.</span></p>\n\n<p><span class=\"long-line\">III.<span><br /><span class=\"long-line\">Almost as ghosts, we come and go from this place, not at all\u00a0</span><br /><span class=\"long-line\">like the known spirits who reside here, some at tranquil rest, others\u2013\u00a0</span><br /><span class=\"long-line\">one man died who died here fifty years ago poisoned his young wife</span><br /><span class=\"long-line\">and raised their newborn son in a neglectful and angry home.</span><br /><span class=\"long-line\">The boy grew up neglected and angry and killed his father.</span></span></span></p>\n\n<p><span class=\"long-line\"><span class=\"long-line\">Oh, the sum of these moments and our own, atoms and particles in constant motion.</span><br /><span class=\"long-line\">Peel back their stratum, hang them on the clothesline in the breeze. \u00a0</span><br /><span class=\"long-line\">Let their shadow shapes build nests finally out in the open.</span></span></p>\n"}, {"title": "Heart Butte, Montana", "view_node": "/poem/heart-butte-montana", "field_author": "<a href=\"/poet/m-l-smoker\" hreflang=\"und\">M. L. Smoker</a>", "field_date_published": "2018", "body": "<p><span class=\"long-line\">The unsympathetic wind, how she has evaded me for years now,</span><br /><span class=\"long-line\">leaving a guileless shell and no way to navigate. \u00a0Once when I stood</span><br /><span class=\"long-line\">on a plateau of earth just at the moment before the dangerous,</span><br /><span class=\"long-line\">jutting peaks converged upon the sway of grasslands, I almost</span><br /><span class=\"long-line\">found a way back. \u00a0There, the sky, quite possibly all the elements,</span><br /><span class=\"long-line\">caused the rock and soil and vegetation to congregate. \u00a0Their prayer</span><br /><span class=\"long-line\">was not new and so faint I could hardly discern. \u00a0Simple remembrances,</span><br /><span class=\"long-line\">like a tiny, syncopated chorus calling everyone home: \u00a0across</span><br /><span class=\"long-line\">a thousand eastward miles. \u00a0And what little wind was left at my back.</span><br /><span class=\"long-line\">I could not move and then the music was gone.</span><br /><span class=\"long-line\">All that was left were the spring time faces of mountains, gazing down,</span><br /><span class=\"long-line\">their last patches of snow, luminous. \u00a0I dreamed of becoming snow melt,</span><br /><span class=\"long-line\">gliding down the slope of history and in to the valley. \u00a0With the promise,</span><br /><span class=\"long-line\">an assurance, that there is always a way to become bird, tree, water again.\u00a0</span></p>\n"}, {"title": "The Book of the Missing, Murdered and Indigenous\u2014Chapter 1", "view_node": "/poem/book-missing-murdered-and-indigenous-chapter-1", "field_author": "<a href=\"/poet/m-l-smoker\" hreflang=\"und\">M. L. Smoker</a>", "field_date_published": "2020", "body": "<p><span class=\"long-line\">The winding cord of highways, unkempt</span><br /><span class=\"long-line\">gravel roads and the trails of animals\u2014</span><br /><span class=\"long-line\">a record of who and what has passed over,</span><br /><span class=\"long-line\">an agony of secrets.</span></p>\n\n<p><span class=\"long-line\">In the end, they have all borne witness,</span><br /><span class=\"long-line\">eyes like glass beads that can never blink.</span><br /><span class=\"long-line\">The dull light of motel neon shines ominously.</span><br /><span class=\"long-line\">An engine growls across the landscape.</span></p>\n\n<p><span class=\"long-line\">Brittle men who are splintered like glass</span><br /><span class=\"long-line\">thrown from a second story window</span><br /><span class=\"long-line\">and we are the room they leave behind. </span><br /><span class=\"long-line\">They are pathetic husks, feeble in spirit.</span></p>\n\n<p><span class=\"long-line\">Fragments fall along fields and shallow ditches,</span><br /><span class=\"long-line\">in overlooked alleyways or underpasses.</span><br /><span class=\"long-line\">A cold, empty breeze rising from the debris.</span><br /><span class=\"long-line\">The first and last moment of her.</span></p>\n\n<p><span class=\"long-line\">It is rage that pulls her up from this place.</span><br /><span class=\"long-line\">She spews out the wretched and miserable</span><br /><span class=\"long-line\">as particles of dawn-lit soil illuminate her skin.</span><br /><span class=\"long-line\">Her hair is a two-edged sword.</span></p>\n\n<p><span class=\"long-line\">She stitches together the collective story of origin,</span><br /><span class=\"long-line\">her body a map: descended from the stars,</span><br /><span class=\"long-line\">on the backs of animal sisters,</span><br /><span class=\"long-line\">carried to safety in a bird\u2019s beak.</span></p>\n"}, {"title": "Memory", "view_node": "/poem/memory-3", "field_author": "<a href=\"/poet/george-moses-horton\" hreflang=\"und\">George Moses Horton</a>", "field_date_published": "1845", "body": "<p><span class=\"long-line\">Sweet memory, like a pleasing dream, </span><br /><span class=\"long-line\">\u00a0\u00a0\u00a0\u00a0Still lends a dull and feeble ray; </span><br /><span class=\"long-line\">For ages with her vestige teems, </span><br /><span class=\"long-line\">\u00a0\u00a0\u00a0\u00a0When beauty's trace is worn away. </span></p>\n\n<p><span class=\"long-line\">When pleasure, with her harps unstrung, </span><br /><span class=\"long-line\">\u00a0\u00a0\u00a0\u00a0Sits silent to be heard no more, </span><br /><span class=\"long-line\">Or leaves them on the willows hung, </span><br /><span class=\"long-line\">\u00a0\u00a0\u00a0\u00a0And pass-time glee forever o'er; </span><br /><br /><span class=\"long-line\">Still back in smiles thy glory steals </span><br /><span class=\"long-line\">\u00a0\u00a0\u00a0\u00a0With ev'ning dew drops from thine eye; </span><br /><span class=\"long-line\">The twilight bursting from thy wheels, </span><br /><span class=\"long-line\">\u00a0\u00a0\u00a0\u00a0Ascends and bids oblivion fly. </span></p>\n\n<p><span class=\"long-line\">Memory, thy bush prevails to bloom, </span><br /><span class=\"long-line\">\u00a0\u00a0\u00a0\u00a0Design'd to fade, no, never, never, </span><br /><span class=\"long-line\">Will stamp thy vestige on the tomb, </span><br /><span class=\"long-line\">\u00a0\u00a0\u00a0\u00a0And bid th' immortal live forever. </span><br /><br /><span class=\"long-line\">When youth's bright sun has once declined </span><br /><span class=\"long-line\">\u00a0\u00a0\u00a0\u00a0And bid his smiling day expire, </span><br /><span class=\"long-line\">Mem'ry, thy torch steals up behind, </span><br /><span class=\"long-line\">\u00a0\u00a0\u00a0\u00a0And sets thy hidden stars on fire. </span></p>\n"}, {"title": "Homing Swallows", "view_node": "/poem/homing-swallows", "field_author": "<a href=\"/poet/claude-mckay\" hreflang=\"und\">Claude McKay</a>", "field_date_published": "1922", "body": "<p><span class=\"long-line\">Swift swallows sailing from the Spanish main,</span><br /><span class=\"long-line\">\u00a0 \u00a0 \u00a0 \u00a0 \u00a0O rain-birds racing merrily away</span><br /><span class=\"long-line\">From hill-tops parched with heat and sultry plain</span><br /><span class=\"long-line\">\u00a0 \u00a0 \u00a0 \u00a0 \u00a0Of wilting plants and fainting flowers, say\u2014</span></p>\n<p><span class=\"long-line\">When at the noon-hour from the chapel school</span><br /><span class=\"long-line\">\u00a0 \u00a0 \u00a0 \u00a0 \u00a0The children dash and scamper down the dale,</span><br /><span class=\"long-line\">Scornful of teacher's rod and binding rule</span><br /><span class=\"long-line\">\u00a0 \u00a0 \u00a0 \u00a0 \u00a0Forever broken and without avail,</span></p>\n<p><span class=\"long-line\">Do they still stop beneath the giant tree</span><br /><span class=\"long-line\">\u00a0 \u00a0 \u00a0 \u00a0 \u00a0To gather locusts in their childish greed,</span><br /><span class=\"long-line\">And chuckle when they break the pods to see</span><br /><span class=\"long-line\">\u00a0 \u00a0 \u00a0 \u00a0 \u00a0The golden powder clustered round the seed?</span></p>\n"}, {"title": "Hope is a Bruise", "view_node": "/poem/hope-bruise", "field_author": "<a href=\"/poet/dasha-kelly-hamilton\" hreflang=\"en\">Dasha Kelly Hamilton</a>", "field_date_published": "2021", "body": "<p><span class=\"\u201clong-line\u201d\">Paintball pellets batter shoulders</span><br /><span class=\"\u201clong-line\u201d\">and thighs at 190 miles per hour</span><br /><span class=\"\u201clong-line\u201d\">I count the purplish bruises and</span><br /><span class=\"\u201clong-line\u201d\">smile at the post vision of us toasting</span><br /><span class=\"\u201clong-line\u201d\">laughing, being vibrantly alive</span></p>\n\n<p><span class=\"\u201clong-line\u201d\">The woman who pierced my nose</span><br /><span class=\"\u201clong-line\u201d\">Rushed outside afterwards for a cigarette</span><br /><span class=\"\u201clong-line\u201d\">Whether my nostril or her nerves were to blame</span><br /><span class=\"\u201clong-line\u201d\">We both survived an ordeal that day</span><br /><span class=\"\u201clong-line\u201d\">I don\u2019t think of the sweat on her lip\u00a0</span><br /><span class=\"\u201clong-line\u201d\">or the tears on my cheek when my jeweled\u00a0</span><br /><span class=\"\u201clong-line\u201d\">Black nose disrupts canonical spaces</span></p>\n\n<p><span class=\"\u201clong-line\u201d\">Agony delineates child bearing from child rearing</span><br /><span class=\"\u201clong-line\u201d\">Pain is the anticipated toll: the impossible stretch of skin and orifice,</span><br /><span class=\"\u201clong-line\u201d\">wrenching of organs, the pinch and nip of nursing</span><br /><span class=\"\u201clong-line\u201d\">I received no pamphlets about the pangs of panic and impotence</span><br /><span class=\"\u201clong-line\u201d\">The deep marrow rupture when their ache explodes beyond your reach</span></p>\n\n<p><span class=\"\u201clong-line\u201d\">A formation of police fired rubber bullets at my child</span><br /><span class=\"\u201clong-line\u201d\">200 feet per second in defense of hatred and spiteful ignorance</span><br /><span class=\"\u201clong-line\u201d\">She raged back in protest until her throat rasped, her heels</span><br /><span class=\"\u201clong-line\u201d\">blistered and she shattered into sobs once safe in our home, in my arms</span><br /><span class=\"\u201clong-line\u201d\">They gassed and maced my baby. She marched again the next day.</span><br /><span class=\"\u201clong-line\u201d\">And the next and the next and the next and the next</span></p>\n\n<p><span class=\"\u201clong-line\u201d\">Hope is a bruise, a nervous smoke and an unrelenting calvary</span></p>\n"}, {"title": "Bitter Winter", "view_node": "/poem/bitter-winter", "field_author": "<a href=\"/poet/dasha-kelly-hamilton\" hreflang=\"en\">Dasha Kelly Hamilton</a>", "field_date_published": "2017", "body": "<p>Forgiveness hangs flimsy between you<br />\nand the raw truth you've come to know:<br />\nResentments do come home to roost, to peck, to force you<br />\ninto navigating fatherhood from your knees. There are<br />\nexplosives undetonated on your tongue, tasting<br />\nlike guilt, goddamn and gunpowder all swirled together<br />\nYou teach yourself to swallow, to repent, to deny the<br />\nflames licking from your chest. Arms crossed, she bids you a bitter winter.<br />\n\u00a0</p>\n"}, {"title": "Young Singer", "view_node": "/poem/young-singer", "field_author": "<a href=\"/poet/langston-hughes\" hreflang=\"und\">Langston Hughes</a>", "field_date_published": "1926", "body": "<p><span class=\"\u201clong-line\u201d\">One who sings \u201cchansons vulgaries\u201d</span><br /><span class=\"\u201clong-line\u201d\">In a Harlem cellar</span><br /><span class=\"\u201clong-line\u201d\">Where the jazz-band plays</span><br /><span class=\"\u201clong-line\u201d\">From dark to dawn</span><br /><span class=\"\u201clong-line\u201d\">Would not understand</span><br /><span class=\"\u201clong-line\u201d\">Should you tell her</span><br /><span class=\"\u201clong-line\u201d\">That she is like a nymph</span><br /><span class=\"\u201clong-line\u201d\">For some wild faun.</span></p>\n"}, {"title": "Winter Moon", "view_node": "/poem/winter-moon", "field_author": "<a href=\"/poet/langston-hughes\" hreflang=\"und\">Langston Hughes</a>", "field_date_published": "1923", "body": "<p><span class=\"\u201clong-line\u201d\">How thin and sharp is the moon tonight!</span><br /><span class=\"\u201clong-line\u201d\">How thin and sharp and ghostly white</span><br /><span class=\"\u201clong-line\u201d\">Is the slim curved crook of the moon tonight!</span></p>\n"}, {"title": "Cabaret", "view_node": "/poem/cabaret", "field_author": "<a href=\"/poet/langston-hughes\" hreflang=\"und\">Langston Hughes</a>", "field_date_published": "1926", "body": "<p><span class=\"\u201clong-line\u201d\">Does a jazz-band ever sob?</span><br /><span class=\"\u201clong-line\u201d\">They say a jazz-band\u2019s gay.</span><br /><span class=\"\u201clong-line\u201d\">Yet as the vulgar dancers whirled</span><br /><span class=\"\u201clong-line\u201d\">And the wan night wore away,</span><br /><span class=\"\u201clong-line\u201d\">One said she heard the jazz-band sob</span><br /><span class=\"\u201clong-line\u201d\">When the little dawn was grey.</span></p>\n"}, {"title": "Shadows", "view_node": "/poem/shadows", "field_author": "<a href=\"/poet/langston-hughes\" hreflang=\"und\">Langston Hughes</a>", "field_date_published": "1923", "body": "<p><span class=\"\u201clong-line\u201d\">We run,</span><br /><span class=\"\u201clong-line\u201d\">We run,</span><br /><span class=\"\u201clong-line\u201d\">We cannot stand these shadows!</span><br /><span class=\"\u201clong-line\u201d\">Give us the sun.</span></p>\n\n<p><span class=\"\u201clong-line\u201d\">We were not made</span><br /><span class=\"\u201clong-line\u201d\">For shade,</span><br /><span class=\"\u201clong-line\u201d\">For heavy shade,</span><br /><span class=\"\u201clong-line\u201d\">And narrow space of stifling air</span><br /><span class=\"\u201clong-line\u201d\">That these white things have made.</span><br /><span class=\"\u201clong-line\u201d\">We run,</span><br /><span class=\"\u201clong-line\u201d\">Oh, God,</span><br /><span class=\"\u201clong-line\u201d\">We run!</span><br /><span class=\"\u201clong-line\u201d\">We must break through these shadows,</span><br /><span class=\"\u201clong-line\u201d\">We must find the sun.</span></p>\n"}, {"title": "Poem [1]", "view_node": "/poem/poem-1-1", "field_author": "<a href=\"/poet/langston-hughes\" hreflang=\"und\">Langston Hughes</a>", "field_date_published": "1923", "body": "<p><em>For the portrait of an African boy after the manner of<br />\n\u00a0 \u00a0 \u00a0 \u00a0 \u00a0 \u00a0 \u00a0 \u00a0 \u00a0 \u00a0 \u00a0 \u00a0 \u00a0 \u00a0 \u00a0 \u00a0 \u00a0 \u00a0Gauguin</em></p>\n\n<p><span class=\"\u201clong-line\u201d\">All the tom-toms of the jungles beat in my blood.</span><br /><span class=\"\u201clong-line\u201d\">And all the wild hot moons of the jungles shine in my</span><br /><span class=\"\u201clong-line\u201d\">\u00a0 \u00a0 \u00a0 \u00a0 soul.</span><br /><span class=\"\u201clong-line\u201d\">I am afraid of this civilization\u2014</span><br /><span class=\"\u201clong-line\u201d\">\u00a0 \u00a0 \u00a0 \u00a0 So hard,</span><br /><span class=\"\u201clong-line\u201d\">\u00a0 \u00a0 \u00a0 \u00a0 \u00a0 \u00a0 \u00a0 \u00a0 So strong,</span><br /><span class=\"\u201clong-line\u201d\">\u00a0 \u00a0 \u00a0 \u00a0 \u00a0 \u00a0 \u00a0 \u00a0 \u00a0 \u00a0 \u00a0 \u00a0 So cold.</span></p>\n"}, {"title": "For Myself", "view_node": "/poem/myself", "field_author": "<a href=\"/poet/countee-cullen\" hreflang=\"und\">Countee Cullen</a>", "field_date_published": "1926", "body": "<p><span class=\"long-line\">What\u2019s in this grave is worth your tear;</span><br /><span class=\"long-line\">\u00a0 \u00a0 There's more than the eye can see;</span><br /><span class=\"long-line\">Folly and Pride and Love lie here</span><br /><span class=\"long-line\">\u00a0 \u00a0 Buried alive with me.</span></p>\n"}, {"title": "For Joseph Conrad ", "view_node": "/poem/joseph-conrad", "field_author": "<a href=\"/poet/countee-cullen\" hreflang=\"und\">Countee Cullen</a>", "field_date_published": "1925", "body": "<p><span class=\"long-line\">Not of the dust, but of the wave</span><br /><span class=\"long-line\">His final couch should be;</span><br /><span class=\"long-line\">They lie not easy in a grave</span><br /><span class=\"long-line\">Who once have known the sea.</span><br /><span class=\"long-line\">How shall earth's meagre bed enthrall</span><br /><span class=\"long-line\">The hardiest seaman of them all?</span></p>\n"}, {"title": "For Paul Laurence Dunbar", "view_node": "/poem/paul-laurence-dunbar", "field_author": "<a href=\"/poet/countee-cullen\" hreflang=\"und\">Countee Cullen</a>", "field_date_published": "1925", "body": "<p><span class=\"long-line\">Born of the sorrowful of heart,</span><br /><span class=\"long-line\">\u00a0 \u00a0 Mirth was a crown upon his head;</span><br /><span class=\"long-line\">Pride, kept his twisted lips apart</span><br /><span class=\"long-line\">\u00a0 \u00a0 In jest, to hide a heart that bled.</span></p>\n"}, {"title": "For Hazel Hall, American Poet", "view_node": "/poem/hazel-hall-american-poet", "field_author": "<a href=\"/poet/countee-cullen\" hreflang=\"und\">Countee Cullen</a>", "field_date_published": "1925", "body": "<p><span class=\"long-line\">Soul-troubled at the febrile ways</span><br /><span class=\"long-line\">\u00a0 \u00a0 \u00a0 \u00a0 of breath,</span><br /><span class=\"long-line\">Her timid breast shot through with faint</span><br /><span class=\"long-line\">\u00a0 \u00a0 \u00a0 \u00a0 alarm,</span><br /><span class=\"long-line\">\"Yes, I'm a stranger here,\" she said to Death,</span><br /><span class=\"long-line\">\u00a0 \"It's kind of you to let me take your arm.\"</span></p>\n"}, {"title": "Landscape with a Hundred Turns", "view_node": "/poem/landscape-hundred-turns", "field_author": "<a href=\"/poet/yanyi\" hreflang=\"en\">Yanyi</a>", "field_date_published": "2021", "body": "<p><span class=\"long-line\">When you turned into a hundred rooms,</span><br /><span class=\"long-line\">I returned each month as a door</span><br /><span class=\"long-line\">that opened only one.</span></p>\n\n<p><span class=\"long-line\">When you turned into a hundred rooms</span><br /><span class=\"long-line\">the wind flung through</span><br /><span class=\"long-line\">each of them wailing</span></p>\n\n<p><span class=\"long-line\">and left a hundred songs</span><br /><span class=\"long-line\">in hopes you would return for it</span><br /><span class=\"long-line\">and me and</span></p>\n\n<p><span class=\"long-line\">once, finding a doe locked up,</span><br /><span class=\"long-line\">the trees blued up</span><br /><span class=\"long-line\">the mountain pass, I understood</span></p>\n\n<p><span class=\"long-line\">you had transformed into your multiple,</span><br /><span class=\"long-line\">as the rain is different</span><br /><span class=\"long-line\">each step from the moon. Sleeping</span></p>\n\n<p><span class=\"long-line\">in a hundred rooms, a hundred dreams</span><br /><span class=\"long-line\">of you appear\u2014though by day</span><br /><span class=\"long-line\">your voice has frozen into standing stones.</span></p>\n\n<p><span class=\"long-line\">When you turned into a hundred rooms,</span><br /><span class=\"long-line\">I met with a mirror in each eye</span><br /><span class=\"long-line\">your growing absence.</span></p>\n\n<p><span class=\"long-line\">When I moved, the shadows without you</span><br /><span class=\"long-line\">followed me. In the hundred rooms,</span><br /><span class=\"long-line\">I cannot pick one,</span></p>\n\n<p><span class=\"long-line\">for each combines into the other</span><br /><span class=\"long-line\">where I piece-by-piece the shadows</span><br /><span class=\"long-line\">you have ceased</span></p>\n\n<p><span class=\"long-line\">to remember. As the rain</span><br /><span class=\"long-line\">is different each day of the year,</span><br /><span class=\"long-line\">when I turned for you</span></p>\n\n<p><span class=\"long-line\">and hoped you\u2019d return to me,</span><br /><span class=\"long-line\">was it I who left</span><br /><span class=\"long-line\">and you who remained the same?</span></p>\n\n<p><span class=\"long-line\">For when you changed,</span><br /><span class=\"long-line\">I changed</span><br /><span class=\"long-line\">the furniture in the rooms.</span></p>\n\n<p><span class=\"long-line\">A hundred birds flew over a hundred fields.</span><br /><span class=\"long-line\">A mountain flowed into a hundred rivers</span><br /><span class=\"long-line\">then ended.</span></p>\n\n<p><span class=\"long-line\">In a hundred rooms,</span><br /><span class=\"long-line\">I turned and turned,</span><br /><span class=\"long-line\">hoping to return to you.</span></p>\n\n<p><span class=\"long-line\">O, the chrysanthemums grew</span><br /><span class=\"long-line\">in the hundred rooms!</span></p>\n\n<p><span class=\"long-line\">Far in the past and far in the future</span><br /><span class=\"long-line\">were those numinous and echoing stars.</span></p>\n"}, {"title": "Monotony", "view_node": "/poem/monotony", "field_author": "<a href=\"/poet/langston-hughes\" hreflang=\"und\">Langston Hughes</a>", "field_date_published": "1923", "body": "<p><span class=\"\u201clong-line\u201d\">Today like yesterday</span><br /><span class=\"\u201clong-line\u201d\">Tomorrow like today;</span><br /><span class=\"\u201clong-line\u201d\">The drip, drip, drip,</span><br /><span class=\"\u201clong-line\u201d\">\u00a0 \u00a0 \u00a0 \u00a0 Of monotony</span><br /><span class=\"\u201clong-line\u201d\">Is wearing my life away;</span><br /><span class=\"\u201clong-line\u201d\">Today like yesterday,</span><br /><span class=\"\u201clong-line\u201d\">Today like today.\u00a0</span></p>\n"}], "pager": {"current_page": 65, "total_items": "13248", "total_pages": 663, "items_per_page": 20}}