{"rows": [{"title": "World&#039;s Bliss", "view_node": "/poem/worlds-bliss", "field_author": "<a href=\"/poet/alice-notley\" hreflang=\"und\">Alice Notley</a>", "field_date_published": "2006", "body": "<p><span class=\"long-line\">The men &amp;\u00a0women sang &amp;\u00a0played</span><br /><span class=\"long-line\">they sleep by singing, what</span><br /><span class=\"long-line\">shall I say of the most</span><br /><span class=\"long-line\">poignant on earth the most glamorous</span><br /><span class=\"long-line\">loneliest sought after people</span><br /><span class=\"long-line\">those poets wholly beautiful</span><br /><span class=\"long-line\">desolate aureate, death is a</span><br /><span class=\"long-line\">powerful instinctive emotion\u2014</span><br /><span class=\"long-line\">but who would be released from</span><br /><span class=\"long-line\">a silver skeleton? gems</span><br /><span class=\"long-line\">&amp; drinking cups\u2014This</span><br /><span class=\"long-line\">skull is Helen\u2014who would not</span><br /><span class=\"long-line\">be released from the</span><br /><span class=\"long-line\">Book of Knowledge? Why</span><br /><span class=\"long-line\">should a maiden lie on a moor</span><br /><span class=\"long-line\">for seven nights &amp; a day? And</span><br /><span class=\"long-line\">he is a maiden, he is &amp;\u00a0she</span><br /><span class=\"long-line\">on the grass the flower the spray</span><br /><span class=\"long-line\">where they lie eating primroses</span><br /><span class=\"long-line\">grown crazy with sorrow &amp; all</span><br /><span class=\"long-line\">the beauties of old\u2014oh each poet's a</span><br /><span class=\"long-line\">beautiful human girl who must die.</span></p>\n"}, {"title": "Looking", "view_node": "/poem/looking", "field_author": "<a href=\"/poet/robert-kelly\" hreflang=\"und\">Robert Kelly</a>", "field_date_published": "1995", "body": " <pre>\nOnce when I read the funnies\nI took my little magnifying glass\nand looked too close.\n\nForms became colors and colors\nwere just arrays of dots\nand between the dots I saw the rough bleak\nstoryless legend of the pulp paper\nempty as the winter moon\n\nand I dreaded it.\nI had looked right through,\nwhen I wanted a universe\nthat sustains\nlooker and looking and the seen\nforever, detail after detail\nnever ending. And all I had found\nwas between. But between\nhad its own song:\nFind it in the space between\u2014\n\nit is just as empty as it seems\nbut this blankness is your mother.</pre>\n "}, {"title": "Prefix: Finding the measure", "view_node": "/poem/prefix-finding-measure", "field_author": "<a href=\"/poet/robert-kelly\" hreflang=\"und\">Robert Kelly</a>", "field_date_published": "1995", "body": " <pre>\nFinding the measure is finding the mantram,\nis finding the moon, as index of measure,\nis finding the moon's source;\n\n                                         if that source\nis Sun, finding the measure is finding\nthe natural articulation of ideas.\n\n                                              The organism\nof the macrocosm, the organism of language,\nthe organism of <i>I</i> combine in ceaseless naturing\nto propagate a fourth,\n                               the poem,\n                                               from their trinity.\n\nStyle is death. Finding the measure is finding\na freedom from that death, a way out, a movement\nforward.\n\n             Finding the measure is finding the\nspecific music of the hour,\n                                     the synchronous\nconsequence of the motion of the whole world.</pre>\n "}, {"title": "To Her Body, Against Time", "view_node": "/poem/her-body-against-time", "field_author": "<a href=\"/poet/robert-kelly\" hreflang=\"und\">Robert Kelly</a>", "field_date_published": "1995", "body": " <pre>\nLong over, what's on the tree\nshivers. Sky hides behind\nwhite-faced, giving flesh to branch,\na red leaf\n\nor yellow far enough away,\nwhat Broch called ''the style\nof old age,\" simplified\nof images,\n\nlean in the perfection of the bough,\nnaked &amp; half-undone. Clouds break,\nrain against a hidden sun,\nthe form plain</pre>\n "}, {"title": "The Sweetwater Caverns", "view_node": "/poem/sweetwater-caverns", "field_author": "<a href=\"/poet/kimiko-hahn\" hreflang=\"und\">Kimiko Hahn</a>", "field_date_published": "2010", "body": " <pre>\nCurious to see caverns,\nwe detoured in Tennessee\nto ramble through Fat Man's Misery,\npast a ballroom and gun powder machine\ntill we reached The World's Second Largest Underground Lake\u2014\non which my husband had promised a ride\nin a glass-bottom boat.\n\nThere, a kid hunched over a hot-rod magazine.\nDan, I think his name was,\nradiant, in clammy, artificial light.\n\nI asked Dan, <i>college-break</i>?\nHe nodded inside his hoodie\nthen helped me into the glass-bottom hold.\nI peered into the milky water\nand watched the seeded trout swim up for the chum\nhe dumped overboard on our account.\n\nHe was milky white, himself,\nfrom months of cave sitting.\n\nI wondered if he'd write a poem\non a summer spent underground.\nThought to suggest it\u2014how foolish\u2014\nthen wondered if what I really wanted was Dan,\n\nas I stepped into his boat, to take my arm and ask me something\u2014\n\nat this middle age, probably for a couple coins\nthen give a promise of safe passage\nas he ferried me to the realm of the dead\n\nthat I've been thinking about for several years\nnot because of a girlfriend's cancer\nbut because my body is no longer young.\nI mean, lovely\u2014\nand that there's no turning back to that water's edge.\nThere's only the couch\nevery afternoon at four o'clock\nand not wanting to ever move. Not wishing to die exactly\u2014\njust not wanting to rise\nbecause the light feels so pressured. And I can't have \nthat ardent glow reflected back while brushing teeth\nor fastening a necklace. Now there's this\n\ncasting around for other stuff\u2014\nthe daughters' secrets\u2014the pathetic urge to write about their secrets\u2014\n\nor a crush on Charon. Not an old man as it turns out\nbut a youth, colorless and tired of his i-Pod.\n\nNo, he's not really of interest to me.\nAnd this is my secret: that I wish he were\u2014\nas with those arms\nreaching through clouds of cigarette smoke\nto lead me into reeking dives.\n\nI'm past that. And he, Dan,\nnot the poetic Charon\u2014\nwill probably climb out of the caverns\ninto the six o'clock evening sun. Stretch. Change his shirt,\neat his mother's meatloaf and head off in a rusted Honda\nfor the Piggly-Wiggly parking lot\nwith a six-pack and a girl,\n\nthose hand-sized moths flitting in the light\nas the sheriff chases the kids to another dead end spot\u2014\n\nthose enormous dusty moths my husband caught\nfor me to hold in my hand\nbecause he knows, in the afternoon light after the dank caverns,\nhow fluttery the furry wings will feel.\nWhich is more than melodrama can bear.\n\nTo have wished for Dan <i>to ask me something?</i>\nI know <i>the passage</i> is not what you wanted to hear.</pre>\n "}, {"title": "In", "view_node": "/poem/in", "field_author": "<a href=\"/poet/andrew-hudgins\" hreflang=\"und\">Andrew Hudgins</a>", "field_date_published": "2003", "body": " <pre>\nWhen we first heard from blocks away\nthe fog truck's blustery roar,\nwe dropped our toys, leapt from our meals,\nand scrambled out the door\n\ninto an evening briefly fuzzy.\nWe yearned to be transformed\u2014\ntranslated past confining flesh\nto disembodied spirit.  We swarmed\n\nin thick smoke, taking human form\nbefore we blurred again,\nturned vague and then invisible,\nin temporary heaven.\n\nFreed of bodies by the fog,\nwe laughed, we sang, we shouted.\nWe were our voices, nothing else.\nVoice was all we wanted.\n\nThe white clouds tumbled down our streets\npursued by spellbound children\nwho chased the most distorting clouds,\necstatic in the poison.</pre>\n "}, {"title": "Blur", "view_node": "/poem/blur", "field_author": "<a href=\"/poet/andrew-hudgins\" hreflang=\"und\">Andrew Hudgins</a>", "field_date_published": "2003", "body": " <pre>\nStorms of perfume lift from honeysuckle,\nlilac, clover\u2014and drift across the threshold,\noutside reclaiming inside as its home.\nWarm days whirl in a bright unnumberable blur,\na cup\u2014a grail brimmed with delirium\nand humbling boredom both.  I was a boy,\nI thought I'd always be a boy, pell\u2014mell,\nmean, and gaily murderous one moment\nas I decapitated daises with a stick,\nthen overcome with summer's opium,\nnumb\u2014slumberous.  I thought I'd always be a boy,\neach day its own millennium, each\none thousand years of daylight ending in\nthe night watch, summer's pervigilium,\nwhich I could never keep because by sunset\nI was an old man.  I was Methuselah,\nthe oldest man in the holy book.  I drowsed.\nI nodded, slept\u2014and without my watching, the world,\nwhose permanence I doubted, returned again,\nbluebell and blue jay, speedwell and cardinal\nstill there when the light swept back,\nand so was I, which I had also doubted.\nI understood with horror then with joy,\ndubious and luminous joy: it simply spins.\nIt doesn't need my feet to make it turn.\nIt doesn't even need my eyes to watch it,\nand I, though a latecomer to its surface, I'd\nbe leaving early.  It was my duty to stay awake\nand sing if I could keep my mind on singing,\nnot extinction, as blurred green summer, lifted\nto its apex, succumbed to gravity and fell\nto autumn, Ilium, and ashes.  In joy\nwe are our own uncomprehending mourners,\nand more than joy I longed for understanding\nand more than understanding I longed for joy.\n</pre>\n "}, {"title": "Gulf War and Child: A Curse", "view_node": "/poem/gulf-war-and-child-curse", "field_author": "<a href=\"/poet/annie-finch\" hreflang=\"und\">Annie Finch</a>", "field_date_published": "1997", "body": " <pre>\nHe is sleeping, his fingers curled,\nhis belly pooled open, his legs gathered, still\nin their bent blossom victory.\n\nI couldn't speak of \"war\" (though we all do),\nif I were still the woman who gave birth\nto you soft-footed, with your empty hand\nand calling heart, that border of new clues.\n\nMay the hard birth our two heartbeats unfurled\nfor two nights that lasted as long as this war\nmake all sands rage, until the mouth of war\ndrops its cup, this bleeding gift we poured.</pre>\n "}, {"title": "Reasons To Survive November (audio only)", "view_node": "/poem/reasons-survive-november-audio-only", "field_author": "<a href=\"/poet/tony-hoagland\" hreflang=\"und\">Tony Hoagland</a>", "field_date_published": "2006", "body": " <p>\u00a0</p><p>Click the icon above to listen to this audio poem.</p> "}, {"title": "Old Black Men", "view_node": "/poem/old-black-men", "field_author": "<a href=\"/poet/georgia-douglas-johnson\" hreflang=\"und\">Georgia Douglas Johnson</a>", "field_date_published": "1922", "body": " <pre>\nThey have dreamed as young men dream\n     Of glory, love and power;\nThey have hoped as youth will hope\n     Of life\u2019s sun-minted hour.\n\nThey have seen as other saw\n     Their bubbles burst in air,\nAnd they have learned to live it down\n     As though they did not care.</pre>\n "}, {"title": "Black Woman", "view_node": "/poem/black-woman", "field_author": "<a href=\"/poet/georgia-douglas-johnson\" hreflang=\"und\">Georgia Douglas Johnson</a>", "field_date_published": "1922", "body": "<p><span class=\"long-line\">Don\u2019t knock at my door, little child,</span><br /><span class=\"long-line\">\u00a0\u00a0\u00a0\u00a0\u00a0I cannot let you in,</span><br /><span class=\"long-line\">You know not what a world this is</span><br /><span class=\"long-line\">\u00a0\u00a0\u00a0\u00a0\u00a0Of cruelty and sin.</span><br /><span class=\"long-line\">Wait in the still eternity</span><br /><span class=\"long-line\">\u00a0\u00a0\u00a0\u00a0\u00a0Until I come to you,</span><br /><span class=\"long-line\">The world is cruel, cruel, child,</span><br /><span class=\"long-line\">\u00a0\u00a0\u00a0\u00a0\u00a0I cannot let you in!</span></p>\n\n<p><span class=\"long-line\">Don\u2019t knock at my heart, little one,</span><br /><span class=\"long-line\">\u00a0\u00a0\u00a0\u00a0\u00a0I cannot bear the pain</span><br /><span class=\"long-line\">Of turning deaf-ear to your call</span><br /><span class=\"long-line\">\u00a0\u00a0\u00a0\u00a0\u00a0Time and time again!</span><br /><span class=\"long-line\">You do not know the monster men</span><br /><span class=\"long-line\">\u00a0\u00a0\u00a0\u00a0\u00a0Inhabiting the earth,</span><br /><span class=\"long-line\">Be still, be still, my precious child,</span><br /><span class=\"long-line\">\u00a0\u00a0\u00a0\u00a0\u00a0I must not give you birth!</span></p>\n"}, {"title": "The Heart of a Woman", "view_node": "/poem/heart-woman", "field_author": "<a href=\"/poet/georgia-douglas-johnson\" hreflang=\"und\">Georgia Douglas Johnson</a>", "field_date_published": "1918", "body": " <pre>\nThe heart of a woman goes forth with the dawn,\nAs a lone bird, soft winging, so restlessly on,\nAfar o'er life's turrets and vales does it roam\nIn the wake of those echoes the heart calls home.\n\nThe heart of a woman falls back with the night,\nAnd enters some alien cage in its plight,\nAnd tries to forget it has dreamed of the stars\nWhile it breaks, breaks, breaks on the sheltering bars.</pre>\n "}, {"title": "La Vie C&#039;est La Vie", "view_node": "/poem/la-vie-cest-la-vie", "field_author": "<a href=\"/poet/jessie-redmon-fauset\" hreflang=\"und\">Jessie Redmon Fauset</a>", "field_date_published": "1924", "body": "<p><span class=\"long-line\">On summer afternoons I sit</span><br /><span class=\"long-line\">Quiescent by you in the park</span><br /><span class=\"long-line\">And idly watch the sunbeams gild</span><br /><span class=\"long-line\">And tint the ash-trees' bark.</span></p>\n\n<p><span class=\"long-line\">Or else I watch the squirrels frisk</span><br /><span class=\"long-line\">And chaffer in the grassy lane;</span><br /><span class=\"long-line\">And all the while I mark your voice</span><br /><span class=\"long-line\">Breaking with love and pain.</span></p>\n\n<p><span class=\"long-line\">I know a woman who would give</span><br /><span class=\"long-line\">Her chance of heaven to take my place;</span><br /><span class=\"long-line\">To see the love-light in your eyes,</span><br /><span class=\"long-line\">The love-glow on your face!</span></p>\n\n<p><span class=\"long-line\">And there's a man whose lightest word</span><br /><span class=\"long-line\">Can set my chilly blood afire;</span><br /><span class=\"long-line\">Fulfillment of his least behest</span><br /><span class=\"long-line\">Defines my life\u2019s desire.</span></p>\n\n<p><span class=\"long-line\">But he will none of me, nor I</span><br /><span class=\"long-line\">Of you. Nor you of her. \u2019Tis said</span><br /><span class=\"long-line\">The world is full of jests like these.\u2014</span><br /><span class=\"long-line\">I wish that I were dead.</span></p>\n"}, {"title": "Dead Fires", "view_node": "/poem/dead-fires", "field_author": "<a href=\"/poet/jessie-redmon-fauset\" hreflang=\"und\">Jessie Redmon Fauset</a>", "field_date_published": "1922", "body": "<p><span class=\"long-line\">If this is peace, this dead and leaden thing,</span><br /><span class=\"long-line\">\u00a0 \u00a0 \u00a0 \u00a0Then better far the hateful fret, the sting.</span><br /><span class=\"long-line\">Better the wound forever seeking balm</span><br /><span class=\"long-line\">\u00a0 \u00a0 \u00a0 \u00a0Than this gray calm!</span></p>\n\n<p><span class=\"long-line\">Is this pain's surcease? Better far the ache,</span><br /><span class=\"long-line\">\u00a0 \u00a0 \u00a0 \u00a0The long-drawn dreary day, the night's white wake,</span><br /><span class=\"long-line\">Better the choking sigh, the sobbing breath</span><br /><span class=\"long-line\">\u00a0 \u00a0 \u00a0 \u00a0Than passion's death!</span></p>\n"}, {"title": "Quatrains", "view_node": "/poem/quatrains", "field_author": "<a href=\"/poet/gwendolyn-bennett\" hreflang=\"und\">Gwendolyn Bennett</a>", "field_date_published": "1927", "body": " <pre>\n1\nBrushes and paints are all I have\nTo speak the music in my soul\u2014\nWhile silently there laughs at me\nA copper jar beside a pale green bowl.\n\n2\nHow strange that grass should sing\u2014\nGrass is so still a thing ...\nAnd strange the swift surprise of snow\nSo soft it falls and slow.</pre>\n "}, {"title": "Sonnet 1", "view_node": "/poem/sonnet-1", "field_author": "<a href=\"/poet/gwendolyn-bennett\" hreflang=\"und\">Gwendolyn Bennett</a>", "field_date_published": "1927", "body": " <pre>\nHe came in silvern armour, trimmed with black\u2014\nA lover come from legends long ago\u2014\nWith silver spurs and silken plumes a-blow,\nAnd flashing sword caught fast and buckled back\nIn a carven sheath of Tamarack.\nHe came with footsteps beautifully slow,\nAnd spoke in voice meticulously low.\nHe came and Romance followed in his track...\n\nI did not ask his name\u2014I thought him Love;\nI did not care to see his hidden face.\nAll life seemed born in my intaken breath;\nAll thought seemed flown like some forgotten dove.\nHe bent to kiss and raised his visor's lace...\nAll eager-lipped I kissed the mouth of Death.</pre>\n "}, {"title": "Sonnet 2", "view_node": "/poem/sonnet-2", "field_author": "<a href=\"/poet/gwendolyn-bennett\" hreflang=\"und\">Gwendolyn Bennett</a>", "field_date_published": "1927", "body": " <pre>\nSome things are very dear to me\u2014\nSuch things as flowers bathed by rain\nOr patterns traced upon the sea\nOr crocuses where snow has lain ...\nthe iridescence of a gem,\nThe moon\u2019s cool opalescent light,\nAzaleas and the scent of them,\nAnd honeysuckles in the night.\nAnd many sounds are also dear\u2014\nLike winds that sing among the trees\nOr crickets calling from the weir\nOr Negroes humming melodies.\nBut dearer far than all surmise\nAre sudden tear-drops in your eyes.</pre>\n "}, {"title": "Fantasy", "view_node": "/poem/fantasy", "field_author": "<a href=\"/poet/gwendolyn-bennett\" hreflang=\"und\">Gwendolyn Bennett</a>", "field_date_published": "1927", "body": "<p><span class=\"long-line\">I sailed in my dreams to the Land of Night</span><br /><span class=\"long-line\">Where you were the dusk-eyed queen,</span><br /><span class=\"long-line\">And there in the pallor of moon-veiled light</span><br /><span class=\"long-line\">The loveliest things were seen ...</span></p>\n\n<p><span class=\"long-line\">A slim-necked peacock sauntered there</span><br /><span class=\"long-line\">In a garden of lavender hues,</span><br /><span class=\"long-line\">And you were strange with your purple hair</span><br /><span class=\"long-line\">As you sat in your amethyst chair</span><br /><span class=\"long-line\">With your feet in your hyacinth shoes.</span></p>\n\n<p><span class=\"long-line\">Oh, the moon gave a bluish light</span><br /><span class=\"long-line\">Through the trees in the land of dreams and night.</span><br /><span class=\"long-line\">I stood behind a bush of yellow-green</span><br /><span class=\"long-line\">And whistled a song to the dark-haired queen ...</span></p>\n"}, {"title": "Meat", "view_node": "/poem/meat", "field_author": "<a href=\"/poet/august-kleinzahler\" hreflang=\"und\">August Kleinzahler</a>", "field_date_published": "2000", "body": " <pre>\nHow much meat moves\nInto the city each night\nThe decks of its bridges tremble\nIn the liquefaction of sodium light\nAnd the moon a chemical orange\n\nSemitrailers strain their axles\nShivering as they take the long curve\nOver warehouses and lofts\nThe wilderness of streets below\nThe mesh of it\nWith Joe on the front stoop smoking\nAnd Louise on the phone with her mother\n\nOut of the haze of industrial meadows\nThey arrive, numberless\nHauling tons of dead lamb\nBone and flesh and offal\nMiles to the ports and channels\nOf the city's shimmering membrane\nA giant breathing cell\nExhaling its waste\nFrom the stacks by the river\nAnd feeding through the night</pre>\n "}, {"title": "Green Sees Things in Waves", "view_node": "/poem/green-sees-things-waves", "field_author": "<a href=\"/poet/august-kleinzahler\" hreflang=\"und\">August Kleinzahler</a>", "field_date_published": "1998", "body": " <pre>\nGreen first thing each day sees waves\u2014\nthe chair, armoire, overhead fixtures, you name it,\nwaves\u2014which, you might say, things really are,\nbut Green just lies there awhile breathing\nlong slow breaths, in and out, through his mouth\nlike he was maybe seasick, until in an hour or so\nthe waves simmer down and then the trails and colors\noff of things, that all quiets down as well and Green\nstarts to think of washing up, breakfast even\nwith everything still moving around, colors, trails,\nand sounds, from the street and plumbing next door,\nvibrating\u2014of course you might say that's what\nsound really is, after all, vibrations\u2014but Green,\nhe's not thinking physics at this stage, nuh-uh,\nour boy's only trying to get himself out of bed,\nget a grip, but sometimes, and this is the kicker,\nanother party, shall we say, is in the room\nwith Green, and Green knows this other party\nand they do <i>not</i> get along, which understates it\nquite a bit, quite a bit, and Green knows\nthat this other cat is an hallucination, right,\nbut these two have a routine that goes way back\nand Green starts hollering, throwing stuff\nuntil he's all shook up, whole day gone to hell,\nbummer . . .\n\n                 Anyhow, the docs are having a look,\nsee if they can't dream up a cocktail,\nbut seems our boy ate quite a pile of acid one time,\nclinical, wow, enough juice for half a block\u2014\n<i>go go go, little Greenie</i>\u2014blew the wiring out\nfrom behind his headlights and now, no matter what,\ncan't find the knob to turn off the show.</pre>\n "}], "pager": {"current_page": 552, "total_items": "13248", "total_pages": 663, "items_per_page": 20}}