{"rows": [{"title": "The Epistemology of Rosemary", "view_node": "/poem/epistemology-rosemary", "field_author": "<a href=\"/poet/geffrey-davis\" hreflang=\"en\">Geffrey Davis</a>", "field_date_published": "2015", "body": " <p><em>\u00a0\u00a0\u00a0\u00a0\u00a0\u00a0\u00a0\u00a0\u00a0\u00a0\u00a0\u00a0\u00a0\u00a0\u00a0\u00a0\u00a0\u00a0\u00a0\u00a0 \u2014for L</em></p><p>Together in the garden, a cigarette cradled<br />between her \ufb01ngers, she tells me of breeding</p><p>cockatiels\u2014clutch after successful clutch, and what<br />she can\u2019t forget: the time of one-too-many and</p><p>the smallest chick pushed from the nest.<br />How she thought <em>mistake </em>and put it back again,</p><p>only to see the same, simple denial.<br />And then, for days, trying to make her hands</p><p>avian, to syringe-feed the bird into flight.<br />One thin month lies between us and our miscarriage,</p><p>and I feel her grow silent under the new vastness<br />of this wreckage. I try to talk about my father</p><p>breaking blighted pigeon eggs: at twelve, I thought<br /><em>patience </em>and pressed him to wait, one week, then two,</p><p>until frustration set and he crushed the shells<br />before me, against the coop. I wanted to gather up</p><p>each shard, to will those gossamer embryos<br />into growth again\u2014\u00a0\u00a0\u00a0\u00a0\u00a0\u00a0\u00a0\u00a0\u00a0 What do we rescue</p><p>now, at home, gleaning herbs in the evening,<br />as swallows swerve in the fallow air? I lean over</p><p>her shoulder: her hair smells of the rosemary we take,<br />and of the rosemary we leave to freeze in the garden.</p> "}, {"title": "King County Metro", "view_node": "/poem/king-county-metro", "field_author": "<a href=\"/poet/geffrey-davis\" hreflang=\"en\">Geffrey Davis</a>", "field_date_published": "2015", "body": " <p>In Seattle, in 1982, my mother beholds this man<br />boarding the bus, the one she\u2019s already</p><p>turning into my father. His style (if you can<br />call it that): disarming disregard\u2014a loud</p><p>Hawaiian-print shirt and knee-high tube socks<br />that reach up the deep tone of his legs,</p><p>toward the dizzying orange of running shorts.<br />Outside, the gray city blocks lurch</p><p>past wet windows, as he starts his shy sway<br />down the aisle. Months will pass</p><p>before he shatters his ankle during a Navy drill,<br />the service discharging him back into the everyday</p><p>teeth of the world. Two of four kids will arrive<br />before he meets the friend who teaches him</p><p>the art of roo\ufb01ng and, soon after, the crack pipe\u2014<br />the attention it takes to manage either</p><p>without destroying the hands. The air brakes gasp<br />as he approaches my mother\u2019s row,</p><p>each failed rehab and jail sentence still<br />decades off in the distance. So much waits</p><p>in the fabulous folds of tomorrow.<br />And my mother, who will take twenty years</p><p>to burn out her love for him, hesitates a moment<br />before making room beside her\u2014the striking</p><p>brown face, poised above her head, smiling.<br />My mother will blame all that happens,</p><p>both good and bad, on this smile, which glows now,<br />ready to consume half of everything it gives.</p> "}, {"title": "Tender Buttons [A Long Dress]", "view_node": "/poem/tender-buttons-long-dress", "field_author": "<a href=\"/poet/gertrude-stein\" hreflang=\"und\">Gertrude Stein</a>", "field_date_published": "1914", "body": " <p>What is the current that makes machinery, that makes it crackle, what is the current that presents a long line and a necessary waist. What is this current.</p><p>What is the wind, what is it.\u00a0</p><p>Where is the serene length, it is there and a dark place is not a dark place, only a white and red are black, only a yellow and green are blue, a pink is scarlet, a bow is every color. A line distinguishes it. A line just distinguishes it.</p> "}, {"title": "Sunrise", "view_node": "/poem/sunrise", "field_author": "<a href=\"/poet/lizette-woodworth-reese\" hreflang=\"und\">Lizette Woodworth Reese</a>", "field_date_published": "2015", "body": " <p>The east is yellow as a daffodil.<br />Three steeples\u2014three stark swarthy arms\u2014are thrust<br />Up from the town. The gnarl\u00e8d poplars thrill<br />Down the long street in some keen salty gust\u2014<br />Straight from the sea and all the sailing ships\u2014<br />Turn white, black, white again, with noises sweet<br />And swift. Back to the night the last star slips.<br />High up the air is motionless, a sheet<br />Of light. The east grows yellower apace,<br />And trembles: then, once more, and suddenly,<br />The salt wind blows, and in that moment\u2019s space<br />Flame roofs, and poplar-tops, and steeples three;<br />From out the mist that wraps the river-ways,<br />The little boats, like torches, start ablaze.</p> "}, {"title": "Prayer", "view_node": "/poem/prayer-3", "field_author": "<a href=\"/poet/philip-metres\" hreflang=\"en\">Philip Metres </a>", "field_date_published": "2015", "body": " <p>Wither me to within me:<br />Welt me to weal me common again:<br />Withdraw to wear me weary:<br />Over me to hover and lover again:<br /><br />Before me to form and perform me:<br />Round me to rill me liquid incisions:<br />Behind me to hunt and haunt me:<br />Down me to drown indecision:<br /><br />Bury me to seed me: bloom me<br />In loam me: grind me to meal me<br />Knead me to rise: raise me to your mouth</p><p>Rive me to river me:<br />End me to unmend me:<br />Rend me to render me:<br />\u00a0</p> "}, {"title": "Doors opening, closing on us ", "view_node": "/poem/doors-opening-closing-us", "field_author": "<a href=\"/poet/marge-piercy\" hreflang=\"und\">Marge Piercy</a>", "field_date_published": "2015", "body": "<p><span class=\"long-line\">Maybe there is more of the magical</span><br /><span class=\"long-line\">in the idea of a door than in the door</span><br /><span class=\"long-line\">itself. It\u2019s always a matter of going</span><br /><span class=\"long-line\">through into something else. But</span></p>\n\n<p><span class=\"long-line\">while some doors lead to cathedrals</span><br /><span class=\"long-line\">arching up overhead like stormy skies</span><br /><span class=\"long-line\">and some to sumptuous auditoriums</span><br /><span class=\"long-line\">and some to caves of nuclear monsters</span></p>\n\n<p><span class=\"long-line\">most just yield a bathroom or a closet.</span><br /><span class=\"long-line\">Still, the image of a door is liminal,</span><br /><span class=\"long-line\">passing from one place into another</span><br /><span class=\"long-line\">one state to the other, boundaries</span></p>\n\n<p><span class=\"long-line\">and promises and threats. Inside</span><br /><span class=\"long-line\">to outside, light into dark, dark into</span><br /><span class=\"long-line\">light, cold into warm, known into</span><br /><span class=\"long-line\">strange, safe into terror, wind</span></p>\n\n<p><span class=\"long-line\">into stillness, silence into noise</span><br /><span class=\"long-line\">or music. We slice our life into</span><br /><span class=\"long-line\">segments by rituals, each a door</span><br /><span class=\"long-line\">to a presumed new phase. We see</span></p>\n\n<p><span class=\"long-line\">ourselves progressing from room</span><br /><span class=\"long-line\">to room perhaps dragging our toys</span><br /><span class=\"long-line\">along until the last door opens</span><br /><span class=\"long-line\">and we pass at last into was.</span></p>\n"}, {"title": "Elegy with Apples, Pomegranates, Bees, Butterflies, Thorn Bushes, Oak, Pine, Warblers, Crows, Ants, and Worms", "view_node": "/poem/elegy-apples-pomegranates-bees-butterflies-thorn-bushes-oak-pine-warblers-crows-ants-and-worms", "field_author": "<a href=\"/poet/hayan-charara\" hreflang=\"und\">Hayan Charara</a>", "field_date_published": "2015", "body": "<p><span class=\"long-line\">The trees alongside the fence</span><br /><span class=\"long-line\">bear fruit, the limbs and leaves speeches</span><br /><span class=\"long-line\">to you and me. They promise to give the world</span><br /><span class=\"long-line\">back to itself. The apple apologizes</span><br /><span class=\"long-line\">for those whose hearts bear too much zest</span><br /><span class=\"long-line\">for heaven, the pomegranate</span><br /><span class=\"long-line\">for the change that did not come</span><br /><span class=\"long-line\">soon enough. Every seed is a heart, every heart</span><br /><span class=\"long-line\">a minefield, and the bees and butterflies</span><br /><span class=\"long-line\">swarm the flowers on its grave.</span><br /><span class=\"long-line\">The thorn bushes instruct us</span><br /><span class=\"long-line\">to tell our sons and daughters</span><br /><span class=\"long-line\">who carry sticks and stones</span><br /><span class=\"long-line\">to mend their ways.</span><br /><span class=\"long-line\">The oak tree says to eat</span><br /><span class=\"long-line\">only fruits and vegetables;</span><br /><span class=\"long-line\">the pine says to eat all the stirring things.</span><br /><span class=\"long-line\">My neighbor left long ago and did not hear</span><br /><span class=\"long-line\">any of this. In a big country</span><br /><span class=\"long-line\">the leader warns the leader of a small country</span><br /><span class=\"long-line\">there must be change or else.</span><br /><span class=\"long-line\">Birds are the same way, coming and going,</span><br /><span class=\"long-line\">wobbling thin branches.</span><br /><span class=\"long-line\">The warblers express pain, the crows regret,</span><br /><span class=\"long-line\">or is it the other way around?</span><br /><span class=\"long-line\">The mantra today is the same as yesterday.</span><br /><span class=\"long-line\">We must become different.</span><br /><span class=\"long-line\">The plants must, the animals,</span><br /><span class=\"long-line\">and the ants and worms, just like the carmakers,</span><br /><span class=\"long-line\">the soap makers before them,</span><br /><span class=\"long-line\">and the manufacturers of rubber</span><br /><span class=\"long-line\">and the sellers of tea, tobacco, and salt.</span><br /><span class=\"long-line\">Such an ancient habit, making ourselves new.</span><br /><span class=\"long-line\">My neighbor looks like my mother</span><br /><span class=\"long-line\">who left a long time ago</span><br /><span class=\"long-line\">and did not hear any of this.</span><br /><span class=\"long-line\">Just for a minute, give her back to me,</span><br /><span class=\"long-line\">before she died, kneeling</span><br /><span class=\"long-line\">in the dirt under the sun, calling me darling</span><br /><span class=\"long-line\">in Arabic, which no one has since.</span></p>\n"}, {"title": "Homeport", "view_node": "/poem/homeport", "field_author": "<a href=\"/poet/jehanne-dubrow\" hreflang=\"und\">Jehanne Dubrow</a>", "field_date_published": "2015", "body": " <p>Even on weekends the cruiser\u00a0<br />\u00a0 \u00a0 \u00a0 \u00a0 \u00a0 \u00a0 would shudder, flicker spaces<br />\u00a0 \u00a0 \u00a0 \u00a0 \u00a0 \u00a0 \u00a0 \u00a0 \u00a0 \u00a0 \u00a0 with a redorange blink,</p><p>then a gasket crack or a valve stick shut<br />as if by weather or malicious hands,<br />\u00a0 \u00a0 \u00a0 \u00a0 \u00a0 \u00a0 \u00a0 \u00a0 \u00a0 \u00a0 \u00a0 the engine room home</p><p>\u00a0 \u00a0 \u00a0 \u00a0 \u00a0 \u00a0 of all catastrophe.</p><p>\u00a0 \u00a0 \u00a0 \u00a0 \u00a0 \u00a0 \u00a0 \u00a0 \u00a0 \u00a0 \u00a0 I would stretch and reach<br />across the bed to find furrowed sheets<br />where my husband had slept until 3 a.m.,</p><p>when he answered the captain calling,<br />\u00a0 \u00a0 \u00a0 \u00a0 \u00a0 \u00a0 whose perpetual fury machine<br />was the only system that never broke,</p><p>and my husband would yessir to him<br />who was steamingmad on the ship,<br />before slipping into the chill of coveralls,</p><p>the blueblack uniform of service,<br />\u00a0 \u00a0 \u00a0 \u00a0 \u00a0 \u00a0 which in a certain light<br />\u00a0 \u00a0 \u00a0 \u00a0 \u00a0 \u00a0 \u00a0 \u00a0 \u00a0 \u00a0 \u00a0 had the confining fit of love.</p> "}, {"title": "Long as a Quart of Milk", "view_node": "/poem/long-quart-milk", "field_author": "<a href=\"/poet/kevin-pilkington\" hreflang=\"en\">Kevin Pilkington </a>", "field_date_published": "2015", "body": " <p>Once I undressed a tree,<br />got a splinter in my thumb<br />and decided that was it<br />for one night stands.</p><p>The woman next door who<br />dresses in clothes that make her<br />look like the English countryside<br />keeps yelling at her son<br />about being spoiled.</p><p>I wish I could help him,<br />tell her of course he\u2019s spoiled<br />it\u2019s hot out so she should keep<br />him in a room with the a.c. on.<br />It would keep him fresh longer<br />or at least as long as a quart of milk.</p><p>I rent a small studio in the tenement building<br />next door that looks like Lou Reed.<br />I\u2019ve lived here for awhile and have no plans<br />of moving. There really isn\u2019t any point now<br />that I know this neighborhood so well I can<br />recite any street by heart to anyone<br />who will listen.<br />\u00a0</p> "}, {"title": "Dream, Technidifficult", "view_node": "/poem/dream-technidifficult", "field_author": "<a href=\"/poet/ailish-hopper\" hreflang=\"en\">Ailish Hopper</a>", "field_date_published": "2015", "body": " <p><em>After Martin Luther King, Jr. and P-Funk</em></p><p><br />I want you to follow me through here<br /><em>\u00a0 \u00a0 \u00a0 \u00a0 \u00a0 \u00a0 \u00a0 So wide</em></p><p>They said don\u2019t come there<br /><em>\u00a0 \u00a0 \u00a0 \u00a0 \u00a0 \u00a0 \u00a0 \u00a0 \u00a0 \u00a0 \u00a0 \u00a0 \u00a0 \u00a0 \u00a0You can\u2019t get around it</em><br />But I am here<br /><em>\u00a0 \u00a0 \u00a0 \u00a0 \u00a0 \u00a0 \u00a0 So high</em></p><p>They said there is no here<br /><em>\u00a0 \u00a0 \u00a0 \u00a0 \u00a0 \u00a0 \u00a0 \u00a0 \u00a0 \u00a0 \u00a0 \u00a0 \u00a0 \u00a0 \u00a0You can\u2019t get over it</em><br />But I have been there<br /><em>\u00a0 \u00a0 \u00a0 \u00a0 \u00a0 \u00a0 \u00a0 \u00a0So low</em></p><p>There,</p><p>\u00a0 \u00a0 \u00a0 \u00a0 \u00a0 \u00a0 \u00a0 \u00a0There,\u00a0<br /><em>You can\u2019t get under it</em></p><p>\u00a0 \u00a0 \u00a0 \u00a0 \u00a0 \u00a0 \u00a0 \u00a0I may not get here<br /><em>Our only guide,</em></p><p>\u00a0 \u00a0 \u00a0 \u00a0 \u00a0 \u00a0 \u00a0But look there<br /><em>the groove</em><br />\u00a0 \u00a0 \u00a0 \u00a0 \u00a0 \u00a0 \u00a0 \u00a0 \u00a0 \u00a0 \u00a0 \u00a0 \u00a0 \u00a0Here you are</p> "}, {"title": "Recall the Carousel", "view_node": "/poem/recall-carousel", "field_author": "<a href=\"/poet/laura-kasischke\" hreflang=\"und\">Laura Kasischke</a>", "field_date_published": "2015", "body": " <p>Recall the carousel. Its round and round.<br />Its pink lights blinking off and on.<br />The children\u2019s faces painted garish colors against<br />an institutional wall. And the genetics. The<br /><em>We won\u2019t be here too long\u200a\u200a...\u200a\u200a\u200a\u200aDo not step off\u200a\u200a...</em><br />The carousel? Do you recall? As if<br />we were our own young parents suffering again<br />after so many hundreds of hours of bliss.<br />And even the startling fact that<br />what had always been feared might come to pass:<br />A familiar sweater in a garbage can.<br />A surgeon bent over our baby, wearing a mask.<br />But surely you recall<br />how happily and for how long<br />we watched our pretty hostages go round.<br />They waved at us too many times to count.<br />Their dancing foals. Their lacquered mares. Even<br />a blue-eyed hunting hound<br />was still allowed back then.</p> "}, {"title": "The Evening Star", "view_node": "/poem/evening-star", "field_author": "<a href=\"/poet/henry-wadsworth-longfellow\" hreflang=\"und\">Henry Wadsworth Longfellow</a>", "field_date_published": "2015", "body": "<p><span class=\"long-line\">Lo! in the painted oriel of the West,</span><br /><span class=\"long-line\">Whose panes the sunken sun incarnadines,</span><br /><span class=\"long-line\">Like a fair lady at her casement, shines</span><br /><span class=\"long-line\">The evening star, the star of love and rest!</span><br /><span class=\"long-line\">And then anon she doth herself divest</span><br /><span class=\"long-line\">Of all her radiant garments, and reclines</span><br /><span class=\"long-line\">Behind the sombre screen of yonder pines,</span><br /><span class=\"long-line\">With slumber and soft dreams of love oppressed.</span><br /><span class=\"long-line\">O my beloved, my sweet Hesperus!</span><br /><span class=\"long-line\">My morning and my evening star of love!</span><br /><span class=\"long-line\">My best and gentlest lady! even thus,</span><br /><span class=\"long-line\">As that fair planet in the sky above,</span><br /><span class=\"long-line\">Dost thou retire unto thy rest at night,</span><br /><span class=\"long-line\">And from thy darkened window fades the light.</span></p>\n"}, {"title": "Expleasure", "view_node": "/poem/expleasure", "field_author": "<a href=\"/poet/james-brasfield\" hreflang=\"und\">James Brasfield</a>", "field_date_published": "2015", "body": " <p>\u00a0 \u00a0 \u00a0 \u00a0 \u00a0How time slowed when any thought\u00a0\u00a0\u00a0\u00a0\u00a0<br />\u00a0 \u00a0 \u00a0or apprehension of the next instant<br />\u00a0 \u00a0 \u00a0 \u00a0 \u00a0 \u00a0 \u00a0vanished (no obligation, then or later),</p><p>\u00a0 \u00a0 \u00a0 \u00a0 \u00a0how in that long moment, all at once,<br />\u00a0 \u00a0 \u00a0yet without surprise, how what was close<br />\u00a0 \u00a0 \u00a0 \u00a0 \u00a0 \u00a0 \u00a0was present in a sudden suspense,\u00a0\u00a0\u00a0</p><p>\u00a0 \u00a0 \u00a0 \u00a0 \u00a0as such things rarely exist<br />\u00a0 \u00a0 \u00a0as they did then, each apart from all,<br />\u00a0 \u00a0 \u00a0 \u00a0 \u00a0 \u00a0 \u00a0seen as it might be truly,</p><p>\u00a0 \u00a0 \u00a0 \u00a0 \u00a0and gave way to a pleasure<br />\u00a0 \u00a0 \u00a0that had long been missing,<br />\u00a0 \u00a0 \u00a0 \u00a0 \u00a0 \u00a0 \u00a0to <em>expleasure</em>, as if I were akin</p><p>\u00a0 \u00a0 \u00a0 \u00a0 \u00a0 to the smallest things\u2014ribs<br />\u00a0 \u00a0 \u00a0 of a leaf, penny on a dresser\u2014<br />\u00a0 \u00a0 \u00a0 \u00a0 \u00a0 \u00a0 \u00a0 of a saving stillness, doubtless</p><p>\u00a0 \u00a0 \u00a0 \u00a0 \u00a0 always here, just beyond<br />\u00a0 \u00a0 \u00a0 the scrim of what calls us<br />\u00a0 \u00a0 \u00a0 \u00a0 \u00a0 \u00a0 \u00a0from that silent astonishment,</p><p>\u00a0 \u00a0 \u00a0 \u00a0 \u00a0 \u00a0the more so since the feeling<br />\u00a0 \u00a0 \u00a0 \u00a0dissolves with its presence of detail<br />\u00a0 \u00a0 \u00a0 \u00a0 \u00a0 \u00a0 \u00a0 \u00a0 merging with a distant seeing,</p><p>\u00a0 \u00a0 \u00a0 \u00a0 \u00a0 \u00a0as when I walk through a room<br />\u00a0 \u00a0 \u00a0 \u00a0and nothing is equal there to the calm<br />\u00a0 \u00a0 \u00a0 \u00a0 \u00a0 \u00a0 \u00a0 \u00a0 \u00a0from the simply seen.\u00a0\u00a0\u00a0<br />\u00a0</p> "}, {"title": "Fable", "view_node": "/poem/fable-0", "field_author": "<a href=\"/poet/nicole-callihan\" hreflang=\"en\">Nicole Callihan</a>", "field_date_published": "2015", "body": " <p>Our paper house sat<br />on the banks of the red river</p><p>and though mother<br />wasn\u2019t like other mothers</p><p>I was like other girls<br />trapped and lonely</p><p>and painting pictures<br />in the stars. I was slick</p><p>with old birth or early longing,<br />already halfway between</p><p>who I wanted to be and who I was.<br />Our floors were made of flame</p><p>but there was no wind<br />so we were as safe as anyone.</p><p>When spring came,<br />I walked for a very long time</p><p>up I-35, and at the end of the road,<br />I found a boy who placed earphones</p><p>onto my head and pumped opera<br />into my body. I can feel it still.</p><p>Underneath that treeless sky,<br />I was as changed as I would ever be.</p><p>Not even mother noticed.\u00a0\u00a0\u00a0<br />\u00a0</p> "}, {"title": "Island", "view_node": "/poem/island", "field_author": "<a href=\"/poet/greg-wrenn\" hreflang=\"und\">Greg Wrenn</a>", "field_date_published": "2015", "body": " <p>I took the night train there,<br />never dreaming.<br />To cross the straits<br />my boxcar crept onto a barge\u2014there was screeching,<br />several tremendous thuds,<br />then with a growl<br />we sailed.<br />I was already half-awake,<br />anxious for a volcano, neolithic shrines,<br />islands to explore<br />off the main island\u2026<br />At my stop,<br />early morning\u2019s tarnish<br />fell on a shuttered newspaper stand<br />and torn campaign posters.<br />A child playing near a livestock car<br />sang about a weapon<br />detonated in another nation,<br />another hemisphere.</p><p>From the station<br />and the song,<br />I walked up the mountain road<br />to a garden where grizzly men with camera phones<br />greeted me, sleep still<br />in the corners of their eyes,<br />bougainvillea around their tents.<br />I was to be eternalized<br />and therefore loved.<br />They waxed my nose<br />and powdered my nether regions.<br />After oatmeal and coffee,<br />I was Jupiter\u2019s\u2014<br />his bardash, his<br />Ganymede, ningle, ingle,<br />trug\u2014bracing<br />against a Doric column.</p><p>I felt numb a night later as rosemary blew through the lava<br />\u00a0 \u00a0 \u00a0 fields.</p> "}, {"title": "Holy Cosmos", "view_node": "/poem/holy-cosmos", "field_author": "<a href=\"/poet/nathalie-handal\" hreflang=\"und\">Nathalie Handal</a>", "field_date_published": "2015", "body": " <p>We\u2019ve been told space<br />is like two dark lips colliding</p><p>like science fiction<br />it outlines a small cosmos</p><p>where fear hides in a glow<br />where negative space</p><p>becomes a place for wishing<br />a constellation of hazy tunes</p><p>of faint sharp vowels<br />a glossary of meteors</p><p>a telescope to god<br />a cold bright white</p><p>maybe distance damages us<br />maybe Jupiter</p><p>will suddenly surprise us<br />with a notion of holiness</p><p>but instead an old planet<br />takes over all the space</p><p>and we are reminded<br />of the traces of fire</p><p>in our gaze<br />defining our infidelities</p> "}, {"title": "first green flare", "view_node": "/poem/first-green-flare", "field_author": "<a href=\"/poet/sidney-wade\" hreflang=\"und\">Sidney Wade</a>", "field_date_published": "2015", "body": " <p>makes<br />the air</p><p>quiver<br />and dart</p><p>the throat<br />ache</p><p>to call<br />makes</p><p>the heart<br />cheer</p><p>the ear<br />keen</p><p>to the sheer<br />glorious</p><p>windfall<br />of oriole</p><p>veery<br />vireo</p> "}, {"title": "Economics", "view_node": "/poem/economics", "field_author": "<a href=\"/poet/victoria-redel\" hreflang=\"und\">Victoria Redel</a>", "field_date_published": "2015", "body": " <p>There were strollers, outgrown, circulated till a wheel fell off.</p><p>Anna\u2019s infant RockaRoo went to Francesca then to Sophia</p><p>who gave it back to Anna when she had the twins.</p><p>Travel cribs traveled between homes and the green vest</p><p>Sophia knitted for Ming\u2019s first was worn by all the next babies.</p><p>Onesies, drawstring gowns, snap-legged overalls,</p><p>snowsuits, sweatpants, jeans, t-shirts, jumpers,</p><p>all sorted, washed, boxed then sent on</p><p>till they were sorted, washed, boxed and sent again.</p><p>Pj\u2019s worn to that silkiest perfection, then worn\u00a0</p><p>wholly through, reluctantly tossed. A blue dress</p><p>with applique lilacs was the favorite of each girl</p><p>and who knew where the velvet blazer came from,<br /><br />but it did the job for more than one holiday concert.</p><p>Even this year, a photograph of Francesca\u2019s youngest in<br />\u00a0 \u00a0 \u00a0 Prague,</p><p>handsome in that hand-me-down wool pea coat. Sophia hit<br />\u00a0 \u00a0 \u00a0 <em>reply all</em>:</p><p>Our last? No! Well, fits yours better than it ever did mine.</p> "}, {"title": "Aedh Tells of the Perfect Beauty", "view_node": "/poem/aedh-tells-perfect-beauty", "field_author": "<a href=\"/poet/w-b-yeats\" hreflang=\"und\">W. B. Yeats</a>", "field_date_published": "1899", "body": " <p>O cloud-pale eyelids, dream-dimmed eyes,<br />The poets labouring all their days<br />To build a perfect beauty in rhyme<br />Are overthrown by a woman\u2019s gaze<br />And by the unlabouring brood of the skies:<br />And therefore my heart will bow, when dew<br />Is dropping sleep, until God burn time,<br />Before the unlabouring stars and you.</p> "}, {"title": "Happiness", "view_node": "/poem/happiness-1", "field_author": "<a href=\"/poet/noelle-kocot\" hreflang=\"und\">Noelle Kocot</a>", "field_date_published": "2015", "body": " <p>Our ancestors in the earth are not<br />Ashamed of us. The strong smell<br />Of dirt, the delirious rabbits, the<br />Clocks are all disappearing. A</p><p>Prehistoric gift acquires the smell<br />Of salt. I grasp onto winter\u2019s tail.\u00a0<br />Some water plants are lying around.<br />Smell &amp; taste, I have had good</p><p>Luck in love. The slippery roads,<br />The capricious numbers on a blazing<br />Road, meet me at the forest\u2019s edge<br />Where we can go with our legs</p><p>Lopped off, strangers to the clean<br />Teeth and tongue of outward happiness.<br />\u00a0</p> "}], "pager": {"current_page": 375, "total_items": "13248", "total_pages": 663, "items_per_page": 20}}