{"rows": [{"title": "The Gardener", "view_node": "/poem/gardener", "field_author": "<a href=\"/poet/patricia-hooper\" hreflang=\"en\">Patricia Hooper</a>", "field_date_published": "2017", "body": " <pre>\n\nSince the phlox are dying\nand the daisies with their bright bodies\nhave shattered in the wind,\n\nI go out among these last dancers,\ncutting to the ground the withered asters,\nthe spent stalks of the lilies, the black rose,\n\nand see them as they were in spring, the time\nof eagerness and blossoms, knowing how\nthey will all sleep and return;\n\nand sweep the dry leaves over them and see\nthe cold earth take them back as now\nI know it is taking me\n\nwho have walked so long among them, so amazed,\nso dazzled by their brightness I forgot\ntheir distance, how of all\n\nthe chosen, all the fallen in the garden\nI was different: I alone\ncould not come again to the world.</pre>\n "}, {"title": "The World Book", "view_node": "/poem/world-book", "field_author": "<a href=\"/poet/patricia-hooper\" hreflang=\"en\">Patricia Hooper</a>", "field_date_published": "2017", "body": " <pre>\nWhen the woman in blue serge\nheld up the sun, my mother\nopened the storm door, taking\nthe whole volume of S\ninto her hands. The sun\nshown as a sun should,\nand we sat down at the table\nleafing through silks and ships,\nsaints and subtraction. We passed\nScotland and Spain, street-\ncars and seeds and even\nthe Seven Wonders until\nthe woman who owned them skipped\nto the solar system and said\nit could be ours. My mother\nthought, as I held my breath,\nand while she was writing the check\nfor everything, A through Z,\nI noticed the room with its stove\nand saucers and spoons. I was wearing\na sweater and skirt and shoes\nand there at the window the sun\nwas almost as clear as it was\nin the diagram where its sunspots,\nninety-three million miles\nfrom the earth and only a page\nfrom Sumatra, were swirling. The woman\nstood up, slamming it shut,\nand drove down the street to leave us\nin Saginaw, where I would wait\nfor the world to arrive. And each morning,\nwalking to school, I believed\nin the day it would come, when we\u2019d study\nSweden or stars and I\u2019d stand\nat the head of the classroom and take\nthe words of the world from my satchel,\nexplaining the secrets. </pre>\n "}, {"title": "In the Backyard", "view_node": "/poem/backyard", "field_author": "<a href=\"/poet/patricia-hooper\" hreflang=\"en\">Patricia Hooper</a>", "field_date_published": "2017", "body": " <pre>This morning a hawk plunges\nstraight for the squirrel at my feeder\nand leaves only\nits signature: blood on the snow.\n\nAll morning it circled the yard,\nthen dove, stunning itself\non the glass sky of my window,\n\nand in minutes returned, braving\nthe thin, perilous channel\nbetween hedgerow and house.\nI was watching\nits path as it fell, its persistence,\n\nand the squirrel, how it dashed\nfor the downspout, finding itself\nmotionless under the heat\nof the hawk\u2019s body,\n\nthe claws in its rib cage, the sudden\ntearing of wind as it rose\nover the fence, the feeder,\n\nthe tops of maples and houses.\nAll morning it stays with me, not\nthe squirrel\u2019s terror, the hawk\u2019s\naccuracy, but only\n\nhow it must feel to be lifted\nout of your life, astonished\nat the yard growing smaller, the earth\nwith its snow-covered fields tilting,\nand what must be your shadow\nflying across it, farther\nand farther below.</pre>\n "}, {"title": "Fall Leaves Fall", "view_node": "/poem/fall-leaves-fall", "field_author": "<a href=\"/poet/emily-bronte\" hreflang=\"und\">Emily Bront\u00eb</a>", "field_date_published": "2017", "body": " <div>Fall, leaves, fall; die, flowers, away;\u00a0</div><div>Lengthen night and shorten day;\u00a0</div><div>Every leaf speaks bliss to me,\u00a0</div><div>Fluttering from the autumn tree.\u00a0</div><div>I shall smile when wreaths of snow\u00a0</div><div>Blossom where the rose should grow;\u00a0</div><div>I shall sing when night\u2019s decay\u00a0</div><div>Ushers in a drearier day.</div><div>\u00a0</div> "}, {"title": "The Keeper of Light", "view_node": "/poem/keeper-light", "field_author": "<a href=\"/poet/michele-wolf\" hreflang=\"en\">Michele Wolf</a>", "field_date_published": "2017", "body": " <pre>\n\nThe little one listens but never reveals\nWhat she knows. By day she controls the light\nThat filters across the roofs, through\nTrees, on furrows of plaintive faces.\nShe wakes up alone and unlocks\nCabinets of light, allots the portions\nStrictly, patiently hears requests\nFor additional rays. What a job.\nShe has to be careful. Not long ago,\nIn a moment of passion, she almost\nGave away the whole reserve. Phones\nIncessantly ring. Amazing, someone\nThanks her for light. She has to hang up.\nHer cheeks are ballooning, deflating,\nAs if she were some nervous fish.\nShe scoots in the broom closet, fits\nOn the funnel. Her face is beaming.\nShe targets the freshly erupting supply\nInto a spare metal cashbox, hides it\nUnder newspapers in her desk.\nNo one has noticed. Flushed,\nShe sorts through the mail,\nCoos a wilted sigh. So many tasks,\nYet the barest assistance. \nWhen she leaves, later, again,\nShe will dot the night, star by star.\n</pre>\n "}, {"title": "Astigmatism", "view_node": "/poem/astigmatism-0", "field_author": "<a href=\"/poet/michele-wolf\" hreflang=\"en\">Michele Wolf</a>", "field_date_published": "2017", "body": " <pre>\n\nWhen I held smooth the satin to zip\nUp your wedding dress, frosted with flounces \nAnd pearl-beaded filigree, a rococo\nConfection more sugary than the cake,\nAnd watched as you swiveled slowly to face\nMe\u2014all floaty notes, pure flute\u2014so still\nAs I situated the baby\u2019s breath and the veil,\nHow could I have told you, knowing\nYou\u2019d learn it soon enough, my perfect doll,\nHow fuzzy the world is, how the clearest\nPicture, frill-tipped gladioli in primary\nColors, can dissolve into darkness, how\nThe eye can fool you, presenting a straight\nOr diagonal path when the earth is curved.\n\n\u201cIt can be corrected,\u201d I tell you, a half-truth,\nWhen you call me to say you can no longer\nFocus, nothing is sharp. And I can hear\nHow the light is bent in your voice, the shadows\nBehind what you say, while in my mind\u2019s\nEye you stare at me, blinking, a week old,\nThe day you were placed in my arms,\nAble to distinguish little but two black\nMoons, my eyes dancing in the fog.\nThat this was the most exquisite \nInstance of my childhood never changes.\nNor does the decade between us\nOr the way you looked up at my face\nAfter racing out the front door\nTo greet me eight years later, almost\nToppling me over, ringing my waist.\nTwo sisters, so nearsighted\nThat upon my return to you, before\nI resumed my groping tromp \nThrough the world, you held me like a reference\nPoint, a place you will always find,\nThe sheen of your eyes announcing \nMy bearings as much as your clear\nShout of my name, as your words: <em>\u201cYou\u2019re here.\u201d</em> </pre>\n "}, {"title": "Pocono Lakeside", "view_node": "/poem/pocono-lakeside", "field_author": "<a href=\"/poet/michele-wolf\" hreflang=\"en\">Michele Wolf</a>", "field_date_published": "2017", "body": " <pre>\n\nAs I was guided by the director through the thick space\nOf these rooms, worn sparrow brown, and strode\nWith the August sun on my shoulders across this particular\nAcre of grass, nobody had told me this was the place\nWhere you had summered as a boy. I have weathered\nMy fourth decade, older now than you were \nWhen you died. I can barely remember you, yet I can see \nYou not as my father but as my son. You are age nine.\n<span class=\"long-line\">The downpour divides into two massive stage curtains</span>\t\t\t\nParting. You bolt from the bunk, loudly racing \nWith your chums down the slippery hill to the dock, \nYour cape of a towel flapping as if ready to lift you airborne. \n\nYou are the smallest. Still, you always run in the front.\nYou do not know how beautiful you are, of course, squinting \n<span class=\"long-line\">Against the sun, the flame that escapes behind the gray</span>\t\t\t\t\n<span class=\"long-line\">Vapor for hours, sometimes for days. You cannot see</span>\t\t\t\t\nThat from the beginning it has been eyeing you from afar,\nThat it has focused its golden spotlight just for you.\n</pre>\n "}, {"title": "The Great Tsunami", "view_node": "/poem/great-tsunami", "field_author": "<a href=\"/poet/michele-wolf\" hreflang=\"en\">Michele Wolf</a>", "field_date_published": "2017", "body": " <pre>\nShe recognizes its crest in the way he looks at her.\nThe wave is as vast as the roiling mass in the Japanese\nPrint they had paused in front of at the museum,\nCapped with ringlets of foam, all surging sinew.\nThat little village along the shore would be\nTotally lost. There is no escaping this.\nThe wave is flooding his heart, \nAnd he is sending the flood \nHer way. It rushes \nOver her.\n\nCan you look at one face\nFor the whole of a life?\n\nDoes the moon peer down \nAt the tides and hunger for home?</pre>\n "}, {"title": "Late Bloomer", "view_node": "/poem/late-bloomer", "field_author": "<a href=\"/poet/michele-wolf\" hreflang=\"en\">Michele Wolf</a>", "field_date_published": "2017", "body": " <pre>It flares up at sunrise, a blush in a bramble\nTumbling out of its bed by the city pavement\u2014a single\nRose, coral heat, at the end of the season.\t\t\t\nAnd you are drawn to it, to its scent, its silky\nLayers, to its core. It gathers you into its \nBody until you lose your balance, all you can see\t\nIs a petaled grid, an endless repetition\nOf roses. You sink swirling into the rose,\nDeep into the rose, into the rose.\nI hold you to me. Love, I am forty-four, \nAnd you, love, you, my love,\nYou have planted me.</pre>\n "}, {"title": "In Autumn", "view_node": "/poem/autumn-5", "field_author": "<a href=\"/poet/mark-irwin\" hreflang=\"und\">Mark Irwin</a>", "field_date_published": "2017", "body": " <div>When within ourselves in autumn we feel the autumn</div><div>I become very still, a kind of singing, and try to move</div><div>like all things green, in one direction, when within ourselves</div><div>the autumn moves, thickening like honey, that light we smear</div><div>on faces and hands, then touch the far within one another,</div><div>something like autumn, and I think when those who knew</div><div>the dead, when they fall asleep,<em> then what</em>, then what in autumn</div><div>when I always feel I\u2019m writing in red pencil on a piece</div><div>of paper growing in thickness the way a pumpkin does,</div><div>traveling at fantastic speed toward orange, toward rot, when</div><div>in autumn I remember that we are cold-smitten as I continue</div><div>smearing red on this precipice, this ledge of paper over which</div><div>I lean, trying to touch those I love, their bodies rusting</div><div>as I keep writing, sketching their red hands, faces lusting for green.</div><div>\u00a0</div> "}, {"title": "Wind", "view_node": "/poem/wind-0", "field_author": "<a href=\"/poet/james-arthur\" hreflang=\"und\">James Arthur</a>", "field_date_published": "2017", "body": " <div>\u00a0 \u00a0 \u00a0 \u00a0 \u00a0 \u00a0 \u00a0 it\u2019s true sometimes I cannot</div><div>stop myself from spilling</div><div>\u00a0 \u00a0 \u00a0 \u00a0 \u00a0 \u00a0 \u00a0 the recycling</div><div>\u00a0</div><div>unpetalling apple blossoms raiding</div><div>a picnic</div><div>making off with napkins I\u2019m nothing</div><div>\u00a0 \u00a0 \u00a0 \u00a0 \u00a0 \u00a0 \u00a0 until I happen</div><div>flipping an umbrella outside-in</div><div>\u00a0 \u00a0 \u00a0 \u00a0 \u00a0 \u00a0 \u00a0 \u00a0 \u00a0 \u00a0 \u00a0 throwing its owner</div><div>\u00a0 \u00a0 \u00a0 \u00a0 \u00a0 \u00a0 \u00a0 into a fumble</div><div>pelting the avenue with sleet or dust</div><div>\u00a0</div><div>at times downtown</div><div>\u00a0 \u00a0 \u00a0 \u00a0 \u00a0 \u00a0 \u00a0 riding over galleries of air</div><div>so full of high excitement howling</div><div>I borrow an old woman\u2019s hat</div><div>\u00a0 \u00a0 \u00a0 \u00a0 \u00a0 \u00a0 \u00a0 and fling it into the road</div><div>\u00a0</div><div>arriving with news of the larkspur</div><div>\u00a0 \u00a0 \u00a0 \u00a0 \u00a0 \u00a0 \u00a0 and the bumblebee</div><div>at times embracing you so lightly</div><div>in ways you don\u2019t even register</div><div>\u00a0 \u00a0 \u00a0 \u00a0 \u00a0 \u00a0 \u00a0 as touch</div> "}, {"title": "The Sin of Pride", "view_node": "/poem/sin-pride", "field_author": "<a href=\"/poet/john-koethe\" hreflang=\"und\">John Koethe</a>", "field_date_published": "2017", "body": " <div>turns out not to be a sin at all, but in the guise</div><div>Of self-esteem a virtue; while poetry, an original</div><div>Sin of pride for making self-absorption seem heroic,</div><div>Apologizes again and shuts the door. O Small</div><div>Room of Myself, where everything and nothing fits,</div><div>I wish the night would last forever as the song assures,</div><div>Though it never does. I make my way not knowing</div><div>Where it leads or how it ends\u2014in shocks of recognition,</div><div>In oblivion deferred, too little or too late, consumed</div><div>By fears of the forgotten and of the truly great. Morning</div><div>Brings a newspaper and an ordinary day, the prospect</div><div>Of a popular novel, though it's hard to read. I write to live</div><div>And read to pass the time, yet in the end they're equal,</div><div>And instead of someone else's name the name I hear is mine\u2014</div><div>Which is unsurprising, since our stories all sound alike,</div><div>With nothing to reveal or hide. How thin our books</div><div>Of revelations, the essential poems of everyone</div><div>Mysterious on the outside, but with nothing to conceal\u2014</div><div>Like the stories of experience I go on telling myself</div><div>And sometimes even think are true, true at least to a feeling</div><div>I can't define, though I know what I know: of a mind</div><div>Relentlessly faithful to itself and more or less real.</div> "}, {"title": "The War in Colors", "view_node": "/poem/war-colors", "field_author": "<a href=\"/poet/dunya-mikhail\" hreflang=\"und\">Dunya Mikhail</a>", "field_date_published": "2017", "body": "<p><span class=\"long-line\">The digital map on the wall</span></p>\n\n<p><span class=\"long-line\">displays the American wars</span></p>\n\n<p><span class=\"long-line\">in colors:</span></p>\n\n<p><span class=\"long-line\">Iraq in purple</span></p>\n\n<p><span class=\"long-line\">Syria in yellow</span></p>\n\n<p><span class=\"long-line\">Kuwait in blue</span></p>\n\n<p><span class=\"long-line\">Afghanistan in red</span></p>\n\n<p><span class=\"long-line\">Vietnam in green.</span></p>\n\n<p><span class=\"long-line\">The war</span></p>\n\n<p><span class=\"long-line\">on the map</span></p>\n\n<p><span class=\"long-line\">is beautiful</span></p>\n\n<p><span class=\"long-line\">smart</span></p>\n\n<p><span class=\"long-line\">and colorful.</span></p>\n"}, {"title": "Mistake", "view_node": "/poem/mistake", "field_author": "<a href=\"/poet/heather-christle\" hreflang=\"und\">Heather Christle</a>", "field_date_published": "2017", "body": " <div>For years I have seen</div><div>dead animals on the highway</div><div>\u00a0</div><div>and grieved for them</div><div>only to realize they are</div><div>\u00a0</div><div>not dead animals</div><div>they are t shirts</div><div>\u00a0</div><div>or bits of blown tire</div><div>and I have found</div><div>\u00a0</div><div>myself with this</div><div>excess of grief</div><div>\u00a0</div><div>I have made with</div><div>no object to let</div><div>\u00a0</div><div>it spill over and</div><div>I have not known</div><div>\u00a0</div><div>where to put it or</div><div>keep it and then today</div><div>\u00a0</div><div>I thought <em>I know</em></div><div><em>I can give it to you</em></div><div>\u00a0</div> "}, {"title": "Standing Up in a Slim Boat", "view_node": "/poem/standing-slim-boat", "field_author": "<a href=\"/poet/cathie-sandstrom\" hreflang=\"en\">Cathie Sandstrom</a>", "field_date_published": "2017", "body": " <p style=\"text-align: right;\"><em>after a line by Tomas Transtr\u00f6mer</em></p>\n<pre>\nFreed from not knowing where you are,\nI\u2019ve traded the nagging worry for a shroud.\n\nIn the slim boat of each day, I stand\nwary, look across the still surface.\n\nBalance is all.  The undercurrent, strong.\nNot the peace I hoped for, this calm.</pre>\n<p>\u2003</p> "}, {"title": "Releasing the Birds", "view_node": "/poem/releasing-birds", "field_author": "<a href=\"/poet/cathie-sandstrom\" hreflang=\"en\">Cathie Sandstrom</a>", "field_date_published": "2017", "body": " <pre>\nNext to her embroidered lawn handkerchiefs\nmy mother's empty gloves lay\npaired in the nest of her drawer: \n\nshort white Easter ones that stopped at the wrist; \nnetted crocheted gloves for summer; an ecru pair\nfour inches past her watchband, the backs detailed\n \nwith three rows of stitching raised like fine bones;\nthree-quarter length pigskin to wear under coats; \nblack lace for cocktails, white for weddings;\n\nsexy gloves with gathers up the length so they'd\nlook like they were slouching; the knitted \nBavarians, Loden green, stiff as boiled wool.\n\nMy first prom dress\u2014strapless, floor-length\u2014I wore\nher formal opera gloves.  Pearl buttons on the delicate\nunderside of my wrists, then the white went up and up.\n\nI kept six pairs, my sister took the rest.  Saying\nsomeone should use them, she gave them away\nat work, set them out for the taking.   \n\nTonight, I lay the table with my mother's china. \nAt each place, a pair of gloves palms up, wrists\ntouching in a gesture of receiving and giving.\n\nI held back the gloves she'd bought in Italy: black\nleather, elbow length, the right glove torn at thumb\nand palm as if she'd reached for something too late\n\nor held onto something too long.</pre>\n "}, {"title": "On a Succession of Mornings", "view_node": "/poem/succession-mornings", "field_author": "<a href=\"/poet/cathie-sandstrom\" hreflang=\"en\">Cathie Sandstrom</a>", "field_date_published": "2017", "body": " <pre>\nThe wheelbarrow. \nStakes and string. The rake.\nStacks of paving stones. \nThe foldable workbench. The saw. \nThe man grizzled and gaunt. Plaid\nshirt faded above work pants, \nhis scuffed brown boots.\n\nThe earth bared, rake-leveled\nand pounded flat. Him kneeling, \nsetting the cut pavers into a pattern\nhe starts with a central Moravian star,\na design best seen from above.\n\nWhat I know: that Nature will not wait.\nGreen will push up between the stones.\nThe pavers, laid like pastilles on the tongue, \nwill disappear edges first as if melting, \nto be swallowed invisible. That the man\nwill not live to see this.  That he works \nslowly but steadily, concentrates \non keeping the pattern true.</pre>\n<p>\u2003</p> "}, {"title": "Everything Moving Toward Elegy in This Season of Lost Light", "view_node": "/poem/everything-moving-toward-elegy-season-lost-light", "field_author": "<a href=\"/poet/cathie-sandstrom\" hreflang=\"en\">Cathie Sandstrom</a>", "field_date_published": "2017", "body": " <p style=\"text-align: right;\"><em>with a line from Ciaran Berry</em></p>\n<pre>\n                  \nTime to call out\nthe skirling ghosts, to count like beads\non an abacus, your disappointments.\n\nThis day began with my order\n<em>Do Not Resuscitate\n</em>accepted crisply over the phone.\n\nNow I also move toward elegy,\nask your forgiveness for trying\nto interrupt your dying.\n\nHere at your bedside I will build\na longboat. Lay as keel, your birth.\nSculpt the ribs, fit the strakes\n\nfrom what came later. Caulk with\nimages\u2014the child you were, the boy.\nThen lay the man you are \n\non folded sails; loose the mooring\nand release you to your fathers.\nPolaris bright above to steer you home.\n\u2003\n</pre>\n "}, {"title": "Venison", "view_node": "/poem/venison", "field_author": "<a href=\"/poet/leah-naomi-green\" hreflang=\"en\">Leah Naomi Green</a>", "field_date_published": "2017", "body": " <pre>\nThe deer is still alive\nin the roadside grass.\nIn an hour, we'll cut her open, \nher left hip broken, the bone \nin her dark body; now the white Camaro \nshocked in the night and the boy\n\nwet-faced in the back seat, \nhis parents at a loss \nby the hood, too young \nto have meant any of it: the giving \nor taking.  They are glad \nfor our headlights, glad for our rifle. \n\nHer head still on, she hangs \noutside our kitchen window \nfor the blood to drip, skin\npulled down like a shirt.\n\nI watch my husband undress her \nwith a knife.  I wash the blue plates. \nWhen I turn the water off, I can hear\nhis blade unmoor muscle, sail \nthrough her fascia. \n\nWe put her leg and buttock \non the wooden table, where we \nwill gather her between us \nto eat all year.  It is all I ever see:\na thing, alive, slowly becoming my own body.\n</pre>\n "}, {"title": "In Cleaning", "view_node": "/poem/cleaning", "field_author": "<a href=\"/poet/leah-naomi-green\" hreflang=\"en\">Leah Naomi Green</a>", "field_date_published": "2017", "body": " <pre>\nthe room where I want to rest,\nI find my hands and am able \n\nagain to see you\u2014\nclear eyed where we left one another\u2014\n\nlast year in the passenger\u2019s seat,\nhaving woken after Colorado, which was beautiful\n\nand which I did not wake you for, \nwanting all the aspens, \n\nall the golden, quaking aspens, and their silence\nfor myself.\n</pre>\n "}], "pager": {"current_page": 291, "total_items": "13248", "total_pages": 663, "items_per_page": 20}}