{"rows": [{"poets": "A. E. Housman", "field_dob": "1859", "field_dod": "1936", "field_school_movement": "Poets of World War I", "view_node": "/poet/e-housman", "field_state": ""}, {"poets": "Oliver Wendell Holmes", "field_dob": "", "field_dod": "", "field_school_movement": "Fireside Poet", "view_node": "/poet/oliver-wendell-holmes", "field_state": ""}, {"poets": "Richard Eberhart", "field_dob": "1904", "field_dod": "2005", "field_school_movement": "Confessional Poetry", "view_node": "/poet/richard-eberhart", "field_state": "New Hampshire"}, {"poets": "David Diop", "field_dob": "1927", "field_dod": "1960", "field_school_movement": "N\u00e9gritude", "view_node": "/poet/david-diop", "field_state": ""}, {"poets": "William Carpenter", "field_dob": "", "field_dod": "", "field_school_movement": "", "view_node": "/poet/william-carpenter", "field_state": ""}, {"poets": "Hilaire Belloc", "field_dob": "1870", "field_dod": "1953", "field_school_movement": "Poets of World War I", "view_node": "/poet/hilaire-belloc", "field_state": ""}, {"poets": "Stephen Vincent Ben\u00e9t", "field_dob": "1898", "field_dod": "1943", "field_school_movement": "", "view_node": "/poet/stephen-vincent-benet", "field_state": ""}, {"poets": "Elanor Farjeon", "field_dob": "", "field_dod": "", "field_school_movement": "", "view_node": "/poet/elanor-farjeon", "field_state": ""}, {"poets": "Ron Padgett", "field_dob": "1942", "field_dod": "", "field_school_movement": "New York School", "view_node": "/poet/ron-padgett", "field_state": "New York"}, {"poets": "Owen Barfield", "field_dob": "", "field_dod": "", "field_school_movement": "", "view_node": "/poet/owen-barfield", "field_state": ""}, {"poets": "Russell Edson", "field_dob": "", "field_dod": "", "field_school_movement": "", "view_node": "/poet/russell-edson", "field_state": ""}, {"poets": "Charles Baudelaire", "field_dob": "1821", "field_dod": "1867", "field_school_movement": "Surrealism, Symbolists", "view_node": "/poet/charles-baudelaire", "field_state": ""}, {"poets": "William Cowper", "field_dob": "1731", "field_dod": "1800", "field_school_movement": "", "view_node": "/poet/william-cowper", "field_state": ""}, {"poets": "Gaius Valerius Catullus", "field_dob": "", "field_dod": "", "field_school_movement": "", "view_node": "/poet/gaius-valerius-catullus", "field_state": ""}, {"poets": "John Koethe", "field_dob": "1945", "field_dod": "", "field_school_movement": "", "view_node": "/poet/john-koethe", "field_state": "Wisconsin"}, {"poets": "Henry David Thoreau", "field_dob": "1817", "field_dod": "1862", "field_school_movement": "", "view_node": "/poet/henry-david-thoreau", "field_state": "Massachusetts"}, {"poets": "Debora Greger", "field_dob": "1949", "field_dod": "", "field_school_movement": "", "view_node": "/poet/debora-greger", "field_state": ""}, {"poets": "Ann Lauterbach", "field_dob": "", "field_dod": "", "field_school_movement": "", "view_node": "/poet/ann-lauterbach", "field_state": "New York"}, {"poets": "Alison Lurie", "field_dob": "", "field_dod": "", "field_school_movement": "", "view_node": "/poet/alison-lurie", "field_state": ""}, {"poets": "Phillis Levin", "field_dob": "", "field_dod": "", "field_school_movement": "", "view_node": "/poet/phillis-levin", "field_state": "New York"}], "pager": {"current_page": 171, "total_items": "3766", "total_pages": 189, "items_per_page": 20}}