{"rows": [{"poets": "Alan Gilbert", "field_dob": "", "field_dod": "", "field_school_movement": "", "view_node": "/poet/alan-gilbert", "field_state": ""}, {"poets": "Jason Reynolds", "field_dob": "", "field_dod": "", "field_school_movement": "", "view_node": "/poet/jason-reynolds", "field_state": ""}, {"poets": "David Welch", "field_dob": "", "field_dod": "", "field_school_movement": "", "view_node": "/poet/david-welch", "field_state": ""}, {"poets": "Emily Hunerwadel", "field_dob": "", "field_dod": "", "field_school_movement": "", "view_node": "/poet/emily-hunerwadel", "field_state": ""}, {"poets": "Rae Gouirand", "field_dob": "", "field_dod": "", "field_school_movement": "", "view_node": "/poet/rae-gouirand", "field_state": ""}, {"poets": "Rodney Gomez", "field_dob": "", "field_dod": "", "field_school_movement": "", "view_node": "/poet/rodney-gomez", "field_state": "Texas"}, {"poets": "Eloisa Amezcua", "field_dob": "", "field_dod": "", "field_school_movement": "", "view_node": "/poet/eloisa-amezcua", "field_state": ""}, {"poets": "Kendra DeColo", "field_dob": "", "field_dod": "", "field_school_movement": "", "view_node": "/poet/kendra-decolo", "field_state": ""}, {"poets": "Jes\u00fas Castillo", "field_dob": "", "field_dod": "", "field_school_movement": "", "view_node": "/poet/jesus-castillo", "field_state": ""}, {"poets": "Jean Starr Untermeyer", "field_dob": "", "field_dod": "", "field_school_movement": "", "view_node": "/poet/jean-starr-untermeyer", "field_state": ""}, {"poets": "Gabriel Jesiolowski", "field_dob": "", "field_dod": "", "field_school_movement": "", "view_node": "/poet/gabriel-jesiolowski", "field_state": ""}, {"poets": "Vandana Khanna", "field_dob": "", "field_dod": "", "field_school_movement": "", "view_node": "/poet/vandana-khanna", "field_state": ""}, {"poets": "James Harms", "field_dob": "", "field_dod": "", "field_school_movement": "", "view_node": "/poet/james-harms", "field_state": ""}, {"poets": "Robert Gibb", "field_dob": "1946", "field_dod": "", "field_school_movement": "", "view_node": "/poet/robert-gibb", "field_state": ""}, {"poets": "Peggy Shumaker", "field_dob": "", "field_dod": "", "field_school_movement": "", "view_node": "/poet/peggy-shumaker", "field_state": ""}, {"poets": "Rachel Richardson", "field_dob": "", "field_dod": "", "field_school_movement": "", "view_node": "/poet/rachel-richardson", "field_state": ""}, {"poets": "Jerika Marchan", "field_dob": "", "field_dod": "", "field_school_movement": "", "view_node": "/poet/jerika-marchan", "field_state": ""}, {"poets": "Paola Cap\u00f3-Garc\u00eda", "field_dob": "", "field_dod": "", "field_school_movement": "", "view_node": "/poet/paola-capo-garcia", "field_state": ""}, {"poets": "Jason Sommer", "field_dob": "", "field_dod": "", "field_school_movement": "", "view_node": "/poet/jason-sommer", "field_state": ""}, {"poets": "J. Allyn Rosser", "field_dob": "", "field_dod": "", "field_school_movement": "", "view_node": "/poet/j-allyn-rosser", "field_state": ""}], "pager": {"current_page": 50, "total_items": "3766", "total_pages": 189, "items_per_page": 20}}