{"rows": [{"poets": "Brandon Brown ", "field_dob": "", "field_dod": "", "field_school_movement": "", "view_node": "/poet/brandon-brown", "field_state": ""}, {"poets": "Amber Tamblyn", "field_dob": "", "field_dod": "", "field_school_movement": "", "view_node": "/poet/amber-tamblyn", "field_state": ""}, {"poets": "Ansel  Elkins ", "field_dob": "", "field_dod": "", "field_school_movement": "", "view_node": "/poet/ansel-elkins", "field_state": ""}, {"poets": "Todd  Colby", "field_dob": "", "field_dod": "", "field_school_movement": "", "view_node": "/poet/todd-colby", "field_state": ""}, {"poets": "Matthew  Burgess", "field_dob": "", "field_dod": "", "field_school_movement": "", "view_node": "/poet/matthew-burgess", "field_state": ""}, {"poets": "Tarfia  Faizullah", "field_dob": "", "field_dod": "", "field_school_movement": "", "view_node": "/poet/tarfia-faizullah", "field_state": ""}, {"poets": "Metta  S\u00e1ma", "field_dob": "", "field_dod": "", "field_school_movement": "", "view_node": "/poet/metta-sama", "field_state": ""}, {"poets": "Yona Harvey", "field_dob": "", "field_dod": "", "field_school_movement": "", "view_node": "/poet/yona-harvey", "field_state": ""}, {"poets": "Edward Rowland  Sill", "field_dob": "", "field_dod": "", "field_school_movement": "", "view_node": "/poet/edward-rowland-sill", "field_state": ""}, {"poets": "Jeffrey  Brown", "field_dob": "", "field_dod": "", "field_school_movement": "", "view_node": "/poet/jeffrey-brown", "field_state": ""}, {"poets": "Richie  Hofmann", "field_dob": "", "field_dod": "", "field_school_movement": "", "view_node": "/poet/richie-hofmann", "field_state": ""}, {"poets": "Emily  Chubbuck Judson", "field_dob": "", "field_dod": "", "field_school_movement": "", "view_node": "/poet/emily-chubbuck-judson", "field_state": ""}, {"poets": "Rick Barot ", "field_dob": "", "field_dod": "", "field_school_movement": "", "view_node": "/poet/rick-barot", "field_state": ""}, {"poets": "Jonathan Swift", "field_dob": "1667", "field_dod": "1745", "field_school_movement": "Augustan", "view_node": "/poet/jonathan-swift", "field_state": ""}, {"poets": "Gary Margolis", "field_dob": "", "field_dod": "", "field_school_movement": "Contemporary", "view_node": "/poet/gary-margolis", "field_state": "Vermont"}, {"poets": "Tom\u00e1s Q. Mor\u00edn", "field_dob": "", "field_dod": "", "field_school_movement": "", "view_node": "/poet/tomas-q-morin", "field_state": ""}, {"poets": "Caki  Wilkinson", "field_dob": "", "field_dod": "", "field_school_movement": "", "view_node": "/poet/caki-wilkinson", "field_state": ""}, {"poets": "Thomas  Dooley", "field_dob": "", "field_dod": "", "field_school_movement": "", "view_node": "/poet/thomas-dooley", "field_state": ""}, {"poets": "Carrie Olivia  Adams", "field_dob": "", "field_dod": "", "field_school_movement": "", "view_node": "/poet/carrie-olivia-adams", "field_state": ""}, {"poets": "R. A.  Villanueva", "field_dob": "", "field_dod": "", "field_school_movement": "", "view_node": "/poet/r-villanueva", "field_state": ""}], "pager": {"current_page": 77, "total_items": "3766", "total_pages": 189, "items_per_page": 20}}