{"rows": [{"poets": "Michael Robins", "field_dob": "", "field_dod": "", "field_school_movement": "", "view_node": "/poet/michael-robins", "field_state": ""}, {"poets": "Sandra Santana", "field_dob": "", "field_dod": "", "field_school_movement": "", "view_node": "/poet/sandra-santana", "field_state": ""}, {"poets": "Michelle Taransky", "field_dob": "", "field_dod": "", "field_school_movement": "", "view_node": "/poet/michelle-taransky", "field_state": ""}, {"poets": "Camille T. Dungy", "field_dob": "1972", "field_dod": "", "field_school_movement": "Contemporary", "view_node": "/poet/camille-t-dungy", "field_state": "Colorado"}, {"poets": "Natalie Lyalin", "field_dob": "", "field_dod": "", "field_school_movement": "", "view_node": "/poet/natalie-lyalin", "field_state": ""}, {"poets": "Ed Roberson", "field_dob": "", "field_dod": "", "field_school_movement": "", "view_node": "/poet/ed-roberson", "field_state": ""}, {"poets": "Matthea Harvey", "field_dob": "1973", "field_dod": "", "field_school_movement": "Contemporary", "view_node": "/poet/matthea-harvey", "field_state": "New York"}, {"poets": "Patricia Spears Jones", "field_dob": "", "field_dod": "", "field_school_movement": "", "view_node": "/poet/patricia-spears-jones", "field_state": "New York"}, {"poets": "Timothy Donnelly", "field_dob": "1969", "field_dod": "", "field_school_movement": "Contemporary", "view_node": "/poet/timothy-donnelly", "field_state": "New York"}, {"poets": "Emily Kendal Frey", "field_dob": "", "field_dod": "", "field_school_movement": "", "view_node": "/poet/emily-kendal-frey", "field_state": ""}, {"poets": "April Lindner", "field_dob": "", "field_dod": "", "field_school_movement": "", "view_node": "/poet/april-lindner", "field_state": ""}, {"poets": "Heidi Lynn Staples", "field_dob": "1971", "field_dod": "", "field_school_movement": "", "view_node": "/poet/heidi-lynn-staples", "field_state": ""}, {"poets": "Janet Holmes", "field_dob": "", "field_dod": "", "field_school_movement": "", "view_node": "/poet/janet-holmes", "field_state": ""}, {"poets": "Vladimir Mayakovsky", "field_dob": "1893", "field_dod": "1930", "field_school_movement": "Futurism", "view_node": "/poet/vladimir-mayakovsky", "field_state": ""}, {"poets": "Matthew Henriksen", "field_dob": "", "field_dod": "", "field_school_movement": "", "view_node": "/poet/matthew-henriksen", "field_state": ""}, {"poets": "Tina Brown Celona", "field_dob": "", "field_dod": "", "field_school_movement": "", "view_node": "/poet/tina-brown-celona", "field_state": ""}, {"poets": "Heather Christle", "field_dob": "", "field_dod": "", "field_school_movement": "", "view_node": "/poet/heather-christle", "field_state": "Georgia"}, {"poets": "Queen Elizabeth I", "field_dob": "", "field_dod": "", "field_school_movement": "", "view_node": "/poet/queen-elizabeth-i", "field_state": ""}, {"poets": "Jen Tynes", "field_dob": "", "field_dod": "", "field_school_movement": "", "view_node": "/poet/jen-tynes", "field_state": ""}, {"poets": "Anne Marie Macari", "field_dob": "", "field_dod": "", "field_school_movement": "", "view_node": "/poet/anne-marie-macari", "field_state": ""}], "pager": {"current_page": 104, "total_items": "3766", "total_pages": 189, "items_per_page": 20}}