{"rows": [{"poets": "Nickole Brown", "field_dob": "", "field_dod": "", "field_school_movement": "", "view_node": "/poet/nickole-brown", "field_state": ""}, {"poets": "Aaron Shurin", "field_dob": "", "field_dod": "", "field_school_movement": "", "view_node": "/poet/aaron-shurin", "field_state": ""}, {"poets": "Micah  Ballard", "field_dob": "", "field_dod": "", "field_school_movement": "", "view_node": "/poet/micah-ballard", "field_state": ""}, {"poets": "Jim Moore", "field_dob": "1943", "field_dod": "", "field_school_movement": "Contemporary", "view_node": "/poet/jim-moore", "field_state": "Minnesota"}, {"poets": "Jennifer  Grotz", "field_dob": "", "field_dod": "", "field_school_movement": "", "view_node": "/poet/jennifer-grotz", "field_state": ""}, {"poets": "Macgregor Card", "field_dob": "", "field_dod": "", "field_school_movement": "", "view_node": "/poet/macgregor-card", "field_state": ""}, {"poets": "Christopher  Kennedy", "field_dob": "", "field_dod": "", "field_school_movement": "", "view_node": "/poet/christopher-kennedy", "field_state": ""}, {"poets": "Sean Thomas Dougherty", "field_dob": "", "field_dod": "", "field_school_movement": "", "view_node": "/poet/sean-thomas-dougherty", "field_state": ""}, {"poets": "Nikola  Madzirov", "field_dob": "", "field_dod": "", "field_school_movement": "", "view_node": "/poet/nikola-madzirov", "field_state": ""}, {"poets": "Ale\u0161 \u0160teger", "field_dob": "", "field_dod": "", "field_school_movement": "", "view_node": "/poet/ales-steger", "field_state": ""}, {"poets": "Deborah  Brown", "field_dob": "", "field_dod": "", "field_school_movement": "", "view_node": "/poet/deborah-brown", "field_state": ""}, {"poets": "Monica Ferrell", "field_dob": "", "field_dod": "", "field_school_movement": "", "view_node": "/poet/monica-ferrell", "field_state": "New York"}, {"poets": "Hughes Mearns", "field_dob": "", "field_dod": "", "field_school_movement": "", "view_node": "/poet/hughes-mearns", "field_state": ""}, {"poets": "Leigh Hunt", "field_dob": "", "field_dod": "", "field_school_movement": "", "view_node": "/poet/leigh-hunt", "field_state": ""}, {"poets": "Shin Yu Pai", "field_dob": "", "field_dod": "", "field_school_movement": "", "view_node": "/poet/shin-yu-pai", "field_state": ""}, {"poets": "Louise Morgan  Sill", "field_dob": "", "field_dod": "", "field_school_movement": "", "view_node": "/poet/louise-morgan-sill", "field_state": ""}, {"poets": "Holly Iglesias", "field_dob": "", "field_dod": "", "field_school_movement": "", "view_node": "/poet/holly-iglesias", "field_state": ""}, {"poets": "Evie Shockley", "field_dob": "", "field_dod": "", "field_school_movement": "Contemporary", "view_node": "/poet/evie-shockley", "field_state": "North Carolina"}, {"poets": "Mathias  Svalina", "field_dob": "", "field_dod": "", "field_school_movement": "", "view_node": "/poet/mathias-svalina", "field_state": ""}, {"poets": "James L. White", "field_dob": "", "field_dod": "1981", "field_school_movement": "", "view_node": "/poet/james-l-white", "field_state": "Minnesota"}], "pager": {"current_page": 110, "total_items": "3766", "total_pages": 189, "items_per_page": 20}}