{"rows": [{"poets": "Diane Wakoski", "field_dob": "1937", "field_dod": "", "field_school_movement": "Imagism", "view_node": "/poet/diane-wakoski", "field_state": "Michigan"}, {"poets": "Edwin Arlington Robinson", "field_dob": "1869", "field_dod": "1935", "field_school_movement": "", "view_node": "/poet/edwin-arlington-robinson", "field_state": "New York"}, {"poets": "Major Jackson", "field_dob": "1968", "field_dod": "", "field_school_movement": "Dark Room Collective", "view_node": "/poet/major-jackson", "field_state": "Vermont"}, {"poets": "Bill Sherman", "field_dob": "1940", "field_dod": "", "field_school_movement": "", "view_node": "/poet/bill-sherman", "field_state": "Pennsylvania"}, {"poets": "Marvin Bell", "field_dob": "1937", "field_dod": "2020", "field_school_movement": "Jazz Poetry", "view_node": "/poet/marvin-bell", "field_state": "Iowa"}, {"poets": "Stephen Dunn", "field_dob": "1939", "field_dod": "2021", "field_school_movement": "Contemporary", "view_node": "/poet/stephen-dunn", "field_state": "New Jersey"}, {"poets": "Michael Ryan", "field_dob": "", "field_dod": "", "field_school_movement": "Symbolists", "view_node": "/poet/michael-ryan", "field_state": ""}, {"poets": "Larry Levis", "field_dob": "1946", "field_dod": "1996", "field_school_movement": "", "view_node": "/poet/larry-levis", "field_state": "Utah"}, {"poets": "Susan Gubernat", "field_dob": "", "field_dod": "", "field_school_movement": "", "view_node": "/poet/susan-gubernat", "field_state": "New York"}, {"poets": "Julie Suk", "field_dob": "", "field_dod": "", "field_school_movement": "", "view_node": "/poet/julie-suk", "field_state": "North Carolina"}, {"poets": "Joshua Beckman", "field_dob": "", "field_dod": "", "field_school_movement": "Contemporary", "view_node": "/poet/joshua-beckman", "field_state": "California"}, {"poets": "Gjertrud Schnackenberg", "field_dob": "", "field_dod": "", "field_school_movement": "", "view_node": "/poet/gjertrud-schnackenberg", "field_state": ""}, {"poets": "R. T. Smith", "field_dob": "", "field_dod": "", "field_school_movement": "Contemporary", "view_node": "/poet/r-t-smith", "field_state": "Virginia"}, {"poets": "Liam Rector", "field_dob": "1949", "field_dod": "2007", "field_school_movement": "", "view_node": "/poet/liam-rector", "field_state": "Massachusetts"}, {"poets": "Michael Ondaatje", "field_dob": "1943", "field_dod": "", "field_school_movement": "", "view_node": "/poet/michael-ondaatje", "field_state": ""}, {"poets": "Elaine Terranova", "field_dob": "", "field_dod": "", "field_school_movement": "", "view_node": "/poet/elaine-terranova", "field_state": ""}, {"poets": "Mary Ruefle", "field_dob": "1952", "field_dod": "", "field_school_movement": "Contemporary", "view_node": "/poet/mary-ruefle", "field_state": "Vermont"}, {"poets": "David Young", "field_dob": "", "field_dod": "", "field_school_movement": "", "view_node": "/poet/david-young", "field_state": "Ohio"}, {"poets": "William Jay Smith", "field_dob": "1918", "field_dod": "2015", "field_school_movement": "Contemporary", "view_node": "/poet/william-jay-smith", "field_state": "Massachusetts"}, {"poets": "Reetika Vazirani", "field_dob": "1962", "field_dod": "2003", "field_school_movement": "", "view_node": "/poet/reetika-vazirani", "field_state": "Virginia"}], "pager": {"current_page": 180, "total_items": "3766", "total_pages": 189, "items_per_page": 20}}