{"rows": [{"poets": "Lauren Russell", "field_dob": "", "field_dod": "", "field_school_movement": "", "view_node": "/poet/lauren-russell", "field_state": ""}, {"poets": "Gala Mukomolova", "field_dob": "", "field_dod": "", "field_school_movement": "", "view_node": "/poet/gala-mukomolova", "field_state": ""}, {"poets": "Tyree Daye", "field_dob": "", "field_dod": "", "field_school_movement": "", "view_node": "/poet/tyree-daye", "field_state": ""}, {"poets": "Jennifer Hayashida", "field_dob": "", "field_dod": "", "field_school_movement": "", "view_node": "/poet/jennifer-hayashida", "field_state": ""}, {"poets": "Liu Xia", "field_dob": "", "field_dod": "", "field_school_movement": "", "view_node": "/poet/liu-xia", "field_state": ""}, {"poets": "Art Zilleruelo", "field_dob": "", "field_dod": "", "field_school_movement": "", "view_node": "/poet/art-zilleruelo", "field_state": ""}, {"poets": "Cait Weiss Orcutt", "field_dob": "", "field_dod": "", "field_school_movement": "", "view_node": "/poet/cait-weiss-orcutt", "field_state": ""}, {"poets": "Alix Anne Shaw", "field_dob": "", "field_dod": "", "field_school_movement": "", "view_node": "/poet/alix-anne-shaw", "field_state": ""}, {"poets": "Alison Powell", "field_dob": "", "field_dod": "", "field_school_movement": "", "view_node": "/poet/alison-powell", "field_state": ""}, {"poets": "Lucian Mattison", "field_dob": "", "field_dod": "", "field_school_movement": "", "view_node": "/poet/lucian-mattison", "field_state": ""}, {"poets": "Douglas S. Jones", "field_dob": "", "field_dod": "", "field_school_movement": "", "view_node": "/poet/douglas-s-jones", "field_state": ""}, {"poets": "Chelsea Dingman", "field_dob": "", "field_dod": "", "field_school_movement": "", "view_node": "/poet/chelsea-dingman", "field_state": ""}, {"poets": "Diego Alfaro Palma", "field_dob": "", "field_dod": "", "field_school_movement": "", "view_node": "/poet/diego-alfaro-palma", "field_state": ""}, {"poets": "Christopher Soto", "field_dob": "", "field_dod": "", "field_school_movement": "", "view_node": "/poet/christopher-soto", "field_state": "Florida"}, {"poets": "Marwa Helal", "field_dob": "", "field_dod": "", "field_school_movement": "", "view_node": "/poet/marwa-helal", "field_state": ""}, {"poets": "Alessandra Lynch", "field_dob": "", "field_dod": "", "field_school_movement": "", "view_node": "/poet/alessandra-lynch", "field_state": ""}, {"poets": "Anna Seward", "field_dob": "1747", "field_dod": "1809", "field_school_movement": "", "view_node": "/poet/anna-seward", "field_state": ""}, {"poets": "Jos Charles", "field_dob": "", "field_dod": "", "field_school_movement": "", "view_node": "/poet/jos-charles", "field_state": ""}, {"poets": "Ellen Welcker", "field_dob": "", "field_dod": "", "field_school_movement": "", "view_node": "/poet/ellen-welcker", "field_state": ""}, {"poets": "Cortney Lamar Charleston", "field_dob": "", "field_dod": "", "field_school_movement": "", "view_node": "/poet/cortney-lamar-charleston", "field_state": ""}], "pager": {"current_page": 54, "total_items": "3766", "total_pages": 189, "items_per_page": 20}}