{"rows": [{"poets": "James O&#039;Hern", "field_dob": "1933", "field_dod": "", "field_school_movement": "", "view_node": "/poet/james-ohern", "field_state": ""}, {"poets": "Edgar Gabriel Silex", "field_dob": "", "field_dod": "", "field_school_movement": "", "view_node": "/poet/edgar-gabriel-silex", "field_state": ""}, {"poets": "Ishmael Ait Djafer", "field_dob": "", "field_dod": "", "field_school_movement": "", "view_node": "/poet/ishmael-ait-djafer", "field_state": ""}, {"poets": "John Allman", "field_dob": "", "field_dod": "", "field_school_movement": "", "view_node": "/poet/john-allman", "field_state": ""}, {"poets": "Muriel Spark", "field_dob": "", "field_dod": "", "field_school_movement": "", "view_node": "/poet/muriel-spark", "field_state": ""}, {"poets": "Jonah Winter", "field_dob": "", "field_dod": "", "field_school_movement": "", "view_node": "/poet/jonah-winter", "field_state": ""}, {"poets": "Rae Armantrout", "field_dob": "1947", "field_dod": "", "field_school_movement": "Language Poetry", "view_node": "/poet/rae-armantrout", "field_state": "California"}, {"poets": "D. A. Powell", "field_dob": "1963", "field_dod": "", "field_school_movement": "Contemporary", "view_node": "/poet/d-powell", "field_state": ""}, {"poets": "Andrew Zawacki", "field_dob": "", "field_dod": "", "field_school_movement": "", "view_node": "/poet/andrew-zawacki", "field_state": ""}, {"poets": "Anzhelina Polonskaya", "field_dob": "", "field_dod": "", "field_school_movement": "", "view_node": "/poet/anzhelina-polonskaya", "field_state": ""}, {"poets": "Dave Etter", "field_dob": "", "field_dod": "", "field_school_movement": "", "view_node": "/poet/dave-etter", "field_state": ""}, {"poets": "Emily Fragos", "field_dob": "", "field_dod": "", "field_school_movement": "", "view_node": "/poet/emily-fragos", "field_state": "New York"}, {"poets": "Jesse Ball", "field_dob": "", "field_dod": "", "field_school_movement": "", "view_node": "/poet/jesse-ball", "field_state": ""}, {"poets": "Peter Everwine", "field_dob": "", "field_dod": "", "field_school_movement": "", "view_node": "/poet/peter-everwine", "field_state": "California"}, {"poets": "Bob Hicok", "field_dob": "", "field_dod": "", "field_school_movement": "", "view_node": "/poet/bob-hicok", "field_state": "Virginia"}, {"poets": "Jesse Lee Kercheval", "field_dob": "", "field_dod": "", "field_school_movement": "", "view_node": "/poet/jesse-lee-kercheval", "field_state": "Wisconsin"}, {"poets": "Mark Cox", "field_dob": "", "field_dod": "", "field_school_movement": "", "view_node": "/poet/mark-cox", "field_state": ""}, {"poets": "Nancy Mairs", "field_dob": "", "field_dod": "", "field_school_movement": "", "view_node": "/poet/nancy-mairs", "field_state": ""}, {"poets": "George Moses Horton", "field_dob": "", "field_dod": "", "field_school_movement": "", "view_node": "/poet/george-moses-horton", "field_state": "North Carolina"}, {"poets": "James Schuyler", "field_dob": "1923", "field_dod": "1991", "field_school_movement": "New York School", "view_node": "/poet/james-schuyler", "field_state": "New York"}], "pager": {"current_page": 150, "total_items": "3766", "total_pages": 189, "items_per_page": 20}}