{"rows": [{"poets": "Matthew Olzmann", "field_dob": "", "field_dod": "", "field_school_movement": "", "view_node": "/poet/matthew-olzmann", "field_state": ""}, {"poets": "Dean Rader", "field_dob": "", "field_dod": "", "field_school_movement": "", "view_node": "/poet/dean-rader", "field_state": ""}, {"poets": "Tara Betts", "field_dob": "", "field_dod": "", "field_school_movement": "", "view_node": "/poet/tara-betts", "field_state": ""}, {"poets": "Jan Freeman", "field_dob": "", "field_dod": "", "field_school_movement": "", "view_node": "/poet/jan-freeman", "field_state": ""}, {"poets": "Derrick Austin", "field_dob": "", "field_dod": "", "field_school_movement": "", "view_node": "/poet/derrick-austin", "field_state": ""}, {"poets": "Rebecca Okrent", "field_dob": "", "field_dod": "", "field_school_movement": "", "view_node": "/poet/rebecca-okrent", "field_state": ""}, {"poets": "Kerry James  Evans", "field_dob": "", "field_dod": "", "field_school_movement": "", "view_node": "/poet/kerry-james-evans", "field_state": ""}, {"poets": "Martha Rhodes ", "field_dob": "", "field_dod": "", "field_school_movement": "", "view_node": "/poet/martha-rhodes", "field_state": "New York"}, {"poets": "Stephanie Ford", "field_dob": "", "field_dod": "", "field_school_movement": "", "view_node": "/poet/stephanie-ford", "field_state": ""}, {"poets": "Larry Fagin", "field_dob": "", "field_dod": "", "field_school_movement": "New York School", "view_node": "/poet/larry-fagin", "field_state": ""}, {"poets": "Natalie Scenters-Zapico", "field_dob": "", "field_dod": "", "field_school_movement": "", "view_node": "/poet/natalie-scenters-zapico", "field_state": "Utah"}, {"poets": "Jessica Greenbaum", "field_dob": "", "field_dod": "", "field_school_movement": "", "view_node": "/poet/jessica-greenbaum", "field_state": ""}, {"poets": "Rebecca Lehmann", "field_dob": "", "field_dod": "", "field_school_movement": "", "view_node": "/poet/rebecca-lehmann", "field_state": ""}, {"poets": "Sun Yung Shin", "field_dob": "", "field_dod": "", "field_school_movement": "", "view_node": "/poet/sun-yung-shin", "field_state": ""}, {"poets": "Michael D. Snediker", "field_dob": "", "field_dod": "", "field_school_movement": "", "view_node": "/poet/michael-d-snediker", "field_state": ""}, {"poets": "Betsy Andrews", "field_dob": "", "field_dod": "", "field_school_movement": "", "view_node": "/poet/betsy-andrews", "field_state": ""}, {"poets": "Ofelia Zepeda", "field_dob": "", "field_dod": "", "field_school_movement": "", "view_node": "/poet/ofelia-zepeda", "field_state": ""}, {"poets": "Michael Wasson", "field_dob": "", "field_dod": "", "field_school_movement": "", "view_node": "/poet/michael-wasson", "field_state": ""}, {"poets": "Margaret Noodin", "field_dob": "", "field_dod": "", "field_school_movement": "", "view_node": "/poet/margaret-noodin", "field_state": ""}, {"poets": "Brendan Constantine", "field_dob": "", "field_dod": "", "field_school_movement": "", "view_node": "/poet/brendan-constantine", "field_state": ""}], "pager": {"current_page": 71, "total_items": "3766", "total_pages": 189, "items_per_page": 20}}