{"rows": [{"poets": "Craig Santos Perez", "field_dob": "", "field_dod": "", "field_school_movement": "Contemporary", "view_node": "/poet/craig-santos-perez", "field_state": "Hawaii"}, {"poets": "Kwame Dawes", "field_dob": "", "field_dod": "", "field_school_movement": "", "view_node": "/poet/kwame-dawes", "field_state": "South Carolina"}, {"poets": "Vanessa Place", "field_dob": "1968", "field_dod": "", "field_school_movement": "Conceptual Poetry", "view_node": "/poet/vanessa-place", "field_state": "California"}, {"poets": "Josh Bell", "field_dob": "", "field_dod": "", "field_school_movement": "", "view_node": "/poet/josh-bell", "field_state": ""}, {"poets": "Martin Corless-Smith", "field_dob": "", "field_dod": "", "field_school_movement": "", "view_node": "/poet/martin-corless-smith", "field_state": ""}, {"poets": "Edwin Torres", "field_dob": "", "field_dod": "", "field_school_movement": "Slam/Spoken Word, Contemporary", "view_node": "/poet/edwin-torres", "field_state": "New York"}, {"poets": "Claudia Keelan", "field_dob": "", "field_dod": "", "field_school_movement": "", "view_node": "/poet/claudia-keelan", "field_state": "Nevada"}, {"poets": "Joyelle McSweeney", "field_dob": "", "field_dod": "", "field_school_movement": "", "view_node": "/poet/joyelle-mcsweeney", "field_state": ""}, {"poets": "Giacomo Leopardi", "field_dob": "", "field_dod": "", "field_school_movement": "", "view_node": "/poet/giacomo-leopardi", "field_state": ""}, {"poets": "Jeffrey Harrison", "field_dob": "", "field_dod": "", "field_school_movement": "", "view_node": "/poet/jeffrey-harrison", "field_state": ""}, {"poets": "Sasha Steensen", "field_dob": "", "field_dod": "", "field_school_movement": "", "view_node": "/poet/sasha-steensen", "field_state": "Colorado"}, {"poets": "Crystal Williams", "field_dob": "", "field_dod": "", "field_school_movement": "Contemporary", "view_node": "/poet/crystal-williams", "field_state": "Massachusetts"}, {"poets": "Danielle Pafunda", "field_dob": "", "field_dod": "", "field_school_movement": "", "view_node": "/poet/danielle-pafunda", "field_state": ""}, {"poets": "Wendy  Vardaman", "field_dob": "", "field_dod": "", "field_school_movement": "", "view_node": "/poet/wendy-vardaman", "field_state": ""}, {"poets": "Anne Stevenson", "field_dob": "1933", "field_dod": "2020", "field_school_movement": "", "view_node": "/poet/anne-stevenson", "field_state": ""}, {"poets": "Cynthia Cruz", "field_dob": "", "field_dod": "", "field_school_movement": "", "view_node": "/poet/cynthia-cruz", "field_state": ""}, {"poets": "Ana Bo\u017ei\u010devi\u0107", "field_dob": "", "field_dod": "", "field_school_movement": "Contemporary", "view_node": "/poet/ana-bozicevic", "field_state": "New York"}, {"poets": "Alfred Kreymborg", "field_dob": "1883", "field_dod": "1966", "field_school_movement": "Modernism", "view_node": "/poet/alfred-kreymborg", "field_state": "New York"}, {"poets": "Adziko Simba", "field_dob": "", "field_dod": "", "field_school_movement": "", "view_node": "/poet/adziko-simba", "field_state": ""}, {"poets": "Olive Senior", "field_dob": "", "field_dod": "", "field_school_movement": "", "view_node": "/poet/olive-senior", "field_state": ""}], "pager": {"current_page": 111, "total_items": "3766", "total_pages": 189, "items_per_page": 20}}