{"rows": [{"poets": "Lauren Camp", "field_dob": "", "field_dod": "", "field_school_movement": "", "view_node": "/poet/lauren-camp", "field_state": ""}, {"poets": "Marisa Crawford", "field_dob": "", "field_dod": "", "field_school_movement": "", "view_node": "/poet/marisa-crawford", "field_state": ""}, {"poets": "Matthew Hittinger", "field_dob": "", "field_dod": "", "field_school_movement": "", "view_node": "/poet/matthew-hittinger", "field_state": ""}, {"poets": "Robyn Schiff", "field_dob": "", "field_dod": "", "field_school_movement": "", "view_node": "/poet/robyn-schiff", "field_state": ""}, {"poets": "Cara Benson", "field_dob": "", "field_dod": "", "field_school_movement": "", "view_node": "/poet/cara-benson", "field_state": ""}, {"poets": "Henrietta Cordelia Ray", "field_dob": "1849", "field_dod": "1916", "field_school_movement": "", "view_node": "/poet/henrietta-cordelia-ray", "field_state": ""}, {"poets": "Louise Imogen Guiney", "field_dob": "", "field_dod": "", "field_school_movement": "", "view_node": "/poet/louise-imogen-guiney", "field_state": ""}, {"poets": "Parneshia Jones", "field_dob": "", "field_dod": "", "field_school_movement": "", "view_node": "/poet/parneshia-jones", "field_state": ""}, {"poets": "David Buuck", "field_dob": "", "field_dod": "", "field_school_movement": "", "view_node": "/poet/david-buuck", "field_state": ""}, {"poets": "Jennifer Bartlett", "field_dob": "", "field_dod": "", "field_school_movement": "", "view_node": "/poet/jennifer-bartlett", "field_state": ""}, {"poets": "Marc McKee", "field_dob": "", "field_dod": "", "field_school_movement": "", "view_node": "/poet/marc-mckee", "field_state": ""}, {"poets": "Julie Marie Wade", "field_dob": "", "field_dod": "", "field_school_movement": "", "view_node": "/poet/julie-marie-wade", "field_state": ""}, {"poets": "Paige  Taggart", "field_dob": "", "field_dod": "", "field_school_movement": "", "view_node": "/poet/paige-taggart", "field_state": ""}, {"poets": "LaTasha N. Nevada Diggs", "field_dob": "", "field_dod": "", "field_school_movement": "", "view_node": "/poet/latasha-n-nevada-diggs", "field_state": ""}, {"poets": "Forceythe Willson", "field_dob": "", "field_dod": "", "field_school_movement": "", "view_node": "/poet/forceythe-willson", "field_state": ""}, {"poets": "Karen Skolfield", "field_dob": "", "field_dod": "", "field_school_movement": "", "view_node": "/poet/karen-skolfield", "field_state": ""}, {"poets": "Jennifer Franklin", "field_dob": "", "field_dod": "", "field_school_movement": "", "view_node": "/poet/jennifer-franklin", "field_state": ""}, {"poets": "Clay Matthews", "field_dob": "", "field_dod": "", "field_school_movement": "", "view_node": "/poet/clay-matthews", "field_state": ""}, {"poets": "Leigh Stein", "field_dob": "", "field_dod": "", "field_school_movement": "", "view_node": "/poet/leigh-stein", "field_state": ""}, {"poets": "Frances Anne Kemble", "field_dob": "", "field_dod": "", "field_school_movement": "", "view_node": "/poet/frances-anne-kemble", "field_state": ""}], "pager": {"current_page": 80, "total_items": "3766", "total_pages": 189, "items_per_page": 20}}