{"rows": [{"poets": "Eliot Weinberger", "field_dob": "1949", "field_dod": "", "field_school_movement": "Translators", "view_node": "/poet/eliot-weinberger", "field_state": "New York"}, {"poets": "Brooks Haxton", "field_dob": "", "field_dod": "", "field_school_movement": "", "view_node": "/poet/brooks-haxton", "field_state": "Mississippi"}, {"poets": "Kamau Brathwaite", "field_dob": "1930", "field_dod": "2020", "field_school_movement": "", "view_node": "/poet/kamau-brathwaite", "field_state": "New York"}, {"poets": "John Updike", "field_dob": "1932", "field_dod": "2009", "field_school_movement": "", "view_node": "/poet/john-updike", "field_state": ""}, {"poets": "Edmund Spenser", "field_dob": "", "field_dod": "", "field_school_movement": "", "view_node": "/poet/edmund-spenser", "field_state": ""}, {"poets": "Edward Snow", "field_dob": "", "field_dod": "", "field_school_movement": "Translators", "view_node": "/poet/edward-snow", "field_state": ""}, {"poets": "Sara Teasdale", "field_dob": "1884", "field_dod": "1933", "field_school_movement": "", "view_node": "/poet/sara-teasdale", "field_state": "New York"}, {"poets": "Stephen Spender", "field_dob": "1909", "field_dod": "1995", "field_school_movement": "Contemporary", "view_node": "/poet/stephen-spender", "field_state": ""}, {"poets": "Yevgeny Yevtushenko", "field_dob": "1933", "field_dod": "2017", "field_school_movement": "", "view_node": "/poet/yevgeny-yevtushenko", "field_state": ""}, {"poets": "Thomas Moore", "field_dob": "1779", "field_dod": "1852", "field_school_movement": "", "view_node": "/poet/thomas-moore", "field_state": ""}, {"poets": "Edgar Lee Masters", "field_dob": "1868", "field_dod": "1950", "field_school_movement": "", "view_node": "/poet/edgar-lee-masters", "field_state": "Illinois"}, {"poets": "May Sarton", "field_dob": "1912", "field_dod": "1995", "field_school_movement": "", "view_node": "/poet/may-sarton", "field_state": "Maine"}, {"poets": "Pedro Pietri", "field_dob": "1944", "field_dod": "2004", "field_school_movement": "Nuyorican Poetry", "view_node": "/poet/pedro-pietri", "field_state": "New York"}, {"poets": "X. J. Kennedy", "field_dob": "1929", "field_dod": "", "field_school_movement": "", "view_node": "/poet/x-j-kennedy", "field_state": ""}, {"poets": "Siegfried Sassoon", "field_dob": "1886", "field_dod": "1967", "field_school_movement": "Poets of World War I", "view_node": "/poet/siegfried-sassoon", "field_state": ""}, {"poets": "Octavio Paz", "field_dob": "1914", "field_dod": "1998", "field_school_movement": "", "view_node": "/poet/octavio-paz", "field_state": ""}, {"poets": "George Herbert", "field_dob": "1593", "field_dod": "1633", "field_school_movement": "Metaphysical Poet", "view_node": "/poet/george-herbert", "field_state": ""}, {"poets": "Phyllis McGinley", "field_dob": "1905", "field_dod": "1978", "field_school_movement": "Contemporary", "view_node": "/poet/phyllis-mcginley", "field_state": "New York"}, {"poets": "Luis Pal\u00e9s Matos", "field_dob": "1898", "field_dod": "1959", "field_school_movement": "", "view_node": "/poet/luis-pales-matos", "field_state": ""}, {"poets": "Greg Johnson", "field_dob": "", "field_dod": "", "field_school_movement": "", "view_node": "/poet/greg-johnson", "field_state": ""}], "pager": {"current_page": 170, "total_items": "3766", "total_pages": 189, "items_per_page": 20}}