{"rows": [{"poets": "Rose  Styron", "field_dob": "", "field_dod": "", "field_school_movement": "", "view_node": "/poet/rose-styron-0", "field_state": ""}, {"poets": "James Galvin", "field_dob": "1951", "field_dod": "", "field_school_movement": "", "view_node": "/poet/james-galvin", "field_state": ""}, {"poets": "J. D. McClatchy", "field_dob": "1945", "field_dod": "2018", "field_school_movement": "", "view_node": "/poet/j-d-mcclatchy", "field_state": "Connecticut"}, {"poets": "Jane Cooper", "field_dob": "1924", "field_dod": "2007", "field_school_movement": "Contemporary", "view_node": "/poet/jane-cooper", "field_state": "New Jersey"}, {"poets": "Joshua Clover", "field_dob": "1962", "field_dod": "", "field_school_movement": "Contemporary", "view_node": "/poet/joshua-clover", "field_state": ""}, {"poets": "Jill Bialosky", "field_dob": "", "field_dod": "", "field_school_movement": "", "view_node": "/poet/jill-bialosky", "field_state": "New York"}, {"poets": "Herman Melville", "field_dob": "1819", "field_dod": "1891", "field_school_movement": "Romanticism", "view_node": "/poet/herman-melville", "field_state": "New York"}, {"poets": "John Ashbery", "field_dob": "1927", "field_dod": "2017", "field_school_movement": "Romanticism, New York School", "view_node": "/poet/john-ashbery", "field_state": "New York"}, {"poets": "Hart Crane", "field_dob": "1899", "field_dod": "1932", "field_school_movement": "Modernism", "view_node": "/poet/hart-crane", "field_state": "New York"}, {"poets": "H. D.", "field_dob": "1886", "field_dod": "1961", "field_school_movement": "Modernism, Metaphysical Poet, Imagism, Poets of World War I", "view_node": "/poet/h-d", "field_state": "Pennsylvania"}, {"poets": "Hayden Carruth", "field_dob": "", "field_dod": "", "field_school_movement": "Symbolists, Jazz Poetry", "view_node": "/poet/hayden-carruth", "field_state": "Vermont"}, {"poets": "Gerald Stern", "field_dob": "1925", "field_dod": "", "field_school_movement": "Surrealism", "view_node": "/poet/gerald-stern", "field_state": "New Jersey"}, {"poets": "Gary Soto", "field_dob": "1952", "field_dod": "", "field_school_movement": "", "view_node": "/poet/gary-soto", "field_state": "California"}, {"poets": "Les Murray", "field_dob": "1938", "field_dod": "2019", "field_school_movement": "", "view_node": "/poet/les-murray", "field_state": ""}, {"poets": "Jane Shore", "field_dob": "", "field_dod": "", "field_school_movement": "", "view_node": "/poet/jane-shore", "field_state": ""}, {"poets": "Dean Young", "field_dob": "1955", "field_dod": "", "field_school_movement": "Contemporary", "view_node": "/poet/dean-young", "field_state": "Texas"}, {"poets": "William Stafford", "field_dob": "1914", "field_dod": "1993", "field_school_movement": "", "view_node": "/poet/william-stafford", "field_state": "Oregon"}, {"poets": "Howard Nemerov", "field_dob": "1920", "field_dod": "1991", "field_school_movement": "", "view_node": "/poet/howard-nemerov", "field_state": "Missouri"}, {"poets": "Derek Walcott", "field_dob": "1930", "field_dod": "2017", "field_school_movement": "Formalism", "view_node": "/poet/derek-walcott", "field_state": ""}, {"poets": "Gregory Orr", "field_dob": "1947", "field_dod": "", "field_school_movement": "Contemporary", "view_node": "/poet/gregory-orr", "field_state": "Virginia"}], "pager": {"current_page": 84, "total_items": "3766", "total_pages": 189, "items_per_page": 20}}