{"rows": [{"poets": "Vanessa Ange\u0301lica Villarreal", "field_dob": "", "field_dod": "", "field_school_movement": "", "view_node": "/poet/vanessa-angelica-villarreal", "field_state": ""}, {"poets": "Oliver Baez Bendorf", "field_dob": "", "field_dod": "", "field_school_movement": "", "view_node": "/poet/oliver-baez-bendorf", "field_state": ""}, {"poets": "Laura Redden Searing", "field_dob": "", "field_dod": "", "field_school_movement": "", "view_node": "/poet/laura-redden-searing", "field_state": ""}, {"poets": "Angel Nafis", "field_dob": "", "field_dod": "", "field_school_movement": "", "view_node": "/poet/angel-nafis", "field_state": ""}, {"poets": "John Lee Clark", "field_dob": "", "field_dod": "", "field_school_movement": "", "view_node": "/poet/john-lee-clark", "field_state": ""}, {"poets": "Franny Choi", "field_dob": "", "field_dod": "", "field_school_movement": "", "view_node": "/poet/franny-choi", "field_state": ""}, {"poets": "Zeina Hashem Beck", "field_dob": "", "field_dod": "", "field_school_movement": "", "view_node": "/poet/zeina-hashem-beck", "field_state": ""}, {"poets": "Etel Adnan", "field_dob": "1925", "field_dod": "2021", "field_school_movement": "", "view_node": "/poet/etel-adnan", "field_state": ""}, {"poets": "Susan Landers", "field_dob": "", "field_dod": "", "field_school_movement": "", "view_node": "/poet/susan-landers", "field_state": ""}, {"poets": "Margaret Deland", "field_dob": "1857", "field_dod": "1945", "field_school_movement": "", "view_node": "/poet/margaret-deland", "field_state": ""}, {"poets": "Ross White", "field_dob": "", "field_dod": "", "field_school_movement": "", "view_node": "/poet/ross-white", "field_state": ""}, {"poets": "Marcus Jackson", "field_dob": "", "field_dod": "", "field_school_movement": "", "view_node": "/poet/marcus-jackson", "field_state": ""}, {"poets": "Curtis Bauer", "field_dob": "", "field_dod": "", "field_school_movement": "", "view_node": "/poet/curtis-bauer", "field_state": ""}, {"poets": "Valerie Wallace", "field_dob": "", "field_dod": "", "field_school_movement": "", "view_node": "/poet/valerie-wallace", "field_state": ""}, {"poets": "Ella Higginson", "field_dob": "1862", "field_dod": "1940", "field_school_movement": "", "view_node": "/poet/ella-higginson", "field_state": "Washington"}, {"poets": "Eliza Cook", "field_dob": "1818", "field_dod": "1889", "field_school_movement": "", "view_node": "/poet/eliza-cook", "field_state": ""}, {"poets": "Megan Levad", "field_dob": "", "field_dod": "", "field_school_movement": "", "view_node": "/poet/megan-levad", "field_state": ""}, {"poets": "W. Todd Kaneko", "field_dob": "", "field_dod": "", "field_school_movement": "", "view_node": "/poet/w-todd-kaneko", "field_state": ""}, {"poets": "Susan Barba", "field_dob": "", "field_dod": "", "field_school_movement": "", "view_node": "/poet/susan-barba", "field_state": "Massachusetts"}, {"poets": "Mariama J. Lockington", "field_dob": "", "field_dod": "", "field_school_movement": "", "view_node": "/poet/mariama-j-lockington", "field_state": ""}], "pager": {"current_page": 55, "total_items": "3766", "total_pages": 189, "items_per_page": 20}}