{"rows": [{"poets": "ku\u02bbualoha ho\u02bbomanawanui", "field_dob": "", "field_dod": "", "field_school_movement": "", "view_node": "/poet/kuualoha-hoomanawanui", "field_state": ""}, {"poets": "Christy Passion", "field_dob": "", "field_dod": "", "field_school_movement": "", "view_node": "/poet/christy-passion", "field_state": ""}, {"poets": "Donovan K\u016bhi\u014d Colleps", "field_dob": "", "field_dod": "", "field_school_movement": "", "view_node": "/poet/donovan-kuhio-colleps", "field_state": ""}, {"poets": "Leora Kava", "field_dob": "", "field_dod": "", "field_school_movement": "", "view_node": "/poet/leora-kava", "field_state": ""}, {"poets": "Mahealani Perez-Wendt", "field_dob": "", "field_dod": "", "field_school_movement": "", "view_node": "/poet/mahealani-perez-wendt", "field_state": ""}, {"poets": "Ono no Komachi", "field_dob": "", "field_dod": "", "field_school_movement": "", "view_node": "/poet/ono-no-komachi", "field_state": ""}, {"poets": "Kendra Allen ", "field_dob": "", "field_dod": "", "field_school_movement": "", "view_node": "/poet/kendra-allen", "field_state": ""}, {"poets": "Emelihter Kihleng", "field_dob": "", "field_dod": "", "field_school_movement": "", "view_node": "/poet/emelihter-kihleng", "field_state": ""}, {"poets": "leilani portillo", "field_dob": "", "field_dod": "", "field_school_movement": "", "view_node": "/poet/leilani-portillo", "field_state": ""}, {"poets": "Imaikalani Kalahele", "field_dob": "", "field_dod": "", "field_school_movement": "", "view_node": "/poet/imaikalani-kalahele", "field_state": ""}, {"poets": "Ngaio Simmons", "field_dob": "", "field_dod": "", "field_school_movement": "", "view_node": "/poet/ngaio-simmons", "field_state": ""}, {"poets": "Evelyn Flores", "field_dob": "", "field_dod": "", "field_school_movement": "", "view_node": "/poet/evelyn-flores", "field_state": ""}, {"poets": "Akwaeke Emezi ", "field_dob": "", "field_dod": "", "field_school_movement": "", "view_node": "/poet/akwaeke-emezi", "field_state": ""}, {"poets": "Dolores Dorantes", "field_dob": "", "field_dod": "", "field_school_movement": "", "view_node": "/poet/dolores-dorantes", "field_state": ""}, {"poets": "Moheb Soliman", "field_dob": "", "field_dod": "", "field_school_movement": "", "view_node": "/poet/moheb-soliman", "field_state": ""}, {"poets": "George Dimitri Selim", "field_dob": "", "field_dod": "", "field_school_movement": "", "view_node": "/poet/george-dimitri-selim", "field_state": ""}, {"poets": "Nisha Atalie", "field_dob": "", "field_dod": "", "field_school_movement": "", "view_node": "/poet/nisha-atalie", "field_state": ""}, {"poets": "Liza Katz Duncan", "field_dob": "", "field_dod": "", "field_school_movement": "", "view_node": "/poet/liza-katz-duncan", "field_state": ""}, {"poets": "Jamaica Heolimeleikalani Osorio ", "field_dob": "", "field_dod": "", "field_school_movement": "", "view_node": "/poet/jamaica-heolimeleikalani-osorio", "field_state": ""}, {"poets": "Penina Ava Taesali", "field_dob": "", "field_dod": "", "field_school_movement": "", "view_node": "/poet/penina-ava-taesali", "field_state": ""}], "pager": {"current_page": 4, "total_items": "3766", "total_pages": 189, "items_per_page": 20}}