{"rows": [{"poets": "Noah Warren", "field_dob": "", "field_dod": "", "field_school_movement": "", "view_node": "/poet/noah-warren", "field_state": ""}, {"poets": "Saul Williams", "field_dob": "1972", "field_dod": "", "field_school_movement": "Slam/Spoken Word", "view_node": "/poet/saul-williams", "field_state": ""}, {"poets": "Anna Rabinowitz", "field_dob": "", "field_dod": "", "field_school_movement": "", "view_node": "/poet/anna-rabinowitz", "field_state": "New York"}, {"poets": "Rangi McNeil", "field_dob": "", "field_dod": "", "field_school_movement": "", "view_node": "/poet/rangi-mcneil", "field_state": ""}, {"poets": "Stephanie Gray", "field_dob": "", "field_dod": "", "field_school_movement": "Contemporary", "view_node": "/poet/stephanie-gray", "field_state": "New York"}, {"poets": "F. Douglas Brown", "field_dob": "", "field_dod": "", "field_school_movement": "", "view_node": "/poet/f-douglas-brown", "field_state": ""}, {"poets": "Hilda Morley", "field_dob": "1916", "field_dod": "1998", "field_school_movement": "Black Mountain", "view_node": "/poet/hilda-morley", "field_state": "New York"}, {"poets": "Janet McNally", "field_dob": "", "field_dod": "", "field_school_movement": "Contemporary", "view_node": "/poet/janet-mcnally", "field_state": "New York"}, {"poets": "Janine Joseph", "field_dob": "", "field_dod": "", "field_school_movement": "", "view_node": "/poet/janine-joseph", "field_state": ""}, {"poets": "Jim Handlin", "field_dob": "", "field_dod": "", "field_school_movement": "", "view_node": "/poet/jim-handlin", "field_state": "New Jersey"}, {"poets": "Erika L. S\u00e1nchez", "field_dob": "", "field_dod": "", "field_school_movement": "Contemporary", "view_node": "/poet/erika-l-sanchez", "field_state": "Illinois"}, {"poets": "Margaret Avison", "field_dob": "1918", "field_dod": "2007", "field_school_movement": "", "view_node": "/poet/margaret-avison", "field_state": ""}, {"poets": "Jamaal May", "field_dob": "", "field_dod": "", "field_school_movement": "", "view_node": "/poet/jamaal-may", "field_state": ""}, {"poets": "Iris Cushing", "field_dob": "", "field_dod": "", "field_school_movement": "", "view_node": "/poet/iris-cushing", "field_state": ""}, {"poets": "Iain Haley Pollock", "field_dob": "", "field_dod": "", "field_school_movement": "", "view_node": "/poet/iain-haley-pollock", "field_state": "New York"}, {"poets": "Chip Livingston", "field_dob": "", "field_dod": "", "field_school_movement": "", "view_node": "/poet/chip-livingston", "field_state": ""}, {"poets": "Nathan Parker", "field_dob": "", "field_dod": "", "field_school_movement": "", "view_node": "/poet/nathan-parker", "field_state": ""}, {"poets": "Justin Chin", "field_dob": "", "field_dod": "", "field_school_movement": "", "view_node": "/poet/justin-chin", "field_state": "California"}, {"poets": "Ellen Dor\u00e9 Watson", "field_dob": "", "field_dod": "", "field_school_movement": "", "view_node": "/poet/ellen-dore-watson", "field_state": ""}, {"poets": "Vi Khi Nao ", "field_dob": "", "field_dod": "", "field_school_movement": "", "view_node": "/poet/vi-khi-nao", "field_state": ""}], "pager": {"current_page": 70, "total_items": "3766", "total_pages": 189, "items_per_page": 20}}