{"rows": [{"poets": "Kirk Robertson", "field_dob": "", "field_dod": "", "field_school_movement": "", "view_node": "/poet/kirk-robertson", "field_state": "Nevada"}, {"poets": "Er\u00edn Moure", "field_dob": "", "field_dod": "", "field_school_movement": "", "view_node": "/poet/erin-moure", "field_state": ""}, {"poets": "Alan Michael Parker", "field_dob": "", "field_dod": "", "field_school_movement": "", "view_node": "/poet/alan-michael-parker", "field_state": "North Carolina"}, {"poets": "Joanna Fuhrman", "field_dob": "", "field_dod": "", "field_school_movement": "", "view_node": "/poet/joanna-fuhrman", "field_state": ""}, {"poets": "Medbh McGuckian", "field_dob": "1950", "field_dod": "", "field_school_movement": "Contemporary", "view_node": "/poet/medbh-mcguckian", "field_state": ""}, {"poets": "Martha Ronk", "field_dob": "", "field_dod": "", "field_school_movement": "Contemporary", "view_node": "/poet/martha-ronk", "field_state": ""}, {"poets": "Michael Teig", "field_dob": "", "field_dod": "", "field_school_movement": "", "view_node": "/poet/michael-teig", "field_state": "Massachusetts"}, {"poets": "Gerard Martin", "field_dob": "", "field_dod": "", "field_school_movement": "", "view_node": "/poet/gerard-martin", "field_state": ""}, {"poets": "Mahmoud Darwish", "field_dob": "1941", "field_dod": "2008", "field_school_movement": "Poets of Exile", "view_node": "/poet/mahmoud-darwish", "field_state": ""}, {"poets": "Bruce Weigl", "field_dob": "", "field_dod": "", "field_school_movement": "", "view_node": "/poet/bruce-weigl", "field_state": "Ohio"}, {"poets": "Richard Greenfield", "field_dob": "", "field_dod": "", "field_school_movement": "", "view_node": "/poet/richard-greenfield", "field_state": ""}, {"poets": "Sarah Lindsay", "field_dob": "", "field_dod": "", "field_school_movement": "", "view_node": "/poet/sarah-lindsay", "field_state": ""}, {"poets": "Jen Hofer", "field_dob": "", "field_dod": "", "field_school_movement": "", "view_node": "/poet/jen-hofer", "field_state": ""}, {"poets": "George Keithley", "field_dob": "", "field_dod": "", "field_school_movement": "", "view_node": "/poet/george-keithley", "field_state": ""}, {"poets": "Ronald Wallace", "field_dob": "", "field_dod": "", "field_school_movement": "", "view_node": "/poet/ronald-wallace", "field_state": "Wisconsin"}, {"poets": "Reginald Shepherd", "field_dob": "1963", "field_dod": "2008", "field_school_movement": "Contemporary", "view_node": "/poet/reginald-shepherd", "field_state": "Florida"}, {"poets": "Robert Kinsley", "field_dob": "", "field_dod": "", "field_school_movement": "", "view_node": "/poet/robert-kinsley", "field_state": ""}, {"poets": "Daniel Whitehead Hicky", "field_dob": "", "field_dod": "", "field_school_movement": "", "view_node": "/poet/daniel-whitehead-hicky", "field_state": ""}, {"poets": "Peggy Simson Curry", "field_dob": "", "field_dod": "", "field_school_movement": "", "view_node": "/poet/peggy-simson-curry", "field_state": ""}, {"poets": "Harley Elliott", "field_dob": "", "field_dod": "", "field_school_movement": "", "view_node": "/poet/harley-elliott", "field_state": "Kansas"}], "pager": {"current_page": 153, "total_items": "3766", "total_pages": 189, "items_per_page": 20}}