{"rows": [{"poets": "Kevin Cantwell", "field_dob": "", "field_dod": "", "field_school_movement": "", "view_node": "/poet/kevin-cantwell", "field_state": ""}, {"poets": "Betsy Brown", "field_dob": "", "field_dod": "", "field_school_movement": "", "view_node": "/poet/betsy-brown", "field_state": "Minnesota"}, {"poets": "Breyten Breytenbach", "field_dob": "1939", "field_dod": "", "field_school_movement": "", "view_node": "/poet/breyten-breytenbach", "field_state": ""}, {"poets": "Molly Bendall", "field_dob": "", "field_dod": "", "field_school_movement": "", "view_node": "/poet/molly-bendall", "field_state": ""}, {"poets": "Erin Belieu", "field_dob": "1967", "field_dod": "", "field_school_movement": "Contemporary", "view_node": "/poet/erin-belieu", "field_state": ""}, {"poets": "Carlos Drummond de Andrade", "field_dob": "1902", "field_dod": "1987", "field_school_movement": "", "view_node": "/poet/carlos-drummond-de-andrade", "field_state": ""}, {"poets": "Cecilia Vicu\u00f1a", "field_dob": "", "field_dod": "", "field_school_movement": "", "view_node": "/poet/cecilia-vicuna", "field_state": ""}, {"poets": "Richard Deutch", "field_dob": "", "field_dod": "", "field_school_movement": "", "view_node": "/poet/richard-deutch", "field_state": ""}, {"poets": "Ray Gonzalez", "field_dob": "", "field_dod": "", "field_school_movement": "", "view_node": "/poet/ray-gonzalez", "field_state": "Minnesota"}, {"poets": "Robin Behn", "field_dob": "", "field_dod": "", "field_school_movement": "", "view_node": "/poet/robin-behn", "field_state": ""}, {"poets": "Jan Beatty", "field_dob": "", "field_dod": "", "field_school_movement": "", "view_node": "/poet/jan-beatty", "field_state": ""}, {"poets": "Ellen Bass", "field_dob": "", "field_dod": "", "field_school_movement": "", "view_node": "/poet/ellen-bass", "field_state": "California"}, {"poets": "John Barton", "field_dob": "", "field_dod": "", "field_school_movement": "", "view_node": "/poet/john-barton", "field_state": ""}, {"poets": "David Baker", "field_dob": "1954", "field_dod": "", "field_school_movement": "Contemporary", "view_node": "/poet/david-baker", "field_state": "Ohio"}, {"poets": "Ken Babstock", "field_dob": "", "field_dod": "", "field_school_movement": "", "view_node": "/poet/ken-babstock", "field_state": ""}, {"poets": "Sarah Arvio", "field_dob": "", "field_dod": "", "field_school_movement": "", "view_node": "/poet/sarah-arvio", "field_state": "Maryland"}, {"poets": "James Applewhite", "field_dob": "1935", "field_dod": "", "field_school_movement": "", "view_node": "/poet/james-applewhite", "field_state": ""}, {"poets": "Elton Glaser", "field_dob": "", "field_dod": "", "field_school_movement": "", "view_node": "/poet/elton-glaser", "field_state": ""}, {"poets": "William Greenway", "field_dob": "", "field_dod": "", "field_school_movement": "", "view_node": "/poet/william-greenway", "field_state": ""}, {"poets": "Maggie Anderson", "field_dob": "", "field_dod": "", "field_school_movement": "", "view_node": "/poet/maggie-anderson", "field_state": "West Virginia"}], "pager": {"current_page": 164, "total_items": "3766", "total_pages": 189, "items_per_page": 20}}