{"rows": [{"poets": "Robert Burns", "field_dob": "1759", "field_dod": "1796", "field_school_movement": "", "view_node": "/poet/robert-burns", "field_state": ""}, {"poets": "Thomas Gray", "field_dob": "", "field_dod": "", "field_school_movement": "", "view_node": "/poet/thomas-gray", "field_state": ""}, {"poets": "Edward Thomas", "field_dob": "1878", "field_dod": "1917", "field_school_movement": "Poets of World War I", "view_node": "/poet/edward-thomas", "field_state": ""}, {"poets": "Emily Bront\u00eb", "field_dob": "1818", "field_dod": "1848", "field_school_movement": "", "view_node": "/poet/emily-bronte", "field_state": ""}, {"poets": "Trumbull Stickney", "field_dob": "1874", "field_dod": "1904", "field_school_movement": "", "view_node": "/poet/trumbull-stickney", "field_state": ""}, {"poets": "Edmund Waller", "field_dob": "", "field_dod": "", "field_school_movement": "", "view_node": "/poet/edmund-waller", "field_state": ""}, {"poets": "John Milton", "field_dob": "1608", "field_dod": "1674", "field_school_movement": "", "view_node": "/poet/john-milton", "field_state": ""}, {"poets": "Joseph Addison", "field_dob": "", "field_dod": "", "field_school_movement": "", "view_node": "/poet/joseph-addison", "field_state": ""}, {"poets": "Emma Lazarus", "field_dob": "1849", "field_dod": "1887", "field_school_movement": "", "view_node": "/poet/emma-lazarus", "field_state": ""}, {"poets": "Charles Bernstein", "field_dob": "1950", "field_dod": "", "field_school_movement": "Language Poetry", "view_node": "/poet/charles-bernstein", "field_state": "New York"}, {"poets": "Forrest Gander", "field_dob": "", "field_dod": "", "field_school_movement": "", "view_node": "/poet/forrest-gander", "field_state": "Rhode Island"}, {"poets": "Caroline Crumpacker", "field_dob": "", "field_dod": "", "field_school_movement": "Contemporary", "view_node": "/poet/caroline-crumpacker", "field_state": ""}, {"poets": "Cole Swensen", "field_dob": "1955", "field_dod": "", "field_school_movement": "Language Poetry", "view_node": "/poet/cole-swensen", "field_state": ""}, {"poets": "Stacy Doris", "field_dob": "1962", "field_dod": "2012", "field_school_movement": "Contemporary", "view_node": "/poet/stacy-doris", "field_state": "New York"}, {"poets": "Eleni Sikelianos", "field_dob": "", "field_dod": "", "field_school_movement": "Contemporary", "view_node": "/poet/eleni-sikelianos", "field_state": "New York"}, {"poets": "Osip Mandelstam", "field_dob": "1891", "field_dod": "1938", "field_school_movement": "Poets of Exile, Acmeism", "view_node": "/poet/osip-mandelstam", "field_state": ""}, {"poets": "Jorge Guill\u00e9n", "field_dob": "1893", "field_dod": "1984", "field_school_movement": "", "view_node": "/poet/jorge-guillen", "field_state": ""}, {"poets": "Yvor Winters", "field_dob": "1900", "field_dod": "1968", "field_school_movement": "", "view_node": "/poet/yvor-winters", "field_state": "California"}, {"poets": "Charles Reznikoff", "field_dob": "1894", "field_dod": "1976", "field_school_movement": "Objectivists", "view_node": "/poet/charles-reznikoff", "field_state": "New York"}, {"poets": "Edward Field", "field_dob": "1924", "field_dod": "", "field_school_movement": "", "view_node": "/poet/edward-field", "field_state": "New York"}], "pager": {"current_page": 168, "total_items": "3766", "total_pages": 189, "items_per_page": 20}}