{"rows": [{"poets": "Andrea Abi-Karam", "field_dob": "", "field_dod": "", "field_school_movement": "", "view_node": "/poet/andrea-abi-karam", "field_state": ""}, {"poets": "Omotara James", "field_dob": "", "field_dod": "", "field_school_movement": "", "view_node": "/poet/omotara-james", "field_state": ""}, {"poets": "t&#039;ai freedom ford", "field_dob": "", "field_dod": "", "field_school_movement": "", "view_node": "/poet/tai-freedom-ford", "field_state": ""}, {"poets": "John Pluecker", "field_dob": "", "field_dod": "", "field_school_movement": "", "view_node": "/poet/john-pluecker", "field_state": ""}, {"poets": "Kayleb Rae Candrilli", "field_dob": "", "field_dod": "", "field_school_movement": "", "view_node": "/poet/kayleb-rae-candrilli", "field_state": ""}, {"poets": "Maged Zaher", "field_dob": "", "field_dod": "", "field_school_movement": "", "view_node": "/poet/maged-zaher", "field_state": ""}, {"poets": "Vickie  V\u00e9rtiz", "field_dob": "", "field_dod": "", "field_school_movement": "", "view_node": "/poet/vickie-vertiz", "field_state": ""}, {"poets": "Trevor Ketner", "field_dob": "", "field_dod": "", "field_school_movement": "", "view_node": "/poet/trevor-ketner", "field_state": ""}, {"poets": "Kahlil Gibran", "field_dob": "1883", "field_dod": "1931", "field_school_movement": "", "view_node": "/poet/kahlil-gibran", "field_state": ""}, {"poets": "Giannina  Braschi", "field_dob": "1953", "field_dod": "", "field_school_movement": "Nuyorican Poetry, Contemporary", "view_node": "/poet/giannina-braschi", "field_state": ""}, {"poets": "Angela Narciso Torres", "field_dob": "", "field_dod": "", "field_school_movement": "", "view_node": "/poet/angela-narciso-torres", "field_state": ""}, {"poets": "Sheryl St. Germain", "field_dob": "", "field_dod": "", "field_school_movement": "", "view_node": "/poet/sheryl-st-germain", "field_state": ""}, {"poets": "Maya Pindyck", "field_dob": "", "field_dod": "", "field_school_movement": "", "view_node": "/poet/maya-pindyck", "field_state": ""}, {"poets": "Muna Faiz Abdelwahab", "field_dob": "", "field_dod": "", "field_school_movement": "", "view_node": "/poet/muna-faiz-abdelwahab", "field_state": ""}, {"poets": "Laura Wetherington", "field_dob": "", "field_dod": "", "field_school_movement": "", "view_node": "/poet/laura-wetherington", "field_state": ""}, {"poets": "Hannah  Ensor", "field_dob": "", "field_dod": "", "field_school_movement": "", "view_node": "/poet/hannah-ensor", "field_state": ""}, {"poets": "Samuel Ace", "field_dob": "", "field_dod": "", "field_school_movement": "", "view_node": "/poet/samuel-ace", "field_state": ""}, {"poets": "Kay Ulanday Barrett", "field_dob": "", "field_dod": "", "field_school_movement": "", "view_node": "/poet/kay-ulanday-barrett", "field_state": ""}, {"poets": "Nico Amador", "field_dob": "", "field_dod": "", "field_school_movement": "", "view_node": "/poet/nico-amador", "field_state": ""}, {"poets": "Angela Pe\u00f1aredondo", "field_dob": "", "field_dod": "", "field_school_movement": "", "view_node": "/poet/angela-penaredondo", "field_state": ""}], "pager": {"current_page": 42, "total_items": "3766", "total_pages": 189, "items_per_page": 20}}