{"rows": [{"poets": "Christine Hume", "field_dob": "", "field_dod": "", "field_school_movement": "", "view_node": "/poet/christine-hume", "field_state": ""}, {"poets": "William Matthews", "field_dob": "1942", "field_dod": "1997", "field_school_movement": "Objectivists", "view_node": "/poet/william-matthews", "field_state": ""}, {"poets": "Cynthia Macdonald", "field_dob": "1928", "field_dod": "2015", "field_school_movement": "", "view_node": "/poet/cynthia-macdonald", "field_state": ""}, {"poets": "William Logan", "field_dob": "", "field_dod": "", "field_school_movement": "", "view_node": "/poet/william-logan", "field_state": ""}, {"poets": "Arna Bontemps", "field_dob": "1902", "field_dod": "1973", "field_school_movement": "Harlem Renaissance", "view_node": "/poet/arna-bontemps", "field_state": "Alabama"}, {"poets": "Agha Shahid Ali", "field_dob": "1949", "field_dod": "2001", "field_school_movement": "Poets of Exile", "view_node": "/poet/agha-shahid-ali", "field_state": "New York"}, {"poets": "Yehuda Amichai", "field_dob": "1924", "field_dod": "2000", "field_school_movement": "", "view_node": "/poet/yehuda-amichai", "field_state": ""}, {"poets": "Wallace Stevens", "field_dob": "1879", "field_dod": "1955", "field_school_movement": "Modernism, Metaphysical Poet", "view_node": "/poet/wallace-stevens", "field_state": "Connecticut"}, {"poets": "W. S. Merwin", "field_dob": "1927", "field_dod": "2019", "field_school_movement": "Surrealism, Translators", "view_node": "/poet/w-s-merwin", "field_state": "Hawaii"}, {"poets": "William Meredith", "field_dob": "1919", "field_dod": "2007", "field_school_movement": "", "view_node": "/poet/william-meredith", "field_state": ""}, {"poets": "W. H. Auden", "field_dob": "1907", "field_dod": "1973", "field_school_movement": "Modernism", "view_node": "/poet/w-h-auden", "field_state": ""}, {"poets": "William Carlos Williams", "field_dob": "1883", "field_dod": "1963", "field_school_movement": "Objectivists, Modernism, Metaphysical Poet, Imagism", "view_node": "/poet/william-carlos-williams", "field_state": "New Jersey"}, {"poets": "Wanda Coleman", "field_dob": "1946", "field_dod": "2013", "field_school_movement": "", "view_node": "/poet/wanda-coleman", "field_state": "California"}, {"poets": "Thomas Lux", "field_dob": "1946", "field_dod": "2017", "field_school_movement": "", "view_node": "/poet/thomas-lux", "field_state": ""}, {"poets": "Ted Hughes", "field_dob": "1930", "field_dod": "1998", "field_school_movement": "", "view_node": "/poet/ted-hughes", "field_state": ""}, {"poets": "Tony Hoagland", "field_dob": "1953", "field_dod": "2018", "field_school_movement": "Contemporary", "view_node": "/poet/tony-hoagland", "field_state": "Texas"}, {"poets": "Tony Harrison", "field_dob": "1937", "field_dod": "", "field_school_movement": "", "view_node": "/poet/tony-harrison", "field_state": ""}, {"poets": "Thomas Hardy", "field_dob": "1840", "field_dod": "1928", "field_school_movement": "Poets of World War I", "view_node": "/poet/thomas-hardy", "field_state": ""}, {"poets": "Toi Derricotte", "field_dob": "1941", "field_dod": "", "field_school_movement": "Contemporary", "view_node": "/poet/toi-derricotte", "field_state": "Pennsylvania"}, {"poets": "Tory Dent", "field_dob": "1958", "field_dod": "2005", "field_school_movement": "", "view_node": "/poet/tory-dent", "field_state": "Maine"}], "pager": {"current_page": 88, "total_items": "3766", "total_pages": 189, "items_per_page": 20}}