{"rows": [{"poets": "Philip James Bailey", "field_dob": "", "field_dod": "", "field_school_movement": "", "view_node": "/poet/philip-james-bailey", "field_state": ""}, {"poets": "Anselm Berrigan", "field_dob": "", "field_dod": "", "field_school_movement": "", "view_node": "/poet/anselm-berrigan", "field_state": "New York"}, {"poets": "Laurence Binyon", "field_dob": "1869", "field_dod": "1943", "field_school_movement": "Poets of World War I", "view_node": "/poet/laurence-binyon", "field_state": ""}, {"poets": "Adelaide Crapsey", "field_dob": "1878", "field_dod": "1915", "field_school_movement": "", "view_node": "/poet/adelaide-crapsey", "field_state": "New York"}, {"poets": "Jonathan Thirkield", "field_dob": "", "field_dod": "", "field_school_movement": "", "view_node": "/poet/jonathan-thirkield", "field_state": ""}, {"poets": "Bill Savage", "field_dob": "", "field_dod": "", "field_school_movement": "", "view_node": "/poet/bill-savage", "field_state": ""}, {"poets": "Joanna Klink", "field_dob": "", "field_dod": "", "field_school_movement": "", "view_node": "/poet/joanna-klink", "field_state": ""}, {"poets": "Christopher Stackhouse", "field_dob": "", "field_dod": "", "field_school_movement": "", "view_node": "/poet/christopher-stackhouse", "field_state": ""}, {"poets": "Bhanu Kapil", "field_dob": "", "field_dod": "", "field_school_movement": "", "view_node": "/poet/bhanu-kapil", "field_state": "Colorado"}, {"poets": "Susan Gevirtz", "field_dob": "", "field_dod": "", "field_school_movement": "", "view_node": "/poet/susan-gevirtz", "field_state": ""}, {"poets": "Matthew Zapruder", "field_dob": "", "field_dod": "", "field_school_movement": "Contemporary", "view_node": "/poet/matthew-zapruder", "field_state": "California"}, {"poets": "A. B. Spellman", "field_dob": "", "field_dod": "", "field_school_movement": "", "view_node": "/poet/b-spellman", "field_state": ""}, {"poets": "Eugen Jebeleanu", "field_dob": "", "field_dod": "", "field_school_movement": "", "view_node": "/poet/eugen-jebeleanu", "field_state": ""}, {"poets": "Charlotte Perkins Gilman", "field_dob": "", "field_dod": "", "field_school_movement": "", "view_node": "/poet/charlotte-perkins-gilman", "field_state": ""}, {"poets": "Paul Hoover", "field_dob": "", "field_dod": "", "field_school_movement": "", "view_node": "/poet/paul-hoover", "field_state": ""}, {"poets": "Adam Kirsch", "field_dob": "", "field_dod": "", "field_school_movement": "", "view_node": "/poet/adam-kirsch", "field_state": ""}, {"poets": "Reginald Gibbons", "field_dob": "", "field_dod": "", "field_school_movement": "", "view_node": "/poet/reginald-gibbons", "field_state": ""}, {"poets": "Richard Kenney", "field_dob": "", "field_dod": "", "field_school_movement": "", "view_node": "/poet/richard-kenney", "field_state": ""}, {"poets": "J. W. Marshall", "field_dob": "", "field_dod": "", "field_school_movement": "", "view_node": "/poet/j-w-marshall", "field_state": ""}, {"poets": "John Hoffman", "field_dob": "", "field_dod": "", "field_school_movement": "", "view_node": "/poet/john-hoffman", "field_state": ""}], "pager": {"current_page": 126, "total_items": "3766", "total_pages": 189, "items_per_page": 20}}