{"rows": [{"poets": "Randall Horton ", "field_dob": "", "field_dod": "", "field_school_movement": "", "view_node": "/poet/randall-horton", "field_state": ""}, {"poets": "S*an D. Henry Smith", "field_dob": "", "field_dod": "", "field_school_movement": "", "view_node": "/poet/san-d-henry-smith", "field_state": ""}, {"poets": "dee(dee) c. ardan", "field_dob": "", "field_dod": "", "field_school_movement": "", "view_node": "/poet/deedee-c-ardan", "field_state": ""}, {"poets": "Karla Cordero", "field_dob": "", "field_dod": "", "field_school_movement": "", "view_node": "/poet/karla-cordero", "field_state": ""}, {"poets": "Wo Chan", "field_dob": "", "field_dod": "", "field_school_movement": "", "view_node": "/poet/wo-chan", "field_state": ""}, {"poets": "Precious Okoyomon", "field_dob": "", "field_dod": "", "field_school_movement": "", "view_node": "/poet/precious-okoyomon", "field_state": ""}, {"poets": "Tian-Ai", "field_dob": "", "field_dod": "", "field_school_movement": "", "view_node": "/poet/tian-ai", "field_state": ""}, {"poets": "Rachel B. Glaser", "field_dob": "", "field_dod": "", "field_school_movement": "", "view_node": "/poet/rachel-b-glaser", "field_state": ""}, {"poets": "Elsa Gidlow ", "field_dob": "1898", "field_dod": "1986", "field_school_movement": "", "view_node": "/poet/elsa-gidlow", "field_state": ""}, {"poets": "Noah Baldino", "field_dob": "", "field_dod": "", "field_school_movement": "", "view_node": "/poet/noah-baldino", "field_state": ""}, {"poets": "Mick Toma", "field_dob": "", "field_dod": "", "field_school_movement": "", "view_node": "/poet/mick-toma", "field_state": ""}, {"poets": "Sarojini Naidu", "field_dob": "1879", "field_dod": "1949", "field_school_movement": "", "view_node": "/poet/sarojini-naidu", "field_state": ""}, {"poets": "Margarita Cruz", "field_dob": "", "field_dod": "", "field_school_movement": "", "view_node": "/poet/margarita-cruz", "field_state": ""}, {"poets": "LA Warman", "field_dob": "", "field_dod": "", "field_school_movement": "", "view_node": "/poet/la-warman", "field_state": ""}, {"poets": "Kamelya Omayma Youssef", "field_dob": "", "field_dod": "", "field_school_movement": "", "view_node": "/poet/kamelya-omayma-youssef", "field_state": ""}, {"poets": " Hao Guang Tse", "field_dob": "", "field_dod": "", "field_school_movement": "", "view_node": "/poet/hao-guang-tse", "field_state": ""}, {"poets": "Jon-Michael Frank", "field_dob": "", "field_dod": "", "field_school_movement": "", "view_node": "/poet/jon-michael-frank", "field_state": ""}, {"poets": "Hazem Fahmy ", "field_dob": "", "field_dod": "", "field_school_movement": "", "view_node": "/poet/hazem-fahmy", "field_state": ""}, {"poets": "Hanae Jonas", "field_dob": "", "field_dod": "", "field_school_movement": "", "view_node": "/poet/hanae-jonas", "field_state": ""}, {"poets": "Gabrielle Octavia Rucker", "field_dob": "", "field_dod": "", "field_school_movement": "", "view_node": "/poet/gabrielle-octavia-rucker", "field_state": ""}], "pager": {"current_page": 15, "total_items": "3766", "total_pages": 189, "items_per_page": 20}}