{"rows": [{"poets": "Heid E. Erdrich", "field_dob": "", "field_dod": "", "field_school_movement": "", "view_node": "/poet/heid-e-erdrich", "field_state": "Minnesota"}, {"poets": "Aziza Barnes", "field_dob": "", "field_dod": "", "field_school_movement": "", "view_node": "/poet/aziza-barnes", "field_state": ""}, {"poets": "Christian Barter", "field_dob": "", "field_dod": "", "field_school_movement": "", "view_node": "/poet/christian-barter", "field_state": "Maine"}, {"poets": "Diane Raptosh", "field_dob": "", "field_dod": "", "field_school_movement": "", "view_node": "/poet/diane-raptosh", "field_state": "Idaho"}, {"poets": "JoAnn Balingit", "field_dob": "", "field_dod": "", "field_school_movement": "", "view_node": "/poet/joann-balingit", "field_state": "Delaware"}, {"poets": "Cynthia Manick", "field_dob": "", "field_dod": "", "field_school_movement": "", "view_node": "/poet/cynthia-manick", "field_state": "New York"}, {"poets": "Kate Angus", "field_dob": "", "field_dod": "", "field_school_movement": "", "view_node": "/poet/kate-angus", "field_state": ""}, {"poets": "Aaron Fagan", "field_dob": "", "field_dod": "", "field_school_movement": "", "view_node": "/poet/aaron-fagan", "field_state": ""}, {"poets": "Mary  Hickman", "field_dob": "", "field_dod": "", "field_school_movement": "", "view_node": "/poet/mary-hickman", "field_state": ""}, {"poets": "Donte Collins", "field_dob": "1996", "field_dod": "", "field_school_movement": "", "view_node": "/poet/donte-collins", "field_state": ""}, {"poets": "Davis McCombs", "field_dob": "", "field_dod": "", "field_school_movement": "", "view_node": "/poet/davis-mccombs", "field_state": "Kentucky"}, {"poets": "Meg Day", "field_dob": "", "field_dod": "", "field_school_movement": "", "view_node": "/poet/meg-day", "field_state": "Pennsylvania"}, {"poets": "Rajiv Mohabir", "field_dob": "", "field_dod": "", "field_school_movement": "", "view_node": "/poet/rajiv-mohabir", "field_state": ""}, {"poets": "Leslie McGrath", "field_dob": "", "field_dod": "", "field_school_movement": "", "view_node": "/poet/leslie-mcgrath", "field_state": ""}, {"poets": "Ed Pavli\u0107", "field_dob": "", "field_dod": "", "field_school_movement": "", "view_node": "/poet/ed-pavlic", "field_state": ""}, {"poets": "Philip Terman", "field_dob": "1957", "field_dod": "", "field_school_movement": "", "view_node": "/poet/philip-terman", "field_state": "Pennsylvania"}, {"poets": "Juliet Patterson", "field_dob": "", "field_dod": "", "field_school_movement": "", "view_node": "/poet/juliet-patterson", "field_state": ""}, {"poets": "Steven P.  Schneider", "field_dob": "", "field_dod": "", "field_school_movement": "", "view_node": "/poet/steven-p-schneider", "field_state": ""}, {"poets": "Suzanne Buffam", "field_dob": "", "field_dod": "", "field_school_movement": "", "view_node": "/poet/suzanne-buffam", "field_state": ""}, {"poets": "Vievee Francis", "field_dob": "", "field_dod": "", "field_school_movement": "", "view_node": "/poet/vievee-francis", "field_state": ""}], "pager": {"current_page": 66, "total_items": "3766", "total_pages": 189, "items_per_page": 20}}