{"rows": [{"poets": "Tongo Eisen-Martin", "field_dob": "", "field_dod": "", "field_school_movement": "", "view_node": "/poet/tongo-eisen-martin", "field_state": "California"}, {"poets": "Holly Amos", "field_dob": "", "field_dod": "", "field_school_movement": "", "view_node": "/poet/holly-amos", "field_state": ""}, {"poets": "Douglas Kearney", "field_dob": "", "field_dod": "", "field_school_movement": "", "view_node": "/poet/douglas-kearney", "field_state": ""}, {"poets": "Fatimah  Asghar", "field_dob": "", "field_dod": "", "field_school_movement": "", "view_node": "/poet/fatimah-asghar", "field_state": ""}, {"poets": "Katherine E.  Young", "field_dob": "", "field_dod": "", "field_school_movement": "", "view_node": "/poet/katherine-e-young", "field_state": "Virginia"}, {"poets": "Michael Miller", "field_dob": "", "field_dod": "", "field_school_movement": "", "view_node": "/poet/michael-miller", "field_state": "California"}, {"poets": "Keith Leonard", "field_dob": "", "field_dod": "", "field_school_movement": "", "view_node": "/poet/keith-leonard", "field_state": ""}, {"poets": "Diannely Antigua", "field_dob": "", "field_dod": "", "field_school_movement": "", "view_node": "/poet/diannely-antigua", "field_state": ""}, {"poets": "Martin Rock", "field_dob": "", "field_dod": "", "field_school_movement": "", "view_node": "/poet/martin-rock", "field_state": ""}, {"poets": "Peg Boyers", "field_dob": "", "field_dod": "", "field_school_movement": "", "view_node": "/poet/peg-boyers", "field_state": ""}, {"poets": "Chen Chen", "field_dob": "", "field_dod": "", "field_school_movement": "", "view_node": "/poet/chen-chen", "field_state": ""}, {"poets": "Arthur Vogelsang", "field_dob": "", "field_dod": "", "field_school_movement": "", "view_node": "/poet/arthur-vogelsang", "field_state": "California"}, {"poets": "Heather Derr-Smith", "field_dob": "", "field_dod": "", "field_school_movement": "", "view_node": "/poet/heather-derr-smith", "field_state": ""}, {"poets": "Stacey Lynn Brown", "field_dob": "", "field_dod": "", "field_school_movement": "", "view_node": "/poet/stacey-lynn-brown", "field_state": ""}, {"poets": "Yesenia Montilla", "field_dob": "", "field_dod": "", "field_school_movement": "", "view_node": "/poet/yesenia-montilla", "field_state": "New York"}, {"poets": "Magdalena  Zurawski", "field_dob": "", "field_dod": "", "field_school_movement": "", "view_node": "/poet/magdalena-zurawski", "field_state": ""}, {"poets": "Colette Inez", "field_dob": "1931", "field_dod": "", "field_school_movement": "", "view_node": "/poet/colette-inez", "field_state": ""}, {"poets": "Denise Low", "field_dob": "", "field_dod": "", "field_school_movement": "", "view_node": "/poet/denise-low", "field_state": "Kansas"}, {"poets": "Daniela Gioseffi", "field_dob": "1941", "field_dod": "", "field_school_movement": "", "view_node": "/poet/daniela-gioseffi", "field_state": ""}, {"poets": "Joshua  Edwards", "field_dob": "", "field_dod": "", "field_school_movement": "", "view_node": "/poet/joshua-edwards", "field_state": ""}], "pager": {"current_page": 67, "total_items": "3766", "total_pages": 189, "items_per_page": 20}}