{"rows": [{"poets": "William O&#039;Daly", "field_dob": "", "field_dod": "", "field_school_movement": "", "view_node": "/poet/william-odaly", "field_state": ""}, {"poets": "Noelle Kocot", "field_dob": "", "field_dod": "", "field_school_movement": "", "view_node": "/poet/noelle-kocot", "field_state": ""}, {"poets": "Robin Becker", "field_dob": "", "field_dod": "", "field_school_movement": "", "view_node": "/poet/robin-becker", "field_state": "Pennsylvania"}, {"poets": "Anne Waldman", "field_dob": "1945", "field_dod": "", "field_school_movement": "New York School, Slam/Spoken Word, Beat", "view_node": "/poet/anne-waldman", "field_state": "Colorado"}, {"poets": "Franz Wright", "field_dob": "1953", "field_dod": "2015", "field_school_movement": "", "view_node": "/poet/franz-wright", "field_state": "Massachusetts"}, {"poets": "A. Poulin, Jr.", "field_dob": "", "field_dod": "", "field_school_movement": "", "view_node": "/poet/poulin-jr", "field_state": ""}, {"poets": "Richard Garcia", "field_dob": "", "field_dod": "", "field_school_movement": "Contemporary", "view_node": "/poet/richard-garcia", "field_state": "South Carolina"}, {"poets": "Stan Tymorek", "field_dob": "", "field_dod": "", "field_school_movement": "", "view_node": "/poet/stan-tymorek", "field_state": ""}, {"poets": "Susanna Nied", "field_dob": "", "field_dod": "", "field_school_movement": "", "view_node": "/poet/susanna-nied", "field_state": ""}, {"poets": "Efrain Huerta", "field_dob": "", "field_dod": "", "field_school_movement": "", "view_node": "/poet/efrain-huerta", "field_state": ""}, {"poets": "Anselm Hollo", "field_dob": "1934", "field_dod": "2013", "field_school_movement": "", "view_node": "/poet/anselm-hollo", "field_state": ""}, {"poets": "Terri Ford", "field_dob": "", "field_dod": "", "field_school_movement": "", "view_node": "/poet/terri-ford", "field_state": ""}, {"poets": "Greg Rappleye", "field_dob": "", "field_dod": "", "field_school_movement": "", "view_node": "/poet/greg-rappleye", "field_state": ""}, {"poets": "Rafael Guill\u00e9n", "field_dob": "", "field_dod": "", "field_school_movement": "", "view_node": "/poet/rafael-guillen", "field_state": ""}, {"poets": "Jean de Sponde", "field_dob": "", "field_dod": "", "field_school_movement": "", "view_node": "/poet/jean-de-sponde", "field_state": ""}, {"poets": "Brian P. Cleary", "field_dob": "1959", "field_dod": "", "field_school_movement": "", "view_node": "/poet/brian-p-cleary", "field_state": "Ohio"}, {"poets": "Ciaran Carson", "field_dob": "1948", "field_dod": "2019", "field_school_movement": "", "view_node": "/poet/ciaran-carson", "field_state": ""}, {"poets": "Eleanor Lerman", "field_dob": "", "field_dod": "", "field_school_movement": "Contemporary", "view_node": "/poet/eleanor-lerman", "field_state": ""}, {"poets": "Gabriel Gudding", "field_dob": "", "field_dod": "", "field_school_movement": "", "view_node": "/poet/gabriel-gudding", "field_state": ""}, {"poets": "John Montague", "field_dob": "", "field_dod": "", "field_school_movement": "", "view_node": "/poet/john-montague", "field_state": ""}], "pager": {"current_page": 174, "total_items": "3766", "total_pages": 189, "items_per_page": 20}}