{"rows": [{"poets": "Ann Plato ", "field_dob": "", "field_dod": "", "field_school_movement": "", "view_node": "/poet/ann-plato", "field_state": ""}, {"poets": "Irvin W. Underhill", "field_dob": "", "field_dod": "", "field_school_movement": "", "view_node": "/poet/irvin-w-underhill", "field_state": ""}, {"poets": "L. Ash Williams", "field_dob": "", "field_dod": "", "field_school_movement": "", "view_node": "/poet/l-ash-williams", "field_state": ""}, {"poets": "Barbara Fant ", "field_dob": "", "field_dod": "", "field_school_movement": "", "view_node": "/poet/barbara-fant", "field_state": ""}, {"poets": "Crystal Valentine ", "field_dob": "", "field_dod": "", "field_school_movement": "", "view_node": "/poet/crystal-valentine", "field_state": ""}, {"poets": "Luther Hughes ", "field_dob": "", "field_dod": "", "field_school_movement": "", "view_node": "/poet/luther-hughes", "field_state": ""}, {"poets": "Jive Poetic", "field_dob": "", "field_dod": "", "field_school_movement": "", "view_node": "/poet/jive-poetic", "field_state": ""}, {"poets": "James D. Corrothers", "field_dob": "", "field_dod": "", "field_school_movement": "", "view_node": "/poet/james-d-corrothers", "field_state": ""}, {"poets": "Derrick Harriell ", "field_dob": "", "field_dod": "", "field_school_movement": "", "view_node": "/poet/derrick-harriell", "field_state": ""}, {"poets": "J. W. Hammond ", "field_dob": "", "field_dod": "", "field_school_movement": "", "view_node": "/poet/j-w-hammond", "field_state": ""}, {"poets": "Enzo Silon Surin", "field_dob": "", "field_dod": "", "field_school_movement": "", "view_node": "/poet/enzo-silon-surin", "field_state": ""}, {"poets": "Krysten Hill  ", "field_dob": "", "field_dod": "", "field_school_movement": "", "view_node": "/poet/krysten-hill", "field_state": ""}, {"poets": "Jabari Asim", "field_dob": "", "field_dod": "", "field_school_movement": "", "view_node": "/poet/jabari-asim", "field_state": ""}, {"poets": "Eva A. Jessye ", "field_dob": "", "field_dod": "", "field_school_movement": "", "view_node": "/poet/eva-jessye", "field_state": ""}, {"poets": "Marissa Davis", "field_dob": "", "field_dod": "", "field_school_movement": "", "view_node": "/poet/marissa-davis", "field_state": ""}, {"poets": "Charles Bertram Johnson ", "field_dob": "", "field_dod": "", "field_school_movement": "", "view_node": "/poet/charles-bertram-johnson", "field_state": "Missouri"}, {"poets": "April Freely", "field_dob": "", "field_dod": "", "field_school_movement": "", "view_node": "/poet/april-freely", "field_state": ""}, {"poets": "Sasha Debevec-McKenney", "field_dob": "", "field_dod": "", "field_school_movement": "", "view_node": "/poet/sasha-debevec-mckenney", "field_state": ""}, {"poets": "Gbenga Adesina ", "field_dob": "", "field_dod": "", "field_school_movement": "", "view_node": "/poet/gbenga-adesina", "field_state": ""}, {"poets": "Kristina Kay Robinson ", "field_dob": "", "field_dod": "", "field_school_movement": "", "view_node": "/poet/kristina-kay-robinson", "field_state": ""}], "pager": {"current_page": 24, "total_items": "3766", "total_pages": 189, "items_per_page": 20}}