{"rows": [{"poets": "Amy Newlove Schroeder", "field_dob": "", "field_dod": "", "field_school_movement": "", "view_node": "/poet/amy-newlove-schroeder", "field_state": ""}, {"poets": "Mark Statman", "field_dob": "", "field_dod": "", "field_school_movement": "", "view_node": "/poet/mark-statman", "field_state": ""}, {"poets": "Mike Carson", "field_dob": "", "field_dod": "", "field_school_movement": "", "view_node": "/poet/mike-carson", "field_state": ""}, {"poets": "Jack Ridl", "field_dob": "", "field_dod": "", "field_school_movement": "", "view_node": "/poet/jack-ridl", "field_state": ""}, {"poets": "January Gill O\u2019Neil", "field_dob": "", "field_dod": "", "field_school_movement": "", "view_node": "/poet/january-gill-oneil", "field_state": "Massachusetts"}, {"poets": "Nin Andrews", "field_dob": "", "field_dod": "", "field_school_movement": "", "view_node": "/poet/nin-andrews", "field_state": ""}, {"poets": "Dan Chiasson", "field_dob": "1971", "field_dod": "", "field_school_movement": "Contemporary", "view_node": "/poet/dan-chiasson", "field_state": "Massachusetts"}, {"poets": "Red Hawk", "field_dob": "", "field_dod": "", "field_school_movement": "", "view_node": "/poet/red-hawk", "field_state": ""}, {"poets": "Daniel Halpern", "field_dob": "1945", "field_dod": "", "field_school_movement": "", "view_node": "/poet/daniel-halpern", "field_state": ""}, {"poets": "Annie Petrie-Sauter", "field_dob": "", "field_dod": "", "field_school_movement": "", "view_node": "/poet/annie-petrie-sauter", "field_state": ""}, {"poets": "Vera Pavlova", "field_dob": "", "field_dod": "", "field_school_movement": "", "view_node": "/poet/vera-pavlova", "field_state": ""}, {"poets": "Cecilia Woloch", "field_dob": "", "field_dod": "", "field_school_movement": "", "view_node": "/poet/cecilia-woloch", "field_state": ""}, {"poets": "Daniel Johnson", "field_dob": "", "field_dod": "", "field_school_movement": "Contemporary", "view_node": "/poet/daniel-johnson", "field_state": "Massachusetts"}, {"poets": "Dorothea Lasky", "field_dob": "1978", "field_dod": "", "field_school_movement": "Contemporary", "view_node": "/poet/dorothea-lasky", "field_state": "New York"}, {"poets": "Reginald Dwayne Betts", "field_dob": "", "field_dod": "", "field_school_movement": "", "view_node": "/poet/reginald-dwayne-betts", "field_state": ""}, {"poets": "Brian Turner", "field_dob": "", "field_dod": "", "field_school_movement": "", "view_node": "/poet/brian-turner", "field_state": ""}, {"poets": "Nick Lantz", "field_dob": "", "field_dod": "", "field_school_movement": "", "view_node": "/poet/nick-lantz", "field_state": ""}, {"poets": "Maud Gonne", "field_dob": "", "field_dod": "", "field_school_movement": "", "view_node": "/poet/maud-gonne", "field_state": ""}, {"poets": "Alice Dunbar-Nelson", "field_dob": "1875", "field_dod": "1935", "field_school_movement": "Harlem Renaissance", "view_node": "/poet/alice-dunbar-nelson", "field_state": ""}, {"poets": "Alexandra Teague", "field_dob": "", "field_dod": "", "field_school_movement": "", "view_node": "/poet/alexandra-teague", "field_state": "Idaho"}], "pager": {"current_page": 116, "total_items": "3766", "total_pages": 189, "items_per_page": 20}}