{"rows": [{"poets": "E. Ethelbert Miller", "field_dob": "1950", "field_dod": "", "field_school_movement": "", "view_node": "/poet/e-ethelbert-miller", "field_state": "District of Columbia"}, {"poets": "Inger Christensen", "field_dob": "1935", "field_dod": "2009", "field_school_movement": "", "view_node": "/poet/inger-christensen", "field_state": ""}, {"poets": "Allen Grossman", "field_dob": "", "field_dod": "", "field_school_movement": "", "view_node": "/poet/allen-grossman", "field_state": ""}, {"poets": "Mari Evans", "field_dob": "1923", "field_dod": "2017", "field_school_movement": "Black Arts", "view_node": "/poet/mari-evans", "field_state": "Indiana"}, {"poets": "Thylias Moss", "field_dob": "1954", "field_dod": "", "field_school_movement": "", "view_node": "/poet/thylias-moss", "field_state": "Michigan"}, {"poets": "Derick Burleson", "field_dob": "", "field_dod": "", "field_school_movement": "", "view_node": "/poet/derick-burleson", "field_state": "Alaska"}, {"poets": "Martine Bellen", "field_dob": "", "field_dod": "", "field_school_movement": "", "view_node": "/poet/martine-bellen", "field_state": ""}, {"poets": "Fabio M\u00f3rabito", "field_dob": "", "field_dod": "", "field_school_movement": "", "view_node": "/poet/fabio-morabito", "field_state": ""}, {"poets": "Ann Stanford", "field_dob": "1916", "field_dod": "1987", "field_school_movement": "", "view_node": "/poet/ann-stanford", "field_state": ""}, {"poets": "Li Ch&#039;ing-chao", "field_dob": "", "field_dod": "", "field_school_movement": "", "view_node": "/poet/li-ching-chao", "field_state": ""}, {"poets": "Rebecca Wee", "field_dob": "", "field_dod": "", "field_school_movement": "", "view_node": "/poet/rebecca-wee", "field_state": ""}, {"poets": "Richard Hugo", "field_dob": "1923", "field_dod": "1982", "field_school_movement": "", "view_node": "/poet/richard-hugo", "field_state": "Montana"}, {"poets": "Nathaniel Mackey", "field_dob": "", "field_dod": "", "field_school_movement": "", "view_node": "/poet/nathaniel-mackey", "field_state": "North Carolina"}, {"poets": "Claudia Rankine", "field_dob": "", "field_dod": "", "field_school_movement": "Contemporary", "view_node": "/poet/claudia-rankine", "field_state": "New York"}, {"poets": "Al Young", "field_dob": "1939", "field_dod": "", "field_school_movement": "Jazz Poetry", "view_node": "/poet/al-young", "field_state": "California"}, {"poets": "Frank Marshall Davis", "field_dob": "1905", "field_dod": "1987", "field_school_movement": "", "view_node": "/poet/frank-marshall-davis", "field_state": "Hawaii"}, {"poets": "Jayne Cortez", "field_dob": "1934", "field_dod": "2012", "field_school_movement": "Black Arts, Jazz Poetry", "view_node": "/poet/jayne-cortez", "field_state": "New York"}, {"poets": "C. Dale Young", "field_dob": "1969", "field_dod": "", "field_school_movement": "", "view_node": "/poet/c-dale-young", "field_state": ""}, {"poets": "Christopher Buckley", "field_dob": "", "field_dod": "", "field_school_movement": "", "view_node": "/poet/christopher-buckley", "field_state": ""}, {"poets": "Kirsten Dierking", "field_dob": "", "field_dod": "", "field_school_movement": "", "view_node": "/poet/kirsten-dierking", "field_state": ""}], "pager": {"current_page": 176, "total_items": "3766", "total_pages": 189, "items_per_page": 20}}