{"rows": [{"poets": "Jack Anderson", "field_dob": "", "field_dod": "", "field_school_movement": "", "view_node": "/poet/jack-anderson", "field_state": ""}, {"poets": "Dick Lourie", "field_dob": "", "field_dod": "", "field_school_movement": "", "view_node": "/poet/dick-lourie", "field_state": ""}, {"poets": "Hannah Zeavin", "field_dob": "", "field_dod": "", "field_school_movement": "", "view_node": "/poet/hannah-zeavin", "field_state": ""}, {"poets": "Algernon Charles Swinburne", "field_dob": "1837", "field_dod": "1909", "field_school_movement": "Victorian", "view_node": "/poet/algernon-charles-swinburne", "field_state": ""}, {"poets": "Salah Al Hamdani", "field_dob": "", "field_dod": "", "field_school_movement": "", "view_node": "/poet/salah-al-hamdani", "field_state": ""}, {"poets": "Dragan Dragojlovic", "field_dob": "", "field_dod": "", "field_school_movement": "", "view_node": "/poet/dragan-dragojlovic", "field_state": ""}, {"poets": "Grace Paley", "field_dob": "1922", "field_dod": "2007", "field_school_movement": "", "view_node": "/poet/grace-paley", "field_state": ""}, {"poets": "Emily Warn", "field_dob": "", "field_dod": "", "field_school_movement": "", "view_node": "/poet/emily-warn", "field_state": ""}, {"poets": "Mary Jo Salter", "field_dob": "1954", "field_dod": "", "field_school_movement": "New Formalism", "view_node": "/poet/mary-jo-salter", "field_state": "Maryland"}, {"poets": "Lars Gustafsson", "field_dob": "1936", "field_dod": "2016", "field_school_movement": "", "view_node": "/poet/lars-gustafsson", "field_state": ""}, {"poets": "Elizabeth Spires", "field_dob": "", "field_dod": "", "field_school_movement": "", "view_node": "/poet/elizabeth-spires", "field_state": ""}, {"poets": "Rusty Morrison", "field_dob": "", "field_dod": "", "field_school_movement": "", "view_node": "/poet/rusty-morrison", "field_state": ""}, {"poets": "Cecily Parks", "field_dob": "", "field_dod": "", "field_school_movement": "", "view_node": "/poet/cecily-parks", "field_state": ""}, {"poets": "Sarah Gambito", "field_dob": "", "field_dod": "", "field_school_movement": "", "view_node": "/poet/sarah-gambito", "field_state": ""}, {"poets": "Maureen N. McLane", "field_dob": "", "field_dod": "", "field_school_movement": "", "view_node": "/poet/maureen-n-mclane", "field_state": "New York"}, {"poets": "Sven Birkerts", "field_dob": "", "field_dod": "", "field_school_movement": "", "view_node": "/poet/sven-birkerts", "field_state": ""}, {"poets": "Stanley Burnshaw", "field_dob": "", "field_dod": "", "field_school_movement": "", "view_node": "/poet/stanley-burnshaw", "field_state": ""}, {"poets": "Alberto Blanco", "field_dob": "", "field_dod": "", "field_school_movement": "", "view_node": "/poet/alberto-blanco", "field_state": ""}, {"poets": "Abraham Smith", "field_dob": "", "field_dod": "", "field_school_movement": "", "view_node": "/poet/abraham-smith", "field_state": ""}, {"poets": "Darcie Dennigan", "field_dob": "", "field_dod": "", "field_school_movement": "Contemporary", "view_node": "/poet/darcie-dennigan", "field_state": ""}], "pager": {"current_page": 124, "total_items": "3766", "total_pages": 189, "items_per_page": 20}}