{"rows": [{"poets": "Chelsey Minnis", "field_dob": "", "field_dod": "", "field_school_movement": "", "view_node": "/poet/chelsey-minnis", "field_state": "Colorado"}, {"poets": "Dominique Christina", "field_dob": "", "field_dod": "", "field_school_movement": "", "view_node": "/poet/dominique-christina", "field_state": ""}, {"poets": "Rodger Kamenetz", "field_dob": "", "field_dod": "", "field_school_movement": "", "view_node": "/poet/rodger-kamenetz", "field_state": ""}, {"poets": "Holly Karapetkova", "field_dob": "", "field_dod": "", "field_school_movement": "", "view_node": "/poet/holly-karapetkova", "field_state": ""}, {"poets": "Wendy Barker", "field_dob": "", "field_dod": "", "field_school_movement": "", "view_node": "/poet/wendy-barker", "field_state": ""}, {"poets": "Joe Wilkins", "field_dob": "", "field_dod": "", "field_school_movement": "", "view_node": "/poet/joe-wilkins", "field_state": ""}, {"poets": "Gretchen Steele Pratt", "field_dob": "", "field_dod": "", "field_school_movement": "", "view_node": "/poet/gretchen-steele-pratt", "field_state": "North Carolina"}, {"poets": "Catherine Staples", "field_dob": "", "field_dod": "", "field_school_movement": "", "view_node": "/poet/catherine-staples", "field_state": ""}, {"poets": "Joyce Clement", "field_dob": "", "field_dod": "", "field_school_movement": "", "view_node": "/poet/joyce-clement", "field_state": ""}, {"poets": "Jeffrey Bean", "field_dob": "", "field_dod": "", "field_school_movement": "", "view_node": "/poet/jeffrey-bean", "field_state": "Michigan"}, {"poets": "Sara Borjas", "field_dob": "", "field_dod": "", "field_school_movement": "", "view_node": "/poet/sara-borjas", "field_state": ""}, {"poets": "Diana Khoi Nguyen", "field_dob": "", "field_dod": "", "field_school_movement": "", "view_node": "/poet/diana-khoi-nguyen", "field_state": ""}, {"poets": "Arnaut Daniel", "field_dob": "", "field_dod": "", "field_school_movement": "", "view_node": "/poet/arnaut-daniel", "field_state": ""}, {"poets": "Joseph Seamon Cotter Sr.", "field_dob": "1861", "field_dod": "1949", "field_school_movement": "", "view_node": "/poet/joseph-seamon-cotter-sr", "field_state": ""}, {"poets": "Bao Phi", "field_dob": "", "field_dod": "", "field_school_movement": "", "view_node": "/poet/bao-phi", "field_state": ""}, {"poets": "Sarabjeet Garcha", "field_dob": "", "field_dod": "", "field_school_movement": "", "view_node": "/poet/sarabjeet-garcha", "field_state": ""}, {"poets": "Natascha Bruce", "field_dob": "", "field_dod": "", "field_school_movement": "", "view_node": "/poet/natascha-bruce", "field_state": ""}, {"poets": "Ciara Shuttleworth", "field_dob": "", "field_dod": "", "field_school_movement": "", "view_node": "/poet/ciara-shuttleworth", "field_state": ""}, {"poets": "Nh\u00e3 Thuy\u00ean", "field_dob": "", "field_dod": "", "field_school_movement": "", "view_node": "/poet/nha-thuyen", "field_state": ""}, {"poets": "Lawrence Schimel", "field_dob": "", "field_dod": "", "field_school_movement": "", "view_node": "/poet/lawrence-schimel", "field_state": ""}], "pager": {"current_page": 47, "total_items": "3766", "total_pages": 189, "items_per_page": 20}}