{"rows": [{"poets": "Rosamond S. King", "field_dob": "", "field_dod": "", "field_school_movement": "", "view_node": "/poet/rosamond-s-king", "field_state": ""}, {"poets": "Diana Marie Delgado", "field_dob": "", "field_dod": "", "field_school_movement": "", "view_node": "/poet/diana-marie-delgado", "field_state": ""}, {"poets": "Joan I. Siegel", "field_dob": "", "field_dod": "", "field_school_movement": "", "view_node": "/poet/joan-i-siegel", "field_state": ""}, {"poets": "J. R. Solonche", "field_dob": "", "field_dod": "", "field_school_movement": "", "view_node": "/poet/j-r-solonche", "field_state": ""}, {"poets": "Monica Hand", "field_dob": "", "field_dod": "", "field_school_movement": "", "view_node": "/poet/monica-hand", "field_state": ""}, {"poets": "Jared Stanley", "field_dob": "", "field_dod": "", "field_school_movement": "", "view_node": "/poet/jared-stanley", "field_state": ""}, {"poets": "Lance Larsen", "field_dob": "", "field_dod": "", "field_school_movement": "", "view_node": "/poet/lance-larsen", "field_state": "Utah"}, {"poets": "Burlee Vang ", "field_dob": "", "field_dod": "", "field_school_movement": "", "view_node": "/poet/burlee-vang", "field_state": "California"}, {"poets": "Anne Bront\u00eb", "field_dob": "1820", "field_dod": "1849", "field_school_movement": "", "view_node": "/poet/anne-bronte", "field_state": ""}, {"poets": "Bob Dylan", "field_dob": "1941", "field_dod": "", "field_school_movement": "", "view_node": "/poet/bob-dylan", "field_state": ""}, {"poets": "Ann Fisher-Wirth", "field_dob": "", "field_dod": "", "field_school_movement": "", "view_node": "/poet/ann-fisher-wirth", "field_state": "Mississippi"}, {"poets": "Layli Long Soldier", "field_dob": "", "field_dod": "", "field_school_movement": "", "view_node": "/poet/layli-long-soldier", "field_state": ""}, {"poets": "Jay Hopler", "field_dob": "1970", "field_dod": "2022", "field_school_movement": "", "view_node": "/poet/jay-hopler", "field_state": ""}, {"poets": "Daniel Borzutzky", "field_dob": "", "field_dod": "", "field_school_movement": "", "view_node": "/poet/daniel-borzutzky", "field_state": ""}, {"poets": "Charif Shanahan", "field_dob": "", "field_dod": "", "field_school_movement": "", "view_node": "/poet/charif-shanahan", "field_state": ""}, {"poets": "Maggie Smith", "field_dob": "", "field_dod": "", "field_school_movement": "", "view_node": "/poet/maggie-smith", "field_state": "Ohio"}, {"poets": "Paul Carroll", "field_dob": "1927", "field_dod": "1996", "field_school_movement": "", "view_node": "/poet/paul-carroll", "field_state": "Illinois"}, {"poets": "Erica Mena", "field_dob": "", "field_dod": "", "field_school_movement": "", "view_node": "/poet/erica-mena", "field_state": "California"}, {"poets": "Maggie Dietz", "field_dob": "", "field_dod": "", "field_school_movement": "", "view_node": "/poet/maggie-dietz", "field_state": "New Hampshire"}, {"poets": "Kathleen Graber", "field_dob": "", "field_dod": "", "field_school_movement": "", "view_node": "/poet/kathleen-graber", "field_state": ""}], "pager": {"current_page": 64, "total_items": "3766", "total_pages": 189, "items_per_page": 20}}