{"rows": [{"poets": "Kenneth Koch", "field_dob": "1925", "field_dod": "2002", "field_school_movement": "New York School", "view_node": "/poet/kenneth-koch", "field_state": "New York"}, {"poets": "Federico Garc\u00eda Lorca", "field_dob": "1898", "field_dod": "1936", "field_school_movement": "", "view_node": "/poet/federico-garcia-lorca", "field_state": ""}, {"poets": "Eve Merriam", "field_dob": "1916", "field_dod": "1992", "field_school_movement": "", "view_node": "/poet/eve-merriam", "field_state": ""}, {"poets": "Percy Bysshe Shelley", "field_dob": "1792", "field_dod": "1822", "field_school_movement": "Romanticism", "view_node": "/poet/percy-bysshe-shelley", "field_state": ""}, {"poets": "Robert Herrick", "field_dob": "1591", "field_dod": "1674", "field_school_movement": "", "view_node": "/poet/robert-herrick", "field_state": ""}, {"poets": "John Donne", "field_dob": "1572", "field_dod": "1631", "field_school_movement": "Metaphysical Poet", "view_node": "/poet/john-donne", "field_state": ""}], "pager": {"current_page": 188, "total_items": "3766", "total_pages": 189, "items_per_page": 20}}