{"rows": [{"poets": "Sadia Hassan ", "field_dob": "", "field_dod": "", "field_school_movement": "", "view_node": "/poet/sadia-hassan", "field_state": ""}, {"poets": "Alison C. Rollins", "field_dob": "", "field_dod": "", "field_school_movement": "", "view_node": "/poet/alison-c-rollins", "field_state": ""}, {"poets": "Gabrielle Marshall", "field_dob": "", "field_dod": "", "field_school_movement": "", "view_node": "/poet/gabrielle-marshall", "field_state": ""}, {"poets": "Mina King", "field_dob": "", "field_dod": "", "field_school_movement": "", "view_node": "/poet/mina-king", "field_state": ""}, {"poets": "Hallie Knight", "field_dob": "", "field_dod": "", "field_school_movement": "", "view_node": "/poet/hallie-knight", "field_state": ""}, {"poets": "Sanna Wani ", "field_dob": "", "field_dod": "", "field_school_movement": "", "view_node": "/poet/sanna-wani", "field_state": ""}, {"poets": "Jacqui Germain", "field_dob": "", "field_dod": "", "field_school_movement": "", "view_node": "/poet/jacqui-germain", "field_state": ""}, {"poets": "Babette Deutsch", "field_dob": "1895", "field_dod": "1982", "field_school_movement": "Imagism", "view_node": "/poet/babette-deutsch", "field_state": ""}, {"poets": "beyza ozer", "field_dob": "", "field_dod": "", "field_school_movement": "", "view_node": "/poet/beyza-ozer", "field_state": ""}, {"poets": "Paula Gunn Allen", "field_dob": "1939", "field_dod": "2008", "field_school_movement": "", "view_node": "/poet/paula-gunn-allen", "field_state": ""}, {"poets": "Pauli Murray", "field_dob": "1910", "field_dod": "1985", "field_school_movement": "", "view_node": "/poet/pauli-murray", "field_state": ""}, {"poets": "T. C. Cannon", "field_dob": "1946", "field_dod": "1978", "field_school_movement": "", "view_node": "/poet/t-c-cannon", "field_state": ""}, {"poets": "Jamila Woods ", "field_dob": "", "field_dod": "", "field_school_movement": "", "view_node": "/poet/jamila-woods", "field_state": ""}, {"poets": "Jacqueline Waters", "field_dob": "", "field_dod": "", "field_school_movement": "", "view_node": "/poet/jacqueline-waters", "field_state": ""}, {"poets": " Eran Eads", "field_dob": "", "field_dod": "", "field_school_movement": "", "view_node": "/poet/eran-eads", "field_state": ""}, {"poets": "Merrill Gilfillan", "field_dob": "", "field_dod": "", "field_school_movement": "", "view_node": "/poet/merrill-gilfillan", "field_state": ""}, {"poets": "Noah Ross", "field_dob": "", "field_dod": "", "field_school_movement": "", "view_node": "/poet/noah-ross", "field_state": ""}, {"poets": "Sumita Chakraborty", "field_dob": "", "field_dod": "", "field_school_movement": "", "view_node": "/poet/sumita-chakraborty", "field_state": ""}, {"poets": "Eric Ekstrand", "field_dob": "", "field_dod": "", "field_school_movement": "", "view_node": "/poet/eric-ekstrand", "field_state": ""}, {"poets": "Donna Stonecipher", "field_dob": "", "field_dod": "", "field_school_movement": "", "view_node": "/poet/donna-stonecipher", "field_state": ""}], "pager": {"current_page": 19, "total_items": "3766", "total_pages": 189, "items_per_page": 20}}