{"rows": [{"poets": "Peter Pereira", "field_dob": "", "field_dod": "", "field_school_movement": "", "view_node": "/poet/peter-pereira", "field_state": ""}, {"poets": "Jennifer Perrine", "field_dob": "", "field_dod": "", "field_school_movement": "", "view_node": "/poet/jennifer-perrine", "field_state": ""}, {"poets": "Maureen Gibbon", "field_dob": "", "field_dod": "", "field_school_movement": "", "view_node": "/poet/maureen-gibbon", "field_state": ""}, {"poets": "Anne Blonstein", "field_dob": "", "field_dod": "", "field_school_movement": "", "view_node": "/poet/anne-blonstein", "field_state": ""}, {"poets": "Jason Bredle", "field_dob": "", "field_dod": "", "field_school_movement": "", "view_node": "/poet/jason-bredle", "field_state": ""}, {"poets": "Yosa Buson", "field_dob": "", "field_dod": "", "field_school_movement": "", "view_node": "/poet/yosa-buson", "field_state": ""}, {"poets": "Vicente Aleixandre", "field_dob": "", "field_dod": "", "field_school_movement": "", "view_node": "/poet/vicente-aleixandre", "field_state": ""}, {"poets": "Paisley Rekdal", "field_dob": "", "field_dod": "", "field_school_movement": "", "view_node": "/poet/paisley-rekdal", "field_state": "Wyoming"}, {"poets": "Richard Shelton", "field_dob": "", "field_dod": "", "field_school_movement": "", "view_node": "/poet/richard-shelton", "field_state": ""}, {"poets": "Terence Winch", "field_dob": "", "field_dod": "", "field_school_movement": "", "view_node": "/poet/terence-winch", "field_state": ""}, {"poets": "Matthew Lippman", "field_dob": "", "field_dod": "", "field_school_movement": "", "view_node": "/poet/matthew-lippman", "field_state": ""}, {"poets": "Mary Cornish", "field_dob": "", "field_dod": "", "field_school_movement": "", "view_node": "/poet/mary-cornish", "field_state": ""}, {"poets": "Michael Dumanis", "field_dob": "", "field_dod": "", "field_school_movement": "", "view_node": "/poet/michael-dumanis", "field_state": ""}, {"poets": "James Hoch", "field_dob": "", "field_dod": "", "field_school_movement": "", "view_node": "/poet/james-hoch", "field_state": ""}, {"poets": "Meghan O&#039;Rourke", "field_dob": "", "field_dod": "", "field_school_movement": "Contemporary", "view_node": "/poet/meghan-orourke", "field_state": ""}, {"poets": "Herman de Coninck", "field_dob": "", "field_dod": "", "field_school_movement": "", "view_node": "/poet/herman-de-coninck", "field_state": ""}, {"poets": "Nathaniel Bellows", "field_dob": "", "field_dod": "", "field_school_movement": "", "view_node": "/poet/nathaniel-bellows", "field_state": ""}, {"poets": "Charles North", "field_dob": "", "field_dod": "", "field_school_movement": "", "view_node": "/poet/charles-north", "field_state": ""}, {"poets": "Tony Connor", "field_dob": "", "field_dod": "", "field_school_movement": "", "view_node": "/poet/tony-connor", "field_state": ""}, {"poets": "Mary Crow", "field_dob": "", "field_dod": "", "field_school_movement": "", "view_node": "/poet/mary-crow", "field_state": ""}], "pager": {"current_page": 132, "total_items": "3766", "total_pages": 189, "items_per_page": 20}}