{"rows": [{"poets": "Chelsea Wagenaar", "field_dob": "", "field_dod": "", "field_school_movement": "", "view_node": "/poet/chelsea-wagenaar", "field_state": ""}, {"poets": "Joannie Stangeland", "field_dob": "", "field_dod": "", "field_school_movement": "", "view_node": "/poet/joannie-stangeland", "field_state": ""}, {"poets": "Cindy Veach", "field_dob": "", "field_dod": "", "field_school_movement": "", "view_node": "/poet/cindy-veach", "field_state": ""}, {"poets": "Carrie Shipers", "field_dob": "", "field_dod": "", "field_school_movement": "", "view_node": "/poet/carrie-shipers", "field_state": "Rhode Island"}, {"poets": "James Baldwin", "field_dob": "1924", "field_dod": "1987", "field_school_movement": "", "view_node": "/poet/james-baldwin", "field_state": ""}, {"poets": "Cathie Sandstrom", "field_dob": "", "field_dod": "", "field_school_movement": "", "view_node": "/poet/cathie-sandstrom", "field_state": "California"}, {"poets": "Elizabeth Rees", "field_dob": "", "field_dod": "", "field_school_movement": "", "view_node": "/poet/elizabeth-rees", "field_state": ""}, {"poets": "Charles Rafferty", "field_dob": "", "field_dod": "", "field_school_movement": "", "view_node": "/poet/charles-rafferty", "field_state": "Connecticut"}, {"poets": "Catherine Pierce", "field_dob": "", "field_dod": "", "field_school_movement": "", "view_node": "/poet/catherine-pierce", "field_state": ""}, {"poets": "Steve Myers", "field_dob": "", "field_dod": "", "field_school_movement": "", "view_node": "/poet/steve-myers", "field_state": ""}, {"poets": "Michael McFee", "field_dob": "", "field_dod": "", "field_school_movement": "", "view_node": "/poet/michael-mcfee", "field_state": "North Carolina"}, {"poets": "Paul Hunter", "field_dob": "", "field_dod": "", "field_school_movement": "", "view_node": "/poet/paul-hunter", "field_state": ""}, {"poets": "Patricia Hooper", "field_dob": "", "field_dod": "", "field_school_movement": "", "view_node": "/poet/patricia-hooper", "field_state": ""}, {"poets": "Jeff Hardin", "field_dob": "", "field_dod": "", "field_school_movement": "", "view_node": "/poet/jeff-hardin", "field_state": "Tennessee"}, {"poets": "Leah Naomi Green", "field_dob": "", "field_dod": "", "field_school_movement": "", "view_node": "/poet/leah-naomi-green", "field_state": ""}, {"poets": "Stephen Gibson", "field_dob": "", "field_dod": "", "field_school_movement": "", "view_node": "/poet/stephen-gibson", "field_state": ""}, {"poets": "Lindsey D. Alexander", "field_dob": "", "field_dod": "", "field_school_movement": "", "view_node": "/poet/lindsey-d-alexander", "field_state": ""}, {"poets": "Keegan  Lester ", "field_dob": "", "field_dod": "", "field_school_movement": "", "view_node": "/poet/keegan-lester", "field_state": ""}, {"poets": "Tiana Clark", "field_dob": "", "field_dod": "", "field_school_movement": "", "view_node": "/poet/tiana-clark", "field_state": ""}, {"poets": "Michael Bazzett", "field_dob": "", "field_dod": "", "field_school_movement": "", "view_node": "/poet/michael-bazzett", "field_state": ""}], "pager": {"current_page": 60, "total_items": "3766", "total_pages": 189, "items_per_page": 20}}