{"rows": [{"poets": "Arthur Davison Ficke", "field_dob": "1883", "field_dod": "1945", "field_school_movement": "Poets of World War I", "view_node": "/poet/arthur-davison-ficke", "field_state": "Iowa"}, {"poets": "Elias Lieberman", "field_dob": "1883", "field_dod": "1969", "field_school_movement": "", "view_node": "/poet/elias-lieberman", "field_state": "New York"}, {"poets": "Margaret Widdemer", "field_dob": "", "field_dod": "", "field_school_movement": "", "view_node": "/poet/margaret-widdemer", "field_state": ""}, {"poets": "Janet Loxley Lewis", "field_dob": "", "field_dod": "", "field_school_movement": "", "view_node": "/poet/janet-loxley-lewis", "field_state": ""}, {"poets": "Lorenzo Calogero", "field_dob": "", "field_dod": "", "field_school_movement": "", "view_node": "/poet/lorenzo-calogero", "field_state": ""}, {"poets": "Virginie Lalucq", "field_dob": "1975", "field_dod": "", "field_school_movement": "", "view_node": "/poet/virginie-lalucq", "field_state": ""}, {"poets": "Adrian Matejka", "field_dob": "", "field_dod": "", "field_school_movement": "", "view_node": "/poet/adrian-matejka", "field_state": ""}, {"poets": "Diane Seuss", "field_dob": "", "field_dod": "", "field_school_movement": "", "view_node": "/poet/diane-seuss", "field_state": "Michigan"}, {"poets": "Roger Reeves", "field_dob": "", "field_dod": "", "field_school_movement": "", "view_node": "/poet/roger-reeves", "field_state": "Texas"}, {"poets": "Roger Bonair-Agard", "field_dob": "", "field_dod": "", "field_school_movement": "", "view_node": "/poet/roger-bonair-agard", "field_state": ""}, {"poets": "Carolyn Wells", "field_dob": "1862", "field_dod": "1942", "field_school_movement": "", "view_node": "/poet/carolyn-wells", "field_state": ""}, {"poets": "Becca Klaver", "field_dob": "", "field_dod": "", "field_school_movement": "Contemporary", "view_node": "/poet/becca-klaver", "field_state": ""}, {"poets": "Todd Boss", "field_dob": "", "field_dod": "", "field_school_movement": "Contemporary", "view_node": "/poet/todd-boss", "field_state": ""}, {"poets": "Rachel McKibbens", "field_dob": "", "field_dod": "", "field_school_movement": "", "view_node": "/poet/rachel-mckibbens", "field_state": ""}, {"poets": "Elizabeth Akers Allen", "field_dob": "1832", "field_dod": "1911", "field_school_movement": "", "view_node": "/poet/elizabeth-akers-allen", "field_state": ""}, {"poets": "Caroline Gilman", "field_dob": "", "field_dod": "1888", "field_school_movement": "", "view_node": "/poet/caroline-gilman", "field_state": "South Carolina"}, {"poets": "Jones Very", "field_dob": "1813", "field_dod": "1880", "field_school_movement": "", "view_node": "/poet/jones-very", "field_state": "Massachusetts"}, {"poets": "Atsuro Riley", "field_dob": "", "field_dod": "", "field_school_movement": "Contemporary", "view_node": "/poet/atsuro-riley", "field_state": ""}, {"poets": "Melissa Ginsburg", "field_dob": "", "field_dod": "", "field_school_movement": "Contemporary", "view_node": "/poet/melissa-ginsburg", "field_state": ""}, {"poets": "William Stanley Braithwaite", "field_dob": "1878", "field_dod": "1962", "field_school_movement": "", "view_node": "/poet/william-stanley-braithwaite", "field_state": ""}], "pager": {"current_page": 94, "total_items": "3766", "total_pages": 189, "items_per_page": 20}}