{"rows": [{"poets": "Kathryn Stripling Byer", "field_dob": "", "field_dod": "", "field_school_movement": "", "view_node": "/poet/kathryn-stripling-byer", "field_state": "North Carolina"}, {"poets": "James Wright", "field_dob": "1927", "field_dod": "1980", "field_school_movement": "", "view_node": "/poet/james-wright", "field_state": "Ohio"}, {"poets": "Judy Jordan", "field_dob": "", "field_dod": "", "field_school_movement": "", "view_node": "/poet/judy-jordan", "field_state": "Illinois"}, {"poets": "James Weldon Johnson", "field_dob": "1871", "field_dod": "1938", "field_school_movement": "Harlem Renaissance", "view_node": "/poet/james-weldon-johnson", "field_state": "Florida"}, {"poets": "Jean Toomer", "field_dob": "1894", "field_dod": "1967", "field_school_movement": "Harlem Renaissance", "view_node": "/poet/jean-toomer", "field_state": "District of Columbia"}, {"poets": "James Tate", "field_dob": "1943", "field_dod": "2015", "field_school_movement": "", "view_node": "/poet/james-tate", "field_state": "Missouri"}, {"poets": "Jan Richman", "field_dob": "", "field_dod": "", "field_school_movement": "", "view_node": "/poet/jan-richman", "field_state": ""}, {"poets": "John Hollander", "field_dob": "1929", "field_dod": "2013", "field_school_movement": "Concrete Poetry", "view_node": "/poet/john-hollander", "field_state": "New York"}, {"poets": "Jan Heller Levi", "field_dob": "", "field_dod": "", "field_school_movement": "", "view_node": "/poet/jan-heller-levi", "field_state": "New York"}, {"poets": "Robert Kelly", "field_dob": "1935", "field_dod": "", "field_school_movement": "Imagism", "view_node": "/poet/robert-kelly", "field_state": ""}, {"poets": "Jorie Graham", "field_dob": "1950", "field_dod": "", "field_school_movement": "New York School", "view_node": "/poet/jorie-graham", "field_state": "New York"}, {"poets": "Carolyn Kizer", "field_dob": "1925", "field_dod": "2014", "field_school_movement": "", "view_node": "/poet/carolyn-kizer", "field_state": "Washington"}, {"poets": "Cornelius Eady", "field_dob": "1954", "field_dod": "", "field_school_movement": "", "view_node": "/poet/cornelius-eady", "field_state": ""}, {"poets": "Countee Cullen", "field_dob": "1903", "field_dod": "1946", "field_school_movement": "Harlem Renaissance", "view_node": "/poet/countee-cullen", "field_state": "New York"}, {"poets": "Barbara Ras", "field_dob": "", "field_dod": "", "field_school_movement": "", "view_node": "/poet/barbara-ras", "field_state": "Massachusetts"}, {"poets": "Brigit Pegeen Kelly", "field_dob": "", "field_dod": "", "field_school_movement": "Contemporary", "view_node": "/poet/brigit-pegeen-kelly", "field_state": "California"}, {"poets": "Arthur Sze", "field_dob": "1950", "field_dod": "", "field_school_movement": "", "view_node": "/poet/arthur-sze", "field_state": "New York"}, {"poets": "Alicia Ostriker", "field_dob": "1937", "field_dod": "", "field_school_movement": "Contemporary", "view_node": "/poet/alicia-ostriker", "field_state": "New Jersey"}, {"poets": "Alberto R\u00edos", "field_dob": "1952", "field_dod": "", "field_school_movement": "Contemporary", "view_node": "/poet/alberto-rios", "field_state": "Arizona"}, {"poets": "Adrienne Rich", "field_dob": "1929", "field_dod": "2012", "field_school_movement": "Contemporary", "view_node": "/poet/adrienne-rich", "field_state": "California"}], "pager": {"current_page": 90, "total_items": "3766", "total_pages": 189, "items_per_page": 20}}