{"rows": [{"poets": "Gary Lenhart", "field_dob": "", "field_dod": "2021", "field_school_movement": "", "view_node": "/poet/gary-lenhart", "field_state": ""}, {"poets": "Carl Adamshick", "field_dob": "1969", "field_dod": "", "field_school_movement": "Contemporary", "view_node": "/poet/carl-adamshick", "field_state": "Oregon"}, {"poets": "Nathalie Handal", "field_dob": "", "field_dod": "", "field_school_movement": "", "view_node": "/poet/nathalie-handal", "field_state": ""}, {"poets": "Sara London", "field_dob": "", "field_dod": "", "field_school_movement": "", "view_node": "/poet/sara-london", "field_state": ""}, {"poets": "Lisa Robertson", "field_dob": "", "field_dod": "", "field_school_movement": "", "view_node": "/poet/lisa-robertson", "field_state": ""}, {"poets": "Henry Howard", "field_dob": "", "field_dod": "", "field_school_movement": "", "view_node": "/poet/henry-howard", "field_state": ""}, {"poets": "Keith Douglas", "field_dob": "", "field_dod": "", "field_school_movement": "", "view_node": "/poet/keith-douglas", "field_state": ""}, {"poets": "Richard O. Moore", "field_dob": "", "field_dod": "", "field_school_movement": "", "view_node": "/poet/richard-o-moore", "field_state": ""}, {"poets": "Adrian Blevins", "field_dob": "", "field_dod": "", "field_school_movement": "", "view_node": "/poet/adrian-blevins", "field_state": ""}, {"poets": "Paul Farley", "field_dob": "", "field_dod": "", "field_school_movement": "Contemporary", "view_node": "/poet/paul-farley", "field_state": ""}, {"poets": "Tada Chimako", "field_dob": "", "field_dod": "", "field_school_movement": "", "view_node": "/poet/tada-chimako", "field_state": ""}, {"poets": "Judy Halebsky", "field_dob": "", "field_dod": "", "field_school_movement": "", "view_node": "/poet/judy-halebsky", "field_state": ""}, {"poets": "Arra Lynn Ross", "field_dob": "", "field_dod": "", "field_school_movement": "", "view_node": "/poet/arra-lynn-ross", "field_state": ""}, {"poets": "James Brasfield", "field_dob": "", "field_dod": "", "field_school_movement": "", "view_node": "/poet/james-brasfield", "field_state": ""}, {"poets": "Malinda Markham", "field_dob": "", "field_dod": "", "field_school_movement": "", "view_node": "/poet/malinda-markham", "field_state": ""}, {"poets": "Theresa Hak Kyung Cha", "field_dob": "", "field_dod": "", "field_school_movement": "", "view_node": "/poet/theresa-hak-kyung-cha", "field_state": ""}, {"poets": "Fred Chappell", "field_dob": "", "field_dod": "", "field_school_movement": "", "view_node": "/poet/fred-chappell", "field_state": ""}, {"poets": "Khaled Mattawa", "field_dob": "1964", "field_dod": "", "field_school_movement": "Contemporary", "view_node": "/poet/khaled-mattawa", "field_state": "Michigan"}, {"poets": "Jamie Ross", "field_dob": "", "field_dod": "", "field_school_movement": "", "view_node": "/poet/jamie-ross", "field_state": ""}, {"poets": "Ava Leavell Haymon", "field_dob": "", "field_dod": "", "field_school_movement": "", "view_node": "/poet/ava-leavell-haymon", "field_state": "Louisiana"}], "pager": {"current_page": 115, "total_items": "3766", "total_pages": 189, "items_per_page": 20}}