{"rows": [{"poets": "Fleda Brown", "field_dob": "", "field_dod": "", "field_school_movement": "", "view_node": "/poet/fleda-brown", "field_state": "Delaware"}, {"poets": "Tom Chandler", "field_dob": "", "field_dod": "", "field_school_movement": "", "view_node": "/poet/tom-chandler", "field_state": ""}, {"poets": "Ember Ward", "field_dob": "", "field_dod": "", "field_school_movement": "", "view_node": "/poet/ember-ward", "field_state": ""}, {"poets": "Lee Ann Brown", "field_dob": "", "field_dod": "", "field_school_movement": "", "view_node": "/poet/lee-ann-brown", "field_state": "North Carolina"}, {"poets": "Henrik Wergeland", "field_dob": "", "field_dod": "", "field_school_movement": "", "view_node": "/poet/henrik-wergeland", "field_state": ""}, {"poets": "Wilhelm M\u00fcller", "field_dob": "", "field_dod": "", "field_school_movement": "", "view_node": "/poet/wilhelm-muller", "field_state": ""}, {"poets": "Sor Juana In\u00e9s de la Cruz", "field_dob": "1651", "field_dod": "1695", "field_school_movement": "", "view_node": "/poet/sor-juana-ines-de-la-cruz", "field_state": ""}, {"poets": "Jaime Manrique", "field_dob": "", "field_dod": "", "field_school_movement": "", "view_node": "/poet/jaime-manrique", "field_state": "New York"}, {"poets": "Chavali Bangaramma", "field_dob": "", "field_dod": "", "field_school_movement": "", "view_node": "/poet/chavali-bangaramma", "field_state": ""}, {"poets": "John Surowiecki", "field_dob": "", "field_dod": "", "field_school_movement": "", "view_node": "/poet/john-surowiecki", "field_state": ""}, {"poets": "Lucio Mariani", "field_dob": "", "field_dod": "", "field_school_movement": "", "view_node": "/poet/lucio-mariani", "field_state": ""}, {"poets": "Marjorie Agos\u00edn", "field_dob": "", "field_dod": "", "field_school_movement": "", "view_node": "/poet/marjorie-agosin", "field_state": "Massachusetts"}, {"poets": "David Clewell", "field_dob": "", "field_dod": "", "field_school_movement": "", "view_node": "/poet/david-clewell", "field_state": ""}, {"poets": "Elena Georgiou", "field_dob": "", "field_dod": "", "field_school_movement": "", "view_node": "/poet/elena-georgiou", "field_state": ""}, {"poets": "Rachel Zucker", "field_dob": "", "field_dod": "", "field_school_movement": "Contemporary", "view_node": "/poet/rachel-zucker", "field_state": "New York"}, {"poets": "Martha Zweig", "field_dob": "", "field_dod": "", "field_school_movement": "", "view_node": "/poet/martha-zweig", "field_state": ""}, {"poets": "John Brandi", "field_dob": "", "field_dod": "", "field_school_movement": "", "view_node": "/poet/john-brandi", "field_state": ""}, {"poets": "Alison Townsend", "field_dob": "", "field_dod": "", "field_school_movement": "", "view_node": "/poet/alison-townsend", "field_state": ""}, {"poets": "Hafez", "field_dob": "", "field_dod": "", "field_school_movement": "", "view_node": "/poet/hafez", "field_state": ""}, {"poets": "Stuart Dischell", "field_dob": "", "field_dod": "", "field_school_movement": "", "view_node": "/poet/stuart-dischell", "field_state": "North Carolina"}], "pager": {"current_page": 154, "total_items": "3766", "total_pages": 189, "items_per_page": 20}}