{"rows": [{"poets": "Richard Murphy", "field_dob": "", "field_dod": "", "field_school_movement": "", "view_node": "/poet/richard-murphy", "field_state": ""}, {"poets": "Dana Littlepage Smith", "field_dob": "", "field_dod": "", "field_school_movement": "", "view_node": "/poet/dana-littlepage-smith", "field_state": ""}, {"poets": "Sondra Upham", "field_dob": "", "field_dod": "", "field_school_movement": "", "view_node": "/poet/sondra-upham", "field_state": ""}, {"poets": "Kate Knapp Johnson", "field_dob": "", "field_dod": "", "field_school_movement": "", "view_node": "/poet/kate-knapp-johnson", "field_state": ""}, {"poets": "Aaron Fogel", "field_dob": "", "field_dod": "", "field_school_movement": "", "view_node": "/poet/aaron-fogel", "field_state": ""}, {"poets": "Victor Hugo", "field_dob": "1802", "field_dod": "1885", "field_school_movement": "", "view_node": "/poet/victor-hugo", "field_state": ""}, {"poets": "Claudia Reder", "field_dob": "", "field_dod": "", "field_school_movement": "", "view_node": "/poet/claudia-reder", "field_state": ""}, {"poets": "Michael Lally", "field_dob": "", "field_dod": "", "field_school_movement": "", "view_node": "/poet/michael-lally", "field_state": ""}, {"poets": "Steve Lautermilch", "field_dob": "", "field_dod": "", "field_school_movement": "", "view_node": "/poet/steve-lautermilch", "field_state": ""}, {"poets": "Joshua Weiner", "field_dob": "", "field_dod": "", "field_school_movement": "", "view_node": "/poet/joshua-weiner", "field_state": "District of Columbia"}, {"poets": "Jeredith Merrin", "field_dob": "", "field_dod": "", "field_school_movement": "", "view_node": "/poet/jeredith-merrin", "field_state": "Ohio"}, {"poets": "Gerard Malanga", "field_dob": "", "field_dod": "", "field_school_movement": "", "view_node": "/poet/gerard-malanga", "field_state": "New York"}, {"poets": "Quincy Troupe", "field_dob": "1939", "field_dod": "", "field_school_movement": "Black Arts", "view_node": "/poet/quincy-troupe", "field_state": "California"}, {"poets": "Clarence Major", "field_dob": "", "field_dod": "", "field_school_movement": "", "view_node": "/poet/clarence-major", "field_state": "California"}, {"poets": "Haki Madhubuti", "field_dob": "1942", "field_dod": "", "field_school_movement": "Black Arts", "view_node": "/poet/haki-madhubuti", "field_state": "Arkansas"}, {"poets": "Angela Jackson", "field_dob": "1951", "field_dod": "", "field_school_movement": "", "view_node": "/poet/angela-jackson", "field_state": "Illinois"}, {"poets": "Cheryl Clarke", "field_dob": "1947", "field_dod": "", "field_school_movement": "", "view_node": "/poet/cheryl-clarke", "field_state": "New Jersey"}, {"poets": "Essex Hemphill", "field_dob": "1967", "field_dod": "1995", "field_school_movement": "", "view_node": "/poet/essex-hemphill", "field_state": ""}, {"poets": "Primus St. John", "field_dob": "", "field_dod": "", "field_school_movement": "Contemporary", "view_node": "/poet/primus-st-john", "field_state": "Oregon"}, {"poets": "Alice Walker", "field_dob": "1944", "field_dod": "", "field_school_movement": "", "view_node": "/poet/alice-walker", "field_state": "Georgia"}], "pager": {"current_page": 175, "total_items": "3766", "total_pages": 189, "items_per_page": 20}}