{"rows": [{"poets": "Renato Rosaldo", "field_dob": "", "field_dod": "", "field_school_movement": "", "view_node": "/poet/renato-rosaldo", "field_state": ""}, {"poets": "Roy Fisher", "field_dob": "", "field_dod": "", "field_school_movement": "", "view_node": "/poet/roy-fisher", "field_state": ""}, {"poets": "Basil Bunting", "field_dob": "1900", "field_dod": "1985", "field_school_movement": "Objectivists", "view_node": "/poet/basil-bunting", "field_state": ""}, {"poets": "Christopher Marlowe", "field_dob": "1564", "field_dod": "1593", "field_school_movement": "", "view_node": "/poet/christopher-marlowe", "field_state": ""}, {"poets": "Sir Walter Raleigh", "field_dob": "", "field_dod": "", "field_school_movement": "", "view_node": "/poet/sir-walter-raleigh", "field_state": ""}, {"poets": "Linda Gregg", "field_dob": "1942", "field_dod": "2019", "field_school_movement": "", "view_node": "/poet/linda-gregg", "field_state": ""}, {"poets": "Suji Kwock Kim", "field_dob": "", "field_dod": "", "field_school_movement": "Contemporary", "view_node": "/poet/suji-kwock-kim", "field_state": "California"}, {"poets": "Tina Cane", "field_dob": "", "field_dod": "", "field_school_movement": "", "view_node": "/poet/tina-cane", "field_state": "Rhode Island"}, {"poets": "Stephen Sartarelli", "field_dob": "1954", "field_dod": "", "field_school_movement": "", "view_node": "/poet/stephen-sartarelli", "field_state": ""}, {"poets": "Barbara Goldberg", "field_dob": "", "field_dod": "", "field_school_movement": "", "view_node": "/poet/barbara-goldberg", "field_state": ""}, {"poets": "Scott Hightower", "field_dob": "1952", "field_dod": "", "field_school_movement": "", "view_node": "/poet/scott-hightower", "field_state": ""}, {"poets": "Frances Ellen Watkins Harper", "field_dob": "1825", "field_dod": "1911", "field_school_movement": "", "view_node": "/poet/frances-ellen-watkins-harper", "field_state": "Pennsylvania"}, {"poets": "Jupiter Hammon", "field_dob": "1711", "field_dod": "1806", "field_school_movement": "", "view_node": "/poet/jupiter-hammon", "field_state": ""}, {"poets": "George Oppen", "field_dob": "1908", "field_dod": "1984", "field_school_movement": "Objectivists", "view_node": "/poet/george-oppen", "field_state": "New York"}, {"poets": "Alan Dugan", "field_dob": "1923", "field_dod": "2003", "field_school_movement": "Contemporary", "view_node": "/poet/alan-dugan", "field_state": "Massachusetts"}, {"poets": "Laura Riding Jackson", "field_dob": "1901", "field_dod": "1991", "field_school_movement": "Fugitives", "view_node": "/poet/laura-riding-jackson", "field_state": "Florida"}, {"poets": "Molly Peacock", "field_dob": "1947", "field_dod": "", "field_school_movement": "Formalism", "view_node": "/poet/molly-peacock", "field_state": ""}, {"poets": "Tennessee Williams", "field_dob": "1911", "field_dod": "1983", "field_school_movement": "", "view_node": "/poet/tennessee-williams", "field_state": ""}, {"poets": "Kazuko Shiraishi", "field_dob": "", "field_dod": "", "field_school_movement": "", "view_node": "/poet/kazuko-shiraishi", "field_state": ""}, {"poets": "April Bernard", "field_dob": "", "field_dod": "", "field_school_movement": "", "view_node": "/poet/april-bernard", "field_state": ""}], "pager": {"current_page": 159, "total_items": "3766", "total_pages": 189, "items_per_page": 20}}