{"rows": [{"poets": "Jonatan Mar\u00eda Reyes", "field_dob": "", "field_dod": "", "field_school_movement": "", "view_node": "/poet/jonatan-maria-reyes", "field_state": ""}, {"poets": "Carmen R. Mar\u00edn", "field_dob": "", "field_dod": "", "field_school_movement": "", "view_node": "/poet/carmen-r-marin", "field_state": "Puerto Rico"}, {"poets": "M\u00f3nica Alexandra Jim\u00e9nez", "field_dob": "", "field_dod": "", "field_school_movement": "", "view_node": "/poet/monica-alexandra-jimenez", "field_state": "Texas"}, {"poets": "Amanda Hern\u00e1ndez ", "field_dob": "", "field_dod": "", "field_school_movement": "", "view_node": "/poet/amanda-hernandez", "field_state": "Puerto Rico"}, {"poets": "Francisco F\u00e9lix", "field_dob": "", "field_dod": "", "field_school_movement": "", "view_node": "/poet/francisco-felix", "field_state": ""}, {"poets": "Lynn Riggs", "field_dob": "", "field_dod": "", "field_school_movement": "", "view_node": "/poet/lynn-riggs", "field_state": ""}, {"poets": "William Stobb", "field_dob": "", "field_dod": "", "field_school_movement": "", "view_node": "/poet/william-stobb", "field_state": ""}, {"poets": "Denise Lajimodiere", "field_dob": "", "field_dod": "", "field_school_movement": "", "view_node": "/poet/denise-lajimodiere", "field_state": ""}, {"poets": "Kathy Engel", "field_dob": "", "field_dod": "", "field_school_movement": "", "view_node": "/poet/kathy-engel", "field_state": ""}, {"poets": "Robin Chapman", "field_dob": "", "field_dod": "", "field_school_movement": "", "view_node": "/poet/robin-chapman", "field_state": ""}, {"poets": "Angela C. Trudell Vasquez", "field_dob": "", "field_dod": "", "field_school_movement": "", "view_node": "/poet/angela-c-trudell-vasquez", "field_state": ""}, {"poets": "James Crews", "field_dob": "", "field_dod": "", "field_school_movement": "", "view_node": "/poet/james-crews", "field_state": ""}, {"poets": "CMarie Fuhrman", "field_dob": "", "field_dod": "", "field_school_movement": "", "view_node": "/poet/cmarie-fuhrman", "field_state": ""}, {"poets": "Wendy Vardaman", "field_dob": "", "field_dod": "", "field_school_movement": "", "view_node": "/poet/wendy-vardaman-0", "field_state": ""}, {"poets": "Jos\u00e9 Joaqu\u00edn Granados y G\u00e1lvez", "field_dob": "", "field_dod": "", "field_school_movement": "", "view_node": "/poet/jose-joaquin-granados-y-galvez", "field_state": ""}, {"poets": "Wa Wa Chaw", "field_dob": "", "field_dod": "", "field_school_movement": "", "view_node": "/poet/wa-wa-chaw", "field_state": ""}, {"poets": "Carlos Montezuma", "field_dob": "", "field_dod": "", "field_school_movement": "", "view_node": "/poet/carlos-montezuma", "field_state": ""}, {"poets": "Erin Coughlin Hollowell", "field_dob": "", "field_dod": "", "field_school_movement": "", "view_node": "/poet/erin-coughlin-hollowell", "field_state": ""}, {"poets": "Max Garland", "field_dob": "", "field_dod": "", "field_school_movement": "", "view_node": "/poet/max-garland", "field_state": ""}, {"poets": "Cristina M. R. Norcross", "field_dob": "", "field_dod": "", "field_school_movement": "", "view_node": "/poet/cristina-m-r-norcross", "field_state": ""}], "pager": {"current_page": 10, "total_items": "3766", "total_pages": 189, "items_per_page": 20}}