{"rows": [{"poets": "Camonghne Felix", "field_dob": "", "field_dod": "", "field_school_movement": "", "view_node": "/poet/camonghne-felix", "field_state": "New York"}, {"poets": "Morgan Parker", "field_dob": "", "field_dod": "", "field_school_movement": "", "view_node": "/poet/morgan-parker", "field_state": ""}, {"poets": "Robin Morgan", "field_dob": "1942", "field_dod": "", "field_school_movement": "Contemporary", "view_node": "/poet/robin-morgan", "field_state": "New York"}, {"poets": "Sam Cornish", "field_dob": "", "field_dod": "2018", "field_school_movement": "Black Arts", "view_node": "/poet/sam-cornish", "field_state": "Massachusetts"}, {"poets": "Lisa Ciccarello", "field_dob": "", "field_dod": "", "field_school_movement": "", "view_node": "/poet/lisa-ciccarello", "field_state": ""}, {"poets": "Richard Michelson", "field_dob": "1953", "field_dod": "", "field_school_movement": "Contemporary", "view_node": "/poet/richard-michelson", "field_state": "Massachusetts"}, {"poets": "Lemon Andersen", "field_dob": "", "field_dod": "", "field_school_movement": "Contemporary, Slam/Spoken Word", "view_node": "/poet/lemon-andersen", "field_state": "New York"}, {"poets": "Casey Rocheteau", "field_dob": "", "field_dod": "", "field_school_movement": "", "view_node": "/poet/casey-rocheteau", "field_state": "Michigan"}, {"poets": "Jan Schreiber", "field_dob": "", "field_dod": "", "field_school_movement": "Contemporary", "view_node": "/poet/jan-schreiber", "field_state": "Massachusetts"}, {"poets": "Sjohnna McCray", "field_dob": "1972", "field_dod": "", "field_school_movement": "", "view_node": "/poet/sjohnna-mccray", "field_state": "Georgia"}, {"poets": "Nancy Mercado", "field_dob": "", "field_dod": "", "field_school_movement": "Contemporary", "view_node": "/poet/nancy-mercado", "field_state": "New York"}, {"poets": "Maria Rodriguez-Morales", "field_dob": "", "field_dod": "", "field_school_movement": "Contemporary", "view_node": "/poet/maria-rodriguez-morales", "field_state": "New York"}, {"poets": "Emanuel Xavier", "field_dob": "", "field_dod": "", "field_school_movement": "Slam/Spoken Word, Contemporary", "view_node": "/poet/emanuel-xavier", "field_state": "New York"}, {"poets": "Saeed  Jones ", "field_dob": "", "field_dod": "", "field_school_movement": "", "view_node": "/poet/saeed-jones", "field_state": "New York"}, {"poets": "Taylor Mali", "field_dob": "", "field_dod": "", "field_school_movement": "Slam/Spoken Word", "view_node": "/poet/taylor-mali", "field_state": ""}, {"poets": "Terry Wolverton", "field_dob": "", "field_dod": "", "field_school_movement": "", "view_node": "/poet/terry-wolverton", "field_state": "California"}, {"poets": "Marisela Norte", "field_dob": "", "field_dod": "", "field_school_movement": "", "view_node": "/poet/marisela-norte", "field_state": "California"}, {"poets": "Ram\u00f3n Garc\u00eda", "field_dob": "", "field_dod": "", "field_school_movement": "", "view_node": "/poet/ramon-garcia", "field_state": "California"}, {"poets": "Tessa Micaela", "field_dob": "", "field_dod": "", "field_school_movement": "", "view_node": "/poet/tessa-micaela", "field_state": "California"}, {"poets": "Zoe Tuck", "field_dob": "", "field_dod": "", "field_school_movement": "", "view_node": "/poet/zoe-tuck", "field_state": "California"}], "pager": {"current_page": 75, "total_items": "3766", "total_pages": 189, "items_per_page": 20}}