{"rows": [{"poets": "Michael McGriff ", "field_dob": "", "field_dod": "", "field_school_movement": "", "view_node": "/poet/michael-mcgriff", "field_state": ""}, {"poets": "Tony Barnstone", "field_dob": "", "field_dod": "", "field_school_movement": "", "view_node": "/poet/tony-barnstone", "field_state": ""}, {"poets": "Traci Brimhall", "field_dob": "", "field_dod": "", "field_school_movement": "", "view_node": "/poet/traci-brimhall", "field_state": "Kansas"}, {"poets": "Sarah Messer", "field_dob": "", "field_dod": "", "field_school_movement": "", "view_node": "/poet/sarah-messer", "field_state": ""}, {"poets": "Charles Jensen", "field_dob": "", "field_dod": "", "field_school_movement": "", "view_node": "/poet/charles-jensen", "field_state": ""}, {"poets": "Ernest Crosby", "field_dob": "", "field_dod": "", "field_school_movement": "", "view_node": "/poet/ernest-crosby", "field_state": ""}, {"poets": "Oliver de la Paz", "field_dob": "", "field_dod": "", "field_school_movement": "", "view_node": "/poet/oliver-de-la-paz", "field_state": ""}, {"poets": "Ben Mirov", "field_dob": "", "field_dod": "", "field_school_movement": "", "view_node": "/poet/ben-mirov", "field_state": ""}, {"poets": "George Meredith", "field_dob": "1828", "field_dod": "1909", "field_school_movement": "Victorian", "view_node": "/poet/george-meredith", "field_state": ""}, {"poets": "Helen Hunt Jackson", "field_dob": "", "field_dod": "", "field_school_movement": "", "view_node": "/poet/helen-hunt-jackson", "field_state": ""}, {"poets": "Carol Guess", "field_dob": "", "field_dod": "", "field_school_movement": "", "view_node": "/poet/carol-guess", "field_state": "Washington"}, {"poets": "Andr\u00e9  Breton", "field_dob": "1896", "field_dod": "1966", "field_school_movement": "Surrealism, Poets of World War I", "view_node": "/poet/andre-breton", "field_state": ""}, {"poets": "Richard Meier", "field_dob": "", "field_dod": "", "field_school_movement": "", "view_node": "/poet/richard-meier", "field_state": ""}, {"poets": "Don Mee Choi", "field_dob": "", "field_dod": "", "field_school_movement": "", "view_node": "/poet/don-mee-choi", "field_state": ""}, {"poets": "Neil Shepard", "field_dob": "", "field_dod": "", "field_school_movement": "", "view_node": "/poet/neil-shepard", "field_state": ""}, {"poets": "Farid Matuk", "field_dob": "", "field_dod": "", "field_school_movement": "", "view_node": "/poet/farid-matuk", "field_state": "Arizona"}, {"poets": "A. Lenalie", "field_dob": "", "field_dod": "", "field_school_movement": "", "view_node": "/poet/lenalie", "field_state": ""}, {"poets": "Dante Micheaux", "field_dob": "", "field_dod": "", "field_school_movement": "", "view_node": "/poet/dante-micheaux", "field_state": ""}, {"poets": "Hoa Nguyen", "field_dob": "", "field_dod": "", "field_school_movement": "Contemporary", "view_node": "/poet/hoa-nguyen", "field_state": ""}, {"poets": "Charlotte Smith", "field_dob": "1749", "field_dod": "1806", "field_school_movement": "", "view_node": "/poet/charlotte-smith", "field_state": ""}], "pager": {"current_page": 103, "total_items": "3766", "total_pages": 189, "items_per_page": 20}}