{"rows": [{"poets": "Marilyn Krysl", "field_dob": "", "field_dod": "", "field_school_movement": "", "view_node": "/poet/marilyn-krysl", "field_state": ""}, {"poets": "Mark Conway", "field_dob": "", "field_dod": "", "field_school_movement": "", "view_node": "/poet/mark-conway", "field_state": "Minnesota"}, {"poets": "Stacy Gnall", "field_dob": "", "field_dod": "", "field_school_movement": "", "view_node": "/poet/stacy-gnall", "field_state": ""}, {"poets": "Jay Parini", "field_dob": "1948", "field_dod": "", "field_school_movement": "Contemporary", "view_node": "/poet/jay-parini", "field_state": "Vermont"}, {"poets": "Dorothy Barresi", "field_dob": "", "field_dod": "", "field_school_movement": "", "view_node": "/poet/dorothy-barresi", "field_state": ""}, {"poets": "Bobby C.  Rogers", "field_dob": "", "field_dod": "", "field_school_movement": "", "view_node": "/poet/bobby-c-rogers", "field_state": ""}, {"poets": "Sandra Doller", "field_dob": "", "field_dod": "", "field_school_movement": "", "view_node": "/poet/sandra-doller", "field_state": ""}, {"poets": "John  Hodgen", "field_dob": "", "field_dod": "", "field_school_movement": "", "view_node": "/poet/john-hodgen", "field_state": ""}, {"poets": "Ale\u0161 Debeljak", "field_dob": "", "field_dod": "", "field_school_movement": "", "view_node": "/poet/ales-debeljak", "field_state": ""}, {"poets": "Amy Newman", "field_dob": "", "field_dod": "", "field_school_movement": "", "view_node": "/poet/amy-newman", "field_state": ""}, {"poets": "Patrick Rosal", "field_dob": "", "field_dod": "", "field_school_movement": "", "view_node": "/poet/patrick-rosal", "field_state": ""}, {"poets": "Ross Gay", "field_dob": "", "field_dod": "", "field_school_movement": "", "view_node": "/poet/ross-gay", "field_state": ""}, {"poets": "Collier Nogues", "field_dob": "", "field_dod": "", "field_school_movement": "Contemporary", "view_node": "/poet/collier-nogues", "field_state": "California"}, {"poets": "Jennifer Denrow", "field_dob": "", "field_dod": "", "field_school_movement": "", "view_node": "/poet/jennifer-denrow", "field_state": ""}, {"poets": "Joni Wallace", "field_dob": "", "field_dod": "", "field_school_movement": "", "view_node": "/poet/joni-wallace", "field_state": ""}, {"poets": "Sabrina Orah Mark", "field_dob": "", "field_dod": "", "field_school_movement": "", "view_node": "/poet/sabrina-orah-mark", "field_state": ""}, {"poets": "Arlo Haskell", "field_dob": "", "field_dod": "", "field_school_movement": "", "view_node": "/poet/arlo-haskell", "field_state": ""}, {"poets": "Maxine Scates", "field_dob": "", "field_dod": "", "field_school_movement": "", "view_node": "/poet/maxine-scates", "field_state": "Oregon"}, {"poets": "Seth  Abramson", "field_dob": "", "field_dod": "", "field_school_movement": "Contemporary", "view_node": "/poet/seth-abramson", "field_state": ""}, {"poets": "Jack Myers", "field_dob": "", "field_dod": "", "field_school_movement": "", "view_node": "/poet/jack-myers", "field_state": ""}], "pager": {"current_page": 108, "total_items": "3766", "total_pages": 189, "items_per_page": 20}}