{"rows": [{"poets": "Jeffrey Yang", "field_dob": "", "field_dod": "", "field_school_movement": "", "view_node": "/poet/jeffrey-yang", "field_state": ""}, {"poets": "G. C. Waldrep", "field_dob": "", "field_dod": "", "field_school_movement": "", "view_node": "/poet/g-c-waldrep", "field_state": ""}, {"poets": "Akilah Oliver", "field_dob": "", "field_dod": "", "field_school_movement": "", "view_node": "/poet/akilah-oliver", "field_state": ""}, {"poets": "Ted Mathys", "field_dob": "", "field_dod": "", "field_school_movement": "", "view_node": "/poet/ted-mathys", "field_state": "Missouri"}, {"poets": "Mark Nowak", "field_dob": "", "field_dod": "", "field_school_movement": "Contemporary", "view_node": "/poet/mark-nowak", "field_state": "New York"}, {"poets": "Geoffrey Nutter", "field_dob": "", "field_dod": "", "field_school_movement": "", "view_node": "/poet/geoffrey-nutter", "field_state": ""}, {"poets": "Endi Bogue Hartigan", "field_dob": "", "field_dod": "", "field_school_movement": "", "view_node": "/poet/endi-bogue-hartigan", "field_state": ""}, {"poets": "Bill Berkson", "field_dob": "1939", "field_dod": "", "field_school_movement": "New York School", "view_node": "/poet/bill-berkson", "field_state": "New York"}, {"poets": "Franck Andr\u00e9 Jamme", "field_dob": "", "field_dod": "", "field_school_movement": "", "view_node": "/poet/franck-andre-jamme", "field_state": ""}, {"poets": "Dahlia Ravikovitch", "field_dob": "", "field_dod": "", "field_school_movement": "", "view_node": "/poet/dahlia-ravikovitch", "field_state": ""}, {"poets": "Lucyna Prostko", "field_dob": "", "field_dod": "", "field_school_movement": "", "view_node": "/poet/lucyna-prostko", "field_state": ""}, {"poets": "Daniel Waters", "field_dob": "", "field_dod": "", "field_school_movement": "", "view_node": "/poet/daniel-waters", "field_state": ""}, {"poets": "Michael Blumenthal", "field_dob": "1949", "field_dod": "", "field_school_movement": "", "view_node": "/poet/michael-blumenthal", "field_state": ""}, {"poets": "Jennifer Kronovet", "field_dob": "", "field_dod": "", "field_school_movement": "", "view_node": "/poet/jennifer-kronovet", "field_state": ""}, {"poets": "Katy Lederer", "field_dob": "", "field_dod": "", "field_school_movement": "", "view_node": "/poet/katy-lederer", "field_state": ""}, {"poets": "Lyrae Van Clief-Stefanon", "field_dob": "", "field_dod": "", "field_school_movement": "", "view_node": "/poet/lyrae-van-clief-stefanon", "field_state": ""}, {"poets": "Barbara Hamby", "field_dob": "", "field_dod": "", "field_school_movement": "", "view_node": "/poet/barbara-hamby", "field_state": ""}, {"poets": "Lydia Maria Child", "field_dob": "", "field_dod": "", "field_school_movement": "", "view_node": "/poet/lydia-maria-child", "field_state": ""}, {"poets": "Anne Porter", "field_dob": "", "field_dod": "", "field_school_movement": "", "view_node": "/poet/anne-porter", "field_state": ""}, {"poets": "Aliki Barnstone", "field_dob": "", "field_dod": "", "field_school_movement": "", "view_node": "/poet/aliki-barnstone", "field_state": "Missouri"}], "pager": {"current_page": 123, "total_items": "3766", "total_pages": 189, "items_per_page": 20}}