{"rows": [{"poets": "Robin Robertson", "field_dob": "", "field_dod": "", "field_school_movement": "", "view_node": "/poet/robin-robertson", "field_state": ""}, {"poets": "Mark Ford", "field_dob": "", "field_dod": "", "field_school_movement": "", "view_node": "/poet/mark-ford", "field_state": ""}, {"poets": "Marina Tsvetaeva", "field_dob": "", "field_dod": "", "field_school_movement": "", "view_node": "/poet/marina-tsvetaeva", "field_state": ""}, {"poets": "John Peck", "field_dob": "", "field_dod": "", "field_school_movement": "", "view_node": "/poet/john-peck", "field_state": ""}, {"poets": "Judith Hall", "field_dob": "", "field_dod": "", "field_school_movement": "", "view_node": "/poet/judith-hall", "field_state": ""}, {"poets": "Carol Frost", "field_dob": "1948", "field_dod": "", "field_school_movement": "Contemporary", "view_node": "/poet/carol-frost", "field_state": "Massachusetts"}, {"poets": "Joachim du Bellay", "field_dob": "", "field_dod": "", "field_school_movement": "", "view_node": "/poet/joachim-du-bellay", "field_state": ""}, {"poets": "Carol Moldaw", "field_dob": "", "field_dod": "", "field_school_movement": "", "view_node": "/poet/carol-moldaw", "field_state": "New Mexico"}, {"poets": "Dick Allen", "field_dob": "1939", "field_dod": "2017", "field_school_movement": "", "view_node": "/poet/dick-allen", "field_state": "Connecticut"}, {"poets": "George Evans", "field_dob": "", "field_dod": "", "field_school_movement": "", "view_node": "/poet/george-evans", "field_state": ""}, {"poets": "Huu Thinh", "field_dob": "", "field_dod": "", "field_school_movement": "", "view_node": "/poet/huu-thinh", "field_state": ""}, {"poets": "Karen Swenson", "field_dob": "1936", "field_dod": "", "field_school_movement": "", "view_node": "/poet/karen-swenson", "field_state": ""}, {"poets": "Mario Benedetti", "field_dob": "", "field_dod": "", "field_school_movement": "", "view_node": "/poet/mario-benedetti", "field_state": ""}, {"poets": "Elaine Sexton", "field_dob": "", "field_dod": "", "field_school_movement": "", "view_node": "/poet/elaine-sexton", "field_state": ""}, {"poets": "Paul Guest", "field_dob": "", "field_dod": "", "field_school_movement": "", "view_node": "/poet/paul-guest", "field_state": ""}, {"poets": "Meng Hao-jan", "field_dob": "", "field_dod": "", "field_school_movement": "", "view_node": "/poet/meng-hao-jan", "field_state": ""}, {"poets": "Laure-Anne Bosselaar", "field_dob": "", "field_dod": "", "field_school_movement": "", "view_node": "/poet/laure-anne-bosselaar", "field_state": "New York"}, {"poets": "Dorothea Tanning", "field_dob": "1910", "field_dod": "2012", "field_school_movement": "", "view_node": "/poet/dorothea-tanning", "field_state": ""}, {"poets": "Hilarie Jones", "field_dob": "", "field_dod": "", "field_school_movement": "", "view_node": "/poet/hilarie-jones", "field_state": ""}, {"poets": "Barbara Hurd", "field_dob": "", "field_dod": "", "field_school_movement": "", "view_node": "/poet/barbara-hurd", "field_state": ""}], "pager": {"current_page": 157, "total_items": "3766", "total_pages": 189, "items_per_page": 20}}