{"rows": [{"poets": "Jennifer Foerster", "field_dob": "", "field_dod": "", "field_school_movement": "", "view_node": "/poet/jennifer-foerster", "field_state": "California"}, {"poets": "Mike Sonksen", "field_dob": "", "field_dod": "", "field_school_movement": "", "view_node": "/poet/mike-sonksen", "field_state": "California"}, {"poets": "Melanie Henderson", "field_dob": "", "field_dod": "", "field_school_movement": "", "view_node": "/poet/melanie-henderson", "field_state": "District of Columbia"}, {"poets": "Lisa Pegram", "field_dob": "", "field_dod": "", "field_school_movement": "", "view_node": "/poet/lisa-pegram", "field_state": "District of Columbia"}, {"poets": "Reuben  Jackson", "field_dob": "", "field_dod": "", "field_school_movement": "", "view_node": "/poet/reuben-jackson", "field_state": "District of Columbia"}, {"poets": "Kenneth Carroll", "field_dob": "", "field_dod": "", "field_school_movement": "", "view_node": "/poet/kenneth-carroll", "field_state": "District of Columbia"}, {"poets": "Miller Williams", "field_dob": "1930", "field_dod": "2015", "field_school_movement": "Contemporary", "view_node": "/poet/miller-williams", "field_state": "Arkansas"}, {"poets": "Oliva Cronk", "field_dob": "", "field_dod": "", "field_school_movement": "", "view_node": "/poet/oliva-cronk", "field_state": "Illinois"}, {"poets": "Joel Craig", "field_dob": "", "field_dod": "", "field_school_movement": "", "view_node": "/poet/joel-craig", "field_state": "Illinois"}, {"poets": "Sandra Lim", "field_dob": "", "field_dod": "", "field_school_movement": "", "view_node": "/poet/sandra-lim", "field_state": "Massachusetts"}, {"poets": "William Ralph Emerson", "field_dob": "", "field_dod": "", "field_school_movement": "", "view_node": "/poet/william-ralph-emerson", "field_state": ""}, {"poets": "Laura Donnelly", "field_dob": "", "field_dod": "", "field_school_movement": "", "view_node": "/poet/laura-donnelly", "field_state": ""}, {"poets": "Joy Ladin", "field_dob": "", "field_dod": "", "field_school_movement": "", "view_node": "/poet/joy-ladin", "field_state": "New York"}, {"poets": "Amy Lingafelter", "field_dob": "", "field_dod": "", "field_school_movement": "", "view_node": "/poet/amy-lingafelter", "field_state": ""}, {"poets": "Patrick Phillips", "field_dob": "", "field_dod": "", "field_school_movement": "Contemporary", "view_node": "/poet/patrick-phillips", "field_state": ""}, {"poets": "Harriet Levin", "field_dob": "", "field_dod": "", "field_school_movement": "Contemporary", "view_node": "/poet/harriet-levin", "field_state": "Pennsylvania"}, {"poets": "Amanda Nadelberg", "field_dob": "", "field_dod": "", "field_school_movement": "", "view_node": "/poet/amanda-nadelberg", "field_state": ""}, {"poets": "Roberto Harrison", "field_dob": "", "field_dod": "", "field_school_movement": "", "view_node": "/poet/roberto-harrison", "field_state": ""}, {"poets": "Alan Soldofsky", "field_dob": "", "field_dod": "", "field_school_movement": "", "view_node": "/poet/alan-soldofsky", "field_state": ""}, {"poets": "David Tomas Martinez", "field_dob": "", "field_dod": "", "field_school_movement": "", "view_node": "/poet/david-tomas-martinez", "field_state": ""}], "pager": {"current_page": 76, "total_items": "3766", "total_pages": 189, "items_per_page": 20}}