{"rows": [{"poets": "Eloise Klein Healy", "field_dob": "", "field_dod": "", "field_school_movement": "", "view_node": "/poet/eloise-klein-healy", "field_state": ""}, {"poets": "Jessica Fisher", "field_dob": "", "field_dod": "", "field_school_movement": "", "view_node": "/poet/jessica-fisher", "field_state": ""}, {"poets": "Rob Halpern", "field_dob": "", "field_dod": "", "field_school_movement": "", "view_node": "/poet/rob-halpern", "field_state": ""}, {"poets": "Clark Coolidge", "field_dob": "", "field_dod": "", "field_school_movement": "", "view_node": "/poet/clark-coolidge", "field_state": "Rhode Island"}, {"poets": "Claire Lee", "field_dob": "", "field_dod": "", "field_school_movement": "", "view_node": "/poet/claire-lee", "field_state": ""}, {"poets": "Joseph O. Legaspi", "field_dob": "", "field_dod": "", "field_school_movement": "", "view_node": "/poet/joseph-o-legaspi", "field_state": ""}, {"poets": "CJ Evans", "field_dob": "", "field_dod": "", "field_school_movement": "", "view_node": "/poet/cj-evans", "field_state": ""}, {"poets": "Chris  Hosea", "field_dob": "1973", "field_dod": "", "field_school_movement": "Contemporary", "view_node": "/poet/chris-hosea", "field_state": ""}, {"poets": "Amy Lawless", "field_dob": "", "field_dod": "", "field_school_movement": "", "view_node": "/poet/amy-lawless", "field_state": ""}, {"poets": "Dan Bellm", "field_dob": "", "field_dod": "", "field_school_movement": "", "view_node": "/poet/dan-bellm", "field_state": ""}, {"poets": "Ben Fama", "field_dob": "", "field_dod": "", "field_school_movement": "", "view_node": "/poet/ben-fama", "field_state": "New York"}, {"poets": "Eduardo C. Corral", "field_dob": "", "field_dod": "", "field_school_movement": "", "view_node": "/poet/eduardo-c-corral", "field_state": ""}, {"poets": "Nathaniel Otting", "field_dob": "", "field_dod": "", "field_school_movement": "", "view_node": "/poet/nathaniel-otting", "field_state": ""}, {"poets": "Brynn Saito", "field_dob": "", "field_dod": "", "field_school_movement": "", "view_node": "/poet/brynn-saito", "field_state": ""}, {"poets": "Elizabeth Robinson", "field_dob": "", "field_dod": "", "field_school_movement": "", "view_node": "/poet/elizabeth-robinson", "field_state": ""}, {"poets": "Mary Austin Speaker", "field_dob": "", "field_dod": "", "field_school_movement": "", "view_node": "/poet/mary-austin-speaker", "field_state": ""}, {"poets": "Greg Wrenn", "field_dob": "", "field_dod": "", "field_school_movement": "", "view_node": "/poet/greg-wrenn", "field_state": ""}, {"poets": "Mary Robinson", "field_dob": "", "field_dod": "", "field_school_movement": "", "view_node": "/poet/mary-robinson", "field_state": ""}, {"poets": "Melissa Stein", "field_dob": "", "field_dod": "", "field_school_movement": "", "view_node": "/poet/melissa-stein", "field_state": ""}, {"poets": "Deema K. Shehabi", "field_dob": "", "field_dod": "", "field_school_movement": "", "view_node": "/poet/deema-k-shehabi", "field_state": ""}], "pager": {"current_page": 97, "total_items": "3766", "total_pages": 189, "items_per_page": 20}}