{"rows": [{"poets": "Victoria Hallerman", "field_dob": "", "field_dod": "", "field_school_movement": "", "view_node": "/poet/victoria-hallerman", "field_state": ""}, {"poets": "David Budbill", "field_dob": "1940", "field_dod": "2016", "field_school_movement": "Contemporary", "view_node": "/poet/david-budbill", "field_state": "Vermont"}, {"poets": "Thomas Sayers Ellis", "field_dob": "1963", "field_dod": "", "field_school_movement": "Dark Room Collective", "view_node": "/poet/thomas-sayers-ellis", "field_state": "District of Columbia"}, {"poets": "Albert Goldbarth", "field_dob": "1948", "field_dod": "", "field_school_movement": "Contemporary", "view_node": "/poet/albert-goldbarth", "field_state": "Kansas"}, {"poets": "Wyn Cooper", "field_dob": "", "field_dod": "", "field_school_movement": "", "view_node": "/poet/wyn-cooper", "field_state": "Vermont"}, {"poets": "Jean-Michel Maulpoix", "field_dob": "", "field_dod": "", "field_school_movement": "", "view_node": "/poet/jean-michel-maulpoix", "field_state": ""}, {"poets": "Orlando Ricardo Menes", "field_dob": "", "field_dod": "", "field_school_movement": "", "view_node": "/poet/orlando-ricardo-menes", "field_state": ""}, {"poets": "Arielle Greenberg", "field_dob": "", "field_dod": "", "field_school_movement": "", "view_node": "/poet/arielle-greenberg", "field_state": ""}, {"poets": "Dana Levin", "field_dob": "", "field_dod": "", "field_school_movement": "", "view_node": "/poet/dana-levin", "field_state": "New Mexico"}, {"poets": "Aaron Smith", "field_dob": "", "field_dod": "", "field_school_movement": "", "view_node": "/poet/aaron-smith", "field_state": ""}, {"poets": "Cate Marvin", "field_dob": "1969", "field_dod": "", "field_school_movement": "Contemporary", "view_node": "/poet/cate-marvin", "field_state": "New York"}, {"poets": "Tom Thompson", "field_dob": "", "field_dod": "", "field_school_movement": "", "view_node": "/poet/tom-thompson", "field_state": ""}, {"poets": "Jack Gilbert", "field_dob": "1925", "field_dod": "2012", "field_school_movement": "", "view_node": "/poet/jack-gilbert", "field_state": "Pennsylvania"}, {"poets": "Eve Alexandra", "field_dob": "", "field_dod": "", "field_school_movement": "", "view_node": "/poet/eve-alexandra", "field_state": ""}, {"poets": "Chad Davidson", "field_dob": "", "field_dod": "", "field_school_movement": "", "view_node": "/poet/chad-davidson", "field_state": "Georgia"}, {"poets": "Sherwin Bitsui", "field_dob": "", "field_dod": "", "field_school_movement": "", "view_node": "/poet/sherwin-bitsui", "field_state": ""}, {"poets": "Sidney Lanier", "field_dob": "1842", "field_dod": "1881", "field_school_movement": "", "view_node": "/poet/sidney-lanier", "field_state": ""}, {"poets": "Kenneth Rexroth", "field_dob": "1905", "field_dod": "1982", "field_school_movement": "Objectivists, San Francisco Renaissance, Beat, Jazz Poetry", "view_node": "/poet/kenneth-rexroth", "field_state": "California"}, {"poets": "Ted Kooser", "field_dob": "1939", "field_dod": "", "field_school_movement": "", "view_node": "/poet/ted-kooser", "field_state": "Nebraska"}, {"poets": "Arthur Rimbaud", "field_dob": "1854", "field_dod": "1891", "field_school_movement": "Surrealism, Symbolists", "view_node": "/poet/arthur-rimbaud", "field_state": ""}], "pager": {"current_page": 145, "total_items": "3766", "total_pages": 189, "items_per_page": 20}}