{"rows": [{"poets": "The Friend", "field_dob": "", "field_dod": "", "field_school_movement": "", "view_node": "/poet/friend", "field_state": ""}, {"poets": "Kit Robinson", "field_dob": "", "field_dod": "", "field_school_movement": "", "view_node": "/poet/kit-robinson", "field_state": ""}, {"poets": "Lam Lai", "field_dob": "", "field_dod": "", "field_school_movement": "", "view_node": "/poet/lam-lai", "field_state": ""}, {"poets": "Kealoha ", "field_dob": "", "field_dod": "", "field_school_movement": "", "view_node": "/poet/kealoha", "field_state": "Hawaii"}, {"poets": "Frank Horne", "field_dob": "1899", "field_dod": "1974", "field_school_movement": "", "view_node": "/poet/frank-horne-0", "field_state": ""}, {"poets": "Harriet Monroe", "field_dob": "1860", "field_dod": "1936", "field_school_movement": "", "view_node": "/poet/harriet-monroe", "field_state": ""}, {"poets": "Jaye Elizabeth Elijah", "field_dob": "", "field_dod": "", "field_school_movement": "", "view_node": "/poet/jaye-elizabeth-elijah", "field_state": ""}, {"poets": "Waverley Turner Carmichael", "field_dob": "", "field_dod": "", "field_school_movement": "", "view_node": "/poet/waverley-turner-carmichael", "field_state": ""}, {"poets": "Marcel Schwob", "field_dob": "", "field_dod": "", "field_school_movement": "", "view_node": "/poet/marcel-schwob", "field_state": ""}, {"poets": "Alex Rogers", "field_dob": "", "field_dod": "", "field_school_movement": "", "view_node": "/poet/alex-rogers", "field_state": ""}, {"poets": "Ray McNiece ", "field_dob": "", "field_dod": "", "field_school_movement": "", "view_node": "/poet/ray-mcniece", "field_state": ""}, {"poets": "Joseph Drew Lanham ", "field_dob": "", "field_dod": "", "field_school_movement": "", "view_node": "/poet/joseph-drew-lanham", "field_state": ""}, {"poets": "Ashanti Files", "field_dob": "", "field_dod": "", "field_school_movement": "", "view_node": "/poet/ashanti-files", "field_state": ""}, {"poets": "KaNikki Jakarta", "field_dob": "", "field_dod": "", "field_school_movement": "", "view_node": "/poet/kanikki-jakarta", "field_state": ""}, {"poets": "Crystal Wilkinson", "field_dob": "", "field_dod": "", "field_school_movement": "", "view_node": "/poet/crystal-wilkinson", "field_state": ""}, {"poets": "Gailmarie Pahmeier", "field_dob": "", "field_dod": "", "field_school_movement": "", "view_node": "/poet/gailmarie-pahmeier", "field_state": "Nevada"}, {"poets": "Andru Defeye", "field_dob": "", "field_dod": "", "field_school_movement": "", "view_node": "/poet/andru-defeye", "field_state": ""}, {"poets": "Edward Smyth Jones", "field_dob": "", "field_dod": "", "field_school_movement": "", "view_node": "/poet/edward-smyth-jones", "field_state": ""}, {"poets": "Nat Raha", "field_dob": "", "field_dod": "", "field_school_movement": "", "view_node": "/poet/nat-raha", "field_state": ""}, {"poets": "Manal Kara", "field_dob": "", "field_dod": "", "field_school_movement": "", "view_node": "/poet/manal-kara", "field_state": ""}], "pager": {"current_page": 2, "total_items": "3766", "total_pages": 189, "items_per_page": 20}}