{"rows": [{"poets": "Tamiko Beyer", "field_dob": "", "field_dod": "", "field_school_movement": "", "view_node": "/poet/tamiko-beyer", "field_state": ""}, {"poets": "Wilfrid Thorley", "field_dob": "", "field_dod": "", "field_school_movement": "", "view_node": "/poet/wilfrid-thorley", "field_state": ""}, {"poets": "Sahar Romani", "field_dob": "", "field_dod": "", "field_school_movement": "", "view_node": "/poet/sahar-romani", "field_state": ""}, {"poets": "Jennifer Jean", "field_dob": "", "field_dod": "", "field_school_movement": "", "view_node": "/poet/jennifer-jean", "field_state": ""}, {"poets": "Bino A. Realuyo", "field_dob": "", "field_dod": "", "field_school_movement": "", "view_node": "/poet/bino-realuyo", "field_state": ""}, {"poets": "Su Hwang", "field_dob": "", "field_dod": "", "field_school_movement": "", "view_node": "/poet/su-hwang", "field_state": ""}, {"poets": "Chaman Lall", "field_dob": "", "field_dod": "", "field_school_movement": "", "view_node": "/poet/chaman-lall", "field_state": ""}, {"poets": "Safia Jama", "field_dob": "", "field_dod": "", "field_school_movement": "", "view_node": "/poet/safia-jama", "field_state": ""}, {"poets": "Chris Santiago", "field_dob": "", "field_dod": "", "field_school_movement": "", "view_node": "/poet/chris-santiago", "field_state": ""}, {"poets": "Dimitri Reyes", "field_dob": "", "field_dod": "", "field_school_movement": "", "view_node": "/poet/dimitri-reyes", "field_state": ""}, {"poets": "Hossannah Asuncion", "field_dob": "", "field_dod": "", "field_school_movement": "", "view_node": "/poet/hossannah-asuncion", "field_state": ""}, {"poets": "Jared Har\u00e9l", "field_dob": "", "field_dod": "", "field_school_movement": "", "view_node": "/poet/jared-harel", "field_state": ""}, {"poets": "KC Trommer", "field_dob": "", "field_dod": "", "field_school_movement": "", "view_node": "/poet/kc-trommer", "field_state": ""}, {"poets": "Jennifer Martelli", "field_dob": "", "field_dod": "", "field_school_movement": "", "view_node": "/poet/jennifer-martelli", "field_state": ""}, {"poets": "Zohra Saed", "field_dob": "", "field_dod": "", "field_school_movement": "", "view_node": "/poet/zohra-saed", "field_state": ""}, {"poets": "Cathy Song", "field_dob": "", "field_dod": "", "field_school_movement": "", "view_node": "/poet/cathy-song", "field_state": ""}, {"poets": "Truong Tran", "field_dob": "", "field_dod": "", "field_school_movement": "", "view_node": "/poet/truong-tran", "field_state": ""}, {"poets": "bell hooks", "field_dob": "1952", "field_dod": "2021", "field_school_movement": "", "view_node": "/poet/bell-hooks", "field_state": "Kentucky"}, {"poets": "Candace G. Wiley ", "field_dob": "", "field_dod": "", "field_school_movement": "Contemporary", "view_node": "/poet/candace-g-wiley", "field_state": "South Carolina"}, {"poets": "Jerome Ellison Murphy", "field_dob": "", "field_dod": "", "field_school_movement": "", "view_node": "/poet/jerome-ellison-murphy", "field_state": ""}], "pager": {"current_page": 8, "total_items": "3766", "total_pages": 189, "items_per_page": 20}}