{"rows": [{"poets": "Forrest Hamer", "field_dob": "", "field_dod": "", "field_school_movement": "", "view_node": "/poet/forrest-hamer", "field_state": ""}, {"poets": "Michael Dowdy", "field_dob": "", "field_dod": "", "field_school_movement": "", "view_node": "/poet/michael-dowdy", "field_state": ""}, {"poets": "Judson Mitcham", "field_dob": "", "field_dod": "", "field_school_movement": "", "view_node": "/poet/judson-mitcham", "field_state": "Georgia"}, {"poets": "Joseph Lease", "field_dob": "", "field_dod": "", "field_school_movement": "", "view_node": "/poet/joseph-lease", "field_state": ""}, {"poets": "John Gallaher", "field_dob": "", "field_dod": "", "field_school_movement": "Contemporary", "view_node": "/poet/john-gallaher", "field_state": ""}, {"poets": "Ellen Dudley", "field_dob": "", "field_dod": "", "field_school_movement": "", "view_node": "/poet/ellen-dudley", "field_state": ""}, {"poets": "Josephine Dickinson", "field_dob": "", "field_dod": "", "field_school_movement": "", "view_node": "/poet/josephine-dickinson", "field_state": ""}, {"poets": "Henrietta Goodman", "field_dob": "", "field_dod": "", "field_school_movement": "", "view_node": "/poet/henrietta-goodman", "field_state": ""}, {"poets": "Eliza Griswold", "field_dob": "", "field_dod": "", "field_school_movement": "", "view_node": "/poet/eliza-griswold", "field_state": ""}, {"poets": "Julie Carr", "field_dob": "", "field_dod": "", "field_school_movement": "", "view_node": "/poet/julie-carr", "field_state": ""}, {"poets": "Maurice Manning", "field_dob": "", "field_dod": "", "field_school_movement": "", "view_node": "/poet/maurice-manning", "field_state": ""}, {"poets": "Deborah Keenan", "field_dob": "", "field_dod": "", "field_school_movement": "", "view_node": "/poet/deborah-keenan", "field_state": "Minnesota"}, {"poets": "Anne-Marie Oomen", "field_dob": "", "field_dod": "", "field_school_movement": "", "view_node": "/poet/anne-marie-oomen", "field_state": ""}, {"poets": "Aracelis Girmay", "field_dob": "", "field_dod": "", "field_school_movement": "", "view_node": "/poet/aracelis-girmay", "field_state": ""}, {"poets": "Elizabeth Macklin", "field_dob": "", "field_dod": "", "field_school_movement": "", "view_node": "/poet/elizabeth-macklin", "field_state": ""}, {"poets": "Kathleen Jamie", "field_dob": "", "field_dod": "", "field_school_movement": "", "view_node": "/poet/kathleen-jamie", "field_state": ""}, {"poets": "Janice N. Harrington", "field_dob": "", "field_dod": "", "field_school_movement": "", "view_node": "/poet/janice-n-harrington", "field_state": ""}, {"poets": "\u00c9ireann Lorsung", "field_dob": "", "field_dod": "", "field_school_movement": "", "view_node": "/poet/eireann-lorsung", "field_state": ""}, {"poets": "Becky Gould Gibson", "field_dob": "", "field_dod": "", "field_school_movement": "", "view_node": "/poet/becky-gould-gibson", "field_state": "South Carolina"}, {"poets": "Dan Gerber", "field_dob": "", "field_dod": "", "field_school_movement": "", "view_node": "/poet/dan-gerber", "field_state": ""}], "pager": {"current_page": 131, "total_items": "3766", "total_pages": 189, "items_per_page": 20}}