{"rows": [{"poets": "Thomas Lynch", "field_dob": "1948", "field_dod": "", "field_school_movement": "Contemporary", "view_node": "/poet/thomas-lynch", "field_state": ""}, {"poets": "Novica Tadi\u0107", "field_dob": "", "field_dod": "", "field_school_movement": "", "view_node": "/poet/novica-tadic", "field_state": ""}, {"poets": "Hiromi It\u014d", "field_dob": "", "field_dod": "", "field_school_movement": "", "view_node": "/poet/hiromi-ito", "field_state": ""}, {"poets": "Kate Greenstreet", "field_dob": "", "field_dod": "", "field_school_movement": "", "view_node": "/poet/kate-greenstreet", "field_state": ""}, {"poets": "Emily Wilson", "field_dob": "", "field_dod": "", "field_school_movement": "", "view_node": "/poet/emily-wilson", "field_state": ""}, {"poets": "Will Alexander", "field_dob": "", "field_dod": "", "field_school_movement": "Surrealism", "view_node": "/poet/will-alexander", "field_state": "California"}, {"poets": "Luis Garc\u00eda Montero", "field_dob": "", "field_dod": "", "field_school_movement": "", "view_node": "/poet/luis-garcia-montero", "field_state": ""}, {"poets": "Tadeusz R\u00f3\u017cewicz", "field_dob": "", "field_dod": "", "field_school_movement": "", "view_node": "/poet/tadeusz-rozewicz", "field_state": ""}, {"poets": "Prageeta Sharma", "field_dob": "", "field_dod": "", "field_school_movement": "Contemporary", "view_node": "/poet/prageeta-sharma", "field_state": ""}, {"poets": "Olena Kalytiak Davis", "field_dob": "1963", "field_dod": "", "field_school_movement": "Contemporary", "view_node": "/poet/olena-kalytiak-davis", "field_state": "Alaska"}, {"poets": "Dawn Lundy Martin", "field_dob": "", "field_dod": "", "field_school_movement": "", "view_node": "/poet/dawn-lundy-martin", "field_state": ""}, {"poets": "Wayne Koestenbaum", "field_dob": "", "field_dod": "", "field_school_movement": "Contemporary", "view_node": "/poet/wayne-koestenbaum", "field_state": ""}, {"poets": "John Banister Tabb", "field_dob": "", "field_dod": "", "field_school_movement": "", "view_node": "/poet/john-banister-tabb", "field_state": ""}, {"poets": "David Antin", "field_dob": "1932", "field_dod": "2016", "field_school_movement": "Language Poetry", "view_node": "/poet/david-antin", "field_state": "California"}, {"poets": "Aleksandar Ristovic", "field_dob": "", "field_dod": "", "field_school_movement": "", "view_node": "/poet/aleksandar-ristovic", "field_state": ""}, {"poets": "Jericho Brown", "field_dob": "", "field_dod": "", "field_school_movement": "", "view_node": "/poet/jericho-brown", "field_state": "Louisiana"}, {"poets": "Michael Smith", "field_dob": "", "field_dod": "", "field_school_movement": "", "view_node": "/poet/michael-smith", "field_state": ""}, {"poets": "Adriano Spatola", "field_dob": "", "field_dod": "", "field_school_movement": "", "view_node": "/poet/adriano-spatola", "field_state": ""}, {"poets": "James Cummins", "field_dob": "", "field_dod": "", "field_school_movement": "", "view_node": "/poet/james-cummins", "field_state": "Ohio"}, {"poets": "Nicolas Boileau-Despr\u00e9aux", "field_dob": "", "field_dod": "", "field_school_movement": "", "view_node": "/poet/nicolas-boileau-despreaux", "field_state": ""}], "pager": {"current_page": 113, "total_items": "3766", "total_pages": 189, "items_per_page": 20}}