{"rows": [{"poets": "Erica Hunt", "field_dob": "", "field_dod": "", "field_school_movement": "", "view_node": "/poet/erica-hunt", "field_state": "New York"}, {"poets": "Brent Cunningham", "field_dob": "", "field_dod": "", "field_school_movement": "", "view_node": "/poet/brent-cunningham", "field_state": ""}, {"poets": "Sharon Wang", "field_dob": "", "field_dod": "", "field_school_movement": "", "view_node": "/poet/sharon-wang", "field_state": ""}, {"poets": "Jennifer K. Dick", "field_dob": "", "field_dod": "", "field_school_movement": "", "view_node": "/poet/jennifer-k-dick", "field_state": ""}, {"poets": "Naomi Replansky", "field_dob": "", "field_dod": "", "field_school_movement": "", "view_node": "/poet/naomi-replansky", "field_state": "New York"}, {"poets": "Santee Frazier", "field_dob": "", "field_dod": "", "field_school_movement": "", "view_node": "/poet/santee-frazier", "field_state": "Oklahoma"}, {"poets": "Orlando White", "field_dob": "", "field_dod": "", "field_school_movement": "", "view_node": "/poet/orlando-white", "field_state": "Arizona"}, {"poets": "Tanaya Winder", "field_dob": "", "field_dod": "", "field_school_movement": "", "view_node": "/poet/tanaya-winder", "field_state": "Colorado"}, {"poets": "Gloria Bird", "field_dob": "", "field_dod": "", "field_school_movement": "", "view_node": "/poet/gloria-bird", "field_state": "Washington"}, {"poets": "Lois Red Elk", "field_dob": "", "field_dod": "", "field_school_movement": "", "view_node": "/poet/lois-red-elk", "field_state": "Montana"}, {"poets": "Stephen Kuusisto", "field_dob": "", "field_dod": "", "field_school_movement": "", "view_node": "/poet/stephen-kuusisto", "field_state": "New York"}, {"poets": "Ed Falco", "field_dob": "", "field_dod": "", "field_school_movement": "", "view_node": "/poet/ed-falco", "field_state": "Virginia"}, {"poets": "Robert Parham", "field_dob": "", "field_dod": "", "field_school_movement": "", "view_node": "/poet/robert-parham", "field_state": ""}, {"poets": "Chanda Feldman", "field_dob": "", "field_dod": "", "field_school_movement": "", "view_node": "/poet/chanda-feldman", "field_state": ""}, {"poets": "Claudia Buckholts ", "field_dob": "", "field_dod": "", "field_school_movement": "", "view_node": "/poet/claudia-buckholts", "field_state": "Massachusetts"}, {"poets": "John Kendrick Bangs", "field_dob": "", "field_dod": "", "field_school_movement": "", "view_node": "/poet/john-kendrick-bangs", "field_state": ""}, {"poets": "Joel Benton", "field_dob": "", "field_dod": "", "field_school_movement": "", "view_node": "/poet/joel-benton", "field_state": ""}, {"poets": "Alex Manley", "field_dob": "", "field_dod": "", "field_school_movement": "", "view_node": "/poet/alex-manley", "field_state": ""}, {"poets": "Devon Balwit", "field_dob": "", "field_dod": "", "field_school_movement": "", "view_node": "/poet/devon-balwit", "field_state": ""}, {"poets": "Susan Blackwell Ramsey", "field_dob": "", "field_dod": "", "field_school_movement": "", "view_node": "/poet/susan-blackwell-ramsey", "field_state": "Michigan"}], "pager": {"current_page": 57, "total_items": "3766", "total_pages": 189, "items_per_page": 20}}