{"rows": [{"poets": "Chris Abani", "field_dob": "1966", "field_dod": "", "field_school_movement": "Contemporary", "view_node": "/poet/chris-abani", "field_state": ""}, {"poets": "Ben Lerner", "field_dob": "1979", "field_dod": "", "field_school_movement": "", "view_node": "/poet/ben-lerner", "field_state": ""}, {"poets": "Roberto Tejada", "field_dob": "", "field_dod": "", "field_school_movement": "", "view_node": "/poet/roberto-tejada", "field_state": ""}, {"poets": "Pier Paolo Pasolini", "field_dob": "1922", "field_dod": "1975", "field_school_movement": "", "view_node": "/poet/pier-paolo-pasolini", "field_state": ""}, {"poets": "Cheryl Dumesnil", "field_dob": "", "field_dod": "", "field_school_movement": "", "view_node": "/poet/cheryl-dumesnil", "field_state": ""}, {"poets": "Beth Bachmann", "field_dob": "", "field_dod": "", "field_school_movement": "", "view_node": "/poet/beth-bachmann", "field_state": ""}, {"poets": "Tahar Ben Jelloun", "field_dob": "", "field_dod": "", "field_school_movement": "", "view_node": "/poet/tahar-ben-jelloun", "field_state": ""}, {"poets": "Andrew Joron", "field_dob": "", "field_dod": "", "field_school_movement": "", "view_node": "/poet/andrew-joron", "field_state": ""}, {"poets": "Bradley Paul", "field_dob": "", "field_dod": "", "field_school_movement": "", "view_node": "/poet/bradley-paul", "field_state": ""}, {"poets": "Simone Muench", "field_dob": "", "field_dod": "", "field_school_movement": "", "view_node": "/poet/simone-muench", "field_state": ""}, {"poets": "Kiki Petrosino", "field_dob": "", "field_dod": "", "field_school_movement": "", "view_node": "/poet/kiki-petrosino", "field_state": ""}, {"poets": "Keetje Kuipers", "field_dob": "", "field_dod": "", "field_school_movement": "", "view_node": "/poet/keetje-kuipers", "field_state": ""}, {"poets": "Peter Makuck", "field_dob": "", "field_dod": "", "field_school_movement": "", "view_node": "/poet/peter-makuck", "field_state": ""}, {"poets": "Erica Miriam Fabri", "field_dob": "", "field_dod": "", "field_school_movement": "", "view_node": "/poet/erica-miriam-fabri", "field_state": ""}, {"poets": "Michael McClure", "field_dob": "1932", "field_dod": "2020", "field_school_movement": "", "view_node": "/poet/michael-mcclure", "field_state": ""}, {"poets": "Thalia Field", "field_dob": "", "field_dod": "", "field_school_movement": "", "view_node": "/poet/thalia-field", "field_state": ""}, {"poets": "Madison Julius Cawein", "field_dob": "", "field_dod": "", "field_school_movement": "", "view_node": "/poet/madison-julius-cawein", "field_state": ""}, {"poets": "Abram Joseph Ryan", "field_dob": "", "field_dod": "", "field_school_movement": "", "view_node": "/poet/abram-joseph-ryan", "field_state": ""}, {"poets": "George Parsons Lathrop", "field_dob": "1851", "field_dod": "1898", "field_school_movement": "", "view_node": "/poet/george-parsons-lathrop", "field_state": ""}, {"poets": "Henry Thomas Liddell", "field_dob": "", "field_dod": "", "field_school_movement": "", "view_node": "/poet/henry-thomas-liddell", "field_state": ""}], "pager": {"current_page": 118, "total_items": "3766", "total_pages": 189, "items_per_page": 20}}