{"rows": [{"poets": "Christopher Kondrich", "field_dob": "", "field_dod": "", "field_school_movement": "", "view_node": "/poet/christopher-kondrich", "field_state": ""}, {"poets": "Timothy Thomas Fortune", "field_dob": "", "field_dod": "", "field_school_movement": "", "view_node": "/poet/timothy-thomas-fortune", "field_state": ""}, {"poets": "Stephanie Strickland", "field_dob": "", "field_dod": "", "field_school_movement": "", "view_node": "/poet/stephanie-strickland", "field_state": ""}, {"poets": "T. J. Anderson III", "field_dob": "", "field_dod": "", "field_school_movement": "", "view_node": "/poet/t-j-anderson-iii", "field_state": "Virginia"}, {"poets": "Laura Eve Engel ", "field_dob": "", "field_dod": "", "field_school_movement": "", "view_node": "/poet/laura-eve-engel", "field_state": ""}, {"poets": "Grady Chambers", "field_dob": "", "field_dod": "", "field_school_movement": "", "view_node": "/poet/grady-chambers", "field_state": ""}, {"poets": "Gina Franco", "field_dob": "", "field_dod": "", "field_school_movement": "", "view_node": "/poet/gina-franco", "field_state": ""}, {"poets": "Anna Lena Phillips Bell", "field_dob": "", "field_dod": "", "field_school_movement": "", "view_node": "/poet/anna-lena-phillips-bell", "field_state": ""}, {"poets": "Jan-Henry Gray", "field_dob": "", "field_dod": "", "field_school_movement": "", "view_node": "/poet/jan-henry-gray", "field_state": ""}, {"poets": "Saadi Youssef", "field_dob": "1934", "field_dod": "2021", "field_school_movement": "", "view_node": "/poet/saadi-youssef", "field_state": ""}, {"poets": "jessica Care moore", "field_dob": "", "field_dod": "", "field_school_movement": "", "view_node": "/poet/jessica-care-moore", "field_state": ""}, {"poets": "Hala Alyan", "field_dob": "", "field_dod": "", "field_school_movement": "", "view_node": "/poet/hala-alyan", "field_state": "New York"}, {"poets": "Erica Dawson", "field_dob": "", "field_dod": "", "field_school_movement": "", "view_node": "/poet/erica-dawson", "field_state": ""}, {"poets": "William Woolfitt", "field_dob": "", "field_dod": "", "field_school_movement": "", "view_node": "/poet/william-woolfitt", "field_state": ""}, {"poets": "Sophie Klahr", "field_dob": "", "field_dod": "", "field_school_movement": "", "view_node": "/poet/sophie-klahr", "field_state": ""}, {"poets": "Rebecca Givens Rolland", "field_dob": "", "field_dod": "", "field_school_movement": "", "view_node": "/poet/rebecca-givens-rolland", "field_state": ""}, {"poets": "Leah Umansky", "field_dob": "", "field_dod": "", "field_school_movement": "", "view_node": "/poet/leah-umansky", "field_state": ""}, {"poets": "Kathryn Hunt", "field_dob": "", "field_dod": "", "field_school_movement": "", "view_node": "/poet/kathryn-hunt", "field_state": ""}, {"poets": "Kate Gaskin", "field_dob": "", "field_dod": "", "field_school_movement": "", "view_node": "/poet/kate-gaskin", "field_state": ""}, {"poets": "Kary Wayson", "field_dob": "", "field_dod": "", "field_school_movement": "", "view_node": "/poet/kary-wayson", "field_state": ""}], "pager": {"current_page": 38, "total_items": "3766", "total_pages": 189, "items_per_page": 20}}