{"rows": [{"poets": "Sandra Alcosser", "field_dob": "1944", "field_dod": "", "field_school_movement": "", "view_node": "/poet/sandra-alcosser", "field_state": "Montana"}, {"poets": "Rita Dove", "field_dob": "1952", "field_dod": "", "field_school_movement": "Contemporary", "view_node": "/poet/rita-dove", "field_state": "Virginia"}, {"poets": "Robert Creeley", "field_dob": "1926", "field_dod": "2005", "field_school_movement": "Black Mountain", "view_node": "/poet/robert-creeley", "field_state": ""}, {"poets": "Rafael Campo", "field_dob": "1964", "field_dod": "", "field_school_movement": "", "view_node": "/poet/rafael-campo", "field_state": ""}, {"poets": "Ralph Angel", "field_dob": "1951", "field_dod": "2020", "field_school_movement": "Contemporary", "view_node": "/poet/ralph-angel", "field_state": ""}, {"poets": "Pattiann Rogers", "field_dob": "1940", "field_dod": "", "field_school_movement": "Contemporary", "view_node": "/poet/pattiann-rogers", "field_state": "Colorado"}, {"poets": "Philip Larkin", "field_dob": "1922", "field_dod": "1985", "field_school_movement": "Modernism", "view_node": "/poet/philip-larkin", "field_state": ""}, {"poets": "Nikki Giovanni", "field_dob": "1943", "field_dod": "", "field_school_movement": "Black Arts", "view_node": "/poet/nikki-giovanni", "field_state": "Virginia"}, {"poets": "Norman Dubie", "field_dob": "1945", "field_dod": "", "field_school_movement": "Contemporary", "view_node": "/poet/norman-dubie", "field_state": "Arizona"}, {"poets": "Nicole Cooley", "field_dob": "", "field_dod": "", "field_school_movement": "Contemporary", "view_node": "/poet/nicole-cooley", "field_state": ""}, {"poets": "Afaa Michael Weaver", "field_dob": "1951", "field_dod": "", "field_school_movement": "Contemporary", "view_node": "/poet/afaa-michael-weaver", "field_state": "Massachusetts"}, {"poets": "Mona Van Duyn", "field_dob": "1921", "field_dod": "2004", "field_school_movement": "", "view_node": "/poet/mona-van-duyn", "field_state": ""}, {"poets": "Gary Snyder", "field_dob": "1930", "field_dod": "", "field_school_movement": "Beat, Ethnopoetics, San Francisco Renaissance, Surrealism", "view_node": "/poet/gary-snyder", "field_state": "California"}, {"poets": "May Swenson", "field_dob": "1913", "field_dod": "1989", "field_school_movement": "", "view_node": "/poet/may-swenson", "field_state": "New York"}, {"poets": "Garrett Hongo", "field_dob": "1951", "field_dod": "", "field_school_movement": "", "view_node": "/poet/garrett-hongo", "field_state": "Hawaii"}, {"poets": "Gwendolyn Brooks", "field_dob": "1917", "field_dod": "2000", "field_school_movement": "Black Arts", "view_node": "/poet/gwendolyn-brooks", "field_state": "Illinois"}, {"poets": "Frank Bidart", "field_dob": "1939", "field_dod": "", "field_school_movement": "Contemporary", "view_node": "/poet/frank-bidart", "field_state": "Massachusetts"}, {"poets": "Ezra Pound", "field_dob": "1885", "field_dod": "1972", "field_school_movement": "Modernism", "view_node": "/poet/ezra-pound", "field_state": "New York"}, {"poets": "Edna St. Vincent Millay", "field_dob": "1892", "field_dod": "1950", "field_school_movement": "", "view_node": "/poet/edna-st-vincent-millay", "field_state": "New York"}, {"poets": "Etheridge Knight", "field_dob": "1931", "field_dod": "1991", "field_school_movement": "Black Arts", "view_node": "/poet/etheridge-knight", "field_state": "Mississippi"}], "pager": {"current_page": 86, "total_items": "3766", "total_pages": 189, "items_per_page": 20}}