{"rows": [{"poets": "Michael Luis Medrano", "field_dob": "", "field_dod": "", "field_school_movement": "", "view_node": "/poet/michael-luis-medrano", "field_state": ""}, {"poets": "John Olivares Espinoza", "field_dob": "", "field_dod": "", "field_school_movement": "", "view_node": "/poet/john-olivares-espinoza", "field_state": ""}, {"poets": "Teri Ellen Cross Davis", "field_dob": "", "field_dod": "", "field_school_movement": "", "view_node": "/poet/teri-ellen-cross-davis", "field_state": ""}, {"poets": "Amanda Hawkins", "field_dob": "", "field_dod": "", "field_school_movement": "", "view_node": "/poet/amanda-hawkins", "field_state": ""}, {"poets": "Claire McQuerry", "field_dob": "", "field_dod": "", "field_school_movement": "", "view_node": "/poet/claire-mcquerry", "field_state": ""}, {"poets": "Hafizah Geter", "field_dob": "", "field_dod": "", "field_school_movement": "", "view_node": "/poet/hafizah-geter", "field_state": ""}, {"poets": "Kevin Carey", "field_dob": "", "field_dod": "", "field_school_movement": "", "view_node": "/poet/kevin-carey", "field_state": ""}, {"poets": "Sandra Mar\u00eda Esteves", "field_dob": "", "field_dod": "", "field_school_movement": "Nuyorican Poetry", "view_node": "/poet/sandra-maria-esteves", "field_state": "New York"}, {"poets": "Kelli Russell Agodon", "field_dob": "", "field_dod": "", "field_school_movement": "", "view_node": "/poet/kelli-russell-agodon", "field_state": ""}, {"poets": "Leslie Harrison", "field_dob": "", "field_dod": "", "field_school_movement": "", "view_node": "/poet/leslie-harrison", "field_state": ""}, {"poets": "Thomas E. Peterson", "field_dob": "", "field_dod": "", "field_school_movement": "", "view_node": "/poet/thomas-e-peterson", "field_state": ""}, {"poets": "Piotr Florczyk", "field_dob": "", "field_dod": "", "field_school_movement": "", "view_node": "/poet/piotr-florczyk", "field_state": ""}, {"poets": "Frances Revel", "field_dob": "", "field_dod": "", "field_school_movement": "", "view_node": "/poet/frances-revel", "field_state": ""}, {"poets": "Sasha Pimentel", "field_dob": "", "field_dod": "", "field_school_movement": "", "view_node": "/poet/sasha-pimentel", "field_state": ""}, {"poets": "Allison Joseph", "field_dob": "", "field_dod": "", "field_school_movement": "", "view_node": "/poet/allison-joseph", "field_state": ""}, {"poets": "Ricardo Pau-Llosa", "field_dob": "", "field_dod": "", "field_school_movement": "", "view_node": "/poet/ricardo-pau-llosa", "field_state": "Florida"}, {"poets": "Clint Smith", "field_dob": "", "field_dod": "", "field_school_movement": "", "view_node": "/poet/clint-smith", "field_state": ""}, {"poets": "Kim Roberts", "field_dob": "", "field_dod": "", "field_school_movement": "", "view_node": "/poet/kim-roberts", "field_state": ""}, {"poets": "Michele Wolf", "field_dob": "", "field_dod": "", "field_school_movement": "", "view_node": "/poet/michele-wolf", "field_state": ""}, {"poets": "Brian Phillip Whalen", "field_dob": "", "field_dod": "", "field_school_movement": "", "view_node": "/poet/brian-phillip-whalen", "field_state": ""}], "pager": {"current_page": 59, "total_items": "3766", "total_pages": 189, "items_per_page": 20}}