{"rows": [{"poets": "  CAConrad", "field_dob": "1966", "field_dod": "", "field_school_movement": "", "view_node": "/poet/caconrad", "field_state": "Pennsylvania"}, {"poets": "Shira Dentz", "field_dob": "", "field_dod": "", "field_school_movement": "", "view_node": "/poet/shira-dentz", "field_state": ""}, {"poets": "Nate Pritts", "field_dob": "", "field_dod": "", "field_school_movement": "", "view_node": "/poet/nate-pritts", "field_state": ""}, {"poets": "Judith Baumel", "field_dob": "", "field_dod": "", "field_school_movement": "Contemporary", "view_node": "/poet/judith-baumel", "field_state": ""}, {"poets": "Priscilla Becker", "field_dob": "", "field_dod": "", "field_school_movement": "", "view_node": "/poet/priscilla-becker", "field_state": ""}, {"poets": "Peter Streckfus", "field_dob": "", "field_dod": "", "field_school_movement": "", "view_node": "/poet/peter-streckfus", "field_state": ""}, {"poets": "Li Po", "field_dob": "0701", "field_dod": "0762", "field_school_movement": "", "view_node": "/poet/li-po", "field_state": ""}, {"poets": "Susan Briante", "field_dob": "", "field_dod": "", "field_school_movement": "", "view_node": "/poet/susan-briante", "field_state": ""}, {"poets": "John Cage", "field_dob": "1912", "field_dod": "1992", "field_school_movement": "", "view_node": "/poet/john-cage", "field_state": ""}, {"poets": "Enomoto Seifu-jo", "field_dob": "", "field_dod": "", "field_school_movement": "", "view_node": "/poet/enomoto-seifu-jo", "field_state": ""}, {"poets": "William Dunbar", "field_dob": "", "field_dod": "", "field_school_movement": "", "view_node": "/poet/william-dunbar", "field_state": ""}, {"poets": "Rabindranath Tagore", "field_dob": "1861", "field_dod": "1941", "field_school_movement": "", "view_node": "/poet/rabindranath-tagore", "field_state": ""}, {"poets": "Abraham Lincoln", "field_dob": "1809", "field_dod": "1865", "field_school_movement": "", "view_node": "/poet/abraham-lincoln", "field_state": "Illinois"}, {"poets": "Julian Talamantez Brolaski", "field_dob": "", "field_dod": "", "field_school_movement": "", "view_node": "/poet/julian-talamantez-brolaski", "field_state": "California"}, {"poets": "kari edwards", "field_dob": "", "field_dod": "", "field_school_movement": "", "view_node": "/poet/kari-edwards", "field_state": "California"}, {"poets": "Matthew Dickman", "field_dob": "1975", "field_dod": "", "field_school_movement": "", "view_node": "/poet/matthew-dickman", "field_state": ""}, {"poets": "Cathy Park Hong", "field_dob": "1976", "field_dod": "", "field_school_movement": "Contemporary", "view_node": "/poet/cathy-park-hong", "field_state": "New York"}, {"poets": "Edith Sitwell", "field_dob": "1887", "field_dod": "1964", "field_school_movement": "", "view_node": "/poet/edith-sitwell", "field_state": ""}, {"poets": "Dominic Siracusa", "field_dob": "", "field_dod": "", "field_school_movement": "", "view_node": "/poet/dominic-siracusa", "field_state": ""}, {"poets": "Emilio Villa", "field_dob": "", "field_dod": "", "field_school_movement": "", "view_node": "/poet/emilio-villa", "field_state": ""}], "pager": {"current_page": 106, "total_items": "3766", "total_pages": 189, "items_per_page": 20}}