{"rows": [{"poets": "Rachael Lang", "field_dob": "", "field_dod": "", "field_school_movement": "", "view_node": "/poet/rachael-lang", "field_state": "Oregon"}, {"poets": "Carrie George ", "field_dob": "", "field_dod": "", "field_school_movement": "", "view_node": "/poet/carrie-george", "field_state": "Ohio"}, {"poets": " Susan Coultrap-McQuin", "field_dob": "", "field_dod": "", "field_school_movement": "", "view_node": "/poet/susan-coultrap-mcquin", "field_state": "Minnesota"}, {"poets": "Megan Neville ", "field_dob": "", "field_dod": "", "field_school_movement": "", "view_node": "/poet/megan-neville", "field_state": "Ohio"}, {"poets": "Carrie Williams Clifford", "field_dob": "", "field_dod": "", "field_school_movement": "", "view_node": "/poet/carrie-williams-clifford", "field_state": "West Virginia"}, {"poets": "Otto Leland Bohanan", "field_dob": "", "field_dod": "", "field_school_movement": "", "view_node": "/poet/otto-leland-bohanan", "field_state": ""}, {"poets": "Kyle Churney", "field_dob": "", "field_dod": "", "field_school_movement": "", "view_node": "/poet/kyle-churney", "field_state": "Illinois"}, {"poets": "Cristina Correa", "field_dob": "", "field_dod": "", "field_school_movement": "", "view_node": "/poet/cristina-correa", "field_state": "New York"}, {"poets": "Jeffrey Pethybridge ", "field_dob": "", "field_dod": "", "field_school_movement": "", "view_node": "/poet/jeffrey-pethybridge", "field_state": "Colorado"}, {"poets": "Carrie Law Morgan Figgs", "field_dob": "", "field_dod": "", "field_school_movement": "", "view_node": "/poet/carrie-law-morgan-figgs", "field_state": ""}, {"poets": "Edward Nathaniel Harleston", "field_dob": "", "field_dod": "", "field_school_movement": "", "view_node": "/poet/edward-nathaniel-harleston", "field_state": "New Jersey"}, {"poets": "Tara Hardy", "field_dob": "", "field_dod": "", "field_school_movement": "", "view_node": "/poet/tara-hardy", "field_state": "Washington"}, {"poets": "Terisa Siagatonu", "field_dob": "", "field_dod": "", "field_school_movement": "", "view_node": "/poet/terisa-siagatonu", "field_state": "California"}, {"poets": "Jessica Guzman", "field_dob": "", "field_dod": "", "field_school_movement": "", "view_node": "/poet/jessica-guzman", "field_state": "Pennsylvania"}, {"poets": "Alice Cary", "field_dob": "1820", "field_dod": "1871", "field_school_movement": "", "view_node": "/poet/alice-cary", "field_state": "New York"}, {"poets": "Myra Viola Wilds", "field_dob": "", "field_dod": "", "field_school_movement": "", "view_node": "/poet/myra-viola-wilds", "field_state": "Pennsylvania"}, {"poets": "Leslie Pinckney Hill", "field_dob": "1880", "field_dod": "1960", "field_school_movement": "Harlem Renaissance", "view_node": "/poet/leslie-pinckney-hill", "field_state": "Pennsylvania"}, {"poets": "Valerie Wetlaufer", "field_dob": "", "field_dod": "", "field_school_movement": "", "view_node": "/poet/valerie-wetlaufer", "field_state": "Iowa"}, {"poets": "Melissa Crowe", "field_dob": "", "field_dod": "", "field_school_movement": "", "view_node": "/poet/melissa-crowe", "field_state": "North Carolina"}, {"poets": "Niki Herd", "field_dob": "", "field_dod": "", "field_school_movement": "", "view_node": "/poet/niki-herd", "field_state": "Texas"}], "pager": {"current_page": 29, "total_items": "3766", "total_pages": 189, "items_per_page": 20}}