{"rows": [{"poets": "Susan Rich ", "field_dob": "", "field_dod": "", "field_school_movement": "", "view_node": "/poet/susan-rich", "field_state": ""}, {"poets": "Tu Fu", "field_dob": "", "field_dod": "", "field_school_movement": "", "view_node": "/poet/tu-fu", "field_state": ""}, {"poets": "Danielle Legros Georges", "field_dob": "", "field_dod": "", "field_school_movement": "", "view_node": "/poet/danielle-legros-georges", "field_state": "Massachusetts"}, {"poets": "Judy Grahn", "field_dob": "1940", "field_dod": "", "field_school_movement": "", "view_node": "/poet/judy-grahn", "field_state": "California"}, {"poets": "J. Mae Barizo ", "field_dob": "", "field_dod": "", "field_school_movement": "", "view_node": "/poet/j-mae-barizo", "field_state": ""}, {"poets": "JP Howard", "field_dob": "", "field_dod": "", "field_school_movement": "", "view_node": "/poet/jp-howard", "field_state": "New York"}, {"poets": "Lee  Upton ", "field_dob": "", "field_dod": "", "field_school_movement": "", "view_node": "/poet/lee-upton", "field_state": ""}, {"poets": "Christopher  Bakken ", "field_dob": "", "field_dod": "", "field_school_movement": "", "view_node": "/poet/christopher-bakken", "field_state": ""}, {"poets": "Ishion Hutchinson ", "field_dob": "", "field_dod": "", "field_school_movement": "", "view_node": "/poet/ishion-hutchinson", "field_state": ""}, {"poets": "Daniel Berrigan", "field_dob": "1921", "field_dod": "2016", "field_school_movement": "", "view_node": "/poet/daniel-berrigan", "field_state": ""}, {"poets": "Margaret Ross", "field_dob": "", "field_dod": "", "field_school_movement": "", "view_node": "/poet/margaret-ross", "field_state": ""}, {"poets": "Pat Parker", "field_dob": "", "field_dod": "", "field_school_movement": "", "view_node": "/poet/pat-parker", "field_state": "California"}, {"poets": "Sara  Nicholson", "field_dob": "", "field_dod": "", "field_school_movement": "", "view_node": "/poet/sara-nicholson", "field_state": ""}, {"poets": "TC Tolbert", "field_dob": "", "field_dod": "", "field_school_movement": "", "view_node": "/poet/tc-tolbert", "field_state": "Arizona"}, {"poets": "Sarah Bartlett", "field_dob": "", "field_dod": "", "field_school_movement": "", "view_node": "/poet/sarah-bartlett", "field_state": ""}, {"poets": "Phillip B. Williams", "field_dob": "", "field_dod": "", "field_school_movement": "", "view_node": "/poet/phillip-b-williams", "field_state": "Pennsylvania"}, {"poets": "Marion Strobel", "field_dob": "", "field_dod": "", "field_school_movement": "", "view_node": "/poet/marion-strobel", "field_state": ""}, {"poets": "Jenny Johnson ", "field_dob": "", "field_dod": "", "field_school_movement": "", "view_node": "/poet/jenny-johnson", "field_state": ""}, {"poets": "Ari  Banias ", "field_dob": "", "field_dod": "", "field_school_movement": "", "view_node": "/poet/ari-banias", "field_state": "California"}, {"poets": "Nicky Beer", "field_dob": "", "field_dod": "", "field_school_movement": "", "view_node": "/poet/nicky-beer", "field_state": "Colorado"}], "pager": {"current_page": 68, "total_items": "3766", "total_pages": 189, "items_per_page": 20}}