{"rows": [{"poets": "Roland Flint", "field_dob": "", "field_dod": "", "field_school_movement": "", "view_node": "/poet/roland-flint", "field_state": ""}, {"poets": "Edith Grossman", "field_dob": "1936", "field_dod": "", "field_school_movement": "Translators", "view_node": "/poet/edith-grossman", "field_state": ""}, {"poets": "Joan Larkin", "field_dob": "", "field_dod": "", "field_school_movement": "", "view_node": "/poet/joan-larkin", "field_state": ""}, {"poets": "Henri Cole", "field_dob": "1956", "field_dod": "", "field_school_movement": "", "view_node": "/poet/henri-cole", "field_state": "Virginia"}, {"poets": "Dana Gelinas", "field_dob": "", "field_dod": "", "field_school_movement": "", "view_node": "/poet/dana-gelinas", "field_state": ""}, {"poets": "Carol Ann Duffy", "field_dob": "1955", "field_dod": "", "field_school_movement": "", "view_node": "/poet/carol-ann-duffy", "field_state": ""}, {"poets": "Frieda Hughes", "field_dob": "1960", "field_dod": "", "field_school_movement": "", "view_node": "/poet/frieda-hughes", "field_state": ""}, {"poets": "Diane Ackerman", "field_dob": "", "field_dod": "", "field_school_movement": "Contemporary", "view_node": "/poet/diane-ackerman", "field_state": ""}, {"poets": "Arthur Nevis", "field_dob": "", "field_dod": "", "field_school_movement": "", "view_node": "/poet/arthur-nevis", "field_state": ""}, {"poets": "Hamlin Garland", "field_dob": "1860", "field_dod": "1940", "field_school_movement": "", "view_node": "/poet/hamlin-garland", "field_state": ""}, {"poets": "Mark Van Doren", "field_dob": "1894", "field_dod": "1972", "field_school_movement": "", "view_node": "/poet/mark-van-doren", "field_state": ""}, {"poets": "Albert Bigelow Paine", "field_dob": "1861", "field_dod": "1937", "field_school_movement": "", "view_node": "/poet/albert-bigelow-paine", "field_state": ""}, {"poets": "Robert Lewis Weeks", "field_dob": "", "field_dod": "", "field_school_movement": "", "view_node": "/poet/robert-lewis-weeks", "field_state": ""}, {"poets": "George Scarbrough", "field_dob": "", "field_dod": "", "field_school_movement": "", "view_node": "/poet/george-scarbrough", "field_state": ""}, {"poets": "Michael Pettit", "field_dob": "", "field_dod": "", "field_school_movement": "", "view_node": "/poet/michael-pettit", "field_state": ""}, {"poets": "Robbie Klein", "field_dob": "", "field_dod": "", "field_school_movement": "", "view_node": "/poet/robbie-klein", "field_state": ""}, {"poets": "Ron McFarland", "field_dob": "", "field_dod": "", "field_school_movement": "", "view_node": "/poet/ron-mcfarland", "field_state": "Idaho"}, {"poets": "Nan Arbuckle", "field_dob": "", "field_dod": "", "field_school_movement": "", "view_node": "/poet/nan-arbuckle", "field_state": ""}, {"poets": "Charles Foster", "field_dob": "", "field_dod": "", "field_school_movement": "", "view_node": "/poet/charles-foster", "field_state": ""}, {"poets": "Juliet S. Kono", "field_dob": "", "field_dod": "", "field_school_movement": "", "view_node": "/poet/juliet-s-kono", "field_state": ""}], "pager": {"current_page": 152, "total_items": "3766", "total_pages": 189, "items_per_page": 20}}