{"rows": [{"poets": "Kenji C. Liu", "field_dob": "", "field_dod": "", "field_school_movement": "", "view_node": "/poet/kenji-c-liu", "field_state": ""}, {"poets": "Gibbons Ruark", "field_dob": "", "field_dod": "", "field_school_movement": "", "view_node": "/poet/gibbons-ruark", "field_state": ""}, {"poets": "Jon Tribble", "field_dob": "", "field_dod": "2019", "field_school_movement": "", "view_node": "/poet/jon-tribble", "field_state": ""}, {"poets": "Jaswinder Bolina", "field_dob": "", "field_dod": "", "field_school_movement": "", "view_node": "/poet/jaswinder-bolina-0", "field_state": ""}, {"poets": "Malcolm Tariq", "field_dob": "", "field_dod": "", "field_school_movement": "", "view_node": "/poet/malcolm-tariq", "field_state": ""}, {"poets": "Tommy Pico", "field_dob": "", "field_dod": "", "field_school_movement": "", "view_node": "/poet/tommy-pico", "field_state": ""}, {"poets": "Myung Mi Kim", "field_dob": "", "field_dod": "", "field_school_movement": "", "view_node": "/poet/myung-mi-kim", "field_state": ""}, {"poets": "Adam Wolfond", "field_dob": "", "field_dod": "", "field_school_movement": "", "view_node": "/poet/adam-wolfond", "field_state": ""}, {"poets": "Maya C. Popa", "field_dob": "", "field_dod": "", "field_school_movement": "", "view_node": "/poet/maya-c-popa", "field_state": ""}, {"poets": "Steve Dalachinsky", "field_dob": "1946", "field_dod": "2019", "field_school_movement": "Jazz Poetry", "view_node": "/poet/steve-dalachinsky", "field_state": "New York"}, {"poets": "Julia Guez", "field_dob": "", "field_dod": "", "field_school_movement": "", "view_node": "/poet/julia-guez", "field_state": ""}, {"poets": "Ashley Toliver", "field_dob": "", "field_dod": "", "field_school_movement": "", "view_node": "/poet/ashley-toliver", "field_state": "Oregon"}, {"poets": "Jae Kim", "field_dob": "", "field_dod": "", "field_school_movement": "", "view_node": "/poet/jae-kim", "field_state": ""}, {"poets": " Lee Young-ju", "field_dob": "", "field_dod": "", "field_school_movement": "", "view_node": "/poet/lee-young-ju", "field_state": ""}, {"poets": "Karen Solie", "field_dob": "", "field_dod": "", "field_school_movement": "", "view_node": "/poet/karen-solie", "field_state": ""}, {"poets": "Wendy Chin-Tanner", "field_dob": "", "field_dod": "", "field_school_movement": "", "view_node": "/poet/wendy-chin-tanner", "field_state": ""}, {"poets": "Matthew Wimberley", "field_dob": "", "field_dod": "", "field_school_movement": "", "view_node": "/poet/matthew-wimberley", "field_state": ""}, {"poets": "Diana Hume George", "field_dob": "", "field_dod": "", "field_school_movement": "", "view_node": "/poet/diana-hume-george", "field_state": ""}, {"poets": "Karen Alkalay-Gut", "field_dob": "", "field_dod": "", "field_school_movement": "", "view_node": "/poet/karen-alkalay-gut", "field_state": ""}, {"poets": "Emmanuel Hocquard", "field_dob": "1940", "field_dod": "2019", "field_school_movement": "", "view_node": "/poet/emmanuel-hocquard", "field_state": ""}], "pager": {"current_page": 32, "total_items": "3766", "total_pages": 189, "items_per_page": 20}}