{"rows": [{"poets": "Homero Aridjis", "field_dob": "1940", "field_dod": "", "field_school_movement": "", "view_node": "/poet/homero-aridjis", "field_state": ""}, {"poets": "Luljeta Lleshanaku", "field_dob": "", "field_dod": "", "field_school_movement": "", "view_node": "/poet/luljeta-lleshanaku", "field_state": ""}, {"poets": "Eireann Corrigan", "field_dob": "", "field_dod": "", "field_school_movement": "", "view_node": "/poet/eireann-corrigan", "field_state": ""}, {"poets": "Esta Spalding", "field_dob": "", "field_dod": "", "field_school_movement": "", "view_node": "/poet/esta-spalding", "field_state": ""}, {"poets": "James Stevenson", "field_dob": "", "field_dod": "", "field_school_movement": "", "view_node": "/poet/james-stevenson", "field_state": ""}, {"poets": "Arnold Adoff", "field_dob": "", "field_dod": "", "field_school_movement": "", "view_node": "/poet/arnold-adoff", "field_state": ""}, {"poets": "Eula Biss", "field_dob": "", "field_dod": "", "field_school_movement": "", "view_node": "/poet/eula-biss", "field_state": ""}, {"poets": "Paul Violi", "field_dob": "1944", "field_dod": "2011", "field_school_movement": "New York School", "view_node": "/poet/paul-violi", "field_state": "New York"}, {"poets": "Alfredo de Palchi", "field_dob": "", "field_dod": "", "field_school_movement": "", "view_node": "/poet/alfredo-de-palchi", "field_state": ""}, {"poets": "Fanny Howe", "field_dob": "1940", "field_dod": "", "field_school_movement": "", "view_node": "/poet/fanny-howe", "field_state": ""}, {"poets": "Ellen Bryant Voigt", "field_dob": "", "field_dod": "", "field_school_movement": "Contemporary", "view_node": "/poet/ellen-bryant-voigt", "field_state": "Vermont"}, {"poets": "Elaine Equi", "field_dob": "", "field_dod": "", "field_school_movement": "Contemporary", "view_node": "/poet/elaine-equi", "field_state": ""}, {"poets": "Bob Perelman", "field_dob": "", "field_dod": "", "field_school_movement": "", "view_node": "/poet/bob-perelman", "field_state": "Ohio"}, {"poets": "Charles Harper Webb", "field_dob": "", "field_dod": "", "field_school_movement": "", "view_node": "/poet/charles-harper-webb", "field_state": ""}, {"poets": "Cynthia Zarin", "field_dob": "", "field_dod": "", "field_school_movement": "", "view_node": "/poet/cynthia-zarin", "field_state": ""}, {"poets": "John Yau", "field_dob": "1950", "field_dod": "", "field_school_movement": "", "view_node": "/poet/john-yau", "field_state": "New York"}, {"poets": "Marc Woodworth", "field_dob": "", "field_dod": "", "field_school_movement": "", "view_node": "/poet/marc-woodworth", "field_state": ""}, {"poets": "David Wojahn", "field_dob": "1953", "field_dod": "", "field_school_movement": "Contemporary", "view_node": "/poet/david-wojahn", "field_state": ""}, {"poets": "Karen Volkman", "field_dob": "", "field_dod": "", "field_school_movement": "Contemporary", "view_node": "/poet/karen-volkman", "field_state": "Montana"}, {"poets": "Mark Turcotte", "field_dob": "1958", "field_dod": "", "field_school_movement": "", "view_node": "/poet/mark-turcotte", "field_state": ""}], "pager": {"current_page": 160, "total_items": "3766", "total_pages": 189, "items_per_page": 20}}