{"rows": [{"poets": "Doreen Gildroy", "field_dob": "", "field_dod": "", "field_school_movement": "", "view_node": "/poet/doreen-gildroy", "field_state": ""}, {"poets": "Richard Foerster", "field_dob": "", "field_dod": "", "field_school_movement": "", "view_node": "/poet/richard-foerster", "field_state": ""}, {"poets": "Roger Fanning", "field_dob": "", "field_dod": "", "field_school_movement": "", "view_node": "/poet/roger-fanning", "field_state": ""}, {"poets": "Jenny Factor", "field_dob": "", "field_dod": "", "field_school_movement": "", "view_node": "/poet/jenny-factor", "field_state": ""}, {"poets": "Bernardine Evaristo", "field_dob": "", "field_dod": "", "field_school_movement": "", "view_node": "/poet/bernardine-evaristo", "field_state": ""}, {"poets": "Angie Estes", "field_dob": "", "field_dod": "", "field_school_movement": "", "view_node": "/poet/angie-estes", "field_state": ""}, {"poets": "Claudia Emerson", "field_dob": "1957", "field_dod": "2014", "field_school_movement": "", "view_node": "/poet/claudia-emerson", "field_state": "Virginia"}, {"poets": "Gwen Ebert", "field_dob": "", "field_dod": "", "field_school_movement": "", "view_node": "/poet/gwen-ebert", "field_state": ""}, {"poets": "Graham Duncan", "field_dob": "", "field_dod": "", "field_school_movement": "", "view_node": "/poet/graham-duncan", "field_state": ""}, {"poets": "Jim Dodge", "field_dob": "", "field_dod": "", "field_school_movement": "", "view_node": "/poet/jim-dodge", "field_state": ""}, {"poets": "Timothy Dekin", "field_dob": "", "field_dod": "", "field_school_movement": "", "view_node": "/poet/timothy-dekin", "field_state": ""}, {"poets": "Kate Daniels", "field_dob": "", "field_dod": "", "field_school_movement": "", "view_node": "/poet/kate-daniels", "field_state": ""}, {"poets": "Jim Daniels", "field_dob": "", "field_dod": "", "field_school_movement": "", "view_node": "/poet/jim-daniels", "field_state": ""}, {"poets": "Stephen Cushman", "field_dob": "", "field_dod": "", "field_school_movement": "", "view_node": "/poet/stephen-cushman", "field_state": ""}, {"poets": "Pura L\u00f3pez-Colom\u00e9", "field_dob": "", "field_dod": "", "field_school_movement": "", "view_node": "/poet/pura-lopez-colome", "field_state": ""}, {"poets": "Cathy Colman", "field_dob": "", "field_dod": "", "field_school_movement": "", "view_node": "/poet/cathy-colman", "field_state": ""}, {"poets": "Kevin Clark", "field_dob": "", "field_dod": "", "field_school_movement": "", "view_node": "/poet/kevin-clark", "field_state": ""}, {"poets": "Kelly Cherry", "field_dob": "", "field_dod": "", "field_school_movement": "", "view_node": "/poet/kelly-cherry", "field_state": ""}, {"poets": "Maxine Chernoff", "field_dob": "1952", "field_dod": "", "field_school_movement": "", "view_node": "/poet/maxine-chernoff", "field_state": ""}, {"poets": "Thomas Centolella", "field_dob": "", "field_dod": "", "field_school_movement": "", "view_node": "/poet/thomas-centolella", "field_state": ""}], "pager": {"current_page": 163, "total_items": "3766", "total_pages": 189, "items_per_page": 20}}