{"rows": [{"poets": "Willa Carroll", "field_dob": "", "field_dod": "", "field_school_movement": "", "view_node": "/poet/willa-carroll", "field_state": ""}, {"poets": "Meghann Plunkett", "field_dob": "", "field_dod": "", "field_school_movement": "", "view_node": "/poet/meghann-plunkett", "field_state": ""}, {"poets": "Russell Atkins", "field_dob": "1926", "field_dod": "", "field_school_movement": "", "view_node": "/poet/russell-atkins", "field_state": "Ohio"}, {"poets": "Katherine Mansfield", "field_dob": "", "field_dod": "", "field_school_movement": "Modernism", "view_node": "/poet/katherine-mansfield", "field_state": ""}, {"poets": "Alicia Mountain", "field_dob": "", "field_dod": "", "field_school_movement": "", "view_node": "/poet/alicia-mountain", "field_state": ""}, {"poets": "Monica McClure", "field_dob": "", "field_dod": "", "field_school_movement": "", "view_node": "/poet/monica-mcclure", "field_state": ""}, {"poets": "Hannah Aizenman", "field_dob": "", "field_dod": "", "field_school_movement": "", "view_node": "/poet/hannah-aizenman", "field_state": ""}, {"poets": "Bruce Nugent", "field_dob": "1906", "field_dod": "1987", "field_school_movement": "", "view_node": "/poet/bruce-nugent", "field_state": ""}, {"poets": "Natalie Rose Richardson", "field_dob": "", "field_dod": "", "field_school_movement": "", "view_node": "/poet/natalie-rose-richardson", "field_state": ""}, {"poets": "Waring Cuney", "field_dob": "1906", "field_dod": "1976", "field_school_movement": "", "view_node": "/poet/waring-cuney", "field_state": ""}, {"poets": "Langston Kerman", "field_dob": "", "field_dod": "", "field_school_movement": "", "view_node": "/poet/langston-kerman", "field_state": ""}, {"poets": "Gail Mazur", "field_dob": "", "field_dod": "", "field_school_movement": "", "view_node": "/poet/gail-mazur", "field_state": ""}, {"poets": "Brandon D. Johnson", "field_dob": "", "field_dod": "", "field_school_movement": "", "view_node": "/poet/brandon-d-johnson", "field_state": ""}, {"poets": "Helene Johnson", "field_dob": "1906", "field_dod": "1995", "field_school_movement": "", "view_node": "/poet/helene-johnson", "field_state": ""}, {"poets": "Kyla Pereles", "field_dob": "", "field_dod": "", "field_school_movement": "", "view_node": "/poet/kyla-pereles", "field_state": ""}, {"poets": "Maggie Farren", "field_dob": "", "field_dod": "", "field_school_movement": "", "view_node": "/poet/maggie-farren", "field_state": ""}, {"poets": "Clarissa Scott Delany", "field_dob": "1901", "field_dod": "1927", "field_school_movement": "", "view_node": "/poet/clarissa-scott-delany", "field_state": ""}, {"poets": "Christian Robinson ", "field_dob": "", "field_dod": "", "field_school_movement": "", "view_node": "/poet/christian-robinson", "field_state": ""}, {"poets": "Leah Kindler ", "field_dob": "", "field_dod": "", "field_school_movement": "", "view_node": "/poet/leah-kindler", "field_state": ""}, {"poets": "Joel Dias-Porter", "field_dob": "", "field_dod": "", "field_school_movement": "", "view_node": "/poet/joel-dias-porter", "field_state": ""}], "pager": {"current_page": 7, "total_items": "3766", "total_pages": 189, "items_per_page": 20}}