{"rows": [{"poets": "Bruce Bennett", "field_dob": "", "field_dod": "", "field_school_movement": "", "view_node": "/poet/bruce-bennett", "field_state": ""}, {"poets": "Margot Farrington", "field_dob": "", "field_dod": "", "field_school_movement": "", "view_node": "/poet/margot-farrington", "field_state": ""}, {"poets": "Christian Wiman", "field_dob": "1966", "field_dod": "", "field_school_movement": "Contemporary", "view_node": "/poet/christian-wiman", "field_state": ""}, {"poets": "Kamau Da\u00e1ood", "field_dob": "", "field_dod": "", "field_school_movement": "", "view_node": "/poet/kamau-daaood", "field_state": ""}, {"poets": "Jane Miller", "field_dob": "", "field_dod": "", "field_school_movement": "", "view_node": "/poet/jane-miller", "field_state": ""}, {"poets": "Gary Fincke", "field_dob": "", "field_dod": "", "field_school_movement": "", "view_node": "/poet/gary-fincke", "field_state": ""}, {"poets": "Lavinia Greenlaw", "field_dob": "", "field_dod": "", "field_school_movement": "", "view_node": "/poet/lavinia-greenlaw", "field_state": ""}, {"poets": "Lilah Hegnauer", "field_dob": "", "field_dod": "", "field_school_movement": "", "view_node": "/poet/lilah-hegnauer", "field_state": ""}, {"poets": "St\u00e9phane Mallarm\u00e9", "field_dob": "1842", "field_dod": "1898", "field_school_movement": "Symbolists", "view_node": "/poet/stephane-mallarme", "field_state": ""}, {"poets": "Jim Simmerman", "field_dob": "", "field_dod": "", "field_school_movement": "", "view_node": "/poet/jim-simmerman", "field_state": ""}, {"poets": "Dunya Mikhail", "field_dob": "", "field_dod": "", "field_school_movement": "", "view_node": "/poet/dunya-mikhail", "field_state": ""}, {"poets": "F. D. Reeve", "field_dob": "", "field_dod": "", "field_school_movement": "", "view_node": "/poet/f-d-reeve", "field_state": "Vermont"}, {"poets": "Tom Lavazzi", "field_dob": "", "field_dod": "", "field_school_movement": "", "view_node": "/poet/tom-lavazzi", "field_state": ""}, {"poets": "Thomas Merton", "field_dob": "1915", "field_dod": "1968", "field_school_movement": "", "view_node": "/poet/thomas-merton", "field_state": ""}, {"poets": "Frannie Lindsay", "field_dob": "", "field_dod": "", "field_school_movement": "", "view_node": "/poet/frannie-lindsay", "field_state": ""}, {"poets": "Katrina Vandenberg", "field_dob": "", "field_dod": "", "field_school_movement": "", "view_node": "/poet/katrina-vandenberg", "field_state": ""}, {"poets": "Dick Barnes", "field_dob": "", "field_dod": "", "field_school_movement": "", "view_node": "/poet/dick-barnes", "field_state": ""}, {"poets": "Megan Johnson", "field_dob": "", "field_dod": "", "field_school_movement": "", "view_node": "/poet/megan-johnson", "field_state": ""}, {"poets": "Francisco Mor\u00e1n", "field_dob": "", "field_dod": "", "field_school_movement": "", "view_node": "/poet/francisco-moran", "field_state": ""}, {"poets": "Amy Uyematsu", "field_dob": "", "field_dod": "", "field_school_movement": "", "view_node": "/poet/amy-uyematsu", "field_state": ""}], "pager": {"current_page": 144, "total_items": "3766", "total_pages": 189, "items_per_page": 20}}