{"rows": [{"poets": "Edward Hirsch", "field_dob": "1950", "field_dod": "", "field_school_movement": "Contemporary", "view_node": "/poet/edward-hirsch", "field_state": "New York"}, {"poets": "E. E. Cummings", "field_dob": "1894", "field_dod": "1962", "field_school_movement": "Modernism, Concrete Poetry, Poets of World War I", "view_node": "/poet/e-e-cummings", "field_state": "Massachusetts"}, {"poets": "Edgar Bowers", "field_dob": "1924", "field_dod": "2000", "field_school_movement": "Confessional Poetry", "view_node": "/poet/edgar-bowers", "field_state": ""}, {"poets": "Eavan Boland", "field_dob": "1944", "field_dod": "2020", "field_school_movement": "", "view_node": "/poet/eavan-boland", "field_state": "California"}, {"poets": "David Wagoner", "field_dob": "1926", "field_dod": "2021", "field_school_movement": "Concrete Poetry", "view_node": "/poet/david-wagoner", "field_state": "Washington"}, {"poets": "David St. John", "field_dob": "1949", "field_dod": "", "field_school_movement": "", "view_node": "/poet/david-st-john", "field_state": "California"}, {"poets": "Ntozake Shange", "field_dob": "1948", "field_dod": "2018", "field_school_movement": "Black Arts", "view_node": "/poet/ntozake-shange", "field_state": "New York"}, {"poets": "Tom Andrews", "field_dob": "", "field_dod": "", "field_school_movement": "", "view_node": "/poet/tom-andrews", "field_state": ""}, {"poets": "Chiao Meng", "field_dob": "", "field_dod": "", "field_school_movement": "", "view_node": "/poet/chiao-meng", "field_state": ""}, {"poets": "Eugene Field", "field_dob": "1850", "field_dod": "1895", "field_school_movement": "", "view_node": "/poet/eugene-field", "field_state": "Illinois"}, {"poets": "Henry Wadsworth Longfellow", "field_dob": "1807", "field_dod": "1882", "field_school_movement": "Fireside Poet", "view_node": "/poet/henry-wadsworth-longfellow", "field_state": "Massachusetts"}, {"poets": "Ernest Lawrence Thayer", "field_dob": "1863", "field_dod": "1940", "field_school_movement": "", "view_node": "/poet/ernest-lawrence-thayer", "field_state": "California"}, {"poets": "Gelett Burgess", "field_dob": "", "field_dod": "", "field_school_movement": "", "view_node": "/poet/gelett-burgess", "field_state": ""}, {"poets": "James Whitcomb Riley", "field_dob": "1849", "field_dod": "1916", "field_school_movement": "", "view_node": "/poet/james-whitcomb-riley", "field_state": ""}, {"poets": "Rudyard Kipling", "field_dob": "1865", "field_dod": "1936", "field_school_movement": "", "view_node": "/poet/rudyard-kipling", "field_state": ""}, {"poets": "Robert Louis Stevenson", "field_dob": "1850", "field_dod": "1894", "field_school_movement": "Romanticism", "view_node": "/poet/robert-louis-stevenson", "field_state": ""}, {"poets": "Robert W. Service", "field_dob": "1874", "field_dod": "1958", "field_school_movement": "Poets of World War I", "view_node": "/poet/robert-w-service", "field_state": ""}, {"poets": "Sarah Josepha Hale", "field_dob": "", "field_dod": "", "field_school_movement": "", "view_node": "/poet/sarah-josepha-hale", "field_state": ""}, {"poets": "Edward Lear", "field_dob": "1812", "field_dod": "1888", "field_school_movement": "Victorian", "view_node": "/poet/edward-lear", "field_state": ""}, {"poets": "C. K. Williams", "field_dob": "1936", "field_dod": "2015", "field_school_movement": "", "view_node": "/poet/c-k-williams", "field_state": "New Jersey"}], "pager": {"current_page": 87, "total_items": "3766", "total_pages": 189, "items_per_page": 20}}