{"rows": [{"poets": "Melody S. Gee", "field_dob": "", "field_dod": "", "field_school_movement": "", "view_node": "/poet/melody-s-gee", "field_state": ""}, {"poets": "Omar Sakr", "field_dob": "", "field_dod": "", "field_school_movement": "", "view_node": "/poet/omar-sakr", "field_state": ""}, {"poets": "Hai-Dang Phan", "field_dob": "", "field_dod": "", "field_school_movement": "", "view_node": "/poet/hai-dang-phan", "field_state": ""}, {"poets": "Mary Jean Chan", "field_dob": "", "field_dod": "", "field_school_movement": "", "view_node": "/poet/mary-jean-chan", "field_state": ""}, {"poets": "Quan Barry", "field_dob": "", "field_dod": "", "field_school_movement": "", "view_node": "/poet/quan-barry", "field_state": "Wisconsin"}, {"poets": "Paulus Silentarius", "field_dob": "", "field_dod": "", "field_school_movement": "", "view_node": "/poet/paulus-silentarius", "field_state": ""}, {"poets": "Mg Roberts", "field_dob": "", "field_dod": "", "field_school_movement": "", "view_node": "/poet/mg-roberts", "field_state": ""}, {"poets": "Quenton Baker", "field_dob": "", "field_dod": "", "field_school_movement": "", "view_node": "/poet/quenton-baker", "field_state": ""}, {"poets": "Taylor Johnson", "field_dob": "", "field_dod": "", "field_school_movement": "", "view_node": "/poet/taylor-johnson", "field_state": ""}, {"poets": "Radclyffe Hall", "field_dob": "", "field_dod": "", "field_school_movement": "", "view_node": "/poet/radclyffe-hall", "field_state": ""}, {"poets": "Yoshimasu Gozo", "field_dob": "", "field_dod": "", "field_school_movement": "", "view_node": "/poet/yoshimasu-gozo", "field_state": ""}, {"poets": "Muhammad Allama Iqbal", "field_dob": "1877", "field_dod": "1938", "field_school_movement": "", "view_node": "/poet/muhammad-allama-iqbal", "field_state": ""}, {"poets": "Dan O&#039;Brien", "field_dob": "", "field_dod": "", "field_school_movement": "", "view_node": "/poet/dan-obrien", "field_state": ""}, {"poets": "David Berman", "field_dob": "1967", "field_dod": "2019", "field_school_movement": "", "view_node": "/poet/david-berman", "field_state": ""}, {"poets": "Ansley Moon", "field_dob": "", "field_dod": "", "field_school_movement": "", "view_node": "/poet/ansley-moon", "field_state": ""}, {"poets": "Toni Morrison", "field_dob": "1931", "field_dod": "2019", "field_school_movement": "", "view_node": "/poet/toni-morrison", "field_state": "Ohio"}, {"poets": "S. Brook Corfman", "field_dob": "", "field_dod": "", "field_school_movement": "", "view_node": "/poet/s-brook-corfman", "field_state": ""}, {"poets": "Keith S. Wilson", "field_dob": "", "field_dod": "", "field_school_movement": "", "view_node": "/poet/keith-s-wilson", "field_state": ""}, {"poets": "Shira Erlichman", "field_dob": "", "field_dod": "", "field_school_movement": "", "view_node": "/poet/shira-erlichman", "field_state": ""}, {"poets": "Julia Alvarez", "field_dob": "1950", "field_dod": "", "field_school_movement": "", "view_node": "/poet/julia-alvarez", "field_state": ""}], "pager": {"current_page": 34, "total_items": "3766", "total_pages": 189, "items_per_page": 20}}