{"rows": [{"poets": "Elizabeth Garton Scanlon", "field_dob": "", "field_dod": "", "field_school_movement": "", "view_node": "/poet/elizabeth-garton-scanlon", "field_state": ""}, {"poets": "Andrew Feld", "field_dob": "", "field_dod": "", "field_school_movement": "", "view_node": "/poet/andrew-feld", "field_state": ""}, {"poets": "Louise Mathias", "field_dob": "", "field_dod": "", "field_school_movement": "", "view_node": "/poet/louise-mathias", "field_state": ""}, {"poets": "Natasha Saj\u00e9", "field_dob": "", "field_dod": "", "field_school_movement": "", "view_node": "/poet/natasha-saje", "field_state": ""}, {"poets": "Ilya Kaminsky", "field_dob": "1977", "field_dod": "", "field_school_movement": "", "view_node": "/poet/ilya-kaminsky", "field_state": "California"}, {"poets": "Carol Snow", "field_dob": "", "field_dod": "", "field_school_movement": "", "view_node": "/poet/carol-snow", "field_state": "California"}, {"poets": "Diane Glancy", "field_dob": "", "field_dod": "", "field_school_movement": "", "view_node": "/poet/diane-glancy", "field_state": "Minnesota"}, {"poets": "Beth Ann Fennelly", "field_dob": "1971", "field_dod": "", "field_school_movement": "", "view_node": "/poet/beth-ann-fennelly", "field_state": "Mississippi"}, {"poets": "D. Nurkse", "field_dob": "1949", "field_dod": "", "field_school_movement": "Contemporary", "view_node": "/poet/d-nurkse", "field_state": "New York"}, {"poets": "Michael Longley", "field_dob": "1939", "field_dod": "", "field_school_movement": "", "view_node": "/poet/michael-longley", "field_state": ""}, {"poets": "Dainis Hazners", "field_dob": "", "field_dod": "", "field_school_movement": "", "view_node": "/poet/dainis-hazners", "field_state": ""}, {"poets": "Vona Groarke", "field_dob": "", "field_dod": "", "field_school_movement": "", "view_node": "/poet/vona-groarke", "field_state": ""}, {"poets": "Donna Brook", "field_dob": "", "field_dod": "", "field_school_movement": "", "view_node": "/poet/donna-brook", "field_state": ""}, {"poets": "Michele Glazer", "field_dob": "", "field_dod": "", "field_school_movement": "", "view_node": "/poet/michele-glazer", "field_state": ""}, {"poets": "Jeff Clark", "field_dob": "", "field_dod": "", "field_school_movement": "", "view_node": "/poet/jeff-clark", "field_state": ""}, {"poets": "Frank X. Gaspar", "field_dob": "", "field_dod": "", "field_school_movement": "", "view_node": "/poet/frank-x-gaspar", "field_state": ""}, {"poets": "Suzette Marie Bishop", "field_dob": "", "field_dod": "", "field_school_movement": "", "view_node": "/poet/suzette-marie-bishop", "field_state": ""}, {"poets": "Catherine Barnett", "field_dob": "", "field_dod": "", "field_school_movement": "", "view_node": "/poet/catherine-barnett", "field_state": "California"}, {"poets": "Spencer Reece", "field_dob": "", "field_dod": "", "field_school_movement": "", "view_node": "/poet/spencer-reece", "field_state": ""}, {"poets": "Suzanne Rancourt", "field_dob": "", "field_dod": "", "field_school_movement": "", "view_node": "/poet/suzanne-rancourt", "field_state": ""}], "pager": {"current_page": 149, "total_items": "3766", "total_pages": 189, "items_per_page": 20}}