{"rows": [{"poets": "Annie Finch", "field_dob": "", "field_dod": "", "field_school_movement": "", "view_node": "/poet/annie-finch", "field_state": "Maine"}, {"poets": "Aimee Nezhukumatathil", "field_dob": "", "field_dod": "", "field_school_movement": "Contemporary", "view_node": "/poet/aimee-nezhukumatathil", "field_state": "Mississippi"}, {"poets": "Jesper Svenbro", "field_dob": "", "field_dod": "", "field_school_movement": "", "view_node": "/poet/jesper-svenbro", "field_state": ""}, {"poets": "Winfield Townley Scott", "field_dob": "1910", "field_dod": "1968", "field_school_movement": "", "view_node": "/poet/winfield-townley-scott", "field_state": ""}, {"poets": "Anthony Butts", "field_dob": "", "field_dod": "", "field_school_movement": "", "view_node": "/poet/anthony-butts", "field_state": ""}, {"poets": "Christopher Bursk", "field_dob": "", "field_dod": "", "field_school_movement": "", "view_node": "/poet/christopher-bursk", "field_state": ""}, {"poets": "Claire Bateman", "field_dob": "", "field_dod": "", "field_school_movement": "", "view_node": "/poet/claire-bateman", "field_state": ""}, {"poets": "John Blair", "field_dob": "", "field_dod": "", "field_school_movement": "", "view_node": "/poet/john-blair", "field_state": "Texas"}, {"poets": "Meredith Stricker", "field_dob": "", "field_dod": "", "field_school_movement": "", "view_node": "/poet/meredith-stricker", "field_state": ""}, {"poets": "Margaret Gibson", "field_dob": "", "field_dod": "", "field_school_movement": "", "view_node": "/poet/margaret-gibson", "field_state": "Connecticut"}, {"poets": "Mei-mei Berssenbrugge", "field_dob": "1947", "field_dod": "", "field_school_movement": "", "view_node": "/poet/mei-mei-berssenbrugge", "field_state": ""}, {"poets": "Eloise Greenfield", "field_dob": "", "field_dod": "", "field_school_movement": "", "view_node": "/poet/eloise-greenfield", "field_state": ""}, {"poets": "Cynthia Rylant", "field_dob": "", "field_dod": "", "field_school_movement": "", "view_node": "/poet/cynthia-rylant", "field_state": ""}, {"poets": "Karla Kuskin", "field_dob": "", "field_dod": "", "field_school_movement": "", "view_node": "/poet/karla-kuskin", "field_state": ""}, {"poets": "Brenda Coultas", "field_dob": "1958", "field_dod": "", "field_school_movement": "", "view_node": "/poet/brenda-coultas", "field_state": ""}, {"poets": "Abdellatif La\u00e2bi", "field_dob": "", "field_dod": "", "field_school_movement": "", "view_node": "/poet/abdellatif-laabi", "field_state": ""}, {"poets": "Dan Beachy-Quick", "field_dob": "", "field_dod": "", "field_school_movement": "", "view_node": "/poet/dan-beachy-quick", "field_state": ""}, {"poets": "Mary Szybist", "field_dob": "", "field_dod": "", "field_school_movement": "", "view_node": "/poet/mary-szybist", "field_state": ""}, {"poets": "Angela Shannon", "field_dob": "", "field_dod": "", "field_school_movement": "", "view_node": "/poet/angela-shannon", "field_state": ""}, {"poets": "Eric Pankey", "field_dob": "", "field_dod": "", "field_school_movement": "", "view_node": "/poet/eric-pankey", "field_state": "Missouri"}], "pager": {"current_page": 156, "total_items": "3766", "total_pages": 189, "items_per_page": 20}}