{"rows": [{"poets": "David Shumate", "field_dob": "", "field_dod": "", "field_school_movement": "", "view_node": "/poet/david-shumate", "field_state": ""}, {"poets": "Kevin Prufer", "field_dob": "", "field_dod": "", "field_school_movement": "", "view_node": "/poet/kevin-prufer", "field_state": "Missouri"}, {"poets": "Philip Whalen", "field_dob": "1923", "field_dod": "2002", "field_school_movement": "", "view_node": "/poet/philip-whalen", "field_state": "California"}, {"poets": "Jennifer Chang", "field_dob": "", "field_dod": "", "field_school_movement": "", "view_node": "/poet/jennifer-chang", "field_state": "District of Columbia"}, {"poets": "Matthew Schwartz", "field_dob": "", "field_dod": "", "field_school_movement": "", "view_node": "/poet/matthew-schwartz", "field_state": ""}, {"poets": "Teresa Carson", "field_dob": "", "field_dod": "", "field_school_movement": "", "view_node": "/poet/teresa-carson", "field_state": ""}, {"poets": "Raymond McDaniel", "field_dob": "", "field_dod": "", "field_school_movement": "", "view_node": "/poet/raymond-mcdaniel", "field_state": "Michigan"}, {"poets": "Thomas James", "field_dob": "", "field_dod": "", "field_school_movement": "", "view_node": "/poet/thomas-james", "field_state": ""}, {"poets": "Linh Dinh", "field_dob": "", "field_dod": "", "field_school_movement": "Contemporary", "view_node": "/poet/linh-dinh", "field_state": "Pennsylvania"}, {"poets": "Anne Boyer", "field_dob": "", "field_dod": "", "field_school_movement": "", "view_node": "/poet/anne-boyer", "field_state": "Missouri"}, {"poets": "Lisa Williams", "field_dob": "", "field_dod": "", "field_school_movement": "", "view_node": "/poet/lisa-williams", "field_state": ""}, {"poets": "Theodore Worozbyt", "field_dob": "", "field_dod": "", "field_school_movement": "", "view_node": "/poet/theodore-worozbyt", "field_state": ""}, {"poets": "Douglas Korb", "field_dob": "", "field_dod": "", "field_school_movement": "", "view_node": "/poet/douglas-korb", "field_state": ""}, {"poets": "Evelyn Duncan", "field_dob": "", "field_dod": "", "field_school_movement": "", "view_node": "/poet/evelyn-duncan", "field_state": ""}, {"poets": "Philip Lamantia", "field_dob": "1927", "field_dod": "2005", "field_school_movement": "", "view_node": "/poet/philip-lamantia", "field_state": "California"}, {"poets": "Liz Rosenberg", "field_dob": "", "field_dod": "", "field_school_movement": "", "view_node": "/poet/liz-rosenberg", "field_state": ""}, {"poets": "Lisa Russ Spaar", "field_dob": "", "field_dod": "", "field_school_movement": "", "view_node": "/poet/lisa-russ-spaar", "field_state": "Virginia"}, {"poets": "Gary Copeland Lilley", "field_dob": "", "field_dod": "", "field_school_movement": "", "view_node": "/poet/gary-copeland-lilley", "field_state": ""}, {"poets": "Valzhyna Mort", "field_dob": "", "field_dod": "", "field_school_movement": "", "view_node": "/poet/valzhyna-mort", "field_state": ""}, {"poets": "Julie Agoos", "field_dob": "", "field_dod": "", "field_school_movement": "", "view_node": "/poet/julie-agoos", "field_state": ""}], "pager": {"current_page": 127, "total_items": "3766", "total_pages": 189, "items_per_page": 20}}