{"rows": [{"poets": "Randall Mann", "field_dob": "", "field_dod": "", "field_school_movement": "", "view_node": "/poet/randall-mann", "field_state": ""}, {"poets": "Katie Ford", "field_dob": "", "field_dod": "", "field_school_movement": "", "view_node": "/poet/katie-ford", "field_state": ""}, {"poets": "Eileen Myles", "field_dob": "1949", "field_dod": "", "field_school_movement": "New York School", "view_node": "/poet/eileen-myles", "field_state": ""}, {"poets": "Kate Northrop", "field_dob": "", "field_dod": "", "field_school_movement": "", "view_node": "/poet/kate-northrop", "field_state": ""}, {"poets": "Sally Van Doren", "field_dob": "", "field_dod": "", "field_school_movement": "", "view_node": "/poet/sally-van-doren", "field_state": ""}, {"poets": "Landis Everson", "field_dob": "", "field_dod": "", "field_school_movement": "", "view_node": "/poet/landis-everson", "field_state": ""}, {"poets": "Constance Quarterman Bridges", "field_dob": "", "field_dod": "", "field_school_movement": "", "view_node": "/poet/constance-quarterman-bridges", "field_state": ""}, {"poets": "Julianna Baggott", "field_dob": "", "field_dod": "", "field_school_movement": "", "view_node": "/poet/julianna-baggott", "field_state": "Delaware"}, {"poets": "Adrian C. Louis", "field_dob": "1946", "field_dod": "2018", "field_school_movement": "", "view_node": "/poet/adrian-c-louis", "field_state": "Minnesota"}, {"poets": "Catherine Savage Brosman", "field_dob": "", "field_dod": "", "field_school_movement": "", "view_node": "/poet/catherine-savage-brosman", "field_state": ""}, {"poets": "David Kirby", "field_dob": "", "field_dod": "", "field_school_movement": "", "view_node": "/poet/david-kirby", "field_state": ""}, {"poets": "Brad Leithauser", "field_dob": "", "field_dod": "", "field_school_movement": "", "view_node": "/poet/brad-leithauser", "field_state": ""}, {"poets": "Greg Delanty", "field_dob": "", "field_dod": "", "field_school_movement": "", "view_node": "/poet/greg-delanty", "field_state": "Vermont"}, {"poets": "Rawdon Tomlinson", "field_dob": "", "field_dod": "", "field_school_movement": "", "view_node": "/poet/rawdon-tomlinson", "field_state": ""}, {"poets": "Michael Chitwood", "field_dob": "", "field_dod": "", "field_school_movement": "", "view_node": "/poet/michael-chitwood", "field_state": ""}, {"poets": "Kirmen Uribe", "field_dob": "", "field_dod": "", "field_school_movement": "", "view_node": "/poet/kirmen-uribe", "field_state": ""}, {"poets": "Elizabeth Seydel Morgan", "field_dob": "", "field_dod": "", "field_school_movement": "", "view_node": "/poet/elizabeth-seydel-morgan", "field_state": ""}, {"poets": "Sue Owen", "field_dob": "", "field_dod": "", "field_school_movement": "", "view_node": "/poet/sue-owen", "field_state": ""}, {"poets": "Tung-Hui Hu", "field_dob": "", "field_dod": "", "field_school_movement": "", "view_node": "/poet/tung-hui-hu", "field_state": ""}, {"poets": "Pamela Alexander", "field_dob": "", "field_dod": "", "field_school_movement": "", "view_node": "/poet/pamela-alexander", "field_state": ""}], "pager": {"current_page": 130, "total_items": "3766", "total_pages": 189, "items_per_page": 20}}