{"rows": [{"poets": "Robert Hillyer", "field_dob": "", "field_dod": "", "field_school_movement": "", "view_node": "/poet/robert-hillyer", "field_state": ""}, {"poets": "Karenne Wood", "field_dob": "1960", "field_dod": "2019", "field_school_movement": "", "view_node": "/poet/karenne-wood", "field_state": "Virginia"}, {"poets": "Kimberly Reyes", "field_dob": "", "field_dod": "", "field_school_movement": "", "view_node": "/poet/kimberly-reyes", "field_state": ""}, {"poets": "Adah Isaacs Menken", "field_dob": "", "field_dod": "", "field_school_movement": "", "view_node": "/poet/adah-isaacs-menken", "field_state": ""}, {"poets": "Lindsay Bernal", "field_dob": "", "field_dod": "", "field_school_movement": "", "view_node": "/poet/lindsay-bernal", "field_state": ""}, {"poets": "Tso-le-oh-woh", "field_dob": "", "field_dod": "", "field_school_movement": "", "view_node": "/poet/tso-le-oh-woh", "field_state": ""}, {"poets": "Daniel Poppick", "field_dob": "", "field_dod": "", "field_school_movement": "", "view_node": "/poet/daniel-poppick", "field_state": ""}, {"poets": "Forrest Fenn", "field_dob": "", "field_dod": "", "field_school_movement": "", "view_node": "/poet/forrest-fenn", "field_state": ""}, {"poets": "Eliot Khalil Wilson", "field_dob": "", "field_dod": "", "field_school_movement": "", "view_node": "/poet/eliot-khalil-wilson", "field_state": ""}, {"poets": "Lynne Potts", "field_dob": "", "field_dod": "", "field_school_movement": "", "view_node": "/poet/lynne-potts", "field_state": ""}, {"poets": "Karen Kovacik", "field_dob": "", "field_dod": "", "field_school_movement": "", "view_node": "/poet/karen-kovacik", "field_state": ""}, {"poets": "Krystyna D\u0105browska", "field_dob": "", "field_dod": "", "field_school_movement": "", "view_node": "/poet/krystyna-dabrowska", "field_state": ""}, {"poets": "David Curry", "field_dob": "", "field_dod": "", "field_school_movement": "", "view_node": "/poet/david-curry", "field_state": ""}, {"poets": "Aisha al-Saifi", "field_dob": "", "field_dod": "", "field_school_movement": "", "view_node": "/poet/aisha-al-saifi", "field_state": ""}, {"poets": "Mbate Pedro", "field_dob": "", "field_dod": "", "field_school_movement": "", "view_node": "/poet/mbate-pedro", "field_state": ""}, {"poets": "H\u00e9lder Faife", "field_dob": "", "field_dod": "", "field_school_movement": "", "view_node": "/poet/helder-faife", "field_state": ""}, {"poets": "Rog\u00e9rio Manjate", "field_dob": "", "field_dod": "", "field_school_movement": "", "view_node": "/poet/rogerio-manjate", "field_state": ""}, {"poets": "Nino Mick", "field_dob": "", "field_dod": "", "field_school_movement": "", "view_node": "/poet/nino-mick", "field_state": ""}, {"poets": "Adrian Perera", "field_dob": "", "field_dod": "", "field_school_movement": "", "view_node": "/poet/adrian-perera", "field_state": ""}, {"poets": "Reem Allawati", "field_dob": "", "field_dod": "", "field_school_movement": "", "view_node": "/poet/reem-allawati", "field_state": ""}], "pager": {"current_page": 35, "total_items": "3766", "total_pages": 189, "items_per_page": 20}}