{"rows": [{"poets": "Lucia Perillo", "field_dob": "", "field_dod": "", "field_school_movement": "", "view_node": "/poet/lucia-perillo", "field_state": ""}, {"poets": "Farrah Field", "field_dob": "", "field_dod": "", "field_school_movement": "", "view_node": "/poet/farrah-field", "field_state": ""}, {"poets": "Michael Dickman", "field_dob": "", "field_dod": "", "field_school_movement": "", "view_node": "/poet/michael-dickman", "field_state": ""}, {"poets": "Daniel Mark Epstein", "field_dob": "", "field_dod": "", "field_school_movement": "", "view_node": "/poet/daniel-mark-epstein", "field_state": "Maryland"}, {"poets": "Taije Silverman", "field_dob": "", "field_dod": "", "field_school_movement": "", "view_node": "/poet/taije-silverman", "field_state": ""}, {"poets": "Eleanor Ross Taylor", "field_dob": "1920", "field_dod": "2012", "field_school_movement": "", "view_node": "/poet/eleanor-ross-taylor", "field_state": ""}, {"poets": "David Lau", "field_dob": "", "field_dod": "", "field_school_movement": "", "view_node": "/poet/david-lau", "field_state": ""}, {"poets": "Angela Shaw", "field_dob": "", "field_dod": "", "field_school_movement": "", "view_node": "/poet/angela-shaw", "field_state": ""}, {"poets": "Theodore Deppe", "field_dob": "", "field_dod": "", "field_school_movement": "", "view_node": "/poet/theodore-deppe", "field_state": ""}, {"poets": "Laurie Lamon", "field_dob": "", "field_dod": "", "field_school_movement": "", "view_node": "/poet/laurie-lamon", "field_state": ""}, {"poets": "Pamela Spiro Wagner", "field_dob": "", "field_dod": "", "field_school_movement": "", "view_node": "/poet/pamela-spiro-wagner", "field_state": ""}, {"poets": "Elise Paschen", "field_dob": "", "field_dod": "", "field_school_movement": "", "view_node": "/poet/elise-paschen", "field_state": ""}, {"poets": "Juan Felipe Herrera", "field_dob": "1948", "field_dod": "", "field_school_movement": "", "view_node": "/poet/juan-felipe-herrera", "field_state": ""}, {"poets": "Kathleen Sheeder Bonanno", "field_dob": "", "field_dod": "", "field_school_movement": "", "view_node": "/poet/kathleen-sheeder-bonanno", "field_state": ""}, {"poets": "Kevin Goodan", "field_dob": "", "field_dod": "", "field_school_movement": "", "view_node": "/poet/kevin-goodan", "field_state": ""}, {"poets": "Fred Marchant", "field_dob": "", "field_dod": "", "field_school_movement": "", "view_node": "/poet/fred-marchant", "field_state": ""}, {"poets": "Melissa Kwasny", "field_dob": "", "field_dod": "", "field_school_movement": "", "view_node": "/poet/melissa-kwasny", "field_state": "Montana"}, {"poets": "Jody Gladding", "field_dob": "", "field_dod": "", "field_school_movement": "Contemporary", "view_node": "/poet/jody-gladding", "field_state": "Vermont"}, {"poets": "Brian Culhane", "field_dob": "", "field_dod": "", "field_school_movement": "", "view_node": "/poet/brian-culhane", "field_state": ""}, {"poets": "Wayne Miller", "field_dob": "", "field_dod": "", "field_school_movement": "", "view_node": "/poet/wayne-miller", "field_state": ""}], "pager": {"current_page": 122, "total_items": "3766", "total_pages": 189, "items_per_page": 20}}