{"rows": [{"poets": "Eunice Tietjens", "field_dob": "1884", "field_dod": "1944", "field_school_movement": "", "view_node": "/poet/eunice-tietjens", "field_state": "Illinois"}, {"poets": "Joseph Harrison", "field_dob": "", "field_dod": "", "field_school_movement": "", "view_node": "/poet/joseph-harrison", "field_state": ""}, {"poets": "Anya Silver", "field_dob": "1968", "field_dod": "2018", "field_school_movement": "", "view_node": "/poet/anya-silver", "field_state": "Georgia"}, {"poets": "John Gould Fletcher", "field_dob": "1886", "field_dod": "1950", "field_school_movement": "", "view_node": "/poet/john-gould-fletcher", "field_state": "Arkansas"}, {"poets": "Eryn Green", "field_dob": "", "field_dod": "", "field_school_movement": "", "view_node": "/poet/eryn-green", "field_state": ""}, {"poets": "Gary Jackson", "field_dob": "", "field_dod": "", "field_school_movement": "", "view_node": "/poet/gary-jackson", "field_state": "South Carolina"}, {"poets": "Marie-Elizabeth Mali", "field_dob": "", "field_dod": "", "field_school_movement": "", "view_node": "/poet/marie-elizabeth-mali", "field_state": ""}, {"poets": "Karen Leona Anderson", "field_dob": "", "field_dod": "", "field_school_movement": "", "view_node": "/poet/karen-leona-anderson", "field_state": ""}, {"poets": "Christopher Salerno", "field_dob": "1975", "field_dod": "", "field_school_movement": "", "view_node": "/poet/christopher-salerno", "field_state": ""}, {"poets": "Alexander Posey", "field_dob": "1873", "field_dod": "1908", "field_school_movement": "", "view_node": "/poet/alexander-posey", "field_state": "Oklahoma"}, {"poets": "Natalie Clifford Barney", "field_dob": "1876", "field_dod": "1972", "field_school_movement": "", "view_node": "/poet/natalie-clifford-barney", "field_state": ""}, {"poets": "Ron Koertge", "field_dob": "", "field_dod": "", "field_school_movement": "", "view_node": "/poet/ron-koertge", "field_state": ""}, {"poets": "Sean Frederick Forbes", "field_dob": "", "field_dod": "", "field_school_movement": "", "view_node": "/poet/sean-frederick-forbes", "field_state": ""}, {"poets": "Sampson Starkweather", "field_dob": "1976", "field_dod": "", "field_school_movement": "", "view_node": "/poet/sampson-starkweather", "field_state": ""}, {"poets": "Kay Boyle", "field_dob": "", "field_dod": "", "field_school_movement": "", "view_node": "/poet/kay-boyle", "field_state": ""}, {"poets": "Sadakichi Hartmann", "field_dob": "1867", "field_dod": "1944", "field_school_movement": "", "view_node": "/poet/sadakichi-hartmann", "field_state": ""}, {"poets": "Danniel Schoonebeek", "field_dob": "", "field_dod": "", "field_school_movement": "", "view_node": "/poet/danniel-schoonebeek", "field_state": ""}, {"poets": "Jackie Clark", "field_dob": "", "field_dod": "", "field_school_movement": "", "view_node": "/poet/jackie-clark", "field_state": ""}, {"poets": "Djuna Barnes", "field_dob": "1892", "field_dod": "1982", "field_school_movement": "", "view_node": "/poet/djuna-barnes", "field_state": ""}, {"poets": "Hannah Sanghee Park", "field_dob": "", "field_dod": "", "field_school_movement": "Contemporary", "view_node": "/poet/hannah-sanghee-park", "field_state": "California"}], "pager": {"current_page": 82, "total_items": "3766", "total_pages": 189, "items_per_page": 20}}