{"rows": [{"poets": "Vijay Seshadri", "field_dob": "1954", "field_dod": "", "field_school_movement": "", "view_node": "/poet/vijay-seshadri", "field_state": "New York"}, {"poets": "Giorgos Seferis", "field_dob": "1900", "field_dod": "1971", "field_school_movement": "Poets of Exile", "view_node": "/poet/giorgos-seferis", "field_state": ""}, {"poets": "Delmore Schwartz", "field_dob": "1913", "field_dod": "1966", "field_school_movement": "", "view_node": "/poet/delmore-schwartz", "field_state": ""}, {"poets": "James Russell Lowell", "field_dob": "1819", "field_dod": "1891", "field_school_movement": "Fireside Poet", "view_node": "/poet/james-russell-lowell", "field_state": "Massachusetts"}, {"poets": "Henry Taylor", "field_dob": "1942", "field_dod": "", "field_school_movement": "Contemporary", "view_node": "/poet/henry-taylor", "field_state": "District of Columbia"}, {"poets": "Sir Geoffrey Hill", "field_dob": "1932", "field_dod": "2016", "field_school_movement": "Contemporary", "view_node": "/poet/sir-geoffrey-hill", "field_state": "Massachusetts"}, {"poets": "Lucie Brock-Broido", "field_dob": "1956", "field_dod": "2018", "field_school_movement": "Contemporary", "view_node": "/poet/lucie-brock-broido", "field_state": "New York"}, {"poets": "Tomas Transtr\u00f6mer", "field_dob": "1931", "field_dod": "2015", "field_school_movement": "Translators", "view_node": "/poet/tomas-transtromer", "field_state": ""}, {"poets": "Amy Gerstler", "field_dob": "", "field_dod": "", "field_school_movement": "", "view_node": "/poet/amy-gerstler", "field_state": "California"}, {"poets": "Adonis", "field_dob": "1930", "field_dod": "", "field_school_movement": "Poets of Exile", "view_node": "/poet/adonis", "field_state": ""}, {"poets": "N. Scott Momaday", "field_dob": "1934", "field_dod": "", "field_school_movement": "Contemporary", "view_node": "/poet/n-scott-momaday", "field_state": "Arizona"}, {"poets": "Susan Wheeler", "field_dob": "1955", "field_dod": "", "field_school_movement": "Contemporary", "view_node": "/poet/susan-wheeler", "field_state": ""}, {"poets": "Thom Ward", "field_dob": "", "field_dod": "", "field_school_movement": "", "view_node": "/poet/thom-ward", "field_state": ""}, {"poets": "Hsieh Ling-yun", "field_dob": "", "field_dod": "", "field_school_movement": "", "view_node": "/poet/hsieh-ling-yun", "field_state": ""}, {"poets": "Robert Wrigley", "field_dob": "1951", "field_dod": "", "field_school_movement": "", "view_node": "/poet/robert-wrigley", "field_state": "Idaho"}, {"poets": "Leslie Marmon Silko", "field_dob": "1948", "field_dod": "", "field_school_movement": "", "view_node": "/poet/leslie-marmon-silko", "field_state": "Arizona"}, {"poets": "Alfred Corn", "field_dob": "1943", "field_dod": "", "field_school_movement": "", "view_node": "/poet/alfred-corn", "field_state": "New York"}, {"poets": "Tony Tost", "field_dob": "", "field_dod": "", "field_school_movement": "", "view_node": "/poet/tony-tost", "field_state": ""}, {"poets": "Patricia Goedicke", "field_dob": "1931", "field_dod": "2006", "field_school_movement": "", "view_node": "/poet/patricia-goedicke", "field_state": "Montana"}, {"poets": "Kristin Prevallet", "field_dob": "1966", "field_dod": "", "field_school_movement": "Contemporary", "view_node": "/poet/kristin-prevallet", "field_state": ""}], "pager": {"current_page": 151, "total_items": "3766", "total_pages": 189, "items_per_page": 20}}