{"rows": [{"poets": "Eleanor Wilner", "field_dob": "1937", "field_dod": "", "field_school_movement": "Conceptual Poetry", "view_node": "/poet/eleanor-wilner", "field_state": "Pennsylvania"}, {"poets": "Martha Collins", "field_dob": "", "field_dod": "", "field_school_movement": "", "view_node": "/poet/martha-collins", "field_state": "Massachusetts"}, {"poets": "Ella Wheeler Wilcox", "field_dob": "1850", "field_dod": "1919", "field_school_movement": "", "view_node": "/poet/ella-wheeler-wilcox", "field_state": ""}, {"poets": "W. S. Di Piero", "field_dob": "1945", "field_dod": "", "field_school_movement": "", "view_node": "/poet/w-s-di-piero", "field_state": ""}, {"poets": "Mary Kinzie", "field_dob": "1944", "field_dod": "", "field_school_movement": "", "view_node": "/poet/mary-kinzie", "field_state": "Illinois"}, {"poets": "Sophie Cabot Black", "field_dob": "", "field_dod": "", "field_school_movement": "", "view_node": "/poet/sophie-cabot-black", "field_state": "New York"}, {"poets": "Mary Oliver", "field_dob": "1935", "field_dod": "2019", "field_school_movement": "", "view_node": "/poet/mary-oliver", "field_state": "Massachusetts"}, {"poets": "Donald Hall", "field_dob": "1928", "field_dod": "2018", "field_school_movement": "Contemporary", "view_node": "/poet/donald-hall", "field_state": "New Hampshire"}, {"poets": "Marge Piercy", "field_dob": "1936", "field_dod": "", "field_school_movement": "", "view_node": "/poet/marge-piercy", "field_state": "Massachusetts"}, {"poets": "  Ai   ", "field_dob": "1947", "field_dod": "2010", "field_school_movement": "Contemporary", "view_node": "/poet/ai", "field_state": "Oklahoma"}, {"poets": "Clayton Eshleman", "field_dob": "1935", "field_dod": "", "field_school_movement": "", "view_node": "/poet/clayton-eshleman", "field_state": ""}, {"poets": "Minnie Bruce Pratt", "field_dob": "1946", "field_dod": "", "field_school_movement": "Contemporary", "view_node": "/poet/minnie-bruce-pratt", "field_state": "New Jersey"}, {"poets": "Ben Doller", "field_dob": "", "field_dod": "", "field_school_movement": "", "view_node": "/poet/ben-doller", "field_state": "California"}, {"poets": "Mark Wunderlich", "field_dob": "", "field_dod": "", "field_school_movement": "", "view_node": "/poet/mark-wunderlich", "field_state": "New York"}, {"poets": "Rosmarie Waldrop", "field_dob": "1935", "field_dod": "", "field_school_movement": "", "view_node": "/poet/rosmarie-waldrop", "field_state": ""}, {"poets": "Jonathan Galassi", "field_dob": "", "field_dod": "", "field_school_movement": "Contemporary", "view_node": "/poet/jonathan-galassi", "field_state": "New York"}, {"poets": "Geoffrey Brock", "field_dob": "1964", "field_dod": "", "field_school_movement": "", "view_node": "/poet/geoffrey-brock", "field_state": "California"}, {"poets": "Ralph Burns", "field_dob": "", "field_dod": "", "field_school_movement": "Contemporary", "view_node": "/poet/ralph-burns", "field_state": "Arkansas"}, {"poets": "J. V. Cunningham", "field_dob": "1911", "field_dod": "1985", "field_school_movement": "", "view_node": "/poet/j-v-cunningham", "field_state": "Massachusetts"}, {"poets": "Robert Desnos", "field_dob": "1900", "field_dod": "1945", "field_school_movement": "Surrealism", "view_node": "/poet/robert-desnos", "field_state": ""}], "pager": {"current_page": 185, "total_items": "3766", "total_pages": 189, "items_per_page": 20}}