{"rows": [{"poets": "Don Bogen", "field_dob": "", "field_dod": "", "field_school_movement": "", "view_node": "/poet/don-bogen", "field_state": ""}, {"poets": "Clare Rossini", "field_dob": "", "field_dod": "", "field_school_movement": "", "view_node": "/poet/clare-rossini", "field_state": ""}, {"poets": "Brandon Som", "field_dob": "", "field_dod": "", "field_school_movement": "", "view_node": "/poet/brandon-som", "field_state": ""}, {"poets": "Habib Tengour", "field_dob": "", "field_dod": "", "field_school_movement": "", "view_node": "/poet/habib-tengour", "field_state": ""}, {"poets": "Samira Negrouche", "field_dob": "", "field_dod": "", "field_school_movement": "", "view_node": "/poet/samira-negrouche", "field_state": ""}, {"poets": "Djamal Amrani", "field_dob": "", "field_dod": "", "field_school_movement": "", "view_node": "/poet/djamal-amrani", "field_state": ""}, {"poets": "Cristiane Sobral", "field_dob": "", "field_dod": "", "field_school_movement": "", "view_node": "/poet/cristiane-sobral", "field_state": ""}, {"poets": "Ricardo Aleixo", "field_dob": "", "field_dod": "", "field_school_movement": "", "view_node": "/poet/ricardo-aleixo", "field_state": ""}, {"poets": "Erin O\u2019Luanaigh", "field_dob": "", "field_dod": "", "field_school_movement": "", "view_node": "/poet/erin-oluanaigh", "field_state": ""}, {"poets": "James Davis May", "field_dob": "", "field_dod": "", "field_school_movement": "", "view_node": "/poet/james-davis-may", "field_state": ""}, {"poets": "Mikko Harvey", "field_dob": "", "field_dod": "", "field_school_movement": "", "view_node": "/poet/mikko-harvey", "field_state": ""}, {"poets": "Harlan Bjornstad", "field_dob": "", "field_dod": "", "field_school_movement": "", "view_node": "/poet/harlan-bjornstad", "field_state": ""}, {"poets": "Kristin Robertson", "field_dob": "", "field_dod": "", "field_school_movement": "", "view_node": "/poet/kristin-robertson", "field_state": ""}, {"poets": "Amorak Huey", "field_dob": "", "field_dod": "", "field_school_movement": "", "view_node": "/poet/amorak-huey", "field_state": ""}, {"poets": "Susan Terris ", "field_dob": "", "field_dod": "", "field_school_movement": "", "view_node": "/poet/susan-terris", "field_state": ""}, {"poets": "James Ephraim McGirt", "field_dob": "", "field_dod": "", "field_school_movement": "", "view_node": "/poet/james-ephraim-mcgirt", "field_state": ""}, {"poets": "Angie Macri", "field_dob": "", "field_dod": "", "field_school_movement": "", "view_node": "/poet/angie-macri", "field_state": ""}, {"poets": "Yuxi Lin ", "field_dob": "", "field_dod": "", "field_school_movement": "", "view_node": "/poet/yuxi-lin", "field_state": ""}, {"poets": "Jenn Givhan", "field_dob": "", "field_dod": "", "field_school_movement": "", "view_node": "/poet/jenn-givhan", "field_state": ""}, {"poets": "Raena Shirali", "field_dob": "", "field_dod": "", "field_school_movement": "", "view_node": "/poet/raena-shirali", "field_state": ""}], "pager": {"current_page": 39, "total_items": "3766", "total_pages": 189, "items_per_page": 20}}