{"rows": [{"poets": "Suzi F. Garcia", "field_dob": "", "field_dod": "", "field_school_movement": "", "view_node": "/poet/suzi-f-garcia", "field_state": ""}, {"poets": "Balam Rodrigo", "field_dob": "", "field_dod": "", "field_school_movement": "", "view_node": "/poet/balam-rodrigo", "field_state": ""}, {"poets": "Juan Ram\u00f3n Jim\u00e9nez", "field_dob": "", "field_dod": "", "field_school_movement": "", "view_node": "/poet/juan-ramon-jimenez", "field_state": ""}, {"poets": "Peter Grandbois", "field_dob": "", "field_dod": "", "field_school_movement": "", "view_node": "/poet/peter-grandbois", "field_state": ""}, {"poets": "Madison McCartha", "field_dob": "", "field_dod": "", "field_school_movement": "", "view_node": "/poet/madison-mccartha", "field_state": ""}, {"poets": "Jackie Wang", "field_dob": "", "field_dod": "", "field_school_movement": "", "view_node": "/poet/jackie-wang", "field_state": ""}, {"poets": "Olivia Lott", "field_dob": "", "field_dod": "", "field_school_movement": "", "view_node": "/poet/olivia-lott", "field_state": ""}, {"poets": "Lauri Garc\u00eda Due\u00f1as", "field_dob": "", "field_dod": "", "field_school_movement": "", "view_node": "/poet/lauri-garcia-duenas", "field_state": ""}, {"poets": "Jes\u00fas Cos Causse", "field_dob": "", "field_dod": "", "field_school_movement": "", "view_node": "/poet/jesus-cos-causse", "field_state": ""}, {"poets": "John Pierrepont Rice", "field_dob": "", "field_dod": "", "field_school_movement": "", "view_node": "/poet/john-pierrepont-rice", "field_state": ""}, {"poets": "Jos\u00e9 Santos Chocano", "field_dob": "", "field_dod": "", "field_school_movement": "", "view_node": "/poet/jose-santos-chocano", "field_state": ""}, {"poets": "Thomas Walsh", "field_dob": "", "field_dod": "", "field_school_movement": "", "view_node": "/poet/thomas-walsh", "field_state": ""}, {"poets": "C. E. Biddulph", "field_dob": "", "field_dod": "", "field_school_movement": "", "view_node": "/poet/c-e-biddulph", "field_state": ""}, {"poets": "Corrado Govoni", "field_dob": "", "field_dod": "", "field_school_movement": "Symbolists, Futurism", "view_node": "/poet/corrado-govoni", "field_state": ""}, {"poets": "Edwin Williamson", "field_dob": "", "field_dod": "", "field_school_movement": "", "view_node": "/poet/edwin-williamson", "field_state": ""}, {"poets": "Jennifer Rathbun", "field_dob": "", "field_dod": "", "field_school_movement": "", "view_node": "/poet/jennifer-rathbun", "field_state": ""}, {"poets": "Carlos Aguasaco", "field_dob": "", "field_dod": "", "field_school_movement": "", "view_node": "/poet/carlos-aguasaco", "field_state": ""}, {"poets": "Maria Dahvana Headley", "field_dob": "", "field_dod": "", "field_school_movement": "", "view_node": "/poet/maria-dahvana-headley", "field_state": ""}, {"poets": "James Cagney", "field_dob": "", "field_dod": "", "field_school_movement": "", "view_node": "/poet/james-cagney", "field_state": ""}, {"poets": "Paula Bohince", "field_dob": "", "field_dod": "", "field_school_movement": "", "view_node": "/poet/paula-bohince", "field_state": ""}], "pager": {"current_page": 12, "total_items": "3766", "total_pages": 189, "items_per_page": 20}}