{"rows": [{"poets": "Lewis Carroll", "field_dob": "1832", "field_dod": "1898", "field_school_movement": "Victorian", "view_node": "/poet/lewis-carroll", "field_state": ""}, {"poets": "C\u00e9sar Vallejo", "field_dob": "1892", "field_dod": "1938", "field_school_movement": "Poets of Exile", "view_node": "/poet/cesar-vallejo", "field_state": ""}, {"poets": "Elizabeth Barrett Browning", "field_dob": "1806", "field_dod": "1861", "field_school_movement": "Romanticism", "view_node": "/poet/elizabeth-barrett-browning", "field_state": ""}, {"poets": "Michael Benedikt", "field_dob": "", "field_dod": "", "field_school_movement": "Beat", "view_node": "/poet/michael-benedikt", "field_state": ""}, {"poets": "John Haines", "field_dob": "1924", "field_dod": "2011", "field_school_movement": "", "view_node": "/poet/john-haines", "field_state": "Alaska"}, {"poets": "David Bottoms", "field_dob": "1949", "field_dod": "", "field_school_movement": "", "view_node": "/poet/david-bottoms", "field_state": ""}, {"poets": "Archibald MacLeish", "field_dob": "1892", "field_dod": "1982", "field_school_movement": "Poets of World War I", "view_node": "/poet/archibald-macleish", "field_state": "Illinois"}, {"poets": "Robert Browning", "field_dob": "1812", "field_dod": "1889", "field_school_movement": "", "view_node": "/poet/robert-browning", "field_state": ""}, {"poets": "Ruth Herschberger", "field_dob": "", "field_dod": "2014", "field_school_movement": "", "view_node": "/poet/ruth-herschberger", "field_state": ""}, {"poets": "Harryette Mullen", "field_dob": "1953", "field_dod": "", "field_school_movement": "", "view_node": "/poet/harryette-mullen", "field_state": "Texas"}, {"poets": "David Lehman", "field_dob": "1948", "field_dod": "", "field_school_movement": "", "view_node": "/poet/david-lehman", "field_state": "New York"}, {"poets": "Thom Gunn", "field_dob": "1929", "field_dod": "2004", "field_school_movement": "San Francisco Renaissance", "view_node": "/poet/thom-gunn", "field_state": ""}, {"poets": "Denise Duhamel", "field_dob": "1961", "field_dod": "", "field_school_movement": "Contemporary", "view_node": "/poet/denise-duhamel", "field_state": "Florida"}, {"poets": "Tess Gallagher", "field_dob": "1943", "field_dod": "", "field_school_movement": "Contemporary", "view_node": "/poet/tess-gallagher", "field_state": ""}, {"poets": "Frank O\u2019Hara", "field_dob": "1926", "field_dod": "1966", "field_school_movement": "New York School", "view_node": "/poet/frank-ohara", "field_state": "New York"}, {"poets": "Sandra McPherson", "field_dob": "1943", "field_dod": "", "field_school_movement": "Contemporary", "view_node": "/poet/sandra-mcpherson", "field_state": ""}, {"poets": "Dennis Lee", "field_dob": "1939", "field_dod": "", "field_school_movement": "", "view_node": "/poet/dennis-lee", "field_state": ""}, {"poets": "Judith Viorst", "field_dob": "1931", "field_dod": "", "field_school_movement": "Contemporary", "view_node": "/poet/judith-viorst", "field_state": ""}, {"poets": "Shel Silverstein", "field_dob": "1930", "field_dod": "1999", "field_school_movement": "", "view_node": "/poet/shel-silverstein", "field_state": "Illinois"}, {"poets": "Jack Prelutsky", "field_dob": "1940", "field_dod": "", "field_school_movement": "", "view_node": "/poet/jack-prelutsky", "field_state": "Washington"}], "pager": {"current_page": 187, "total_items": "3766", "total_pages": 189, "items_per_page": 20}}