{"rows": [{"poets": "Erica Kaufman", "field_dob": "", "field_dod": "", "field_school_movement": "", "view_node": "/poet/erica-kaufman", "field_state": ""}, {"poets": "Megan Kaminski", "field_dob": "", "field_dod": "", "field_school_movement": "", "view_node": "/poet/megan-kaminski", "field_state": ""}, {"poets": "Gibson Fay-LeBlanc", "field_dob": "", "field_dod": "", "field_school_movement": "", "view_node": "/poet/gibson-fay-leblanc", "field_state": ""}, {"poets": "Frederick Edward Weatherly", "field_dob": "", "field_dod": "", "field_school_movement": "", "view_node": "/poet/frederick-edward-weatherly", "field_state": ""}, {"poets": "Laura Cronk", "field_dob": "", "field_dod": "", "field_school_movement": "", "view_node": "/poet/laura-cronk", "field_state": ""}, {"poets": "Sandra Meek", "field_dob": "", "field_dod": "", "field_school_movement": "", "view_node": "/poet/sandra-meek", "field_state": ""}, {"poets": "James Shea", "field_dob": "", "field_dod": "", "field_school_movement": "", "view_node": "/poet/james-shea", "field_state": ""}, {"poets": "Marilyn Buck", "field_dob": "", "field_dod": "", "field_school_movement": "", "view_node": "/poet/marilyn-buck", "field_state": ""}, {"poets": "Rosalind Brackenbury", "field_dob": "", "field_dod": "", "field_school_movement": "", "view_node": "/poet/rosalind-brackenbury", "field_state": ""}, {"poets": "Liu  Xiaobo ", "field_dob": "", "field_dod": "", "field_school_movement": "", "view_node": "/poet/liu-xiaobo", "field_state": ""}, {"poets": "George Ella  Lyon", "field_dob": "", "field_dod": "", "field_school_movement": "", "view_node": "/poet/george-ella-lyon", "field_state": ""}, {"poets": "Richard  Levine", "field_dob": "", "field_dod": "", "field_school_movement": "", "view_node": "/poet/richard-levine", "field_state": ""}, {"poets": "Patrick Donnelly", "field_dob": "1956", "field_dod": "", "field_school_movement": "Contemporary", "view_node": "/poet/patrick-donnelly", "field_state": "Massachusetts"}, {"poets": "Natasha  Head", "field_dob": "", "field_dod": "", "field_school_movement": "", "view_node": "/poet/natasha-head", "field_state": ""}, {"poets": "Patrick Ryan  Frank", "field_dob": "", "field_dod": "", "field_school_movement": "", "view_node": "/poet/patrick-ryan-frank", "field_state": ""}, {"poets": "Mother Goose", "field_dob": "", "field_dod": "", "field_school_movement": "", "view_node": "/poet/mother-goose", "field_state": ""}, {"poets": "Rose McLarney", "field_dob": "", "field_dod": "", "field_school_movement": "", "view_node": "/poet/rose-mclarney", "field_state": ""}, {"poets": "Ursula K. Le Guin", "field_dob": "1929", "field_dod": "2018", "field_school_movement": "", "view_node": "/poet/ursula-k-le-guin", "field_state": "Oregon"}, {"poets": "Cynthia Arrieu-King", "field_dob": "", "field_dod": "", "field_school_movement": "", "view_node": "/poet/cynthia-arrieu-king", "field_state": ""}, {"poets": "Allan Peterson", "field_dob": "", "field_dod": "", "field_school_movement": "", "view_node": "/poet/allan-peterson", "field_state": ""}], "pager": {"current_page": 101, "total_items": "3766", "total_pages": 189, "items_per_page": 20}}