{"rows": [{"poets": "Lela Samiashvili", "field_dob": "", "field_dod": "", "field_school_movement": "", "view_node": "/poet/lela-samiashvili", "field_state": ""}, {"poets": "Joey De Jesus", "field_dob": "", "field_dod": "", "field_school_movement": "", "view_node": "/poet/joey-de-jesus", "field_state": ""}, {"poets": "Paige Lewis", "field_dob": "", "field_dod": "", "field_school_movement": "", "view_node": "/poet/paige-lewis", "field_state": ""}, {"poets": "Nikki Wallschlaeger", "field_dob": "", "field_dod": "", "field_school_movement": "", "view_node": "/poet/nikki-wallschlaeger", "field_state": "Wisconsin"}, {"poets": "Elizabeth Acevedo", "field_dob": "", "field_dod": "", "field_school_movement": "", "view_node": "/poet/elizabeth-acevedo", "field_state": "District of Columbia"}, {"poets": "Chiwan Choi", "field_dob": "", "field_dod": "", "field_school_movement": "", "view_node": "/poet/chiwan-choi", "field_state": ""}, {"poets": "Aditi Machado", "field_dob": "", "field_dod": "", "field_school_movement": "", "view_node": "/poet/aditi-machado", "field_state": ""}, {"poets": "Claudia Castro Luna", "field_dob": "", "field_dod": "", "field_school_movement": "", "view_node": "/poet/claudia-castro-luna", "field_state": "Washington"}, {"poets": "Stefania Heim", "field_dob": "", "field_dod": "", "field_school_movement": "", "view_node": "/poet/stefania-heim", "field_state": ""}, {"poets": "Gabrielle Civil", "field_dob": "", "field_dod": "", "field_school_movement": "", "view_node": "/poet/gabrielle-civil", "field_state": ""}, {"poets": "Johannes G\u00f6ransson", "field_dob": "", "field_dod": "", "field_school_movement": "", "view_node": "/poet/johannes-goransson", "field_state": ""}, {"poets": "Kent Shaw", "field_dob": "", "field_dod": "", "field_school_movement": "", "view_node": "/poet/kent-shaw", "field_state": ""}, {"poets": "Daneen Wardrop", "field_dob": "1952", "field_dod": "2021", "field_school_movement": "", "view_node": "/poet/daneen-wardrop", "field_state": ""}, {"poets": "Doug Ramspeck", "field_dob": "", "field_dod": "", "field_school_movement": "", "view_node": "/poet/doug-ramspeck", "field_state": ""}, {"poets": "Eric McHenry", "field_dob": "", "field_dod": "", "field_school_movement": "", "view_node": "/poet/eric-mchenry", "field_state": "Kansas"}, {"poets": "Annie Kim", "field_dob": "", "field_dod": "", "field_school_movement": "", "view_node": "/poet/annie-kim", "field_state": ""}, {"poets": "Richard Hoffman", "field_dob": "", "field_dod": "", "field_school_movement": "", "view_node": "/poet/richard-hoffman", "field_state": ""}, {"poets": "Jeff Gundy", "field_dob": "", "field_dod": "", "field_school_movement": "", "view_node": "/poet/jeff-gundy", "field_state": ""}, {"poets": "Allison Funk", "field_dob": "", "field_dod": "", "field_school_movement": "", "view_node": "/poet/allison-funk", "field_state": ""}, {"poets": "Patrick James Errington", "field_dob": "", "field_dod": "", "field_school_movement": "", "view_node": "/poet/patrick-james-errington", "field_state": ""}], "pager": {"current_page": 44, "total_items": "3766", "total_pages": 189, "items_per_page": 20}}