{"rows": [{"poets": "Ann Townsend", "field_dob": "", "field_dod": "", "field_school_movement": "", "view_node": "/poet/ann-townsend", "field_state": ""}, {"poets": "Sarah Gridley", "field_dob": "", "field_dod": "", "field_school_movement": "", "view_node": "/poet/sarah-gridley", "field_state": ""}, {"poets": "Juliana Spahr ", "field_dob": "", "field_dod": "", "field_school_movement": "", "view_node": "/poet/juliana-spahr", "field_state": ""}, {"poets": "Dennis O&#039;Driscoll", "field_dob": "1954", "field_dod": "2012", "field_school_movement": "", "view_node": "/poet/dennis-odriscoll", "field_state": ""}, {"poets": "Jos\u00e9 Lezama Lima", "field_dob": "", "field_dod": "", "field_school_movement": "", "view_node": "/poet/jose-lezama-lima", "field_state": ""}, {"poets": "Gabrielle Calvocoressi", "field_dob": "", "field_dod": "", "field_school_movement": "", "view_node": "/poet/gabrielle-calvocoressi", "field_state": "California"}, {"poets": "Sina Queyras", "field_dob": "", "field_dod": "", "field_school_movement": "", "view_node": "/poet/sina-queyras", "field_state": ""}, {"poets": "Kevin Boyle", "field_dob": "", "field_dod": "", "field_school_movement": "", "view_node": "/poet/kevin-boyle", "field_state": ""}, {"poets": "Pablo Medina", "field_dob": "", "field_dod": "", "field_school_movement": "", "view_node": "/poet/pablo-medina", "field_state": "Massachusetts"}, {"poets": "Mary Ann Samyn", "field_dob": "", "field_dod": "", "field_school_movement": "", "view_node": "/poet/mary-ann-samyn", "field_state": "West Virginia"}, {"poets": "Peter Covino", "field_dob": "", "field_dod": "", "field_school_movement": "", "view_node": "/poet/peter-covino", "field_state": ""}, {"poets": "Hugh Seidman", "field_dob": "", "field_dod": "", "field_school_movement": "", "view_node": "/poet/hugh-seidman", "field_state": ""}, {"poets": "Pimone Triplett", "field_dob": "", "field_dod": "", "field_school_movement": "", "view_node": "/poet/pimone-triplett", "field_state": ""}, {"poets": "David Keplinger", "field_dob": "", "field_dod": "", "field_school_movement": "", "view_node": "/poet/david-keplinger", "field_state": ""}, {"poets": "Lee Briccetti", "field_dob": "", "field_dod": "", "field_school_movement": "", "view_node": "/poet/lee-briccetti", "field_state": ""}, {"poets": "Cammy Thomas", "field_dob": "", "field_dod": "", "field_school_movement": "", "view_node": "/poet/cammy-thomas", "field_state": ""}, {"poets": "Jonathan Andersen", "field_dob": "", "field_dod": "", "field_school_movement": "", "view_node": "/poet/jonathan-andersen", "field_state": ""}, {"poets": "Lam Thi My Da", "field_dob": "", "field_dod": "", "field_school_movement": "", "view_node": "/poet/lam-thi-my-da", "field_state": ""}, {"poets": "Allison Adelle Hedge Coke", "field_dob": "1958", "field_dod": "", "field_school_movement": "", "view_node": "/poet/allison-adelle-hedge-coke", "field_state": "Oklahoma"}, {"poets": "Adrian Castro", "field_dob": "", "field_dod": "", "field_school_movement": "", "view_node": "/poet/adrian-castro", "field_state": ""}], "pager": {"current_page": 141, "total_items": "3766", "total_pages": 189, "items_per_page": 20}}