{"rows": [{"poets": "John Wilson", "field_dob": "1588", "field_dod": "1667", "field_school_movement": "", "view_node": "/poet/john-wilson", "field_state": "Massachusetts"}, {"poets": "Raquel Guti\u00e9rrez", "field_dob": "", "field_dod": "", "field_school_movement": "", "view_node": "/poet/raquel-gutierrez", "field_state": ""}, {"poets": "Gordon Henry ", "field_dob": "", "field_dod": "", "field_school_movement": "", "view_node": "/poet/gordon-henry", "field_state": ""}, {"poets": "Rainy Dawn Ortiz", "field_dob": "", "field_dod": "", "field_school_movement": "", "view_node": "/poet/rainy-dawn-ortiz", "field_state": ""}, {"poets": "Ishmael Angaluuk Hope ", "field_dob": "", "field_dod": "", "field_school_movement": "", "view_node": "/poet/ishmael-angaluuk-hope", "field_state": ""}, {"poets": "Janet McAdams ", "field_dob": "", "field_dod": "", "field_school_movement": "", "view_node": "/poet/janet-mcadams", "field_state": ""}, {"poets": "Tiffany Midge ", "field_dob": "", "field_dod": "", "field_school_movement": "", "view_node": "/poet/tiffany-midge", "field_state": ""}, {"poets": "Seema Yasmin", "field_dob": "", "field_dod": "", "field_school_movement": "", "view_node": "/poet/seema-yasmin", "field_state": ""}, {"poets": "Naomi Long Madgett", "field_dob": "1923", "field_dod": "2020", "field_school_movement": "", "view_node": "/poet/naomi-long-madgett", "field_state": ""}, {"poets": "Lewis Warsh", "field_dob": "1944", "field_dod": "2020", "field_school_movement": "", "view_node": "/poet/lewis-warsh", "field_state": ""}, {"poets": "Aricka Foreman ", "field_dob": "", "field_dod": "", "field_school_movement": "", "view_node": "/poet/aricka-foreman", "field_state": ""}, {"poets": "William Reichard", "field_dob": "", "field_dod": "", "field_school_movement": "", "view_node": "/poet/william-reichard", "field_state": ""}, {"poets": "Eric Gansworth", "field_dob": "", "field_dod": "", "field_school_movement": "", "view_node": "/poet/eric-gansworth", "field_state": ""}, {"poets": "Michael Torres ", "field_dob": "", "field_dod": "", "field_school_movement": "", "view_node": "/poet/michael-torres", "field_state": ""}, {"poets": "b: william bearhart", "field_dob": "1979", "field_dod": "2020", "field_school_movement": "", "view_node": "/poet/b-william-bearhart", "field_state": ""}, {"poets": "Aimee Suzara", "field_dob": "", "field_dod": "", "field_school_movement": "", "view_node": "/poet/aimee-suzara", "field_state": ""}, {"poets": "Melanie Figg", "field_dob": "", "field_dod": "", "field_school_movement": "", "view_node": "/poet/melanie-figg", "field_state": ""}, {"poets": "LeAnne Howe", "field_dob": "", "field_dod": "", "field_school_movement": "", "view_node": "/poet/leanne-howe", "field_state": ""}, {"poets": "Halee Kirkwood", "field_dob": "", "field_dod": "", "field_school_movement": "", "view_node": "/poet/halee-kirkwood", "field_state": ""}, {"poets": "Michael Kleber-Diggs", "field_dob": "", "field_dod": "", "field_school_movement": "", "view_node": "/poet/michael-kleber-diggs", "field_state": ""}], "pager": {"current_page": 20, "total_items": "3766", "total_pages": 189, "items_per_page": 20}}