{"rows": [{"poets": "Emily Rosko", "field_dob": "", "field_dod": "", "field_school_movement": "", "view_node": "/poet/emily-rosko", "field_state": ""}, {"poets": "Susan Maxwell", "field_dob": "", "field_dod": "", "field_school_movement": "", "view_node": "/poet/susan-maxwell", "field_state": ""}, {"poets": "Kerri Webster", "field_dob": "", "field_dod": "", "field_school_movement": "", "view_node": "/poet/kerri-webster", "field_state": ""}, {"poets": "Karen Brennan", "field_dob": "", "field_dod": "", "field_school_movement": "", "view_node": "/poet/karen-brennan", "field_state": ""}, {"poets": "Brian Merriman", "field_dob": "", "field_dod": "", "field_school_movement": "", "view_node": "/poet/brian-merriman", "field_state": ""}, {"poets": "Peter Meinke", "field_dob": "", "field_dod": "", "field_school_movement": "", "view_node": "/poet/peter-meinke", "field_state": ""}, {"poets": "James Kimbrell", "field_dob": "", "field_dod": "", "field_school_movement": "", "view_node": "/poet/james-kimbrell", "field_state": "Florida"}, {"poets": "Chard deNiord", "field_dob": "1952", "field_dod": "", "field_school_movement": "Contemporary", "view_node": "/poet/chard-deniord", "field_state": "Vermont"}, {"poets": "Anthony McCann", "field_dob": "", "field_dod": "", "field_school_movement": "", "view_node": "/poet/anthony-mccann", "field_state": ""}, {"poets": "Lisa Sewell", "field_dob": "", "field_dod": "", "field_school_movement": "", "view_node": "/poet/lisa-sewell", "field_state": ""}, {"poets": "Catherine Bowman", "field_dob": "", "field_dod": "", "field_school_movement": "", "view_node": "/poet/catherine-bowman", "field_state": "Indiana"}, {"poets": "David Tucker", "field_dob": "", "field_dod": "", "field_school_movement": "", "view_node": "/poet/david-tucker", "field_state": ""}, {"poets": "Deborah Bernhardt", "field_dob": "", "field_dod": "", "field_school_movement": "", "view_node": "/poet/deborah-bernhardt", "field_state": ""}, {"poets": "David Romtvedt", "field_dob": "", "field_dod": "", "field_school_movement": "", "view_node": "/poet/david-romtvedt", "field_state": "Wyoming"}, {"poets": "James Armstrong", "field_dob": "", "field_dod": "", "field_school_movement": "", "view_node": "/poet/james-armstrong", "field_state": ""}, {"poets": "Michael Collier", "field_dob": "", "field_dod": "", "field_school_movement": "", "view_node": "/poet/michael-collier", "field_state": "Maryland"}, {"poets": "Rodney Jones", "field_dob": "1950", "field_dod": "", "field_school_movement": "", "view_node": "/poet/rodney-jones", "field_state": ""}, {"poets": "Keith Taylor", "field_dob": "", "field_dod": "", "field_school_movement": "", "view_node": "/poet/keith-taylor", "field_state": ""}, {"poets": "Thomas Heise", "field_dob": "", "field_dod": "", "field_school_movement": "", "view_node": "/poet/thomas-heise", "field_state": ""}, {"poets": "Felipe Benitez Reyes", "field_dob": "", "field_dod": "", "field_school_movement": "", "view_node": "/poet/felipe-benitez-reyes", "field_state": ""}], "pager": {"current_page": 137, "total_items": "3766", "total_pages": 189, "items_per_page": 20}}