{"rows": [{"poets": "A. R. Ammons", "field_dob": "1926", "field_dod": "2001", "field_school_movement": "Surrealism", "view_node": "/poet/r-ammons", "field_state": "New York"}, {"poets": "Alice Fulton", "field_dob": "1952", "field_dod": "", "field_school_movement": "Contemporary", "view_node": "/poet/alice-fulton", "field_state": "New York"}, {"poets": "Anthony Hecht", "field_dob": "", "field_dod": "", "field_school_movement": "", "view_node": "/poet/anthony-hecht", "field_state": "New York"}, {"poets": "Derek Mahon", "field_dob": "1941", "field_dod": "2020", "field_school_movement": "", "view_node": "/poet/derek-mahon", "field_state": ""}, {"poets": "David Rivard", "field_dob": "1953", "field_dod": "", "field_school_movement": "", "view_node": "/poet/david-rivard", "field_state": "Massachusetts"}, {"poets": "Denise Levertov", "field_dob": "1923", "field_dod": "1997", "field_school_movement": "Black Mountain", "view_node": "/poet/denise-levertov", "field_state": "New York"}, {"poets": "Donald Justice", "field_dob": "1925", "field_dod": "2004", "field_school_movement": "Formalism", "view_node": "/poet/donald-justice", "field_state": "Florida"}, {"poets": "Daniel Hoffman", "field_dob": "1923", "field_dod": "2013", "field_school_movement": "", "view_node": "/poet/daniel-hoffman", "field_state": "Pennsylvania"}, {"poets": "David Hinton", "field_dob": "1954", "field_dod": "", "field_school_movement": "Translators", "view_node": "/poet/david-hinton", "field_state": "Vermont"}, {"poets": "D. H. Lawrence", "field_dob": "1885", "field_dod": "1930", "field_school_movement": "Imagism", "view_node": "/poet/d-h-lawrence", "field_state": "New Mexico"}, {"poets": "Diana Goetsch", "field_dob": "", "field_dod": "", "field_school_movement": "Contemporary", "view_node": "/poet/diana-goetsch", "field_state": ""}, {"poets": "Charles Wright", "field_dob": "1935", "field_dod": "", "field_school_movement": "", "view_node": "/poet/charles-wright", "field_state": "Virginia"}, {"poets": "Carl Sandburg", "field_dob": "1878", "field_dod": "1967", "field_school_movement": "", "view_node": "/poet/carl-sandburg", "field_state": "Wisconsin"}, {"poets": "Chase Twichell", "field_dob": "1950", "field_dod": "", "field_school_movement": "Contemporary", "view_node": "/poet/chase-twichell", "field_state": "New York"}, {"poets": "Charles Simic", "field_dob": "1938", "field_dod": "", "field_school_movement": "Surrealism, Translators", "view_node": "/poet/charles-simic", "field_state": "New Hampshire"}, {"poets": "Carol Muske-Dukes", "field_dob": "", "field_dod": "", "field_school_movement": "", "view_node": "/poet/carol-muske-dukes", "field_state": "California"}, {"poets": "Claude McKay", "field_dob": "1889", "field_dod": "1948", "field_school_movement": "Harlem Renaissance", "view_node": "/poet/claude-mckay", "field_state": "New York"}, {"poets": "Kenneth Patchen", "field_dob": "1911", "field_dod": "1972", "field_school_movement": "", "view_node": "/poet/kenneth-patchen", "field_state": "Wisconsin"}, {"poets": "Christopher Logue", "field_dob": "1926", "field_dod": "2011", "field_school_movement": "", "view_node": "/poet/christopher-logue", "field_state": ""}, {"poets": "Yusef Komunyakaa", "field_dob": "1947", "field_dod": "", "field_school_movement": "Surrealism, Jazz Poetry", "view_node": "/poet/yusef-komunyakaa", "field_state": "New York"}], "pager": {"current_page": 91, "total_items": "3766", "total_pages": 189, "items_per_page": 20}}