{"rows": [{"poets": "Stephen Crane", "field_dob": "1871", "field_dod": "1900", "field_school_movement": "", "view_node": "/poet/stephen-crane", "field_state": ""}, {"poets": "G. E. Patterson", "field_dob": "", "field_dod": "", "field_school_movement": "", "view_node": "/poet/g-e-patterson", "field_state": "Minnesota"}, {"poets": "Shara McCallum", "field_dob": "1972", "field_dod": "", "field_school_movement": "Contemporary", "view_node": "/poet/shara-mccallum", "field_state": "Pennsylvania"}, {"poets": "Honor\u00e9e Fanonne Jeffers", "field_dob": "", "field_dod": "", "field_school_movement": "", "view_node": "/poet/honoree-fanonne-jeffers", "field_state": "Oklahoma"}, {"poets": "Philip Freneau", "field_dob": "1752", "field_dod": "1832", "field_school_movement": "", "view_node": "/poet/philip-freneau", "field_state": "New Jersey"}, {"poets": "Phillis Wheatley", "field_dob": "1753", "field_dod": "1784", "field_school_movement": "Formalism", "view_node": "/poet/phillis-wheatley", "field_state": "Massachusetts"}, {"poets": "Francis Scott Key", "field_dob": "1779", "field_dod": "1843", "field_school_movement": "", "view_node": "/poet/francis-scott-key", "field_state": ""}, {"poets": "William Cullen Bryant", "field_dob": "1794", "field_dod": "1878", "field_school_movement": "Fireside Poet", "view_node": "/poet/william-cullen-bryant", "field_state": "New York"}, {"poets": "V\u00e9nus Khoury-Ghata", "field_dob": "", "field_dod": "", "field_school_movement": "", "view_node": "/poet/venus-khoury-ghata", "field_state": ""}, {"poets": "Pierre Joris", "field_dob": "1946", "field_dod": "", "field_school_movement": "", "view_node": "/poet/pierre-joris", "field_state": "New York"}, {"poets": "Len Roberts", "field_dob": "", "field_dod": "", "field_school_movement": "", "view_node": "/poet/len-roberts", "field_state": ""}, {"poets": "Saskia Hamilton", "field_dob": "", "field_dod": "", "field_school_movement": "Contemporary", "view_node": "/poet/saskia-hamilton", "field_state": ""}, {"poets": "J. P. White", "field_dob": "", "field_dod": "", "field_school_movement": "", "view_node": "/poet/j-p-white", "field_state": ""}, {"poets": "Jane Mead", "field_dob": "1958", "field_dod": "2019", "field_school_movement": "", "view_node": "/poet/jane-mead", "field_state": "California"}, {"poets": "Dana Gioia", "field_dob": "1950", "field_dod": "", "field_school_movement": "Contemporary", "view_node": "/poet/dana-gioia", "field_state": "California"}, {"poets": "Andrea Werblin", "field_dob": "", "field_dod": "", "field_school_movement": "", "view_node": "/poet/andrea-werblin", "field_state": ""}, {"poets": "Maurice Kilwein Guevara", "field_dob": "1961", "field_dod": "", "field_school_movement": "", "view_node": "/poet/maurice-kilwein-guevara", "field_state": ""}, {"poets": "Elizabeth Powell", "field_dob": "", "field_dod": "", "field_school_movement": "", "view_node": "/poet/elizabeth-powell", "field_state": "Vermont"}, {"poets": "Michael Burkard", "field_dob": "", "field_dod": "", "field_school_movement": "", "view_node": "/poet/michael-burkard", "field_state": ""}, {"poets": "Lola Haskins", "field_dob": "", "field_dod": "", "field_school_movement": "", "view_node": "/poet/lola-haskins", "field_state": ""}], "pager": {"current_page": 178, "total_items": "3766", "total_pages": 189, "items_per_page": 20}}