{"rows": [{"poets": "Emily Hunt", "field_dob": "", "field_dod": "", "field_school_movement": "", "view_node": "/poet/emily-hunt", "field_state": "California"}, {"poets": "Tonya M. Foster", "field_dob": "", "field_dod": "", "field_school_movement": "", "view_node": "/poet/tonya-m-foster", "field_state": "California"}, {"poets": "Sean Hill", "field_dob": "", "field_dod": "", "field_school_movement": "", "view_node": "/poet/sean-hill", "field_state": ""}, {"poets": "David Yezzi", "field_dob": "", "field_dod": "", "field_school_movement": "", "view_node": "/poet/david-yezzi", "field_state": "Maryland"}, {"poets": "Max Ritvo", "field_dob": "1990", "field_dod": "2016", "field_school_movement": "", "view_node": "/poet/max-ritvo", "field_state": "New York"}, {"poets": "Jessica Jacobs", "field_dob": "", "field_dod": "", "field_school_movement": "", "view_node": "/poet/jessica-jacobs", "field_state": "Arkansas"}, {"poets": "TJ Jarrett", "field_dob": "", "field_dod": "", "field_school_movement": "", "view_node": "/poet/tj-jarrett", "field_state": ""}, {"poets": "DJ Dolack", "field_dob": "", "field_dod": "", "field_school_movement": "", "view_node": "/poet/dj-dolack", "field_state": ""}, {"poets": "Reed Whittemore", "field_dob": "1919", "field_dod": "2012", "field_school_movement": "", "view_node": "/poet/reed-whittemore", "field_state": ""}, {"poets": "Nate Klug", "field_dob": "", "field_dod": "", "field_school_movement": "", "view_node": "/poet/nate-klug", "field_state": "California"}, {"poets": "Thomas Meyer", "field_dob": "", "field_dod": "", "field_school_movement": "", "view_node": "/poet/thomas-meyer", "field_state": "North Carolina"}, {"poets": "Abdul Ali", "field_dob": "", "field_dod": "", "field_school_movement": "", "view_node": "/poet/abdul-ali", "field_state": "Maryland"}, {"poets": "Megan Fernandes", "field_dob": "", "field_dod": "", "field_school_movement": "", "view_node": "/poet/megan-fernandes", "field_state": "New York"}, {"poets": "Safiya Sinclair", "field_dob": "", "field_dod": "", "field_school_movement": "Contemporary", "view_node": "/poet/safiya-sinclair", "field_state": "New York"}, {"poets": "B. C.  Edwards", "field_dob": "", "field_dod": "", "field_school_movement": "", "view_node": "/poet/b-c-edwards", "field_state": "New York"}, {"poets": "Matthew Siegel ", "field_dob": "", "field_dod": "", "field_school_movement": "", "view_node": "/poet/matthew-siegel", "field_state": ""}, {"poets": "George David Clark", "field_dob": "", "field_dod": "", "field_school_movement": "", "view_node": "/poet/george-david-clark", "field_state": "Pennsylvania"}, {"poets": "Philip Metres ", "field_dob": "1970", "field_dod": "", "field_school_movement": "", "view_node": "/poet/philip-metres", "field_state": ""}, {"poets": "Kevin Pilkington ", "field_dob": "", "field_dod": "", "field_school_movement": "", "view_node": "/poet/kevin-pilkington", "field_state": ""}, {"poets": "Ailish Hopper", "field_dob": "", "field_dod": "", "field_school_movement": "", "view_node": "/poet/ailish-hopper", "field_state": "District of Columbia"}], "pager": {"current_page": 74, "total_items": "3766", "total_pages": 189, "items_per_page": 20}}