{"rows": [{"poets": "Barry Ballard", "field_dob": "", "field_dod": "", "field_school_movement": "", "view_node": "/poet/barry-ballard", "field_state": ""}, {"poets": "Leslie Ullman", "field_dob": "", "field_dod": "", "field_school_movement": "", "view_node": "/poet/leslie-ullman", "field_state": ""}, {"poets": "Michael Carlson", "field_dob": "", "field_dod": "", "field_school_movement": "", "view_node": "/poet/michael-carlson", "field_state": ""}, {"poets": "Peter Jay Shippy", "field_dob": "", "field_dod": "", "field_school_movement": "", "view_node": "/poet/peter-jay-shippy", "field_state": ""}, {"poets": "Lesle Lewis", "field_dob": "", "field_dod": "", "field_school_movement": "", "view_node": "/poet/lesle-lewis", "field_state": ""}, {"poets": "Sue Standing", "field_dob": "", "field_dod": "", "field_school_movement": "", "view_node": "/poet/sue-standing", "field_state": ""}, {"poets": "Cynthia Huntington", "field_dob": "", "field_dod": "", "field_school_movement": "", "view_node": "/poet/cynthia-huntington", "field_state": ""}, {"poets": "Elliot Figman", "field_dob": "", "field_dod": "", "field_school_movement": "", "view_node": "/poet/elliot-figman", "field_state": ""}, {"poets": "Joel Brouwer", "field_dob": "", "field_dod": "", "field_school_movement": "", "view_node": "/poet/joel-brouwer", "field_state": ""}, {"poets": "Joan Aleshire", "field_dob": "", "field_dod": "", "field_school_movement": "", "view_node": "/poet/joan-aleshire", "field_state": ""}, {"poets": "Jerome Rothenberg", "field_dob": "1931", "field_dod": "", "field_school_movement": "Ethnopoetics", "view_node": "/poet/jerome-rothenberg", "field_state": ""}, {"poets": "Aharon Shabtai", "field_dob": "", "field_dod": "", "field_school_movement": "", "view_node": "/poet/aharon-shabtai", "field_state": ""}, {"poets": "Gennady Aygi", "field_dob": "1934", "field_dod": "2006", "field_school_movement": "", "view_node": "/poet/gennady-aygi", "field_state": ""}, {"poets": "Madeline DeFrees", "field_dob": "1919", "field_dod": "2015", "field_school_movement": "", "view_node": "/poet/madeline-defrees", "field_state": ""}, {"poets": "John Heath-Stubbs", "field_dob": "", "field_dod": "", "field_school_movement": "", "view_node": "/poet/john-heath-stubbs", "field_state": ""}, {"poets": "Laurence Lerner", "field_dob": "", "field_dod": "", "field_school_movement": "", "view_node": "/poet/laurence-lerner", "field_state": ""}, {"poets": "Nellie Wong", "field_dob": "1934", "field_dod": "", "field_school_movement": "", "view_node": "/poet/nellie-wong", "field_state": "California"}, {"poets": "Lyn Lifshin", "field_dob": "", "field_dod": "", "field_school_movement": "", "view_node": "/poet/lyn-lifshin", "field_state": ""}, {"poets": "Felix Stefanile", "field_dob": "", "field_dod": "", "field_school_movement": "", "view_node": "/poet/felix-stefanile", "field_state": ""}, {"poets": "James Tolan", "field_dob": "", "field_dod": "2017", "field_school_movement": "", "view_node": "/poet/james-tolan", "field_state": ""}], "pager": {"current_page": 158, "total_items": "3766", "total_pages": 189, "items_per_page": 20}}