{"rows": [{"poets": "Jeffrey Angles", "field_dob": "1971", "field_dod": "", "field_school_movement": "", "view_node": "/poet/jeffrey-angles", "field_state": ""}, {"poets": "Andrew Norman", "field_dob": "", "field_dod": "", "field_school_movement": "", "view_node": "/poet/andrew-norman", "field_state": ""}, {"poets": "Mary Colborne-Veel", "field_dob": "", "field_dod": "", "field_school_movement": "", "view_node": "/poet/mary-colborne-veel", "field_state": ""}, {"poets": "David Rosenthal", "field_dob": "", "field_dod": "", "field_school_movement": "", "view_node": "/poet/david-rosenthal", "field_state": ""}, {"poets": "Nikky Finney", "field_dob": "1957", "field_dod": "", "field_school_movement": "Contemporary", "view_node": "/poet/nikky-finney", "field_state": "South Carolina"}, {"poets": "Richard Siken", "field_dob": "", "field_dod": "", "field_school_movement": "", "view_node": "/poet/richard-siken", "field_state": ""}, {"poets": "P\u00e9ter K\u00e1ntor", "field_dob": "", "field_dod": "", "field_school_movement": "", "view_node": "/poet/peter-kantor", "field_state": ""}, {"poets": "Elana Bell", "field_dob": "", "field_dod": "", "field_school_movement": "", "view_node": "/poet/elana-bell", "field_state": ""}, {"poets": "Laura Elizabeth Richards", "field_dob": "", "field_dod": "", "field_school_movement": "", "view_node": "/poet/laura-elizabeth-richards", "field_state": ""}, {"poets": "Marsden Hartley", "field_dob": "", "field_dod": "", "field_school_movement": "", "view_node": "/poet/marsden-hartley", "field_state": ""}, {"poets": "Eliza Lee Follen", "field_dob": "", "field_dod": "", "field_school_movement": "", "view_node": "/poet/eliza-lee-follen", "field_state": ""}, {"poets": "Rosa Alcal\u00e1", "field_dob": "", "field_dod": "", "field_school_movement": "", "view_node": "/poet/rosa-alcala", "field_state": ""}, {"poets": "Ian Hamilton Finlay", "field_dob": "", "field_dod": "", "field_school_movement": "", "view_node": "/poet/ian-hamilton-finlay", "field_state": ""}, {"poets": "Humberto Ak&#039;Abal", "field_dob": "", "field_dod": "", "field_school_movement": "", "view_node": "/poet/humberto-akabal", "field_state": ""}, {"poets": "Laura Walker", "field_dob": "", "field_dod": "", "field_school_movement": "", "view_node": "/poet/laura-walker", "field_state": ""}, {"poets": "Lytton Smith", "field_dob": "", "field_dod": "", "field_school_movement": "", "view_node": "/poet/lytton-smith", "field_state": ""}, {"poets": "Samuel Amadon", "field_dob": "", "field_dod": "", "field_school_movement": "", "view_node": "/poet/samuel-amadon", "field_state": ""}, {"poets": "Gerald Fleming", "field_dob": "", "field_dod": "", "field_school_movement": "", "view_node": "/poet/gerald-fleming", "field_state": ""}, {"poets": "Joseph Harrington", "field_dob": "", "field_dod": "", "field_school_movement": "", "view_node": "/poet/joseph-harrington", "field_state": ""}, {"poets": "William Corbett", "field_dob": "1942", "field_dod": "2018", "field_school_movement": "", "view_node": "/poet/william-corbett", "field_state": "Massachusetts"}], "pager": {"current_page": 107, "total_items": "3766", "total_pages": 189, "items_per_page": 20}}