{"rows": [{"poets": "Ander Monson", "field_dob": "", "field_dod": "", "field_school_movement": "", "view_node": "/poet/ander-monson", "field_state": ""}, {"poets": "Rachel Contreni Flynn", "field_dob": "", "field_dod": "", "field_school_movement": "", "view_node": "/poet/rachel-contreni-flynn", "field_state": ""}, {"poets": "Bruce Smith", "field_dob": "", "field_dod": "", "field_school_movement": "", "view_node": "/poet/bruce-smith", "field_state": ""}, {"poets": "Orlando Gonz\u00e1lez Esteva", "field_dob": "", "field_dod": "", "field_school_movement": "", "view_node": "/poet/orlando-gonzalez-esteva", "field_state": ""}, {"poets": "M. L. Smoker", "field_dob": "", "field_dod": "", "field_school_movement": "", "view_node": "/poet/m-l-smoker", "field_state": "Montana"}, {"poets": "Jeni Olin", "field_dob": "", "field_dod": "", "field_school_movement": "", "view_node": "/poet/jeni-olin", "field_state": ""}, {"poets": "R. Zamora Linmark", "field_dob": "", "field_dod": "", "field_school_movement": "", "view_node": "/poet/r-zamora-linmark", "field_state": ""}, {"poets": "Robert Gregory", "field_dob": "", "field_dod": "", "field_school_movement": "", "view_node": "/poet/robert-gregory", "field_state": ""}, {"poets": "T. R. Hummer", "field_dob": "", "field_dod": "", "field_school_movement": "", "view_node": "/poet/t-r-hummer", "field_state": ""}, {"poets": "Doris Davenport", "field_dob": "", "field_dod": "", "field_school_movement": "", "view_node": "/poet/doris-davenport", "field_state": ""}, {"poets": "Brendan Galvin", "field_dob": "", "field_dod": "", "field_school_movement": "", "view_node": "/poet/brendan-galvin", "field_state": "Massachusetts"}, {"poets": "Geri Doran", "field_dob": "", "field_dod": "", "field_school_movement": "", "view_node": "/poet/geri-doran", "field_state": ""}, {"poets": "Kathleen Jesme", "field_dob": "", "field_dod": "", "field_school_movement": "", "view_node": "/poet/kathleen-jesme", "field_state": ""}, {"poets": "Sean Singer", "field_dob": "", "field_dod": "", "field_school_movement": "", "view_node": "/poet/sean-singer", "field_state": ""}, {"poets": "Richard Tayson", "field_dob": "", "field_dod": "", "field_school_movement": "", "view_node": "/poet/richard-tayson", "field_state": ""}, {"poets": "Joan Houlihan", "field_dob": "", "field_dod": "", "field_school_movement": "", "view_node": "/poet/joan-houlihan", "field_state": ""}, {"poets": "David Groff", "field_dob": "", "field_dod": "", "field_school_movement": "", "view_node": "/poet/david-groff", "field_state": ""}, {"poets": "Joshua Corey", "field_dob": "", "field_dod": "", "field_school_movement": "", "view_node": "/poet/joshua-corey", "field_state": ""}, {"poets": "Brian Teare", "field_dob": "", "field_dod": "", "field_school_movement": "", "view_node": "/poet/brian-teare", "field_state": "Alabama"}, {"poets": "Stephanie Burt", "field_dob": "", "field_dod": "", "field_school_movement": "Contemporary", "view_node": "/poet/stephanie-burt", "field_state": "Massachusetts"}], "pager": {"current_page": 140, "total_items": "3766", "total_pages": 189, "items_per_page": 20}}