{"rows": [{"poets": "Bill Holm", "field_dob": "", "field_dod": "", "field_school_movement": "", "view_node": "/poet/bill-holm", "field_state": "Minnesota"}, {"poets": "Robert Polito", "field_dob": "", "field_dod": "", "field_school_movement": "", "view_node": "/poet/robert-polito", "field_state": ""}, {"poets": "Deborah Digges", "field_dob": "1950", "field_dod": "2009", "field_school_movement": "Confessional Poetry", "view_node": "/poet/deborah-digges", "field_state": "Massachusetts"}, {"poets": "Luis Cernuda", "field_dob": "", "field_dod": "", "field_school_movement": "", "view_node": "/poet/luis-cernuda", "field_state": ""}, {"poets": "Jeanne Marie Beaumont", "field_dob": "", "field_dod": "", "field_school_movement": "", "view_node": "/poet/jeanne-marie-beaumont", "field_state": ""}, {"poets": "Mark Yakich", "field_dob": "", "field_dod": "", "field_school_movement": "", "view_node": "/poet/mark-yakich", "field_state": "Louisiana"}, {"poets": "Kenneth Fearing", "field_dob": "", "field_dod": "", "field_school_movement": "", "view_node": "/poet/kenneth-fearing", "field_state": ""}, {"poets": "Sharon Creech", "field_dob": "", "field_dod": "", "field_school_movement": "", "view_node": "/poet/sharon-creech", "field_state": ""}, {"poets": "Jessie Haas", "field_dob": "", "field_dod": "", "field_school_movement": "", "view_node": "/poet/jessie-haas", "field_state": ""}, {"poets": "Petrarch", "field_dob": "1304", "field_dod": "1374", "field_school_movement": "", "view_node": "/poet/petrarch", "field_state": ""}, {"poets": "Eric Baus", "field_dob": "", "field_dod": "", "field_school_movement": "", "view_node": "/poet/eric-baus", "field_state": ""}, {"poets": "Alan S. Trueblood", "field_dob": "1917", "field_dod": "2012", "field_school_movement": "Translators", "view_node": "/poet/alan-s-trueblood", "field_state": "Rhode Island"}, {"poets": "Marianne Boruch", "field_dob": "1950", "field_dod": "", "field_school_movement": "Contemporary", "view_node": "/poet/marianne-boruch", "field_state": "Indiana"}, {"poets": "M. L. Liebler", "field_dob": "", "field_dod": "", "field_school_movement": "", "view_node": "/poet/m-l-liebler", "field_state": ""}, {"poets": "Kathleen Peirce", "field_dob": "", "field_dod": "", "field_school_movement": "", "view_node": "/poet/kathleen-peirce", "field_state": ""}, {"poets": "Georgianna Orsini", "field_dob": "", "field_dod": "", "field_school_movement": "", "view_node": "/poet/georgianna-orsini", "field_state": ""}, {"poets": "Rafael P\u00e9rez Estrada", "field_dob": "", "field_dod": "", "field_school_movement": "", "view_node": "/poet/rafael-perez-estrada", "field_state": ""}, {"poets": "Pansy Maurer-Alvarez", "field_dob": "", "field_dod": "", "field_school_movement": "", "view_node": "/poet/pansy-maurer-alvarez", "field_state": ""}, {"poets": "Robert Hershon", "field_dob": "1936", "field_dod": "2021", "field_school_movement": "", "view_node": "/poet/robert-hershon", "field_state": "New York"}, {"poets": "James Berry", "field_dob": "", "field_dod": "2017", "field_school_movement": "", "view_node": "/poet/james-berry", "field_state": ""}], "pager": {"current_page": 148, "total_items": "3766", "total_pages": 189, "items_per_page": 20}}