{"rows": [{"poets": "Richard Crashaw", "field_dob": "", "field_dod": "", "field_school_movement": "", "view_node": "/poet/richard-crashaw", "field_state": ""}, {"poets": "Gregory Fraser", "field_dob": "", "field_dod": "", "field_school_movement": "", "view_node": "/poet/gregory-fraser", "field_state": ""}, {"poets": "Paula Meehan", "field_dob": "", "field_dod": "", "field_school_movement": "", "view_node": "/poet/paula-meehan", "field_state": ""}, {"poets": "Eil\u00e9an N\u00ed Chuillean\u00e1in", "field_dob": "", "field_dod": "", "field_school_movement": "", "view_node": "/poet/eilean-ni-chuilleanain", "field_state": ""}, {"poets": "Peter Cole", "field_dob": "", "field_dod": "", "field_school_movement": "", "view_node": "/poet/peter-cole", "field_state": ""}, {"poets": "Teresa Cader", "field_dob": "", "field_dod": "", "field_school_movement": "", "view_node": "/poet/teresa-cader", "field_state": ""}, {"poets": "Kimberly Johnson", "field_dob": "1971", "field_dod": "", "field_school_movement": "Contemporary", "view_node": "/poet/kimberly-johnson", "field_state": "Utah"}, {"poets": "Mei-Yao Ch&#039;en", "field_dob": "", "field_dod": "", "field_school_movement": "", "view_node": "/poet/mei-yao-chen", "field_state": ""}, {"poets": "Izumi Shikibu", "field_dob": "", "field_dod": "", "field_school_movement": "", "view_node": "/poet/izumi-shikibu", "field_state": ""}, {"poets": "Patty Seyburn", "field_dob": "", "field_dod": "", "field_school_movement": "", "view_node": "/poet/patty-seyburn", "field_state": ""}, {"poets": "Stacie Cassarino", "field_dob": "", "field_dod": "", "field_school_movement": "", "view_node": "/poet/stacie-cassarino", "field_state": ""}, {"poets": "Justin Marks", "field_dob": "", "field_dod": "", "field_school_movement": "", "view_node": "/poet/justin-marks", "field_state": ""}, {"poets": "Debra Nystrom", "field_dob": "", "field_dod": "", "field_school_movement": "", "view_node": "/poet/debra-nystrom", "field_state": "Virginia"}, {"poets": "Katerina Anghelaki-Rooke", "field_dob": "", "field_dod": "", "field_school_movement": "", "view_node": "/poet/katerina-anghelaki-rooke", "field_state": ""}, {"poets": "Alex Lemon", "field_dob": "", "field_dod": "", "field_school_movement": "", "view_node": "/poet/alex-lemon", "field_state": ""}, {"poets": "Ernesto Cardenal", "field_dob": "", "field_dod": "", "field_school_movement": "", "view_node": "/poet/ernesto-cardenal", "field_state": ""}, {"poets": "Donald Platt", "field_dob": "", "field_dod": "", "field_school_movement": "", "view_node": "/poet/donald-platt", "field_state": ""}, {"poets": "Wei Ying-wu", "field_dob": "", "field_dod": "", "field_school_movement": "", "view_node": "/poet/wei-ying-wu", "field_state": ""}, {"poets": "Paul Otremba", "field_dob": "", "field_dod": "", "field_school_movement": "", "view_node": "/poet/paul-otremba", "field_state": ""}, {"poets": "Lisa Olstein", "field_dob": "", "field_dod": "", "field_school_movement": "", "view_node": "/poet/lisa-olstein", "field_state": ""}], "pager": {"current_page": 121, "total_items": "3766", "total_pages": 189, "items_per_page": 20}}