{"rows": [{"poets": "Jenny Xie", "field_dob": "", "field_dod": "", "field_school_movement": "", "view_node": "/poet/jenny-xie", "field_state": "New York"}, {"poets": "Natalie Shapero", "field_dob": "", "field_dod": "", "field_school_movement": "", "view_node": "/poet/natalie-shapero", "field_state": ""}, {"poets": "Nathan McClain", "field_dob": "", "field_dod": "", "field_school_movement": "", "view_node": "/poet/nathan-mcclain", "field_state": ""}, {"poets": "Kaveh Akbar", "field_dob": "", "field_dod": "", "field_school_movement": "", "view_node": "/poet/kaveh-akbar", "field_state": ""}, {"poets": "Wyatt Townley", "field_dob": "", "field_dod": "", "field_school_movement": "", "view_node": "/poet/wyatt-townley", "field_state": "Kansas"}, {"poets": "Nicole Sealey", "field_dob": "", "field_dod": "", "field_school_movement": "", "view_node": "/poet/nicole-sealey", "field_state": ""}, {"poets": "Andre Yang", "field_dob": "", "field_dod": "", "field_school_movement": "Contemporary", "view_node": "/poet/andre-yang", "field_state": "California"}, {"poets": "Mark Wagenaar", "field_dob": "", "field_dod": "", "field_school_movement": "", "view_node": "/poet/mark-wagenaar", "field_state": ""}, {"poets": "Elizabeth Lindsey Rogers", "field_dob": "", "field_dod": "", "field_school_movement": "", "view_node": "/poet/elizabeth-lindsey-rogers", "field_state": ""}, {"poets": "Katie Willingham", "field_dob": "", "field_dod": "", "field_school_movement": "", "view_node": "/poet/katie-willingham", "field_state": ""}, {"poets": "Sarah Blake", "field_dob": "", "field_dod": "", "field_school_movement": "", "view_node": "/poet/sarah-blake", "field_state": ""}, {"poets": "Stephen Cramer", "field_dob": "", "field_dod": "", "field_school_movement": "", "view_node": "/poet/stephen-cramer", "field_state": ""}, {"poets": "Elena Karina Byrne ", "field_dob": "", "field_dod": "", "field_school_movement": "", "view_node": "/poet/elena-karina-byrne", "field_state": ""}, {"poets": "Mahtem  Shiferraw", "field_dob": "", "field_dod": "", "field_school_movement": "", "view_node": "/poet/mahtem-shiferraw", "field_state": ""}, {"poets": "Joy Katz", "field_dob": "", "field_dod": "", "field_school_movement": "", "view_node": "/poet/joy-katz", "field_state": ""}, {"poets": "Deborah Paredez", "field_dob": "", "field_dod": "", "field_school_movement": "", "view_node": "/poet/deborah-paredez", "field_state": ""}, {"poets": "Kim Dower", "field_dob": "", "field_dod": "", "field_school_movement": "", "view_node": "/poet/kim-dower", "field_state": ""}, {"poets": "Angela Veronica Wong", "field_dob": "", "field_dod": "", "field_school_movement": "", "view_node": "/poet/angela-veronica-wong", "field_state": ""}, {"poets": "Erika Jo Brown", "field_dob": "", "field_dod": "", "field_school_movement": "", "view_node": "/poet/erika-jo-brown", "field_state": ""}, {"poets": "Khaty Xiong", "field_dob": "", "field_dod": "", "field_school_movement": "Contemporary", "view_node": "/poet/khaty-xiong", "field_state": "Ohio"}], "pager": {"current_page": 62, "total_items": "3766", "total_pages": 189, "items_per_page": 20}}