{"rows": [{"poets": "Hans Faverey", "field_dob": "", "field_dod": "", "field_school_movement": "", "view_node": "/poet/hans-faverey", "field_state": ""}, {"poets": "Carol Mirakove", "field_dob": "", "field_dod": "", "field_school_movement": "", "view_node": "/poet/carol-mirakove", "field_state": "New York"}, {"poets": "Judith Vollmer", "field_dob": "", "field_dod": "", "field_school_movement": "", "view_node": "/poet/judith-vollmer", "field_state": ""}, {"poets": "Tina Chang", "field_dob": "1969", "field_dod": "", "field_school_movement": "Contemporary", "view_node": "/poet/tina-chang", "field_state": "New York"}, {"poets": "Srikanth Reddy", "field_dob": "", "field_dod": "", "field_school_movement": "", "view_node": "/poet/srikanth-reddy", "field_state": ""}, {"poets": "Stephen Beal", "field_dob": "", "field_dod": "", "field_school_movement": "", "view_node": "/poet/stephen-beal", "field_state": ""}, {"poets": "Marjorie Welish", "field_dob": "", "field_dod": "", "field_school_movement": "", "view_node": "/poet/marjorie-welish", "field_state": ""}, {"poets": "Julie Williams", "field_dob": "", "field_dod": "", "field_school_movement": "", "view_node": "/poet/julie-williams", "field_state": ""}, {"poets": "Eloise Bruce", "field_dob": "", "field_dod": "", "field_school_movement": "", "view_node": "/poet/eloise-bruce", "field_state": ""}, {"poets": "Baron Wormser", "field_dob": "1948", "field_dod": "", "field_school_movement": "Contemporary", "view_node": "/poet/baron-wormser", "field_state": "Vermont"}, {"poets": "Joseph Stroud", "field_dob": "", "field_dod": "", "field_school_movement": "", "view_node": "/poet/joseph-stroud", "field_state": "California"}, {"poets": "Lorenzo Thomas", "field_dob": "", "field_dod": "", "field_school_movement": "", "view_node": "/poet/lorenzo-thomas", "field_state": ""}, {"poets": "Jeanne Steig", "field_dob": "", "field_dod": "", "field_school_movement": "", "view_node": "/poet/jeanne-steig", "field_state": ""}, {"poets": "Celia Bland", "field_dob": "", "field_dod": "", "field_school_movement": "", "view_node": "/poet/celia-bland", "field_state": ""}, {"poets": "Robert Pack", "field_dob": "", "field_dod": "", "field_school_movement": "", "view_node": "/poet/robert-pack", "field_state": "Vermont"}, {"poets": "Rachel Levitsky", "field_dob": "", "field_dod": "", "field_school_movement": "", "view_node": "/poet/rachel-levitsky", "field_state": ""}, {"poets": "Ren\u00e9 Char", "field_dob": "1907", "field_dod": "1988", "field_school_movement": "", "view_node": "/poet/rene-char", "field_state": ""}, {"poets": "Gretchen Mattox", "field_dob": "", "field_dod": "", "field_school_movement": "", "view_node": "/poet/gretchen-mattox", "field_state": ""}, {"poets": "Don Paterson", "field_dob": "", "field_dod": "", "field_school_movement": "", "view_node": "/poet/don-paterson", "field_state": ""}, {"poets": "Gerry LaFemina", "field_dob": "", "field_dod": "", "field_school_movement": "", "view_node": "/poet/gerry-lafemina", "field_state": ""}], "pager": {"current_page": 147, "total_items": "3766", "total_pages": 189, "items_per_page": 20}}