{"rows": [{"poets": "Oni Buchanan", "field_dob": "", "field_dod": "", "field_school_movement": "", "view_node": "/poet/oni-buchanan", "field_state": ""}, {"poets": "James Monroe Whitfield", "field_dob": "", "field_dod": "", "field_school_movement": "", "view_node": "/poet/james-monroe-whitfield", "field_state": ""}, {"poets": "Gregory Pardlo", "field_dob": "", "field_dod": "", "field_school_movement": "Contemporary", "view_node": "/poet/gregory-pardlo", "field_state": ""}, {"poets": "Jenny Boully", "field_dob": "", "field_dod": "", "field_school_movement": "", "view_node": "/poet/jenny-boully", "field_state": ""}, {"poets": "Sir John Suckling", "field_dob": "", "field_dod": "", "field_school_movement": "", "view_node": "/poet/sir-john-suckling", "field_state": ""}, {"poets": "Henry Vaughan", "field_dob": "1622", "field_dod": "1695", "field_school_movement": "Metaphysical Poet", "view_node": "/poet/henry-vaughan", "field_state": ""}, {"poets": "George Macdonald", "field_dob": "", "field_dod": "", "field_school_movement": "", "view_node": "/poet/george-macdonald", "field_state": ""}, {"poets": "Laurence Alma-Tadema", "field_dob": "", "field_dod": "", "field_school_movement": "", "view_node": "/poet/laurence-alma-tadema", "field_state": ""}, {"poets": "Henry Charles Beeching", "field_dob": "", "field_dod": "", "field_school_movement": "", "view_node": "/poet/henry-charles-beeching", "field_state": ""}, {"poets": "Isaac Watts", "field_dob": "", "field_dod": "", "field_school_movement": "", "view_node": "/poet/isaac-watts", "field_state": ""}, {"poets": "Sara Coleridge", "field_dob": "", "field_dod": "", "field_school_movement": "", "view_node": "/poet/sara-coleridge", "field_state": ""}, {"poets": "Margaret Thomson Janvier", "field_dob": "", "field_dod": "", "field_school_movement": "", "view_node": "/poet/margaret-thomson-janvier", "field_state": ""}, {"poets": "Jane Taylor", "field_dob": "", "field_dod": "", "field_school_movement": "", "view_node": "/poet/jane-taylor", "field_state": ""}, {"poets": "Hugo Ball", "field_dob": "", "field_dod": "", "field_school_movement": "", "view_node": "/poet/hugo-ball", "field_state": ""}, {"poets": "Jena Osman", "field_dob": "", "field_dod": "", "field_school_movement": "", "view_node": "/poet/jena-osman", "field_state": ""}, {"poets": "Haniel Long", "field_dob": "", "field_dod": "", "field_school_movement": "", "view_node": "/poet/haniel-long", "field_state": ""}, {"poets": "Ernest Dowson", "field_dob": "", "field_dod": "", "field_school_movement": "", "view_node": "/poet/ernest-dowson", "field_state": ""}, {"poets": "William Ernest Henley", "field_dob": "1849", "field_dod": "1903", "field_school_movement": "", "view_node": "/poet/william-ernest-henley", "field_state": ""}, {"poets": "Samuel Daniel", "field_dob": "", "field_dod": "", "field_school_movement": "", "view_node": "/poet/samuel-daniel", "field_state": ""}, {"poets": "John Gay", "field_dob": "", "field_dod": "", "field_school_movement": "", "view_node": "/poet/john-gay", "field_state": ""}], "pager": {"current_page": 125, "total_items": "3766", "total_pages": 189, "items_per_page": 20}}