{"rows": [{"poets": "Paul Verlaine", "field_dob": "1844", "field_dod": "1896", "field_school_movement": "Symbolists", "view_node": "/poet/paul-verlaine", "field_state": ""}, {"poets": "Cola Franzen", "field_dob": "", "field_dod": "", "field_school_movement": "", "view_node": "/poet/cola-franzen", "field_state": "Massachusetts"}, {"poets": "Mart\u00edn Espada", "field_dob": "1957", "field_dod": "", "field_school_movement": "", "view_node": "/poet/martin-espada", "field_state": "Massachusetts"}, {"poets": "Susan Stewart", "field_dob": "1952", "field_dod": "", "field_school_movement": "", "view_node": "/poet/susan-stewart", "field_state": ""}, {"poets": "Carl Phillips", "field_dob": "1959", "field_dod": "", "field_school_movement": "Dark Room Collective", "view_node": "/poet/carl-phillips", "field_state": "Missouri"}, {"poets": "Elizabeth Alexander", "field_dob": "1962", "field_dod": "", "field_school_movement": "Contemporary", "view_node": "/poet/elizabeth-alexander", "field_state": "New York"}, {"poets": "Seamus Heaney", "field_dob": "1939", "field_dod": "2013", "field_school_movement": "Formalism", "view_node": "/poet/seamus-heaney", "field_state": ""}, {"poets": "Jackson Mac Low", "field_dob": "1922", "field_dod": "2004", "field_school_movement": "Language Poetry", "view_node": "/poet/jackson-mac-low", "field_state": ""}, {"poets": "Timothy Liu", "field_dob": "", "field_dod": "", "field_school_movement": "Contemporary", "view_node": "/poet/timothy-liu", "field_state": ""}, {"poets": "Robert Duncan", "field_dob": "1919", "field_dod": "1988", "field_school_movement": "San Francisco Renaissance, Black Mountain", "view_node": "/poet/robert-duncan", "field_state": "California"}, {"poets": "Michael Palmer", "field_dob": "1942", "field_dod": "", "field_school_movement": "Language Poetry", "view_node": "/poet/michael-palmer", "field_state": "New York"}, {"poets": "Rosanna Warren", "field_dob": "1953", "field_dod": "", "field_school_movement": "Contemporary", "view_node": "/poet/rosanna-warren", "field_state": ""}, {"poets": "Philip Booth", "field_dob": "1925", "field_dod": "2007", "field_school_movement": "Contemporary", "view_node": "/poet/philip-booth", "field_state": "Maine"}, {"poets": "Paul Mariani", "field_dob": "1940", "field_dod": "", "field_school_movement": "", "view_node": "/poet/paul-mariani", "field_state": "New York"}, {"poets": "Siv Cedering", "field_dob": "1939", "field_dod": "2007", "field_school_movement": "", "view_node": "/poet/siv-cedering", "field_state": "New York"}, {"poets": "Rupert Brooke", "field_dob": "1887", "field_dod": "1915", "field_school_movement": "Poets of World War I", "view_node": "/poet/rupert-brooke", "field_state": ""}, {"poets": "Louise Gl\u00fcck", "field_dob": "1943", "field_dod": "", "field_school_movement": "Contemporary", "view_node": "/poet/louise-gluck", "field_state": "New York"}, {"poets": "Matthew Arnold", "field_dob": "1822", "field_dod": "1888", "field_school_movement": "", "view_node": "/poet/matthew-arnold", "field_state": ""}, {"poets": "Amy Clampitt", "field_dob": "1920", "field_dod": "1994", "field_school_movement": "", "view_node": "/poet/amy-clampitt", "field_state": "Iowa"}, {"poets": "Heather McHugh", "field_dob": "1948", "field_dod": "", "field_school_movement": "", "view_node": "/poet/heather-mchugh", "field_state": "Washington"}], "pager": {"current_page": 186, "total_items": "3766", "total_pages": 189, "items_per_page": 20}}