{"rows": [{"poets": "Claudia Masin", "field_dob": "", "field_dod": "", "field_school_movement": "", "view_node": "/poet/claudia-masin", "field_state": ""}, {"poets": "Robin Myers", "field_dob": "", "field_dod": "", "field_school_movement": "", "view_node": "/poet/robin-myers", "field_state": ""}, {"poets": "Ren\u00e9e Watson", "field_dob": "", "field_dod": "", "field_school_movement": "", "view_node": "/poet/renee-watson", "field_state": ""}, {"poets": "Iliana Rocha", "field_dob": "", "field_dod": "", "field_school_movement": "", "view_node": "/poet/iliana-rocha", "field_state": ""}, {"poets": "Don Share ", "field_dob": "", "field_dod": "", "field_school_movement": "", "view_node": "/poet/don-share", "field_state": ""}, {"poets": "Corey Marks", "field_dob": "", "field_dod": "", "field_school_movement": "", "view_node": "/poet/corey-marks", "field_state": ""}, {"poets": "Chris Tonelli", "field_dob": "", "field_dod": "", "field_school_movement": "", "view_node": "/poet/chris-tonelli", "field_state": ""}, {"poets": "Ricardo Alberto Maldonado", "field_dob": "", "field_dod": "", "field_school_movement": "", "view_node": "/poet/ricardo-alberto-maldonado", "field_state": ""}, {"poets": "Jonathan Teklit", "field_dob": "", "field_dod": "", "field_school_movement": "", "view_node": "/poet/jonathan-teklit", "field_state": ""}, {"poets": "Will Schutt", "field_dob": "", "field_dod": "", "field_school_movement": "", "view_node": "/poet/will-schutt", "field_state": ""}, {"poets": "Q. R. Hand, Jr. ", "field_dob": "1937", "field_dod": "2020", "field_school_movement": "San Francisco Renaissance", "view_node": "/poet/q-r-hand-jr", "field_state": ""}, {"poets": "Jacob Rogers", "field_dob": "", "field_dod": "", "field_school_movement": "", "view_node": "/poet/jacob-rogers", "field_state": ""}, {"poets": "Alba Cid", "field_dob": "", "field_dod": "", "field_school_movement": "", "view_node": "/poet/alba-cid", "field_state": ""}, {"poets": "Steven Alvarez", "field_dob": "", "field_dod": "", "field_school_movement": "", "view_node": "/poet/steven-alvarez", "field_state": ""}, {"poets": "Jake Skeets", "field_dob": "", "field_dod": "", "field_school_movement": "", "view_node": "/poet/jake-skeets", "field_state": "Arizona"}, {"poets": "Margo Tamez", "field_dob": "", "field_dod": "", "field_school_movement": "", "view_node": "/poet/margo-tamez", "field_state": ""}, {"poets": "Gloria Mu\u00f1oz", "field_dob": "", "field_dod": "", "field_school_movement": "", "view_node": "/poet/gloria-munoz", "field_state": ""}, {"poets": "Fabio Pusterla ", "field_dob": "", "field_dod": "", "field_school_movement": "", "view_node": "/poet/fabio-pusterla", "field_state": ""}, {"poets": "Dorothy Tse", "field_dob": "", "field_dod": "", "field_school_movement": "", "view_node": "/poet/dorothy-tse", "field_state": ""}, {"poets": "Hali Sofala-Jones", "field_dob": "", "field_dod": "", "field_school_movement": "", "view_node": "/poet/hali-sofala-jones", "field_state": ""}], "pager": {"current_page": 33, "total_items": "3766", "total_pages": 189, "items_per_page": 20}}