{"rows": [{"poets": "Rachel Mennies", "field_dob": "", "field_dod": "", "field_school_movement": "", "view_node": "/poet/rachel-mennies", "field_state": ""}, {"poets": "Florence Wheelock Ayscough", "field_dob": "1875", "field_dod": "1942", "field_school_movement": "", "view_node": "/poet/florence-wheelock-ayscough", "field_state": ""}, {"poets": "Queen Lili\u02bbuokalani", "field_dob": "1838", "field_dod": "1917", "field_school_movement": "", "view_node": "/poet/queen-liliuokalani", "field_state": "Hawaii"}, {"poets": "Benjamin Banneker", "field_dob": "", "field_dod": "", "field_school_movement": "", "view_node": "/poet/benjamin-banneker", "field_state": ""}, {"poets": "Jit\u014d Tenn\u014d", "field_dob": "", "field_dod": "", "field_school_movement": "", "view_node": "/poet/jito-tenno", "field_state": ""}, {"poets": "Jane Wong", "field_dob": "", "field_dod": "", "field_school_movement": "", "view_node": "/poet/jane-wong", "field_state": ""}, {"poets": "Jose Hernandez Diaz", "field_dob": "", "field_dod": "", "field_school_movement": "", "view_node": "/poet/jose-hernandez-diaz", "field_state": ""}, {"poets": "Destiny O. Birdsong ", "field_dob": "", "field_dod": "", "field_school_movement": "", "view_node": "/poet/destiny-o-birdsong", "field_state": ""}, {"poets": "Arisa White", "field_dob": "", "field_dod": "", "field_school_movement": "", "view_node": "/poet/arisa-white", "field_state": ""}, {"poets": "Brittney Corrigan ", "field_dob": "", "field_dod": "", "field_school_movement": "", "view_node": "/poet/brittney-corrigan", "field_state": ""}, {"poets": "Lewis Grandison Alexander ", "field_dob": "", "field_dod": "", "field_school_movement": "", "view_node": "/poet/lewis-grandison-alexander", "field_state": ""}, {"poets": "Ariel Francisco", "field_dob": "", "field_dod": "", "field_school_movement": "", "view_node": "/poet/ariel-francisco", "field_state": ""}, {"poets": "Carlos Bulosan", "field_dob": "1913", "field_dod": "1956", "field_school_movement": "", "view_node": "/poet/carlos-bulosan", "field_state": ""}, {"poets": "W. E. B. Du Bois", "field_dob": "1868", "field_dod": "1963", "field_school_movement": "", "view_node": "/poet/w-e-b-du-bois", "field_state": ""}, {"poets": "Andr\u00e9 Naffis-Sahely", "field_dob": "", "field_dod": "", "field_school_movement": "", "view_node": "/poet/andre-naffis-sahely", "field_state": ""}, {"poets": "Brian Sneeden", "field_dob": "", "field_dod": "", "field_school_movement": "", "view_node": "/poet/brian-sneeden", "field_state": ""}, {"poets": "Rosemary Catacalos", "field_dob": "", "field_dod": "", "field_school_movement": "", "view_node": "/poet/rosemary-catacalos", "field_state": "Texas"}, {"poets": "Iris Jamahl Dunkle", "field_dob": "", "field_dod": "", "field_school_movement": "", "view_node": "/poet/iris-jamahl-dunkle", "field_state": ""}, {"poets": "Ana Castillo ", "field_dob": "", "field_dod": "", "field_school_movement": "", "view_node": "/poet/ana-castillo", "field_state": ""}, {"poets": "Kemi Alabi", "field_dob": "", "field_dod": "", "field_school_movement": "", "view_node": "/poet/kemi-alabi", "field_state": ""}], "pager": {"current_page": 17, "total_items": "3766", "total_pages": 189, "items_per_page": 20}}