{"rows": [{"poets": "Ameen Rihani", "field_dob": "1876", "field_dod": "1940", "field_school_movement": "", "view_node": "/poet/ameen-rihani", "field_state": ""}, {"poets": "Michael Simms", "field_dob": "", "field_dod": "", "field_school_movement": "", "view_node": "/poet/michael-simms", "field_state": ""}, {"poets": "Zeina Azzam", "field_dob": "", "field_dod": "", "field_school_movement": "", "view_node": "/poet/zeina-azzam", "field_state": ""}, {"poets": "Kirk Wilson", "field_dob": "", "field_dod": "", "field_school_movement": "", "view_node": "/poet/kirk-wilson", "field_state": ""}, {"poets": "Samuel Hazo", "field_dob": "", "field_dod": "", "field_school_movement": "", "view_node": "/poet/samuel-hazo", "field_state": ""}, {"poets": "Vita Sackville-West", "field_dob": "1892", "field_dod": "1962", "field_school_movement": "", "view_node": "/poet/vita-sackville-west", "field_state": ""}, {"poets": "Mohja Kahf", "field_dob": "", "field_dod": "", "field_school_movement": "", "view_node": "/poet/mohja-kahf", "field_state": ""}, {"poets": "Jameson Fitzpatrick", "field_dob": "", "field_dod": "", "field_school_movement": "", "view_node": "/poet/jameson-fitzpatrick", "field_state": ""}, {"poets": "Farnaz Fatemi", "field_dob": "", "field_dod": "", "field_school_movement": "", "view_node": "/poet/farnaz-fatemi", "field_state": ""}, {"poets": "Tracy Fuad", "field_dob": "", "field_dod": "", "field_school_movement": "", "view_node": "/poet/tracy-fuad", "field_state": ""}, {"poets": "Qwo-Li Driskill ", "field_dob": "", "field_dod": "", "field_school_movement": "", "view_node": "/poet/qwo-li-driskill", "field_state": ""}, {"poets": "Brian Tierney", "field_dob": "", "field_dod": "", "field_school_movement": "", "view_node": "/poet/brian-tierney", "field_state": ""}, {"poets": "Dana Jaye Cadman", "field_dob": "", "field_dod": "", "field_school_movement": "", "view_node": "/poet/dana-jaye-cadman", "field_state": ""}, {"poets": "Jody Chan ", "field_dob": "", "field_dod": "", "field_school_movement": "", "view_node": "/poet/jody-chan", "field_state": ""}, {"poets": "Aurora Levins Morales ", "field_dob": "", "field_dod": "", "field_school_movement": "", "view_node": "/poet/aurora-levins-morales", "field_state": ""}, {"poets": "Evan Gill Smith", "field_dob": "", "field_dod": "", "field_school_movement": "", "view_node": "/poet/evan-gill-smith", "field_state": ""}, {"poets": "Emily Pittinos", "field_dob": "", "field_dod": "", "field_school_movement": "", "view_node": "/poet/emily-pittinos", "field_state": ""}, {"poets": "No\u02bbu Revilla", "field_dob": "", "field_dod": "", "field_school_movement": "", "view_node": "/poet/nou-revilla", "field_state": ""}, {"poets": "Stefania Gomez", "field_dob": "", "field_dod": "", "field_school_movement": "", "view_node": "/poet/stefania-gomez", "field_state": ""}, {"poets": "Youmna Chlala", "field_dob": "", "field_dod": "", "field_school_movement": "", "view_node": "/poet/youmna-chlala", "field_state": ""}], "pager": {"current_page": 6, "total_items": "3766", "total_pages": 189, "items_per_page": 20}}