{"rows": [{"poets": "Toma\u017e \u0160alamun", "field_dob": "1941", "field_dod": "2014", "field_school_movement": "Modernism", "view_node": "/poet/tomaz-salamun", "field_state": ""}, {"poets": "Sam Hamill", "field_dob": "", "field_dod": "2018", "field_school_movement": "Contemporary", "view_node": "/poet/sam-hamill", "field_state": "Washington"}, {"poets": "Edward Fitzgerald", "field_dob": "", "field_dod": "", "field_school_movement": "", "view_node": "/poet/edward-fitzgerald", "field_state": ""}, {"poets": "Frank Stanford", "field_dob": "1948", "field_dod": "1978", "field_school_movement": "Contemporary", "view_node": "/poet/frank-stanford", "field_state": "Arkansas"}, {"poets": "Lynda Hull", "field_dob": "1954", "field_dod": "", "field_school_movement": "", "view_node": "/poet/lynda-hull", "field_state": ""}, {"poets": "Lorine Niedecker", "field_dob": "1903", "field_dod": "1970", "field_school_movement": "Objectivists", "view_node": "/poet/lorine-niedecker", "field_state": "Wisconsin"}, {"poets": "Weldon Kees", "field_dob": "1914", "field_dod": "1955", "field_school_movement": "", "view_node": "/poet/weldon-kees", "field_state": "California"}, {"poets": "Kim Addonizio", "field_dob": "1954", "field_dod": "", "field_school_movement": "", "view_node": "/poet/kim-addonizio", "field_state": "California"}, {"poets": "C. D. Wright", "field_dob": "1949", "field_dod": "2016", "field_school_movement": "Contemporary", "view_node": "/poet/c-d-wright", "field_state": "Rhode Island"}, {"poets": "Edgar Guest", "field_dob": "1881", "field_dod": "1959", "field_school_movement": "", "view_node": "/poet/edgar-guest", "field_state": "Michigan"}, {"poets": "Ted Berrigan", "field_dob": "1934", "field_dod": "1983", "field_school_movement": "New York School, Beat", "view_node": "/poet/ted-berrigan", "field_state": "New York"}, {"poets": "Christina Rossetti", "field_dob": "1830", "field_dod": "1894", "field_school_movement": "Victorian", "view_node": "/poet/christina-rossetti", "field_state": ""}, {"poets": "Dante Gabriel Rossetti", "field_dob": "", "field_dod": "", "field_school_movement": "", "view_node": "/poet/dante-gabriel-rossetti", "field_state": ""}, {"poets": "Walter Savage Landor", "field_dob": "", "field_dod": "", "field_school_movement": "", "view_node": "/poet/walter-savage-landor", "field_state": ""}, {"poets": "John Greenleaf Whittier", "field_dob": "1807", "field_dod": "1892", "field_school_movement": "Fireside Poet", "view_node": "/poet/john-greenleaf-whittier", "field_state": "Massachusetts"}, {"poets": "Sir Walter Scott", "field_dob": "", "field_dod": "", "field_school_movement": "", "view_node": "/poet/sir-walter-scott", "field_state": ""}, {"poets": "Thomas Nashe", "field_dob": "", "field_dod": "", "field_school_movement": "", "view_node": "/poet/thomas-nashe", "field_state": ""}, {"poets": "Richard Lovelace", "field_dob": "", "field_dod": "", "field_school_movement": "", "view_node": "/poet/richard-lovelace", "field_state": ""}, {"poets": "James Joyce", "field_dob": "1882", "field_dod": "1941", "field_school_movement": "", "view_node": "/poet/james-joyce", "field_state": ""}, {"poets": "Thomas Carew", "field_dob": "", "field_dod": "", "field_school_movement": "", "view_node": "/poet/thomas-carew", "field_state": ""}], "pager": {"current_page": 167, "total_items": "3766", "total_pages": 189, "items_per_page": 20}}