{"rows": [{"poets": "Mary Stewart Hammond", "field_dob": "", "field_dod": "", "field_school_movement": "", "view_node": "/poet/mary-stewart-hammond", "field_state": ""}, {"poets": "Lauren K. Alleyne", "field_dob": "", "field_dod": "", "field_school_movement": "", "view_node": "/poet/lauren-k-alleyne", "field_state": ""}, {"poets": "Marthe Reed", "field_dob": "", "field_dod": "2018", "field_school_movement": "", "view_node": "/poet/marthe-reed", "field_state": ""}, {"poets": "Elizabeth Knapp", "field_dob": "", "field_dod": "", "field_school_movement": "", "view_node": "/poet/elizabeth-knapp", "field_state": ""}, {"poets": "Luiza Flynn-Goodlett", "field_dob": "", "field_dod": "", "field_school_movement": "", "view_node": "/poet/luiza-flynn-goodlett", "field_state": ""}, {"poets": "Dorothy Chan", "field_dob": "", "field_dod": "", "field_school_movement": "", "view_node": "/poet/dorothy-chan", "field_state": ""}, {"poets": "Emma Bolden", "field_dob": "", "field_dod": "", "field_school_movement": "", "view_node": "/poet/emma-bolden", "field_state": ""}, {"poets": "CM Burroughs", "field_dob": "", "field_dod": "", "field_school_movement": "", "view_node": "/poet/cm-burroughs", "field_state": ""}, {"poets": "Marcelo Hernandez Castillo", "field_dob": "", "field_dod": "", "field_school_movement": "", "view_node": "/poet/marcelo-hernandez-castillo", "field_state": "California"}, {"poets": "Anna Swir", "field_dob": "", "field_dod": "", "field_school_movement": "", "view_node": "/poet/anna-swir", "field_state": ""}, {"poets": "Emily Skaja", "field_dob": "", "field_dod": "", "field_school_movement": "", "view_node": "/poet/emily-skaja", "field_state": "Ohio"}, {"poets": "Noor Jaber", "field_dob": "", "field_dod": "", "field_school_movement": "", "view_node": "/poet/noor-jaber", "field_state": ""}, {"poets": "jayy  dodd", "field_dob": "", "field_dod": "", "field_school_movement": "", "view_node": "/poet/jayy-dodd", "field_state": ""}, {"poets": "Raquel Salas Rivera", "field_dob": "", "field_dod": "", "field_school_movement": "", "view_node": "/poet/raquel-salas-rivera", "field_state": ""}, {"poets": "Cameron Awkward-Rich", "field_dob": "", "field_dod": "", "field_school_movement": "", "view_node": "/poet/cameron-awkward-rich", "field_state": ""}, {"poets": "William Archila", "field_dob": "", "field_dod": "", "field_school_movement": "", "view_node": "/poet/william-archila", "field_state": ""}, {"poets": "Alexandra Lytton Regalado", "field_dob": "", "field_dod": "", "field_school_movement": "", "view_node": "/poet/alexandra-lytton-regalado", "field_state": ""}, {"poets": "Lucy Ives", "field_dob": "", "field_dod": "", "field_school_movement": "", "view_node": "/poet/lucy-ives", "field_state": ""}, {"poets": "Leticia Hern\u00e1ndez-Linares", "field_dob": "", "field_dod": "", "field_school_movement": "", "view_node": "/poet/leticia-hernandez-linares", "field_state": "California"}, {"poets": "Raymond Luczak", "field_dob": "", "field_dod": "", "field_school_movement": "", "view_node": "/poet/raymond-luczak", "field_state": "Minnesota"}], "pager": {"current_page": 52, "total_items": "3766", "total_pages": 189, "items_per_page": 20}}