{"rows": [{"poets": "Matsuo Basho", "field_dob": "1644", "field_dod": "1694", "field_school_movement": "", "view_node": "/poet/matsuo-basho", "field_state": ""}, {"poets": "Danielle Cadena Deulen", "field_dob": "", "field_dod": "", "field_school_movement": "", "view_node": "/poet/danielle-cadena-deulen", "field_state": "Oregon"}, {"poets": "Tommy Archuleta", "field_dob": "", "field_dod": "", "field_school_movement": "", "view_node": "/poet/tommy-archuleta", "field_state": "New Mexico"}, {"poets": "Medora C. Addison ", "field_dob": "", "field_dod": "", "field_school_movement": "", "view_node": "/poet/medora-c-addison", "field_state": ""}, {"poets": "Philip Matthews", "field_dob": "", "field_dod": "", "field_school_movement": "", "view_node": "/poet/philip-matthews", "field_state": ""}, {"poets": "Justin Phillip Reed", "field_dob": "", "field_dod": "", "field_school_movement": "", "view_node": "/poet/justin-phillip-reed", "field_state": ""}, {"poets": "Paul Tran", "field_dob": "", "field_dod": "", "field_school_movement": "", "view_node": "/poet/paul-tran", "field_state": ""}, {"poets": "Hilda Conkling ", "field_dob": "1910", "field_dod": "1986", "field_school_movement": "", "view_node": "/poet/hilda-conkling", "field_state": ""}, {"poets": "Valencia Robin", "field_dob": "", "field_dod": "", "field_school_movement": "", "view_node": "/poet/valencia-robin", "field_state": ""}, {"poets": "\u00c1ngel Garc\u00eda", "field_dob": "", "field_dod": "", "field_school_movement": "", "view_node": "/poet/angel-garcia", "field_state": ""}, {"poets": "Carina del Valle Schorske", "field_dob": "", "field_dod": "", "field_school_movement": "", "view_node": "/poet/carina-del-valle-schorske", "field_state": ""}, {"poets": "Priscilla Jane Thompson", "field_dob": "", "field_dod": "", "field_school_movement": "", "view_node": "/poet/priscilla-jane-thompson", "field_state": ""}, {"poets": "Kenyatta Rogers ", "field_dob": "", "field_dod": "", "field_school_movement": "", "view_node": "/poet/kenyatta-rogers", "field_state": ""}, {"poets": "Marigloria Palma", "field_dob": "", "field_dod": "", "field_school_movement": "", "view_node": "/poet/marigloria-palma", "field_state": ""}, {"poets": "Lucian B. Watkins ", "field_dob": "1879", "field_dod": "1921", "field_school_movement": "", "view_node": "/poet/lucian-b-watkins", "field_state": "Virginia"}, {"poets": "Tommye Blount ", "field_dob": "", "field_dod": "", "field_school_movement": "", "view_node": "/poet/tommye-blount", "field_state": ""}, {"poets": "Walter Everette Hawkins ", "field_dob": "", "field_dod": "", "field_school_movement": "", "view_node": "/poet/walter-everette-hawkins", "field_state": ""}, {"poets": "Raymond Garfield Dandridge ", "field_dob": "", "field_dod": "", "field_school_movement": "", "view_node": "/poet/raymond-garfield-dandridge", "field_state": ""}, {"poets": "Tiphanie Yanique", "field_dob": "", "field_dod": "", "field_school_movement": "", "view_node": "/poet/tiphanie-yanique", "field_state": "Georgia"}, {"poets": "Robbi Nester", "field_dob": "", "field_dod": "", "field_school_movement": "", "view_node": "/poet/robbi-nester", "field_state": ""}], "pager": {"current_page": 28, "total_items": "3766", "total_pages": 189, "items_per_page": 20}}