{"rows": [{"poets": "Ben Jonson", "field_dob": "1572", "field_dod": "1637", "field_school_movement": "", "view_node": "/poet/ben-jonson", "field_state": ""}, {"poets": "Rainer Maria Rilke", "field_dob": "1875", "field_dod": "1926", "field_school_movement": "", "view_node": "/poet/rainer-maria-rilke", "field_state": ""}, {"poets": "Pablo Neruda", "field_dob": "1904", "field_dod": "1973", "field_school_movement": "", "view_node": "/poet/pablo-neruda", "field_state": ""}, {"poets": "Homer", "field_dob": "", "field_dod": "", "field_school_movement": "", "view_node": "/poet/homer", "field_state": ""}, {"poets": "Ovid", "field_dob": "", "field_dod": "", "field_school_movement": "Poets of Exile", "view_node": "/poet/ovid", "field_state": ""}, {"poets": "Jir\u00ed Orten", "field_dob": "1919", "field_dod": "1941", "field_school_movement": "", "view_node": "/poet/jiri-orten", "field_state": ""}, {"poets": "N\u00e2zim Hikmet", "field_dob": "1902", "field_dod": "1963", "field_school_movement": "", "view_node": "/poet/nazim-hikmet", "field_state": ""}, {"poets": "Robert Bly", "field_dob": "1926", "field_dod": "2021", "field_school_movement": "Translators", "view_node": "/poet/robert-bly", "field_state": "Minnesota"}, {"poets": "Christopher Smart", "field_dob": "1722", "field_dod": "1771", "field_school_movement": "", "view_node": "/poet/christopher-smart", "field_state": ""}, {"poets": "Isaac Rosenberg", "field_dob": "1890", "field_dod": "1918", "field_school_movement": "Poets of World War I", "view_node": "/poet/isaac-rosenberg", "field_state": ""}, {"poets": "Gerard Manley Hopkins", "field_dob": "1844", "field_dod": "1889", "field_school_movement": "Victorian", "view_node": "/poet/gerard-manley-hopkins", "field_state": ""}, {"poets": "Stevie Smith", "field_dob": "1902", "field_dod": "1971", "field_school_movement": "Poets of World War I", "view_node": "/poet/stevie-smith", "field_state": ""}, {"poets": "Pat Mora", "field_dob": "1942", "field_dod": "", "field_school_movement": "Contemporary", "view_node": "/poet/pat-mora", "field_state": "New Mexico"}, {"poets": "John Logan", "field_dob": "1923", "field_dod": "1987", "field_school_movement": "", "view_node": "/poet/john-logan", "field_state": "New York"}, {"poets": "Li-Young Lee", "field_dob": "1957", "field_dod": "", "field_school_movement": "", "view_node": "/poet/li-young-lee", "field_state": "Illinois"}, {"poets": "Samuel Taylor Coleridge", "field_dob": "1772", "field_dod": "1834", "field_school_movement": "Romanticism", "view_node": "/poet/samuel-taylor-coleridge", "field_state": ""}, {"poets": "Billy Collins", "field_dob": "1941", "field_dod": "", "field_school_movement": "", "view_node": "/poet/billy-collins", "field_state": "New York"}, {"poets": "Michael S. Harper", "field_dob": "1938", "field_dod": "2016", "field_school_movement": "Jazz Poetry", "view_node": "/poet/michael-s-harper", "field_state": "Rhode Island"}, {"poets": "Sonia Sanchez", "field_dob": "1934", "field_dod": "", "field_school_movement": "Black Arts, Jazz Poetry", "view_node": "/poet/sonia-sanchez", "field_state": "Pennsylvania"}, {"poets": "Claribel Alegr\u00eda", "field_dob": "1924", "field_dod": "2018", "field_school_movement": "", "view_node": "/poet/claribel-alegria", "field_state": ""}], "pager": {"current_page": 184, "total_items": "3766", "total_pages": 189, "items_per_page": 20}}