{"rows": [{"poets": "John Keats", "field_dob": "1795", "field_dod": "1821", "field_school_movement": "Romanticism", "view_node": "/poet/john-keats", "field_state": ""}, {"poets": "Emily Dickinson", "field_dob": "1830", "field_dod": "1886", "field_school_movement": "Romanticism", "view_node": "/poet/emily-dickinson", "field_state": "Massachusetts"}, {"poets": "Langston Hughes", "field_dob": "1901", "field_dod": "1967", "field_school_movement": "Harlem Renaissance, Jazz Poetry", "view_node": "/poet/langston-hughes", "field_state": "New York"}, {"poets": "Robert Frost", "field_dob": "1874", "field_dod": "1963", "field_school_movement": "Modernism", "view_node": "/poet/robert-frost", "field_state": "Massachusetts"}, {"poets": "Naomi Shihab Nye", "field_dob": "1952", "field_dod": "", "field_school_movement": "", "view_node": "/poet/naomi-shihab-nye", "field_state": "Texas"}, {"poets": "Amanda Gorman", "field_dob": "1998", "field_dod": "", "field_school_movement": "Contemporary", "view_node": "/poet/amanda-gorman", "field_state": "California"}, {"poets": "Maya Angelou", "field_dob": "1928", "field_dod": "2014", "field_school_movement": "Contemporary", "view_node": "/poet/maya-angelou", "field_state": "North Carolina"}, {"poets": "Anne Bradstreet", "field_dob": "1612", "field_dod": "1672", "field_school_movement": "", "view_node": "/poet/anne-bradstreet", "field_state": "Massachusetts"}, {"poets": "Ada Lim\u00f3n", "field_dob": "1976", "field_dod": "", "field_school_movement": "Contemporary", "view_node": "/poet/ada-limon", "field_state": "California"}, {"poets": "Walt Whitman", "field_dob": "1819", "field_dod": "1892", "field_school_movement": "Romanticism", "view_node": "/poet/walt-whitman", "field_state": "New York"}, {"poets": "Dylan Thomas", "field_dob": "1914", "field_dod": "1953", "field_school_movement": "", "view_node": "/poet/dylan-thomas", "field_state": ""}, {"poets": "William Wordsworth", "field_dob": "1770", "field_dod": "1850", "field_school_movement": "Romanticism", "view_node": "/poet/william-wordsworth", "field_state": ""}, {"poets": "W. B. Yeats", "field_dob": "1865", "field_dod": "1939", "field_school_movement": "Romanticism", "view_node": "/poet/w-b-yeats", "field_state": ""}, {"poets": "William Shakespeare", "field_dob": "1564", "field_dod": "1616", "field_school_movement": "", "view_node": "/poet/william-shakespeare", "field_state": ""}, {"poets": "Edgar Allan Poe", "field_dob": "1809", "field_dod": "1849", "field_school_movement": "Romanticism", "view_node": "/poet/edgar-allan-poe", "field_state": "Maryland"}, {"poets": "William Blake", "field_dob": "1757", "field_dod": "1827", "field_school_movement": "Romanticism", "view_node": "/poet/william-blake", "field_state": ""}, {"poets": "Myron O\u2019Higgins", "field_dob": "1913", "field_dod": "", "field_school_movement": "", "view_node": "/poet/myron-ohiggins", "field_state": ""}, {"poets": "Michael Field", "field_dob": "", "field_dod": "", "field_school_movement": "", "view_node": "/poet/michael-field", "field_state": ""}, {"poets": "Elizabeth Barnett", "field_dob": "", "field_dod": "", "field_school_movement": "", "view_node": "/poet/elizabeth-barnett", "field_state": ""}, {"poets": "Ladan Osman", "field_dob": "", "field_dod": "", "field_school_movement": "", "view_node": "/poet/ladan-osman-0", "field_state": ""}], "pager": {"current_page": 0, "total_items": "3766", "total_pages": 189, "items_per_page": 20}}