{"rows": [{"poets": "Nezahualcoyotl ", "field_dob": "", "field_dod": "", "field_school_movement": "", "view_node": "/poet/nezahualcoyotl", "field_state": ""}, {"poets": "Daniel Garrison Brinton ", "field_dob": "", "field_dod": "", "field_school_movement": "", "view_node": "/poet/daniel-garrison-brinton", "field_state": ""}, {"poets": "James Hogg", "field_dob": "", "field_dod": "", "field_school_movement": "", "view_node": "/poet/james-hogg", "field_state": ""}, {"poets": "Rasha Abdulhadi", "field_dob": "", "field_dod": "", "field_school_movement": "", "view_node": "/poet/rasha-abdulhadi", "field_state": ""}, {"poets": "Molly McGlennen", "field_dob": "", "field_dod": "", "field_school_movement": "", "view_node": "/poet/molly-mcglennen", "field_state": ""}, {"poets": "Manny Loley", "field_dob": "", "field_dod": "", "field_school_movement": "", "view_node": "/poet/manny-loley", "field_state": ""}, {"poets": "Charlotte Dacre", "field_dob": "", "field_dod": "", "field_school_movement": "", "view_node": "/poet/charlotte-dacre", "field_state": ""}, {"poets": "Shivanee Ramlochan ", "field_dob": "", "field_dod": "", "field_school_movement": "", "view_node": "/poet/shivanee-ramlochan", "field_state": ""}, {"poets": "Noor Hindi", "field_dob": "", "field_dod": "", "field_school_movement": "", "view_node": "/poet/noor-hindi", "field_state": ""}, {"poets": "Ann-Margaret Lim", "field_dob": "", "field_dod": "", "field_school_movement": "", "view_node": "/poet/ann-margaret-lim", "field_state": ""}, {"poets": "Gabrielle Bates", "field_dob": "", "field_dod": "", "field_school_movement": "", "view_node": "/poet/gabrielle-bates", "field_state": ""}, {"poets": "Alfonsina Storni", "field_dob": "", "field_dod": "", "field_school_movement": "", "view_node": "/poet/alfonsina-storni", "field_state": ""}, {"poets": "Leopoldo Lugones", "field_dob": "", "field_dod": "", "field_school_movement": "", "view_node": "/poet/leopoldo-lugones", "field_state": ""}, {"poets": "Edil Hassan", "field_dob": "", "field_dod": "", "field_school_movement": "", "view_node": "/poet/edil-hassan", "field_state": ""}, {"poets": "Aurielle Marie", "field_dob": "", "field_dod": "", "field_school_movement": "", "view_node": "/poet/aurielle-marie", "field_state": ""}, {"poets": "Peter H. Goldsmith", "field_dob": "", "field_dod": "", "field_school_movement": "", "view_node": "/poet/peter-h-goldsmith", "field_state": ""}, {"poets": "Narciso Tondreau", "field_dob": "", "field_dod": "", "field_school_movement": "", "view_node": "/poet/narciso-tondreau", "field_state": ""}, {"poets": "Agnes Blake Poor", "field_dob": "", "field_dod": "", "field_school_movement": "", "view_node": "/poet/agnes-blake-poor", "field_state": ""}, {"poets": "Juana de Ibarbourou", "field_dob": "", "field_dod": "", "field_school_movement": "", "view_node": "/poet/juana-de-ibarbourou", "field_state": ""}, {"poets": "Concei\u00e7\u00e3o Lima", "field_dob": "", "field_dod": "", "field_school_movement": "", "view_node": "/poet/conceicao-lima", "field_state": ""}], "pager": {"current_page": 11, "total_items": "3766", "total_pages": 189, "items_per_page": 20}}