{"rows": [{"poets": "Kevin Varrone", "field_dob": "", "field_dod": "", "field_school_movement": "", "view_node": "/poet/kevin-varrone", "field_state": "Pennsylvania"}, {"poets": "Charlotte Mew", "field_dob": "", "field_dod": "", "field_school_movement": "", "view_node": "/poet/charlotte-mew", "field_state": ""}, {"poets": "Amy Levy", "field_dob": "1861", "field_dod": "1889", "field_school_movement": "", "view_node": "/poet/amy-levy", "field_state": ""}, {"poets": "Noah Falck", "field_dob": "", "field_dod": "", "field_school_movement": "", "view_node": "/poet/noah-falck", "field_state": "New York"}, {"poets": "John Taylor", "field_dob": "", "field_dod": "", "field_school_movement": "", "view_node": "/poet/john-taylor", "field_state": ""}, {"poets": "Jillian Weise", "field_dob": "", "field_dod": "", "field_school_movement": "Contemporary", "view_node": "/poet/jillian-weise", "field_state": ""}, {"poets": "Alice Meynell", "field_dob": "1847", "field_dod": "1922", "field_school_movement": "", "view_node": "/poet/alice-meynell", "field_state": ""}, {"poets": "Katrina Roberts", "field_dob": "", "field_dod": "", "field_school_movement": "Contemporary", "view_node": "/poet/katrina-roberts", "field_state": "Washington"}, {"poets": "Tess Taylor", "field_dob": "", "field_dod": "", "field_school_movement": "", "view_node": "/poet/tess-taylor", "field_state": ""}, {"poets": "Page Starzinger", "field_dob": "", "field_dod": "", "field_school_movement": "", "view_node": "/poet/page-starzinger", "field_state": "New York"}, {"poets": "Jennifer Militello", "field_dob": "", "field_dod": "", "field_school_movement": "", "view_node": "/poet/jennifer-militello", "field_state": ""}, {"poets": "Bryher", "field_dob": "1894", "field_dod": "1983", "field_school_movement": "", "view_node": "/poet/bryher", "field_state": ""}, {"poets": "Elinor Wylie", "field_dob": "1885", "field_dod": "1928", "field_school_movement": "", "view_node": "/poet/elinor-wylie", "field_state": ""}, {"poets": "Francesc Parcerisas", "field_dob": "", "field_dod": "", "field_school_movement": "", "view_node": "/poet/francesc-parcerisas", "field_state": ""}, {"poets": "Joseph Millar", "field_dob": "", "field_dod": "", "field_school_movement": "", "view_node": "/poet/joseph-millar", "field_state": ""}, {"poets": "Joe Hall", "field_dob": "", "field_dod": "", "field_school_movement": "", "view_node": "/poet/joe-hall", "field_state": ""}, {"poets": "Karyna McGlynn", "field_dob": "", "field_dod": "", "field_school_movement": "", "view_node": "/poet/karyna-mcglynn", "field_state": ""}, {"poets": "Marcella Durand", "field_dob": "", "field_dod": "", "field_school_movement": "", "view_node": "/poet/marcella-durand", "field_state": ""}, {"poets": "James Arthur", "field_dob": "", "field_dod": "", "field_school_movement": "", "view_node": "/poet/james-arthur", "field_state": ""}, {"poets": "Angelina Weld Grimk\u00e9", "field_dob": "1880", "field_dod": "1958", "field_school_movement": "", "view_node": "/poet/angelina-weld-grimke", "field_state": ""}], "pager": {"current_page": 95, "total_items": "3766", "total_pages": 189, "items_per_page": 20}}