{"rows": [{"poets": "Karen An-Hwei Lee", "field_dob": "", "field_dod": "", "field_school_movement": "", "view_node": "/poet/karen-hwei-lee", "field_state": "California"}, {"poets": "Melinda Palacio", "field_dob": "", "field_dod": "", "field_school_movement": "", "view_node": "/poet/melinda-palacio", "field_state": ""}, {"poets": "Ellen Hagan", "field_dob": "", "field_dod": "", "field_school_movement": "", "view_node": "/poet/ellen-hagan", "field_state": "New York"}, {"poets": "Julie Bruck", "field_dob": "", "field_dod": "", "field_school_movement": "", "view_node": "/poet/julie-bruck", "field_state": "California"}, {"poets": "Emilia Phillips", "field_dob": "", "field_dod": "", "field_school_movement": "", "view_node": "/poet/emilia-phillips", "field_state": "New Jersey"}, {"poets": "Danez Smith", "field_dob": "", "field_dod": "", "field_school_movement": "", "view_node": "/poet/danez-smith", "field_state": ""}, {"poets": "Ocean Vuong", "field_dob": "1988", "field_dod": "", "field_school_movement": "", "view_node": "/poet/ocean-vuong", "field_state": "New York"}, {"poets": "Camille Rankine", "field_dob": "", "field_dod": "", "field_school_movement": "", "view_node": "/poet/camille-rankine", "field_state": "New York"}, {"poets": "Rickey Laurentiis", "field_dob": "", "field_dod": "", "field_school_movement": "", "view_node": "/poet/rickey-laurentiis", "field_state": "New York"}, {"poets": "Rebecca Foust", "field_dob": "", "field_dod": "", "field_school_movement": "", "view_node": "/poet/rebecca-foust", "field_state": "California"}, {"poets": "Jon Pineda", "field_dob": "", "field_dod": "", "field_school_movement": "", "view_node": "/poet/jon-pineda", "field_state": "Virginia"}, {"poets": "Douglas Piccinnini", "field_dob": "", "field_dod": "", "field_school_movement": "", "view_node": "/poet/douglas-piccinnini", "field_state": "New Jersey"}, {"poets": "Hannah Brooks-Motl", "field_dob": "", "field_dod": "", "field_school_movement": "", "view_node": "/poet/hannah-brooks-motl", "field_state": "Illinois"}, {"poets": "Elisa Gonzalez", "field_dob": "", "field_dod": "", "field_school_movement": "", "view_node": "/poet/elisa-gonzalez", "field_state": ""}, {"poets": "Robin Coste Lewis", "field_dob": "", "field_dod": "", "field_school_movement": "", "view_node": "/poet/robin-coste-lewis", "field_state": "California"}, {"poets": "Natalie Eilbert", "field_dob": "", "field_dod": "", "field_school_movement": "", "view_node": "/poet/natalie-eilbert", "field_state": "New York"}, {"poets": "Andrea Cohen", "field_dob": "", "field_dod": "", "field_school_movement": "", "view_node": "/poet/andrea-cohen", "field_state": "Massachusetts"}, {"poets": "Ed Skoog", "field_dob": "", "field_dod": "", "field_school_movement": "", "view_node": "/poet/ed-skoog", "field_state": "Oregon"}, {"poets": "Christopher Gilbert", "field_dob": "1949", "field_dod": "2007", "field_school_movement": "Contemporary", "view_node": "/poet/christopher-gilbert", "field_state": "Massachusetts"}, {"poets": "Melissa Studdard", "field_dob": "", "field_dod": "", "field_school_movement": "", "view_node": "/poet/melissa-studdard", "field_state": "Texas"}], "pager": {"current_page": 73, "total_items": "3766", "total_pages": 189, "items_per_page": 20}}