{"rows": [{"poets": "Cecilia Llompart", "field_dob": "", "field_dod": "", "field_school_movement": "", "view_node": "/poet/cecilia-llompart", "field_state": ""}, {"poets": "Grace Hazard Conkling", "field_dob": "1878", "field_dod": "1958", "field_school_movement": "", "view_node": "/poet/grace-hazard-conkling", "field_state": "New York"}, {"poets": "Kofi Awoonor", "field_dob": "1935", "field_dod": "2013", "field_school_movement": "", "view_node": "/poet/kofi-awoonor", "field_state": ""}, {"poets": "Pattie McCarthy ", "field_dob": "", "field_dod": "", "field_school_movement": "Contemporary", "view_node": "/poet/pattie-mccarthy", "field_state": ""}, {"poets": "Tsering Wangmo Dhompa", "field_dob": "1969", "field_dod": "", "field_school_movement": "Contemporary", "view_node": "/poet/tsering-wangmo-dhompa", "field_state": "California"}, {"poets": "Kamilah  Aisha Moon", "field_dob": "1973", "field_dod": "2021", "field_school_movement": "Contemporary", "view_node": "/poet/kamilah-aisha-moon", "field_state": ""}, {"poets": "Donald  Dunbar", "field_dob": "", "field_dod": "", "field_school_movement": "Contemporary", "view_node": "/poet/donald-dunbar", "field_state": "Oregon"}, {"poets": "Christie Ann  Reynolds", "field_dob": "", "field_dod": "", "field_school_movement": "Contemporary", "view_node": "/poet/christie-ann-reynolds", "field_state": "New York"}, {"poets": "Samuel Johnson", "field_dob": "1709", "field_dod": "1784", "field_school_movement": "", "view_node": "/poet/samuel-johnson", "field_state": ""}, {"poets": "Bill Knott", "field_dob": "1940", "field_dod": "2014", "field_school_movement": "", "view_node": "/poet/bill-knott", "field_state": "Michigan"}, {"poets": "Dudley Fitts", "field_dob": "", "field_dod": "", "field_school_movement": "", "view_node": "/poet/dudley-fitts", "field_state": ""}, {"poets": "Leonora Speyer", "field_dob": "", "field_dod": "", "field_school_movement": "", "view_node": "/poet/leonora-speyer", "field_state": ""}, {"poets": "Bianca Stone", "field_dob": "", "field_dod": "", "field_school_movement": "", "view_node": "/poet/bianca-stone", "field_state": ""}, {"poets": "Peter Hargitai", "field_dob": "", "field_dod": "", "field_school_movement": "", "view_node": "/poet/peter-hargitai", "field_state": ""}, {"poets": "Jared Carter", "field_dob": "1939", "field_dod": "", "field_school_movement": "", "view_node": "/poet/jared-carter", "field_state": ""}, {"poets": "Ed Bok Lee", "field_dob": "", "field_dod": "", "field_school_movement": "", "view_node": "/poet/ed-bok-lee", "field_state": ""}, {"poets": "Victoria Chang", "field_dob": "", "field_dod": "", "field_school_movement": "", "view_node": "/poet/victoria-chang", "field_state": ""}, {"poets": "Brandon Shimoda", "field_dob": "", "field_dod": "", "field_school_movement": "", "view_node": "/poet/brandon-shimoda", "field_state": ""}, {"poets": "Lisa Fishman", "field_dob": "", "field_dod": "", "field_school_movement": "", "view_node": "/poet/lisa-fishman", "field_state": ""}, {"poets": "Tim Dlugos", "field_dob": "1950", "field_dod": "1990", "field_school_movement": "New York School", "view_node": "/poet/tim-dlugos", "field_state": ""}], "pager": {"current_page": 83, "total_items": "3766", "total_pages": 189, "items_per_page": 20}}