{"rows": [{"poets": "Jim Trelease", "field_dob": "", "field_dod": "", "field_school_movement": "", "view_node": "/poet/jim-trelease", "field_state": ""}, {"poets": "Jacqueline Osherow", "field_dob": "", "field_dod": "", "field_school_movement": "", "view_node": "/poet/jacqueline-osherow", "field_state": "Utah"}, {"poets": "B. H. Fairchild", "field_dob": "1942", "field_dod": "", "field_school_movement": "Contemporary", "view_node": "/poet/b-h-fairchild", "field_state": "Kansas"}, {"poets": "Cort Day", "field_dob": "", "field_dod": "", "field_school_movement": "", "view_node": "/poet/cort-day", "field_state": ""}, {"poets": "Robert Casper", "field_dob": "", "field_dod": "", "field_school_movement": "", "view_node": "/poet/robert-casper", "field_state": ""}, {"poets": "David Wright", "field_dob": "", "field_dod": "", "field_school_movement": "", "view_node": "/poet/david-wright", "field_state": ""}, {"poets": "Han Shan", "field_dob": "", "field_dod": "", "field_school_movement": "", "view_node": "/poet/han-shan", "field_state": ""}, {"poets": "\u00c1ngel Gonz\u00e1lez", "field_dob": "1925", "field_dod": "2008", "field_school_movement": "", "view_node": "/poet/angel-gonzalez", "field_state": ""}, {"poets": "Virgil", "field_dob": "", "field_dod": "", "field_school_movement": "", "view_node": "/poet/virgil", "field_state": ""}, {"poets": "Travis Nichols", "field_dob": "", "field_dod": "", "field_school_movement": "", "view_node": "/poet/travis-nichols", "field_state": ""}, {"poets": "Yosl Grinshpan", "field_dob": "", "field_dod": "", "field_school_movement": "", "view_node": "/poet/yosl-grinshpan", "field_state": ""}, {"poets": "Nan Cohen", "field_dob": "", "field_dod": "", "field_school_movement": "", "view_node": "/poet/nan-cohen", "field_state": ""}, {"poets": "Frances Chung", "field_dob": "1950", "field_dod": "1990", "field_school_movement": "", "view_node": "/poet/frances-chung", "field_state": "New York"}, {"poets": "Tessa Rumsey", "field_dob": "", "field_dod": "", "field_school_movement": "", "view_node": "/poet/tessa-rumsey", "field_state": ""}, {"poets": "John Kinsella", "field_dob": "", "field_dod": "", "field_school_movement": "", "view_node": "/poet/john-kinsella", "field_state": ""}, {"poets": "Honor Moore", "field_dob": "", "field_dod": "", "field_school_movement": "", "view_node": "/poet/honor-moore", "field_state": ""}, {"poets": "Dana Goodyear", "field_dob": "", "field_dod": "", "field_school_movement": "", "view_node": "/poet/dana-goodyear", "field_state": ""}, {"poets": "Ariel Robello", "field_dob": "", "field_dod": "", "field_school_movement": "", "view_node": "/poet/ariel-robello", "field_state": ""}, {"poets": "Patricia Fargnoli", "field_dob": "", "field_dod": "", "field_school_movement": "", "view_node": "/poet/patricia-fargnoli", "field_state": ""}, {"poets": "David Petruzelli", "field_dob": "", "field_dod": "", "field_school_movement": "", "view_node": "/poet/david-petruzelli", "field_state": ""}], "pager": {"current_page": 139, "total_items": "3766", "total_pages": 189, "items_per_page": 20}}