{"rows": [{"poets": "Carly Joy Miller", "field_dob": "", "field_dod": "", "field_school_movement": "", "view_node": "/poet/carly-joy-miller", "field_state": ""}, {"poets": "Ruth Awad", "field_dob": "", "field_dod": "", "field_school_movement": "", "view_node": "/poet/ruth-awad", "field_state": ""}, {"poets": "David J. Daniels", "field_dob": "", "field_dod": "", "field_school_movement": "", "view_node": "/poet/david-j-daniels", "field_state": ""}, {"poets": "Nicole Homer", "field_dob": "", "field_dod": "", "field_school_movement": "", "view_node": "/poet/nicole-homer", "field_state": ""}, {"poets": "Raymond Antrobus", "field_dob": "", "field_dod": "", "field_school_movement": "", "view_node": "/poet/raymond-antrobus", "field_state": ""}, {"poets": "Jeanann Verlee", "field_dob": "", "field_dod": "", "field_school_movement": "", "view_node": "/poet/jeanann-verlee", "field_state": ""}, {"poets": "Michelangelo Buonarroti", "field_dob": "", "field_dod": "", "field_school_movement": "", "view_node": "/poet/michelangelo-buonarroti", "field_state": ""}, {"poets": "Bertolt Brecht", "field_dob": "1898", "field_dod": "1956", "field_school_movement": "", "view_node": "/poet/bertolt-brecht", "field_state": ""}, {"poets": "Kathleen  Fraser", "field_dob": "1935", "field_dod": "2019", "field_school_movement": "Objectivists, New York School, Black Mountain", "view_node": "/poet/kathleen-fraser", "field_state": "California"}, {"poets": "Cheleta  Tuckson", "field_dob": "", "field_dod": "", "field_school_movement": "", "view_node": "/poet/cheleta-tuckson", "field_state": ""}, {"poets": "Timothy  TB", "field_dob": "", "field_dod": "", "field_school_movement": "", "view_node": "/poet/timothy-tb", "field_state": ""}, {"poets": "Daniel K.", "field_dob": "", "field_dod": "", "field_school_movement": "", "view_node": "/poet/daniel-k", "field_state": ""}, {"poets": "DJ        ", "field_dob": "", "field_dod": "", "field_school_movement": "", "view_node": "/poet/dj", "field_state": ""}, {"poets": "Johnny      ", "field_dob": "", "field_dod": "", "field_school_movement": "", "view_node": "/poet/johnny", "field_state": ""}, {"poets": "Rasheed Copeland", "field_dob": "", "field_dod": "", "field_school_movement": "", "view_node": "/poet/rasheed-copeland", "field_state": ""}, {"poets": "Anis Mojgani", "field_dob": "", "field_dod": "", "field_school_movement": "", "view_node": "/poet/anis-mojgani", "field_state": "Oregon"}, {"poets": "Sarah Kay", "field_dob": "", "field_dod": "", "field_school_movement": "", "view_node": "/poet/sarah-kay", "field_state": ""}, {"poets": "Andrea Gibson", "field_dob": "1975", "field_dod": "", "field_school_movement": "Slam/Spoken Word", "view_node": "/poet/andrea-gibson", "field_state": "Colorado"}, {"poets": "Sally Rosen Kindred", "field_dob": "", "field_dod": "", "field_school_movement": "", "view_node": "/poet/sally-rosen-kindred", "field_state": ""}, {"poets": "Sarah Howe", "field_dob": "", "field_dod": "", "field_school_movement": "", "view_node": "/poet/sarah-howe", "field_state": ""}], "pager": {"current_page": 40, "total_items": "3766", "total_pages": 189, "items_per_page": 20}}