{"rows": [{"poets": "Mahogany L. Browne", "field_dob": "", "field_dod": "", "field_school_movement": "", "view_node": "/poet/mahogany-l-browne", "field_state": "New York"}, {"poets": "Charlotte Bront\u00eb", "field_dob": "1816", "field_dod": "1855", "field_school_movement": "", "view_node": "/poet/charlotte-bronte", "field_state": ""}, {"poets": "Mai Der  Vang ", "field_dob": "1981", "field_dod": "", "field_school_movement": "", "view_node": "/poet/mai-der-vang", "field_state": "California"}, {"poets": "Matthew Yeager", "field_dob": "", "field_dod": "", "field_school_movement": "", "view_node": "/poet/matthew-yeager", "field_state": ""}, {"poets": "Connie Wanek", "field_dob": "", "field_dod": "", "field_school_movement": "", "view_node": "/poet/connie-wanek", "field_state": "Minnesota"}, {"poets": "Raza Ali Hasan", "field_dob": "", "field_dod": "", "field_school_movement": "", "view_node": "/poet/raza-ali-hasan", "field_state": ""}, {"poets": "francine j. harris", "field_dob": "", "field_dod": "", "field_school_movement": "", "view_node": "/poet/francine-j-harris", "field_state": ""}, {"poets": "Margo Taft Stever ", "field_dob": "", "field_dod": "", "field_school_movement": "", "view_node": "/poet/margo-taft-stever", "field_state": ""}, {"poets": "Camille Guthrie", "field_dob": "", "field_dod": "", "field_school_movement": "", "view_node": "/poet/camille-guthrie", "field_state": ""}, {"poets": "Joshua Jennifer Espinoza", "field_dob": "", "field_dod": "", "field_school_movement": "", "view_node": "/poet/joshua-jennifer-espinoza", "field_state": "California"}, {"poets": "Tyler Vile", "field_dob": "", "field_dod": "", "field_school_movement": "", "view_node": "/poet/tyler-vile", "field_state": "Maryland"}, {"poets": "Sara June Woods", "field_dob": "", "field_dod": "", "field_school_movement": "", "view_node": "/poet/sara-june-woods", "field_state": ""}, {"poets": "Lilith Latini", "field_dob": "", "field_dod": "", "field_school_movement": "", "view_node": "/poet/lilith-latini", "field_state": ""}, {"poets": "Trace Peterson", "field_dob": "", "field_dod": "", "field_school_movement": "", "view_node": "/poet/trace-peterson", "field_state": "New York"}, {"poets": "Trish Salah", "field_dob": "", "field_dod": "", "field_school_movement": "", "view_node": "/poet/trish-salah", "field_state": ""}, {"poets": "Airea D. Matthews", "field_dob": "", "field_dod": "", "field_school_movement": "", "view_node": "/poet/airea-d-matthews", "field_state": "Pennsylvania"}, {"poets": "Letitia Elizabeth  Landon", "field_dob": "", "field_dod": "", "field_school_movement": "", "view_node": "/poet/letitia-elizabeth-landon", "field_state": ""}, {"poets": "Ossian Foley", "field_dob": "", "field_dod": "", "field_school_movement": "", "view_node": "/poet/ossian-foley", "field_state": ""}, {"poets": "Caryl Pagel ", "field_dob": "", "field_dod": "", "field_school_movement": "", "view_node": "/poet/caryl-pagel", "field_state": ""}, {"poets": "Gretchen Marquette", "field_dob": "", "field_dod": "", "field_school_movement": "", "view_node": "/poet/gretchen-marquette", "field_state": ""}], "pager": {"current_page": 69, "total_items": "3766", "total_pages": 189, "items_per_page": 20}}