{"rows": [{"poets": "Abraham Cowley", "field_dob": "", "field_dod": "", "field_school_movement": "", "view_node": "/poet/abraham-cowley", "field_state": ""}, {"poets": "Thomas Shadwell", "field_dob": "", "field_dod": "", "field_school_movement": "", "view_node": "/poet/thomas-shadwell", "field_state": ""}, {"poets": "Giovanni Boccaccio", "field_dob": "", "field_dod": "", "field_school_movement": "", "view_node": "/poet/giovanni-boccaccio", "field_state": ""}, {"poets": "Sir Henry Wotton", "field_dob": "", "field_dod": "", "field_school_movement": "", "view_node": "/poet/sir-henry-wotton", "field_state": ""}, {"poets": "George Eliot", "field_dob": "1819", "field_dod": "1880", "field_school_movement": "", "view_node": "/poet/george-eliot", "field_state": ""}, {"poets": "Vachel Lindsay", "field_dob": "1879", "field_dod": "1931", "field_school_movement": "", "view_node": "/poet/vachel-lindsay", "field_state": ""}, {"poets": "Sam Foss", "field_dob": "", "field_dod": "", "field_school_movement": "", "view_node": "/poet/sam-foss", "field_state": ""}, {"poets": "Domingo Ortega", "field_dob": "", "field_dod": "", "field_school_movement": "", "view_node": "/poet/domingo-ortega", "field_state": ""}, {"poets": "Judith Farr", "field_dob": "", "field_dod": "", "field_school_movement": "", "view_node": "/poet/judith-farr", "field_state": ""}, {"poets": "Gerhard Stubi", "field_dob": "", "field_dod": "", "field_school_movement": "", "view_node": "/poet/gerhard-stubi", "field_state": ""}, {"poets": "Barry Gifford", "field_dob": "", "field_dod": "", "field_school_movement": "", "view_node": "/poet/barry-gifford", "field_state": "California"}, {"poets": "Attila J\u00f3zsef", "field_dob": "1905", "field_dod": "1937", "field_school_movement": "", "view_node": "/poet/attila-jozsef", "field_state": ""}, {"poets": "Amy King", "field_dob": "", "field_dod": "", "field_school_movement": "", "view_node": "/poet/amy-king", "field_state": ""}, {"poets": "Sarah Vap", "field_dob": "", "field_dod": "", "field_school_movement": "", "view_node": "/poet/sarah-vap", "field_state": ""}, {"poets": "Anna Journey", "field_dob": "", "field_dod": "", "field_school_movement": "", "view_node": "/poet/anna-journey", "field_state": "California"}, {"poets": "Rachel DeWoskin", "field_dob": "", "field_dod": "", "field_school_movement": "", "view_node": "/poet/rachel-dewoskin", "field_state": ""}, {"poets": "Francisco Arag\u00f3n", "field_dob": "", "field_dod": "", "field_school_movement": "", "view_node": "/poet/francisco-aragon", "field_state": "California"}, {"poets": "Elizabeth Madox Roberts", "field_dob": "", "field_dod": "", "field_school_movement": "", "view_node": "/poet/elizabeth-madox-roberts", "field_state": ""}, {"poets": "Michael Cirelli", "field_dob": "", "field_dod": "", "field_school_movement": "", "view_node": "/poet/michael-cirelli", "field_state": ""}, {"poets": "Moya Cannon", "field_dob": "", "field_dod": "", "field_school_movement": "", "view_node": "/poet/moya-cannon", "field_state": ""}], "pager": {"current_page": 114, "total_items": "3766", "total_pages": 189, "items_per_page": 20}}