{"rows": [{"poets": "Celeste Guzm\u00e1n Mendoza", "field_dob": "", "field_dod": "", "field_school_movement": "", "view_node": "/poet/celeste-guzman-mendoza", "field_state": ""}, {"poets": "Rohan Chhetri", "field_dob": "", "field_dod": "", "field_school_movement": "", "view_node": "/poet/rohan-chhetri", "field_state": ""}, {"poets": "Alexander Pushkin", "field_dob": "", "field_dod": "", "field_school_movement": "Romanticism", "view_node": "/poet/alexander-pushkin", "field_state": ""}, {"poets": "Martha Gilbert Bianchi", "field_dob": "", "field_dod": "", "field_school_movement": "", "view_node": "/poet/martha-gilbert-bianchi", "field_state": ""}, {"poets": "Jenny Minniti-Shippey ", "field_dob": "", "field_dod": "", "field_school_movement": "", "view_node": "/poet/jenny-minniti-shippey", "field_state": ""}, {"poets": "Ad\u00e9lia Prado", "field_dob": "", "field_dod": "", "field_school_movement": "", "view_node": "/poet/adelia-prado", "field_state": ""}, {"poets": "Maya Marshall", "field_dob": "", "field_dod": "", "field_school_movement": "", "view_node": "/poet/maya-marshall", "field_state": ""}, {"poets": "William Moore", "field_dob": "", "field_dod": "", "field_school_movement": "", "view_node": "/poet/william-moore", "field_state": ""}, {"poets": "Karen Head", "field_dob": "", "field_dod": "", "field_school_movement": "", "view_node": "/poet/karen-head", "field_state": ""}, {"poets": "Garth Greenwell", "field_dob": "", "field_dod": "", "field_school_movement": "", "view_node": "/poet/garth-greenwell", "field_state": ""}, {"poets": "Luis Mu\u00f1oz", "field_dob": "", "field_dod": "", "field_school_movement": "", "view_node": "/poet/luis-munoz", "field_state": ""}, {"poets": "Arthur Solway", "field_dob": "", "field_dod": "", "field_school_movement": "", "view_node": "/poet/arthur-solway", "field_state": ""}, {"poets": "J. Hope Stein", "field_dob": "", "field_dod": "", "field_school_movement": "", "view_node": "/poet/j-hope-stein", "field_state": ""}, {"poets": "Elsa von Freytag-Loringhoven", "field_dob": "", "field_dod": "", "field_school_movement": "", "view_node": "/poet/elsa-von-freytag-loringhoven", "field_state": ""}, {"poets": "Gary Gach", "field_dob": "", "field_dod": "", "field_school_movement": "", "view_node": "/poet/gary-gach", "field_state": ""}, {"poets": "Erfan Mojib", "field_dob": "", "field_dod": "", "field_school_movement": "", "view_node": "/poet/erfan-mojib", "field_state": ""}, {"poets": "Alireza Roshan", "field_dob": "", "field_dod": "", "field_school_movement": "", "view_node": "/poet/alireza-roshan", "field_state": ""}, {"poets": "Xavier Valc\u00e1rcel", "field_dob": "", "field_dod": "", "field_school_movement": "", "view_node": "/poet/xavier-valcarcel", "field_state": ""}, {"poets": " Mar\u00eda Teresa Fern\u00e1ndez Rosario", "field_dob": "", "field_dod": "", "field_school_movement": "", "view_node": "/poet/maria-teresa-fernandez-rosario", "field_state": ""}, {"poets": "Yara Liceaga Rojas", "field_dob": "", "field_dod": "", "field_school_movement": "", "view_node": "/poet/yara-liceaga-rojas", "field_state": ""}], "pager": {"current_page": 9, "total_items": "3766", "total_pages": 189, "items_per_page": 20}}