{"rows": [{"poets": "Josephine D. Heard ", "field_dob": "", "field_dod": "", "field_school_movement": "", "view_node": "/poet/josephine-d-heard", "field_state": ""}, {"poets": "Nandi Comer ", "field_dob": "", "field_dod": "", "field_school_movement": "", "view_node": "/poet/nandi-comer", "field_state": ""}, {"poets": "Canisia Lubrin", "field_dob": "", "field_dod": "", "field_school_movement": "", "view_node": "/poet/canisia-lubrin", "field_state": ""}, {"poets": "Daria-Ann Martineau", "field_dob": "", "field_dod": "", "field_school_movement": "", "view_node": "/poet/daria-ann-martineau", "field_state": ""}, {"poets": "Charleen McClure", "field_dob": "", "field_dod": "", "field_school_movement": "", "view_node": "/poet/charleen-mcclure", "field_state": ""}, {"poets": "Starr Davis", "field_dob": "", "field_dod": "", "field_school_movement": "", "view_node": "/poet/starr-davis", "field_state": ""}, {"poets": "Joy Priest", "field_dob": "", "field_dod": "", "field_school_movement": "", "view_node": "/poet/joy-priest", "field_state": ""}, {"poets": "Jeremy Michael Clark", "field_dob": "", "field_dod": "", "field_school_movement": "", "view_node": "/poet/jeremy-michael-clark", "field_state": ""}, {"poets": "Desiree C. Bailey", "field_dob": "", "field_dod": "", "field_school_movement": "", "view_node": "/poet/desiree-c-bailey", "field_state": ""}, {"poets": "Natasha Oladokun", "field_dob": "", "field_dod": "", "field_school_movement": "", "view_node": "/poet/natasha-oladokun", "field_state": ""}, {"poets": "makalani bandele", "field_dob": "", "field_dod": "", "field_school_movement": "", "view_node": "/poet/makalani-bandele", "field_state": ""}, {"poets": "Ashley M. Jones ", "field_dob": "", "field_dod": "", "field_school_movement": "", "view_node": "/poet/ashley-m-jones", "field_state": ""}, {"poets": "Jacqueline Woodson ", "field_dob": "", "field_dod": "", "field_school_movement": "", "view_node": "/poet/jacqueline-woodson", "field_state": ""}, {"poets": "Kortney Morrow ", "field_dob": "", "field_dod": "", "field_school_movement": "", "view_node": "/poet/kortney-morrow", "field_state": ""}, {"poets": "Kate Rushin ", "field_dob": "", "field_dod": "", "field_school_movement": "", "view_node": "/poet/kate-rushin", "field_state": ""}, {"poets": "Antoinette Brim-Bell", "field_dob": "", "field_dod": "", "field_school_movement": "", "view_node": "/poet/antoinette-brim-bell", "field_state": ""}, {"poets": "Nikki Grimes", "field_dob": "", "field_dod": "", "field_school_movement": "", "view_node": "/poet/nikki-grimes", "field_state": ""}, {"poets": "Micah Daniels", "field_dob": "", "field_dod": "", "field_school_movement": "", "view_node": "/poet/micah-daniels", "field_state": ""}, {"poets": "Rhonda M. Ward", "field_dob": "", "field_dod": "", "field_school_movement": "", "view_node": "/poet/rhonda-m-ward", "field_state": ""}, {"poets": "Kara Jackson", "field_dob": "", "field_dod": "", "field_school_movement": "", "view_node": "/poet/kara-jackson", "field_state": ""}], "pager": {"current_page": 23, "total_items": "3766", "total_pages": 189, "items_per_page": 20}}