{"rows": [{"poets": "Alison Pelegrin", "field_dob": "", "field_dod": "", "field_school_movement": "", "view_node": "/poet/alison-pelegrin", "field_state": "Louisiana"}, {"poets": "Krystal Languell", "field_dob": "", "field_dod": "", "field_school_movement": "", "view_node": "/poet/krystal-languell", "field_state": ""}, {"poets": "Cristin O&#039;Keefe Aptowicz", "field_dob": "", "field_dod": "", "field_school_movement": "Slam/Spoken Word", "view_node": "/poet/cristin-okeefe-aptowicz", "field_state": ""}, {"poets": "Alison Stine", "field_dob": "", "field_dod": "", "field_school_movement": "", "view_node": "/poet/alison-stine", "field_state": ""}, {"poets": "Nick Carb\u00f3", "field_dob": "", "field_dod": "", "field_school_movement": "", "view_node": "/poet/nick-carbo", "field_state": ""}, {"poets": "Debra Weinstein", "field_dob": "", "field_dod": "", "field_school_movement": "", "view_node": "/poet/debra-weinstein", "field_state": ""}, {"poets": "Lizzie Harris", "field_dob": "", "field_dod": "", "field_school_movement": "", "view_node": "/poet/lizzie-harris", "field_state": ""}, {"poets": "William Brewer", "field_dob": "", "field_dod": "", "field_school_movement": "", "view_node": "/poet/william-brewer", "field_state": ""}, {"poets": "Safia Elhillo", "field_dob": "", "field_dod": "", "field_school_movement": "", "view_node": "/poet/safia-elhillo", "field_state": "District of Columbia"}, {"poets": "Glenn Mott", "field_dob": "", "field_dod": "", "field_school_movement": "", "view_node": "/poet/glenn-mott", "field_state": ""}, {"poets": "Chana Bloch", "field_dob": "1940", "field_dod": "2017", "field_school_movement": "", "view_node": "/poet/chana-bloch", "field_state": ""}, {"poets": "Jerry Williams", "field_dob": "", "field_dod": "", "field_school_movement": "", "view_node": "/poet/jerry-williams", "field_state": ""}, {"poets": "sam sax", "field_dob": "", "field_dod": "", "field_school_movement": "", "view_node": "/poet/sam-sax", "field_state": ""}, {"poets": "Lucretia Maria Davidson ", "field_dob": "", "field_dod": "", "field_school_movement": "", "view_node": "/poet/lucretia-maria-davidson", "field_state": ""}, {"poets": "Jennifer Firestone", "field_dob": "", "field_dod": "", "field_school_movement": "", "view_node": "/poet/jennifer-firestone", "field_state": ""}, {"poets": "May Yang", "field_dob": "", "field_dod": "", "field_school_movement": "", "view_node": "/poet/may-yang", "field_state": "California"}, {"poets": "Ali Power", "field_dob": "", "field_dod": "", "field_school_movement": "", "view_node": "/poet/ali-power", "field_state": ""}, {"poets": "Joseph Seamon Cotter Jr. ", "field_dob": "1895", "field_dod": "1919", "field_school_movement": "", "view_node": "/poet/joseph-seamon-cotter-jr", "field_state": ""}, {"poets": "Kwame Alexander", "field_dob": "", "field_dod": "", "field_school_movement": "", "view_node": "/poet/kwame-alexander", "field_state": ""}, {"poets": "Nate Marshall", "field_dob": "", "field_dod": "", "field_school_movement": "", "view_node": "/poet/nate-marshall", "field_state": ""}], "pager": {"current_page": 61, "total_items": "3766", "total_pages": 189, "items_per_page": 20}}