{"rows": [{"poets": "Helen Santmyer", "field_dob": "", "field_dod": "", "field_school_movement": "", "view_node": "/poet/helen-santmyer", "field_state": ""}, {"poets": "Courtney Queeney", "field_dob": "", "field_dod": "", "field_school_movement": "", "view_node": "/poet/courtney-queeney", "field_state": ""}, {"poets": "Sojourner Ahebee", "field_dob": "", "field_dod": "", "field_school_movement": "", "view_node": "/poet/sojourner-ahebee", "field_state": ""}, {"poets": "David Biespiel", "field_dob": "", "field_dod": "", "field_school_movement": "", "view_node": "/poet/david-biespiel", "field_state": ""}, {"poets": "Geffrey Davis", "field_dob": "", "field_dod": "", "field_school_movement": "", "view_node": "/poet/geffrey-davis", "field_state": ""}, {"poets": "Helen Hay Whitney", "field_dob": "", "field_dod": "", "field_school_movement": "", "view_node": "/poet/helen-hay-whitney", "field_state": ""}, {"poets": "Sally Bliumis-Dunn", "field_dob": "", "field_dod": "", "field_school_movement": "", "view_node": "/poet/sally-bliumis-dunn", "field_state": ""}, {"poets": "Amanda Auchter", "field_dob": "", "field_dod": "", "field_school_movement": "", "view_node": "/poet/amanda-auchter", "field_state": ""}, {"poets": "Florence Ripley Mastin", "field_dob": "", "field_dod": "", "field_school_movement": "", "view_node": "/poet/florence-ripley-mastin", "field_state": ""}, {"poets": "John Dos Passos ", "field_dob": "", "field_dod": "", "field_school_movement": "", "view_node": "/poet/john-dos-passos", "field_state": ""}, {"poets": "Edith Wharton", "field_dob": "1862", "field_dod": "1937", "field_school_movement": "", "view_node": "/poet/edith-wharton", "field_state": ""}, {"poets": "Corey Zeller", "field_dob": "", "field_dod": "", "field_school_movement": "", "view_node": "/poet/corey-zeller", "field_state": ""}, {"poets": "Cathy Linh Che", "field_dob": "", "field_dod": "", "field_school_movement": "", "view_node": "/poet/cathy-linh-che", "field_state": ""}, {"poets": "Ken White", "field_dob": "", "field_dod": "", "field_school_movement": "", "view_node": "/poet/ken-white", "field_state": ""}, {"poets": "Ali Liebegott", "field_dob": "", "field_dod": "", "field_school_movement": "Contemporary", "view_node": "/poet/ali-liebegott", "field_state": "California"}, {"poets": "C. S.  Giscombe", "field_dob": "1950", "field_dod": "", "field_school_movement": "", "view_node": "/poet/c-s-giscombe", "field_state": "California"}, {"poets": "Robert McAlmon", "field_dob": "1895", "field_dod": "1956", "field_school_movement": "", "view_node": "/poet/robert-mcalmon", "field_state": ""}, {"poets": "Buck Downs", "field_dob": "", "field_dod": "", "field_school_movement": "", "view_node": "/poet/buck-downs", "field_state": "District of Columbia"}, {"poets": "Jennifer Michael Hecht", "field_dob": "", "field_dod": "", "field_school_movement": "", "view_node": "/poet/jennifer-michael-hecht", "field_state": ""}, {"poets": "Effie Waller Smith", "field_dob": "1879", "field_dod": "1960", "field_school_movement": "", "view_node": "/poet/effie-waller-smith", "field_state": ""}], "pager": {"current_page": 81, "total_items": "3766", "total_pages": 189, "items_per_page": 20}}