{"rows": [{"poets": "Jean Gallagher", "field_dob": "", "field_dod": "", "field_school_movement": "", "view_node": "/poet/jean-gallagher", "field_state": ""}, {"poets": "James McMichael", "field_dob": "1939", "field_dod": "", "field_school_movement": "", "view_node": "/poet/james-mcmichael", "field_state": ""}, {"poets": "Peter O&#039;Leary", "field_dob": "1968", "field_dod": "", "field_school_movement": "", "view_node": "/poet/peter-oleary", "field_state": ""}, {"poets": "Brian Swann", "field_dob": "", "field_dod": "", "field_school_movement": "", "view_node": "/poet/brian-swann", "field_state": ""}, {"poets": "Judith Harris", "field_dob": "", "field_dod": "", "field_school_movement": "", "view_node": "/poet/judith-harris", "field_state": ""}, {"poets": "Mark Levine", "field_dob": "", "field_dod": "", "field_school_movement": "", "view_node": "/poet/mark-levine", "field_state": ""}, {"poets": "Nick Laird", "field_dob": "", "field_dod": "", "field_school_movement": "", "view_node": "/poet/nick-laird", "field_state": ""}, {"poets": "Katie Peterson", "field_dob": "", "field_dod": "", "field_school_movement": "", "view_node": "/poet/katie-peterson", "field_state": ""}, {"poets": "Lyubomir Levchev", "field_dob": "", "field_dod": "", "field_school_movement": "", "view_node": "/poet/lyubomir-levchev", "field_state": ""}, {"poets": "Erik Campbell", "field_dob": "", "field_dod": "", "field_school_movement": "", "view_node": "/poet/erik-campbell", "field_state": ""}, {"poets": "Floyd Skloot", "field_dob": "", "field_dod": "", "field_school_movement": "", "view_node": "/poet/floyd-skloot", "field_state": ""}, {"poets": "Elizabeth Willis", "field_dob": "", "field_dod": "", "field_school_movement": "", "view_node": "/poet/elizabeth-willis", "field_state": ""}, {"poets": "Aleda Shirley", "field_dob": "", "field_dod": "", "field_school_movement": "", "view_node": "/poet/aleda-shirley", "field_state": ""}, {"poets": "Daisy Fried", "field_dob": "", "field_dod": "", "field_school_movement": "", "view_node": "/poet/daisy-fried", "field_state": ""}, {"poets": "Mark Rudman", "field_dob": "", "field_dod": "", "field_school_movement": "", "view_node": "/poet/mark-rudman", "field_state": ""}, {"poets": "Malena M\u00f6rling", "field_dob": "", "field_dod": "", "field_school_movement": "", "view_node": "/poet/malena-morling", "field_state": ""}, {"poets": "Conor O&#039;Callaghan", "field_dob": "", "field_dod": "", "field_school_movement": "", "view_node": "/poet/conor-ocallaghan", "field_state": ""}, {"poets": "Madelon Sprengnether", "field_dob": "", "field_dod": "", "field_school_movement": "", "view_node": "/poet/madelon-sprengnether", "field_state": ""}, {"poets": "Amber Flora Thomas", "field_dob": "", "field_dod": "", "field_school_movement": "", "view_node": "/poet/amber-flora-thomas", "field_state": "Washington"}, {"poets": "Joshua Marie Wilkinson", "field_dob": "", "field_dod": "", "field_school_movement": "", "view_node": "/poet/joshua-marie-wilkinson", "field_state": ""}], "pager": {"current_page": 136, "total_items": "3766", "total_pages": 189, "items_per_page": 20}}