{"rows": [{"poets": "Dobby Gibson", "field_dob": "", "field_dod": "", "field_school_movement": "", "view_node": "/poet/dobby-gibson", "field_state": ""}, {"poets": "Joan Selinger Sidney", "field_dob": "", "field_dod": "", "field_school_movement": "", "view_node": "/poet/joan-selinger-sidney", "field_state": ""}, {"poets": "Sydney Lea", "field_dob": "1942", "field_dod": "", "field_school_movement": "Contemporary", "view_node": "/poet/sydney-lea", "field_state": "Vermont"}, {"poets": "Matthew Shenoda", "field_dob": "", "field_dod": "", "field_school_movement": "", "view_node": "/poet/matthew-shenoda", "field_state": ""}, {"poets": "Rachel Galvin", "field_dob": "", "field_dod": "", "field_school_movement": "", "view_node": "/poet/rachel-galvin", "field_state": ""}, {"poets": "Catherine Wagner", "field_dob": "", "field_dod": "", "field_school_movement": "", "view_node": "/poet/catherine-wagner", "field_state": "Ohio"}, {"poets": "Dennis Sampson", "field_dob": "", "field_dod": "", "field_school_movement": "", "view_node": "/poet/dennis-sampson", "field_state": ""}, {"poets": "Sarah Manguso", "field_dob": "", "field_dod": "", "field_school_movement": "", "view_node": "/poet/sarah-manguso", "field_state": ""}, {"poets": "Beckian Fritz Goldberg", "field_dob": "", "field_dod": "", "field_school_movement": "", "view_node": "/poet/beckian-fritz-goldberg", "field_state": "Arizona"}, {"poets": "Rachel Wetzsteon", "field_dob": "1967", "field_dod": "2009", "field_school_movement": "Contemporary", "view_node": "/poet/rachel-wetzsteon", "field_state": ""}, {"poets": "Piotr Sommer", "field_dob": "", "field_dod": "", "field_school_movement": "", "view_node": "/poet/piotr-sommer", "field_state": ""}, {"poets": "Durs Gr\u00fcnbein", "field_dob": "", "field_dod": "", "field_school_movement": "", "view_node": "/poet/durs-grunbein", "field_state": ""}, {"poets": "Noah Eli Gordon", "field_dob": "", "field_dod": "", "field_school_movement": "", "view_node": "/poet/noah-eli-gordon", "field_state": ""}, {"poets": "Gillian Conoley", "field_dob": "1955", "field_dod": "", "field_school_movement": "Contemporary", "view_node": "/poet/gillian-conoley", "field_state": "California"}, {"poets": "John Brehm", "field_dob": "", "field_dod": "", "field_school_movement": "", "view_node": "/poet/john-brehm", "field_state": ""}, {"poets": "Dara Barrois/Dixon", "field_dob": "1949", "field_dod": "", "field_school_movement": "Contemporary", "view_node": "/poet/dara-barroisdixon", "field_state": "Massachusetts"}, {"poets": "Alan Feldman", "field_dob": "", "field_dod": "", "field_school_movement": "", "view_node": "/poet/alan-feldman", "field_state": ""}, {"poets": "Sandra Miller", "field_dob": "", "field_dod": "", "field_school_movement": "", "view_node": "/poet/sandra-miller", "field_state": ""}, {"poets": "Geoffrey G. O&#039;Brien", "field_dob": "", "field_dod": "", "field_school_movement": "", "view_node": "/poet/geoffrey-g-obrien", "field_state": ""}, {"poets": "Muna Lee", "field_dob": "", "field_dod": "", "field_school_movement": "", "view_node": "/poet/muna-lee", "field_state": ""}], "pager": {"current_page": 142, "total_items": "3766", "total_pages": 189, "items_per_page": 20}}