{"rows": [{"poets": "Michel Deguy", "field_dob": "", "field_dod": "", "field_school_movement": "", "view_node": "/poet/michel-deguy", "field_state": ""}, {"poets": "Christian Hawkey", "field_dob": "", "field_dod": "", "field_school_movement": "", "view_node": "/poet/christian-hawkey", "field_state": ""}, {"poets": "Sawako Nakayasu", "field_dob": "", "field_dod": "", "field_school_movement": "", "view_node": "/poet/sawako-nakayasu", "field_state": ""}, {"poets": "Lance Phillips", "field_dob": "", "field_dod": "", "field_school_movement": "", "view_node": "/poet/lance-phillips", "field_state": ""}, {"poets": "Charles O. Hartman", "field_dob": "", "field_dod": "", "field_school_movement": "", "view_node": "/poet/charles-o-hartman", "field_state": ""}, {"poets": "Nancy Lagomarsino", "field_dob": "", "field_dod": "", "field_school_movement": "", "view_node": "/poet/nancy-lagomarsino", "field_state": ""}, {"poets": "Jerome Sala", "field_dob": "", "field_dod": "", "field_school_movement": "", "view_node": "/poet/jerome-sala", "field_state": ""}, {"poets": "Brett Fletcher Lauer", "field_dob": "", "field_dod": "", "field_school_movement": "Contemporary", "view_node": "/poet/brett-fletcher-lauer", "field_state": "New York"}, {"poets": "Tracy K. Smith", "field_dob": "1972", "field_dod": "", "field_school_movement": "Contemporary, Dark Room Collective", "view_node": "/poet/tracy-k-smith", "field_state": "New Jersey"}, {"poets": "Glyn Maxwell", "field_dob": "1962", "field_dod": "", "field_school_movement": "Formalism", "view_node": "/poet/glyn-maxwell", "field_state": ""}, {"poets": "Miranda Field", "field_dob": "", "field_dod": "", "field_school_movement": "", "view_node": "/poet/miranda-field", "field_state": ""}, {"poets": "Bruce Beasley", "field_dob": "", "field_dod": "", "field_school_movement": "", "view_node": "/poet/bruce-beasley", "field_state": ""}, {"poets": "Ravi Shankar", "field_dob": "", "field_dod": "", "field_school_movement": "", "view_node": "/poet/ravi-shankar", "field_state": ""}, {"poets": "Laynie Browne", "field_dob": "1966", "field_dod": "", "field_school_movement": "", "view_node": "/poet/laynie-browne", "field_state": ""}, {"poets": "Ron Slate", "field_dob": "", "field_dod": "", "field_school_movement": "", "view_node": "/poet/ron-slate", "field_state": ""}, {"poets": "David Woo", "field_dob": "", "field_dod": "", "field_school_movement": "", "view_node": "/poet/david-woo", "field_state": ""}, {"poets": "Gu Cheng", "field_dob": "", "field_dod": "", "field_school_movement": "Misty Poets", "view_node": "/poet/gu-cheng", "field_state": ""}, {"poets": "K. E. Duffin", "field_dob": "", "field_dod": "", "field_school_movement": "", "view_node": "/poet/k-e-duffin", "field_state": ""}, {"poets": "Emmanuel Moses", "field_dob": "", "field_dod": "", "field_school_movement": "", "view_node": "/poet/emmanuel-moses", "field_state": ""}, {"poets": "Simon Armitage", "field_dob": "1963", "field_dod": "", "field_school_movement": "Contemporary", "view_node": "/poet/simon-armitage", "field_state": ""}], "pager": {"current_page": 143, "total_items": "3766", "total_pages": 189, "items_per_page": 20}}