{"rows": [{"poets": "Herman Taube", "field_dob": "", "field_dod": "", "field_school_movement": "", "view_node": "/poet/herman-taube", "field_state": ""}, {"poets": "Matthew J. Spireng", "field_dob": "", "field_dod": "", "field_school_movement": "", "view_node": "/poet/matthew-j-spireng", "field_state": ""}, {"poets": "Ronny Someck", "field_dob": "", "field_dod": "", "field_school_movement": "", "view_node": "/poet/ronny-someck", "field_state": ""}, {"poets": "Jeffrey Skinner", "field_dob": "", "field_dod": "", "field_school_movement": "", "view_node": "/poet/jeffrey-skinner", "field_state": ""}, {"poets": "Alan Shapiro", "field_dob": "1952", "field_dod": "", "field_school_movement": "Contemporary", "view_node": "/poet/alan-shapiro", "field_state": "North Carolina"}, {"poets": "Martha Serpas", "field_dob": "", "field_dod": "", "field_school_movement": "", "view_node": "/poet/martha-serpas", "field_state": ""}, {"poets": "Philip Schultz", "field_dob": "", "field_dod": "", "field_school_movement": "", "view_node": "/poet/philip-schultz", "field_state": ""}, {"poets": "Donald Revell", "field_dob": "1954", "field_dod": "", "field_school_movement": "Formalism", "view_node": "/poet/donald-revell", "field_state": "Nevada"}, {"poets": "Michael Redhill", "field_dob": "", "field_dod": "", "field_school_movement": "", "view_node": "/poet/michael-redhill", "field_state": ""}, {"poets": "Anthony Piccione", "field_dob": "", "field_dod": "", "field_school_movement": "", "view_node": "/poet/anthony-piccione", "field_state": ""}, {"poets": "Cesare Pavese", "field_dob": "", "field_dod": "", "field_school_movement": "", "view_node": "/poet/cesare-pavese", "field_state": ""}, {"poets": "Jean Nordhaus", "field_dob": "", "field_dod": "", "field_school_movement": "", "view_node": "/poet/jean-nordhaus", "field_state": ""}, {"poets": "Joan Murray", "field_dob": "", "field_dod": "", "field_school_movement": "", "view_node": "/poet/joan-murray", "field_state": ""}, {"poets": "Wendy Mnookin", "field_dob": "", "field_dod": "", "field_school_movement": "", "view_node": "/poet/wendy-mnookin", "field_state": ""}, {"poets": "Nancy Mitchell", "field_dob": "", "field_dod": "", "field_school_movement": "", "view_node": "/poet/nancy-mitchell", "field_state": ""}, {"poets": "Leslie Adrienne Miller", "field_dob": "", "field_dod": "", "field_school_movement": "", "view_node": "/poet/leslie-adrienne-miller", "field_state": ""}, {"poets": "Campbell McGrath", "field_dob": "", "field_dod": "", "field_school_movement": "Contemporary", "view_node": "/poet/campbell-mcgrath", "field_state": "Florida"}, {"poets": "Robert McDowell", "field_dob": "", "field_dod": "", "field_school_movement": "", "view_node": "/poet/robert-mcdowell", "field_state": ""}, {"poets": "Linda McCarriston", "field_dob": "", "field_dod": "", "field_school_movement": "", "view_node": "/poet/linda-mccarriston", "field_state": ""}, {"poets": "Richard Matthews", "field_dob": "", "field_dod": "", "field_school_movement": "", "view_node": "/poet/richard-matthews", "field_state": ""}], "pager": {"current_page": 161, "total_items": "3766", "total_pages": 189, "items_per_page": 20}}