{"rows": [{"poets": "David Larsen", "field_dob": "", "field_dod": "", "field_school_movement": "", "view_node": "/poet/david-larsen", "field_state": ""}, {"poets": "John Bosworth", "field_dob": "", "field_dod": "", "field_school_movement": "", "view_node": "/poet/john-bosworth", "field_state": ""}, {"poets": "Chelsea Rathburn", "field_dob": "", "field_dod": "", "field_school_movement": "", "view_node": "/poet/chelsea-rathburn", "field_state": "Georgia"}, {"poets": "Agnes Lam", "field_dob": "", "field_dod": "", "field_school_movement": "", "view_node": "/poet/agnes-lam", "field_state": ""}, {"poets": "Yao Feng", "field_dob": "", "field_dod": "", "field_school_movement": "", "view_node": "/poet/yao-feng", "field_state": ""}, {"poets": "Navtej Bharati", "field_dob": "", "field_dod": "", "field_school_movement": "", "view_node": "/poet/navtej-bharati", "field_state": ""}, {"poets": "Amarjit Chandan", "field_dob": "", "field_dod": "", "field_school_movement": "", "view_node": "/poet/amarjit-chandan", "field_state": ""}, {"poets": "Ajmer Rode", "field_dob": "", "field_dod": "", "field_school_movement": "", "view_node": "/poet/ajmer-rode", "field_state": ""}, {"poets": "Brionne Janae", "field_dob": "", "field_dod": "", "field_school_movement": "", "view_node": "/poet/brionne-janae", "field_state": ""}, {"poets": "Kamden Hilliard", "field_dob": "", "field_dod": "", "field_school_movement": "", "view_node": "/poet/kamden-hilliard", "field_state": ""}, {"poets": "Claire Schwartz", "field_dob": "", "field_dod": "", "field_school_movement": "", "view_node": "/poet/claire-schwartz", "field_state": ""}, {"poets": "Brenda Marie Osbey", "field_dob": "", "field_dod": "", "field_school_movement": "", "view_node": "/poet/brenda-marie-osbey", "field_state": ""}, {"poets": "Maryam Ivette Parhizkar", "field_dob": "", "field_dod": "", "field_school_movement": "", "view_node": "/poet/maryam-ivette-parhizkar", "field_state": ""}, {"poets": "Amy Sara Carroll", "field_dob": "", "field_dod": "", "field_school_movement": "", "view_node": "/poet/amy-sara-carroll", "field_state": ""}, {"poets": "H. L. Hix", "field_dob": "", "field_dod": "", "field_school_movement": "", "view_node": "/poet/h-l-hix", "field_state": ""}, {"poets": "Michael Leong", "field_dob": "", "field_dod": "", "field_school_movement": "", "view_node": "/poet/michael-leong", "field_state": ""}, {"poets": "Christian Campbell", "field_dob": "", "field_dod": "", "field_school_movement": "", "view_node": "/poet/christian-campbell", "field_state": ""}, {"poets": "Yi Lei", "field_dob": "", "field_dod": "", "field_school_movement": "", "view_node": "/poet/yi-lei", "field_state": ""}, {"poets": "Leslie Coulson", "field_dob": "1889", "field_dod": "1916", "field_school_movement": "", "view_node": "/poet/leslie-coulson", "field_state": ""}, {"poets": "Douglas Ainslie", "field_dob": "1865", "field_dod": "1948", "field_school_movement": "", "view_node": "/poet/douglas-ainslie", "field_state": ""}], "pager": {"current_page": 49, "total_items": "3766", "total_pages": 189, "items_per_page": 20}}