{"rows": [{"poets": "David Shook", "field_dob": "", "field_dod": "", "field_school_movement": "", "view_node": "/poet/david-shook", "field_state": ""}, {"poets": "Raina J. Le\u00f3n", "field_dob": "", "field_dod": "", "field_school_movement": "", "view_node": "/poet/raina-j-leon", "field_state": ""}, {"poets": "Rosal\u00eda de Castro", "field_dob": "", "field_dod": "", "field_school_movement": "", "view_node": "/poet/rosalia-de-castro", "field_state": ""}, {"poets": "Andrea Blancas Beltran", "field_dob": "", "field_dod": "", "field_school_movement": "", "view_node": "/poet/andrea-blancas-beltran", "field_state": ""}, {"poets": "Anna Maria Hong", "field_dob": "", "field_dod": "", "field_school_movement": "", "view_node": "/poet/anna-maria-hong", "field_state": ""}, {"poets": "Alexis Pauline Gumbs", "field_dob": "", "field_dod": "", "field_school_movement": "", "view_node": "/poet/alexis-pauline-gumbs", "field_state": ""}, {"poets": "Khushal Khan Khattak", "field_dob": "", "field_dod": "", "field_school_movement": "", "view_node": "/poet/khushal-khan-khattak", "field_state": ""}, {"poets": "Honora Spicer", "field_dob": "", "field_dod": "", "field_school_movement": "", "view_node": "/poet/honora-spicer", "field_state": ""}, {"poets": "Anastatia Spicer", "field_dob": "", "field_dod": "", "field_school_movement": "", "view_node": "/poet/anastatia-spicer", "field_state": ""}, {"poets": "Victoria Guerrero", "field_dob": "", "field_dod": "", "field_school_movement": "", "view_node": "/poet/victoria-guerrero", "field_state": ""}, {"poets": "Catalina Cariaga ", "field_dob": "", "field_dod": "", "field_school_movement": "", "view_node": "/poet/catalina-cariaga", "field_state": ""}, {"poets": "Darius Atefat-Peckham", "field_dob": "", "field_dod": "", "field_school_movement": "", "view_node": "/poet/darius-atefat-peckham", "field_state": ""}, {"poets": "Kyle Dacuyan ", "field_dob": "", "field_dod": "", "field_school_movement": "", "view_node": "/poet/kyle-dacuyan", "field_state": ""}, {"poets": "Barton Smock ", "field_dob": "", "field_dod": "", "field_school_movement": "", "view_node": "/poet/barton-smock", "field_state": ""}, {"poets": "Jennifer Karmin", "field_dob": "", "field_dod": "", "field_school_movement": "", "view_node": "/poet/jennifer-karmin", "field_state": ""}, {"poets": "Winifred Welles ", "field_dob": "", "field_dod": "", "field_school_movement": "", "view_node": "/poet/winifred-welles", "field_state": ""}, {"poets": "Philip Schaefer", "field_dob": "", "field_dod": "", "field_school_movement": "", "view_node": "/poet/philip-schaefer", "field_state": ""}, {"poets": "E. C. Belli ", "field_dob": "", "field_dod": "", "field_school_movement": "", "view_node": "/poet/e-c-belli", "field_state": ""}, {"poets": "Joan Retallack ", "field_dob": "", "field_dod": "", "field_school_movement": "", "view_node": "/poet/joan-retallack", "field_state": ""}, {"poets": "Jalynn Harris", "field_dob": "", "field_dod": "", "field_school_movement": "", "view_node": "/poet/jalynn-harris", "field_state": ""}], "pager": {"current_page": 13, "total_items": "3766", "total_pages": 189, "items_per_page": 20}}