{"rows": [{"poets": "Erica Funkhouser", "field_dob": "", "field_dod": "", "field_school_movement": "", "view_node": "/poet/erica-funkhouser", "field_state": ""}, {"poets": "Philip Levine", "field_dob": "1928", "field_dod": "2015", "field_school_movement": "Contemporary", "view_node": "/poet/philip-levine", "field_state": "Michigan"}, {"poets": "Catherine Anderson", "field_dob": "", "field_dod": "", "field_school_movement": "Contemporary", "view_node": "/poet/catherine-anderson", "field_state": "Kansas"}, {"poets": "T. S. Eliot", "field_dob": "1888", "field_dod": "1965", "field_school_movement": "Modernism", "view_node": "/poet/t-s-eliot", "field_state": "Missouri"}, {"poets": "Robert Penn Warren", "field_dob": "1905", "field_dod": "1989", "field_school_movement": "Fugitives", "view_node": "/poet/robert-penn-warren", "field_state": "Kentucky"}, {"poets": "Allen Tate", "field_dob": "1899", "field_dod": "1979", "field_school_movement": "Fugitives", "view_node": "/poet/allen-tate", "field_state": "Tennessee"}, {"poets": "W. D. Snodgrass", "field_dob": "1926", "field_dod": "2009", "field_school_movement": "Confessional Poetry", "view_node": "/poet/w-d-snodgrass", "field_state": ""}, {"poets": "Theodore Roethke", "field_dob": "1908", "field_dod": "1963", "field_school_movement": "", "view_node": "/poet/theodore-roethke", "field_state": "Washington"}, {"poets": "Anne Sexton", "field_dob": "1928", "field_dod": "1974", "field_school_movement": "Confessional Poetry", "view_node": "/poet/anne-sexton", "field_state": "Massachusetts"}, {"poets": "John Crowe Ransom", "field_dob": "1888", "field_dod": "1974", "field_school_movement": "Fugitives", "view_node": "/poet/john-crowe-ransom", "field_state": "Tennessee"}, {"poets": "Robert Lowell", "field_dob": "1917", "field_dod": "1977", "field_school_movement": "Confessional Poetry", "view_node": "/poet/robert-lowell", "field_state": "Massachusetts"}, {"poets": "Sylvia Plath", "field_dob": "1932", "field_dod": "1963", "field_school_movement": "Confessional Poetry", "view_node": "/poet/sylvia-plath", "field_state": "Massachusetts"}, {"poets": "Allen Ginsberg", "field_dob": "1926", "field_dod": "1997", "field_school_movement": "San Francisco Renaissance, Slam/Spoken Word, Beat", "view_node": "/poet/allen-ginsberg", "field_state": "New York"}, {"poets": "Randall Jarrell", "field_dob": "1914", "field_dod": "1965", "field_school_movement": "", "view_node": "/poet/randall-jarrell", "field_state": "Tennessee"}, {"poets": "Elizabeth Bishop", "field_dob": "1911", "field_dod": "1979", "field_school_movement": "Translators, Metaphysical Poet", "view_node": "/poet/elizabeth-bishop", "field_state": "Massachusetts"}, {"poets": "Joseph Brodsky", "field_dob": "1940", "field_dod": "1996", "field_school_movement": "Poets of Exile", "view_node": "/poet/joseph-brodsky", "field_state": "New York"}, {"poets": "Stanley Kunitz", "field_dob": "1905", "field_dod": "2006", "field_school_movement": "", "view_node": "/poet/stanley-kunitz", "field_state": "Massachusetts"}, {"poets": "John Berryman", "field_dob": "1914", "field_dod": "1972", "field_school_movement": "", "view_node": "/poet/john-berryman", "field_state": "Minnesota"}, {"poets": "Anna Akhmatova", "field_dob": "1889", "field_dod": "1966", "field_school_movement": "Acmeism", "view_node": "/poet/anna-akhmatova", "field_state": ""}, {"poets": "Louis Simpson", "field_dob": "1923", "field_dod": "2012", "field_school_movement": "", "view_node": "/poet/louis-simpson", "field_state": ""}], "pager": {"current_page": 92, "total_items": "3766", "total_pages": 189, "items_per_page": 20}}