{"rows": [{"poets": "Connie Voisine", "field_dob": "", "field_dod": "", "field_school_movement": "", "view_node": "/poet/connie-voisine", "field_state": ""}, {"poets": "Liz Beasley", "field_dob": "", "field_dod": "", "field_school_movement": "", "view_node": "/poet/liz-beasley", "field_state": ""}, {"poets": "Karen Chase", "field_dob": "", "field_dod": "", "field_school_movement": "", "view_node": "/poet/karen-chase", "field_state": ""}, {"poets": "Claire Kageyama-Ramakrishnan", "field_dob": "", "field_dod": "", "field_school_movement": "", "view_node": "/poet/claire-kageyama-ramakrishnan", "field_state": ""}, {"poets": "Sandra Beasley", "field_dob": "", "field_dod": "", "field_school_movement": "", "view_node": "/poet/sandra-beasley", "field_state": "District of Columbia"}, {"poets": "Linda Hogan", "field_dob": "", "field_dod": "", "field_school_movement": "", "view_node": "/poet/linda-hogan", "field_state": "Colorado"}, {"poets": "Sharon Mesmer", "field_dob": "", "field_dod": "", "field_school_movement": "", "view_node": "/poet/sharon-mesmer", "field_state": ""}, {"poets": "John Rybicki", "field_dob": "", "field_dod": "", "field_school_movement": "", "view_node": "/poet/john-rybicki", "field_state": ""}, {"poets": "Jeffrey McDaniel", "field_dob": "", "field_dod": "", "field_school_movement": "Slam/Spoken Word", "view_node": "/poet/jeffrey-mcdaniel", "field_state": ""}, {"poets": "Marie Howe", "field_dob": "", "field_dod": "", "field_school_movement": "Contemporary", "view_node": "/poet/marie-howe", "field_state": "New York"}, {"poets": "Lia Purpura", "field_dob": "", "field_dod": "", "field_school_movement": "", "view_node": "/poet/lia-purpura", "field_state": ""}, {"poets": "M. NourbeSe Philip", "field_dob": "", "field_dod": "", "field_school_movement": "", "view_node": "/poet/m-nourbese-philip", "field_state": ""}, {"poets": "Kazim Ali", "field_dob": "1971", "field_dod": "", "field_school_movement": "", "view_node": "/poet/kazim-ali", "field_state": ""}, {"poets": "Christian B\u00f6k", "field_dob": "1966", "field_dod": "", "field_school_movement": "Conceptual Poetry", "view_node": "/poet/christian-bok", "field_state": ""}, {"poets": "Michael Morse", "field_dob": "", "field_dod": "", "field_school_movement": "", "view_node": "/poet/michael-morse", "field_state": ""}, {"poets": "Richard Harris Barham", "field_dob": "", "field_dod": "", "field_school_movement": "", "view_node": "/poet/richard-harris-barham", "field_state": ""}, {"poets": "Thomas Lovell Beddoes", "field_dob": "", "field_dod": "", "field_school_movement": "", "view_node": "/poet/thomas-lovell-beddoes", "field_state": ""}, {"poets": "Lord Brooke Fulke Greville", "field_dob": "", "field_dod": "", "field_school_movement": "", "view_node": "/poet/lord-brooke-fulke-greville", "field_state": ""}, {"poets": "George Crabbe", "field_dob": "", "field_dod": "", "field_school_movement": "", "view_node": "/poet/george-crabbe", "field_state": ""}, {"poets": "William Cartwright", "field_dob": "", "field_dod": "", "field_school_movement": "", "view_node": "/poet/william-cartwright", "field_state": ""}], "pager": {"current_page": 128, "total_items": "3766", "total_pages": 189, "items_per_page": 20}}