{"rows": [{"poets": "Else Lasker-Sch\u00fcler", "field_dob": "", "field_dod": "", "field_school_movement": "", "view_node": "/poet/else-lasker-schuler", "field_state": ""}, {"poets": "Bernard Ferguson", "field_dob": "", "field_dod": "", "field_school_movement": "", "view_node": "/poet/bernard-ferguson", "field_state": ""}, {"poets": "Stephanie Cawley", "field_dob": "", "field_dod": "", "field_school_movement": "", "view_node": "/poet/stephanie-cawley", "field_state": ""}, {"poets": "Gerald Barrax", "field_dob": "1933", "field_dod": "2019", "field_school_movement": "", "view_node": "/poet/gerald-barrax", "field_state": "North Carolina"}, {"poets": "Anne Reeve Aldrich", "field_dob": "1866", "field_dod": "1892", "field_school_movement": "", "view_node": "/poet/anne-reeve-aldrich", "field_state": ""}, {"poets": "William Vaughn Moody", "field_dob": "", "field_dod": "", "field_school_movement": "", "view_node": "/poet/william-vaughn-moody", "field_state": ""}, {"poets": "Diamond Forde", "field_dob": "", "field_dod": "", "field_school_movement": "", "view_node": "/poet/diamond-forde", "field_state": ""}, {"poets": "Emma Trelles ", "field_dob": "", "field_dod": "", "field_school_movement": "", "view_node": "/poet/emma-trelles", "field_state": ""}, {"poets": "Lucy Ariel Williams", "field_dob": "", "field_dod": "", "field_school_movement": "", "view_node": "/poet/lucy-ariel-williams", "field_state": ""}, {"poets": "Zinaida Gippius", "field_dob": "1895", "field_dod": "1945", "field_school_movement": "", "view_node": "/poet/zinaida-gippius", "field_state": ""}, {"poets": "Avrahm Yarmolinsky", "field_dob": "1890", "field_dod": "1975", "field_school_movement": "", "view_node": "/poet/avrahm-yarmolinsky", "field_state": ""}, {"poets": "R. Nathaniel Dett", "field_dob": "", "field_dod": "", "field_school_movement": "", "view_node": "/poet/r-nathaniel-dett", "field_state": ""}, {"poets": "Roscoe C. Jamison", "field_dob": "", "field_dod": "", "field_school_movement": "", "view_node": "/poet/roscoe-c-jamison", "field_state": ""}, {"poets": "Simone White", "field_dob": "", "field_dod": "", "field_school_movement": "", "view_node": "/poet/simone-white", "field_state": ""}, {"poets": "Uche Nduka", "field_dob": "", "field_dod": "", "field_school_movement": "", "view_node": "/poet/uche-nduka", "field_state": ""}, {"poets": "Kenward Elmslie", "field_dob": "1929", "field_dod": "2022", "field_school_movement": "", "view_node": "/poet/kenward-elmslie", "field_state": ""}, {"poets": "Benjamin Brawley", "field_dob": "1882", "field_dod": "1939", "field_school_movement": "", "view_node": "/poet/benjamin-brawley", "field_state": ""}, {"poets": "Nicol\u00e1s Guill\u00e9n", "field_dob": "1902", "field_dod": "1989", "field_school_movement": "", "view_node": "/poet/nicolas-guillen", "field_state": ""}, {"poets": "Tyrone Williams", "field_dob": "", "field_dod": "", "field_school_movement": "", "view_node": "/poet/tyrone-williams", "field_state": ""}, {"poets": "Mihee Kim", "field_dob": "", "field_dod": "", "field_school_movement": "", "view_node": "/poet/mihee-kim", "field_state": ""}], "pager": {"current_page": 1, "total_items": "3766", "total_pages": 189, "items_per_page": 20}}