{"rows": [{"poets": "Allison Benis White", "field_dob": "", "field_dod": "", "field_school_movement": "", "view_node": "/poet/allison-benis-white", "field_state": ""}, {"poets": "Mary Biddinger", "field_dob": "", "field_dod": "", "field_school_movement": "", "view_node": "/poet/mary-biddinger", "field_state": ""}, {"poets": "Jen Bervin", "field_dob": "", "field_dod": "", "field_school_movement": "", "view_node": "/poet/jen-bervin", "field_state": ""}, {"poets": "Bruce Cohen", "field_dob": "", "field_dod": "", "field_school_movement": "", "view_node": "/poet/bruce-cohen", "field_state": ""}, {"poets": "Victoria Redel", "field_dob": "1959", "field_dod": "", "field_school_movement": "Contemporary", "view_node": "/poet/victoria-redel", "field_state": "New York"}, {"poets": "Kevin Killian", "field_dob": "1952", "field_dod": "2019", "field_school_movement": "", "view_node": "/poet/kevin-killian", "field_state": "California"}, {"poets": "Robert Gl\u00fcck", "field_dob": "1947", "field_dod": "", "field_school_movement": "", "view_node": "/poet/robert-gluck", "field_state": "California"}, {"poets": "Philip Pain", "field_dob": "", "field_dod": "", "field_school_movement": "", "view_node": "/poet/philip-pain", "field_state": ""}, {"poets": "Nathaniel Hawthorne", "field_dob": "", "field_dod": "", "field_school_movement": "", "view_node": "/poet/nathaniel-hawthorne", "field_state": ""}, {"poets": "Maria White Lowell", "field_dob": "", "field_dod": "", "field_school_movement": "", "view_node": "/poet/maria-white-lowell", "field_state": ""}, {"poets": "Lauren Berry", "field_dob": "", "field_dod": "", "field_school_movement": "", "view_node": "/poet/lauren-berry", "field_state": ""}, {"poets": "James Allen Hall", "field_dob": "", "field_dod": "", "field_school_movement": "", "view_node": "/poet/james-allen-hall", "field_state": ""}, {"poets": "Amy Glynn", "field_dob": "", "field_dod": "", "field_school_movement": "", "view_node": "/poet/amy-glynn", "field_state": "California"}, {"poets": "Kerrin McCadden", "field_dob": "", "field_dod": "", "field_school_movement": "", "view_node": "/poet/kerrin-mccadden", "field_state": ""}, {"poets": "Fenton Johnson", "field_dob": "1888", "field_dod": "1958", "field_school_movement": "", "view_node": "/poet/fenton-johnson", "field_state": ""}, {"poets": "Sidney Wade", "field_dob": "", "field_dod": "", "field_school_movement": "", "view_node": "/poet/sidney-wade", "field_state": ""}, {"poets": "William Alexander Percy", "field_dob": "1885", "field_dod": "1942", "field_school_movement": "", "view_node": "/poet/william-alexander-percy", "field_state": ""}, {"poets": "James Richardson", "field_dob": "", "field_dod": "", "field_school_movement": "", "view_node": "/poet/james-richardson", "field_state": ""}, {"poets": "Jonathan Wells", "field_dob": "", "field_dod": "", "field_school_movement": "", "view_node": "/poet/jonathan-wells", "field_state": ""}, {"poets": "William Saphier", "field_dob": "", "field_dod": "", "field_school_movement": "Modernism", "view_node": "/poet/william-saphier", "field_state": ""}], "pager": {"current_page": 96, "total_items": "3766", "total_pages": 189, "items_per_page": 20}}