{"rows": [{"poets": "Bob Kaufman", "field_dob": "1925", "field_dod": "1986", "field_school_movement": "Beat", "view_node": "/poet/bob-kaufman", "field_state": "California"}, {"poets": "Josephine Jacobsen", "field_dob": "", "field_dod": "", "field_school_movement": "", "view_node": "/poet/josephine-jacobsen", "field_state": "Maryland"}, {"poets": "Diann Blakely", "field_dob": "1957", "field_dod": "2014", "field_school_movement": "", "view_node": "/poet/diann-blakely", "field_state": ""}, {"poets": "Edwin Markham", "field_dob": "1852", "field_dod": "1940", "field_school_movement": "", "view_node": "/poet/edwin-markham", "field_state": "New York"}, {"poets": "Eleanor Cook", "field_dob": "", "field_dod": "", "field_school_movement": "", "view_node": "/poet/eleanor-cook", "field_state": ""}, {"poets": "Lloyd Schwartz", "field_dob": "1941", "field_dod": "", "field_school_movement": "", "view_node": "/poet/lloyd-schwartz", "field_state": "Massachusetts"}, {"poets": "John Frederick Nims", "field_dob": "1913", "field_dod": "1999", "field_school_movement": "", "view_node": "/poet/john-frederick-nims", "field_state": ""}, {"poets": "Kevin Davies", "field_dob": "", "field_dod": "", "field_school_movement": "", "view_node": "/poet/kevin-davies", "field_state": "New York"}, {"poets": "Irving Feldman", "field_dob": "1928", "field_dod": "", "field_school_movement": "", "view_node": "/poet/irving-feldman", "field_state": "New York"}, {"poets": "Josephine Miles", "field_dob": "1911", "field_dod": "1985", "field_school_movement": "", "view_node": "/poet/josephine-miles", "field_state": ""}, {"poets": "Victor Hern\u00e1ndez Cruz", "field_dob": "1949", "field_dod": "", "field_school_movement": "Nuyorican Poetry", "view_node": "/poet/victor-hernandez-cruz", "field_state": ""}, {"poets": "L\u00e9onie Adams", "field_dob": "1899", "field_dod": "1988", "field_school_movement": "Romanticism, Metaphysical Poet", "view_node": "/poet/leonie-adams", "field_state": "Connecticut"}, {"poets": "John Ciardi", "field_dob": "1916", "field_dod": "1986", "field_school_movement": "", "view_node": "/poet/john-ciardi", "field_state": ""}, {"poets": "Richard Brautigan", "field_dob": "1935", "field_dod": "1984", "field_school_movement": "", "view_node": "/poet/richard-brautigan", "field_state": "Montana"}, {"poets": "Barbara Guest", "field_dob": "1920", "field_dod": "2006", "field_school_movement": "New York School", "view_node": "/poet/barbara-guest", "field_state": "California"}, {"poets": "Ned O&#039;Gorman", "field_dob": "1929", "field_dod": "2014", "field_school_movement": "Contemporary", "view_node": "/poet/ned-ogorman", "field_state": ""}, {"poets": "Ogden Nash", "field_dob": "1902", "field_dod": "1971", "field_school_movement": "", "view_node": "/poet/ogden-nash", "field_state": ""}, {"poets": "Wendell Berry", "field_dob": "1934", "field_dod": "", "field_school_movement": "Contemporary", "view_node": "/poet/wendell-berry", "field_state": "Kentucky"}, {"poets": "Alfred Noyes", "field_dob": "1880", "field_dod": "1958", "field_school_movement": "Romanticism", "view_node": "/poet/alfred-noyes", "field_state": ""}, {"poets": "John Canaday", "field_dob": "", "field_dod": "", "field_school_movement": "", "view_node": "/poet/john-canaday", "field_state": "Massachusetts"}], "pager": {"current_page": 169, "total_items": "3766", "total_pages": 189, "items_per_page": 20}}