{"rows": [{"poets": "June Jordan", "field_dob": "1936", "field_dod": "2002", "field_school_movement": "", "view_node": "/poet/june-jordan", "field_state": ""}, {"poets": "Robert Pinsky", "field_dob": "1940", "field_dod": "", "field_school_movement": "", "view_node": "/poet/robert-pinsky", "field_state": "Massachusetts"}, {"poets": "Joy Harjo", "field_dob": "1951", "field_dod": "", "field_school_movement": "", "view_node": "/poet/joy-harjo", "field_state": "Oklahoma"}, {"poets": "Donna Masini", "field_dob": "", "field_dod": "", "field_school_movement": "", "view_node": "/poet/donna-masini", "field_state": ""}, {"poets": "Ronaldo V. Wilson", "field_dob": "1970", "field_dod": "", "field_school_movement": "Contemporary", "view_node": "/poet/ronaldo-v-wilson", "field_state": ""}, {"poets": "Kathy Fagan", "field_dob": "", "field_dod": "", "field_school_movement": "Contemporary", "view_node": "/poet/kathy-fagan", "field_state": "Ohio"}, {"poets": "Stanley Moss", "field_dob": "", "field_dod": "", "field_school_movement": "", "view_node": "/poet/stanley-moss", "field_state": "New York"}, {"poets": "Willa Cather", "field_dob": "1873", "field_dod": "1947", "field_school_movement": "", "view_node": "/poet/willa-cather", "field_state": "Nebraska"}, {"poets": "Edith Franklin Wyatt", "field_dob": "1873", "field_dod": "", "field_school_movement": "", "view_node": "/poet/edith-franklin-wyatt", "field_state": "Illinois"}, {"poets": "George Marion McClellan", "field_dob": "", "field_dod": "", "field_school_movement": "", "view_node": "/poet/george-marion-mcclellan", "field_state": ""}, {"poets": "Mary Carolyn Davies", "field_dob": "", "field_dod": "", "field_school_movement": "", "view_node": "/poet/mary-carolyn-davies", "field_state": ""}, {"poets": "Tyehimba Jess", "field_dob": "", "field_dod": "", "field_school_movement": "", "view_node": "/poet/tyehimba-jess", "field_state": ""}, {"poets": "Cynthia Lowen ", "field_dob": "", "field_dod": "", "field_school_movement": "Contemporary", "view_node": "/poet/cynthia-lowen", "field_state": ""}, {"poets": "Helen Hoyt", "field_dob": "", "field_dod": "", "field_school_movement": "", "view_node": "/poet/helen-hoyt", "field_state": ""}, {"poets": "Daniel Tobin", "field_dob": "", "field_dod": "", "field_school_movement": "", "view_node": "/poet/daniel-tobin", "field_state": ""}, {"poets": "David Shapiro", "field_dob": "1947", "field_dod": "", "field_school_movement": "Contemporary", "view_node": "/poet/david-shapiro", "field_state": ""}, {"poets": "Rowan Ricardo Phillips", "field_dob": "1974", "field_dod": "", "field_school_movement": "Contemporary", "view_node": "/poet/rowan-ricardo-phillips", "field_state": "New York"}, {"poets": "Yone Noguchi", "field_dob": "1875", "field_dod": "1947", "field_school_movement": "", "view_node": "/poet/yone-noguchi", "field_state": ""}, {"poets": "Genevieve Taggard", "field_dob": "", "field_dod": "", "field_school_movement": "", "view_node": "/poet/genevieve-taggard", "field_state": ""}, {"poets": "Alli Warren", "field_dob": "", "field_dod": "", "field_school_movement": "", "view_node": "/poet/alli-warren", "field_state": ""}], "pager": {"current_page": 93, "total_items": "3766", "total_pages": 189, "items_per_page": 20}}