{"rows": [{"poets": "Caroline Knox", "field_dob": "", "field_dod": "", "field_school_movement": "", "view_node": "/poet/caroline-knox", "field_state": ""}, {"poets": "Shelby Stephenson", "field_dob": "", "field_dod": "", "field_school_movement": "", "view_node": "/poet/shelby-stephenson", "field_state": ""}, {"poets": "Lisa Rhoades", "field_dob": "", "field_dod": "", "field_school_movement": "", "view_node": "/poet/lisa-rhoades", "field_state": ""}, {"poets": "Kabir", "field_dob": "", "field_dod": "", "field_school_movement": "", "view_node": "/poet/kabir", "field_state": ""}, {"poets": "Crystal Bacon", "field_dob": "", "field_dod": "", "field_school_movement": "", "view_node": "/poet/crystal-bacon", "field_state": ""}, {"poets": "Anthony Thwaite", "field_dob": "", "field_dod": "", "field_school_movement": "", "view_node": "/poet/anthony-thwaite", "field_state": ""}, {"poets": "Sandor Csoori", "field_dob": "", "field_dod": "", "field_school_movement": "", "view_node": "/poet/sandor-csoori", "field_state": ""}, {"poets": "Vern Rutsala", "field_dob": "", "field_dod": "", "field_school_movement": "", "view_node": "/poet/vern-rutsala", "field_state": ""}, {"poets": "Nicholas Christopher", "field_dob": "", "field_dod": "", "field_school_movement": "", "view_node": "/poet/nicholas-christopher", "field_state": ""}, {"poets": "Yuko Taniguchi", "field_dob": "", "field_dod": "", "field_school_movement": "", "view_node": "/poet/yuko-taniguchi", "field_state": "Minnesota"}, {"poets": "Steven Heighton", "field_dob": "", "field_dod": "", "field_school_movement": "", "view_node": "/poet/steven-heighton", "field_state": ""}, {"poets": "Betsy Sholl", "field_dob": "", "field_dod": "", "field_school_movement": "", "view_node": "/poet/betsy-sholl", "field_state": ""}, {"poets": "Catherine Doty", "field_dob": "", "field_dod": "", "field_school_movement": "", "view_node": "/poet/catherine-doty", "field_state": ""}, {"poets": "Mark Irwin", "field_dob": "", "field_dod": "", "field_school_movement": "", "view_node": "/poet/mark-irwin", "field_state": ""}, {"poets": "Mark Pawlak", "field_dob": "", "field_dod": "", "field_school_movement": "", "view_node": "/poet/mark-pawlak", "field_state": ""}, {"poets": "A. F. Moritz", "field_dob": "", "field_dod": "", "field_school_movement": "", "view_node": "/poet/f-moritz", "field_state": ""}, {"poets": "David Lee", "field_dob": "", "field_dod": "", "field_school_movement": "", "view_node": "/poet/david-lee", "field_state": "Utah"}, {"poets": "Leonard Schwartz", "field_dob": "", "field_dod": "", "field_school_movement": "", "view_node": "/poet/leonard-schwartz", "field_state": "Washington"}, {"poets": "Jacqueline Lyons", "field_dob": "", "field_dod": "", "field_school_movement": "", "view_node": "/poet/jacqueline-lyons", "field_state": ""}, {"poets": "Frances Richey", "field_dob": "", "field_dod": "", "field_school_movement": "", "view_node": "/poet/frances-richey", "field_state": ""}], "pager": {"current_page": 146, "total_items": "3766", "total_pages": 189, "items_per_page": 20}}