{"rows": [{"poets": "Jada Ren\u00e9e Allen ", "field_dob": "", "field_dod": "", "field_school_movement": "", "view_node": "/poet/jada-renee-allen", "field_state": ""}, {"poets": "Kyle Carrero Lopez", "field_dob": "", "field_dod": "", "field_school_movement": "", "view_node": "/poet/kyle-carrero-lopez", "field_state": ""}, {"poets": "Janice Mirikitani", "field_dob": "1941", "field_dod": "2021", "field_school_movement": "", "view_node": "/poet/janice-mirikitani", "field_state": ""}, {"poets": "Rachel Moritz", "field_dob": "", "field_dod": "", "field_school_movement": "", "view_node": "/poet/rachel-moritz", "field_state": ""}, {"poets": "D\u0101shaun Washington", "field_dob": "", "field_dod": "", "field_school_movement": "", "view_node": "/poet/dashaun-washington", "field_state": ""}, {"poets": "Nick Demske ", "field_dob": "", "field_dod": "", "field_school_movement": "", "view_node": "/poet/nick-demske", "field_state": ""}, {"poets": "Timmy Straw", "field_dob": "", "field_dod": "", "field_school_movement": "", "view_node": "/poet/timmy-straw", "field_state": ""}, {"poets": "Dan Lau", "field_dob": "", "field_dod": "", "field_school_movement": "", "view_node": "/poet/dan-lau", "field_state": ""}, {"poets": "Dan Rosenberg", "field_dob": "", "field_dod": "", "field_school_movement": "", "view_node": "/poet/dan-rosenberg", "field_state": ""}, {"poets": "Maxwell Anderson ", "field_dob": "1888", "field_dod": "1959", "field_school_movement": "", "view_node": "/poet/maxwell-anderson", "field_state": ""}, {"poets": "Yanyi", "field_dob": "", "field_dod": "", "field_school_movement": "", "view_node": "/poet/yanyi", "field_state": ""}, {"poets": "Gwen Westerman", "field_dob": "", "field_dod": "", "field_school_movement": "", "view_node": "/poet/gwen-westerman", "field_state": ""}, {"poets": "George Reginald Margetson ", "field_dob": "", "field_dod": "", "field_school_movement": "", "view_node": "/poet/george-reginald-margetson", "field_state": ""}, {"poets": "Elisabet Velasquez", "field_dob": "", "field_dod": "", "field_school_movement": "", "view_node": "/poet/elisabet-velasquez", "field_state": ""}, {"poets": "Margaret Rhee", "field_dob": "", "field_dod": "", "field_school_movement": "", "view_node": "/poet/margaret-rhee", "field_state": ""}, {"poets": "Sara Marie Ortiz", "field_dob": "", "field_dod": "", "field_school_movement": "", "view_node": "/poet/sara-marie-ortiz", "field_state": ""}, {"poets": "Brandy N\u0101lani McDougall", "field_dob": "", "field_dod": "", "field_school_movement": "", "view_node": "/poet/brandy-nalani-mcdougall", "field_state": "Hawaii"}, {"poets": "Roya Marsh ", "field_dob": "", "field_dod": "", "field_school_movement": "", "view_node": "/poet/roya-marsh", "field_state": ""}, {"poets": "Natasha Marin ", "field_dob": "", "field_dod": "", "field_school_movement": "", "view_node": "/poet/natasha-marin", "field_state": ""}, {"poets": "Sheila Maldonado", "field_dob": "", "field_dod": "", "field_school_movement": "", "view_node": "/poet/sheila-maldonado", "field_state": ""}], "pager": {"current_page": 14, "total_items": "3766", "total_pages": 189, "items_per_page": 20}}