{"rows": [{"poets": "Mary Elizabeth Coleridge", "field_dob": "", "field_dod": "", "field_school_movement": "", "view_node": "/poet/mary-elizabeth-coleridge", "field_state": ""}, {"poets": "Lola Ridge", "field_dob": "1873", "field_dod": "1941", "field_school_movement": "", "view_node": "/poet/lola-ridge", "field_state": "New York"}, {"poets": "Shane McCrae", "field_dob": "", "field_dod": "", "field_school_movement": "", "view_node": "/poet/shane-mccrae", "field_state": ""}, {"poets": "Jennifer L. Knox", "field_dob": "", "field_dod": "", "field_school_movement": "", "view_node": "/poet/jennifer-l-knox", "field_state": "Iowa"}, {"poets": "Amy E. King", "field_dob": "", "field_dod": "", "field_school_movement": "", "view_node": "/poet/amy-e-king", "field_state": ""}, {"poets": "Sharon Dolin", "field_dob": "", "field_dod": "", "field_school_movement": "", "view_node": "/poet/sharon-dolin", "field_state": ""}, {"poets": "Shanna Compton", "field_dob": "", "field_dod": "", "field_school_movement": "", "view_node": "/poet/shanna-compton", "field_state": ""}, {"poets": "Sherwood Anderson", "field_dob": "1876", "field_dod": "1941", "field_school_movement": "", "view_node": "/poet/sherwood-anderson", "field_state": ""}, {"poets": "Bin Ramke", "field_dob": "", "field_dod": "", "field_school_movement": "", "view_node": "/poet/bin-ramke", "field_state": "Colorado"}, {"poets": "Kate Durbin", "field_dob": "", "field_dod": "", "field_school_movement": "", "view_node": "/poet/kate-durbin", "field_state": ""}, {"poets": "Tony Sanders", "field_dob": "1957", "field_dod": "2015", "field_school_movement": "Contemporary", "view_node": "/poet/tony-sanders", "field_state": ""}, {"poets": "Rachel Eliza Griffiths", "field_dob": "", "field_dod": "", "field_school_movement": "", "view_node": "/poet/rachel-eliza-griffiths", "field_state": ""}, {"poets": "Dora Malech", "field_dob": "", "field_dod": "", "field_school_movement": "", "view_node": "/poet/dora-malech", "field_state": ""}, {"poets": "Anna Moschovakis", "field_dob": "", "field_dod": "", "field_school_movement": "", "view_node": "/poet/anna-moschovakis", "field_state": "New York"}, {"poets": "Peter Cooley", "field_dob": "", "field_dod": "", "field_school_movement": "", "view_node": "/poet/peter-cooley", "field_state": "Louisiana"}, {"poets": "Ernest Hemingway", "field_dob": "1899", "field_dod": "1961", "field_school_movement": "", "view_node": "/poet/ernest-hemingway", "field_state": ""}, {"poets": "Tim Seibles", "field_dob": "", "field_dod": "", "field_school_movement": "", "view_node": "/poet/tim-seibles", "field_state": "Virginia"}, {"poets": "Anne Spencer", "field_dob": "1882", "field_dod": "1975", "field_school_movement": "Harlem Renaissance", "view_node": "/poet/anne-spencer", "field_state": "Virginia"}, {"poets": "Ching-In Chen", "field_dob": "", "field_dod": "", "field_school_movement": "", "view_node": "/poet/ching-chen", "field_state": "Washington"}, {"poets": "Khadijah Queen", "field_dob": "", "field_dod": "", "field_school_movement": "", "view_node": "/poet/khadijah-queen", "field_state": ""}], "pager": {"current_page": 105, "total_items": "3766", "total_pages": 189, "items_per_page": 20}}