{"rows": [{"poets": "Rena Priest ", "field_dob": "", "field_dod": "", "field_school_movement": "", "view_node": "/poet/rena-priest", "field_state": ""}, {"poets": "James Cihlar", "field_dob": "", "field_dod": "", "field_school_movement": "", "view_node": "/poet/james-cihlar", "field_state": ""}, {"poets": "Alejandro C\u00e1ceres", "field_dob": "", "field_dod": "", "field_school_movement": "", "view_node": "/poet/alejandro-caceres", "field_state": ""}, {"poets": "Delmira Agustini", "field_dob": "1886", "field_dod": "1914", "field_school_movement": "", "view_node": "/poet/delmira-agustini", "field_state": ""}, {"poets": "Claire Meuschke", "field_dob": "", "field_dod": "", "field_school_movement": "", "view_node": "/poet/claire-meuschke", "field_state": ""}, {"poets": "Diana Hamilton", "field_dob": "", "field_dod": "", "field_school_movement": "", "view_node": "/poet/diana-hamilton", "field_state": ""}, {"poets": "Lynn Xu", "field_dob": "", "field_dod": "", "field_school_movement": "", "view_node": "/poet/lynn-xu", "field_state": ""}, {"poets": "Kay Gabriel", "field_dob": "", "field_dod": "", "field_school_movement": "", "view_node": "/poet/kay-gabriel", "field_state": ""}, {"poets": "\u00d6yk\u00fc Tekten", "field_dob": "", "field_dod": "", "field_school_movement": "", "view_node": "/poet/oyku-tekten", "field_state": ""}, {"poets": "Trace Howard DePass", "field_dob": "", "field_dod": "", "field_school_movement": "", "view_node": "/poet/trace-howard-depass", "field_state": ""}, {"poets": "Anne Haven McDonnell ", "field_dob": "", "field_dod": "", "field_school_movement": "", "view_node": "/poet/anne-haven-mcdonnell", "field_state": "New Mexico"}, {"poets": "Lynna Odel", "field_dob": "", "field_dod": "", "field_school_movement": "", "view_node": "/poet/lynna-odel", "field_state": "Alabama"}, {"poets": "Louise Maher-Johnson", "field_dob": "", "field_dod": "", "field_school_movement": "", "view_node": "/poet/louise-maher-johnson", "field_state": ""}, {"poets": "Jos\u00e9 Mart\u00ed", "field_dob": "1853", "field_dod": "1895", "field_school_movement": "", "view_node": "/poet/jose-marti", "field_state": ""}, {"poets": "Esther Allen", "field_dob": "", "field_dod": "", "field_school_movement": "", "view_node": "/poet/esther-allen", "field_state": ""}, {"poets": "Peggy Robles-Alvarado ", "field_dob": "", "field_dod": "", "field_school_movement": "", "view_node": "/poet/peggy-robles-alvarado", "field_state": ""}, {"poets": "Bernard Capinpin", "field_dob": "", "field_dod": "", "field_school_movement": "", "view_node": "/poet/bernard-capinpin", "field_state": ""}, {"poets": "Enrique Villasis", "field_dob": "", "field_dod": "", "field_school_movement": "", "view_node": "/poet/enrique-villasis", "field_state": ""}, {"poets": "Gabriela Mistral ", "field_dob": "1889", "field_dod": "1957", "field_school_movement": "", "view_node": "/poet/gabriela-mistral", "field_state": ""}, {"poets": "Chet&#039;la Sebree", "field_dob": "", "field_dod": "", "field_school_movement": "", "view_node": "/poet/chetla-sebree", "field_state": ""}], "pager": {"current_page": 21, "total_items": "3766", "total_pages": 189, "items_per_page": 20}}