{"rows": [{"poets": "Miguel de Unamuno", "field_dob": "1864", "field_dod": "1936", "field_school_movement": "Poets of Exile", "view_node": "/poet/miguel-de-unamuno", "field_state": ""}, {"poets": "Miguel Hern\u00e1ndez", "field_dob": "1910", "field_dod": "1942", "field_school_movement": "", "view_node": "/poet/miguel-hernandez", "field_state": ""}, {"poets": "Wislawa Szymborska", "field_dob": "1923", "field_dod": "2012", "field_school_movement": "", "view_node": "/poet/wislawa-szymborska", "field_state": ""}, {"poets": "Clare Cavanagh", "field_dob": "", "field_dod": "", "field_school_movement": "", "view_node": "/poet/clare-cavanagh", "field_state": ""}, {"poets": "Adam Zagajewski", "field_dob": "1945", "field_dod": "2021", "field_school_movement": "Contemporary", "view_node": "/poet/adam-zagajewski", "field_state": "Texas"}, {"poets": "Andrew Hudgins", "field_dob": "", "field_dod": "", "field_school_movement": "", "view_node": "/poet/andrew-hudgins", "field_state": "Ohio"}, {"poets": "C. P. Cavafy", "field_dob": "1863", "field_dod": "1933", "field_school_movement": "", "view_node": "/poet/c-p-cavafy", "field_state": ""}, {"poets": "Zbigniew Herbert", "field_dob": "1924", "field_dod": "1998", "field_school_movement": "", "view_node": "/poet/zbigniew-herbert", "field_state": ""}, {"poets": "Paul Val\u00e9ry", "field_dob": "1871", "field_dod": "1945", "field_school_movement": "Symbolists", "view_node": "/poet/paul-valery", "field_state": ""}, {"poets": "Edmund Keeley", "field_dob": "", "field_dod": "", "field_school_movement": "", "view_node": "/poet/edmund-keeley", "field_state": ""}, {"poets": "Horace", "field_dob": "", "field_dod": "", "field_school_movement": "", "view_node": "/poet/horace", "field_state": ""}, {"poets": "David Ferry", "field_dob": "1924", "field_dod": "", "field_school_movement": "", "view_node": "/poet/david-ferry", "field_state": "Massachusetts"}, {"poets": "John Dryden", "field_dob": "1631", "field_dod": "1700", "field_school_movement": "Augustan", "view_node": "/poet/john-dryden", "field_state": ""}, {"poets": "John Carpenter", "field_dob": "", "field_dod": "", "field_school_movement": "", "view_node": "/poet/john-carpenter", "field_state": ""}, {"poets": "Robert Fitzgerald", "field_dob": "1910", "field_dod": "1985", "field_school_movement": "Translators", "view_node": "/poet/robert-fitzgerald", "field_state": ""}, {"poets": "Robert Fagles", "field_dob": "", "field_dod": "", "field_school_movement": "", "view_node": "/poet/robert-fagles", "field_state": ""}, {"poets": "Charles Martin", "field_dob": "1942", "field_dod": "", "field_school_movement": "Formalism", "view_node": "/poet/charles-martin", "field_state": "New York"}, {"poets": "Gertrude Stein", "field_dob": "1874", "field_dod": "1946", "field_school_movement": "Modernism, Poets of World War I", "view_node": "/poet/gertrude-stein", "field_state": "Pennsylvania"}, {"poets": "Paul Celan", "field_dob": "1920", "field_dod": "1970", "field_school_movement": "Language Poetry", "view_node": "/poet/paul-celan", "field_state": ""}, {"poets": "Thomas Wyatt", "field_dob": "1503", "field_dod": "1542", "field_school_movement": "Formalism", "view_node": "/poet/thomas-wyatt", "field_state": ""}], "pager": {"current_page": 182, "total_items": "3766", "total_pages": 189, "items_per_page": 20}}