{"rows": [{"poets": "Francisco X. Alarc\u00f3n", "field_dob": "1954", "field_dod": "2016", "field_school_movement": "Contemporary", "view_node": "/poet/francisco-x-alarcon", "field_state": "California"}, {"poets": "Michael  Meyerhofer", "field_dob": "", "field_dod": "", "field_school_movement": "", "view_node": "/poet/michael-meyerhofer", "field_state": ""}, {"poets": "Jo Sarzotti", "field_dob": "", "field_dod": "", "field_school_movement": "", "view_node": "/poet/jo-sarzotti", "field_state": ""}, {"poets": "Nick  DePascal", "field_dob": "", "field_dod": "", "field_school_movement": "", "view_node": "/poet/nick-depascal", "field_state": ""}, {"poets": "Julia  Cohen", "field_dob": "", "field_dod": "", "field_school_movement": "", "view_node": "/poet/julia-cohen", "field_state": ""}, {"poets": "Allison  Cobb", "field_dob": "", "field_dod": "", "field_school_movement": "", "view_node": "/poet/allison-cobb", "field_state": ""}, {"poets": "Jeffrey  Schultz", "field_dob": "", "field_dod": "", "field_school_movement": "", "view_node": "/poet/jeffrey-schultz", "field_state": ""}, {"poets": "Samantha  Giles", "field_dob": "", "field_dod": "", "field_school_movement": "", "view_node": "/poet/samantha-giles", "field_state": ""}, {"poets": "Nathan  Hoks", "field_dob": "", "field_dod": "", "field_school_movement": "", "view_node": "/poet/nathan-hoks", "field_state": ""}, {"poets": "Larry  Sawyer", "field_dob": "", "field_dod": "", "field_school_movement": "", "view_node": "/poet/larry-sawyer", "field_state": ""}, {"poets": "Joshua  Mehigan", "field_dob": "", "field_dod": "", "field_school_movement": "", "view_node": "/poet/joshua-mehigan", "field_state": ""}, {"poets": "Elizabeth Drew  Stoddard", "field_dob": "", "field_dod": "", "field_school_movement": "", "view_node": "/poet/elizabeth-drew-stoddard", "field_state": ""}, {"poets": "Mike Young", "field_dob": "", "field_dod": "", "field_school_movement": "", "view_node": "/poet/mike-young", "field_state": ""}, {"poets": "Rochelle Owens", "field_dob": "1936", "field_dod": "", "field_school_movement": "Beat, Ethnopoetics", "view_node": "/poet/rochelle-owens", "field_state": ""}, {"poets": "Kristy  Bowen", "field_dob": "", "field_dod": "", "field_school_movement": "", "view_node": "/poet/kristy-bowen", "field_state": ""}, {"poets": "Brian  Russell", "field_dob": "", "field_dod": "", "field_school_movement": "", "view_node": "/poet/brian-russell", "field_state": ""}, {"poets": "Sara Eliza Johnson", "field_dob": "", "field_dod": "", "field_school_movement": "", "view_node": "/poet/sara-eliza-johnson", "field_state": ""}, {"poets": "Fred Moten", "field_dob": "1962", "field_dod": "", "field_school_movement": "Contemporary", "view_node": "/poet/fred-moten", "field_state": ""}, {"poets": "Tony Trigilio", "field_dob": "", "field_dod": "", "field_school_movement": "", "view_node": "/poet/tony-trigilio", "field_state": ""}, {"poets": "Diane di Prima", "field_dob": "1934", "field_dod": "2020", "field_school_movement": "Beat", "view_node": "/poet/diane-di-prima", "field_state": ""}], "pager": {"current_page": 78, "total_items": "3766", "total_pages": 189, "items_per_page": 20}}