{"rows": [{"poets": "Emily Jungmin Yoon", "field_dob": "", "field_dod": "", "field_school_movement": "", "view_node": "/poet/emily-jungmin-yoon", "field_state": ""}, {"poets": "Blas Falconer", "field_dob": "", "field_dod": "", "field_school_movement": "", "view_node": "/poet/blas-falconer", "field_state": ""}, {"poets": "Yang Lian", "field_dob": "", "field_dod": "", "field_school_movement": "Misty Poets", "view_node": "/poet/yang-lian", "field_state": ""}, {"poets": "Karin Gottshall", "field_dob": "", "field_dod": "", "field_school_movement": "", "view_node": "/poet/karin-gottshall", "field_state": ""}, {"poets": "Adeeba Shahid Talukder", "field_dob": "", "field_dod": "", "field_school_movement": "", "view_node": "/poet/adeeba-shahid-talukder", "field_state": ""}, {"poets": "Michael Prior", "field_dob": "", "field_dod": "", "field_school_movement": "", "view_node": "/poet/michael-prior", "field_state": ""}, {"poets": "Jenny George", "field_dob": "", "field_dod": "", "field_school_movement": "", "view_node": "/poet/jenny-george", "field_state": ""}, {"poets": "Peter Twal", "field_dob": "", "field_dod": "", "field_school_movement": "", "view_node": "/poet/peter-twal", "field_state": ""}, {"poets": "Carolina Ebeid", "field_dob": "", "field_dod": "", "field_school_movement": "", "view_node": "/poet/carolina-ebeid", "field_state": ""}, {"poets": "Lena  Khalaf Tuffaha", "field_dob": "", "field_dod": "", "field_school_movement": "", "view_node": "/poet/lena-khalaf-tuffaha", "field_state": ""}, {"poets": "Nabila Lovelace", "field_dob": "", "field_dod": "", "field_school_movement": "", "view_node": "/poet/nabila-lovelace", "field_state": ""}, {"poets": "Joe Jim\u00e9nez", "field_dob": "", "field_dod": "", "field_school_movement": "", "view_node": "/poet/joe-jimenez", "field_state": ""}, {"poets": "Julian Randall", "field_dob": "", "field_dod": "", "field_school_movement": "", "view_node": "/poet/julian-randall", "field_state": ""}, {"poets": "Andr\u00e9s Cerpa", "field_dob": "", "field_dod": "", "field_school_movement": "", "view_node": "/poet/andres-cerpa", "field_state": ""}, {"poets": "Catherine Wing", "field_dob": "", "field_dod": "", "field_school_movement": "", "view_node": "/poet/catherine-wing", "field_state": ""}, {"poets": "Joshua Bennett", "field_dob": "", "field_dod": "", "field_school_movement": "", "view_node": "/poet/joshua-bennett", "field_state": ""}, {"poets": "Paolo Febbraro", "field_dob": "", "field_dod": "", "field_school_movement": "", "view_node": "/poet/paolo-febbraro", "field_state": ""}, {"poets": "Ibn Khalawayh", "field_dob": "", "field_dod": "", "field_school_movement": "", "view_node": "/poet/ibn-khalawayh", "field_state": ""}, {"poets": "Lory Bedikian", "field_dob": "", "field_dod": "", "field_school_movement": "", "view_node": "/poet/lory-bedikian", "field_state": ""}, {"poets": "Hadara Bar-Nadav", "field_dob": "", "field_dod": "", "field_school_movement": "", "view_node": "/poet/hadara-bar-nadav", "field_state": ""}], "pager": {"current_page": 48, "total_items": "3766", "total_pages": 189, "items_per_page": 20}}