{"rows": [{"poets": "Dana Naone Hall", "field_dob": "", "field_dod": "", "field_school_movement": "", "view_node": "/poet/dana-naone-hall", "field_state": ""}, {"poets": "Joe Balaz", "field_dob": "", "field_dod": "", "field_school_movement": "", "view_node": "/poet/joe-balaz", "field_state": ""}, {"poets": "KB Brookins", "field_dob": "", "field_dod": "", "field_school_movement": "", "view_node": "/poet/kb-brookins", "field_state": ""}, {"poets": "Maya Abu Al-Hayyat", "field_dob": "", "field_dod": "", "field_school_movement": "", "view_node": "/poet/maya-abu-al-hayyat", "field_state": ""}, {"poets": "Daniel B. Summerhill ", "field_dob": "", "field_dod": "", "field_school_movement": "", "view_node": "/poet/daniel-b-summerhill", "field_state": ""}, {"poets": "Carly Inghram", "field_dob": "", "field_dod": "", "field_school_movement": "", "view_node": "/poet/carly-inghram", "field_state": ""}, {"poets": "Jamil B. Holway", "field_dob": "1883", "field_dod": "1946", "field_school_movement": "", "view_node": "/poet/jamil-b-holway", "field_state": "New York"}, {"poets": "C. Prudence Arceneaux  ", "field_dob": "", "field_dod": "", "field_school_movement": "", "view_node": "/poet/c-prudence-arceneaux", "field_state": ""}, {"poets": "Kim Stafford", "field_dob": "", "field_dod": "", "field_school_movement": "", "view_node": "/poet/kim-stafford", "field_state": ""}, {"poets": "Clemonce Heard", "field_dob": "", "field_dod": "", "field_school_movement": "", "view_node": "/poet/clemonce-heard", "field_state": ""}, {"poets": "Matt Gonzalez", "field_dob": "", "field_dod": "", "field_school_movement": "", "view_node": "/poet/matt-gonzalez", "field_state": ""}, {"poets": "Iris Tree", "field_dob": "", "field_dod": "", "field_school_movement": "", "view_node": "/poet/iris-tree", "field_state": ""}, {"poets": "Colm T\u00f3ib\u00edn", "field_dob": "1955", "field_dod": "", "field_school_movement": "", "view_node": "/poet/colm-toibin", "field_state": ""}, {"poets": "Loretta Diane Walker", "field_dob": "", "field_dod": "", "field_school_movement": "", "view_node": "/poet/loretta-diane-walker", "field_state": ""}, {"poets": "Ken Cockburn", "field_dob": "", "field_dod": "", "field_school_movement": "", "view_node": "/poet/ken-cockburn", "field_state": ""}, {"poets": "Mosab Abu Toha", "field_dob": "", "field_dod": "", "field_school_movement": "", "view_node": "/poet/mosab-abu-toha", "field_state": ""}, {"poets": "Jos\u00e9 Antonio Rodr\u00edguez", "field_dob": "", "field_dod": "", "field_school_movement": "", "view_node": "/poet/jose-antonio-rodriguez", "field_state": ""}, {"poets": "Kweku Abimbola", "field_dob": "", "field_dod": "", "field_school_movement": "", "view_node": "/poet/kweku-abimbola", "field_state": ""}, {"poets": "Jenny Browne", "field_dob": "", "field_dod": "", "field_school_movement": "", "view_node": "/poet/jenny-browne-0", "field_state": ""}, {"poets": "May Sinclair", "field_dob": "1863", "field_dod": "1946", "field_school_movement": "", "view_node": "/poet/may-sinclair", "field_state": ""}], "pager": {"current_page": 5, "total_items": "3766", "total_pages": 189, "items_per_page": 20}}