{"rows": [{"poets": "Tom Sleigh", "field_dob": "", "field_dod": "", "field_school_movement": "Contemporary", "view_node": "/poet/tom-sleigh", "field_state": "New York"}, {"poets": "Daryl Hine", "field_dob": "", "field_dod": "", "field_school_movement": "", "view_node": "/poet/daryl-hine", "field_state": "Illinois"}, {"poets": "Ruth Stone", "field_dob": "1915", "field_dod": "2011", "field_school_movement": "", "view_node": "/poet/ruth-stone", "field_state": "Vermont"}, {"poets": "Lawrence Ferlinghetti", "field_dob": "1919", "field_dod": "2021", "field_school_movement": "Beat", "view_node": "/poet/lawrence-ferlinghetti", "field_state": "California"}, {"poets": "Jay Wright", "field_dob": "1934", "field_dod": "", "field_school_movement": "", "view_node": "/poet/jay-wright", "field_state": "Vermont"}, {"poets": "Boris Pasternak", "field_dob": "1890", "field_dod": "1960", "field_school_movement": "", "view_node": "/poet/boris-pasternak", "field_state": ""}, {"poets": "James Dickey", "field_dob": "1923", "field_dod": "1997", "field_school_movement": "", "view_node": "/poet/james-dickey", "field_state": "South Carolina"}, {"poets": "Julia Spicher Kasdorf", "field_dob": "1962", "field_dod": "", "field_school_movement": "", "view_node": "/poet/julia-spicher-kasdorf", "field_state": "Pennsylvania"}, {"poets": "Jane Kenyon", "field_dob": "1947", "field_dod": "1995", "field_school_movement": "", "view_node": "/poet/jane-kenyon", "field_state": "New Hampshire"}, {"poets": "Lee Ann Roripaugh", "field_dob": "", "field_dod": "", "field_school_movement": "", "view_node": "/poet/lee-ann-roripaugh", "field_state": "South Dakota"}, {"poets": "Charlie Smith", "field_dob": "1947", "field_dod": "", "field_school_movement": "", "view_node": "/poet/charlie-smith", "field_state": "New York"}, {"poets": "Salvatore Quasimodo", "field_dob": "1901", "field_dod": "1968", "field_school_movement": "Translators", "view_node": "/poet/salvatore-quasimodo", "field_state": ""}, {"poets": "Alison Hawthorne Deming", "field_dob": "1946", "field_dod": "", "field_school_movement": "Contemporary", "view_node": "/poet/alison-hawthorne-deming", "field_state": "Arizona"}, {"poets": "Greg Glazner", "field_dob": "1950", "field_dod": "", "field_school_movement": "", "view_node": "/poet/greg-glazner", "field_state": "New Mexico"}, {"poets": "Susan Wood", "field_dob": "1946", "field_dod": "", "field_school_movement": "", "view_node": "/poet/susan-wood", "field_state": "Texas"}, {"poets": "Dionisio D. Mart\u00ednez", "field_dob": "1956", "field_dod": "", "field_school_movement": "Contemporary", "view_node": "/poet/dionisio-d-martinez", "field_state": "Florida"}, {"poets": "Walt McDonald", "field_dob": "1934", "field_dod": "", "field_school_movement": "", "view_node": "/poet/walt-mcdonald", "field_state": "Texas"}, {"poets": "Kay Ryan", "field_dob": "1945", "field_dod": "", "field_school_movement": "Language Poetry", "view_node": "/poet/kay-ryan", "field_state": ""}, {"poets": "Liz Waldner", "field_dob": "", "field_dod": "", "field_school_movement": "", "view_node": "/poet/liz-waldner", "field_state": "Mississippi"}, {"poets": "Sherod Santos", "field_dob": "1948", "field_dod": "", "field_school_movement": "Contemporary", "view_node": "/poet/sherod-santos", "field_state": ""}], "pager": {"current_page": 181, "total_items": "3766", "total_pages": 189, "items_per_page": 20}}