{"rows": [{"poets": "James Edwin Campbell", "field_dob": "1867", "field_dod": "1896", "field_school_movement": "", "view_node": "/poet/james-edwin-campbell", "field_state": "West Virginia"}, {"poets": "Pamela Sneed ", "field_dob": "", "field_dod": "", "field_school_movement": "", "view_node": "/poet/pamela-sneed", "field_state": ""}, {"poets": "A. H. Jerriod Avant", "field_dob": "", "field_dod": "", "field_school_movement": "", "view_node": "/poet/a-h-jerriod-avant", "field_state": ""}, {"poets": "Elizabeth Curtis Holman", "field_dob": "", "field_dod": "", "field_school_movement": "", "view_node": "/poet/elizabeth-curtis-holman", "field_state": ""}, {"poets": "Laren McClung", "field_dob": "", "field_dod": "", "field_school_movement": "", "view_node": "/poet/laren-mcclung", "field_state": ""}, {"poets": "Warsan Shire", "field_dob": "", "field_dod": "", "field_school_movement": "", "view_node": "/poet/warsan-shire", "field_state": ""}, {"poets": "Kerry Carnahan", "field_dob": "", "field_dod": "", "field_school_movement": "", "view_node": "/poet/kerry-carnahan", "field_state": ""}, {"poets": "Tatiana Luboviski-Acosta", "field_dob": "", "field_dod": "", "field_school_movement": "", "view_node": "/poet/tatiana-luboviski-acosta", "field_state": ""}, {"poets": "Aldrin Valdez", "field_dob": "", "field_dod": "", "field_school_movement": "", "view_node": "/poet/aldrin-valdez", "field_state": ""}, {"poets": "Helen Dimos", "field_dob": "", "field_dod": "", "field_school_movement": "", "view_node": "/poet/helen-dimos", "field_state": ""}, {"poets": "Tiana Reid", "field_dob": "", "field_dod": "", "field_school_movement": "", "view_node": "/poet/tiana-reid", "field_state": ""}, {"poets": "Ass\u00e9tou Xango", "field_dob": "", "field_dod": "", "field_school_movement": "", "view_node": "/poet/assetou-xango", "field_state": "Colorado"}, {"poets": "Alexandria Peary", "field_dob": "", "field_dod": "", "field_school_movement": "", "view_node": "/poet/alexandria-peary", "field_state": "New Hampshire"}, {"poets": "Porsha Olayiwola", "field_dob": "", "field_dod": "", "field_school_movement": "", "view_node": "/poet/porsha-olayiwola", "field_state": "Massachusetts"}, {"poets": "Maria Lisella", "field_dob": "", "field_dod": "", "field_school_movement": "", "view_node": "/poet/maria-lisella", "field_state": "New York"}, {"poets": "Al Mills", "field_dob": "", "field_dod": "", "field_school_movement": "", "view_node": "/poet/al-mills", "field_state": "Delaware"}, {"poets": "Rosemarie Dombrowski", "field_dob": "", "field_dod": "", "field_school_movement": "", "view_node": "/poet/rosemarie-dombrowski", "field_state": "Arizona"}, {"poets": "Nnamdi O. Chukwuocha", "field_dob": "", "field_dod": "", "field_school_movement": "", "view_node": "/poet/nnamdi-o-chukwuocha", "field_state": "Delaware"}, {"poets": "Amie Whittemore", "field_dob": "", "field_dod": "", "field_school_movement": "", "view_node": "/poet/amie-whittemore", "field_state": "Tennessee"}, {"poets": "John Warner Smith", "field_dob": "", "field_dod": "", "field_school_movement": "", "view_node": "/poet/john-warner-smith", "field_state": "Louisiana"}], "pager": {"current_page": 25, "total_items": "3766", "total_pages": 189, "items_per_page": 20}}