{"rows": [{"poets": "Laura Hershey", "field_dob": "1962", "field_dod": "2010", "field_school_movement": "", "view_node": "/poet/laura-hershey", "field_state": ""}, {"poets": "Constance Merritt", "field_dob": "", "field_dod": "", "field_school_movement": "", "view_node": "/poet/constance-merritt", "field_state": "Kentucky"}, {"poets": "Jennifer Givhan", "field_dob": "", "field_dod": "", "field_school_movement": "", "view_node": "/poet/jennifer-givhan", "field_state": "New Mexico"}, {"poets": "torrin a. greathouse", "field_dob": "", "field_dod": "", "field_school_movement": "", "view_node": "/poet/torrin-greathouse", "field_state": ""}, {"poets": "Mariahadessa Ekere Tallie", "field_dob": "", "field_dod": "", "field_school_movement": "", "view_node": "/poet/mariahadessa-ekere-tallie", "field_state": ""}, {"poets": "Camisha L.  Jones", "field_dob": "", "field_dod": "", "field_school_movement": "", "view_node": "/poet/camisha-l-jones", "field_state": "Virginia"}, {"poets": "Leah Lakshmi Piepzna-Samarasinha", "field_dob": "", "field_dod": "", "field_school_movement": "", "view_node": "/poet/leah-lakshmi-piepzna-samarasinha", "field_state": ""}, {"poets": "Nomi Stone", "field_dob": "", "field_dod": "", "field_school_movement": "", "view_node": "/poet/nomi-stone", "field_state": ""}, {"poets": "Duy Doan", "field_dob": "", "field_dod": "", "field_school_movement": "", "view_node": "/poet/duy-doan", "field_state": ""}, {"poets": "Ama Codjoe", "field_dob": "", "field_dod": "", "field_school_movement": "", "view_node": "/poet/ama-codjoe", "field_state": ""}, {"poets": "Ben Purkert", "field_dob": "", "field_dod": "", "field_school_movement": "", "view_node": "/poet/ben-purkert", "field_state": ""}, {"poets": "Duriel E. Harris", "field_dob": "", "field_dod": "", "field_school_movement": "", "view_node": "/poet/duriel-e-harris", "field_state": ""}, {"poets": "John Keene", "field_dob": "", "field_dod": "", "field_school_movement": "", "view_node": "/poet/john-keene", "field_state": ""}, {"poets": "Katherine Riegel", "field_dob": "", "field_dod": "", "field_school_movement": "", "view_node": "/poet/katherine-riegel", "field_state": ""}, {"poets": "Madeline Gleason", "field_dob": "1903", "field_dod": "1979", "field_school_movement": "San Francisco Renaissance", "view_node": "/poet/madeline-gleason", "field_state": "California"}, {"poets": "Danusha Lam\u00e9ris", "field_dob": "", "field_dod": "", "field_school_movement": "", "view_node": "/poet/danusha-lameris", "field_state": ""}, {"poets": "Eve L. Ewing", "field_dob": "", "field_dod": "", "field_school_movement": "", "view_node": "/poet/eve-l-ewing", "field_state": "Illinois"}, {"poets": "Soham Patel", "field_dob": "", "field_dod": "", "field_school_movement": "", "view_node": "/poet/soham-patel", "field_state": ""}, {"poets": "Lara  Mimosa Montes", "field_dob": "", "field_dod": "", "field_school_movement": "", "view_node": "/poet/lara-mimosa-montes", "field_state": ""}, {"poets": "Lucia LoTempio", "field_dob": "", "field_dod": "", "field_school_movement": "", "view_node": "/poet/lucia-lotempio", "field_state": ""}], "pager": {"current_page": 53, "total_items": "3766", "total_pages": 189, "items_per_page": 20}}