{"rows": [{"poets": "Lynley Edmeades", "field_dob": "", "field_dod": "", "field_school_movement": "", "view_node": "/poet/lynley-edmeades", "field_state": ""}, {"poets": "Nancy Naomi Carlson", "field_dob": "", "field_dod": "", "field_school_movement": "", "view_node": "/poet/nancy-naomi-carlson", "field_state": ""}, {"poets": "Jennifer Atkinson", "field_dob": "", "field_dod": "", "field_school_movement": "", "view_node": "/poet/jennifer-atkinson", "field_state": ""}, {"poets": "Leslie Williams", "field_dob": "", "field_dod": "", "field_school_movement": "", "view_node": "/poet/leslie-williams", "field_state": ""}, {"poets": "Amaud Jamaul Johnson", "field_dob": "", "field_dod": "", "field_school_movement": "", "view_node": "/poet/amaud-jamaul-johnson", "field_state": ""}, {"poets": "Sanki Sait\u014d", "field_dob": "1900", "field_dod": "1962", "field_school_movement": "", "view_node": "/poet/sanki-saito", "field_state": ""}, {"poets": "Ryan Choi", "field_dob": "", "field_dod": "", "field_school_movement": "", "view_node": "/poet/ryan-choi", "field_state": ""}, {"poets": "Brandon Amico", "field_dob": "", "field_dod": "", "field_school_movement": "", "view_node": "/poet/brandon-amico", "field_state": ""}, {"poets": "Bertrand N. O. Walker", "field_dob": "1870", "field_dod": "1927", "field_school_movement": "", "view_node": "/poet/bertrand-n-o-walker", "field_state": ""}, {"poets": "Amelia Josephine Burr", "field_dob": "1878", "field_dod": "1968", "field_school_movement": "", "view_node": "/poet/amelia-josephine-burr", "field_state": ""}, {"poets": "Henry van Dyke", "field_dob": "1852", "field_dod": "1933", "field_school_movement": "", "view_node": "/poet/henry-van-dyke", "field_state": "New Jersey"}, {"poets": "Dana Burnet", "field_dob": "1888", "field_dod": "1962", "field_school_movement": "Poets of World War I", "view_node": "/poet/dana-burnet", "field_state": ""}, {"poets": "Christopher Morley", "field_dob": "1890", "field_dod": "1957", "field_school_movement": "Poets of World War I", "view_node": "/poet/christopher-morley", "field_state": ""}, {"poets": "Amos Wilder", "field_dob": "1895", "field_dod": "1993", "field_school_movement": "Poets of World War I", "view_node": "/poet/amos-wilder", "field_state": ""}, {"poets": "John Allan Wyeth", "field_dob": "1894", "field_dod": "1981", "field_school_movement": "Poets of World War I", "view_node": "/poet/john-allan-wyeth", "field_state": ""}, {"poets": "Florence Earle Coates", "field_dob": "1850", "field_dod": "1927", "field_school_movement": "Poets of World War I", "view_node": "/poet/florence-earle-coates", "field_state": "Pennsylvania"}, {"poets": "Vera Brittain", "field_dob": "1893", "field_dod": "1970", "field_school_movement": "Poets of World War I", "view_node": "/poet/vera-brittain", "field_state": ""}, {"poets": "May Wedderburn Cannan", "field_dob": "1893", "field_dod": "1973", "field_school_movement": "Poets of World War I", "view_node": "/poet/may-wedderburn-cannan", "field_state": ""}, {"poets": "Jessie Pope", "field_dob": "1868", "field_dod": "1941", "field_school_movement": "Poets of World War I", "view_node": "/poet/jessie-pope", "field_state": ""}, {"poets": "Edmund Blunden", "field_dob": "1896", "field_dod": "1974", "field_school_movement": "Poets of World War I", "view_node": "/poet/edmund-blunden", "field_state": ""}], "pager": {"current_page": 45, "total_items": "3766", "total_pages": 189, "items_per_page": 20}}