{"rows": [{"poets": "Lynne Thompson", "field_dob": "", "field_dod": "", "field_school_movement": "", "view_node": "/poet/lynne-thompson", "field_state": ""}, {"poets": "Lupe Mendez", "field_dob": "", "field_dod": "", "field_school_movement": "", "view_node": "/poet/lupe-mendez", "field_state": ""}, {"poets": "Sokunthary Svay", "field_dob": "", "field_dod": "", "field_school_movement": "", "view_node": "/poet/sokunthary-svay", "field_state": ""}, {"poets": "Sandra Gustin", "field_dob": "", "field_dod": "", "field_school_movement": "", "view_node": "/poet/sandra-gustin", "field_state": ""}, {"poets": "Ina Coolbrith", "field_dob": "", "field_dod": "", "field_school_movement": "", "view_node": "/poet/ina-coolbrith", "field_state": ""}, {"poets": "Mariah Bosch", "field_dob": "", "field_dod": "", "field_school_movement": "", "view_node": "/poet/mariah-bosch", "field_state": ""}, {"poets": "Luisa A. Igloria", "field_dob": "", "field_dod": "", "field_school_movement": "", "view_node": "/poet/luisa-igloria", "field_state": "Virginia"}, {"poets": "Achy Obejas", "field_dob": "", "field_dod": "", "field_school_movement": "", "view_node": "/poet/achy-obejas", "field_state": ""}, {"poets": "Alessandra Narv\u00e1ez Varela", "field_dob": "", "field_dod": "", "field_school_movement": "", "view_node": "/poet/alessandra-narvaez-varela", "field_state": ""}, {"poets": "Andrea Cote-Botero", "field_dob": "", "field_dod": "", "field_school_movement": "", "view_node": "/poet/andrea-cote-botero", "field_state": ""}, {"poets": "Albert Abonado", "field_dob": "", "field_dod": "", "field_school_movement": "", "view_node": "/poet/albert-abonado", "field_state": ""}, {"poets": "Deborah A. Miranda", "field_dob": "", "field_dod": "", "field_school_movement": "", "view_node": "/poet/deborah-miranda", "field_state": ""}, {"poets": "Aldo Ampar\u00e1n", "field_dob": "", "field_dod": "", "field_school_movement": "", "view_node": "/poet/aldo-amparan", "field_state": ""}, {"poets": "Corrinne Clegg Hales", "field_dob": "", "field_dod": "", "field_school_movement": "", "view_node": "/poet/corrinne-clegg-hales", "field_state": ""}, {"poets": "Hera Naguib ", "field_dob": "", "field_dod": "", "field_school_movement": "", "view_node": "/poet/hera-naguib", "field_state": ""}, {"poets": "Nh\u01b0 Xu\u00e2n Nguy\u1ec5n", "field_dob": "", "field_dod": "", "field_school_movement": "", "view_node": "/poet/nhu-xuan-nguyen", "field_state": ""}, {"poets": "Vincent Toro", "field_dob": "", "field_dod": "", "field_school_movement": "", "view_node": "/poet/vincent-toro", "field_state": ""}, {"poets": "Jenny Zhang", "field_dob": "", "field_dod": "", "field_school_movement": "", "view_node": "/poet/jenny-zhang", "field_state": ""}, {"poets": "Theodore Henry Shackelford ", "field_dob": "1888", "field_dod": "1923", "field_school_movement": "", "view_node": "/poet/theodore-henry-shackelford", "field_state": ""}, {"poets": "Momtaza Mehri ", "field_dob": "", "field_dod": "", "field_school_movement": "", "view_node": "/poet/momtaza-mehri", "field_state": ""}], "pager": {"current_page": 18, "total_items": "3766", "total_pages": 189, "items_per_page": 20}}