{"rows": [{"poets": "Eloise Bibb Thompson ", "field_dob": "", "field_dod": "", "field_school_movement": "", "view_node": "/poet/eloise-bibb-thompson", "field_state": ""}, {"poets": "danilo machado ", "field_dob": "", "field_dod": "", "field_school_movement": "", "view_node": "/poet/danilo-machado", "field_state": ""}, {"poets": "Cyr\u00e9e Jarelle Johnson ", "field_dob": "", "field_dod": "", "field_school_movement": "", "view_node": "/poet/cyree-jarelle-johnson", "field_state": ""}, {"poets": "Ayesha Raees", "field_dob": "", "field_dod": "", "field_school_movement": "", "view_node": "/poet/ayesha-raees", "field_state": ""}, {"poets": "Toru Dutt", "field_dob": "", "field_dod": "", "field_school_movement": "", "view_node": "/poet/toru-dutt", "field_state": ""}, {"poets": "Brian Sonia-Wallace", "field_dob": "", "field_dod": "", "field_school_movement": "", "view_node": "/poet/brian-sonia-wallace", "field_state": "California"}, {"poets": "M. Bartley Seigel", "field_dob": "", "field_dod": "", "field_school_movement": "", "view_node": "/poet/m-bartley-seigel", "field_state": "Michigan"}, {"poets": "Andrea \u201cVocab\u201d Sanderson", "field_dob": "", "field_dod": "", "field_school_movement": "", "view_node": "/poet/andrea-vocab-sanderson", "field_state": "Texas"}, {"poets": "Trapeta B. Mayson", "field_dob": "", "field_dod": "", "field_school_movement": "", "view_node": "/poet/trapeta-b-mayson", "field_state": "Pennsylvania"}, {"poets": "Debra Marquart", "field_dob": "", "field_dod": "", "field_school_movement": "", "view_node": "/poet/debra-marquart", "field_state": "Iowa"}, {"poets": "Bobby LeFebre", "field_dob": "", "field_dod": "", "field_school_movement": "", "view_node": "/poet/bobby-lefebre", "field_state": "Colorado"}, {"poets": "Dasha Kelly Hamilton", "field_dob": "", "field_dod": "", "field_school_movement": "", "view_node": "/poet/dasha-kelly-hamilton", "field_state": "Wisconsin"}, {"poets": "Kari Gunter-Seymour", "field_dob": "", "field_dod": "", "field_school_movement": "", "view_node": "/poet/kari-gunter-seymour", "field_state": "Ohio"}, {"poets": "Chasity Gunn", "field_dob": "", "field_dod": "", "field_school_movement": "", "view_node": "/poet/chasity-gunn", "field_state": "Illinois"}, {"poets": "Georgina Marie Guardado", "field_dob": "", "field_dod": "", "field_school_movement": "", "view_node": "/poet/georgina-marie-guardado", "field_state": "California"}, {"poets": "Magdalena G\u00f3mez", "field_dob": "", "field_dod": "", "field_school_movement": "", "view_node": "/poet/magdalena-gomez", "field_state": "Massachusetts"}, {"poets": "Leslie Contreras Schwartz", "field_dob": "", "field_dod": "", "field_school_movement": "", "view_node": "/poet/leslie-contreras-schwartz", "field_state": "Texas"}, {"poets": "Aileen Cassinetto", "field_dob": "", "field_dod": "", "field_school_movement": "", "view_node": "/poet/aileen-cassinetto", "field_state": "California"}, {"poets": "Roscoe Burnems", "field_dob": "", "field_dod": "", "field_school_movement": "", "view_node": "/poet/roscoe-burnems", "field_state": "Virginia"}, {"poets": "Marcus Amaker", "field_dob": "", "field_dod": "", "field_school_movement": "", "view_node": "/poet/marcus-amaker", "field_state": "South Carolina"}], "pager": {"current_page": 16, "total_items": "3766", "total_pages": 189, "items_per_page": 20}}