{"rows": [{"poets": "Deborah Garrison", "field_dob": "1965", "field_dod": "", "field_school_movement": "Contemporary", "view_node": "/poet/deborah-garrison", "field_state": "New Jersey"}, {"poets": "Maggie Nelson", "field_dob": "", "field_dod": "", "field_school_movement": "", "view_node": "/poet/maggie-nelson", "field_state": ""}, {"poets": "Grace Schulman", "field_dob": "", "field_dod": "", "field_school_movement": "", "view_node": "/poet/grace-schulman", "field_state": "New York"}, {"poets": "Elizabeth Hall Witherell", "field_dob": "", "field_dod": "", "field_school_movement": "", "view_node": "/poet/elizabeth-hall-witherell", "field_state": ""}, {"poets": "Walter de la Mare", "field_dob": "", "field_dod": "", "field_school_movement": "", "view_node": "/poet/walter-de-la-mare", "field_state": ""}, {"poets": "Jack Hirschman", "field_dob": "1933", "field_dod": "2021", "field_school_movement": "", "view_node": "/poet/jack-hirschman", "field_state": ""}, {"poets": "Jalal al-Din Rumi", "field_dob": "1207", "field_dod": "1273", "field_school_movement": "", "view_node": "/poet/jalal-al-din-rumi", "field_state": ""}, {"poets": "Jimmy Santiago Baca", "field_dob": "1952", "field_dod": "", "field_school_movement": "", "view_node": "/poet/jimmy-santiago-baca", "field_state": ""}, {"poets": "Frederick Seidel", "field_dob": "1936", "field_dod": "", "field_school_movement": "", "view_node": "/poet/frederick-seidel", "field_state": ""}, {"poets": "Ed Friedman", "field_dob": "", "field_dod": "", "field_school_movement": "", "view_node": "/poet/ed-friedman", "field_state": ""}, {"poets": "M\u00f3nica de la Torre", "field_dob": "", "field_dod": "", "field_school_movement": "", "view_node": "/poet/monica-de-la-torre", "field_state": ""}, {"poets": "George Santayana", "field_dob": "1863", "field_dod": "1952", "field_school_movement": "", "view_node": "/poet/george-santayana", "field_state": ""}, {"poets": "Mary Jo Bang", "field_dob": "1946", "field_dod": "", "field_school_movement": "", "view_node": "/poet/mary-jo-bang", "field_state": ""}, {"poets": "Alan Jenkins", "field_dob": "", "field_dod": "", "field_school_movement": "", "view_node": "/poet/alan-jenkins", "field_state": ""}, {"poets": "Hayan Charara", "field_dob": "1972", "field_dod": "", "field_school_movement": "", "view_node": "/poet/hayan-charara", "field_state": "Texas"}, {"poets": "Dennis Hinrichsen", "field_dob": "", "field_dod": "", "field_school_movement": "", "view_node": "/poet/dennis-hinrichsen", "field_state": ""}, {"poets": "Susan Yuzna", "field_dob": "", "field_dod": "", "field_school_movement": "", "view_node": "/poet/susan-yuzna", "field_state": ""}, {"poets": "James Fenton", "field_dob": "", "field_dod": "", "field_school_movement": "", "view_node": "/poet/james-fenton", "field_state": ""}, {"poets": "Michael Waters", "field_dob": "", "field_dod": "", "field_school_movement": "", "view_node": "/poet/michael-waters", "field_state": ""}, {"poets": "Mary Jane Nealon", "field_dob": "", "field_dod": "", "field_school_movement": "", "view_node": "/poet/mary-jane-nealon", "field_state": ""}], "pager": {"current_page": 173, "total_items": "3766", "total_pages": 189, "items_per_page": 20}}