{"rows": [{"poets": "William Morris", "field_dob": "1834", "field_dod": "1896", "field_school_movement": "", "view_node": "/poet/william-morris", "field_state": ""}, {"poets": "Percy MacKaye", "field_dob": "", "field_dod": "", "field_school_movement": "", "view_node": "/poet/percy-mackaye", "field_state": ""}, {"poets": "Jeffrey Encke", "field_dob": "", "field_dod": "", "field_school_movement": "", "view_node": "/poet/jeffrey-encke", "field_state": ""}, {"poets": "Linda Bierds", "field_dob": "", "field_dod": "", "field_school_movement": "", "view_node": "/poet/linda-bierds", "field_state": "Washington"}, {"poets": "George Wither", "field_dob": "1588", "field_dod": "1667", "field_school_movement": "", "view_node": "/poet/george-wither", "field_state": ""}, {"poets": "William Makepeace Thackeray", "field_dob": "1811", "field_dod": "1863", "field_school_movement": "", "view_node": "/poet/william-makepeace-thackeray", "field_state": ""}, {"poets": "Timothy Steele", "field_dob": "1948", "field_dod": "", "field_school_movement": "Formalism", "view_node": "/poet/timothy-steele", "field_state": "California"}, {"poets": "Clement Clarke Moore", "field_dob": "1779", "field_dod": "1863", "field_school_movement": "", "view_node": "/poet/clement-clarke-moore", "field_state": ""}, {"poets": "John Giorno", "field_dob": "1936", "field_dod": "2019", "field_school_movement": "Beat", "view_node": "/poet/john-giorno", "field_state": "New York"}, {"poets": "Harriet Maxwell Converse", "field_dob": "1836", "field_dod": "1903", "field_school_movement": "", "view_node": "/poet/harriet-maxwell-converse", "field_state": ""}, {"poets": "Ron Silliman", "field_dob": "1946", "field_dod": "", "field_school_movement": "Language Poetry", "view_node": "/poet/ron-silliman", "field_state": "Pennsylvania"}, {"poets": "Samuel Menashe", "field_dob": "1925", "field_dod": "2011", "field_school_movement": "", "view_node": "/poet/samuel-menashe", "field_state": ""}, {"poets": "Wyatt Prunty", "field_dob": "1947", "field_dod": "", "field_school_movement": "Formalism", "view_node": "/poet/wyatt-prunty", "field_state": "Tennessee"}, {"poets": "Laura Hinton", "field_dob": "", "field_dod": "", "field_school_movement": "", "view_node": "/poet/laura-hinton", "field_state": ""}, {"poets": "Anne Pierson Wiese", "field_dob": "", "field_dod": "", "field_school_movement": "", "view_node": "/poet/anne-pierson-wiese", "field_state": "New York"}, {"poets": "August Kleinzahler", "field_dob": "", "field_dod": "", "field_school_movement": "", "view_node": "/poet/august-kleinzahler", "field_state": ""}, {"poets": "Louis Begley", "field_dob": "", "field_dod": "", "field_school_movement": "", "view_node": "/poet/louis-begley", "field_state": ""}, {"poets": "Fran\u00e7ois Villon", "field_dob": "", "field_dod": "", "field_school_movement": "", "view_node": "/poet/francois-villon", "field_state": ""}, {"poets": "Lew Welch", "field_dob": "1926", "field_dod": "1971", "field_school_movement": "", "view_node": "/poet/lew-welch", "field_state": "California"}, {"poets": "Fady Joudah", "field_dob": "", "field_dod": "", "field_school_movement": "", "view_node": "/poet/fady-joudah", "field_state": "Texas"}], "pager": {"current_page": 134, "total_items": "3766", "total_pages": 189, "items_per_page": 20}}