{"rows": [{"poets": "Gina Myers", "field_dob": "", "field_dod": "", "field_school_movement": "", "view_node": "/poet/gina-myers", "field_state": ""}, {"poets": "Brian Henry", "field_dob": "", "field_dod": "", "field_school_movement": "", "view_node": "/poet/brian-henry", "field_state": ""}, {"poets": "Adam Fell", "field_dob": "", "field_dod": "", "field_school_movement": "", "view_node": "/poet/adam-fell", "field_state": ""}, {"poets": "Clark Ashton Smith", "field_dob": "", "field_dod": "", "field_school_movement": "", "view_node": "/poet/clark-ashton-smith", "field_state": ""}, {"poets": "Ben Kopel", "field_dob": "", "field_dod": "", "field_school_movement": "", "view_node": "/poet/ben-kopel", "field_state": "Louisiana"}, {"poets": "Kathryn Cowles", "field_dob": "", "field_dod": "", "field_school_movement": "", "view_node": "/poet/kathryn-cowles", "field_state": ""}, {"poets": "Thom Donovan", "field_dob": "", "field_dod": "", "field_school_movement": "", "view_node": "/poet/thom-donovan", "field_state": ""}, {"poets": "Sandy Florian", "field_dob": "", "field_dod": "", "field_school_movement": "", "view_node": "/poet/sandy-florian", "field_state": ""}, {"poets": "Melissa Broder", "field_dob": "", "field_dod": "", "field_school_movement": "", "view_node": "/poet/melissa-broder", "field_state": ""}, {"poets": "Langdon Hammer", "field_dob": "", "field_dod": "", "field_school_movement": "", "view_node": "/poet/langdon-hammer", "field_state": ""}, {"poets": "Gregory Sherl", "field_dob": "", "field_dod": "", "field_school_movement": "", "view_node": "/poet/gregory-sherl", "field_state": ""}, {"poets": "T. E. Hulme", "field_dob": "1883", "field_dod": "1917", "field_school_movement": "Imagism, Poets of World War I", "view_node": "/poet/t-e-hulme", "field_state": ""}, {"poets": "Matthew Thorburn", "field_dob": "", "field_dod": "", "field_school_movement": "", "view_node": "/poet/matthew-thorburn", "field_state": ""}, {"poets": "Joe Brainard", "field_dob": "1942", "field_dod": "1994", "field_school_movement": "New York School", "view_node": "/poet/joe-brainard", "field_state": "New York"}, {"poets": "Th\u00e9ophile Gautier", "field_dob": "", "field_dod": "", "field_school_movement": "", "view_node": "/poet/theophile-gautier", "field_state": ""}, {"poets": "William Knox", "field_dob": "1789", "field_dod": "1825", "field_school_movement": "", "view_node": "/poet/william-knox", "field_state": ""}, {"poets": "Susan Kinsolving", "field_dob": "", "field_dod": "", "field_school_movement": "", "view_node": "/poet/susan-kinsolving", "field_state": "Connecticut"}, {"poets": "Pindar", "field_dob": "", "field_dod": "", "field_school_movement": "", "view_node": "/poet/pindar", "field_state": ""}, {"poets": "Howard Altmann", "field_dob": "", "field_dod": "", "field_school_movement": "", "view_node": "/poet/howard-altmann", "field_state": ""}, {"poets": "Stacy Szymaszek", "field_dob": "1969", "field_dod": "", "field_school_movement": "", "view_node": "/poet/stacy-szymaszek", "field_state": ""}], "pager": {"current_page": 99, "total_items": "3766", "total_pages": 189, "items_per_page": 20}}