{"rows": [{"poets": "Anna Rosenwong", "field_dob": "", "field_dod": "", "field_school_movement": "", "view_node": "/poet/anna-rosenwong", "field_state": ""}, {"poets": "Mara Pastor", "field_dob": "", "field_dod": "", "field_school_movement": "", "view_node": "/poet/mara-pastor", "field_state": ""}, {"poets": "Mar\u00eda Jos\u00e9 Gim\u00e9nez", "field_dob": "", "field_dod": "", "field_school_movement": "", "view_node": "/poet/maria-jose-gimenez", "field_state": ""}, {"poets": "Ira Goga", "field_dob": "", "field_dod": "", "field_school_movement": "", "view_node": "/poet/ira-goga", "field_state": ""}, {"poets": "Chenxin Jiang", "field_dob": "", "field_dod": "", "field_school_movement": "", "view_node": "/poet/chenxin-jiang", "field_state": ""}, {"poets": "Yau Ching", "field_dob": "", "field_dod": "", "field_school_movement": "", "view_node": "/poet/yau-ching", "field_state": ""}, {"poets": "Darrel Alejandro Holnes", "field_dob": "", "field_dod": "", "field_school_movement": "", "view_node": "/poet/darrel-alejandro-holnes", "field_state": ""}, {"poets": "Xochitl-Julisa Bermejo", "field_dob": "", "field_dod": "", "field_school_movement": "", "view_node": "/poet/xochitl-julisa-bermejo", "field_state": ""}, {"poets": "Indran Amirthanayagam", "field_dob": "", "field_dod": "", "field_school_movement": "", "view_node": "/poet/indran-amirthanayagam", "field_state": ""}, {"poets": "Julio Pazos Barrera", "field_dob": "", "field_dod": "", "field_school_movement": "", "view_node": "/poet/julio-pazos-barrera", "field_state": ""}, {"poets": "Bryan Mendoza", "field_dob": "", "field_dod": "", "field_school_movement": "", "view_node": "/poet/bryan-mendoza", "field_state": ""}, {"poets": "Urayo\u00e1n Noel", "field_dob": "", "field_dod": "", "field_school_movement": "", "view_node": "/poet/urayoan-noel-0", "field_state": ""}, {"poets": "Nicole Cecilia Delgado", "field_dob": "", "field_dod": "", "field_school_movement": "", "view_node": "/poet/nicole-cecilia-delgado", "field_state": ""}, {"poets": "Jasminne Mendez", "field_dob": "", "field_dod": "", "field_school_movement": "", "view_node": "/poet/jasminne-mendez", "field_state": "Texas"}, {"poets": "Quy\u00ean\u00a0Nguy\u1ec5n-Ho\u00e0ng", "field_dob": "", "field_dod": "", "field_school_movement": "", "view_node": "/poet/quyen-nguyen-hoang", "field_state": ""}, {"poets": "Ashaki M. Jackson ", "field_dob": "", "field_dod": "", "field_school_movement": "", "view_node": "/poet/ashaki-m-jackson", "field_state": ""}, {"poets": "Sharan Strange ", "field_dob": "", "field_dod": "", "field_school_movement": "", "view_node": "/poet/sharan-strange-0", "field_state": ""}, {"poets": "Jasmine Reid ", "field_dob": "", "field_dod": "", "field_school_movement": "", "view_node": "/poet/jasmine-reid", "field_state": ""}, {"poets": "Rio Cortez ", "field_dob": "", "field_dod": "", "field_school_movement": "", "view_node": "/poet/rio-cortez", "field_state": ""}, {"poets": "Bettina Judd ", "field_dob": "", "field_dod": "", "field_school_movement": "", "view_node": "/poet/bettina-judd", "field_state": ""}], "pager": {"current_page": 22, "total_items": "3766", "total_pages": 189, "items_per_page": 20}}