{"rows": [{"poets": "Kimiko Hahn", "field_dob": "1955", "field_dod": "", "field_school_movement": "Contemporary", "view_node": "/poet/kimiko-hahn", "field_state": ""}, {"poets": "Thomas Kinsella", "field_dob": "1928", "field_dod": "2021", "field_school_movement": "", "view_node": "/poet/thomas-kinsella", "field_state": ""}, {"poets": "Madge McKeithen", "field_dob": "", "field_dod": "", "field_school_movement": "", "view_node": "/poet/madge-mckeithen", "field_state": ""}, {"poets": "Joseph Ceravolo", "field_dob": "", "field_dod": "", "field_school_movement": "", "view_node": "/poet/joseph-ceravolo", "field_state": ""}, {"poets": "Benjamin Alire S\u00e1enz", "field_dob": "", "field_dod": "", "field_school_movement": "", "view_node": "/poet/benjamin-alire-saenz", "field_state": "Texas"}, {"poets": "Richard Jones", "field_dob": "", "field_dod": "", "field_school_movement": "", "view_node": "/poet/richard-jones", "field_state": ""}, {"poets": "Mary Karr", "field_dob": "", "field_dod": "", "field_school_movement": "", "view_node": "/poet/mary-karr", "field_state": ""}, {"poets": "Eugene Gloria", "field_dob": "", "field_dod": "", "field_school_movement": "", "view_node": "/poet/eugene-gloria", "field_state": ""}, {"poets": "Inge Pederson", "field_dob": "", "field_dod": "", "field_school_movement": "", "view_node": "/poet/inge-pederson", "field_state": ""}, {"poets": "Kendel Hippolyte", "field_dob": "", "field_dod": "", "field_school_movement": "", "view_node": "/poet/kendel-hippolyte", "field_state": ""}, {"poets": "Marc J. Straus", "field_dob": "", "field_dod": "", "field_school_movement": "", "view_node": "/poet/marc-j-straus", "field_state": ""}, {"poets": "A. E. Stallings", "field_dob": "", "field_dod": "", "field_school_movement": "", "view_node": "/poet/e-stallings", "field_state": ""}, {"poets": "Cole Porter", "field_dob": "", "field_dod": "", "field_school_movement": "", "view_node": "/poet/cole-porter", "field_state": ""}, {"poets": "Julie Sheehan", "field_dob": "", "field_dod": "", "field_school_movement": "", "view_node": "/poet/julie-sheehan", "field_state": ""}, {"poets": "David Barber", "field_dob": "", "field_dod": "", "field_school_movement": "", "view_node": "/poet/david-barber", "field_state": ""}, {"poets": "Quraysh Ali Lansana", "field_dob": "1964", "field_dod": "", "field_school_movement": "Contemporary", "view_node": "/poet/quraysh-ali-lansana", "field_state": ""}, {"poets": "Wang Wei", "field_dob": "", "field_dod": "", "field_school_movement": "", "view_node": "/poet/wang-wei", "field_state": ""}, {"poets": "Agi Mishol", "field_dob": "", "field_dod": "", "field_school_movement": "", "view_node": "/poet/agi-mishol", "field_state": ""}, {"poets": "Ko Un", "field_dob": "", "field_dod": "", "field_school_movement": "", "view_node": "/poet/ko-un", "field_state": ""}, {"poets": "Yves Bonnefoy", "field_dob": "1923", "field_dod": "2016", "field_school_movement": "Surrealism, Translators", "view_node": "/poet/yves-bonnefoy", "field_state": ""}], "pager": {"current_page": 135, "total_items": "3766", "total_pages": 189, "items_per_page": 20}}