{"rows": [{"poets": "Elizabeth Bradfield", "field_dob": "", "field_dod": "", "field_school_movement": "", "view_node": "/poet/elizabeth-bradfield", "field_state": "Massachusetts"}, {"poets": "Aaron Belz", "field_dob": "", "field_dod": "", "field_school_movement": "", "view_node": "/poet/aaron-belz", "field_state": ""}, {"poets": "Benjamin Franklin", "field_dob": "1706", "field_dod": "1790", "field_school_movement": "", "view_node": "/poet/benjamin-franklin", "field_state": ""}, {"poets": "Kenneth Goldsmith", "field_dob": "1961", "field_dod": "", "field_school_movement": "Conceptual Poetry", "view_node": "/poet/kenneth-goldsmith", "field_state": ""}, {"poets": "Philip Appleman", "field_dob": "1926", "field_dod": "", "field_school_movement": "Surrealism", "view_node": "/poet/philip-appleman", "field_state": ""}, {"poets": "Leslie Scalapino", "field_dob": "1944", "field_dod": "2010", "field_school_movement": "", "view_node": "/poet/leslie-scalapino", "field_state": "California"}, {"poets": "Rub\u00e9n Dar\u00edo", "field_dob": "1867", "field_dod": "1916", "field_school_movement": "Modernismo", "view_node": "/poet/ruben-dario", "field_state": ""}, {"poets": "Edith Matilda Thomas", "field_dob": "", "field_dod": "", "field_school_movement": "", "view_node": "/poet/edith-matilda-thomas", "field_state": ""}, {"poets": "Frank Dempster Sherman", "field_dob": "", "field_dod": "", "field_school_movement": "", "view_node": "/poet/frank-dempster-sherman", "field_state": ""}, {"poets": "Ira Sadoff", "field_dob": "1945", "field_dod": "", "field_school_movement": "", "view_node": "/poet/ira-sadoff", "field_state": ""}, {"poets": "Barbara Kerley", "field_dob": "", "field_dod": "", "field_school_movement": "", "view_node": "/poet/barbara-kerley", "field_state": ""}, {"poets": "L. S. Asekoff", "field_dob": "", "field_dod": "", "field_school_movement": "", "view_node": "/poet/l-s-asekoff", "field_state": ""}, {"poets": "Edward Sanders", "field_dob": "", "field_dod": "", "field_school_movement": "", "view_node": "/poet/edward-sanders", "field_state": ""}, {"poets": "Lightsey Darst", "field_dob": "", "field_dod": "", "field_school_movement": "", "view_node": "/poet/lightsey-darst", "field_state": ""}, {"poets": "Jehanne Dubrow", "field_dob": "", "field_dod": "", "field_school_movement": "", "view_node": "/poet/jehanne-dubrow", "field_state": ""}, {"poets": "Ange Mlinko", "field_dob": "", "field_dod": "", "field_school_movement": "", "view_node": "/poet/ange-mlinko", "field_state": ""}, {"poets": "Afzal Ahmed Syed", "field_dob": "", "field_dod": "", "field_school_movement": "", "view_node": "/poet/afzal-ahmed-syed", "field_state": ""}, {"poets": "John Taggart", "field_dob": "", "field_dod": "", "field_school_movement": "", "view_node": "/poet/john-taggart", "field_state": ""}, {"poets": "Tan Lin", "field_dob": "1957", "field_dod": "", "field_school_movement": "", "view_node": "/poet/tan-lin", "field_state": ""}, {"poets": "Jon Davis", "field_dob": "", "field_dod": "", "field_school_movement": "", "view_node": "/poet/jon-davis", "field_state": "New Mexico"}], "pager": {"current_page": 117, "total_items": "3766", "total_pages": 189, "items_per_page": 20}}