{"rows": [{"poets": "E. J. Koh", "field_dob": "", "field_dod": "", "field_school_movement": "", "view_node": "/poet/e-j-koh", "field_state": ""}, {"poets": "Michelle Gil-Montero", "field_dob": "", "field_dod": "", "field_school_movement": "", "view_node": "/poet/michelle-gil-montero", "field_state": ""}, {"poets": "Mary-Kim Arnold", "field_dob": "", "field_dod": "", "field_school_movement": "", "view_node": "/poet/mary-kim-arnold", "field_state": ""}, {"poets": "Charles Hamilton Sorley", "field_dob": "1895", "field_dod": "1915", "field_school_movement": "Poets of World War I", "view_node": "/poet/charles-hamilton-sorley", "field_state": ""}, {"poets": "Sade LaNay", "field_dob": "", "field_dod": "", "field_school_movement": "", "view_node": "/poet/sade-lanay", "field_state": ""}, {"poets": "Paul Cunningham", "field_dob": "", "field_dod": "", "field_school_movement": "", "view_node": "/poet/paul-cunningham", "field_state": ""}, {"poets": "Marci Calabretta  Cancio-Bello", "field_dob": "", "field_dod": "", "field_school_movement": "", "view_node": "/poet/marci-calabretta-cancio-bello", "field_state": ""}, {"poets": "Rose Zinnia ", "field_dob": "", "field_dod": "", "field_school_movement": "", "view_node": "/poet/rose-zinnia", "field_state": ""}, {"poets": "Debra Kang Dean", "field_dob": "", "field_dod": "", "field_school_movement": "", "view_node": "/poet/debra-kang-dean", "field_state": ""}, {"poets": "giovanni singleton", "field_dob": "", "field_dod": "", "field_school_movement": "", "view_node": "/poet/giovanni-singleton", "field_state": ""}, {"poets": "Bree Jo&#039;ann", "field_dob": "", "field_dod": "", "field_school_movement": "", "view_node": "/poet/bree-joann", "field_state": ""}, {"poets": "Rachel M. Simon", "field_dob": "", "field_dod": "", "field_school_movement": "", "view_node": "/poet/rachel-m-simon", "field_state": ""}, {"poets": "Lauren Moseley", "field_dob": "", "field_dod": "", "field_school_movement": "", "view_node": "/poet/lauren-moseley", "field_state": ""}, {"poets": "Mihaela Moscaliuc", "field_dob": "", "field_dod": "", "field_school_movement": "", "view_node": "/poet/mihaela-moscaliuc", "field_state": ""}, {"poets": "L. Lamar Wilson", "field_dob": "", "field_dod": "", "field_school_movement": "", "view_node": "/poet/l-lamar-wilson", "field_state": ""}, {"poets": "Kayte Young", "field_dob": "", "field_dod": "", "field_school_movement": "", "view_node": "/poet/kayte-young", "field_state": ""}, {"poets": "Yolanda Wisher", "field_dob": "", "field_dod": "", "field_school_movement": "", "view_node": "/poet/yolanda-wisher", "field_state": ""}, {"poets": "Joanna Penn Cooper", "field_dob": "", "field_dod": "", "field_school_movement": "", "view_node": "/poet/joanna-penn-cooper", "field_state": ""}, {"poets": "Cheryl Boyce-Taylor", "field_dob": "", "field_dod": "", "field_school_movement": "", "view_node": "/poet/cheryl-boyce-taylor", "field_state": ""}, {"poets": "Krista Franklin", "field_dob": "", "field_dod": "", "field_school_movement": "", "view_node": "/poet/krista-franklin", "field_state": ""}], "pager": {"current_page": 46, "total_items": "3766", "total_pages": 189, "items_per_page": 20}}