{"rows": [{"poets": "Jonata\u0301n Reyes", "field_dob": "", "field_dod": "", "field_school_movement": "", "view_node": "/poet/jonatan-reyes", "field_state": ""}, {"poets": "Lindsay Lusby", "field_dob": "", "field_dod": "", "field_school_movement": "", "view_node": "/poet/lindsay-lusby", "field_state": ""}, {"poets": "Benjam\u00edn Naka-Hasebe Kingsley", "field_dob": "", "field_dod": "", "field_school_movement": "", "view_node": "/poet/benjamin-naka-hasebe-kingsley", "field_state": ""}, {"poets": "Jennifer Key", "field_dob": "", "field_dod": "", "field_school_movement": "", "view_node": "/poet/jennifer-key", "field_state": ""}, {"poets": "Juliana Gray", "field_dob": "", "field_dod": "", "field_school_movement": "", "view_node": "/poet/juliana-gray", "field_state": ""}, {"poets": "Nandini Dhar", "field_dob": "", "field_dod": "", "field_school_movement": "", "view_node": "/poet/nandini-dhar", "field_state": ""}, {"poets": "Don Cellini", "field_dob": "", "field_dod": "", "field_school_movement": "", "view_node": "/poet/don-cellini", "field_state": ""}, {"poets": "Linn\u00e9a Axelsson", "field_dob": "", "field_dod": "", "field_school_movement": "", "view_node": "/poet/linnea-axelsson", "field_state": ""}, {"poets": "Joanna I. Kaminski", "field_dob": "", "field_dod": "", "field_school_movement": "", "view_node": "/poet/joanna-i-kaminski", "field_state": ""}, {"poets": "Eunsong Kim", "field_dob": "", "field_dod": "", "field_school_movement": "", "view_node": "/poet/eunsong-kim", "field_state": ""}, {"poets": "Stephanie Adams-Santos", "field_dob": "", "field_dod": "", "field_school_movement": "", "view_node": "/poet/stephanie-adams-santos", "field_state": ""}, {"poets": "Xan Phillips", "field_dob": "", "field_dod": "", "field_school_movement": "", "view_node": "/poet/xan-phillips", "field_state": ""}, {"poets": "heidi andrea restrepo rhodes", "field_dob": "", "field_dod": "", "field_school_movement": "", "view_node": "/poet/heidi-andrea-restrepo-rhodes", "field_state": ""}, {"poets": "Esther Belin", "field_dob": "", "field_dod": "", "field_school_movement": "", "view_node": "/poet/esther-belin", "field_state": ""}, {"poets": "Remica Bingham-Risher", "field_dob": "", "field_dod": "", "field_school_movement": "", "view_node": "/poet/remica-bingham-risher", "field_state": ""}, {"poets": "Devi S. Laskar", "field_dob": "", "field_dod": "", "field_school_movement": "", "view_node": "/poet/devi-s-laskar", "field_state": ""}, {"poets": "Lehua M. Taitano", "field_dob": "", "field_dod": "", "field_school_movement": "", "view_node": "/poet/lehua-m-taitano", "field_state": ""}, {"poets": "Dao Strom", "field_dob": "", "field_dod": "", "field_school_movement": "", "view_node": "/poet/dao-strom", "field_state": ""}, {"poets": "m\u00f3nica teresa ortiz", "field_dob": "", "field_dod": "", "field_school_movement": "", "view_node": "/poet/monica-teresa-ortiz", "field_state": ""}, {"poets": "Leila Chatti", "field_dob": "", "field_dod": "", "field_school_movement": "", "view_node": "/poet/leila-chatti", "field_state": ""}], "pager": {"current_page": 36, "total_items": "3766", "total_pages": 189, "items_per_page": 20}}