{"rows": [{"poets": "Sandeep Parmar", "field_dob": "", "field_dod": "", "field_school_movement": "", "view_node": "/poet/sandeep-parmar", "field_state": ""}, {"poets": "Kevin Reese", "field_dob": "", "field_dod": "", "field_school_movement": "", "view_node": "/poet/kevin-reese", "field_state": ""}, {"poets": "Christina Olivares", "field_dob": "", "field_dod": "", "field_school_movement": "", "view_node": "/poet/christina-olivares", "field_state": ""}, {"poets": "Ananda Lima", "field_dob": "", "field_dod": "", "field_school_movement": "", "view_node": "/poet/ananda-lima", "field_state": ""}, {"poets": "Roy G. Guzm\u00e1n", "field_dob": "", "field_dod": "", "field_school_movement": "", "view_node": "/poet/roy-g-guzman", "field_state": ""}, {"poets": "Caylin Capra-Thomas", "field_dob": "", "field_dod": "", "field_school_movement": "", "view_node": "/poet/caylin-capra-thomas", "field_state": ""}, {"poets": "Libby Burton", "field_dob": "", "field_dod": "", "field_school_movement": "", "view_node": "/poet/libby-burton", "field_state": ""}, {"poets": "Rosebud Ben-Oni", "field_dob": "", "field_dod": "", "field_school_movement": "", "view_node": "/poet/rosebud-ben-oni", "field_state": ""}, {"poets": "Sarah Barber", "field_dob": "", "field_dod": "", "field_school_movement": "", "view_node": "/poet/sarah-barber", "field_state": ""}, {"poets": "Kimberly Alidio", "field_dob": "", "field_dod": "", "field_school_movement": "", "view_node": "/poet/kimberly-alidio", "field_state": ""}, {"poets": "Pages Matam", "field_dob": "", "field_dod": "", "field_school_movement": "", "view_node": "/poet/pages-matam", "field_state": ""}, {"poets": "Adam Scheffler", "field_dob": "", "field_dod": "", "field_school_movement": "", "view_node": "/poet/adam-scheffler", "field_state": ""}, {"poets": "Yoko Ono", "field_dob": "1933", "field_dod": "", "field_school_movement": "", "view_node": "/poet/yoko-ono", "field_state": "New York"}, {"poets": "Rage Hezekiah", "field_dob": "", "field_dod": "", "field_school_movement": "", "view_node": "/poet/rage-hezekiah", "field_state": ""}, {"poets": "Billy-Ray Belcourt", "field_dob": "", "field_dod": "", "field_school_movement": "", "view_node": "/poet/billy-ray-belcourt", "field_state": ""}, {"poets": "Jordan Rice", "field_dob": "", "field_dod": "", "field_school_movement": "", "view_node": "/poet/jordan-rice", "field_state": ""}, {"poets": "George Abraham", "field_dob": "", "field_dod": "", "field_school_movement": "", "view_node": "/poet/george-abraham", "field_state": ""}, {"poets": "Noor Ibn Najam", "field_dob": "", "field_dod": "", "field_school_movement": "", "view_node": "/poet/noor-ibn-najam", "field_state": ""}, {"poets": "Man Ray", "field_dob": "", "field_dod": "", "field_school_movement": "", "view_node": "/poet/man-ray", "field_state": ""}, {"poets": "Jennifer Tseng", "field_dob": "", "field_dod": "", "field_school_movement": "", "view_node": "/poet/jennifer-tseng", "field_state": ""}], "pager": {"current_page": 41, "total_items": "3766", "total_pages": 189, "items_per_page": 20}}