{"rows": [{"poets": "Keith Ratzlaff", "field_dob": "", "field_dod": "", "field_school_movement": "", "view_node": "/poet/keith-ratzlaff", "field_state": ""}, {"poets": "Ruben Quesada", "field_dob": "", "field_dod": "", "field_school_movement": "", "view_node": "/poet/ruben-quesada", "field_state": ""}, {"poets": "Sam Witt", "field_dob": "", "field_dod": "", "field_school_movement": "", "view_node": "/poet/sam-witt", "field_state": ""}, {"poets": "Lynne Knight", "field_dob": "", "field_dod": "", "field_school_movement": "", "view_node": "/poet/lynne-knight", "field_state": "California"}, {"poets": "Lisa Bellamy", "field_dob": "", "field_dod": "", "field_school_movement": "", "view_node": "/poet/lisa-bellamy", "field_state": "New York"}, {"poets": "Bobbie Louise Hawkins", "field_dob": "1930", "field_dod": "2018", "field_school_movement": "Beat", "view_node": "/poet/bobbie-louise-hawkins", "field_state": "Colorado"}, {"poets": "Teddy Macker", "field_dob": "", "field_dod": "", "field_school_movement": "", "view_node": "/poet/teddy-macker", "field_state": ""}, {"poets": "Mildred Barya", "field_dob": "", "field_dod": "", "field_school_movement": "", "view_node": "/poet/mildred-barya", "field_state": ""}, {"poets": "Sally Ball", "field_dob": "", "field_dod": "", "field_school_movement": "", "view_node": "/poet/sally-ball", "field_state": ""}, {"poets": "Jacob Shores-Arg\u00fcello", "field_dob": "", "field_dod": "", "field_school_movement": "", "view_node": "/poet/jacob-shores-arguello", "field_state": ""}, {"poets": "Monica Sok", "field_dob": "", "field_dod": "", "field_school_movement": "", "view_node": "/poet/monica-sok", "field_state": ""}, {"poets": "Analicia Sotelo", "field_dob": "", "field_dod": "", "field_school_movement": "", "view_node": "/poet/analicia-sotelo", "field_state": "Texas"}, {"poets": "Jos\u00e9 Garcia Villa", "field_dob": "1908", "field_dod": "1997", "field_school_movement": "Modernism", "view_node": "/poet/jose-garcia-villa", "field_state": ""}, {"poets": "John Murillo", "field_dob": "", "field_dod": "", "field_school_movement": "", "view_node": "/poet/john-murillo", "field_state": ""}, {"poets": "Max Jacob", "field_dob": "1876", "field_dod": "1944", "field_school_movement": "", "view_node": "/poet/max-jacob", "field_state": ""}, {"poets": "David Whyte", "field_dob": "", "field_dod": "", "field_school_movement": "", "view_node": "/poet/david-whyte", "field_state": ""}, {"poets": "P\u00e1draig \u00d3 Tuama", "field_dob": "", "field_dod": "", "field_school_movement": "", "view_node": "/poet/padraig-o-tuama", "field_state": ""}, {"poets": "Brad Aaron Modlin", "field_dob": "", "field_dod": "", "field_school_movement": "", "view_node": "/poet/brad-aaron-modlin", "field_state": ""}, {"poets": "Tsitsi Ella Jaji", "field_dob": "", "field_dod": "", "field_school_movement": "", "view_node": "/poet/tsitsi-ella-jaji", "field_state": ""}, {"poets": "D\u00e9Lana  R. A. Dameron", "field_dob": "", "field_dod": "", "field_school_movement": "", "view_node": "/poet/delana-r-dameron", "field_state": ""}], "pager": {"current_page": 51, "total_items": "3766", "total_pages": 189, "items_per_page": 20}}