{"rows": [{"poets": "Tyler Mills", "field_dob": "", "field_dod": "", "field_school_movement": "", "view_node": "/poet/tyler-mills", "field_state": ""}, {"poets": "Maxwell Bodenheim", "field_dob": "", "field_dod": "", "field_school_movement": "", "view_node": "/poet/maxwell-bodenheim", "field_state": ""}, {"poets": "Wang Ping", "field_dob": "1957", "field_dod": "", "field_school_movement": "Contemporary", "view_node": "/poet/wang-ping", "field_state": "Minnesota"}, {"poets": "Regie Cabico", "field_dob": "", "field_dod": "", "field_school_movement": "", "view_node": "/poet/regie-cabico", "field_state": ""}, {"poets": "Hannah Gamble", "field_dob": "", "field_dod": "", "field_school_movement": "", "view_node": "/poet/hannah-gamble", "field_state": ""}, {"poets": "Benjamin S. Grossberg", "field_dob": "", "field_dod": "", "field_school_movement": "", "view_node": "/poet/benjamin-s-grossberg", "field_state": ""}, {"poets": "Malachi Black", "field_dob": "", "field_dod": "", "field_school_movement": "Contemporary", "view_node": "/poet/malachi-black", "field_state": "California"}, {"poets": "Robert  Ostrom", "field_dob": "", "field_dod": "", "field_school_movement": "", "view_node": "/poet/robert-ostrom", "field_state": ""}, {"poets": "Lisa Lewis", "field_dob": "1956", "field_dod": "", "field_school_movement": "Contemporary", "view_node": "/poet/lisa-lewis", "field_state": "Oklahoma"}, {"poets": "Frank Sherlock", "field_dob": "", "field_dod": "", "field_school_movement": "", "view_node": "/poet/frank-sherlock", "field_state": ""}, {"poets": "Eugenia Leigh", "field_dob": "", "field_dod": "", "field_school_movement": "", "view_node": "/poet/eugenia-leigh", "field_state": ""}, {"poets": "Lisa Gluskin Stonestreet", "field_dob": "", "field_dod": "", "field_school_movement": "", "view_node": "/poet/lisa-gluskin-stonestreet", "field_state": ""}, {"poets": "Nicole Callihan", "field_dob": "", "field_dod": "", "field_school_movement": "", "view_node": "/poet/nicole-callihan", "field_state": "New York"}, {"poets": "Wendy Chen", "field_dob": "", "field_dod": "", "field_school_movement": "", "view_node": "/poet/wendy-chen", "field_state": ""}, {"poets": "Aline Murray  Kilmer", "field_dob": "1888", "field_dod": "1941", "field_school_movement": "", "view_node": "/poet/aline-murray-kilmer", "field_state": ""}, {"poets": "William  Griffith", "field_dob": "1878", "field_dod": "1936", "field_school_movement": "", "view_node": "/poet/william-griffith", "field_state": ""}, {"poets": "Brian Blanchfield", "field_dob": "", "field_dod": "", "field_school_movement": "Contemporary", "view_node": "/poet/brian-blanchfield", "field_state": ""}, {"poets": "Hyam Plutzik", "field_dob": "1911", "field_dod": "1962", "field_school_movement": "", "view_node": "/poet/hyam-plutzik", "field_state": "New York"}, {"poets": "Helen Adam", "field_dob": "1909", "field_dod": "1993", "field_school_movement": "San Francisco Renaissance", "view_node": "/poet/helen-adam", "field_state": ""}, {"poets": "Michael Broder", "field_dob": "", "field_dod": "", "field_school_movement": "", "view_node": "/poet/michael-broder", "field_state": ""}], "pager": {"current_page": 79, "total_items": "3766", "total_pages": 189, "items_per_page": 20}}