{"rows": [{"poets": "Louis MacNeice", "field_dob": "1907", "field_dod": "", "field_school_movement": "", "view_node": "/poet/louis-macneice", "field_state": ""}, {"poets": "Sandra M. Gilbert", "field_dob": "1936", "field_dod": "", "field_school_movement": "", "view_node": "/poet/sandra-m-gilbert", "field_state": "California"}, {"poets": "Roberta Hill Whiteman", "field_dob": "", "field_dod": "", "field_school_movement": "", "view_node": "/poet/roberta-j-hill", "field_state": ""}, {"poets": "Fernando Pessoa", "field_dob": "1888", "field_dod": "1935", "field_school_movement": "", "view_node": "/poet/fernando-pessoa", "field_state": ""}, {"poets": "Conrad Aiken", "field_dob": "1899", "field_dod": "1973", "field_school_movement": "", "view_node": "/poet/conrad-aiken", "field_state": "Georgia"}, {"poets": "Linda Pastan", "field_dob": "1932", "field_dod": "", "field_school_movement": "", "view_node": "/poet/linda-pastan", "field_state": "Maryland"}, {"poets": "Sandra Cisneros", "field_dob": "1954", "field_dod": "", "field_school_movement": "Contemporary", "view_node": "/poet/sandra-cisneros", "field_state": "Texas"}, {"poets": "Margaret Atwood", "field_dob": "1939", "field_dod": "", "field_school_movement": "", "view_node": "/poet/margaret-atwood", "field_state": ""}, {"poets": "Jos\u00e9 Emilio Pacheco", "field_dob": "1939", "field_dod": "2014", "field_school_movement": "", "view_node": "/poet/jose-emilio-pacheco", "field_state": ""}, {"poets": "Bernadette Mayer", "field_dob": "1945", "field_dod": "", "field_school_movement": "Language Poetry", "view_node": "/poet/bernadette-mayer", "field_state": "New York"}, {"poets": "Ishmael Reed", "field_dob": "1938", "field_dod": "", "field_school_movement": "Black Arts", "view_node": "/poet/ishmael-reed", "field_state": "California"}, {"poets": "Henry Dumas", "field_dob": "1934", "field_dod": "1968", "field_school_movement": "Black Arts", "view_node": "/poet/henry-dumas", "field_state": ""}, {"poets": "Stephen Dobyns", "field_dob": "1941", "field_dod": "", "field_school_movement": "Contemporary", "view_node": "/poet/stephen-dobyns", "field_state": "Rhode Island"}, {"poets": "Dorianne Laux", "field_dob": "1952", "field_dod": "", "field_school_movement": "Contemporary", "view_node": "/poet/dorianne-laux", "field_state": "North Carolina"}, {"poets": "Willie Perdomo", "field_dob": "", "field_dod": "", "field_school_movement": "Contemporary", "view_node": "/poet/willie-perdomo", "field_state": "New York"}, {"poets": "Charles Olson", "field_dob": "1910", "field_dod": "1970", "field_school_movement": "Black Mountain", "view_node": "/poet/charles-olson", "field_state": "Massachusetts"}, {"poets": "Judith Ort\u00edz Cofer", "field_dob": "1952", "field_dod": "2016", "field_school_movement": "", "view_node": "/poet/judith-ortiz-cofer", "field_state": "Georgia"}, {"poets": "Guillaume Apollinaire", "field_dob": "1880", "field_dod": "1918", "field_school_movement": "Surrealism, Poets of World War I", "view_node": "/poet/guillaume-apollinaire", "field_state": ""}, {"poets": "Anne Tardos", "field_dob": "", "field_dod": "", "field_school_movement": "", "view_node": "/poet/anne-tardos", "field_state": "New York"}, {"poets": "Karl Shapiro", "field_dob": "1913", "field_dod": "2000", "field_school_movement": "", "view_node": "/poet/karl-shapiro", "field_state": ""}], "pager": {"current_page": 166, "total_items": "3766", "total_pages": 189, "items_per_page": 20}}