{"rows": [{"poets": "Ely Shipley", "field_dob": "", "field_dod": "", "field_school_movement": "", "view_node": "/poet/ely-shipley", "field_state": "New York"}, {"poets": "John Masefield", "field_dob": "", "field_dod": "", "field_school_movement": "", "view_node": "/poet/john-masefield", "field_state": ""}, {"poets": "James McIntyre", "field_dob": "1828", "field_dod": "1906", "field_school_movement": "", "view_node": "/poet/james-mcintyre", "field_state": ""}, {"poets": "Jane Barnes", "field_dob": "", "field_dod": "", "field_school_movement": "", "view_node": "/poet/jane-barnes", "field_state": ""}, {"poets": "William Brooks", "field_dob": "", "field_dod": "", "field_school_movement": "", "view_node": "/poet/william-brooks", "field_state": ""}, {"poets": "Harmony Holiday", "field_dob": "", "field_dod": "", "field_school_movement": "", "view_node": "/poet/harmony-holiday", "field_state": ""}, {"poets": "Ish Klein", "field_dob": "", "field_dod": "", "field_school_movement": "", "view_node": "/poet/ish-klein", "field_state": "Massachusetts"}, {"poets": "Myriam Moscona", "field_dob": "", "field_dod": "", "field_school_movement": "", "view_node": "/poet/myriam-moscona", "field_state": ""}, {"poets": "Ariana Reines", "field_dob": "", "field_dod": "", "field_school_movement": "", "view_node": "/poet/ariana-reines", "field_state": ""}, {"poets": "Amelia Rosselli", "field_dob": "", "field_dod": "", "field_school_movement": "", "view_node": "/poet/amelia-rosselli", "field_state": ""}, {"poets": "Hazel Hall", "field_dob": "", "field_dod": "", "field_school_movement": "", "view_node": "/poet/hazel-hall", "field_state": ""}, {"poets": "K. Silem Mohammad", "field_dob": "", "field_dod": "", "field_school_movement": "", "view_node": "/poet/k-silem-mohammad", "field_state": ""}, {"poets": "Bayard Taylor", "field_dob": "", "field_dod": "", "field_school_movement": "", "view_node": "/poet/bayard-taylor", "field_state": ""}, {"poets": "Michael Salcman", "field_dob": "", "field_dod": "", "field_school_movement": "", "view_node": "/poet/michael-salcman", "field_state": ""}, {"poets": "Henry Cuyler Bunner", "field_dob": "1855", "field_dod": "1896", "field_school_movement": "", "view_node": "/poet/henry-cuyler-bunner", "field_state": ""}, {"poets": "Matt Rasmussen", "field_dob": "", "field_dod": "", "field_school_movement": "Contemporary", "view_node": "/poet/matt-rasmussen", "field_state": ""}, {"poets": "Giovanni Pascoli", "field_dob": "", "field_dod": "", "field_school_movement": "", "view_node": "/poet/giovanni-pascoli", "field_state": ""}, {"poets": "Karen Weiser", "field_dob": "", "field_dod": "", "field_school_movement": "", "view_node": "/poet/karen-weiser", "field_state": ""}, {"poets": "Emily Pettit", "field_dob": "", "field_dod": "", "field_school_movement": "", "view_node": "/poet/emily-pettit", "field_state": ""}, {"poets": "Bruce Covey", "field_dob": "", "field_dod": "", "field_school_movement": "", "view_node": "/poet/bruce-covey", "field_state": "Georgia"}], "pager": {"current_page": 100, "total_items": "3766", "total_pages": 189, "items_per_page": 20}}