{"rows": [{"poets": "John McCrae", "field_dob": "1872", "field_dod": "1918", "field_school_movement": "Poets of World War I", "view_node": "/poet/john-mccrae", "field_state": ""}, {"poets": "Keith Waldrop", "field_dob": "", "field_dod": "", "field_school_movement": "Translators", "view_node": "/poet/keith-waldrop", "field_state": "Rhode Island"}, {"poets": "Craig Morgan Teicher", "field_dob": "", "field_dod": "", "field_school_movement": "", "view_node": "/poet/craig-morgan-teicher", "field_state": ""}, {"poets": "Isabella Augusta, Lady Gregory", "field_dob": "", "field_dod": "", "field_school_movement": "", "view_node": "/poet/isabella-augusta-lady-gregory", "field_state": ""}, {"poets": "Giles Fletcher", "field_dob": "", "field_dod": "", "field_school_movement": "", "view_node": "/poet/giles-fletcher", "field_state": ""}, {"poets": "Sir Philip Sidney", "field_dob": "1554", "field_dod": "1586", "field_school_movement": "", "view_node": "/poet/sir-philip-sidney", "field_state": ""}, {"poets": "John Skelton", "field_dob": "", "field_dod": "", "field_school_movement": "", "view_node": "/poet/john-skelton", "field_state": ""}, {"poets": "Oscar Wilde", "field_dob": "1854", "field_dod": "1900", "field_school_movement": "", "view_node": "/poet/oscar-wilde", "field_state": ""}, {"poets": "Alan Seeger", "field_dob": "1888", "field_dod": "1916", "field_school_movement": "", "view_node": "/poet/alan-seeger", "field_state": ""}, {"poets": "Alexander Pope", "field_dob": "1688", "field_dod": "1744", "field_school_movement": "Formalism", "view_node": "/poet/alexander-pope", "field_state": ""}, {"poets": "Thomas Hood", "field_dob": "", "field_dod": "", "field_school_movement": "", "view_node": "/poet/thomas-hood", "field_state": ""}, {"poets": "Hartley Coleridge", "field_dob": "", "field_dod": "", "field_school_movement": "", "view_node": "/poet/hartley-coleridge", "field_state": ""}, {"poets": "Lord Alfred Douglas", "field_dob": "1870", "field_dod": "1945", "field_school_movement": "", "view_node": "/poet/lord-alfred-douglas", "field_state": ""}, {"poets": "George Gordon Byron", "field_dob": "1788", "field_dod": "1824", "field_school_movement": "", "view_node": "/poet/george-gordon-byron", "field_state": ""}, {"poets": "Stacey Harwood", "field_dob": "", "field_dod": "", "field_school_movement": "", "view_node": "/poet/stacey-harwood", "field_state": ""}, {"poets": "Faiz Ahmed Faiz", "field_dob": "1911", "field_dod": "1984", "field_school_movement": "Poets of Exile", "view_node": "/poet/faiz-ahmed-faiz", "field_state": ""}, {"poets": "Dan Albergotti", "field_dob": "", "field_dod": "", "field_school_movement": "", "view_node": "/poet/dan-albergotti", "field_state": ""}, {"poets": "Marjorie Perloff", "field_dob": "", "field_dod": "", "field_school_movement": "", "view_node": "/poet/marjorie-perloff", "field_state": "Arizona"}, {"poets": "Maureen Seaton", "field_dob": "", "field_dod": "", "field_school_movement": "", "view_node": "/poet/maureen-seaton", "field_state": ""}, {"poets": "John Clare", "field_dob": "1793", "field_dod": "1864", "field_school_movement": "", "view_node": "/poet/john-clare", "field_state": ""}], "pager": {"current_page": 133, "total_items": "3766", "total_pages": 189, "items_per_page": 20}}