{"rows": [{"poets": "Jessie E. Sampter", "field_dob": "1883", "field_dod": "1938", "field_school_movement": "", "view_node": "/poet/jessie-e-sampter", "field_state": ""}, {"poets": "Cynthia Dewi Oka", "field_dob": "", "field_dod": "", "field_school_movement": "", "view_node": "/poet/cynthia-dewi-oka", "field_state": ""}, {"poets": "Judith Ish-Kishor", "field_dob": "1895", "field_dod": "1971", "field_school_movement": "", "view_node": "/poet/judith-ish-kishor", "field_state": ""}, {"poets": "Marion Hartog", "field_dob": "1821", "field_dod": "1907", "field_school_movement": "", "view_node": "/poet/marion-hartog", "field_state": ""}, {"poets": "Alter Abelson", "field_dob": "1880", "field_dod": "1964", "field_school_movement": "", "view_node": "/poet/alter-abelson", "field_state": ""}, {"poets": "Philip M. Raskin", "field_dob": "1880", "field_dod": "1944", "field_school_movement": "", "view_node": "/poet/philip-m-raskin", "field_state": ""}, {"poets": "Jennifer Moxley", "field_dob": "", "field_dod": "", "field_school_movement": "", "view_node": "/poet/jennifer-moxley", "field_state": "Maine"}, {"poets": "Rita Banerjee", "field_dob": "", "field_dod": "", "field_school_movement": "", "view_node": "/poet/rita-banerjee", "field_state": ""}, {"poets": "Jos\u00e9 Olivarez", "field_dob": "", "field_dod": "", "field_school_movement": "", "view_node": "/poet/jose-olivarez", "field_state": ""}, {"poets": "Mark Wallace", "field_dob": "", "field_dod": "", "field_school_movement": "", "view_node": "/poet/mark-wallace", "field_state": ""}, {"poets": "Michelle Boisseau", "field_dob": "", "field_dod": "", "field_school_movement": "", "view_node": "/poet/michelle-boisseau", "field_state": ""}, {"poets": "Dolores Kendrick", "field_dob": "1927", "field_dod": "2017", "field_school_movement": "", "view_node": "/poet/dolores-kendrick", "field_state": "District of Columbia"}, {"poets": "Sarah Browning", "field_dob": "", "field_dod": "", "field_school_movement": "", "view_node": "/poet/sarah-browning", "field_state": ""}, {"poets": "Donika Kelly", "field_dob": "", "field_dod": "", "field_school_movement": "", "view_node": "/poet/donika-kelly", "field_state": ""}, {"poets": "Marya Zaturenska", "field_dob": "1902", "field_dod": "1982", "field_school_movement": "", "view_node": "/poet/marya-zaturenska", "field_state": "New York"}, {"poets": "Jane Johnston Schoolcraft", "field_dob": "1800", "field_dod": "1842", "field_school_movement": "", "view_node": "/poet/jane-johnston-schoolcraft", "field_state": "Michigan"}, {"poets": "Laura  Cornelius Kellogg", "field_dob": "", "field_dod": "", "field_school_movement": "", "view_node": "/poet/laura-cornelius-kellogg", "field_state": ""}, {"poets": "John Rollin Ridge", "field_dob": "1827", "field_dod": "1867", "field_school_movement": "", "view_node": "/poet/john-rollin-ridge", "field_state": ""}, {"poets": "Olivia Ward Bush-Banks", "field_dob": "1869", "field_dod": "1944", "field_school_movement": "", "view_node": "/poet/olivia-ward-bush-banks", "field_state": ""}, {"poets": "Amanda Johnston", "field_dob": "", "field_dod": "", "field_school_movement": "", "view_node": "/poet/amanda-johnston", "field_state": "Texas"}], "pager": {"current_page": 56, "total_items": "3766", "total_pages": 189, "items_per_page": 20}}