{"rows": [{"poets": "Meena Alexander", "field_dob": "1951", "field_dod": "2018", "field_school_movement": "Contemporary", "view_node": "/poet/meena-alexander", "field_state": ""}, {"poets": "David Ignatow", "field_dob": "1914", "field_dod": "1997", "field_school_movement": "Confessional Poetry", "view_node": "/poet/david-ignatow", "field_state": "New York"}, {"poets": "James Laughlin", "field_dob": "1914", "field_dod": "1997", "field_school_movement": "", "view_node": "/poet/james-laughlin", "field_state": ""}, {"poets": "Bei Dao", "field_dob": "1949", "field_dod": "", "field_school_movement": "Misty Poets, Poets of Exile", "view_node": "/poet/bei-dao", "field_state": ""}, {"poets": "Peter Johnson", "field_dob": "", "field_dod": "", "field_school_movement": "", "view_node": "/poet/peter-johnson", "field_state": "Rhode Island"}, {"poets": "Laurie Sheck", "field_dob": "1953", "field_dod": "", "field_school_movement": "", "view_node": "/poet/laurie-sheck", "field_state": "New Jersey"}, {"poets": "William Clipman", "field_dob": "", "field_dod": "", "field_school_movement": "", "view_node": "/poet/william-clipman", "field_state": ""}, {"poets": "Eugenio Montale", "field_dob": "1896", "field_dod": "1981", "field_school_movement": "Poets of World War I", "view_node": "/poet/eugenio-montale", "field_state": ""}, {"poets": "Andrew Schelling", "field_dob": "", "field_dod": "", "field_school_movement": "", "view_node": "/poet/andrew-schelling", "field_state": "Colorado"}, {"poets": "Alice Notley", "field_dob": "1945", "field_dod": "", "field_school_movement": "New York School", "view_node": "/poet/alice-notley", "field_state": "New York"}, {"poets": "Paul \u00c9luard", "field_dob": "1895", "field_dod": "1952", "field_school_movement": "", "view_node": "/poet/paul-eluard", "field_state": ""}, {"poets": "Brenda Shaughnessy", "field_dob": "1970", "field_dod": "", "field_school_movement": "", "view_node": "/poet/brenda-shaughnessy", "field_state": "New Jersey"}, {"poets": "Matthew Rohrer", "field_dob": "", "field_dod": "", "field_school_movement": "", "view_node": "/poet/matthew-rohrer", "field_state": "New York"}, {"poets": "Stephen Sandy", "field_dob": "1934", "field_dod": "", "field_school_movement": "Contemporary", "view_node": "/poet/stephen-sandy", "field_state": "Vermont"}, {"poets": "Rebecca Wolff", "field_dob": "", "field_dod": "", "field_school_movement": "Contemporary", "view_node": "/poet/rebecca-wolff", "field_state": ""}, {"poets": "Jean Valentine", "field_dob": "1934", "field_dod": "2020", "field_school_movement": "", "view_node": "/poet/jean-valentine", "field_state": "New York"}, {"poets": "Laura Mullen", "field_dob": "1958", "field_dod": "", "field_school_movement": "", "view_node": "/poet/laura-mullen", "field_state": "Louisiana"}, {"poets": "Nick Flynn", "field_dob": "1960", "field_dod": "", "field_school_movement": "", "view_node": "/poet/nick-flynn", "field_state": ""}, {"poets": "Dorothy Parker", "field_dob": "1893", "field_dod": "1967", "field_school_movement": "", "view_node": "/poet/dorothy-parker", "field_state": "New York"}, {"poets": "Jordan Davis", "field_dob": "", "field_dod": "", "field_school_movement": "", "view_node": "/poet/jordan-davis", "field_state": ""}], "pager": {"current_page": 165, "total_items": "3766", "total_pages": 189, "items_per_page": 20}}