{"rows": [{"poets": "Katharine Rolston Fisher", "field_dob": "1871", "field_dod": "1950", "field_school_movement": "", "view_node": "/poet/katharine-rolston-fisher", "field_state": ""}, {"poets": "Fitz-Greene Halleck", "field_dob": "1790", "field_dod": "1867", "field_school_movement": "Romanticism", "view_node": "/poet/fitz-greene-halleck", "field_state": "Connecticut"}, {"poets": "Steve Cannon", "field_dob": "1935", "field_dod": "2019", "field_school_movement": "", "view_node": "/poet/steve-cannon", "field_state": ""}, {"poets": "Marci Nelligan", "field_dob": "", "field_dod": "", "field_school_movement": "", "view_node": "/poet/marci-nelligan", "field_state": ""}, {"poets": "Kathy Jet\u00f1il-Kijiner", "field_dob": "", "field_dod": "", "field_school_movement": "", "view_node": "/poet/kathy-jetnil-kijiner", "field_state": ""}, {"poets": "Jessica Rae Bergamino", "field_dob": "", "field_dod": "", "field_school_movement": "", "view_node": "/poet/jessica-rae-bergamino", "field_state": "Washington"}, {"poets": "Jari Bradley", "field_dob": "", "field_dod": "", "field_school_movement": "", "view_node": "/poet/jari-bradley", "field_state": "California"}, {"poets": "Danielle DeTiberus", "field_dob": "", "field_dod": "", "field_school_movement": "", "view_node": "/poet/danielle-detiberus", "field_state": ""}, {"poets": "Atom Atkinson", "field_dob": "", "field_dod": "", "field_school_movement": "", "view_node": "/poet/atom-atkinson", "field_state": "New York"}, {"poets": "Billie R. Tadros", "field_dob": "", "field_dod": "", "field_school_movement": "", "view_node": "/poet/billie-tadros", "field_state": "Pennsylvania"}, {"poets": "Mario Chard", "field_dob": "", "field_dod": "", "field_school_movement": "", "view_node": "/poet/mario-chard", "field_state": "Georgia"}, {"poets": "Matt Donovan", "field_dob": "", "field_dod": "", "field_school_movement": "", "view_node": "/poet/matt-donovan", "field_state": "Massachusetts"}, {"poets": "Katharine Coles", "field_dob": "", "field_dod": "", "field_school_movement": "", "view_node": "/poet/katharine-coles", "field_state": "Utah"}, {"poets": "Christopher Pearce Cranch ", "field_dob": "1813", "field_dod": "1892", "field_school_movement": "", "view_node": "/poet/christopher-pearce-cranch", "field_state": ""}, {"poets": "Miller Oberman", "field_dob": "", "field_dod": "", "field_school_movement": "", "view_node": "/poet/miller-oberman", "field_state": ""}, {"poets": "Helena Mesa", "field_dob": "", "field_dod": "", "field_school_movement": "", "view_node": "/poet/helena-mesa", "field_state": "Michigan"}, {"poets": "Sandile Dikeni", "field_dob": "1966", "field_dod": "2019", "field_school_movement": "", "view_node": "/poet/sandile-dikeni", "field_state": ""}, {"poets": "Al Alvarez", "field_dob": "1929", "field_dod": "2019", "field_school_movement": "", "view_node": "/poet/al-alvarez", "field_state": ""}, {"poets": "Arthur Caswell Parker", "field_dob": "", "field_dod": "", "field_school_movement": "", "view_node": "/poet/arthur-caswell-parker", "field_state": ""}, {"poets": "Lucy Larcom", "field_dob": "", "field_dod": "", "field_school_movement": "", "view_node": "/poet/lucy-larcom", "field_state": ""}], "pager": {"current_page": 30, "total_items": "3766", "total_pages": 189, "items_per_page": 20}}