{"rows": [{"poets": "Jordan Jace", "field_dob": "", "field_dod": "", "field_school_movement": "", "view_node": "/poet/jordan-jace", "field_state": ""}, {"poets": "Huascar Medina", "field_dob": "", "field_dod": "", "field_school_movement": "", "view_node": "/poet/huascar-medina", "field_state": ""}, {"poets": "Matt Mason", "field_dob": "", "field_dod": "", "field_school_movement": "", "view_node": "/poet/matt-mason", "field_state": ""}, {"poets": "Emanuelee Bean", "field_dob": "", "field_dod": "", "field_school_movement": "", "view_node": "/poet/emanuelee-bean", "field_state": ""}, {"poets": "Julia B. Levine ", "field_dob": "", "field_dod": "", "field_school_movement": "", "view_node": "/poet/julia-b-levine", "field_state": "California"}, {"poets": "B.K. Fischer", "field_dob": "", "field_dod": "", "field_school_movement": "", "view_node": "/poet/bk-fischer", "field_state": "New York"}, {"poets": "Ava Hofmann", "field_dob": "", "field_dod": "", "field_school_movement": "", "view_node": "/poet/ava-hofmann", "field_state": ""}, {"poets": "fahima ife", "field_dob": "", "field_dod": "", "field_school_movement": "", "view_node": "/poet/fahima-ife", "field_state": ""}, {"poets": "Henneh Kyereh Kwaku", "field_dob": "", "field_dod": "", "field_school_movement": "", "view_node": "/poet/henneh-kyereh-kwaku", "field_state": ""}, {"poets": "Jasmine Gibson", "field_dob": "", "field_dod": "", "field_school_movement": "", "view_node": "/poet/jasmine-gibson", "field_state": ""}, {"poets": "Rindon Johnson", "field_dob": "", "field_dod": "", "field_school_movement": "", "view_node": "/poet/rindon-johnson", "field_state": ""}, {"poets": "Chase Berggrun", "field_dob": "", "field_dod": "", "field_school_movement": "", "view_node": "/poet/chase-berggrun-0", "field_state": ""}, {"poets": "Alain Mabanckou", "field_dob": "", "field_dod": "", "field_school_movement": "", "view_node": "/poet/alain-mabanckou", "field_state": ""}, {"poets": "John Wesley Holloway", "field_dob": "", "field_dod": "", "field_school_movement": "", "view_node": "/poet/john-wesley-holloway", "field_state": ""}, {"poets": "essa may ranapiri", "field_dob": "", "field_dod": "", "field_school_movement": "", "view_node": "/poet/essa-may-ranapiri", "field_state": ""}, {"poets": "Sage U\u02bbilani Takehiro", "field_dob": "", "field_dod": "", "field_school_movement": "", "view_node": "/poet/sage-uilani-takehiro", "field_state": ""}, {"poets": "Daniel Webster Davis", "field_dob": "1862", "field_dod": "1915", "field_school_movement": "", "view_node": "/poet/daniel-webster-davis", "field_state": ""}, {"poets": "Arielle Taitano Lowe", "field_dob": "", "field_dod": "", "field_school_movement": "", "view_node": "/poet/arielle-taitano-lowe", "field_state": ""}, {"poets": "Ha\u02bb\u00e5ni Lucia Falo San Nicolas", "field_dob": "", "field_dod": "", "field_school_movement": "", "view_node": "/poet/haani-lucia-falo-san-nicolas", "field_state": ""}, {"poets": "Dan Taulapapa McMullin", "field_dob": "", "field_dod": "", "field_school_movement": "", "view_node": "/poet/dan-taulapapa-mcmullin", "field_state": ""}], "pager": {"current_page": 3, "total_items": "3766", "total_pages": 189, "items_per_page": 20}}