{"rows": [{"poets": "James Merrill", "field_dob": "1926", "field_dod": "1995", "field_school_movement": "San Francisco Renaissance", "view_node": "/poet/james-merrill", "field_state": ""}, {"poets": "Lauren Shakely", "field_dob": "", "field_dod": "", "field_school_movement": "", "view_node": "/poet/lauren-shakely", "field_state": ""}, {"poets": "Galway Kinnell", "field_dob": "1927", "field_dod": "2014", "field_school_movement": "", "view_node": "/poet/galway-kinnell", "field_state": "Vermont"}, {"poets": "Cyrus Cassells", "field_dob": "1957", "field_dod": "", "field_school_movement": "Contemporary", "view_node": "/poet/cyrus-cassells", "field_state": "Texas"}, {"poets": "Carolyn Forch\u00e9", "field_dob": "1950", "field_dod": "", "field_school_movement": "", "view_node": "/poet/carolyn-forche", "field_state": "Maryland"}, {"poets": "John Hall Wheelock", "field_dob": "", "field_dod": "", "field_school_movement": "", "view_node": "/poet/john-hall-wheelock", "field_state": ""}, {"poets": "Paul Muldoon", "field_dob": "1951", "field_dod": "", "field_school_movement": "Contemporary", "view_node": "/poet/paul-muldoon", "field_state": "New Jersey"}, {"poets": "Lawrence Joseph", "field_dob": "1948", "field_dod": "", "field_school_movement": "", "view_node": "/poet/lawrence-joseph", "field_state": "New York"}, {"poets": "Czeslaw Milosz", "field_dob": "1911", "field_dod": "2004", "field_school_movement": "Poets of Exile, Poets of World War I", "view_node": "/poet/czeslaw-milosz", "field_state": "California"}, {"poets": "Sharon Olds", "field_dob": "1942", "field_dod": "", "field_school_movement": "Confessional Poetry", "view_node": "/poet/sharon-olds", "field_state": "New York"}, {"poets": "Sterling A. Brown", "field_dob": "1901", "field_dod": "1989", "field_school_movement": "Harlem Renaissance", "view_node": "/poet/sterling-brown", "field_state": "New York"}, {"poets": "Richard Wilbur", "field_dob": "1921", "field_dod": "2017", "field_school_movement": "Formalism", "view_node": "/poet/richard-wilbur", "field_state": "Massachusetts"}, {"poets": "Ralph Waldo Emerson", "field_dob": "1803", "field_dod": "1882", "field_school_movement": "Transcendentalism, Romanticism", "view_node": "/poet/ralph-waldo-emerson", "field_state": "Massachusetts"}, {"poets": "Richard Howard", "field_dob": "1929", "field_dod": "2022", "field_school_movement": "Contemporary", "view_node": "/poet/richard-howard", "field_state": "New York"}, {"poets": "Robinson Jeffers", "field_dob": "1887", "field_dod": "1962", "field_school_movement": "", "view_node": "/poet/robinson-jeffers", "field_state": "Pennsylvania"}, {"poets": "Robert Hayden", "field_dob": "1913", "field_dod": "1980", "field_school_movement": "", "view_node": "/poet/robert-hayden", "field_state": "Michigan"}, {"poets": "Robert Hass", "field_dob": "1941", "field_dod": "", "field_school_movement": "Contemporary", "view_node": "/poet/robert-hass", "field_state": "California"}, {"poets": "Rachel Hadas", "field_dob": "1948", "field_dod": "", "field_school_movement": "Contemporary", "view_node": "/poet/rachel-hadas", "field_state": ""}, {"poets": "Robert Graves", "field_dob": "1895", "field_dod": "1985", "field_school_movement": "Poets of World War I", "view_node": "/poet/robert-graves", "field_state": ""}, {"poets": "Susan Howe", "field_dob": "1937", "field_dod": "", "field_school_movement": "Language Poetry", "view_node": "/poet/susan-howe", "field_state": "Connecticut"}], "pager": {"current_page": 85, "total_items": "3766", "total_pages": 189, "items_per_page": 20}}