{"rows": [{"poets": "Wendy Xu ", "field_dob": "", "field_dod": "", "field_school_movement": "", "view_node": "/poet/wendy-xu", "field_state": ""}, {"poets": "Rachel Jamison  Webster", "field_dob": "", "field_dod": "", "field_school_movement": "", "view_node": "/poet/rachel-jamison-webster", "field_state": ""}, {"poets": "Suzanne Stein", "field_dob": "", "field_dod": "", "field_school_movement": "", "view_node": "/poet/suzanne-stein", "field_state": ""}, {"poets": "George Economou", "field_dob": "1934", "field_dod": "2019", "field_school_movement": "", "view_node": "/poet/george-economou", "field_state": ""}, {"poets": "Carrie Fountain", "field_dob": "", "field_dod": "", "field_school_movement": "", "view_node": "/poet/carrie-fountain", "field_state": ""}, {"poets": "Adrienne Su", "field_dob": "", "field_dod": "", "field_school_movement": "", "view_node": "/poet/adrienne-su", "field_state": ""}, {"poets": "Robin Beth Schaer ", "field_dob": "", "field_dod": "", "field_school_movement": "", "view_node": "/poet/robin-beth-schaer", "field_state": ""}, {"poets": "Joshua Henry Jones, Jr.", "field_dob": "", "field_dod": "", "field_school_movement": "", "view_node": "/poet/joshua-henry-jones-jr", "field_state": ""}, {"poets": "Solmaz Sharif", "field_dob": "", "field_dod": "", "field_school_movement": "", "view_node": "/poet/solmaz-sharif", "field_state": "California"}, {"poets": "Marcus Wicker", "field_dob": "", "field_dod": "", "field_school_movement": "", "view_node": "/poet/marcus-wicker", "field_state": ""}, {"poets": "Jay Deshpande", "field_dob": "", "field_dod": "", "field_school_movement": "", "view_node": "/poet/jay-deshpande", "field_state": ""}, {"poets": "John Wieners", "field_dob": "1934", "field_dod": "2002", "field_school_movement": "New York School, San Francisco Renaissance, Beat, Black Mountain", "view_node": "/poet/john-wieners", "field_state": ""}, {"poets": "Sally Wen Mao", "field_dob": "", "field_dod": "", "field_school_movement": "", "view_node": "/poet/sally-wen-mao", "field_state": ""}, {"poets": "Alicia Jo Rabins", "field_dob": "", "field_dod": "", "field_school_movement": "", "view_node": "/poet/alicia-jo-rabins", "field_state": ""}, {"poets": "Laura Da\u2019", "field_dob": "", "field_dod": "", "field_school_movement": "", "view_node": "/poet/laura-da", "field_state": "Washington"}, {"poets": "Jill McDonough", "field_dob": "", "field_dod": "", "field_school_movement": "", "view_node": "/poet/jill-mcdonough", "field_state": ""}, {"poets": "Colleen J.  McElroy", "field_dob": "", "field_dod": "", "field_school_movement": "", "view_node": "/poet/colleen-j-mcelroy", "field_state": ""}, {"poets": "Blake N.  Campbell ", "field_dob": "", "field_dod": "", "field_school_movement": "", "view_node": "/poet/blake-n-campbell", "field_state": ""}, {"poets": "Kathryn  Nuernberger ", "field_dob": "1980", "field_dod": "", "field_school_movement": "", "view_node": "/poet/kathryn-nuernberger", "field_state": "Missouri"}, {"poets": "Jeffrey Thomson", "field_dob": "", "field_dod": "", "field_school_movement": "", "view_node": "/poet/jeffrey-thomson", "field_state": "Maine"}], "pager": {"current_page": 72, "total_items": "3766", "total_pages": 189, "items_per_page": 20}}