{"rows": [{"poets": "Adam Clay", "field_dob": "", "field_dod": "", "field_school_movement": "", "view_node": "/poet/adam-clay", "field_state": ""}, {"poets": "Jason Schneiderman", "field_dob": "", "field_dod": "", "field_school_movement": "", "view_node": "/poet/jason-schneiderman", "field_state": ""}, {"poets": "Rebecca Lindenberg", "field_dob": "", "field_dod": "", "field_school_movement": "", "view_node": "/poet/rebecca-lindenberg", "field_state": ""}, {"poets": "Xi Chuan", "field_dob": "", "field_dod": "", "field_school_movement": "", "view_node": "/poet/xi-chuan", "field_state": ""}, {"poets": "Kristi Maxwell", "field_dob": "", "field_dod": "", "field_school_movement": "", "view_node": "/poet/kristi-maxwell", "field_state": ""}, {"poets": "Rigoberto Gonz\u00e1lez", "field_dob": "1970", "field_dod": "", "field_school_movement": "", "view_node": "/poet/rigoberto-gonzalez", "field_state": ""}, {"poets": "Sandra Simonds", "field_dob": "", "field_dod": "", "field_school_movement": "", "view_node": "/poet/sandra-simonds", "field_state": "Florida"}, {"poets": "Rick Hilles", "field_dob": "", "field_dod": "", "field_school_movement": "", "view_node": "/poet/rick-hilles", "field_state": ""}, {"poets": "Sommer Browning", "field_dob": "", "field_dod": "", "field_school_movement": "", "view_node": "/poet/sommer-browning", "field_state": ""}, {"poets": "Jane Springer", "field_dob": "", "field_dod": "", "field_school_movement": "", "view_node": "/poet/jane-springer", "field_state": ""}, {"poets": "Rick Snyder", "field_dob": "", "field_dod": "", "field_school_movement": "", "view_node": "/poet/rick-snyder", "field_state": ""}, {"poets": "Stephen Motika", "field_dob": "", "field_dod": "", "field_school_movement": "", "view_node": "/poet/stephen-motika", "field_state": "New York"}, {"poets": "Matthew Pennock", "field_dob": "", "field_dod": "", "field_school_movement": "", "view_node": "/poet/matthew-pennock", "field_state": ""}, {"poets": "Ryan Teitman", "field_dob": "", "field_dod": "", "field_school_movement": "", "view_node": "/poet/ryan-teitman", "field_state": ""}, {"poets": "Jacek Gutorow", "field_dob": "", "field_dod": "", "field_school_movement": "", "view_node": "/poet/jacek-gutorow", "field_state": ""}, {"poets": "Carsten Ren\u00e9 Nielsen", "field_dob": "", "field_dod": "", "field_school_movement": "", "view_node": "/poet/carsten-rene-nielsen", "field_state": ""}, {"poets": "&#039;Annah Sobelman", "field_dob": "", "field_dod": "", "field_school_movement": "", "view_node": "/poet/annah-sobelman", "field_state": ""}, {"poets": "Lidija Dimkovska", "field_dob": "", "field_dod": "", "field_school_movement": "", "view_node": "/poet/lidija-dimkovska", "field_state": ""}, {"poets": "Robert Bringhurst", "field_dob": "", "field_dod": "", "field_school_movement": "", "view_node": "/poet/robert-bringhurst", "field_state": ""}, {"poets": "Natalie Diaz", "field_dob": "1978", "field_dod": "", "field_school_movement": "", "view_node": "/poet/natalie-diaz", "field_state": "Arizona"}], "pager": {"current_page": 102, "total_items": "3766", "total_pages": 189, "items_per_page": 20}}