{"rows": [{"poets": "Phillip Lopate", "field_dob": "1943", "field_dod": "", "field_school_movement": "", "view_node": "/poet/phillip-lopate", "field_state": ""}, {"poets": "Patricia Carlin", "field_dob": "", "field_dod": "", "field_school_movement": "", "view_node": "/poet/patricia-carlin", "field_state": ""}, {"poets": "Mark Twain", "field_dob": "", "field_dod": "", "field_school_movement": "", "view_node": "/poet/mark-twain", "field_state": ""}, {"poets": "John Gray", "field_dob": "", "field_dod": "", "field_school_movement": "", "view_node": "/poet/john-gray", "field_state": ""}, {"poets": "Eva Alice Counsell", "field_dob": "", "field_dod": "", "field_school_movement": "", "view_node": "/poet/eva-alice-counsell", "field_state": ""}, {"poets": "Richard O&#039;Connell", "field_dob": "", "field_dod": "", "field_school_movement": "", "view_node": "/poet/richard-oconnell", "field_state": ""}, {"poets": "Tomasz R\u00f3zycki", "field_dob": "", "field_dod": "", "field_school_movement": "", "view_node": "/poet/tomasz-rozycki", "field_state": ""}, {"poets": "Ernest Hilbert", "field_dob": "", "field_dod": "", "field_school_movement": "", "view_node": "/poet/ernest-hilbert", "field_state": ""}, {"poets": "Isaac McLellan", "field_dob": "", "field_dod": "", "field_school_movement": "", "view_node": "/poet/isaac-mclellan", "field_state": ""}, {"poets": "Shido", "field_dob": "", "field_dod": "", "field_school_movement": "", "view_node": "/poet/shido", "field_state": ""}, {"poets": "Cale Young Rice", "field_dob": "", "field_dod": "", "field_school_movement": "", "view_node": "/poet/cale-young-rice", "field_state": ""}, {"poets": "Jamey Dunham", "field_dob": "", "field_dod": "", "field_school_movement": "", "view_node": "/poet/jamey-dunham", "field_state": ""}, {"poets": "James Thomson", "field_dob": "", "field_dod": "", "field_school_movement": "", "view_node": "/poet/james-thomson", "field_state": ""}, {"poets": "Charles Wharton Stork", "field_dob": "", "field_dod": "", "field_school_movement": "", "view_node": "/poet/charles-wharton-stork", "field_state": ""}, {"poets": "William Henry Venable", "field_dob": "", "field_dod": "", "field_school_movement": "", "view_node": "/poet/william-henry-venable", "field_state": ""}, {"poets": "Mark Halliday", "field_dob": "", "field_dod": "", "field_school_movement": "", "view_node": "/poet/mark-halliday", "field_state": ""}, {"poets": "Elizabeth Arnold", "field_dob": "", "field_dod": "", "field_school_movement": "", "view_node": "/poet/elizabeth-arnold", "field_state": ""}, {"poets": "Idra Novey", "field_dob": "", "field_dod": "", "field_school_movement": "", "view_node": "/poet/idra-novey", "field_state": "New York"}, {"poets": "J. Michael Martinez", "field_dob": "", "field_dod": "", "field_school_movement": "", "view_node": "/poet/j-michael-martinez", "field_state": ""}, {"poets": "Geoffrey Chaucer", "field_dob": "1343", "field_dod": "1400", "field_school_movement": "", "view_node": "/poet/geoffrey-chaucer", "field_state": ""}], "pager": {"current_page": 120, "total_items": "3766", "total_pages": 189, "items_per_page": 20}}