{"rows": [{"poets": "Janice Lobo Sapigao", "field_dob": "", "field_dod": "", "field_school_movement": "", "view_node": "/poet/janice-lobo-sapigao", "field_state": "California"}, {"poets": "Susan Landgraf", "field_dob": "", "field_dod": "", "field_school_movement": "", "view_node": "/poet/susan-landgraf", "field_state": "Washington"}, {"poets": "Stuart Kestenbaum", "field_dob": "", "field_dod": "", "field_school_movement": "", "view_node": "/poet/stuart-kestenbaum", "field_state": "Maine"}, {"poets": "Angelo Geter", "field_dob": "", "field_dod": "", "field_school_movement": "", "view_node": "/poet/angelo-geter", "field_state": "South Carolina"}, {"poets": "Honey Bell-Bey", "field_dob": "", "field_dod": "", "field_school_movement": "", "view_node": "/poet/honey-bell-bey", "field_state": "Ohio"}, {"poets": "Aldous Huxley", "field_dob": "1894", "field_dod": "1963", "field_school_movement": "", "view_node": "/poet/aldous-huxley", "field_state": ""}, {"poets": "Lee Herrick", "field_dob": "", "field_dod": "", "field_school_movement": "", "view_node": "/poet/lee-herrick", "field_state": "California"}, {"poets": "Asiya Wadud", "field_dob": "", "field_dod": "", "field_school_movement": "", "view_node": "/poet/asiya-wadud", "field_state": ""}, {"poets": "Emily Pauline Johnson", "field_dob": "", "field_dod": "", "field_school_movement": "", "view_node": "/poet/emily-pauline-johnson", "field_state": ""}, {"poets": "Evelyn Scott", "field_dob": "1893", "field_dod": "1963", "field_school_movement": "", "view_node": "/poet/evelyn-scott", "field_state": ""}, {"poets": "William McGonagall", "field_dob": "1825", "field_dod": "1902", "field_school_movement": "", "view_node": "/poet/william-mcgonagall", "field_state": ""}, {"poets": "Ahmad Nadalizadeh", "field_dob": "", "field_dod": "", "field_school_movement": "", "view_node": "/poet/ahmad-nadalizadeh", "field_state": ""}, {"poets": "Garous Abdolmalekian", "field_dob": "", "field_dod": "", "field_school_movement": "", "view_node": "/poet/garous-abdolmalekian", "field_state": ""}, {"poets": "John Smith", "field_dob": "1580", "field_dod": "1614", "field_school_movement": "", "view_node": "/poet/john-smith", "field_state": ""}, {"poets": "Patricia Marsh Stefanovska", "field_dob": "", "field_dod": "", "field_school_movement": "", "view_node": "/poet/patricia-marsh-stefanovska", "field_state": ""}, {"poets": "Ljubica Arsovska", "field_dob": "", "field_dod": "", "field_school_movement": "", "view_node": "/poet/ljubica-arsovska", "field_state": ""}, {"poets": "Henry Howard Brownell", "field_dob": "1820", "field_dod": "1872", "field_school_movement": "", "view_node": "/poet/henry-howard-brownell", "field_state": "Connecticut"}, {"poets": "Thomas Morton", "field_dob": "1580", "field_dod": "1645", "field_school_movement": "", "view_node": "/poet/thomas-morton", "field_state": ""}, {"poets": "James Oppenheim", "field_dob": "1882", "field_dod": "1932", "field_school_movement": "", "view_node": "/poet/james-oppenheim", "field_state": ""}, {"poets": "Luci Tapahonso ", "field_dob": "", "field_dod": "", "field_school_movement": "", "view_node": "/poet/luci-tapahonso", "field_state": "New Mexico"}], "pager": {"current_page": 26, "total_items": "3766", "total_pages": 189, "items_per_page": 20}}