{"rows": [{"poets": "Jeff Hoffman", "field_dob": "", "field_dod": "", "field_school_movement": "", "view_node": "/poet/jeff-hoffman", "field_state": "California"}, {"poets": "Joyce Peseroff", "field_dob": "", "field_dod": "", "field_school_movement": "", "view_node": "/poet/joyce-peseroff", "field_state": ""}, {"poets": "Margaret Young", "field_dob": "", "field_dod": "", "field_school_movement": "", "view_node": "/poet/margaret-young", "field_state": ""}, {"poets": "Bruno Navasky", "field_dob": "", "field_dod": "", "field_school_movement": "", "view_node": "/poet/bruno-navasky", "field_state": ""}, {"poets": "Zach Savich", "field_dob": "", "field_dod": "", "field_school_movement": "", "view_node": "/poet/zach-savich", "field_state": ""}, {"poets": "John Lane", "field_dob": "", "field_dod": "", "field_school_movement": "", "view_node": "/poet/john-lane", "field_state": ""}, {"poets": "Gary Sullivan", "field_dob": "", "field_dod": "", "field_school_movement": "", "view_node": "/poet/gary-sullivan", "field_state": ""}, {"poets": "Chris Martin", "field_dob": "", "field_dod": "", "field_school_movement": "", "view_node": "/poet/chris-martin", "field_state": ""}, {"poets": "Robert Fitterman", "field_dob": "1959", "field_dod": "", "field_school_movement": "Conceptual Poetry", "view_node": "/poet/robert-fitterman", "field_state": ""}, {"poets": "Caroline Bergvall", "field_dob": "1962", "field_dod": "", "field_school_movement": "Conceptual Poetry", "view_node": "/poet/caroline-bergvall", "field_state": ""}, {"poets": "Rick Bursky", "field_dob": "", "field_dod": "", "field_school_movement": "", "view_node": "/poet/rick-bursky", "field_state": ""}, {"poets": "Kathleen Ossip", "field_dob": "", "field_dod": "", "field_school_movement": "", "view_node": "/poet/kathleen-ossip", "field_state": ""}, {"poets": "Brenda Iijima", "field_dob": "", "field_dod": "", "field_school_movement": "", "view_node": "/poet/brenda-iijima", "field_state": ""}, {"poets": "Troy Jollimore", "field_dob": "", "field_dod": "", "field_school_movement": "", "view_node": "/poet/troy-jollimore", "field_state": ""}, {"poets": "Deborah Landau", "field_dob": "", "field_dod": "", "field_school_movement": "", "view_node": "/poet/deborah-landau", "field_state": ""}, {"poets": "Miguel Murphy", "field_dob": "", "field_dod": "", "field_school_movement": "", "view_node": "/poet/miguel-murphy", "field_state": ""}, {"poets": "Elisabeth Frost", "field_dob": "", "field_dod": "", "field_school_movement": "", "view_node": "/poet/elisabeth-frost", "field_state": ""}, {"poets": "David Meltzer", "field_dob": "1937", "field_dod": "2016", "field_school_movement": "San Francisco Renaissance, Beat", "view_node": "/poet/david-meltzer", "field_state": "California"}, {"poets": "Cedar  Sigo", "field_dob": "", "field_dod": "", "field_school_movement": "Contemporary", "view_node": "/poet/cedar-sigo", "field_state": "California"}, {"poets": "Erika Meitner", "field_dob": "", "field_dod": "", "field_school_movement": "Contemporary", "view_node": "/poet/erika-meitner", "field_state": ""}], "pager": {"current_page": 109, "total_items": "3766", "total_pages": 189, "items_per_page": 20}}