{"rows": [{"poets": "Todd Fredson", "field_dob": "", "field_dod": "", "field_school_movement": "", "view_node": "/poet/todd-fredson", "field_state": ""}, {"poets": "Casandra L\u00f3pez", "field_dob": "", "field_dod": "", "field_school_movement": "", "view_node": "/poet/casandra-lopez", "field_state": ""}, {"poets": "Joseph Rios", "field_dob": "", "field_dod": "", "field_school_movement": "", "view_node": "/poet/joseph-rios", "field_state": "California"}, {"poets": "Purvi Shah", "field_dob": "", "field_dod": "", "field_school_movement": "", "view_node": "/poet/purvi-shah", "field_state": ""}, {"poets": "Chad Sweeney", "field_dob": "", "field_dod": "", "field_school_movement": "", "view_node": "/poet/chad-sweeney", "field_state": ""}, {"poets": "William D. Hodjkiss ", "field_dob": "", "field_dod": "", "field_school_movement": "", "view_node": "/poet/william-d-hodjkiss", "field_state": ""}, {"poets": "Laura Tohe ", "field_dob": "", "field_dod": "", "field_school_movement": "", "view_node": "/poet/laura-tohe", "field_state": ""}, {"poets": "Stephanos Papadopoulos", "field_dob": "", "field_dod": "", "field_school_movement": "", "view_node": "/poet/stephanos-papadopoulos", "field_state": ""}, {"poets": "Emma Lowrey Williams", "field_dob": "", "field_dod": "", "field_school_movement": "", "view_node": "/poet/emma-lowrey-williams", "field_state": ""}, {"poets": "Mrs. Minot Carter ", "field_dob": "", "field_dod": "", "field_school_movement": "", "view_node": "/poet/mrs-minot-carter", "field_state": ""}, {"poets": "Elizabeth Jacobson", "field_dob": "", "field_dod": "", "field_school_movement": "", "view_node": "/poet/elizabeth-jacobson", "field_state": "New Mexico"}, {"poets": "Bojan Louis ", "field_dob": "", "field_dod": "", "field_school_movement": "", "view_node": "/poet/bojan-louis", "field_state": ""}, {"poets": "Heather Cahoon", "field_dob": "", "field_dod": "", "field_school_movement": "", "view_node": "/poet/heather-cahoon", "field_state": ""}, {"poets": "Abigail Chabitnoy", "field_dob": "", "field_dod": "", "field_school_movement": "", "view_node": "/poet/abigail-chabitnoy", "field_state": ""}, {"poets": "Too-qua-stee", "field_dob": "", "field_dod": "", "field_school_movement": "", "view_node": "/poet/too-qua-stee", "field_state": ""}, {"poets": "Rebecca Morgan Frank", "field_dob": "", "field_dod": "", "field_school_movement": "", "view_node": "/poet/rebecca-morgan-frank", "field_state": ""}, {"poets": "Evalyn Callahan Shaw", "field_dob": "", "field_dod": "", "field_school_movement": "", "view_node": "/poet/evalyn-callahan-shaw", "field_state": ""}, {"poets": "Semaj Brown", "field_dob": "", "field_dod": "", "field_school_movement": "", "view_node": "/poet/semaj-brown", "field_state": "Michigan"}, {"poets": "Nicole Terez Dutton", "field_dob": "", "field_dod": "", "field_school_movement": "", "view_node": "/poet/nicole-terez-dutton", "field_state": ""}, {"poets": "Lillian-Yvonne Bertram", "field_dob": "", "field_dod": "", "field_school_movement": "", "view_node": "/poet/lillian-yvonne-bertram", "field_state": ""}], "pager": {"current_page": 31, "total_items": "3766", "total_pages": 189, "items_per_page": 20}}