{"rows": [{"poets": "Anonymous", "field_dob": "", "field_dod": "", "field_school_movement": "", "view_node": "/poet/anonymous", "field_state": ""}, {"poets": "Sappho", "field_dob": "", "field_dod": "", "field_school_movement": "", "view_node": "/poet/sappho", "field_state": ""}, {"poets": "Anne Carson", "field_dob": "1950", "field_dod": "", "field_school_movement": "", "view_node": "/poet/anne-carson", "field_state": ""}, {"poets": "Lady Mary Wortley Montagu", "field_dob": "1689", "field_dod": "1762", "field_school_movement": "", "view_node": "/poet/lady-mary-wortley-montagu", "field_state": ""}, {"poets": "E. M. Schorb", "field_dob": "", "field_dod": "", "field_school_movement": "", "view_node": "/poet/e-m-schorb", "field_state": "North Carolina"}, {"poets": "Stephen Mitchell", "field_dob": "", "field_dod": "", "field_school_movement": "Translators", "view_node": "/poet/stephen-mitchell", "field_state": ""}, {"poets": "Nathaniel Tarn", "field_dob": "", "field_dod": "", "field_school_movement": "", "view_node": "/poet/nathaniel-tarn", "field_state": ""}, {"poets": "Margaret Walker", "field_dob": "1915", "field_dod": "1998", "field_school_movement": "", "view_node": "/poet/margaret-walker", "field_state": "Alabama"}, {"poets": "Thomas Traherne", "field_dob": "1637", "field_dod": "1674", "field_school_movement": "Surrealism", "view_node": "/poet/thomas-traherne", "field_state": ""}, {"poets": "Julia de Burgos", "field_dob": "1914", "field_dod": "1953", "field_school_movement": "", "view_node": "/poet/julia-de-burgos", "field_state": ""}, {"poets": "Wilfred Owen", "field_dob": "1893", "field_dod": "1918", "field_school_movement": "Poets of World War I", "view_node": "/poet/wilfred-owen", "field_state": ""}, {"poets": "Andrew Marvell", "field_dob": "1621", "field_dod": "1678", "field_school_movement": "Metaphysical Poet", "view_node": "/poet/andrew-marvell", "field_state": ""}, {"poets": "Johann Wolfgang von Goethe", "field_dob": "1749", "field_dod": "1832", "field_school_movement": "", "view_node": "/poet/johann-wolfgang-von-goethe", "field_state": ""}, {"poets": "Paul Laurence Dunbar", "field_dob": "1872", "field_dod": "1906", "field_school_movement": "", "view_node": "/poet/paul-laurence-dunbar", "field_state": ""}, {"poets": "Audre Lorde", "field_dob": "1934", "field_dod": "1992", "field_school_movement": "", "view_node": "/poet/audre-lorde", "field_state": "New York"}, {"poets": "Patricia Smith", "field_dob": "1955", "field_dod": "", "field_school_movement": "Slam/Spoken Word, Contemporary", "view_node": "/poet/patricia-smith", "field_state": "New Jersey"}, {"poets": "Alfred Lord Tennyson", "field_dob": "1809", "field_dod": "1892", "field_school_movement": "Victorian", "view_node": "/poet/alfred-lord-tennyson", "field_state": ""}, {"poets": "Roque Dalton", "field_dob": "1935", "field_dod": "1975", "field_school_movement": "Poets of Exile, Imagism", "view_node": "/poet/roque-dalton", "field_state": ""}, {"poets": "Thomas Campion", "field_dob": "1567", "field_dod": "1620", "field_school_movement": "", "view_node": "/poet/thomas-campion", "field_state": ""}, {"poets": "Jack Ag\u00fceros", "field_dob": "1934", "field_dod": "2014", "field_school_movement": "Nuyorican Poetry", "view_node": "/poet/jack-agueros", "field_state": "New York"}], "pager": {"current_page": 183, "total_items": "3766", "total_pages": 189, "items_per_page": 20}}