{"rows": [{"poets": "Jack Kerouac", "field_dob": "1922", "field_dod": "1969", "field_school_movement": "Beat", "view_node": "/poet/jack-kerouac", "field_state": ""}, {"poets": "Sam Truitt", "field_dob": "", "field_dod": "", "field_school_movement": "", "view_node": "/poet/sam-truitt", "field_state": ""}, {"poets": "W. B. Keckler", "field_dob": "", "field_dod": "", "field_school_movement": "", "view_node": "/poet/w-b-keckler", "field_state": ""}, {"poets": "John Balaban", "field_dob": "", "field_dod": "", "field_school_movement": "", "view_node": "/poet/john-balaban", "field_state": "North Carolina"}, {"poets": "Mark McMorris", "field_dob": "", "field_dod": "", "field_school_movement": "Symbolists", "view_node": "/poet/mark-mcmorris", "field_state": ""}, {"poets": "Shirley Kaufman", "field_dob": "", "field_dod": "", "field_school_movement": "", "view_node": "/poet/shirley-kaufman", "field_state": ""}, {"poets": "Monica Youn", "field_dob": "", "field_dod": "", "field_school_movement": "", "view_node": "/poet/monica-youn", "field_state": ""}, {"poets": "Jim Harrison", "field_dob": "1937", "field_dod": "2016", "field_school_movement": "", "view_node": "/poet/jim-harrison", "field_state": "Michigan"}, {"poets": "Jean Follain", "field_dob": "", "field_dod": "", "field_school_movement": "", "view_node": "/poet/jean-follain", "field_state": ""}, {"poets": "Antonio Porchia", "field_dob": "", "field_dod": "", "field_school_movement": "", "view_node": "/poet/antonio-porchia", "field_state": ""}, {"poets": "Mark Bibbins", "field_dob": "", "field_dod": "", "field_school_movement": "Contemporary", "view_node": "/poet/mark-bibbins", "field_state": "New York"}, {"poets": "Lawrence Raab", "field_dob": "", "field_dod": "", "field_school_movement": "", "view_node": "/poet/lawrence-raab", "field_state": ""}, {"poets": "James Longenbach", "field_dob": "", "field_dod": "", "field_school_movement": "", "view_node": "/poet/james-longenbach", "field_state": ""}, {"poets": "Killarney Clary", "field_dob": "", "field_dod": "", "field_school_movement": "", "view_node": "/poet/killarney-clary", "field_state": "California"}, {"poets": "Cortney Davis", "field_dob": "", "field_dod": "", "field_school_movement": "", "view_node": "/poet/cortney-davis", "field_state": ""}, {"poets": "David Hernandez", "field_dob": "", "field_dod": "", "field_school_movement": "", "view_node": "/poet/david-hernandez", "field_state": "California"}, {"poets": "Daniel Nester", "field_dob": "", "field_dod": "", "field_school_movement": "", "view_node": "/poet/daniel-nester", "field_state": ""}, {"poets": "Bob Holman", "field_dob": "1948", "field_dod": "", "field_school_movement": "", "view_node": "/poet/bob-holman", "field_state": ""}, {"poets": "William Olsen", "field_dob": "", "field_dod": "", "field_school_movement": "", "view_node": "/poet/william-olsen", "field_state": ""}, {"poets": "Sharon Bryan", "field_dob": "", "field_dod": "", "field_school_movement": "", "view_node": "/poet/sharon-bryan", "field_state": ""}], "pager": {"current_page": 155, "total_items": "3766", "total_pages": 189, "items_per_page": 20}}