{"rows": [{"poets": "Maureen Owen", "field_dob": "", "field_dod": "", "field_school_movement": "", "view_node": "/poet/maureen-owen", "field_state": ""}, {"poets": "Jonathan Aaron", "field_dob": "", "field_dod": "", "field_school_movement": "Contemporary", "view_node": "/poet/jonathan-aaron", "field_state": ""}, {"poets": "Kurt S. Olsson", "field_dob": "", "field_dod": "", "field_school_movement": "", "view_node": "/poet/kurt-s-olsson", "field_state": ""}, {"poets": "Nicholas Johnson", "field_dob": "", "field_dod": "", "field_school_movement": "", "view_node": "/poet/nicholas-johnson", "field_state": ""}, {"poets": "David Cappella", "field_dob": "", "field_dod": "", "field_school_movement": "", "view_node": "/poet/david-cappella", "field_state": ""}, {"poets": "Tom Hansen", "field_dob": "", "field_dod": "", "field_school_movement": "", "view_node": "/poet/tom-hansen", "field_state": ""}, {"poets": "Darcy Cummings", "field_dob": "", "field_dod": "", "field_school_movement": "", "view_node": "/poet/darcy-cummings", "field_state": ""}, {"poets": "Tom Clark", "field_dob": "1941", "field_dod": "2018", "field_school_movement": "Contemporary", "view_node": "/poet/tom-clark", "field_state": "California"}, {"poets": "Sarah Fox", "field_dob": "", "field_dod": "", "field_school_movement": "", "view_node": "/poet/sarah-fox", "field_state": ""}, {"poets": "Christina Davis", "field_dob": "", "field_dod": "", "field_school_movement": "", "view_node": "/poet/christina-davis", "field_state": ""}, {"poets": "Deena Linnett", "field_dob": "", "field_dod": "", "field_school_movement": "", "view_node": "/poet/deena-linnett", "field_state": ""}, {"poets": "Greg Hewett", "field_dob": "", "field_dod": "", "field_school_movement": "", "view_node": "/poet/greg-hewett", "field_state": ""}, {"poets": "Steven Kronen", "field_dob": "", "field_dod": "", "field_school_movement": "", "view_node": "/poet/steven-kronen", "field_state": ""}, {"poets": "J\u00f3nas Hallgr\u00edmsson", "field_dob": "", "field_dod": "", "field_school_movement": "", "view_node": "/poet/jonas-hallgrimsson", "field_state": ""}, {"poets": "Peter Gizzi", "field_dob": "1959", "field_dod": "", "field_school_movement": "", "view_node": "/poet/peter-gizzi", "field_state": ""}, {"poets": "Barbara Jane Reyes", "field_dob": "", "field_dod": "", "field_school_movement": "", "view_node": "/poet/barbara-jane-reyes", "field_state": "California"}, {"poets": "Louis Zukofsky", "field_dob": "1904", "field_dod": "1978", "field_school_movement": "Objectivists", "view_node": "/poet/louis-zukofsky", "field_state": ""}, {"poets": "Brenda Hillman", "field_dob": "1951", "field_dod": "", "field_school_movement": "Contemporary", "view_node": "/poet/brenda-hillman", "field_state": "California"}, {"poets": "Elizabeth Kray", "field_dob": "1916", "field_dod": "1987", "field_school_movement": "", "view_node": "/poet/elizabeth-kray", "field_state": "New York"}, {"poets": "Mary Rose O&#039;Reilley", "field_dob": "", "field_dod": "", "field_school_movement": "", "view_node": "/poet/mary-rose-oreilley", "field_state": "Minnesota"}], "pager": {"current_page": 138, "total_items": "3766", "total_pages": 189, "items_per_page": 20}}