{"rows": [{"poets": "Twyla M. Hansen", "field_dob": "", "field_dod": "", "field_school_movement": "", "view_node": "/poet/twyla-m-hansen", "field_state": "Nebraska"}, {"poets": "Ana\u00efs Duplan", "field_dob": "", "field_dod": "", "field_school_movement": "", "view_node": "/poet/anais-duplan", "field_state": ""}, {"poets": "Melissa Range", "field_dob": "", "field_dod": "", "field_school_movement": "", "view_node": "/poet/melissa-range", "field_state": ""}, {"poets": "Patricia Colleen  Murphy", "field_dob": "", "field_dod": "", "field_school_movement": "", "view_node": "/poet/patricia-colleen-murphy", "field_state": ""}, {"poets": "Emmy P\u00e9rez", "field_dob": "", "field_dod": "", "field_school_movement": "", "view_node": "/poet/emmy-perez", "field_state": ""}, {"poets": "Douglas A.  Martin", "field_dob": "", "field_dod": "", "field_school_movement": "", "view_node": "/poet/douglas-martin", "field_state": ""}, {"poets": "Emily Skillings", "field_dob": "", "field_dod": "", "field_school_movement": "", "view_node": "/poet/emily-skillings", "field_state": ""}, {"poets": "Joseph Auslander", "field_dob": "1897", "field_dod": "1965", "field_school_movement": "", "view_node": "/poet/joseph-auslander", "field_state": ""}, {"poets": "Richard Scott", "field_dob": "", "field_dod": "", "field_school_movement": "", "view_node": "/poet/richard-scott", "field_state": ""}, {"poets": "Daniel Nadler", "field_dob": "", "field_dod": "", "field_school_movement": "", "view_node": "/poet/daniel-nadler", "field_state": ""}, {"poets": "Bryan Borland", "field_dob": "", "field_dod": "", "field_school_movement": "", "view_node": "/poet/bryan-borland", "field_state": "Arkansas"}, {"poets": "Brenda C\u00e1rdenas", "field_dob": "", "field_dod": "", "field_school_movement": "", "view_node": "/poet/brenda-cardenas", "field_state": "Wisconsin"}, {"poets": "Jorge H.  Aigla", "field_dob": "", "field_dod": "", "field_school_movement": "", "view_node": "/poet/jorge-h-aigla", "field_state": "New Mexico"}, {"poets": "Mar\u00eda Luisa Arroyo", "field_dob": "", "field_dod": "", "field_school_movement": "", "view_node": "/poet/maria-luisa-arroyo", "field_state": "Massachusetts"}, {"poets": "Oscar Gonzales", "field_dob": "", "field_dod": "", "field_school_movement": "", "view_node": "/poet/oscar-gonzales", "field_state": ""}, {"poets": "Ruth Madievsky", "field_dob": "", "field_dod": "", "field_school_movement": "", "view_node": "/poet/ruth-madievsky", "field_state": ""}, {"poets": "Francisca Aguirre", "field_dob": "", "field_dod": "", "field_school_movement": "", "view_node": "/poet/francisca-aguirre", "field_state": ""}, {"poets": "Olga Orozco", "field_dob": "", "field_dod": "", "field_school_movement": "", "view_node": "/poet/olga-orozco", "field_state": ""}, {"poets": "Kimberly Blaeser", "field_dob": "", "field_dod": "", "field_school_movement": "", "view_node": "/poet/kimberly-blaeser", "field_state": "Wisconsin"}, {"poets": "Kaia Sand", "field_dob": "", "field_dod": "", "field_school_movement": "", "view_node": "/poet/kaia-sand", "field_state": "Oregon"}], "pager": {"current_page": 65, "total_items": "3766", "total_pages": 189, "items_per_page": 20}}