{"rows": [{"poets": "Joyce Sutphen", "field_dob": "", "field_dod": "", "field_school_movement": "", "view_node": "/poet/joyce-sutphen", "field_state": "Minnesota"}, {"poets": "Willis Barnstone", "field_dob": "1927", "field_dod": "", "field_school_movement": "", "view_node": "/poet/willis-barnstone", "field_state": ""}, {"poets": "Gwen Head", "field_dob": "", "field_dod": "", "field_school_movement": "", "view_node": "/poet/gwen-head", "field_state": ""}, {"poets": "Steve Scafidi", "field_dob": "", "field_dod": "", "field_school_movement": "", "view_node": "/poet/steve-scafidi", "field_state": ""}, {"poets": "Calvin Forbes", "field_dob": "1945", "field_dod": "", "field_school_movement": "Jazz Poetry", "view_node": "/poet/calvin-forbes", "field_state": ""}, {"poets": "Betty Adcock", "field_dob": "", "field_dod": "", "field_school_movement": "", "view_node": "/poet/betty-adcock", "field_state": ""}, {"poets": "Patricia Young", "field_dob": "", "field_dod": "", "field_school_movement": "", "view_node": "/poet/patricia-young", "field_state": ""}, {"poets": "Darren Wershler-Henry", "field_dob": "", "field_dod": "", "field_school_movement": "", "view_node": "/poet/darren-wershler-henry", "field_state": ""}, {"poets": "Sharon Thesen", "field_dob": "", "field_dod": "", "field_school_movement": "", "view_node": "/poet/sharon-thesen", "field_state": ""}, {"poets": "Karen Houle", "field_dob": "", "field_dod": "", "field_school_movement": "", "view_node": "/poet/karen-houle", "field_state": ""}, {"poets": "David R. Slavitt", "field_dob": "1935", "field_dod": "", "field_school_movement": "Contemporary", "view_node": "/poet/david-r-slavitt", "field_state": "Pennsylvania"}, {"poets": "Frazier Russell", "field_dob": "", "field_dod": "", "field_school_movement": "", "view_node": "/poet/frazier-russell", "field_state": ""}, {"poets": "Hettie Jones", "field_dob": "", "field_dod": "", "field_school_movement": "", "view_node": "/poet/hettie-jones", "field_state": "New York"}, {"poets": "Amiri Baraka", "field_dob": "1934", "field_dod": "2014", "field_school_movement": "Slam/Spoken Word, Black Arts, Jazz Poetry", "view_node": "/poet/amiri-baraka", "field_state": "New Jersey"}, {"poets": "Natasha Trethewey", "field_dob": "1966", "field_dod": "", "field_school_movement": "Contemporary, Dark Room Collective", "view_node": "/poet/natasha-trethewey", "field_state": "Georgia"}, {"poets": "Edwin Muir", "field_dob": "", "field_dod": "", "field_school_movement": "", "view_node": "/poet/edwin-muir", "field_state": ""}, {"poets": "Witter Bynner", "field_dob": "1881", "field_dod": "1968", "field_school_movement": "", "view_node": "/poet/witter-bynner", "field_state": ""}, {"poets": "Terrance Hayes", "field_dob": "1971", "field_dod": "", "field_school_movement": "Contemporary", "view_node": "/poet/terrance-hayes", "field_state": "Pennsylvania"}, {"poets": "Harvey Shapiro", "field_dob": "1924", "field_dod": "2013", "field_school_movement": "", "view_node": "/poet/harvey-shapiro", "field_state": ""}, {"poets": "Amy Lowell", "field_dob": "1874", "field_dod": "1925", "field_school_movement": "Imagism, Poets of World War I", "view_node": "/poet/amy-lowell", "field_state": "Massachusetts"}], "pager": {"current_page": 177, "total_items": "3766", "total_pages": 189, "items_per_page": 20}}