{"rows": [{"poets": "Sarah Mangold", "field_dob": "", "field_dod": "", "field_school_movement": "", "view_node": "/poet/sarah-mangold", "field_state": ""}, {"poets": "Joanie Mackowski", "field_dob": "", "field_dod": "", "field_school_movement": "", "view_node": "/poet/joanie-mackowski", "field_state": "New York"}, {"poets": "Jon Loomis", "field_dob": "", "field_dod": "", "field_school_movement": "", "view_node": "/poet/jon-loomis", "field_state": "Wisconsin"}, {"poets": "Walter K. Lew", "field_dob": "", "field_dod": "", "field_school_movement": "", "view_node": "/poet/walter-k-lew", "field_state": ""}, {"poets": "David Dodd Lee", "field_dob": "", "field_dod": "", "field_school_movement": "", "view_node": "/poet/david-dodd-lee", "field_state": ""}, {"poets": "Denise Liddell Lawson", "field_dob": "", "field_dod": "", "field_school_movement": "", "view_node": "/poet/denise-liddell-lawson", "field_state": ""}, {"poets": "Melody Lacina", "field_dob": "", "field_dod": "", "field_school_movement": "", "view_node": "/poet/melody-lacina", "field_state": ""}, {"poets": "Joanne Kyger", "field_dob": "1934", "field_dod": "2017", "field_school_movement": "", "view_node": "/poet/joanne-kyger", "field_state": "California"}, {"poets": "Ruth Ellen Kocher", "field_dob": "", "field_dod": "", "field_school_movement": "", "view_node": "/poet/ruth-ellen-kocher", "field_state": ""}, {"poets": "Laura Kasischke", "field_dob": "", "field_dod": "", "field_school_movement": "", "view_node": "/poet/laura-kasischke", "field_state": ""}, {"poets": "Joyce James", "field_dob": "", "field_dod": "", "field_school_movement": "", "view_node": "/poet/joyce-james", "field_state": ""}, {"poets": "Roger Greenwald", "field_dob": "", "field_dod": "", "field_school_movement": "", "view_node": "/poet/roger-greenwald", "field_state": ""}, {"poets": "Rolf Jacobsen", "field_dob": "", "field_dod": "", "field_school_movement": "", "view_node": "/poet/rolf-jacobsen", "field_state": ""}, {"poets": "Cynthia Hogue", "field_dob": "", "field_dod": "", "field_school_movement": "", "view_node": "/poet/cynthia-hogue", "field_state": ""}, {"poets": "Ellen Hinsey", "field_dob": "", "field_dod": "", "field_school_movement": "", "view_node": "/poet/ellen-hinsey", "field_state": ""}, {"poets": "Susan Hahn", "field_dob": "", "field_dod": "", "field_school_movement": "", "view_node": "/poet/susan-hahn", "field_state": ""}, {"poets": "Eamon Grennan", "field_dob": "", "field_dod": "", "field_school_movement": "Symbolists", "view_node": "/poet/eamon-grennan", "field_state": "New York"}, {"poets": "Linda Gregerson", "field_dob": "1950", "field_dod": "", "field_school_movement": "Contemporary", "view_node": "/poet/linda-gregerson", "field_state": "Michigan"}, {"poets": "Joanna Goodman", "field_dob": "", "field_dod": "", "field_school_movement": "", "view_node": "/poet/joanna-goodman", "field_state": ""}, {"poets": "Lise Goett", "field_dob": "", "field_dod": "", "field_school_movement": "", "view_node": "/poet/lise-goett", "field_state": ""}], "pager": {"current_page": 162, "total_items": "3766", "total_pages": 189, "items_per_page": 20}}