{"rows": [{"poets": "Michael Drayton", "field_dob": "", "field_dod": "", "field_school_movement": "", "view_node": "/poet/michael-drayton", "field_state": ""}, {"poets": "Arthur Gorges", "field_dob": "", "field_dod": "", "field_school_movement": "", "view_node": "/poet/arthur-gorges", "field_state": ""}, {"poets": "John Boyle O&#039;Reilly", "field_dob": "1844", "field_dod": "1890", "field_school_movement": "", "view_node": "/poet/john-boyle-oreilly", "field_state": ""}, {"poets": "John Wilmot", "field_dob": "", "field_dod": "", "field_school_movement": "", "view_node": "/poet/john-wilmot", "field_state": ""}, {"poets": "Caroline Elizabeth Sarah Norton", "field_dob": "1808", "field_dod": "1877", "field_school_movement": "", "view_node": "/poet/caroline-elizabeth-sarah-norton", "field_state": ""}, {"poets": "Joyce Kilmer", "field_dob": "1886", "field_dod": "1918", "field_school_movement": "Poets of World War I", "view_node": "/poet/joyce-kilmer", "field_state": ""}, {"poets": "Dante Alighieri", "field_dob": "1265", "field_dod": "1321", "field_school_movement": "", "view_node": "/poet/dante-alighieri", "field_state": ""}, {"poets": "Sir John Davies", "field_dob": "", "field_dod": "", "field_school_movement": "", "view_node": "/poet/sir-john-davies", "field_state": ""}, {"poets": "Meghan Cleary", "field_dob": "", "field_dod": "", "field_school_movement": "", "view_node": "/poet/meghan-cleary", "field_state": ""}, {"poets": "Laura Jensen", "field_dob": "", "field_dod": "", "field_school_movement": "", "view_node": "/poet/laura-jensen", "field_state": ""}, {"poets": "Jack Spicer", "field_dob": "1925", "field_dod": "1965", "field_school_movement": "San Francisco Renaissance", "view_node": "/poet/jack-spicer", "field_state": "California"}, {"poets": "Margaret Cavendish", "field_dob": "", "field_dod": "", "field_school_movement": "", "view_node": "/poet/margaret-cavendish", "field_state": ""}, {"poets": "Jessie Redmon Fauset", "field_dob": "1882", "field_dod": "1961", "field_school_movement": "Harlem Renaissance", "view_node": "/poet/jessie-redmon-fauset", "field_state": "New Jersey"}, {"poets": "Georgia Douglas Johnson", "field_dob": "1880", "field_dod": "1966", "field_school_movement": "Harlem Renaissance", "view_node": "/poet/georgia-douglas-johnson", "field_state": ""}, {"poets": "Gwendolyn Bennett", "field_dob": "1902", "field_dod": "1981", "field_school_movement": "", "view_node": "/poet/gwendolyn-bennett", "field_state": ""}, {"poets": "Anthony Walton", "field_dob": "", "field_dod": "", "field_school_movement": "", "view_node": "/poet/anthony-walton", "field_state": ""}, {"poets": "William Wadsworth", "field_dob": "", "field_dod": "", "field_school_movement": "Ethnopoetics", "view_node": "/poet/william-wadsworth", "field_state": ""}, {"poets": "Julia Ward Howe", "field_dob": "1819", "field_dod": "1910", "field_school_movement": "", "view_node": "/poet/julia-ward-howe", "field_state": "New York"}, {"poets": "Denis Johnson", "field_dob": "1949", "field_dod": "2017", "field_school_movement": "", "view_node": "/poet/denis-johnson", "field_state": ""}, {"poets": "Miyazawa Kenji", "field_dob": "", "field_dod": "", "field_school_movement": "", "view_node": "/poet/miyazawa-kenji", "field_state": ""}], "pager": {"current_page": 129, "total_items": "3766", "total_pages": 189, "items_per_page": 20}}