{"rows": [{"poets": "Stephen Yenser", "field_dob": "", "field_dod": "", "field_school_movement": "Contemporary", "view_node": "/poet/stephen-yenser", "field_state": "Kansas"}, {"poets": "Stanley Plumly", "field_dob": "1939", "field_dod": "2019", "field_school_movement": "", "view_node": "/poet/stanley-plumly", "field_state": "Maryland"}, {"poets": "Mark Strand", "field_dob": "1934", "field_dod": "2014", "field_school_movement": "Modernism", "view_node": "/poet/mark-strand", "field_state": "New York"}, {"poets": "Maurya Simon", "field_dob": "", "field_dod": "", "field_school_movement": "Contemporary", "view_node": "/poet/maurya-simon", "field_state": ""}, {"poets": "Muriel Rukeyser", "field_dob": "1913", "field_dod": "1980", "field_school_movement": "Contemporary", "view_node": "/poet/muriel-rukeyser", "field_state": "New York"}, {"poets": "Marie Ponsot", "field_dob": "1921", "field_dod": "2019", "field_school_movement": "Metaphysical Poet, Language Poetry", "view_node": "/poet/marie-ponsot", "field_state": "New York"}, {"poets": "Marianne Moore", "field_dob": "1887", "field_dod": "1972", "field_school_movement": "Modernism", "view_node": "/poet/marianne-moore", "field_state": "New York"}, {"poets": "Marilyn Nelson", "field_dob": "1946", "field_dod": "", "field_school_movement": "Contemporary", "view_node": "/poet/marilyn-nelson", "field_state": "Connecticut"}, {"poets": "Mina Loy", "field_dob": "1882", "field_dod": "1966", "field_school_movement": "Modernism, Jazz Poetry, Poets of World War I", "view_node": "/poet/mina-loy", "field_state": "Colorado"}, {"poets": "Mark Jarman", "field_dob": "1952", "field_dod": "", "field_school_movement": "Formalism", "view_node": "/poet/mark-jarman", "field_state": "Tennessee"}, {"poets": "Maxine Kumin", "field_dob": "1925", "field_dod": "2014", "field_school_movement": "Ethnopoetics", "view_node": "/poet/maxine-kumin", "field_state": "New Hampshire"}, {"poets": "Marilyn Hacker", "field_dob": "1942", "field_dod": "", "field_school_movement": "", "view_node": "/poet/marilyn-hacker", "field_state": "New York"}, {"poets": "Mark Doty", "field_dob": "1953", "field_dod": "", "field_school_movement": "", "view_node": "/poet/mark-doty", "field_state": "New York"}, {"poets": "Marilyn Chin", "field_dob": "", "field_dod": "", "field_school_movement": "", "view_node": "/poet/marilyn-chin", "field_state": "Oregon"}, {"poets": "Lisel Mueller", "field_dob": "1924", "field_dod": "2020", "field_school_movement": "Modernism", "view_node": "/poet/lisel-mueller", "field_state": ""}, {"poets": "Luis J. Rodr\u00edguez", "field_dob": "", "field_dod": "", "field_school_movement": "", "view_node": "/poet/luis-j-rodriguez", "field_state": "California"}, {"poets": "Lynn Emanuel", "field_dob": "1949", "field_dod": "", "field_school_movement": "", "view_node": "/poet/lynn-emanuel", "field_state": "Pennsylvania"}, {"poets": "Lorna Dee Cervantes", "field_dob": "1954", "field_dod": "", "field_school_movement": "", "view_node": "/poet/lorna-dee-cervantes", "field_state": ""}, {"poets": "Lucille Clifton", "field_dob": "1936", "field_dod": "2010", "field_school_movement": "Contemporary", "view_node": "/poet/lucille-clifton", "field_state": "Maryland"}, {"poets": "Louise Bogan", "field_dob": "1897", "field_dod": "1970", "field_school_movement": "", "view_node": "/poet/louise-bogan", "field_state": ""}], "pager": {"current_page": 89, "total_items": "3766", "total_pages": 189, "items_per_page": 20}}