{"rows": [{"poets": "Felicia Zamora", "field_dob": "", "field_dod": "", "field_school_movement": "", "view_node": "/poet/felicia-zamora", "field_state": ""}, {"poets": "Saretta Morgan", "field_dob": "", "field_dod": "", "field_school_movement": "", "view_node": "/poet/saretta-morgan", "field_state": ""}, {"poets": "manuel arturo abreu", "field_dob": "", "field_dod": "", "field_school_movement": "", "view_node": "/poet/manuel-arturo-abreu", "field_state": ""}, {"poets": "Siwar Masannat", "field_dob": "", "field_dod": "", "field_school_movement": "", "view_node": "/poet/siwar-masannat", "field_state": ""}, {"poets": "Susannah Nevison", "field_dob": "", "field_dod": "", "field_school_movement": "", "view_node": "/poet/susannah-nevison", "field_state": ""}, {"poets": "Laurie Ann Guerrero", "field_dob": "", "field_dod": "", "field_school_movement": "", "view_node": "/poet/laurie-ann-guerrero", "field_state": ""}, {"poets": "Molly McCully Brown", "field_dob": "", "field_dod": "", "field_school_movement": "", "view_node": "/poet/molly-mccully-brown", "field_state": ""}, {"poets": "MK Chavez", "field_dob": "", "field_dod": "", "field_school_movement": "", "view_node": "/poet/mk-chavez", "field_state": ""}, {"poets": "Julia Johnson", "field_dob": "", "field_dod": "", "field_school_movement": "", "view_node": "/poet/julia-johnson", "field_state": ""}, {"poets": "Amy Dryansky", "field_dob": "", "field_dod": "", "field_school_movement": "", "view_node": "/poet/amy-dryansky", "field_state": "Massachusetts"}, {"poets": "Kai Carlson-Wee", "field_dob": "", "field_dod": "", "field_school_movement": "", "view_node": "/poet/kai-carlson-wee", "field_state": ""}, {"poets": "Grace Bauer", "field_dob": "", "field_dod": "", "field_school_movement": "", "view_node": "/poet/grace-bauer", "field_state": ""}, {"poets": "Ruth Muskrat Bronson", "field_dob": "", "field_dod": "", "field_school_movement": "", "view_node": "/poet/ruth-muskrat-bronson", "field_state": ""}, {"poets": "Wendy Trevino", "field_dob": "", "field_dod": "", "field_school_movement": "", "view_node": "/poet/wendy-trevino", "field_state": ""}, {"poets": "Libbie C. Baer", "field_dob": "1849", "field_dod": "1929", "field_school_movement": "", "view_node": "/poet/libbie-c-baer", "field_state": ""}, {"poets": "Anna de Br\u00e9mont", "field_dob": "", "field_dod": "", "field_school_movement": "", "view_node": "/poet/anna-de-bremont", "field_state": ""}, {"poets": "George Robert Sims", "field_dob": "1847", "field_dod": "1922", "field_school_movement": "", "view_node": "/poet/george-robert-sims", "field_state": ""}, {"poets": "Ph\u00e1p Hoan", "field_dob": "", "field_dod": "", "field_school_movement": "", "view_node": "/poet/phap-hoan", "field_state": ""}, {"poets": "Irakli Kakabadze", "field_dob": "", "field_dod": "", "field_school_movement": "", "view_node": "/poet/irakli-kakabadze", "field_state": ""}, {"poets": "P. K.", "field_dob": "", "field_dod": "", "field_school_movement": "", "view_node": "/poet/p-k", "field_state": ""}], "pager": {"current_page": 43, "total_items": "3766", "total_pages": 189, "items_per_page": 20}}