{"rows": [{"poets": "Laura Moriarty", "field_dob": "", "field_dod": "", "field_school_movement": "", "view_node": "/poet/laura-moriarty", "field_state": ""}, {"poets": "Andrew Motion", "field_dob": "", "field_dod": "", "field_school_movement": "", "view_node": "/poet/andrew-motion", "field_state": ""}, {"poets": "Zachary Schomburg", "field_dob": "", "field_dod": "", "field_school_movement": "", "view_node": "/poet/zachary-schomburg", "field_state": ""}, {"poets": "David Trinidad", "field_dob": "", "field_dod": "", "field_school_movement": "", "view_node": "/poet/david-trinidad", "field_state": ""}, {"poets": "Devin Johnston", "field_dob": "", "field_dod": "", "field_school_movement": "", "view_node": "/poet/devin-johnston", "field_state": ""}, {"poets": "George Witte", "field_dob": "", "field_dod": "", "field_school_movement": "", "view_node": "/poet/george-witte", "field_state": ""}, {"poets": "Ken Chen", "field_dob": "", "field_dod": "", "field_school_movement": "", "view_node": "/poet/ken-chen", "field_state": ""}, {"poets": "Matt Hart", "field_dob": "", "field_dod": "", "field_school_movement": "", "view_node": "/poet/matt-hart", "field_state": ""}, {"poets": "Tom Healy", "field_dob": "", "field_dod": "", "field_school_movement": "", "view_node": "/poet/tom-healy", "field_state": "New York"}, {"poets": "Jonathan Weinert", "field_dob": "", "field_dod": "", "field_school_movement": "", "view_node": "/poet/jonathan-weinert", "field_state": ""}, {"poets": "Carmen  Gim\u00e9nez Smith", "field_dob": "", "field_dod": "", "field_school_movement": "", "view_node": "/poet/carmen-gimenez-smith", "field_state": "New Mexico"}, {"poets": "Timothy Yu", "field_dob": "", "field_dod": "", "field_school_movement": "", "view_node": "/poet/timothy-yu", "field_state": ""}, {"poets": "George Hitchcock", "field_dob": "", "field_dod": "", "field_school_movement": "", "view_node": "/poet/george-hitchcock", "field_state": ""}, {"poets": "Linda Susan Jackson", "field_dob": "", "field_dod": "", "field_school_movement": "", "view_node": "/poet/linda-susan-jackson", "field_state": ""}, {"poets": "Terese Svoboda", "field_dob": "", "field_dod": "", "field_school_movement": "", "view_node": "/poet/terese-svoboda", "field_state": ""}, {"poets": "Kalamu ya Salaam", "field_dob": "", "field_dod": "", "field_school_movement": "", "view_node": "/poet/kalamu-ya-salaam", "field_state": ""}, {"poets": "Gabeba Baderoon", "field_dob": "", "field_dod": "", "field_school_movement": "", "view_node": "/poet/gabeba-baderoon", "field_state": ""}, {"poets": "Rob Schlegel", "field_dob": "", "field_dod": "", "field_school_movement": "", "view_node": "/poet/rob-schlegel", "field_state": ""}, {"poets": "Ghirmai Yohannes", "field_dob": "", "field_dod": "", "field_school_movement": "", "view_node": "/poet/ghirmai-yohannes", "field_state": ""}, {"poets": "Richard Aldington", "field_dob": "1892", "field_dod": "1962", "field_school_movement": "Imagism, Poets of World War I", "view_node": "/poet/richard-aldington", "field_state": ""}], "pager": {"current_page": 112, "total_items": "3766", "total_pages": 189, "items_per_page": 20}}