{"rows": [{"poets": "Mimi Khalvati", "field_dob": "", "field_dod": "", "field_school_movement": "", "view_node": "/poet/mimi-khalvati", "field_state": ""}, {"poets": "Margo Berdeshevsky", "field_dob": "", "field_dod": "", "field_school_movement": "", "view_node": "/poet/margo-berdeshevsky", "field_state": ""}, {"poets": "George Szirtes", "field_dob": "1948", "field_dod": "", "field_school_movement": "", "view_node": "/poet/george-szirtes", "field_state": ""}, {"poets": "Lewis Ellingham", "field_dob": "", "field_dod": "", "field_school_movement": "", "view_node": "/poet/lewis-ellingham", "field_state": ""}, {"poets": "Suzanne Gardinier", "field_dob": "1961", "field_dod": "", "field_school_movement": "Contemporary", "view_node": "/poet/suzanne-gardinier", "field_state": ""}, {"poets": "Lynn Melnick", "field_dob": "", "field_dod": "", "field_school_movement": "", "view_node": "/poet/lynn-melnick", "field_state": "New York"}, {"poets": "Anna Bunston De Bary", "field_dob": "", "field_dod": "", "field_school_movement": "", "view_node": "/poet/anna-bunston-de-bary", "field_state": ""}, {"poets": "Mary Sidney Herbert", "field_dob": "", "field_dod": "", "field_school_movement": "", "view_node": "/poet/mary-sidney-herbert", "field_state": ""}, {"poets": "Joseph Fasano", "field_dob": "", "field_dod": "", "field_school_movement": "", "view_node": "/poet/joseph-fasano", "field_state": ""}, {"poets": "Kyle Dargan", "field_dob": "", "field_dod": "", "field_school_movement": "", "view_node": "/poet/kyle-dargan", "field_state": ""}, {"poets": "Aphra Behn", "field_dob": "", "field_dod": "", "field_school_movement": "", "view_node": "/poet/aphra-behn", "field_state": ""}, {"poets": "Jake Adam York", "field_dob": "1972", "field_dod": "2012", "field_school_movement": "", "view_node": "/poet/jake-adam-york", "field_state": "Alabama"}, {"poets": "Gordon Bottomley", "field_dob": "", "field_dod": "", "field_school_movement": "", "view_node": "/poet/gordon-bottomley", "field_state": ""}, {"poets": "Graham Foust", "field_dob": "", "field_dod": "", "field_school_movement": "", "view_node": "/poet/graham-foust", "field_state": ""}, {"poets": "Andrea Rexilius", "field_dob": "", "field_dod": "", "field_school_movement": "", "view_node": "/poet/andrea-rexilius", "field_state": ""}, {"poets": "Richard Blanco", "field_dob": "1968", "field_dod": "", "field_school_movement": "Contemporary", "view_node": "/poet/richard-blanco", "field_state": ""}, {"poets": "David Mason", "field_dob": "1954", "field_dod": "", "field_school_movement": "", "view_node": "/poet/david-mason", "field_state": ""}, {"poets": "Joan Naviyuk Kane", "field_dob": "", "field_dod": "", "field_school_movement": "", "view_node": "/poet/joan-naviyuk-kane", "field_state": "Alaska"}, {"poets": "William Collins", "field_dob": "1721", "field_dod": "1759", "field_school_movement": "", "view_node": "/poet/william-collins", "field_state": ""}, {"poets": "Ford Madox Ford", "field_dob": "1873", "field_dod": "1939", "field_school_movement": "Imagism, Poets of World War I", "view_node": "/poet/ford-madox-ford", "field_state": ""}], "pager": {"current_page": 98, "total_items": "3766", "total_pages": 189, "items_per_page": 20}}