{"rows": [{"poets": "A. Van Jordan", "field_dob": "1965", "field_dod": "", "field_school_movement": "", "view_node": "/poet/van-jordan", "field_state": "Michigan"}, {"poets": "Greg Williamson", "field_dob": "", "field_dod": "", "field_school_movement": "", "view_node": "/poet/greg-williamson", "field_state": ""}, {"poets": "Amy Holman", "field_dob": "", "field_dod": "", "field_school_movement": "", "view_node": "/poet/amy-holman", "field_state": ""}, {"poets": "Carl Dennis", "field_dob": "1939", "field_dod": "", "field_school_movement": "", "view_node": "/poet/carl-dennis", "field_state": ""}, {"poets": "Kurt Brown", "field_dob": "", "field_dod": "2013", "field_school_movement": "", "view_node": "/poet/kurt-brown", "field_state": ""}, {"poets": "M\u00f4ng-Lan", "field_dob": "", "field_dod": "", "field_school_movement": "", "view_node": "/poet/mong-lan", "field_state": "California"}, {"poets": "Virgil Su\u00e1rez", "field_dob": "", "field_dod": "", "field_school_movement": "Contemporary", "view_node": "/poet/virgil-suarez", "field_state": "Florida"}, {"poets": "Aim\u00e9 C\u00e9saire", "field_dob": "1913", "field_dod": "2008", "field_school_movement": "N\u00e9gritude, Surrealism", "view_node": "/poet/aime-cesaire", "field_state": ""}, {"poets": "Noah Blaustein", "field_dob": "", "field_dod": "", "field_school_movement": "", "view_node": "/poet/noah-blaustein", "field_state": ""}, {"poets": "Kirby Gann", "field_dob": "", "field_dod": "", "field_school_movement": "", "view_node": "/poet/kirby-gann", "field_state": ""}, {"poets": "Bill Zavatsky", "field_dob": "", "field_dod": "", "field_school_movement": "New York School", "view_node": "/poet/bill-zavatsky", "field_state": "New York"}, {"poets": "A. M. Blackmore", "field_dob": "", "field_dod": "", "field_school_movement": "", "view_node": "/poet/m-blackmore", "field_state": ""}, {"poets": "Anne-Marie Cusac", "field_dob": "", "field_dod": "", "field_school_movement": "", "view_node": "/poet/anne-marie-cusac", "field_state": ""}, {"poets": "Jane Hirshfield", "field_dob": "1953", "field_dod": "", "field_school_movement": "", "view_node": "/poet/jane-hirshfield", "field_state": "California"}, {"poets": "Wilma Elizabeth McDaniel", "field_dob": "", "field_dod": "", "field_school_movement": "", "view_node": "/poet/wilma-elizabeth-mcdaniel", "field_state": ""}, {"poets": "Tony Towle", "field_dob": "", "field_dod": "", "field_school_movement": "", "view_node": "/poet/tony-towle", "field_state": ""}, {"poets": "Peter Balakian", "field_dob": "1951", "field_dod": "", "field_school_movement": "", "view_node": "/poet/peter-balakian", "field_state": ""}, {"poets": "John Burt", "field_dob": "", "field_dod": "", "field_school_movement": "", "view_node": "/poet/john-burt", "field_state": ""}, {"poets": "Anne Portugal", "field_dob": "", "field_dod": "", "field_school_movement": "", "view_node": "/poet/anne-portugal", "field_state": ""}, {"poets": "Norma Cole", "field_dob": "", "field_dod": "", "field_school_movement": "", "view_node": "/poet/norma-cole", "field_state": ""}], "pager": {"current_page": 172, "total_items": "3766", "total_pages": 189, "items_per_page": 20}}