{"rows": [{"poets": "David McCord", "field_dob": "1897", "field_dod": "1997", "field_school_movement": "", "view_node": "/poet/david-mccord", "field_state": ""}, {"poets": "Janet Little", "field_dob": "", "field_dod": "", "field_school_movement": "", "view_node": "/poet/janet-little", "field_state": ""}, {"poets": "William Allingham", "field_dob": "1824", "field_dod": "1889", "field_school_movement": "", "view_node": "/poet/william-allingham", "field_state": ""}, {"poets": "Robert Bridges", "field_dob": "1844", "field_dod": "1930", "field_school_movement": "Victorian", "view_node": "/poet/robert-bridges", "field_state": ""}, {"poets": "John Stagg", "field_dob": "", "field_dod": "", "field_school_movement": "", "view_node": "/poet/john-stagg", "field_state": ""}, {"poets": "Hortense King Flexner", "field_dob": "", "field_dod": "", "field_school_movement": "", "view_node": "/poet/hortense-king-flexner", "field_state": ""}, {"poets": "Arthur Peterson", "field_dob": "", "field_dod": "", "field_school_movement": "", "view_node": "/poet/arthur-peterson", "field_state": ""}, {"poets": "Winifred M. Letts", "field_dob": "1882", "field_dod": "1972", "field_school_movement": "Poets of World War I", "view_node": "/poet/winifred-m-letts", "field_state": ""}, {"poets": "Lizette Woodworth Reese", "field_dob": "", "field_dod": "", "field_school_movement": "", "view_node": "/poet/lizette-woodworth-reese", "field_state": ""}, {"poets": "Arthur Guiterman", "field_dob": "", "field_dod": "", "field_school_movement": "", "view_node": "/poet/arthur-guiterman", "field_state": ""}, {"poets": "James Stephens", "field_dob": "", "field_dod": "", "field_school_movement": "", "view_node": "/poet/james-stephens", "field_state": ""}, {"poets": "Cathal Bui Mac Giolla Gunna", "field_dob": "1680", "field_dod": "1756", "field_school_movement": "", "view_node": "/poet/cathal-bui-mac-giolla-gunna", "field_state": ""}, {"poets": "F. R. Higgins", "field_dob": "", "field_dod": "", "field_school_movement": "", "view_node": "/poet/f-r-higgins", "field_state": ""}, {"poets": "Anthony Raftery", "field_dob": "", "field_dod": "", "field_school_movement": "", "view_node": "/poet/anthony-raftery", "field_state": ""}, {"poets": "Hailey Leithauser", "field_dob": "", "field_dod": "", "field_school_movement": "", "view_node": "/poet/hailey-leithauser", "field_state": ""}, {"poets": "Avi Sharon", "field_dob": "", "field_dod": "", "field_school_movement": "", "view_node": "/poet/avi-sharon", "field_state": ""}, {"poets": "Jennifer K. Sweeney", "field_dob": "", "field_dod": "", "field_school_movement": "", "view_node": "/poet/jennifer-k-sweeney", "field_state": ""}, {"poets": "Vivian Shipley", "field_dob": "", "field_dod": "", "field_school_movement": "", "view_node": "/poet/vivian-shipley", "field_state": ""}, {"poets": "Burt Kimmelman", "field_dob": "", "field_dod": "", "field_school_movement": "", "view_node": "/poet/burt-kimmelman", "field_state": ""}, {"poets": "Judith Beveridge", "field_dob": "", "field_dod": "", "field_school_movement": "", "view_node": "/poet/judith-beveridge", "field_state": ""}], "pager": {"current_page": 119, "total_items": "3766", "total_pages": 189, "items_per_page": 20}}