{"rows": [{"poets": "Kevin Young", "field_dob": "1970", "field_dod": "", "field_school_movement": "Dark Room Collective", "view_node": "/poet/kevin-young", "field_state": "District of Columbia"}, {"poets": "Mark Halperin", "field_dob": "", "field_dod": "", "field_school_movement": "", "view_node": "/poet/mark-halperin", "field_state": ""}, {"poets": "Myronn Hardy", "field_dob": "", "field_dod": "", "field_school_movement": "", "view_node": "/poet/myronn-hardy", "field_state": ""}, {"poets": "Lisa Jarnot", "field_dob": "", "field_dod": "", "field_school_movement": "", "view_node": "/poet/lisa-jarnot", "field_state": ""}, {"poets": "Ed Ochester", "field_dob": "", "field_dod": "", "field_school_movement": "", "view_node": "/poet/ed-ochester", "field_state": ""}, {"poets": "Gregory Corso", "field_dob": "1930", "field_dod": "2001", "field_school_movement": "Beat", "view_node": "/poet/gregory-corso", "field_state": "New York"}, {"poets": "Jason Shinder", "field_dob": "1955", "field_dod": "2008", "field_school_movement": "", "view_node": "/poet/jason-shinder", "field_state": ""}, {"poets": "Mary Leader", "field_dob": "", "field_dod": "", "field_school_movement": "", "view_node": "/poet/mary-leader", "field_state": ""}, {"poets": "Ray Young Bear", "field_dob": "", "field_dod": "", "field_school_movement": "Surrealism", "view_node": "/poet/ray-young-bear", "field_state": ""}, {"poets": "James Hearst", "field_dob": "", "field_dod": "", "field_school_movement": "", "view_node": "/poet/james-hearst", "field_state": ""}, {"poets": "Leroy V. Quintana", "field_dob": "", "field_dod": "", "field_school_movement": "", "view_node": "/poet/leroy-v-quintana", "field_state": ""}, {"poets": "Christopher Merrill", "field_dob": "", "field_dod": "", "field_school_movement": "", "view_node": "/poet/christopher-merrill", "field_state": ""}, {"poets": "Gary Miranda", "field_dob": "", "field_dod": "", "field_school_movement": "", "view_node": "/poet/gary-miranda", "field_state": ""}, {"poets": "Catie Rosemurgy", "field_dob": "", "field_dod": "", "field_school_movement": "", "view_node": "/poet/catie-rosemurgy", "field_state": ""}, {"poets": "Edwin Honig", "field_dob": "", "field_dod": "", "field_school_movement": "", "view_node": "/poet/edwin-honig", "field_state": ""}, {"poets": "Sarah Getty", "field_dob": "1943", "field_dod": "", "field_school_movement": "Contemporary", "view_node": "/poet/sarah-getty", "field_state": "Massachusetts"}, {"poets": "Lyn Hejinian", "field_dob": "1941", "field_dod": "", "field_school_movement": "Language Poetry", "view_node": "/poet/lyn-hejinian", "field_state": ""}, {"poets": "Sherman Alexie", "field_dob": "1966", "field_dod": "", "field_school_movement": "Contemporary", "view_node": "/poet/sherman-alexie", "field_state": "Washington"}, {"poets": "Charles Bukowski", "field_dob": "1920", "field_dod": "1994", "field_school_movement": "", "view_node": "/poet/charles-bukowski", "field_state": "California"}, {"poets": "Simon J. Ortiz", "field_dob": "1941", "field_dod": "", "field_school_movement": "Contemporary", "view_node": "/poet/simon-j-ortiz", "field_state": "New Mexico"}], "pager": {"current_page": 179, "total_items": "3766", "total_pages": 189, "items_per_page": 20}}