{"rows": [{"poets": "Kristina Martino ", "field_dob": "", "field_dod": "", "field_school_movement": "", "view_node": "/poet/kristina-martino", "field_state": ""}, {"poets": "Claire Wahmanholm", "field_dob": "", "field_dod": "", "field_school_movement": "", "view_node": "/poet/claire-wahmanholm", "field_state": ""}, {"poets": "Zo\u00eb Hitzig", "field_dob": "", "field_dod": "", "field_school_movement": "", "view_node": "/poet/zoe-hitzig", "field_state": ""}, {"poets": "Sy Hoahwah", "field_dob": "", "field_dod": "", "field_school_movement": "", "view_node": "/poet/sy-hoahwah", "field_state": ""}, {"poets": "Tacey M. Atsitty", "field_dob": "", "field_dod": "", "field_school_movement": "", "view_node": "/poet/tacey-m-atsitty", "field_state": ""}, {"poets": "Pamela Uschuk", "field_dob": "", "field_dod": "", "field_school_movement": "", "view_node": "/poet/pamela-uschuk", "field_state": ""}, {"poets": "Threa Almontaser", "field_dob": "", "field_dod": "", "field_school_movement": "", "view_node": "/poet/threa-almontaser", "field_state": ""}, {"poets": "Marilyn Kallet", "field_dob": "", "field_dod": "", "field_school_movement": "", "view_node": "/poet/marilyn-kallet", "field_state": ""}, {"poets": "Katie Condon", "field_dob": "", "field_dod": "", "field_school_movement": "", "view_node": "/poet/katie-condon", "field_state": ""}, {"poets": "Genya Turovskaya", "field_dob": "", "field_dod": "", "field_school_movement": "", "view_node": "/poet/genya-turovskaya", "field_state": ""}, {"poets": "Carrie Ayagaduk Ojanen\t", "field_dob": "", "field_dod": "", "field_school_movement": "", "view_node": "/poet/carrie-ayagaduk-ojanen", "field_state": "Washington"}, {"poets": "Allison Pitinii Davis", "field_dob": "", "field_dod": "", "field_school_movement": "", "view_node": "/poet/allison-pitinii-davis", "field_state": ""}, {"poets": "dg nanouk okpik", "field_dob": "", "field_dod": "", "field_school_movement": "", "view_node": "/poet/dg-nanouk-okpik", "field_state": "Alaska"}, {"poets": "Benjamin Garcia", "field_dob": "", "field_dod": "", "field_school_movement": "", "view_node": "/poet/benjamin-garcia", "field_state": ""}, {"poets": "Emily Yong", "field_dob": "", "field_dod": "", "field_school_movement": "", "view_node": "/poet/emily-yong", "field_state": ""}, {"poets": "J.P. Grasser", "field_dob": "", "field_dod": "", "field_school_movement": "", "view_node": "/poet/jp-grasser", "field_state": ""}, {"poets": "Anthony Cody", "field_dob": "", "field_dod": "", "field_school_movement": "", "view_node": "/poet/anthony-cody", "field_state": ""}, {"poets": "Elizabeth Cady Stanton", "field_dob": "1815", "field_dod": "1902", "field_school_movement": "", "view_node": "/poet/elizabeth-cady-stanton", "field_state": ""}, {"poets": "Alice Duer Miller", "field_dob": "1874", "field_dod": "1942", "field_school_movement": "", "view_node": "/poet/alice-duer-miller", "field_state": ""}, {"poets": "Mary Weston Fordham", "field_dob": "1843", "field_dod": "1905", "field_school_movement": "", "view_node": "/poet/mary-weston-fordham", "field_state": ""}], "pager": {"current_page": 27, "total_items": "3766", "total_pages": 189, "items_per_page": 20}}