{"rows": [{"poets": "Alan Felsenthal", "field_dob": "", "field_dod": "", "field_school_movement": "", "view_node": "/poet/alan-felsenthal", "field_state": ""}, {"poets": "Mia You", "field_dob": "", "field_dod": "", "field_school_movement": "", "view_node": "/poet/mia-you", "field_state": ""}, {"poets": "Roberto Carlos Garcia", "field_dob": "", "field_dod": "", "field_school_movement": "", "view_node": "/poet/roberto-carlos-garcia", "field_state": ""}, {"poets": "Michael Ruby", "field_dob": "", "field_dod": "", "field_school_movement": "", "view_node": "/poet/michael-ruby", "field_state": ""}, {"poets": "Elizabeth Metzger", "field_dob": "", "field_dod": "", "field_school_movement": "", "view_node": "/poet/elizabeth-metzger", "field_state": ""}, {"poets": "Samiya Bashir", "field_dob": "", "field_dod": "", "field_school_movement": "", "view_node": "/poet/samiya-bashir", "field_state": ""}, {"poets": "Risa Denenberg", "field_dob": "", "field_dod": "", "field_school_movement": "", "view_node": "/poet/risa-denenberg", "field_state": ""}, {"poets": "Jacqueline Jones LaMon", "field_dob": "", "field_dod": "", "field_school_movement": "", "view_node": "/poet/jacqueline-jones-lamon", "field_state": ""}, {"poets": "Harry Mathews", "field_dob": "1930", "field_dod": "2017", "field_school_movement": "OULIPO, New York School", "view_node": "/poet/harry-mathews", "field_state": ""}, {"poets": "Melissa Buzzeo", "field_dob": "", "field_dod": "", "field_school_movement": "", "view_node": "/poet/melissa-buzzeo", "field_state": ""}, {"poets": "Sheila Black", "field_dob": "", "field_dod": "", "field_school_movement": "", "view_node": "/poet/sheila-black", "field_state": ""}, {"poets": "R. Erica Doyle", "field_dob": "", "field_dod": "", "field_school_movement": "", "view_node": "/poet/r-erica-doyle", "field_state": "New York"}, {"poets": "Hanif Abdurraqib", "field_dob": "", "field_dod": "", "field_school_movement": "", "view_node": "/poet/hanif-abdurraqib", "field_state": "Ohio"}, {"poets": "Melvin Dixon", "field_dob": "1950", "field_dod": "1992", "field_school_movement": "", "view_node": "/poet/melvin-dixon", "field_state": "Connecticut"}, {"poets": "Michael Klein", "field_dob": "", "field_dod": "", "field_school_movement": "", "view_node": "/poet/michael-klein", "field_state": ""}, {"poets": "Soul Vang", "field_dob": "", "field_dod": "", "field_school_movement": "", "view_node": "/poet/soul-vang", "field_state": "California"}, {"poets": "Effie Lee Newsome", "field_dob": "1885", "field_dod": "1979", "field_school_movement": "", "view_node": "/poet/effie-lee-newsome", "field_state": "Ohio"}, {"poets": "Margaret Esse Danner", "field_dob": "1915", "field_dod": "1984", "field_school_movement": "", "view_node": "/poet/margaret-esse-danner", "field_state": "Illinois"}, {"poets": "Dudley Randall", "field_dob": "1914", "field_dod": "2000", "field_school_movement": "Black Arts", "view_node": "/poet/dudley-randall", "field_state": "Michigan"}, {"poets": "Hieu Minh Nguyen", "field_dob": "", "field_dod": "", "field_school_movement": "", "view_node": "/poet/hieu-minh-nguyen", "field_state": ""}], "pager": {"current_page": 63, "total_items": "3766", "total_pages": 189, "items_per_page": 20}}