{"rows": [{"poets": "Louis Untermeyer", "field_dob": "", "field_dod": "", "field_school_movement": "", "view_node": "/poet/louis-untermeyer", "field_state": ""}, {"poets": "K-Ming Chang", "field_dob": "", "field_dod": "", "field_school_movement": "", "view_node": "/poet/k-ming-chang", "field_state": ""}, {"poets": "Zubair Ahmed", "field_dob": "", "field_dod": "", "field_school_movement": "", "view_node": "/poet/zubair-ahmed", "field_state": ""}, {"poets": "Chloe Honum", "field_dob": "", "field_dod": "", "field_school_movement": "", "view_node": "/poet/chloe-honum", "field_state": ""}, {"poets": "Kim Shuck", "field_dob": "", "field_dod": "", "field_school_movement": "", "view_node": "/poet/kim-shuck", "field_state": "California"}, {"poets": "Jeanetta Calhoun Mish", "field_dob": "", "field_dod": "", "field_school_movement": "", "view_node": "/poet/jeanetta-calhoun-mish", "field_state": "Oklahoma"}, {"poets": "Ed Madden", "field_dob": "", "field_dod": "", "field_school_movement": "", "view_node": "/poet/ed-madden", "field_state": "South Carolina"}, {"poets": "Fred L. Joiner", "field_dob": "", "field_dod": "", "field_school_movement": "", "view_node": "/poet/fred-l-joiner", "field_state": "North Carolina"}, {"poets": "Jaki Shelton Green", "field_dob": "", "field_dod": "", "field_school_movement": "", "view_node": "/poet/jaki-shelton-green", "field_state": "North Carolina"}, {"poets": "Molly Fisk", "field_dob": "", "field_dod": "", "field_school_movement": "", "view_node": "/poet/molly-fisk", "field_state": "California"}, {"poets": "Grace Cavalieri", "field_dob": "", "field_dod": "", "field_school_movement": "", "view_node": "/poet/grace-cavalieri", "field_state": "Maryland"}, {"poets": "Dante Di Stefano", "field_dob": "", "field_dod": "", "field_school_movement": "", "view_node": "/poet/dante-di-stefano", "field_state": ""}, {"poets": "Jonathan Farmer", "field_dob": "", "field_dod": "", "field_school_movement": "", "view_node": "/poet/jonathan-farmer", "field_state": "North Carolina"}, {"poets": "Caroline Crew", "field_dob": "", "field_dod": "", "field_school_movement": "", "view_node": "/poet/caroline-crew", "field_state": ""}, {"poets": "Kayvan Tahmasebian", "field_dob": "", "field_dod": "", "field_school_movement": "", "view_node": "/poet/kayvan-tahmasebian", "field_state": ""}, {"poets": "Bijan Elahi ", "field_dob": "1945", "field_dod": "2010", "field_school_movement": "", "view_node": "/poet/bijan-elahi", "field_state": ""}, {"poets": "Jean-Paul de Dadelsen", "field_dob": "1913", "field_dod": "", "field_school_movement": "", "view_node": "/poet/jean-paul-de-dadelsen", "field_state": ""}, {"poets": "Aria Aber", "field_dob": "", "field_dod": "", "field_school_movement": "", "view_node": "/poet/aria-aber", "field_state": ""}, {"poets": "Fernando Valverde", "field_dob": "", "field_dod": "", "field_school_movement": "", "view_node": "/poet/fernando-valverde", "field_state": ""}, {"poets": "Didi Jackson", "field_dob": "", "field_dod": "", "field_school_movement": "", "view_node": "/poet/didi-jackson", "field_state": ""}], "pager": {"current_page": 37, "total_items": "3766", "total_pages": 189, "items_per_page": 20}}