{"rows": [{"poets": "Jill  Osier", "field_dob": "", "field_dod": "", "field_school_movement": "", "view_node": "/poet/jill-osier", "field_state": "Alaska"}, {"poets": "Kim Young", "field_dob": "", "field_dod": "", "field_school_movement": "", "view_node": "/poet/kim-young", "field_state": "California"}, {"poets": "Brian Simoneau", "field_dob": "", "field_dod": "", "field_school_movement": "", "view_node": "/poet/brian-simoneau", "field_state": "Connecticut"}, {"poets": "Jay Leeming", "field_dob": "", "field_dod": "", "field_school_movement": "", "view_node": "/poet/jay-leeming", "field_state": "New York"}, {"poets": "Brandon Krieg", "field_dob": "", "field_dod": "", "field_school_movement": "", "view_node": "/poet/brandon-krieg", "field_state": "Missouri"}, {"poets": "Charlene Fix", "field_dob": "", "field_dod": "", "field_school_movement": "", "view_node": "/poet/charlene-fix", "field_state": "Ohio"}, {"poets": "Aaron Coleman", "field_dob": "", "field_dod": "", "field_school_movement": "", "view_node": "/poet/aaron-coleman", "field_state": "Missouri"}, {"poets": "Christopher Brunt", "field_dob": "", "field_dod": "", "field_school_movement": "", "view_node": "/poet/christopher-brunt", "field_state": ""}, {"poets": "Jessica Ankeny", "field_dob": "", "field_dod": "", "field_school_movement": "", "view_node": "/poet/jessica-ankeny", "field_state": "California"}, {"poets": "Rose Styron", "field_dob": "", "field_dod": "", "field_school_movement": "", "view_node": "/poet/rose-styron", "field_state": ""}, {"poets": "John Freeman", "field_dob": "", "field_dod": "", "field_school_movement": "", "view_node": "/poet/john-freeman", "field_state": ""}, {"poets": "Richard Calmit Adams", "field_dob": "1864", "field_dod": "1921", "field_school_movement": "", "view_node": "/poet/richard-calmit-adams", "field_state": ""}, {"poets": "Anna Hempstead Branch", "field_dob": "", "field_dod": "", "field_school_movement": "", "view_node": "/poet/anna-hempstead-branch", "field_state": ""}, {"poets": "Celina Su", "field_dob": "", "field_dod": "", "field_school_movement": "", "view_node": "/poet/celina-su", "field_state": ""}, {"poets": "Javier Zamora", "field_dob": "", "field_dod": "", "field_school_movement": "", "view_node": "/poet/javier-zamora", "field_state": ""}, {"poets": "Miguel Algar\u00edn", "field_dob": "1941", "field_dod": "2020", "field_school_movement": "Nuyorican Poetry", "view_node": "/poet/miguel-algarin", "field_state": ""}, {"poets": "F. S. Flint", "field_dob": "1885", "field_dod": "1960", "field_school_movement": "Imagism", "view_node": "/poet/f-s-flint", "field_state": ""}, {"poets": "Jos\u00e9 B. Gonz\u00e1lez", "field_dob": "", "field_dod": "", "field_school_movement": "", "view_node": "/poet/jose-b-gonzalez", "field_state": ""}, {"poets": "Andr\u00e9s Montoya", "field_dob": "1968", "field_dod": "1999", "field_school_movement": "", "view_node": "/poet/andres-montoya", "field_state": ""}, {"poets": "Cindy Williams Guti\u00e9rrez", "field_dob": "", "field_dod": "", "field_school_movement": "", "view_node": "/poet/cindy-williams-gutierrez", "field_state": ""}], "pager": {"current_page": 58, "total_items": "3766", "total_pages": 189, "items_per_page": 20}}